555 86
555 87
555 88
555 89
555 90
556 91
556 92
556 93
556 94
556 95
556 96
557 97
557 98
557 99
557 100
557 101
558 102
558 103
558 104
559 105
559 106
559 107
560 108
560 109
560 110
560 111
561 112
561 113
561 114
561 115
562 116
562 117
562 118
563 119
563 120
563 121
563 122
563 123
564 124
564 125
564 126
564 127
565 128
565 129
565 130
565 131
566 132
566 133
566 134
566 135
567 136
567 137
567 138
567 139
568 140
568 141
568 142
569 143
569 144
569 145
569 146
570 147
570 148
570 149
571 150
571 151
571 152
571 153
571 154
571 155
571 156
571 157
571 158
571 159
572 160
572 161
572 162
572 163
572 164
572 165
572 166
572 167
572 168
572 169
572 170
572 171
572 172
572 173
572 174
573 175
573 176
573 177
573 178
573 179
573 180
573 181
573 182
573 183
573 184
573 185
573 186
573 187
573 188
573 189
573 190
573 191
573 192
574 193
574 194
574 195
574 196
574 197
574 198
574 199
575 200
575 201
575 202
575 203
575 204
576 205
576 206
576 207
576 208
577 209
577 210
577 211
577 212
577 213
578 214
578 215
578 216
579 217
579 218
579 219
579 220
579 221
580 222
580 223
580 224
580 225
580 226
581 227
581 228
581 229
581 230
581 231
581 232
581 233
581 234
581 235
581 236
581 237
580 238
579 237
578 237
577 236
577 235
576 234
576 233
575 232
574 231
574 230
573 229
572 228
571 227
570 226
569 225
568 224
568 223
567 222
566 221
565 220
565 219
564 218
563 217
562 216
561 215
560 214
559 213
558 212
557 211
556 210
555 209
554 208
553 207
552 206
551 205
550 205
549 204
548 203
547 202
546 201
545 200
544 199
543 199
542 198
541 197
540 196
539 195
538 194
537 193
536 192
535 191
534 190
533 189
532 188
531 187
530 186
529 185
528 185
527 184
526 183
525 182
524 181
523 180
522 180
521 179
520 178
519 177
518 177
517 176
516 175
515 174
514 173
513 173
512 172
511 171
510 170
509 170
508 169
507 168
506 167
505 167
504 166
503 165
502 165
501 164
500 164
499 163
498 163
497 162
496 162
495 161
494 161
493 161
492 160
491 160
490 159
489 159
488 158
487 158
486 158
485 157
484 157
483 157
482 156
481 156
480 155
479 155
478 155
477 154
476 154
475 154
474 153
473 153
472 152
471 152
470 151
469 151
468 150
467 150
466 150
465 149
464 148
463 148
462 147
461 147
460 146
459 146
458 145
457 145
456 144
455 144
454 143
453 143
452 143
451 142
450 142
449 141
448 141
447 140
446 140
445 140
444 139
443 139
442 139
441 138
440 138
439 138
438 138
437 137
436 137
435 137
434 136
433 136
432 136
431 136
430 135
429 135
428 135
427 134
426 134
425 134
424 134
423 133
422 133
421 133
420 133
419 132
418 132
417 132
416 131
415 131
414 131
413 130
412 130
411 130
410 129
409 129
408 129
407 129
406 129
405 128
404 128
403 128
402 127
401 127
400 127
399 126
398 126
397 126
396 125
395 125
394 125
393 124
392 124
391 124
390 124
389 123
388 123
387 122
386 122
385 122
384 122
383 121
382 121
381 121
380 120
379 120
378 120
377 119
376 119
375 118
374 118
373 118
372 117
371 117
370 117
369 117
368 116
367 116
366 115
365 115
364 115
363 114
362 114
361 114
360 113
359 113
358 113
357 112
356 112
355 111
354 111
353 111
352 110
351 110
350 110
349 109
348 109
347 109
346 109
345 108
344 108
343 108
342 107
341 107
340 106
339 106
338 106
337 105
336 105
335 104
334 104
333 103
332 103
331 102
330 102
329 102
328 101
327 101
326 100
325 100
324 100
323 100
322 99
321 99
320 98
319 98
318 97
317 97
316 97
315 97
314 97
313 96
312 96
311 97
310 97
309 97
308 97
309 98
309 99
309 100
310 101
311 102
311 103
312 104
313 105
314 106
315 107
316 108
317 109
318 110
319 111
320 112
321 112
322 113
323 114
324 115
325 115
326 116
327 117
328 118
329 119
330 120
331 120
332 121
332 122
333 123
334 123
335 124
336 125
337 126
338 127
339 128
340 128
341 129
342 130
343 131
344 131
345 132
346 133
347 134
348 135
349 136
350 136
351 137
352 138
353 139
354 140
355 141
356 141
357 142
358 143
359 144
360 145
361 146
362 146
363 147
364 148
365 149
366 150
367 151
368 151
369 152
370 153
371 154
372 155
373 156
374 157
375 158
376 159
377 160
378 160
379 161
380 162
381 163
382 164
383 165
384 166
385 167
386 168
387 169
388 170
389 171
390 172
391 173
391 174
392 174
393 175
394 176
395 177
395 178
396 178
397 179
398 180
399 181
400 182
401 183
402 184
403 185
404 186
405 186
406 187
407 188
408 189
409 189
410 190
411 191
412 191
413 192
414 192
415 192
416 193
417 194
418 195
419 195
420 196
421 196
422 197
423 198
424 198
425 199
426 199
427 200
428 201
429 201
430 202
431 202
432 203
433 204
434 204
435 205
436 205
437 206
438 206
439 207
440 208
441 208
442 209
443 209
444 210
445 211
446 212
447 212
448 213
449 214
450 215
450 216
451 216
452 217
453 218
454 219
453 220
452 220
451 220
450 219
449 219
448 219
447 218
446 218
445 217
444 217
443 217
442 216
441 216
440 216
439 215
438 215
437 215
436 214
435 214
434 214
433 214
432 213
431 213
430 213
429 213
428 212
427 212
426 212
425 212
424 211
423 211
422 211
421 211
420 211
419 211
418 210
417 210
416 210
415 210
414 209
413 209
412 209
411 209
410 208
409 208
408 207
407 207
406 207
405 206
404 206
403 206
402 205
401 205
400 205
399 205
398 204
397 204
396 204
395 203
394 203
393 203
392 202
391 202
390 202
389 201
388 201
387 201
386 201
385 201
384 201
383 201
382 200
381 200
380 200
379 200
378 200
377 200
376 200
375 200
374 200
373 200
372 200
371 200
370 200
369 200
368 199
367 199
366 199
365 199
364 199
363 199
362 199
361 199
360 199
359 199
358 199
357 199
356 199
355 199
354 199
353 199
352 199
351 199
350 199
349 198
348 198
347 198
346 198
345 198
344 198
343 198
342 197
341 197
340 197
339 197
338 197
337 197
336 196
335 196
334 196
333 196
332 196
331 196
330 196
329 196
328 196
327 196
326 196
325 196
324 196
323 196
322 196
321 196
320 196
319 196
318 196
317 196
316 196
315 196
314 196
313 196
312 196
311 196
310 196
309 196
308 196
307 196
306 196
305 196
304 195
303 195
302 195
301 195
300 195
299 195
298 195
297 195
296 195
295 195
294 194
293 194
292 194
291 194
290 194
289 194
288 194
287 193
286 193
285 193
284 193
283 193
282 193
281 193
280 193
279 193
278 192
277 192
276 192
275 192
274 192
273 192
272 191
271 191
270 191
269 191
268 191
267 191
266 191
265 190
264 190
263 190
262 190
261 190
260 190
259 190
258 190
257 190
256 190
255 189
254 189
253 189
252 189
251 189
250 189
249 189
248 189
247 188
246 188
245 188
244 188
243 187
242 187
241 187
240 187
239 187
238 187
237 187
236 187
235 186
234 186
233 186
232 186
231 186
230 186
229 186
228 186
227 186
226 186
225 185
224 185
223 185
222 185
221 185
220 185
219 185
218 185
217 185
216 184
215 184
214 184
213 184
212 184
211 184
210 184
209 184
208 184
207 183
206 183
205 183
204 183
203 183
202 183
201 183
200 183
199 182
198 182
197 182
196 182
195 182
194 181
193 181
192 181
191 181
190 181
189 181
188 181
187 181
186 181
185 181
184 180
183 180
182 180
181 179
180 179
179 179
178 179
177 178
176 178
175 178
174 178
173 178
172 178
171 178
170 178
169 178
168 178
167 178
166 178
165 177
164 177
163 177
162 177
161 177
160 177
159 177
158 177
157 177
156 177
155 176
154 176
153 176
152 176
151 176
150 176
149 176
148 176
147 176
146 176
145 176
144 176
143 176
142 177
141 177
140 177
139 177
138 177
137 177
136 178
136 179
137 180
137 181
138 181
139 182
140 183
141 183
142 184
143 184
144 184
145 185
146 186
147 186
148 187
149 187
150 188
151 188
152 188
153 189
154 189
155 190
156 190
157 191
158 191
159 192
160 192
161 193
162 193
163 194
164 194
165 195
166 195
167 196
168 197
169 197
170 198
171 199
172 199
173 200
174 200
175 201
176 201
177 202
178 202
179 202
180 203
181 203
182 204
183 204
184 205
185 205
186 206
187 206
188 207
189 207
190 208
191 208
192 208
193 209
194 210
195 210
196 211
197 212
198 212
199 213
200 213
201 214
202 214
203 215
204 215
205 216
206 216
207 217
208 218
209 218
210 219
211 219
212 220
213 220
214 221
215 222
216 222
217 223
218 223
219 224
220 224
221 225
222 225
223 226
224 227
225 227
226 228
227 228
228 229
229 229
230 230
231 230
232 230
233 231
234 232
235 232
236 233
237 233
238 233
239 234
240 234
241 235
242 235
243 235
244 236
245 236
246 236
247 237
248 237
249 238
250 238
251 239
252 239
253 240
254 240
255 241
256 241
257 241
258 242
259 242
260 243
261 244
262 244
263 245
264 245
265 246
266 246
267 247
268 247
269 248
270 249
271 249
272 250
273 250
274 251
275 252
276 252
277 253
278 253
279 254
280 254
281 255
282 255
283 256
284 256
285 256
286 257
287 257
288 258
289 258
290 259
291 259
292 260
293 260
294 261
295 261
296 262
297 262
298 263
299 263
300 263
301 264
302 264
303 264
304 265
305 265
306 265
307 266
308 266
309 266
310 267
311 267
312 268
313 268
314 268
315 269
316 269
317 270
318 270
319 270
320 271
321 271
322 272
323 272
324 272
325 273
326 273
327 274
328 274
329 274
330 275
331 275
332 276
333 276
334 276
335 276
336 277
337 277
338 277
339 277
340 278
341 278
342 278
343 278
344 279
345 279
346 279
347 280
348 280
349 280
350 281
351 281
352 281
353 281
354 282
355 282
356 282
357 283
358 283
359 283
360 284
361 284
362 284
363 285
364 285
365 285
366 285
367 285
368 286
369 286
370 286
371 286
372 286
373 286
374 286
375 287
376 287
377 287
378 287
379 287
380 287
381 288
382 288
383 288
384 289
385 289
386 289
387 290
388 290
389 290
390 291
391 291
392 291
393 292
394 292
395 292
396 293
397 293
398 293
399 294
400 294
401 294
402 295
403 295
404 295
405 296
406 296
407 296
408 297
409 297
410 298
411 298
412 298
413 298
414 299
415 299
416 299
417 299
418 299
419 299
420 299
421 300
422 300
423 300
424 300
425 300
426 300
427 300
428 300
429 300
430 300
431 301
432 301
433 301
434 301
435 301
436 301
437 302
438 302
439 302
440 302
441 303
442 303
443 303
444 304
445 304
446 304
447 304
448 304
449 305
450 305
451 305
452 305
453 306
454 306
455 306
456 306
457 306
458 307
459 307
460 307
461 307
462 307
463 308
464 308
465 308
466 308
467 308
468 308
469 308
470 308
471 308
472 308
473 308
474 308
475 308
476 308
477 308
478 308
479 308
480 308
481 309
480 310
479 310
478 310
477 310
476 310
475 310
474 310
473 310
472 311
471 311
470 311
469 311
468 311
467 311
466 311
465 311
464 312
463 312
462 312
461 312
460 312
459 312
458 312
457 312
456 312
455 313
454 313
453 313
452 313
451 313
450 313
449 313
448 313
447 313
446 314
445 314
444 314
443 314
442 314
441 314
440 314
439 314
438 314
437 314
436 314
435 314
434 314
433 314
432 314
431 314
430 315
429 315
428 315
427 315
426 315
425 315
424 316
423 316
422 316
421 316
420 316
419 316
418 316
417 316
416 317
415 317
414 317
413 317
412 317
411 318
410 318
409 318
408 318
407 319
406 319
405 319
404 320
403 320
402 321
401 321
400 322
399 322
398 322
397 323
396 323
395 323
394 324
393 324
392 325
391 325
390 325
389 325
388 326
387 326
386 326
385 327
384 327
383 328
382 328
381 328
380 329
379 329
378 329
377 329
376 330
375 330
374 330
373 330
372 330
371 331
370 331
369 331
368 332
367 332
366 333
365 333
364 334
363 335
362 335
361 336
360 337
359 337
358 338
357 338
356 339
355 339
354 339
353 340
352 340
351 341
350 341
349 341
348 342
347 342
346 342
345 343
344 343
343 343
342 344
341 344
340 345
339 345
338 345
337 346
336 346
335 346
334 347
333 347
332 347
331 348
330 348
329 349
328 349
327 350
326 350
325 350
324 351
323 351
322 351
321 352
320 352
319 353
318 353
317 354
316 354
315 354
314 355
313 355
312 356
311 356
310 357
309 357
308 358
307 358
306 358
305 359
304 359
303 360
302 360
301 360
300 361
299 361
298 361
297 362
296 362
295 362
294 363
293 363
292 364
291 364
290 364
289 365
288 365
287 366
286 366
285 366
284 367
283 367
282 368
281 368
280 369
279 369
278 369
277 369
276 370
275 370
274 371
273 371
272 371
271 372
270 372
269 372
268 373
267 373
266 374
265 375
264 375
263 376
262 376
261 377
260 377
259 378
258 378
257 378
256 379
255 380
254 380
253 380
252 381
251 381
250 382
249 383
248 383
247 384
246 385
245 385
244 386
243 386
242 387
241 388
240 388
239 389
238 389
237 390
236 391
235 392
234 392
233 393
232 394
231 394
230 395
229 396
228 397
227 397
226 398
225 399
224 399
223 400
222 401
221 401
220 402
219 402
218 403
217 403
216 403
215 404
214 404
213 405
212 405
211 406
210 406
209 407
208 407
207 408
206 408
205 409
204 409
203 410
202 410
201 411
200 412
199 412
198 413
197 413
196 414
195 414
194 415
193 415
192 416
191 417
190 417
189 418
188 418
187 419
186 419
185 420
184 420
183 421
182 421
181 422
180 422
179 423
178 424
177 424
176 425
175 425
174 426
173 427
172 427
171 428
170 429
169 429
168 430
167 431
166 432
165 433
165 434
164 435
163 435
162 436
161 437
160 438
159 438
158 439
157 440
156 441
155 442
154 443
153 444
152 445
151 446
150 446
149 447
148 448
147 449
146 449
145 450
144 451
143 452
142 452
141 453
140 454
139 454
138 455
137 455
136 456
135 457
134 458
133 458
132 459
131 459
130 460
129 460
128 461
127 462
126 462
125 463
124 463
123 464
122 465
121 466
120 466
119 467
118 468
117 468
116 469
115 469
114 470
113 471
112 471
111 472
110 472
109 473
108 474
107 474
106 475
105 476
104 476
103 477
102 477
101 478
100 479
99 479
98 480
97 480
96 481
95 482
94 482
93 483
92 483
91 483
90 484
89 485
88 485
87 486
86 486
85 487
84 487
83 488
82 489
81 489
80 490
79 490
78 491
77 492
76 492
75 493
74 493
73 494
72 495
71 495
70 496
69 496
68 497
67 498
66 498
65 499
64 499
63 500
62 500
61 501
60 502
59 502
58 503
57 503
56 504
55 504
54 505
53 505
52 505
51 506
50 506
49 507
48 508
47 508
46 509
45 509
44 510
43 510
42 511
41 511
40 512
39 512
38 513
37 513
36 514
35 514
34 515
33 516
32 516
31 517
30 517
29 518
28 518
27 519
26 519
25 520
24 520
23 521
22 521
21 522
21 523
21 524
22 524
23 524
24 524
25 524
26 524
27 524
28 524
29 524
30 524
31 524
32 524
33 524
34 524
35 524
36 524
37 524
38 523
39 523
40 523
41 523
42 523
43 522
44 522
45 522
46 522
47 522
48 522
49 521
50 521
51 521
52 520
53 520
54 520
55 520
56 520
57 519
58 519
59 519
60 519
61 519
62 519
63 519
64 519
65 518
66 518
67 518
68 518
69 518
70 518
71 518
72 518
73 518
74 517
75 517
76 517
77 517
78 517
79 517
80 516
81 516
82 516
83 516
84 516
85 516
86 515
87 515
88 515
89 515
90 515
91 514
92 514
93 514
94 513
95 513
96 513
97 513
98 513
99 512
100 512
101 512
102 512
103 512
104 512
105 512
106 511
107 511
108 511
109 511
110 511
111 511
112 511
113 510
114 510
115 510
116 510
117 510
118 509
119 509
120 509
121 509
122 508
123 508
124 508
125 507
126 507
127 506
128 506
129 505
130 505
131 505
132 504
133 504
134 504
135 503
136 503
137 502
138 502
139 501
140 501
141 501
142 501
143 500
144 500
145 500
146 500
147 499
148 499
149 499
150 499
151 498
152 498
153 498
154 498
155 498
156 497
157 497
158 497
159 497
160 497
161 497
162 497
163 497
164 496
165 496
166 496
167 496
168 496
169 496
170 496
171 496
172 496
173 496
174 495
175 495
176 495
177 495
178 495
179 495
180 494
181 494
182 494
183 494
184 494
185 493
186 493
187 493
188 493
189 493
190 492
191 492
192 492
193 492
194 492
195 492
196 491
197 491
198 491
199 491
200 491
201 490
202 490
203 490
204 490
205 490
206 490
207 489
208 489
209 489
210 489
211 489
212 488
213 488
214 488
215 488
216 488
217 488
218 488
219 488
220 487
221 487
222 487
223 486
224 486
225 485
226 485
227 484
228 484
229 484
230 483
231 483
232 483
233 482
234 482
235 482
236 481
237 481
238 481
239 481
240 480
241 480
242 480
243 480
244 480
245 480
246 479
247 479
248 479
249 479
250 479
251 478
252 478
253 478
254 478
255 477
256 477
257 477
258 477
259 476
260 476
261 476
262 476
263 475
264 475
265 475
266 475
267 475
268 474
269 474
270 473
271 473
272 473
273 472
274 472
275 472
276 471
277 471
278 471
279 470
280 470
281 470
282 469
283 469
284 468
285 468
286 468
287 467
288 467
289 467
290 467
291 466
292 466
293 466
294 466
295 466
296 465
297 465
298 465
299 465
300 465
301 465
302 465
303 464
304 464
305 464
306 464
307 463
308 463
309 463
310 462
311 462
312 462
313 461
314 461
315 460
316 460
317 459
318 459
319 458
320 458
321 457
322 457
323 457
324 457
325 456
326 456
327 455
328 455
329 454
330 454
331 454
332 453
333 453
334 452
335 452
336 451
337 451
338 450
339 450
340 449
341 449
342 448
343 448
344 447
345 447
346 446
347 446
348 446
349 446
350 445
351 445
352 445
353 444
354 444
355 444
356 443
357 443
358 443
359 442
360 442
361 442
362 441
363 441
364 441
365 440
366 440
367 439
368 439
369 439
370 439
371 438
372 438
373 438
374 438
375 437
376 437
377 437
378 437
379 436
380 436
381 436
382 435
383 435
384 434
385 434
386 433
387 433
388 433
389 432
390 432
391 431
392 431
393 430
394 430
395 429
396 428
397 428
398 428
399 427
400 427
401 426
402 425
403 425
404 425
405 424
406 424
407 423
408 423
409 422
410 422
411 422
412 421
413 421
414 420
415 420
416 420
417 419
418 418
419 418
420 417
421 416
422 416
423 415
424 414
425 414
426 413
427 413
428 412
429 411
430 411
431 410
432 410
433 409
434 408
435 408
436 407
437 406
438 406
439 405
440 404
441 403
442 403
443 402
444 402
445 401
446 401
447 400
448 400
449 399
450 399
451 398
452 398
453 397
454 397
455 396
456 396
457 395
458 395
459 394
460 394
461 394
462 394
463 394
464 394
465 394
466 394
467 395
466 396
465 397
464 398
464 399
463 400
462 400
461 401
460 402
460 403
459 404
458 405
457 405
456 406
455 407
454 408
453 409
452 410
451 411
450 412
449 413
448 414
447 415
446 416
445 417
444 418
443 419
442 420
441 421
440 422
439 422
438 423
437 424
436 425
435 426
435 427
434 428
433 429
432 430
432 431
431 432
430 433
429 434
429 435
428 436
427 437
427 438
426 439
425 440
425 441
424 442
423 443
423 444
422 445
421 446
421 447
420 448
420 449
419 450
418 451
418 452
417 453
416 454
416 455
415 456
414 457
414 458
413 459
413 460
412 461
411 462
411 463
410 464
409 465
409 466
408 467
408 468
407 469
406 470
406 471
405 472
404 473
403 474
403 475
402 476
401 477
400 478
399 479
398 480
397 481
397 482
396 483
395 484
395 485
394 486
393 487
393 488
392 489
391 490
390 491
389 492
388 493
387 494
386 495
385 496
385 497
384 498
383 499
382 500
381 501
380 502
380 503
379 504
378 505
377 506
377 507
376 508
375 509
375 510
374 511
373 512
373 513
372 514
372 515
371 516
370 517
370 518
369 519
369 520
368 521
367 522
366 523
365 524
365 525
364 526
364 527
363 528
362 529
362 530
361 531
361 532
360 533
360 534
359 535
359 536
358 537
357 538
357 539
356 540
356 541
355 542
354 543
354 544
353 545
352 546
352 547
351 548
350 549
350 550
349 551
348 552
348 553
347 554
346 555
346 556
345 557
345 558
344 559
344 560
343 561
343 562
343 563
342 564
342 565
341 566
341 567
340 568
339 569
339 570
338 571
337 572
337 573
336 574
336 575
335 576
335 577
334 578
333 579
333 580
332 581
332 582
331 583
330 584
330 585
329 586
328 587
328 588
327 589
326 590
326 591
325 592
325 593
324 594
323 595
323 596
322 597
321 598
321 599
320 600
319 601
319 602
318 603
317 604
317 605
316 606
315 607
315 608
314 609
314 610
313 611
312 612
312 613
311 614
311 615
310 616
309 617
309 618
308 619
308 620
307 621
306 622
306 623
305 624
305 625
304 626
304 627
303 628
303 629
302 630
302 631
301 632
301 633
300 634
300 635
299 636
299 637
298 638
298 639
297 640
297 641
296 642
296 643
296 644
295 645
295 646
294 647
294 648
293 649
293 650
292 651
291 652
291 653
290 654
290 655
289 656
288 657
288 658
287 659
287 660
286 661
286 662
285 663
285 664
284 665
283 666
283 667
282 668
281 669
281 670
280 671
280 672
279 673
279 674
278 675
277 676
277 677
276 678
276 679
275 680
276 680
277 680
278 680
279 680
280 680
281 680
282 680
283 679
284 678
285 678
286 677
287 677
288 676
289 676
290 675
291 674
292 673
293 673
294 672
295 671
296 670
297 670
298 669
299 668
300 667
301 667
302 666
303 665
304 664
305 663
306 662
307 662
308 661
309 660
310 659
311 658
312 657
313 656
314 655
315 654
316 653
317 652
318 651
319 650
320 649
321 648
322 647
323 646
324 646
325 645
326 644
327 643
328 642
329 641
330 640
331 639
332 638
333 637
334 636
335 635
336 634
337 633
338 632
339 631
340 630
341 629
342 628
342 627
343 626
344 625
345 624
346 623
347 622
348 621
349 620
350 620
351 619
352 618
353 618
354 617
355 616
356 616
357 615
358 614
359 613
360 613
361 612
362 612
363 611
364 610
365 610
366 609
367 608
368 607
369 606
370 605
371 604
372 603
373 602
374 601
375 600
376 599
377 598
378 597
379 596
380 595
381 595
382 594
383 593
384 592
385 592
386 591
387 590
388 590
389 589
390 588
391 587
392 586
393 585
394 585
395 584
396 583
397 582
398 582
399 581
400 580
401 579
402 579
403 578
404 577
405 576
406 575
407 574
408 573
409 572
410 572
411 571
412 570
413 569
414 568
415 567
416 566
417 565
418 564
419 563
420 562
421 561
422 560
423 559
424 558
425 557
426 556
427 555
428 555
429 554
430 553
431 552
432 552
433 551
434 550
435 549
436 548
437 547
438 546
439 545
440 544
441 543
442 542
443 542
444 541
445 540
446 539
447 538
448 538
448 537
449 536
450 535
451 534
452 534
452 533
453 532
454 531
455 530
456 529
457 528
458 527
459 526
459 525
460 524
461 523
461 522
462 521
463 520
464 519
464 518
465 517
466 516
467 515
468 514
469 513
470 512
471 511
472 510
473 509
474 508
475 507
476 506
477 505
478 504
479 503
480 502
481 501
482 500
483 499
484 498
485 497
486 496
487 495
488 494
489 493
490 492
491 491
492 490
493 489
494 488
495 488
496 487
497 488
497 489
497 490
496 491
496 492
496 493
495 494
495 495
495 496
494 497
494 498
494 499
494 500
493 501
493 502
493 503
493 504
492 505
492 506
492 507
492 508
492 509
492 510
492 511
492 512
491 513
491 514
491 515
491 516
491 517
491 518
490 519
490 520
489 521
489 522
489 523
488 524
488 525
488 526
487 527
487 528
486 529
486 530
485 531
485 532
485 533
484 534
484 535
484 536
483 537
483 538
482 539
482 540
481 541
481 542
481 543
480 544
479 545
479 546
478 547
478 548
477 549
477 550
477 551
476 552
475 553
475 554
474 555
474 556
474 557
473 558
473 559
472 560
472 561
471 562
471 563
470 564
470 565
469 566
469 567
468 568
467 569
467 570
466 571
466 572
465 573
465 574
464 575
463 576
463 577
462 578
461 579
461 580
460 581
460 582
459 583
459 584
458 585
458 586
457 587
457 588
456 589
455 590
455 591
454 592
454 593
453 594
452 595
452 596
451 597
451 598
450 599
449 600
448 601
448 602
447 603
446 604
445 605
445 606
444 607
443 608
442 609
441 610
441 611
440 612
439 613
438 614
438 615
437 616
436 617
436 618
435 619
434 620
433 621
433 622
432 623
431 624
430 625
430 626
429 627
429 628
428 629
428 630
428 631
427 632
428 632
429 632
430 632
431 633
432 633
433 632
434 632
435 632
436 632
437 631
438 631
439 630
440 629
441 629
442 628
443 628
444 627
445 626
446 626
447 625
448 624
449 624
450 623
451 622
452 621
453 620
454 619
455 618
456 617
457 616
458 615
459 614
460 613
461 612
462 612
463 611
464 610
465 609
466 609
467 608
468 608
469 607
470 606
471 605
472 604
473 603
474 603
475 602
476 601
477 600
478 599
479 598
480 597
481 597
482 596
483 595
484 594
485 593
486 592
487 591
488 590
489 589
490 588
491 587
492 586
493 585
494 584
495 583
496 582
497 581
498 581
499 580
500 579
501 578
501 577
502 576
503 575
504 574
505 573
506 572
507 571
508 570
509 569
510 568
511 567
512 566
513 565
514 564
515 563
516 562
517 561
518 561
519 560
520 559
521 558
521 557
522 556
523 555
524 554
525 553
526 552
526 551
527 550
528 549
529 548
530 547
530 546
531 545
532 544
532 543
533 542
534 541
534 540
535 539
536 538
536 537
537 536
537 535
538 534
538 533
539 532
540 531
541 530
541 529
542 528
543 527
544 526
545 525
546 524
546 523
547 522
548 521
549 520
550 519
551 518
552 517
553 516
554 515
555 514
555 513
556 512
557 511
558 510
559 509
560 508
560 507
561 506
562 505
563 504
563 503
564 502
564 501
565 500
565 499
566 498
566 497
567 496
568 495
568 494
569 493
569 492
570 491
571 490
571 489
572 488
572 487
573 486
574 485
574 484
575 483
576 482
576 481
577 480
577 479
578 478
579 477
580 476
580 475
581 474
581 473
582 472
583 471
584 470
584 469
585 468
586 467
587 466
588 466
589 466
590 467
590 468
590 469
590 470
590 471
590 472
590 473
590 474
590 475
590 476
590 477
590 478
590 479
590 480
590 481
590 482
590 483
590 484
590 485
590 486
590 487
590 488
590 489
590 490
590 491
589 492
589 493
589 494
589 495
589 496
588 497
588 498
588 499
588 500
588 501
588 502
588 503
587 504
587 505
587 506
587 507
587 508
587 509
587 510
587 511
588 510
589 510
590 509
591 508
592 507
593 506
593 505
594 504
595 503
596 502
596 501
597 500
597 499
597 498
598 497
598 496
599 495
599 494
599 493
600 492
600 491
601 490
601 489
601 488
602 487
602 486
602 485
603 484
603 483
603 482
603 481
604 480
604 479
604 478
605 477
605 476
605 475
605 474
605 473
606 472
606 471
607 470
607 469
607 468
607 467
608 466
608 465
608 464
609 463
609 462
610 461
610 460
611 459
611 458
611 457
612 456
612 455
613 454
613 453
613 452
613 451
614 450
614 449
615 448
615 447
615 446
616 445
616 444
616 443
617 442
617 441
618 440
618 439
618 438
619 437
619 436
620 435
620 434
620 433
620 432
621 431
621 430
622 429
622 428
622 427
623 426
623 425
624 424
624 423
624 422
625 421
625 420
625 419
626 418
626 417
626 416
626 415
626 414
626 413
626 412
626 411
626 410
626 409
626 408
627 407
627 406
627 405
627 404
627 403
628 402
628 401
628 400
628 399
629 398
629 397
629 396
630 395
630 394
630 393
630 392
631 391
631 390
631 389
631 388
632 387
632 386
632 385
632 384
632 383
632 382
632 381
633 380
633 379
633 378
633 377
633 376
633 375
633 374
634 373
634 372
634 371
634 370
634 369
634 368
634 367
634 366
634 365
634 364
634 363
634 362
634 361
634 360
634 359
634 358
634 357
634 356
634 355
633 354
633 353
633 352
633 351
632 350
632 349
632 348
631 347
631 346
630 345
630 344
630 343
629 342
629 341
628 340
628 339
628 338
628 337
627 336
627 335
627 334
626 333
626 332
625 331
625 330
624 329
624 328
623 327
623 326
622 325
621 324
621 323
620 322
620 321
619 320
619 319
618 318
618 317
618 316
618 315
619 314
620 314
621 313
622 313
623 313
624 313
625 313
626 312
627 312
628 312
629 312
630 312
631 312
632 312
633 311
634 311
635 311
636 311
637 311
638 311
639 311
640 311
641 311
642 310
643 310
644 310
645 310
646 310
647 310
648 310
649 310
650 310
651 310
652 310
653 310
654 310
655 310
656 310
657 310
658 310
659 310
660 310
661 309
662 309
663 309
664 309
665 309
666 309
667 309
668 309
669 309
670 309
671 309
672 309
673 309
674 309
675 309
676 309
677 309
678 309
679 309
680 309
681 309
682 309
683 309
684 309
685 309
686 309
687 309
688 309
689 308
690 308
691 308
692 308
693 308
694 308
695 308
696 308
697 308
698 308
699 308
700 308
701 308
702 308
703 308
704 308
705 308
706 308
707 308
708 308
709 308
710 308
711 308
712 308
713 308
714 308
715 308
716 308
717 308
718 308
719 308
720 308
721 308
722 308
723 308
724 308
725 308
726 308
727 308
728 308
729 308
730 308
731 308
732 308
733 308
734 308
735 308
736 308
737 308
738 308
739 308
740 308
741 308
742 308
743 308
744 308
745 308
746 308
747 307
748 307
749 307
750 306
751 306
752 305
753 305
754 304
755 303
756 302
756 301
756 300
756 299
755 298
755 297
755 296
755 295
755 294
755 293
755 292
755 291
755 290
755 289
755 288
755 287
755 286
755 285
754 284
753 284
752 283
751 283
750 283
749 283
748 283
747 283
746 283
745 283
744 283
743 282
742 282
741 282
742 283
743 284
744 285
745 286
746 287
747 288
747 289
747 290
746 291
745 291
744 291
743 291
742 292
741 292
740 292
739 292
738 292
737 292
736 292
735 292
734 292
733 292
732 292
731 292
730 293
729 293
728 293
727 293
726 293
725 293
724 293
723 293
722 293
721 293
720 293
719 293
718 293
717 294
716 294
715 294
714 294
713 294
712 294
711 294
710 294
709 294
708 294
707 294
706 294
705 294
704 294
703 294
702 294
701 294
700 295
699 295
698 295
697 295
696 295
695 295
694 295
693 295
692 295
691 295
690 295
689 295
688 295
687 296
686 296
685 296
684 296
683 296
682 296
681 296
680 296
679 296
678 296
677 296
676 296
675 296
674 296
673 296
672 296
671 297
670 297
669 297
668 297
667 297
666 297
665 297
664 297
663 297
662 297
661 297
660 297
659 297
658 297
657 297
656 297
655 297
654 297
653 297
652 297
651 297
650 297
649 297
648 297
647 297
646 297
645 298
644 298
643 297
642 297
641 297
640 297
639 297
638 298
637 298
636 298
635 298
634 298
633 298
632 298
631 298
630 298
629 298
628 297
627 297
626 297
625 297
624 297
623 297
622 297
621 297
620 297
619 297
618 297
617 296
616 296
615 296
614 295
614 294
614 293
615 292
615 291
616 290
617 289
618 288
619 287
620 286
620 285
619 284
620 283
621 282
621 281
621 280
622 279
622 278
623 277
623 276
623 275
623 274
623 273
624 272
624 271
624 270
624 269
624 268
624 267
623 266
623 265
623 264
623 263
623 262
623 261
623 260
623 259
623 258
623 257
623 256
623 255
623 254
623 253
623 252
622 251
622 250
622 249
622 248
622 247
621 246
621 245
621 244
621 243
621 242
620 241
620 240
620 239
620 238
620 237
620 236
619 235
619 234
619 233
618 232
618 231
618 230
618 229
618 228
617 227
617 226
617 225
617 224
617 223
617 222
617 221
616 220
616 219
616 218
616 217
616 216
616 215
616 214
616 213
615 212
615 211
615 210
615 209
614 208
614 207
614 206
614 205
613 204
613 203
613 202
613 201
613 200
613 199
612 198
612 197
612 196
612 195
612 194
612 193
612 192
611 191
611 190
611 189
611 188
611 187
611 186
611 185
610 184
610 183
610 182
610 181
610 180
610 179
610 178
610 177
610 176
609 175
609 174
609 173
609 172
609 171
608 170
608 169
608 168
608 167
607 166
607 165
606 164
606 163
605 162
605 161
604 160
604 159
603 158
603 157
602 156
602 155
601 154
601 153
600 152
600 151
599 150
598 149
598 148
597 147
597 146
596 145
596 144
595 143
594 142
594 141
593 140
593 139
592 138
592 137
591 136
591 135
590 134
590 133
589 132
588 131
588 130
587 129
586 128
586 127
585 126
585 125
584 124
583 123
583 122
582 121
582 120
581 119
580 118
580 117
579 116
578 115
578 114
577 113
577 112
576 111
576 110
575 109
574 108
573 107
573 106
572 105
571 104
571 103
570 102
569 101
569 100
568 99
568 98
567 97
566 96
566 95
565 94
564 93
564 92
563 91
562 90
561 89
560 88
559 88
558 87
557 87
556 86
555 86
