381 141
380 142
380 143
380 144
380 145
380 146
380 147
380 148
379 149
378 150
377 151
376 152
375 152
374 153
373 153
372 153
371 153
370 154
369 154
368 154
367 154
366 154
365 155
364 155
363 155
362 155
361 155
360 155
359 156
358 156
357 156
356 156
355 156
354 156
353 157
352 156
351 156
350 156
349 156
348 156
347 156
346 157
345 157
344 157
343 157
342 157
341 157
340 157
339 157
338 157
337 157
336 158
335 158
334 158
333 158
332 158
331 158
330 158
329 158
328 158
327 159
326 159
325 159
324 159
323 159
322 158
321 158
320 158
319 158
318 157
317 157
316 157
315 157
314 156
313 156
312 156
311 155
310 155
309 155
308 154
307 154
306 154
305 154
304 154
303 153
302 153
301 153
300 153
299 153
298 152
297 152
296 152
295 152
294 152
293 152
292 152
291 152
290 152
289 152
288 152
287 152
286 152
286 153
286 154
286 155
286 156
286 157
286 158
285 159
285 160
285 161
284 162
284 163
284 164
283 165
283 166
282 167
281 168
280 168
279 168
278 169
277 169
276 170
275 171
274 171
273 172
272 173
271 173
270 174
269 174
268 174
267 175
266 176
265 176
264 177
263 177
262 178
261 179
260 179
259 179
258 180
257 180
256 180
255 180
254 181
253 181
252 181
251 181
250 182
249 182
248 182
247 182
246 182
245 182
244 182
243 182
242 182
241 183
240 183
239 183
238 183
237 183
236 182
235 183
234 183
233 183
232 183
231 182
230 182
229 183
228 183
227 182
226 182
225 182
224 182
223 183
222 183
221 182
220 182
219 183
219 184
218 185
217 186
217 187
217 188
217 189
217 190
216 191
216 192
216 193
216 194
215 195
215 196
214 197
213 198
212 199
211 200
210 201
209 202
208 203
207 204
206 204
205 205
204 205
203 206
202 207
201 207
200 207
199 208
198 209
197 209
196 210
195 210
194 211
193 211
192 212
191 213
190 213
189 214
188 215
187 215
186 215
185 216
184 217
183 217
182 218
181 219
180 219
179 219
178 220
177 221
176 222
175 222
174 223
173 224
172 225
172 226
171 227
171 228
170 229
169 230
169 231
168 232
167 233
166 234
165 235
164 236
163 237
162 238
161 238
160 239
160 240
159 241
158 241
157 242
156 243
155 243
154 244
153 245
152 246
151 246
150 247
149 248
148 248
147 249
146 249
145 250
144 251
143 252
142 253
141 253
140 254
139 254
138 255
137 255
136 256
135 256
134 257
133 258
132 258
131 258
130 259
129 259
128 260
127 260
126 261
125 262
124 262
123 262
122 263
121 264
120 264
119 265
118 266
117 267
116 267
115 268
114 268
113 269
112 270
111 270
110 271
109 272
108 273
107 273
106 274
105 274
105 275
104 276
103 277
102 277
101 277
100 278
101 278
102 279
103 278
104 279
105 279
106 279
107 279
108 280
109 280
110 280
111 280
112 280
113 281
114 282
115 282
116 282
117 283
116 284
115 285
116 285
117 285
118 284
119 283
120 283
121 283
122 284
122 285
122 286
121 287
120 286
119 287
118 287
117 288
116 288
116 289
116 290
116 291
116 292
116 293
115 294
114 294
113 294
114 294
115 294
116 295
117 296
118 296
119 296
120 297
121 298
122 298
123 299
124 299
125 299
126 300
127 300
128 301
129 301
130 301
131 302
132 302
133 302
134 303
135 303
136 304
137 304
138 304
139 305
140 305
141 306
142 306
143 307
144 307
145 307
146 308
147 308
148 309
149 309
150 309
151 310
152 310
153 311
154 312
155 312
156 312
157 313
158 313
159 314
160 314
161 314
162 315
163 316
164 316
165 317
166 317
167 318
168 318
169 319
169 320
170 321
171 322
172 323
173 324
174 325
175 326
176 327
177 327
178 328
179 328
180 329
181 330
182 330
183 330
184 331
185 332
186 332
187 333
188 333
189 334
190 334
191 335
192 335
193 335
194 335
195 336
196 336
197 336
198 336
199 337
200 337
201 338
202 339
203 339
204 339
205 340
206 340
207 341
208 341
209 341
210 342
211 342
212 343
213 344
214 344
215 345
216 345
217 346
218 346
219 346
220 346
221 346
222 346
223 346
224 346
225 346
226 346
227 346
228 346
229 346
230 346
231 346
232 346
233 346
234 346
235 346
236 346
237 346
238 346
239 346
240 346
241 346
242 346
243 346
244 346
245 346
246 346
247 346
248 347
249 347
250 346
251 346
252 347
253 347
254 347
255 348
256 348
257 349
258 350
258 351
258 352
258 353
257 354
257 355
257 356
257 357
256 358
256 359
255 360
255 361
254 362
253 363
253 364
253 365
253 366
254 366
255 366
256 366
257 367
258 367
259 367
260 367
261 367
262 368
263 368
264 368
265 368
266 369
267 369
268 369
269 369
270 369
271 370
272 370
273 370
274 370
275 370
276 371
277 371
278 371
279 371
280 371
281 371
282 372
283 372
284 372
285 372
286 372
287 372
288 372
289 372
290 373
291 373
292 373
293 373
294 373
295 373
296 374
297 374
298 374
299 374
300 375
301 375
302 375
303 375
304 376
305 376
306 376
307 377
308 377
309 377
310 378
311 378
312 378
313 379
314 379
315 380
316 380
317 380
318 381
319 381
320 381
321 382
322 382
323 382
324 383
325 384
326 384
327 384
328 385
329 386
330 387
331 388
332 389
332 390
333 391
334 392
334 393
335 393
336 393
337 392
338 392
339 391
340 391
341 390
342 390
343 390
344 390
345 389
346 389
347 389
348 389
349 388
350 388
351 388
352 388
353 387
354 387
355 387
356 386
357 386
358 386
359 386
360 386
361 386
362 386
363 386
364 386
365 385
366 385
367 385
368 385
369 386
370 386
371 386
372 386
373 386
374 386
375 386
376 386
377 386
378 387
379 387
380 387
381 387
382 387
383 387
384 387
385 387
386 388
387 388
388 388
389 388
390 388
391 389
392 389
393 389
394 389
395 389
396 390
397 390
398 391
399 391
400 391
401 391
402 391
403 392
404 392
405 392
406 392
407 393
408 394
409 394
410 394
411 395
412 395
413 395
414 396
415 396
416 397
417 397
418 397
419 397
420 398
421 398
422 398
423 399
424 399
425 399
426 400
427 401
428 402
429 402
430 402
431 402
432 403
432 404
431 405
430 405
431 405
432 405
433 405
434 405
435 404
436 403
437 404
437 405
438 406
439 406
440 405
441 405
442 405
443 405
444 405
445 405
446 405
447 405
448 405
449 404
450 404
451 404
452 404
453 403
454 403
455 403
456 402
457 401
458 401
459 401
460 401
461 400
462 400
463 399
464 400
465 399
466 399
467 398
468 398
469 397
470 397
471 396
472 396
473 396
474 395
475 395
476 394
477 394
478 394
479 394
480 393
481 393
482 393
483 392
484 392
485 392
486 391
487 391
488 391
489 391
490 391
491 391
492 390
493 390
494 390
495 390
496 390
497 390
498 390
499 390
500 390
501 390
502 390
503 390
504 390
505 390
506 390
507 390
508 390
509 390
510 390
511 390
512 390
513 390
514 390
515 391
516 391
517 391
518 391
519 391
520 392
521 392
522 392
523 393
524 393
525 392
526 392
527 393
528 394
529 393
530 393
531 392
532 392
532 391
533 390
534 390
535 390
536 389
537 389
538 388
539 387
540 387
541 386
542 386
543 385
544 385
545 384
546 383
547 382
548 382
549 381
550 381
551 380
552 380
553 379
554 378
555 378
556 377
557 377
558 376
559 376
560 375
561 375
562 374
563 374
564 374
565 373
566 373
567 372
568 372
569 371
570 371
571 371
572 371
573 371
574 371
575 370
576 370
577 370
578 370
579 370
580 370
581 370
582 370
583 370
584 370
585 370
586 370
587 370
588 370
589 370
590 369
591 369
592 369
593 369
594 368
595 368
596 368
597 368
598 368
599 368
600 368
601 367
602 367
603 366
604 366
605 366
606 366
607 365
608 365
609 364
610 363
611 363
612 363
613 363
614 362
615 361
616 360
617 360
618 360
619 360
619 359
620 358
621 358
622 358
622 357
623 356
624 356
625 356
625 355
626 354
627 353
628 353
629 353
630 352
631 352
631 351
632 350
633 349
634 349
635 348
636 347
637 346
638 346
638 345
639 344
640 343
641 342
642 341
643 340
644 340
645 339
645 338
646 337
647 337
647 336
648 335
649 335
649 334
650 333
650 332
651 331
652 330
652 329
653 328
654 327
655 326
656 325
656 324
657 323
657 322
658 321
659 320
659 319
660 318
661 317
661 316
662 315
663 314
664 313
665 313
666 313
667 312
668 312
669 312
670 311
671 311
672 311
673 311
674 311
675 311
676 311
677 311
678 311
679 311
680 311
681 311
682 311
683 311
684 311
685 311
686 310
687 310
688 311
689 311
690 311
691 311
692 311
693 311
694 311
695 311
696 311
697 311
698 311
699 311
700 311
701 311
702 311
703 311
704 312
705 312
706 312
707 312
708 312
709 312
710 313
711 313
712 313
713 313
714 313
715 313
716 313
717 314
718 314
719 314
720 314
721 314
722 314
723 314
724 314
725 314
726 314
727 314
728 314
729 314
730 314
731 314
732 314
733 314
734 313
735 312
736 312
737 311
738 310
739 310
740 310
741 310
742 309
743 308
744 307
744 306
743 305
742 304
742 303
742 302
742 301
742 300
742 299
742 298
743 297
743 296
743 295
743 294
743 293
742 293
741 293
740 292
739 292
738 292
737 292
736 293
735 293
734 293
733 292
732 292
731 292
730 291
729 291
728 291
727 291
726 290
725 290
724 290
723 290
722 290
721 291
720 290
719 291
718 291
717 291
716 290
715 291
714 291
713 290
712 290
711 290
710 290
709 290
708 290
707 290
706 290
705 290
704 290
703 290
702 290
701 290
700 290
699 290
698 290
697 290
696 290
695 289
694 289
693 289
692 289
691 290
690 290
689 290
688 290
687 290
686 290
685 289
684 289
683 290
682 290
681 290
680 290
679 289
678 289
677 288
676 288
675 289
674 289
673 288
673 287
672 287
671 286
670 285
669 284
668 283
667 283
666 282
666 281
666 280
665 279
664 278
664 277
663 277
662 276
662 275
661 274
660 273
659 272
658 271
657 271
656 270
655 269
654 268
654 267
653 266
652 265
651 264
650 263
650 262
649 261
648 260
648 259
647 258
647 257
646 256
646 255
645 254
645 253
645 252
645 251
644 250
644 249
644 248
644 247
644 246
644 245
644 244
644 243
643 242
643 241
643 240
642 239
642 238
642 237
641 236
640 235
640 234
639 233
638 232
637 231
636 230
635 230
634 229
633 228
632 227
631 227
630 226
629 226
628 226
627 225
626 224
625 224
624 223
623 222
622 221
621 221
620 220
619 220
618 219
617 218
616 218
615 217
614 216
613 215
612 214
612 213
611 213
610 213
609 212
608 213
607 212
607 211
606 210
605 210
604 209
604 208
603 207
603 206
602 206
601 205
600 205
599 204
598 204
597 203
596 202
595 201
594 200
593 199
592 198
591 198
590 198
589 197
588 197
587 198
586 199
585 200
584 201
583 201
582 202
581 202
580 201
579 201
578 202
577 202
576 202
575 202
574 202
573 202
572 201
571 201
570 201
569 200
568 200
567 199
566 199
565 199
564 198
563 198
562 197
561 196
560 196
559 195
558 194
557 194
556 193
555 192
554 191
553 191
552 190
551 189
550 188
549 188
548 187
547 186
546 185
545 184
544 183
543 183
542 182
542 181
541 180
540 179
539 178
538 177
537 176
536 176
535 175
534 174
533 173
532 172
531 172
530 171
529 170
528 170
527 169
526 169
525 168
524 168
523 167
522 166
521 166
520 166
519 165
518 165
517 164
516 163
516 164
516 165
515 166
515 167
514 168
513 169
512 170
511 171
510 171
509 172
508 172
507 172
506 172
505 172
504 172
503 172
502 172
501 172
500 171
499 171
498 171
497 171
496 170
495 170
494 170
493 170
492 170
491 169
490 169
489 169
488 169
487 168
486 168
485 168
484 168
483 167
482 167
481 166
480 166
479 166
478 166
477 166
476 165
475 164
474 164
473 164
472 163
471 163
470 163
469 163
468 162
467 162
466 162
465 162
464 162
463 161
462 161
461 161
460 160
459 160
458 160
457 160
456 161
455 161
454 162
453 162
452 162
451 163
450 163
449 163
448 163
447 164
446 164
445 164
444 164
443 164
442 164
441 164
440 164
439 163
438 163
437 163
436 163
435 162
434 162
433 162
432 161
431 161
430 160
429 160
428 159
427 158
426 158
425 157
424 157
423 156
422 155
421 155
420 154
419 154
418 153
417 153
416 152
415 151
414 150
413 150
412 149
411 149
410 148
409 147
408 146
407 146
406 146
405 146
404 146
403 146
402 145
401 145
400 145
399 145
398 144
397 144
396 144
395 144
394 144
393 144
392 144
391 144
390 144
389 143
388 143
387 143
386 143
385 143
384 142
383 141
382 141
381 141
