240 1
240 2
240 3
240 4
239 5
238 6
237 7
236 7
235 8
234 8
233 9
232 9
231 9
230 9
229 9
228 9
227 9
226 9
225 9
224 9
223 9
222 9
221 9
220 9
219 9
218 9
217 9
216 8
215 8
214 8
213 8
212 8
211 8
210 8
209 8
208 7
207 7
206 7
205 7
204 7
203 7
202 7
201 7
200 7
199 7
198 7
197 7
196 6
195 6
194 5
193 5
192 4
192 3
191 3
191 4
191 5
191 6
191 7
190 8
189 9
188 10
187 10
186 11
185 11
184 12
183 12
182 13
181 13
180 13
179 13
178 14
177 14
176 15
175 14
174 14
173 14
172 14
171 14
170 14
169 14
168 14
167 14
166 14
165 14
164 14
163 14
162 14
161 14
160 14
159 14
158 14
157 14
156 14
155 14
154 14
153 14
152 14
151 14
150 14
149 14
148 14
147 14
146 14
145 14
144 14
143 14
142 14
141 14
140 13
139 13
138 12
137 11
137 12
137 13
138 14
137 15
137 16
137 17
137 18
136 19
135 20
134 21
133 22
132 23
131 24
130 24
129 25
128 25
127 25
126 25
125 25
124 25
123 25
122 25
121 25
120 25
119 25
118 25
117 26
116 26
115 26
114 26
113 26
112 26
111 26
110 26
109 26
109 27
109 28
109 29
108 30
108 31
107 32
106 33
105 34
104 35
103 35
102 36
101 36
100 37
99 37
98 37
97 38
96 38
95 38
94 38
93 38
92 38
91 38
90 38
89 38
88 38
87 38
86 38
85 38
84 38
83 38
82 37
81 37
80 37
80 38
80 39
79 40
78 41
77 41
76 42
75 42
74 43
73 43
72 43
71 43
70 43
69 43
68 43
67 42
66 42
65 42
64 42
63 42
62 42
61 41
60 41
59 41
58 41
57 41
56 40
55 40
54 39
53 38
52 37
51 36
52 37
51 38
51 39
51 40
50 41
49 42
48 42
47 42
46 43
45 43
44 43
43 43
42 42
41 42
40 42
39 41
38 41
37 41
36 40
35 40
34 39
33 39
32 39
31 38
30 38
29 37
28 37
27 36
26 35
25 35
25 36
24 37
23 37
22 37
21 37
20 37
19 37
18 37
17 36
16 36
15 35
14 35
13 34
12 33
11 33
10 33
9 32
8 32
7 31
6 31
5 31
4 30
3 30
2 30
1 30
1 31
1 32
1 33
2 34
3 35
4 35
5 36
6 37
7 38
8 39
9 40
10 41
11 42
12 43
13 44
14 45
14 46
15 47
15 48
16 49
16 50
16 51
15 52
16 53
17 53
18 54
19 55
20 55
21 56
22 57
23 58
24 59
25 60
26 61
27 62
28 63
29 64
30 65
30 66
31 67
31 68
32 69
32 70
32 71
32 72
33 73
32 74
33 75
32 76
32 77
31 78
31 79
31 80
32 80
33 80
34 81
35 81
36 82
37 83
38 84
39 85
40 86
41 87
42 88
43 89
44 90
45 91
45 92
46 93
46 94
47 95
48 96
49 97
49 98
49 99
49 100
49 101
49 102
49 103
48 104
48 105
47 106
46 106
47 107
48 108
49 109
50 110
51 111
52 112
53 113
54 114
54 115
55 116
56 117
57 118
57 119
58 120
59 121
59 122
60 123
60 124
61 125
61 126
61 127
61 128
61 129
60 130
60 131
60 132
60 133
59 134
60 135
60 136
61 137
62 138
62 139
63 140
64 141
65 142
66 143
67 144
68 145
69 145
70 146
70 147
71 148
71 149
72 150
73 151
73 152
74 153
75 154
76 155
76 156
77 157
77 158
77 159
78 160
78 161
78 162
78 163
78 164
78 165
78 166
78 167
78 168
78 169
78 170
78 171
77 172
77 173
76 174
76 175
77 176
78 177
79 178
80 179
81 180
82 181
83 182
84 183
85 184
86 185
87 186
88 187
89 188
90 189
91 190
92 191
93 192
94 193
95 194
96 194
97 195
98 196
99 197
100 198
100 199
101 200
101 201
102 202
102 203
102 204
102 205
102 206
102 207
102 208
102 209
101 210
101 211
100 212
99 213
98 214
97 214
96 215
97 215
98 215
99 215
100 215
101 215
102 216
103 216
104 217
105 218
106 219
107 220
108 220
109 221
110 222
111 222
112 223
113 224
114 225
115 226
116 226
117 227
118 228
119 229
120 229
121 230
122 230
123 231
124 231
125 232
126 233
127 233
128 234
129 235
130 235
131 236
132 236
133 237
134 238
135 238
136 239
137 240
138 241
138 242
139 243
139 244
140 245
140 246
141 247
141 248
141 249
141 250
141 251
141 252
141 253
141 254
141 255
141 256
140 257
139 257
140 257
141 257
142 257
143 257
144 257
145 257
146 258
147 258
148 259
149 259
150 260
151 260
152 261
153 261
154 261
155 262
156 262
157 262
158 262
159 263
160 263
161 263
162 264
163 264
164 265
165 265
166 266
167 266
168 267
169 268
170 268
171 269
172 269
173 270
174 271
175 271
176 272
177 272
178 273
179 274
180 275
181 276
182 277
182 278
183 279
183 280
184 281
184 282
184 283
185 284
185 285
185 286
185 287
185 288
185 289
186 289
187 289
188 289
189 289
190 290
191 290
192 291
193 291
194 292
195 292
196 292
197 293
198 293
199 294
200 295
201 295
202 296
203 296
204 297
205 297
206 297
207 298
208 298
209 299
210 299
211 299
212 299
213 300
214 300
215 300
216 300
217 300
218 300
219 300
220 300
221 301
222 301
223 301
224 301
225 302
226 302
227 303
228 303
229 304
230 305
231 305
232 306
233 306
234 307
235 307
236 308
237 309
238 309
239 310
240 311
240 312
241 313
241 314
241 315
242 316
242 317
242 318
242 319
242 320
242 321
241 322
240 323
240 324
241 323
242 322
243 322
244 321
245 321
246 322
247 322
248 322
249 323
250 323
251 323
252 324
253 324
254 325
255 325
256 325
257 326
258 326
259 326
260 326
261 327
262 327
263 327
264 328
265 328
266 328
267 328
268 327
269 326
270 326
271 325
272 324
273 324
274 323
275 323
276 322
277 323
278 324
279 325
280 326
281 327
281 328
282 329
282 330
282 331
282 332
283 333
283 334
283 335
283 336
284 336
284 335
285 334
286 333
287 334
288 334
289 334
290 334
291 334
292 334
293 335
294 335
295 335
296 335
297 336
298 336
299 336
300 336
301 337
302 337
303 337
304 337
305 338
306 338
307 338
308 339
309 339
310 339
311 340
312 340
313 340
314 340
315 341
316 341
317 341
318 341
319 342
320 342
321 342
322 342
323 342
324 343
325 343
326 343
327 344
328 344
329 344
330 345
331 345
332 346
333 346
334 346
335 347
336 348
337 349
338 350
339 351
339 352
339 353
339 354
339 355
339 356
339 357
340 356
341 355
342 355
343 355
344 355
345 355
346 355
347 354
348 354
349 354
350 354
351 354
352 354
353 354
354 354
355 354
356 354
357 355
358 355
359 355
360 355
361 355
362 356
363 356
364 356
365 356
366 356
367 356
368 356
369 356
370 356
371 356
372 356
373 356
374 356
375 356
376 356
377 356
378 356
379 356
380 356
381 356
382 356
383 356
384 356
385 356
386 356
387 356
388 356
389 356
390 356
391 356
392 356
393 357
394 357
395 357
396 357
397 357
398 357
399 358
400 358
401 359
402 359
403 360
404 361
405 362
406 363
406 364
406 365
407 366
407 367
407 368
407 369
407 370
407 371
408 371
408 370
408 369
409 368
410 368
411 367
412 367
413 366
414 366
415 366
416 366
417 366
418 367
419 367
420 367
421 367
422 367
423 367
424 367
425 368
426 368
427 368
428 368
429 368
430 368
431 368
432 368
433 368
434 368
435 368
436 368
437 368
438 368
439 367
440 367
441 367
442 367
443 367
444 367
445 368
446 368
447 368
448 367
449 368
450 367
451 368
452 368
453 368
454 368
455 368
456 368
457 368
458 368
459 368
460 369
461 369
462 369
463 369
464 369
465 369
466 370
467 370
468 370
469 370
470 370
471 370
472 371
473 371
474 372
475 373
475 374
475 375
475 376
476 377
475 378
475 379
475 380
476 379
477 378
478 377
479 377
480 376
481 376
482 376
483 376
484 376
485 376
486 376
487 376
488 377
489 377
490 377
491 377
492 377
493 378
494 378
495 378
496 378
497 378
498 378
499 378
500 378
501 378
502 378
503 378
504 378
505 378
506 378
507 378
508 377
509 377
510 377
511 377
512 377
513 377
514 377
515 377
516 377
517 377
518 377
519 377
520 377
521 378
522 378
523 379
524 379
525 380
526 380
527 381
528 381
529 382
530 382
531 383
532 383
533 384
534 384
535 384
536 385
537 385
538 385
539 385
540 386
541 386
542 387
543 387
544 388
545 388
546 389
547 389
548 389
549 390
550 390
551 390
552 390
553 390
554 390
555 390
556 390
557 390
558 390
559 391
560 391
561 391
562 391
563 391
564 391
565 391
566 391
567 392
568 392
569 392
570 393
571 393
572 393
573 394
574 395
575 395
576 396
577 396
578 397
579 397
580 398
581 398
582 398
583 399
584 399
585 400
586 400
587 401
588 401
589 401
590 402
591 402
592 402
593 403
594 403
595 403
596 403
597 404
598 404
599 404
600 404
601 405
602 405
603 405
604 406
605 406
606 407
607 407
608 408
609 408
610 408
611 409
612 409
613 409
614 409
615 410
616 410
617 410
618 411
619 411
620 411
621 411
622 412
623 412
624 412
625 412
626 412
627 413
628 412
629 412
630 411
631 411
632 412
633 413
633 414
634 415
635 415
636 415
637 416
638 416
639 416
640 417
641 417
642 417
643 418
644 418
645 418
646 419
647 419
648 419
649 419
650 420
651 420
652 420
653 420
654 420
655 421
656 421
657 421
658 421
659 421
660 421
661 422
662 422
663 422
664 422
665 422
666 422
667 422
668 422
669 422
670 423
671 423
672 423
673 423
674 423
675 423
676 423
677 423
678 423
679 423
680 423
681 423
682 423
683 423
684 423
685 423
686 423
687 423
688 423
689 423
690 422
691 422
692 422
693 422
694 421
695 421
696 421
697 421
698 420
699 420
700 420
701 420
702 420
703 419
704 419
705 419
706 419
707 418
708 418
709 417
710 417
711 417
712 416
713 416
714 416
715 415
716 415
717 414
718 414
719 413
720 412
721 412
722 411
723 410
724 410
725 409
726 409
727 408
728 408
729 407
730 407
731 407
732 407
733 406
734 406
735 407
736 407
737 407
738 407
739 407
740 407
741 407
742 408
743 409
744 410
745 410
746 411
747 412
748 413
749 414
750 414
751 415
752 416
753 417
754 418
755 419
756 420
757 421
758 422
759 423
760 423
761 424
761 425
762 426
763 427
764 428
765 429
766 430
767 431
768 432
769 433
770 434
770 435
771 436
772 437
772 438
773 439
774 440
775 441
775 442
776 443
777 444
778 445
779 446
780 446
781 447
782 447
783 447
784 447
785 446
786 446
787 446
788 446
789 446
790 446
791 445
792 445
793 444
794 443
795 443
796 443
797 443
798 443
799 444
800 445
800 446
800 445
800 444
799 443
798 442
798 441
797 440
796 439
795 438
795 437
794 436
793 436
792 435
791 435
790 435
789 435
788 434
787 434
786 433
785 432
784 432
783 431
782 430
781 429
780 428
779 427
778 427
777 426
776 425
775 424
774 424
773 423
772 422
771 422
770 421
769 420
768 420
767 419
766 418
765 417
764 417
763 416
762 415
761 414
760 413
759 413
758 412
757 411
756 410
755 409
754 408
753 407
752 406
751 405
750 404
749 403
748 402
748 401
747 400
747 399
747 398
747 397
747 396
747 395
748 394
748 393
749 392
749 391
750 390
750 389
750 388
751 387
751 386
751 385
752 384
752 383
752 382
753 381
753 380
753 379
754 378
754 377
755 376
755 375
756 374
756 373
756 372
756 371
757 370
757 369
757 368
757 367
757 366
758 365
758 364
758 363
758 362
758 361
758 360
758 359
758 358
758 357
758 356
757 355
757 354
757 353
757 352
757 351
756 350
756 349
756 348
756 347
755 346
755 345
755 344
755 343
754 342
754 341
753 340
753 339
752 338
752 337
751 336
750 335
750 334
749 333
749 332
749 331
748 330
748 329
748 328
748 327
748 326
748 325
748 324
748 323
748 322
748 321
747 320
747 319
747 318
746 317
746 316
746 315
745 314
745 313
745 312
744 311
744 310
744 309
744 308
743 307
742 306
742 305
741 304
740 303
740 302
739 301
739 300
738 299
737 298
737 297
736 296
736 295
735 294
735 293
735 292
734 291
734 290
733 289
733 288
732 287
732 286
731 285
731 284
730 283
730 282
729 281
728 280
728 279
727 278
726 277
725 276
724 275
724 274
723 273
722 272
721 271
721 270
720 269
720 268
719 267
718 266
718 265
717 264
717 263
716 262
716 261
715 260
715 259
714 258
714 257
713 256
713 255
712 254
712 253
711 252
711 251
710 250
710 249
709 248
708 247
708 246
707 245
706 244
706 243
705 242
705 241
705 240
704 239
704 238
703 237
702 238
702 239
703 240
702 241
701 241
700 240
699 240
698 239
698 238
697 237
696 236
695 235
694 234
693 233
693 232
692 231
691 230
691 229
690 228
689 227
688 226
688 225
687 224
687 223
686 222
686 221
685 220
685 219
685 218
685 217
685 216
684 215
683 216
682 216
681 217
680 217
679 216
678 215
677 215
676 214
675 213
674 213
673 212
673 211
672 210
672 209
671 208
670 207
670 206
670 205
669 204
668 203
668 202
667 201
666 200
665 199
665 198
664 197
664 196
663 195
662 194
661 193
661 192
660 191
660 190
659 189
659 188
659 187
659 186
658 185
658 184
658 183
658 182
658 183
658 184
658 185
657 186
657 187
656 188
655 188
654 189
653 188
652 188
651 188
650 188
649 187
648 186
647 185
646 184
645 183
645 182
644 181
643 180
642 179
642 178
641 177
640 176
639 175
638 174
638 173
637 172
636 171
635 170
635 169
634 169
633 168
633 167
632 166
631 165
630 164
630 163
630 162
629 161
629 160
629 159
629 158
629 159
629 160
628 161
627 161
626 162
625 162
624 162
623 161
622 161
621 161
620 160
619 160
618 159
617 158
616 157
615 156
614 155
613 154
612 153
611 152
610 151
609 150
608 149
607 148
606 147
605 146
604 145
603 144
603 143
602 142
601 141
600 140
600 139
600 138
600 137
599 137
598 137
597 138
596 138
595 138
594 138
593 138
592 137
591 137
590 137
589 136
588 135
587 135
586 134
585 133
584 132
584 131
583 130
582 129
581 128
580 128
579 127
578 126
577 125
576 124
575 124
574 123
573 122
572 121
571 120
570 119
569 118
568 117
567 116
566 115
565 114
564 113
564 112
563 111
563 110
563 109
562 108
561 108
562 109
562 110
561 111
560 112
559 112
558 112
557 111
556 111
555 111
554 110
553 110
552 109
551 108
550 108
549 107
548 107
547 106
546 105
545 104
544 103
543 102
542 102
541 101
540 100
539 100
538 99
537 98
536 97
535 96
534 96
533 95
532 94
531 93
530 92
529 91
528 90
527 89
526 88
525 87
524 86
523 85
523 84
523 83
522 82
522 81
522 80
521 80
522 81
521 82
520 83
519 83
518 83
517 83
516 83
515 83
514 83
513 82
512 82
511 82
510 81
509 81
508 80
507 79
506 79
505 78
504 77
503 76
502 76
501 75
500 74
499 73
498 72
497 71
496 71
495 70
494 69
493 68
492 68
491 67
490 66
489 65
488 65
487 64
486 64
485 63
484 63
483 62
482 62
481 61
480 60
479 59
478 58
477 57
476 56
476 55
476 54
476 53
476 52
475 51
475 52
475 53
475 54
474 55
474 56
473 57
472 57
471 57
470 57
469 57
468 58
467 58
466 57
465 57
464 57
463 57
462 57
461 56
460 56
459 56
458 55
457 55
456 54
455 54
454 54
453 53
452 52
451 52
450 51
449 51
448 50
447 49
446 48
445 48
444 47
443 46
442 45
441 44
440 44
439 43
438 42
437 41
436 41
435 40
434 39
433 39
432 38
431 37
431 36
430 35
429 34
429 33
428 32
428 31
428 30
427 30
427 31
427 32
427 33
427 34
427 35
426 36
426 37
425 38
424 38
423 38
422 38
421 39
420 39
419 39
418 38
417 38
416 38
415 38
414 37
413 37
412 37
411 36
410 36
409 35
408 35
407 34
406 34
405 34
404 33
403 33
402 33
401 32
400 32
399 32
398 31
397 31
396 30
395 30
394 29
393 29
392 28
391 28
390 27
389 27
388 26
387 26
386 25
385 24
384 23
383 22
382 21
381 20
381 21
382 22
381 23
381 24
381 25
380 26
379 27
378 27
377 27
376 27
375 27
374 27
373 27
372 27
371 27
370 27
369 26
368 26
367 26
366 25
365 25
364 25
363 24
362 24
361 23
360 23
359 23
358 22
357 22
356 21
355 21
354 21
353 20
352 20
351 20
350 19
349 19
348 19
347 18
346 18
345 17
344 17
343 16
342 16
341 15
340 14
339 13
338 12
338 11
338 10
338 9
338 10
337 11
336 12
335 13
334 14
333 14
332 15
331 15
330 15
329 15
328 15
327 16
326 15
325 15
324 15
323 15
322 15
321 15
320 14
319 14
318 14
317 13
316 13
315 13
314 13
313 12
312 12
311 12
310 12
309 11
308 11
307 11
306 10
305 10
304 9
303 9
302 9
301 8
300 8
299 7
298 6
297 6
296 5
295 4
294 4
293 3
292 2
291 1
290 1
289 1
288 1
289 1
290 1
291 2
291 3
290 4
289 5
288 6
287 7
286 8
285 8
284 9
283 9
282 9
281 9
280 9
279 9
278 9
277 9
276 9
275 8
274 8
273 9
272 8
271 8
270 8
269 8
268 8
267 8
266 8
265 7
264 7
263 7
262 7
261 7
260 6
259 6
258 6
257 6
256 6
255 6
254 6
253 5
252 5
251 5
250 5
249 5
248 4
247 4
246 4
245 3
244 3
243 2
242 1
241 1
240 1
