337 22
336 23
335 23
334 23
333 23
332 23
331 23
330 23
329 23
328 23
327 23
326 23
325 23
324 23
323 23
322 23
321 24
320 24
319 24
318 24
317 24
316 24
315 25
314 25
313 25
312 25
311 26
310 26
309 26
308 26
307 26
306 26
305 26
304 27
303 27
302 27
301 27
300 27
299 27
298 27
297 28
296 28
295 28
294 28
293 28
292 29
291 29
290 29
289 29
288 29
287 30
286 30
285 30
284 30
283 31
282 31
281 31
280 31
279 31
278 31
277 32
276 32
275 32
274 32
273 32
272 32
271 32
270 33
269 33
268 33
267 33
266 33
265 34
264 34
263 34
262 34
261 35
260 35
259 35
258 35
257 36
256 36
255 36
254 36
253 36
252 37
251 37
250 37
249 38
248 39
247 39
246 39
245 39
244 39
243 40
242 41
241 41
241 42
240 43
239 43
238 43
237 44
236 44
235 45
234 45
233 46
232 47
231 47
230 47
229 47
228 48
227 49
226 49
225 49
224 50
223 50
222 50
222 51
221 52
220 53
219 53
218 54
217 54
216 54
215 55
214 55
213 56
212 56
211 57
210 58
209 58
209 59
208 60
207 60
206 60
205 61
204 61
203 62
202 63
201 63
200 64
199 65
198 66
197 67
196 68
195 68
194 69
193 70
192 71
191 72
190 73
189 74
188 75
187 76
186 76
185 77
184 78
183 79
182 80
181 81
180 82
179 82
178 83
178 84
177 85
176 85
175 86
174 87
173 88
172 89
171 90
170 91
169 92
168 93
167 94
166 95
165 95
165 96
164 97
163 98
162 99
161 99
160 100
159 101
158 102
157 103
156 104
155 105
154 106
153 106
152 107
151 108
150 109
149 110
148 111
147 112
146 112
145 113
144 114
143 114
142 115
141 116
140 117
139 118
138 118
137 119
136 120
135 121
134 122
133 123
132 124
131 125
130 126
129 127
130 128
129 129
128 130
127 129
128 130
127 131
126 132
125 133
124 133
123 134
122 134
121 135
120 136
119 137
118 138
117 139
117 140
116 141
115 142
114 143
113 144
112 145
111 146
111 147
110 148
109 149
108 150
107 151
106 152
106 153
105 154
104 155
104 156
103 157
102 158
101 159
101 160
100 161
99 162
98 163
98 164
97 165
96 166
96 167
95 168
94 169
93 170
92 171
92 172
91 173
90 174
89 174
89 175
88 176
87 177
86 178
85 178
84 179
84 180
83 181
82 182
81 183
80 183
79 184
78 185
77 186
76 187
75 187
74 188
73 189
72 190
71 190
70 191
69 192
68 193
67 194
66 194
65 195
64 196
63 197
62 198
62 199
61 200
61 201
61 202
60 203
60 204
60 205
61 205
62 206
63 206
64 206
65 206
66 207
67 207
68 207
69 207
70 207
71 207
72 208
73 208
74 208
75 208
76 209
77 209
78 209
79 209
80 209
81 210
82 210
83 211
84 211
85 212
86 212
87 213
88 213
89 214
90 214
91 215
92 216
93 216
94 217
94 218
95 219
96 219
97 220
97 221
98 222
99 223
100 224
101 225
102 226
103 227
104 228
105 229
106 230
107 231
108 232
109 233
109 234
110 234
111 235
112 236
113 237
114 238
115 239
116 240
117 240
118 241
118 242
119 242
120 243
121 244
122 245
123 246
124 247
125 248
126 248
127 249
128 250
129 251
130 252
131 253
132 253
133 254
134 255
135 256
136 256
137 257
138 258
139 259
140 260
141 260
142 261
143 261
144 262
145 263
146 264
147 264
148 265
149 266
150 266
151 267
152 268
153 268
154 269
155 270
156 270
157 271
158 272
159 272
160 273
161 274
162 274
163 275
164 276
165 276
166 277
167 278
168 278
169 279
170 279
171 280
172 281
173 281
174 282
175 282
176 282
177 283
178 284
179 284
180 285
181 285
182 286
183 286
184 287
185 287
186 288
187 288
188 289
189 289
190 289
191 290
192 290
193 291
194 292
195 292
196 293
197 293
198 294
199 294
200 295
201 295
202 296
203 296
204 297
205 297
206 298
207 299
208 299
209 300
210 300
211 301
212 302
213 302
214 303
215 304
216 304
217 305
218 305
219 306
220 307
221 308
222 308
223 309
224 310
225 311
226 311
227 312
228 313
229 314
230 314
231 315
232 316
233 317
234 317
235 318
236 319
237 320
238 320
239 321
240 322
241 323
242 324
243 324
244 325
245 325
246 326
247 327
248 327
249 328
250 328
251 329
252 330
253 330
254 331
255 331
256 331
257 332
258 333
259 333
260 334
261 334
262 335
263 335
264 335
265 335
266 336
267 336
268 336
269 336
270 336
271 336
272 336
273 336
274 336
275 336
276 336
277 336
278 336
279 336
280 336
281 335
282 335
283 335
284 335
285 335
286 335
287 334
288 334
289 334
290 334
291 334
292 334
293 334
294 334
295 334
296 334
297 334
298 334
299 334
300 334
301 334
302 334
303 334
304 335
305 335
306 335
307 335
308 335
309 335
310 335
311 336
312 336
313 336
314 336
315 336
316 336
317 337
318 337
319 337
320 337
321 337
322 338
323 338
324 338
325 338
326 338
327 338
328 338
329 339
330 339
331 339
332 339
333 339
334 339
335 339
336 339
337 339
338 339
339 339
340 339
341 339
342 339
343 338
344 338
345 338
346 338
347 338
348 337
349 337
350 337
351 337
352 337
353 336
354 336
355 336
356 335
357 335
358 335
359 334
360 334
361 334
362 334
363 333
364 333
365 333
366 332
367 332
368 332
369 332
370 332
371 331
372 331
373 331
374 330
375 330
376 330
377 330
378 329
379 329
380 329
381 329
382 329
383 328
384 328
385 328
386 328
387 328
388 328
389 328
390 328
391 328
392 328
393 328
394 328
395 328
396 328
397 328
398 328
399 328
400 328
401 328
402 328
403 328
404 328
405 328
406 328
407 328
408 328
409 328
410 327
411 327
412 327
413 326
414 326
415 326
416 326
417 326
418 326
419 325
420 325
421 325
422 325
423 324
424 324
425 323
426 323
427 323
428 322
429 322
430 322
431 321
432 321
433 320
434 319
435 319
436 318
437 318
438 318
439 317
440 317
441 316
442 315
443 315
444 314
445 314
446 313
447 312
448 312
449 311
450 311
451 310
452 310
453 309
454 309
455 308
456 308
457 307
458 306
459 306
460 306
461 305
462 305
463 304
464 304
465 303
466 302
467 302
468 302
469 301
470 301
471 301
472 300
473 300
474 300
475 299
476 299
477 298
478 298
479 298
480 298
481 297
482 297
483 296
484 296
485 296
486 295
487 294
488 294
489 294
490 293
491 293
492 293
493 292
494 292
495 291
496 291
497 290
498 289
499 288
500 288
501 287
502 286
503 286
504 285
505 285
506 284
507 283
508 283
509 282
510 281
511 281
512 280
513 280
514 279
515 279
516 278
517 278
518 277
519 277
520 277
521 276
522 276
523 275
524 274
525 274
526 273
527 273
528 272
529 272
530 271
531 270
532 270
533 270
534 269
535 269
536 268
537 268
538 267
539 266
540 266
541 265
542 265
543 264
544 264
545 263
546 262
547 262
548 261
549 260
550 260
551 259
552 258
553 257
554 257
555 256
556 255
557 255
558 254
559 253
560 252
561 252
562 251
563 250
564 250
565 249
566 248
567 247
568 246
569 246
570 245
571 244
572 243
573 242
574 242
575 241
576 240
577 239
578 238
579 238
580 237
581 236
582 235
583 234
584 233
585 232
586 232
587 231
588 230
589 229
590 228
591 227
592 226
593 225
594 224
595 224
596 223
597 222
598 221
599 220
600 220
601 219
602 218
603 217
604 216
605 215
606 214
607 214
608 213
609 212
610 211
611 210
612 209
613 208
614 207
615 206
616 205
617 204
618 203
619 202
620 201
621 200
622 199
623 198
624 197
625 196
626 195
627 194
628 193
629 192
630 191
631 190
632 189
633 188
634 188
635 187
636 186
636 185
637 184
638 184
639 183
640 182
641 181
642 180
643 179
644 178
645 177
646 176
647 175
648 174
649 174
650 173
651 172
652 172
653 171
654 171
655 170
656 170
657 169
658 169
659 168
660 167
661 167
662 167
663 166
664 166
665 166
666 166
667 165
668 165
669 165
670 165
671 165
672 165
673 164
674 164
675 164
676 164
677 164
678 164
679 164
680 164
681 164
682 163
683 163
684 163
685 163
686 163
687 163
688 163
689 163
690 163
691 163
692 162
693 162
694 162
695 162
696 162
697 162
698 162
699 162
700 162
701 162
702 162
703 162
704 161
705 161
706 161
707 161
708 161
709 161
710 161
711 161
712 161
713 161
714 161
715 161
716 161
717 161
718 161
719 161
720 161
721 161
722 161
723 161
724 161
725 161
726 161
727 161
728 161
729 161
730 161
731 161
732 161
733 161
734 162
735 162
736 162
737 162
738 162
739 162
740 163
741 163
742 163
743 164
744 164
745 164
746 165
747 165
748 166
749 166
750 167
751 167
752 167
753 167
754 167
755 167
756 167
757 167
758 167
758 166
758 165
759 164
759 163
759 162
760 161
761 160
761 159
762 158
761 157
762 156
763 155
763 154
763 153
764 152
764 151
763 150
762 149
761 149
760 148
759 148
758 147
757 147
756 147
755 146
754 146
753 145
752 145
751 145
750 144
749 144
748 144
747 143
746 143
745 143
744 143
743 142
742 142
741 142
740 142
739 142
738 142
737 141
736 141
735 141
734 141
733 141
732 141
731 141
730 141
729 142
728 142
727 142
726 142
725 142
724 142
723 142
722 142
721 143
720 143
719 143
718 143
717 143
716 143
715 143
714 144
713 144
712 144
711 144
710 144
709 144
708 144
707 145
706 145
705 145
704 145
703 145
702 145
701 145
700 145
699 145
698 146
697 146
696 146
695 146
694 146
693 146
692 146
691 147
690 147
689 147
688 147
687 147
686 147
685 147
684 147
683 147
682 147
681 147
680 148
679 147
678 147
677 147
676 147
675 147
674 147
673 147
672 147
671 147
670 147
669 147
668 147
667 147
666 147
665 146
664 146
663 146
662 146
661 146
660 145
659 145
658 145
657 145
656 145
655 144
654 144
653 144
652 143
651 143
650 142
649 142
648 142
647 141
646 141
645 140
644 140
643 139
642 139
641 138
640 138
639 137
638 137
637 137
636 136
635 136
634 135
633 135
632 134
631 134
630 133
629 132
628 132
627 131
626 131
625 130
624 130
623 129
622 129
621 128
620 128
619 127
618 127
617 126
616 125
615 125
614 124
613 123
612 123
611 122
610 122
609 121
608 120
607 120
606 119
605 119
604 118
603 117
602 117
601 116
600 115
599 115
598 114
597 113
596 113
595 112
594 112
593 111
592 110
591 109
590 109
589 108
588 108
587 107
586 106
585 106
584 105
583 104
582 103
581 103
580 102
579 102
578 101
577 101
576 100
575 99
574 98
573 98
572 97
571 96
570 96
569 95
568 94
567 94
566 93
565 92
564 92
563 91
562 90
561 90
560 89
559 89
558 88
557 88
556 87
555 86
554 86
553 85
552 84
551 84
550 83
549 83
548 82
547 81
546 81
545 80
544 80
543 79
542 78
541 78
540 77
539 76
538 76
537 75
536 74
535 74
534 73
533 72
532 72
531 71
530 70
529 70
528 70
527 69
526 68
525 68
524 67
523 67
522 66
521 65
520 65
519 64
518 63
517 63
516 62
515 62
514 61
513 61
512 60
511 60
510 59
509 59
508 58
507 57
506 57
505 57
504 56
503 55
502 55
501 55
500 54
499 54
498 54
497 54
496 53
495 53
494 52
493 52
492 52
491 51
490 51
489 51
488 50
487 50
486 49
485 49
484 49
483 49
482 48
481 48
480 47
479 47
478 47
477 46
476 46
475 46
474 45
473 45
472 45
471 44
470 44
469 44
468 43
467 43
466 43
465 42
464 42
463 42
462 41
461 41
460 41
459 40
458 40
457 40
456 40
455 40
454 39
453 39
452 38
451 38
450 38
449 37
448 37
447 37
446 37
445 36
444 36
443 36
442 36
441 36
440 36
439 36
438 36
437 36
436 36
435 36
434 36
433 36
432 36
431 36
430 36
429 36
428 36
427 36
426 36
425 36
424 36
423 36
422 35
421 35
420 35
419 35
418 35
417 35
416 35
415 34
414 34
413 34
412 34
411 34
410 33
409 33
408 33
407 33
406 32
405 32
404 32
403 31
402 31
401 31
400 31
399 30
398 30
397 30
396 30
395 29
394 29
393 29
392 29
391 28
390 28
389 28
388 27
387 27
386 27
385 27
384 27
383 27
382 26
381 26
380 26
379 26
378 26
377 26
376 26
375 26
374 26
373 26
372 26
371 26
370 26
369 26
368 25
367 25
366 25
365 25
364 25
363 25
362 25
361 25
360 24
359 24
358 24
357 24
356 24
355 24
354 24
353 23
352 23
351 23
350 23
349 23
348 23
347 23
346 23
345 23
344 23
343 22
342 22
341 22
340 22
339 22
338 22
337 22
