366 36
366 37
365 38
364 37
363 37
362 37
361 37
360 38
359 38
358 38
357 38
356 38
355 38
354 39
353 39
352 39
351 39
350 39
349 40
348 39
347 40
346 41
345 41
344 41
343 41
342 41
341 42
340 41
339 41
338 41
337 41
336 42
335 42
334 42
333 42
332 41
331 41
330 42
329 42
328 42
327 43
326 43
325 44
324 44
323 45
322 45
321 46
320 46
319 47
318 47
317 47
316 47
315 48
314 48
313 49
312 49
311 50
310 50
309 50
308 51
307 51
307 52
306 53
305 52
304 52
303 52
302 53
301 52
300 53
299 53
298 53
297 54
296 54
295 54
294 54
293 54
292 54
291 55
290 55
289 54
288 55
287 55
286 55
285 55
284 55
283 55
282 56
281 56
280 56
279 56
278 57
277 57
276 57
275 57
274 57
273 58
272 58
271 58
270 59
269 59
268 60
267 60
266 60
266 61
265 62
264 62
263 63
262 63
261 63
260 63
259 63
258 63
257 64
256 64
255 64
254 64
253 65
252 65
251 65
250 65
250 66
250 67
250 68
250 69
250 70
249 71
248 72
247 73
246 74
245 75
244 76
243 77
242 78
241 79
240 80
239 81
238 82
237 83
236 84
235 84
234 85
233 85
232 86
232 87
231 88
230 87
230 86
229 87
228 88
227 87
226 87
225 88
224 88
223 89
222 89
221 90
220 90
219 91
218 91
217 92
216 93
215 93
214 93
213 94
212 94
211 94
210 95
209 96
208 97
207 97
206 98
205 99
204 99
203 100
202 100
201 101
200 102
199 102
198 103
197 103
196 103
195 103
194 104
193 105
193 106
193 107
194 108
195 109
194 110
194 111
194 112
194 113
193 114
193 115
192 116
192 117
191 118
191 119
190 120
189 121
188 122
187 123
186 123
185 124
184 125
183 125
183 126
182 127
181 127
180 128
180 129
179 130
178 129
177 130
176 130
175 131
174 131
173 132
172 132
171 133
170 134
169 135
168 136
167 137
166 137
165 138
164 139
163 140
162 141
161 142
161 143
160 144
159 145
158 145
157 145
156 146
155 147
154 148
155 148
156 149
155 150
154 150
154 151
155 152
156 153
156 154
156 155
156 156
155 157
156 158
156 159
155 160
155 161
154 162
153 163
153 164
152 165
152 166
151 167
151 168
150 169
149 169
149 170
148 171
147 171
146 172
145 172
144 172
143 173
142 174
141 175
140 175
139 176
138 177
137 177
136 178
135 179
134 179
133 180
132 181
131 182
130 183
129 184
128 185
127 185
126 186
125 186
124 187
124 188
125 188
126 189
126 190
125 191
125 192
124 193
124 194
123 195
122 196
122 197
122 198
121 199
120 200
120 201
119 202
118 203
117 204
116 204
115 204
114 205
113 206
112 206
111 206
110 207
109 207
108 207
107 208
106 208
105 209
104 210
103 211
102 211
101 212
100 213
99 214
98 214
97 215
96 216
97 217
97 218
97 219
97 220
97 221
97 222
97 223
96 224
96 225
95 226
95 227
95 228
95 229
94 230
93 230
92 231
91 231
90 232
89 232
88 232
87 233
86 233
85 234
84 234
83 234
82 235
81 235
80 236
79 236
78 237
77 237
76 237
75 238
74 238
73 238
72 239
71 239
70 240
69 241
68 241
67 241
66 242
65 242
64 242
63 243
62 243
61 243
60 244
59 244
58 244
57 245
56 245
55 245
54 245
54 246
55 247
56 248
57 249
58 250
59 251
60 252
61 252
62 253
63 254
64 255
65 255
66 256
67 256
68 257
69 257
70 258
71 258
72 259
73 259
74 260
75 260
76 260
77 261
78 261
79 261
80 261
81 262
82 262
83 263
84 263
85 264
86 264
87 265
88 266
89 267
90 268
90 269
91 270
92 271
92 272
93 272
94 272
95 273
96 273
97 273
98 273
99 274
100 274
101 275
102 275
103 275
104 275
105 276
105 277
106 277
107 278
108 278
109 278
110 277
111 278
111 279
111 280
111 279
112 278
113 278
114 279
115 280
115 281
116 282
116 283
116 284
117 285
117 286
117 287
117 288
117 289
117 290
117 291
117 292
116 293
117 294
118 295
119 295
120 296
121 296
122 297
123 297
124 298
125 299
126 300
127 301
128 302
129 303
130 304
131 305
132 305
133 306
134 307
135 307
136 308
137 309
138 309
139 310
140 310
141 311
142 312
143 313
144 314
145 315
146 316
147 317
148 318
149 319
150 320
150 321
150 322
150 323
150 324
150 325
150 326
150 327
151 327
152 327
153 328
154 328
155 328
156 328
157 328
158 328
159 329
160 329
161 329
162 330
162 331
163 331
164 332
165 333
165 334
166 335
167 336
168 336
169 337
170 337
171 338
172 339
173 339
174 340
175 340
176 341
177 341
178 341
179 342
180 343
179 344
180 343
181 344
182 344
183 345
183 346
184 347
185 347
186 348
187 349
187 350
188 351
189 352
190 353
190 354
191 355
191 356
191 357
191 358
191 359
192 360
193 360
194 361
195 361
196 361
197 361
198 361
199 361
200 361
201 361
202 362
203 362
204 362
205 363
206 363
207 364
208 364
209 365
210 365
211 365
212 366
213 366
214 366
215 367
216 368
217 369
218 369
219 369
220 370
221 371
222 371
223 371
224 372
225 372
226 373
227 373
228 373
229 373
230 374
229 375
229 376
229 375
230 374
231 374
232 374
233 375
232 376
231 376
232 376
233 376
234 375
235 376
236 376
237 377
238 378
239 378
240 378
241 379
242 380
243 380
244 381
245 382
246 382
247 383
247 384
248 385
249 386
250 387
250 388
249 389
249 390
250 391
251 391
252 391
253 391
254 392
255 392
256 393
257 393
258 393
259 393
260 393
261 393
262 393
263 393
264 394
265 394
266 394
267 394
268 395
269 395
270 395
271 395
272 396
273 396
274 397
275 397
276 397
277 397
278 397
279 397
280 398
279 397
280 396
281 396
282 397
283 396
284 395
285 396
286 396
287 396
288 396
289 396
290 396
291 397
292 397
293 397
294 397
295 397
296 398
297 399
298 399
299 399
300 400
301 400
302 401
303 401
304 401
305 402
306 403
306 404
306 405
306 406
306 407
306 408
307 409
308 409
309 409
310 409
311 410
312 410
313 410
314 410
315 410
316 410
317 410
318 411
317 412
316 412
317 412
318 411
319 412
320 412
321 411
322 411
323 411
324 411
325 412
326 412
327 413
328 413
329 413
330 414
331 414
332 415
333 415
334 415
335 416
336 415
337 416
338 417
339 417
340 418
341 418
342 418
343 419
344 419
345 419
346 420
347 420
348 420
349 420
350 420
351 421
352 421
353 421
354 421
355 421
356 420
357 420
358 421
359 421
360 421
361 421
362 422
363 422
364 421
365 422
366 422
367 423
368 423
369 423
370 424
371 424
372 424
373 424
374 424
375 424
376 425
377 425
378 425
379 426
380 426
381 427
382 427
383 428
384 428
385 428
386 428
387 428
388 428
389 428
390 428
391 428
392 428
393 428
394 428
395 428
396 429
397 429
398 429
399 429
400 430
401 430
402 430
403 430
404 430
405 430
406 431
407 431
408 431
409 431
410 431
411 431
412 431
413 431
414 431
415 431
416 431
417 431
418 431
419 431
420 431
421 431
422 431
423 431
424 431
425 430
426 430
427 430
428 430
429 430
430 429
431 429
432 429
433 429
434 429
435 428
436 428
437 428
438 428
439 428
440 427
441 427
442 427
443 427
444 426
445 426
446 426
447 425
448 425
449 425
450 424
451 424
452 424
453 424
454 424
455 424
456 424
457 424
458 424
459 424
460 424
461 425
462 426
463 427
464 428
465 428
466 428
467 427
468 427
469 426
470 426
471 425
472 426
473 425
474 425
475 425
476 426
477 426
476 426
475 425
476 424
477 424
478 423
479 423
480 423
481 424
480 423
481 422
482 422
483 421
484 421
485 421
486 420
487 420
488 419
489 419
490 418
491 418
492 417
493 417
494 417
495 416
496 416
497 415
498 415
499 414
500 414
501 413
502 413
503 413
504 412
505 412
506 411
507 411
508 410
509 410
510 409
511 409
512 408
513 408
514 407
515 407
516 406
517 406
518 405
519 404
520 404
521 404
522 403
523 402
524 402
525 402
526 401
527 401
528 401
529 401
530 400
531 400
532 400
533 399
534 399
535 399
536 398
537 398
538 397
539 397
540 397
541 396
540 396
539 395
540 394
541 394
542 394
543 394
544 394
545 394
546 393
547 392
548 392
549 392
550 391
551 391
552 391
553 390
554 390
555 390
556 390
557 390
558 390
559 390
560 390
561 389
562 388
563 388
564 387
565 387
566 386
567 386
568 385
569 384
570 384
571 383
572 382
573 381
574 381
575 380
576 379
577 378
578 377
579 376
580 375
581 374
582 373
583 373
584 372
584 371
585 370
586 369
587 369
588 368
589 367
590 366
591 366
592 365
593 364
594 363
595 362
596 361
596 360
597 359
598 358
599 357
600 356
601 355
602 354
603 353
604 352
605 351
606 350
607 349
607 348
608 347
609 346
610 345
611 344
612 343
612 342
613 341
614 340
615 339
615 338
616 337
617 336
617 335
618 334
618 333
619 332
619 331
620 330
621 329
622 328
623 327
623 326
624 325
625 324
625 323
626 322
627 321
627 320
628 319
629 318
630 317
630 316
631 315
631 314
632 313
633 312
634 311
634 310
635 309
635 308
636 307
636 306
637 305
638 304
638 303
639 302
639 301
639 300
640 299
641 298
642 297
642 296
643 295
644 294
644 293
645 292
645 291
646 290
646 289
647 288
648 287
648 286
649 285
649 284
650 283
650 282
650 281
651 280
652 279
652 278
652 277
653 276
653 275
654 274
654 273
655 272
655 271
655 270
656 269
657 268
657 267
657 266
658 265
658 264
658 263
659 262
659 261
659 260
659 259
659 258
659 257
660 256
660 255
660 254
660 253
661 252
661 251
661 250
661 249
661 248
661 247
662 246
662 245
662 244
661 243
662 242
662 241
662 240
663 239
662 238
663 237
663 236
663 235
663 234
663 233
663 232
663 231
663 230
663 229
663 228
662 227
662 226
662 225
662 224
662 223
662 222
661 221
661 220
661 219
662 218
663 217
664 217
665 216
666 216
667 215
668 215
669 215
670 215
671 215
672 214
673 215
674 214
675 214
676 214
677 214
678 214
679 214
680 213
681 214
682 214
683 214
684 214
685 213
686 213
687 213
688 213
689 213
690 213
691 213
692 213
693 213
694 213
695 213
696 213
697 213
698 213
699 213
700 213
701 213
702 213
703 213
704 213
705 213
706 214
707 214
708 214
709 214
710 214
711 214
712 214
713 214
714 215
715 215
716 215
717 215
718 215
719 215
720 216
721 216
722 216
723 216
722 215
723 214
724 214
725 214
726 215
727 214
728 214
728 213
727 213
726 213
725 213
724 213
723 212
724 211
723 211
722 210
723 209
723 208
724 207
724 206
724 205
724 204
723 204
722 203
721 204
720 203
720 204
719 205
718 205
717 205
716 205
715 204
714 204
713 204
712 204
711 203
711 202
712 201
711 201
710 201
709 201
708 201
707 202
706 201
705 201
704 202
703 203
702 203
701 202
700 201
699 201
698 201
697 201
696 201
695 201
694 201
693 201
692 201
691 201
690 201
689 201
688 201
687 201
686 202
685 202
684 202
683 202
682 202
681 202
680 202
679 202
678 203
677 203
676 203
675 203
674 203
673 203
672 204
671 204
670 204
669 205
668 205
667 205
666 205
665 205
664 205
663 205
662 205
661 206
660 206
659 206
658 206
657 206
656 206
655 205
654 205
653 205
652 204
652 203
651 202
652 201
652 200
652 199
652 198
651 197
651 196
651 195
650 194
650 193
650 192
649 191
649 190
648 189
648 188
647 187
647 186
646 185
646 184
645 183
645 182
644 181
644 180
643 179
643 178
642 177
642 176
641 175
641 174
640 173
640 172
639 171
639 170
638 169
637 169
636 168
637 167
636 166
636 165
635 164
634 163
634 162
633 161
633 160
632 159
631 158
631 157
630 156
630 155
629 154
628 153
627 152
627 151
626 150
625 149
624 148
623 147
622 146
621 145
620 144
619 143
618 142
617 141
616 140
615 140
614 139
613 138
612 137
611 136
610 135
609 134
609 133
608 133
607 132
607 131
606 131
605 130
604 129
604 128
603 128
602 127
601 126
601 125
600 125
599 124
598 123
597 123
596 122
595 121
594 120
593 119
592 118
591 117
590 116
589 116
588 115
587 114
587 113
586 112
585 111
584 110
583 109
582 108
581 108
580 107
580 106
579 106
578 105
577 104
576 103
575 102
574 101
573 100
572 99
571 98
570 98
569 97
568 96
567 95
566 94
565 93
564 92
563 91
562 91
561 90
561 89
560 89
559 88
558 88
557 87
556 87
555 86
554 86
553 85
552 85
551 85
550 84
549 84
548 83
547 82
546 82
545 81
544 80
543 80
542 79
541 79
540 79
539 79
538 78
537 78
536 77
535 77
534 76
533 76
532 76
531 75
530 74
529 75
528 74
527 73
526 73
525 73
524 72
523 72
522 71
521 70
520 70
519 69
518 69
517 69
516 69
515 69
514 69
513 69
512 69
511 69
510 68
509 68
508 68
507 68
506 67
505 68
504 69
503 68
502 68
501 67
500 67
499 67
498 66
497 66
496 66
495 66
494 66
493 66
492 66
491 65
490 65
489 64
488 64
487 64
486 63
485 63
484 63
483 62
482 62
481 62
480 61
479 61
478 60
477 60
476 61
475 60
475 59
474 59
473 59
472 58
471 57
470 57
469 57
468 56
467 56
466 55
465 55
464 55
463 54
462 53
461 53
460 52
459 52
458 51
457 51
456 50
455 50
454 50
453 49
452 49
451 49
450 49
449 48
448 48
447 48
446 47
445 47
444 46
443 46
442 45
441 45
440 44
439 44
438 43
437 43
436 42
435 42
434 42
433 41
432 41
431 41
430 41
429 40
428 41
427 40
426 40
425 39
424 39
423 39
422 39
421 38
420 38
419 38
418 37
417 37
416 37
415 37
414 37
413 37
412 37
411 37
410 38
409 37
408 37
407 37
406 38
405 37
404 37
403 37
402 38
401 38
400 38
399 38
398 38
397 38
396 38
395 38
394 38
393 38
392 38
391 38
390 38
389 38
388 38
387 39
386 38
385 38
384 38
383 38
382 37
381 37
380 37
379 37
378 38
377 37
376 37
375 38
374 37
373 38
372 37
371 37
370 38
369 37
368 36
367 37
366 36
