453 71
453 72
453 73
453 74
453 75
454 76
454 77
454 78
455 79
455 80
456 81
456 82
456 83
456 84
456 85
456 86
457 87
457 88
457 89
457 90
457 91
457 92
457 93
457 94
457 95
457 96
457 97
457 98
457 99
456 100
456 101
456 102
456 103
456 104
456 105
456 106
456 107
455 108
455 109
455 110
454 111
454 112
454 113
453 114
453 115
452 116
452 117
451 118
451 119
450 120
449 121
449 122
448 123
448 124
447 125
446 126
446 127
445 128
445 129
444 130
443 131
443 132
442 133
442 134
442 135
441 136
441 137
440 138
440 139
439 140
439 141
439 142
438 143
437 144
437 145
436 146
436 147
435 148
435 149
435 150
435 151
435 152
435 153
435 154
434 155
434 156
433 157
433 158
433 159
433 160
433 161
432 162
432 163
432 164
432 165
431 166
431 167
431 168
431 169
431 170
431 171
431 172
430 173
430 174
430 175
430 176
429 177
429 178
429 179
429 180
429 181
429 182
429 183
429 184
429 185
429 186
429 187
428 188
428 189
428 190
428 191
428 192
428 193
428 194
428 195
428 196
428 197
428 198
428 199
427 200
427 201
428 202
428 203
428 204
428 205
428 206
428 207
429 208
429 209
429 210
429 211
429 212
430 213
430 214
430 215
430 216
430 217
431 218
431 219
431 220
431 221
431 222
432 223
432 224
433 225
433 226
434 227
434 228
434 229
435 230
435 231
436 232
437 233
437 234
438 235
439 236
439 237
439 238
440 239
441 240
442 241
443 242
444 243
445 244
446 244
447 245
448 245
449 246
450 247
451 247
452 248
453 248
454 249
455 250
456 250
457 251
458 251
459 252
460 252
461 253
462 253
463 254
464 254
465 254
466 254
467 254
468 255
469 255
470 255
471 255
472 255
473 255
474 256
475 256
476 256
477 256
478 256
479 256
480 256
481 257
482 257
483 256
484 257
484 258
485 259
484 260
483 260
482 260
481 260
480 260
479 260
478 260
477 260
476 260
475 260
474 260
473 260
472 260
471 260
470 260
469 260
468 260
467 260
466 260
465 260
464 259
463 259
462 259
461 259
460 259
459 259
458 259
457 259
456 259
455 259
454 259
453 259
452 259
451 259
450 259
449 259
448 259
447 259
446 259
445 259
444 259
443 259
442 259
441 259
440 259
439 259
438 259
437 259
436 259
435 259
434 259
433 259
432 259
431 259
430 259
429 259
428 259
427 259
426 259
425 259
424 259
423 259
422 259
421 259
420 259
419 259
418 259
417 259
416 259
415 259
414 259
413 259
412 259
411 259
410 259
409 259
408 259
407 258
407 257
408 256
409 256
410 255
411 254
412 253
413 252
413 251
414 250
414 249
415 248
415 247
416 246
416 245
416 244
417 243
417 242
417 241
418 240
418 239
418 238
418 237
418 236
418 235
418 234
418 233
418 232
419 231
418 230
418 229
418 228
418 227
418 226
418 225
418 224
418 223
418 222
418 221
418 220
418 219
418 218
418 217
418 216
418 215
418 214
417 213
417 212
417 211
416 210
416 209
416 208
416 207
415 206
415 205
415 204
415 203
415 202
414 201
414 200
414 199
414 198
414 197
414 196
413 195
413 194
412 193
412 192
411 191
410 190
410 189
409 188
409 187
408 186
407 185
406 184
406 183
405 182
405 181
404 180
404 179
403 178
402 177
402 176
401 175
400 174
400 173
399 172
399 171
398 170
397 169
397 168
396 167
395 166
394 165
394 164
393 163
393 162
392 161
391 160
391 159
390 159
389 158
388 157
387 156
386 155
385 154
384 153
383 152
382 151
381 150
380 149
379 148
378 147
377 147
376 146
376 145
375 144
374 144
373 144
372 143
371 142
370 141
369 141
368 140
368 139
367 138
366 137
365 136
364 136
363 135
362 134
361 133
360 133
359 132
358 131
357 131
356 130
355 130
354 130
353 129
352 128
351 127
350 126
349 126
348 126
347 125
346 125
345 124
344 123
343 123
342 123
341 122
340 121
339 120
338 120
337 119
336 118
335 117
334 117
333 117
332 116
331 115
330 114
329 113
328 112
327 111
326 110
325 111
324 112
323 113
322 113
321 114
320 115
319 115
318 116
317 117
316 117
315 118
314 119
313 120
312 121
312 122
313 123
313 124
313 125
313 126
313 127
313 128
313 129
313 130
313 131
313 132
313 133
313 134
312 135
312 136
312 137
312 138
312 139
311 140
311 141
311 142
311 143
311 144
311 145
310 146
310 147
310 148
310 149
310 150
310 151
310 152
309 153
309 154
309 155
310 156
310 157
310 158
310 159
310 160
310 161
310 162
310 163
310 164
310 165
310 166
310 167
310 168
310 169
310 170
310 171
310 172
310 173
311 174
311 175
311 176
311 177
311 178
311 179
311 180
311 181
312 182
312 183
311 184
312 185
312 186
312 187
312 188
313 189
313 190
313 191
313 192
313 193
313 194
314 195
314 196
314 197
314 198
313 199
312 198
311 197
311 196
310 195
310 194
309 194
308 193
308 192
307 191
307 190
307 189
306 188
305 187
304 186
304 185
304 184
303 183
302 182
301 181
301 180
300 179
299 178
299 177
298 177
297 176
296 175
296 174
295 173
294 173
293 172
292 171
291 170
290 169
289 168
288 167
287 166
286 165
285 164
284 163
283 162
282 162
281 161
280 161
279 160
278 159
277 159
276 158
275 158
274 158
273 157
273 156
272 155
271 154
270 153
269 153
268 152
267 151
266 150
265 149
264 149
263 148
262 148
261 147
260 146
259 146
258 146
257 145
256 144
255 143
254 142
253 142
252 142
251 141
250 140
249 140
248 139
247 139
246 138
245 138
244 137
244 136
243 136
242 135
241 134
240 133
239 132
238 131
237 131
236 130
236 129
235 128
234 127
233 127
232 126
231 125
231 124
230 123
229 123
228 122
228 121
227 120
226 119
225 118
224 117
223 116
223 115
222 114
221 113
221 112
220 111
219 110
219 109
218 108
217 107
216 106
216 105
216 104
215 103
215 102
214 101
213 100
212 100
213 101
213 102
213 103
213 104
213 105
214 106
214 107
215 108
215 109
215 110
215 111
216 112
216 113
216 114
216 115
217 116
217 117
217 118
218 119
218 120
218 121
218 122
219 123
219 124
219 125
219 126
219 127
219 128
219 129
219 130
219 131
219 132
219 133
219 134
220 135
220 136
219 137
219 138
219 139
219 140
219 141
219 142
220 143
220 144
220 145
220 146
220 147
220 148
220 149
220 150
220 151
220 152
220 153
220 154
220 155
220 156
221 157
221 158
220 159
220 160
220 161
220 162
220 163
220 164
220 165
220 166
220 167
220 168
220 169
220 170
220 171
220 172
220 173
220 174
219 175
219 176
219 177
219 178
219 179
219 180
220 181
220 182
220 183
220 184
220 185
220 186
220 187
220 188
220 189
220 190
220 191
220 192
220 193
220 194
220 195
220 196
220 197
220 198
221 199
221 200
221 201
221 202
221 203
221 204
221 205
221 206
222 207
222 208
222 209
221 210
220 209
219 209
218 208
218 207
217 206
217 205
216 205
215 204
214 203
214 202
213 201
212 200
211 199
210 198
209 197
208 196
207 195
207 194
206 193
205 193
204 192
203 191
202 191
201 190
200 190
199 190
198 191
197 191
196 190
195 189
195 188
195 187
195 186
194 186
193 185
192 184
192 183
191 183
190 182
189 182
188 182
187 181
186 180
185 180
184 179
183 178
182 177
181 176
180 176
179 176
178 175
177 175
176 175
175 174
174 173
173 173
172 172
171 172
170 172
169 171
168 170
167 170
166 169
165 169
164 168
163 168
162 167
161 166
160 165
159 165
158 165
157 164
156 164
155 163
154 163
153 162
152 162
151 161
150 161
149 161
148 160
147 160
146 160
145 160
144 160
143 160
142 159
141 159
140 159
139 159
138 159
137 159
136 159
135 159
134 160
133 161
132 161
131 160
130 159
129 159
128 158
127 157
126 156
125 156
124 155
123 154
122 153
122 154
122 155
123 156
124 157
125 158
126 159
127 160
128 161
129 162
130 163
131 163
132 163
133 163
134 163
135 164
136 164
137 164
138 165
139 166
139 167
139 168
139 169
140 170
140 171
139 172
139 173
140 174
140 175
140 176
140 177
141 178
140 179
140 180
140 181
141 182
141 183
141 184
141 185
141 186
141 187
141 188
142 189
142 190
142 191
142 192
142 193
143 194
143 195
143 196
144 197
144 198
144 199
144 200
144 201
144 202
144 203
144 204
144 205
144 206
145 207
145 208
145 209
146 210
146 211
146 212
146 213
146 214
147 215
147 216
147 217
147 218
148 219
148 220
148 221
148 222
148 223
149 224
149 225
149 226
150 227
150 228
150 229
151 230
151 231
151 232
152 233
152 234
153 235
153 236
153 237
153 238
153 239
154 240
154 241
155 242
155 243
156 244
157 245
157 246
158 247
159 248
159 249
160 250
160 251
160 252
161 253
162 254
162 255
163 256
164 257
165 258
165 259
166 260
167 261
168 262
169 263
170 264
169 265
168 265
167 264
166 263
165 263
164 262
163 261
162 261
161 261
160 260
159 260
158 259
157 259
156 258
155 258
154 258
153 257
152 257
151 257
150 256
149 255
148 255
147 254
146 254
145 254
144 253
143 253
142 253
141 252
140 252
139 252
138 252
137 251
136 251
135 251
134 251
133 251
132 251
131 251
130 250
129 250
128 250
127 250
126 250
125 250
124 249
123 249
122 249
121 249
120 249
119 249
118 249
117 249
116 249
115 249
114 249
113 249
112 249
111 249
110 249
109 249
108 248
107 248
106 248
105 248
104 248
103 247
102 247
101 247
100 246
99 246
98 246
97 246
96 245
96 244
96 243
96 242
96 241
96 240
96 239
96 238
96 237
95 236
95 235
94 234
94 235
95 236
95 237
95 238
95 239
95 240
94 241
94 242
93 243
93 244
94 245
94 246
95 247
95 248
96 249
96 250
97 251
97 252
98 253
98 254
99 255
100 256
100 257
101 258
101 259
101 260
102 261
103 262
103 263
103 264
104 265
105 266
106 267
106 268
107 269
107 270
108 271
109 272
109 273
110 274
111 275
112 276
113 277
114 277
115 278
116 279
117 280
118 280
119 281
120 282
121 283
122 283
123 284
124 285
125 285
126 286
127 286
128 287
129 288
130 288
131 289
132 289
133 290
134 290
135 291
136 292
137 292
138 293
139 294
140 294
141 295
142 295
143 296
144 296
145 296
146 297
147 298
148 298
149 298
150 298
151 299
152 299
153 300
154 300
155 300
156 301
157 301
158 301
159 301
160 301
161 301
162 302
163 302
164 302
165 302
166 302
167 302
168 303
167 304
166 305
165 306
164 307
164 308
163 309
162 309
162 310
161 311
161 312
160 313
160 314
159 315
158 316
158 317
157 318
157 319
157 320
156 321
156 322
156 323
156 324
155 325
155 326
154 327
154 328
154 329
154 330
154 331
154 332
154 333
154 334
154 335
154 336
154 337
154 338
154 339
154 340
154 341
154 342
154 343
154 344
155 345
155 346
155 347
155 348
155 349
155 350
155 351
155 352
156 353
156 354
156 355
156 356
156 357
157 358
157 359
157 360
158 361
158 362
158 363
159 364
159 365
159 366
160 367
160 368
160 369
161 370
161 371
161 372
161 373
162 374
162 375
162 376
162 377
162 378
162 379
162 380
161 381
161 382
162 383
162 384
161 385
162 386
163 387
164 387
165 387
166 386
167 386
168 387
168 388
169 389
170 389
171 390
172 390
173 390
174 391
174 392
175 393
175 394
175 395
174 396
174 397
174 398
174 399
173 400
172 401
171 401
170 402
170 403
170 404
170 405
171 406
171 407
171 408
171 409
171 410
171 411
171 412
171 413
171 414
171 415
171 416
171 417
171 418
171 419
171 420
171 421
170 422
170 423
171 424
170 425
170 426
170 427
170 428
170 429
170 430
170 431
169 432
169 433
169 434
168 435
168 436
167 437
167 438
167 439
166 440
166 441
166 442
167 443
168 444
169 444
170 444
171 443
172 443
173 442
174 441
175 440
174 440
173 439
173 438
174 437
175 437
175 436
176 435
177 434
177 433
178 432
179 432
180 431
180 430
181 429
182 428
183 427
183 426
184 425
185 424
186 423
186 422
185 422
184 421
183 420
182 419
182 418
182 417
181 416
182 415
183 415
182 414
183 413
184 413
185 414
186 415
187 415
188 416
189 416
190 417
191 418
192 418
193 418
194 417
195 417
196 416
197 416
198 415
198 414
199 413
200 412
201 412
202 411
203 410
204 410
205 409
205 408
206 407
207 406
208 405
209 404
210 404
211 403
212 402
213 401
214 401
215 400
215 399
216 398
217 397
218 396
218 395
219 394
220 393
221 392
222 392
223 391
223 390
224 389
225 388
226 387
227 386
227 385
228 384
229 383
230 382
230 381
230 380
231 379
231 378
232 377
232 376
232 375
233 374
234 373
234 372
234 371
235 370
235 369
235 368
236 367
236 366
236 365
237 364
237 363
238 362
238 361
238 360
238 359
239 358
239 357
240 356
240 355
240 354
241 353
241 352
242 351
242 350
242 349
242 348
242 347
243 346
243 345
243 344
243 343
243 342
243 341
244 340
244 339
244 338
244 337
244 336
244 335
244 334
245 333
245 332
246 331
246 330
246 329
246 328
246 327
246 326
246 325
247 324
248 323
248 322
248 321
248 320
248 319
248 318
248 317
248 316
249 315
249 314
249 313
249 312
249 311
249 310
249 309
249 308
250 307
250 306
250 305
251 304
251 303
251 302
250 301
250 300
250 299
250 298
250 297
249 296
249 295
249 294
249 293
248 292
248 291
248 290
247 289
247 288
246 287
245 286
245 285
244 284
243 284
242 283
242 282
243 281
244 281
245 281
246 281
247 280
248 280
249 280
250 280
251 280
252 280
253 280
254 280
255 280
256 279
257 279
258 279
259 279
260 279
261 279
262 278
263 278
264 278
265 278
266 278
267 278
268 278
269 278
270 278
271 278
272 277
273 277
274 277
275 277
276 277
277 277
278 276
279 276
280 276
281 276
282 276
283 276
284 276
285 276
286 276
287 276
288 275
289 275
290 275
291 275
292 275
293 275
294 275
295 275
296 274
297 275
297 276
296 277
295 277
294 277
293 277
292 277
291 277
290 278
289 279
288 279
287 280
286 280
285 280
284 281
283 282
282 282
281 283
280 284
279 285
278 286
277 287
276 288
275 289
274 290
273 291
273 292
272 293
271 293
271 294
270 295
269 296
268 297
268 298
267 299
266 300
265 301
265 302
264 303
264 304
263 305
262 306
262 307
261 308
261 309
261 310
260 311
259 312
258 313
258 314
258 315
257 316
257 317
256 318
255 319
255 320
255 321
255 322
254 323
254 324
253 325
253 326
253 327
252 328
252 329
252 330
252 331
251 332
251 333
251 334
251 335
251 336
251 337
251 338
251 339
251 340
251 341
251 342
251 343
251 344
251 345
251 346
251 347
250 348
251 349
251 350
251 351
251 352
251 353
251 354
251 355
251 356
251 357
251 358
251 359
251 360
251 361
252 362
252 363
252 364
252 365
252 366
252 367
253 368
253 369
253 370
253 371
253 372
254 373
254 374
254 375
254 376
255 377
255 378
256 379
256 380
256 381
256 382
257 383
257 384
257 385
257 386
258 387
258 388
258 389
259 390
259 391
259 392
259 393
260 394
260 395
261 396
261 397
262 398
262 399
262 400
263 401
264 402
265 403
265 404
265 405
265 406
266 407
266 408
267 409
267 410
268 411
268 412
269 413
270 414
270 415
271 416
271 417
272 418
272 419
273 420
274 421
274 422
275 423
275 424
276 425
277 426
277 427
277 428
278 429
279 430
279 431
279 432
280 433
280 434
281 435
281 436
282 437
282 438
283 439
283 440
283 441
284 442
284 443
285 444
285 445
286 446
286 447
286 448
286 449
287 450
287 451
287 452
287 453
287 454
288 455
288 456
288 457
288 458
288 459
288 460
289 461
289 462
289 463
289 464
289 465
289 466
289 467
289 468
289 469
288 470
288 471
288 472
288 473
287 474
287 475
287 476
287 477
287 478
287 479
287 480
287 481
288 481
288 480
288 479
288 478
288 477
289 476
290 475
290 474
290 473
291 472
291 471
291 470
292 469
292 468
292 467
292 466
292 465
293 464
293 463
293 462
294 461
294 460
294 459
295 458
295 457
295 456
295 455
296 454
296 453
296 452
296 451
296 450
297 449
297 448
297 447
298 446
298 445
298 444
298 443
298 442
299 441
299 440
299 439
300 438
300 437
301 436
301 435
301 434
302 433
303 432
303 431
303 430
303 429
304 428
304 427
304 426
305 425
306 424
306 423
307 422
307 421
308 420
309 419
309 418
310 417
310 416
310 415
311 414
311 413
312 412
312 411
313 410
313 409
314 408
314 407
315 406
316 405
316 404
317 403
318 402
319 401
320 400
320 399
321 398
321 397
322 396
322 395
323 394
323 393
324 392
325 393
326 394
326 395
327 396
328 397
329 397
330 397
331 398
332 399
333 400
334 401
334 402
333 403
333 404
332 405
331 406
331 407
330 408
329 409
328 410
328 411
328 412
328 413
328 414
327 415
327 416
327 417
327 418
327 419
327 420
327 421
328 422
328 423
327 424
327 425
327 426
327 427
327 428
327 429
327 430
327 431
327 432
327 433
326 434
326 435
326 436
326 437
326 438
326 439
326 440
326 441
326 442
325 443
325 444
325 445
325 446
324 447
323 448
322 448
321 448
322 449
322 450
323 450
324 449
325 449
326 449
327 448
328 447
328 446
329 445
329 444
330 443
331 442
332 441
332 440
333 439
333 438
334 437
334 436
335 435
335 434
336 433
336 432
337 431
337 430
338 429
339 428
340 427
340 426
341 425
341 424
342 423
342 422
343 421
344 421
344 420
345 419
346 418
347 418
347 417
348 416
349 416
350 415
351 415
351 414
352 413
353 412
354 411
355 410
356 409
357 408
358 407
359 407
360 406
361 405
362 404
363 403
364 403
365 402
366 401
367 401
368 400
369 399
370 399
371 398
372 398
372 397
373 396
374 395
375 394
376 393
377 392
378 391
379 390
380 389
381 388
382 387
383 386
384 385
385 384
386 384
386 383
387 382
388 382
388 381
389 380
390 379
391 378
391 377
392 376
393 376
394 375
394 374
395 373
396 372
397 372
398 371
398 370
399 369
400 368
400 367
400 366
401 365
402 364
403 363
403 362
404 361
405 360
406 359
406 358
407 357
407 356
407 355
408 354
409 354
409 353
410 352
411 351
412 350
413 349
413 348
413 347
413 346
413 345
413 344
414 343
415 342
416 343
416 344
416 345
416 346
416 347
416 348
416 349
416 350
417 351
417 352
417 353
417 354
417 355
417 356
417 357
418 358
418 359
418 360
418 361
418 362
418 363
418 364
419 365
419 366
419 367
419 368
419 369
419 370
419 371
419 372
420 373
420 374
420 375
421 376
421 377
421 378
421 379
421 380
422 381
422 382
422 383
423 383
424 384
424 385
424 386
424 387
424 388
424 389
424 390
425 391
426 392
426 393
426 394
427 395
427 396
428 397
428 398
429 399
429 400
430 401
430 402
431 403
431 404
431 405
431 406
432 407
432 408
433 409
433 410
433 411
434 412
434 413
434 414
434 415
434 416
435 417
435 418
436 419
436 420
436 421
437 422
437 423
437 424
437 425
437 426
437 427
438 428
438 429
438 430
438 431
438 432
438 433
438 434
439 435
439 436
439 437
439 438
439 439
439 440
439 441
439 442
439 443
439 444
439 445
439 446
439 447
439 448
439 449
439 450
439 451
439 452
439 453
438 454
438 455
437 456
437 457
438 458
439 459
440 459
441 459
442 458
442 457
443 456
444 455
444 454
444 453
445 452
445 451
446 450
447 449
447 448
447 447
448 446
448 445
449 444
450 443
450 442
451 441
451 440
452 439
452 438
453 437
453 436
454 435
455 434
456 433
457 432
458 431
459 430
459 429
460 428
460 427
461 426
462 425
463 424
464 423
465 422
466 421
467 420
467 419
468 418
469 417
469 416
470 415
471 414
472 413
473 413
474 413
475 412
476 412
476 411
477 410
478 409
479 408
480 407
480 406
481 405
482 405
483 404
483 403
484 402
485 401
486 400
487 399
488 398
488 397
489 396
490 395
491 394
492 393
492 392
493 391
494 390
494 389
495 388
496 387
497 386
497 385
498 384
499 383
500 384
501 385
501 386
501 387
502 388
502 389
501 390
501 391
501 392
501 393
501 394
501 395
501 396
501 397
501 398
501 399
501 400
501 401
501 402
501 403
501 404
501 405
502 406
502 407
502 408
502 409
502 410
502 411
502 412
502 413
502 414
502 415
502 416
502 417
502 418
501 419
501 420
501 421
501 422
500 423
500 424
500 425
500 426
500 427
499 428
499 429
498 430
498 431
497 432
497 433
497 434
497 435
498 435
499 436
500 436
501 437
502 436
503 435
504 434
505 433
506 433
507 432
508 431
509 430
510 430
511 429
512 428
513 427
514 427
515 426
516 426
517 425
518 424
519 423
520 422
521 422
522 421
523 421
524 420
525 419
526 418
527 418
528 417
529 417
530 416
531 415
532 414
533 413
534 412
535 412
536 411
537 411
538 410
539 409
540 408
541 408
542 407
543 406
544 405
545 404
546 403
547 403
548 402
549 401
550 400
551 399
552 398
553 397
554 396
555 395
555 394
556 393
557 393
558 392
559 391
560 390
561 389
562 388
563 387
564 386
565 385
565 384
566 383
567 383
568 382
569 381
569 380
570 379
571 378
571 377
572 376
573 375
573 374
573 373
574 372
574 371
575 370
576 369
577 368
578 367
579 366
579 365
580 364
580 363
581 362
582 361
583 360
583 359
584 358
585 359
585 360
585 361
585 362
585 363
585 364
586 365
586 366
586 367
586 368
586 369
586 370
586 371
586 372
586 373
586 374
586 375
586 376
586 377
586 378
586 379
586 380
586 381
585 382
585 383
585 384
585 385
585 386
584 387
584 388
584 389
584 390
584 391
584 392
584 393
583 394
583 395
583 396
583 397
582 398
582 399
582 400
582 401
581 402
581 403
581 404
580 405
580 406
580 407
579 408
579 409
578 410
578 411
577 412
577 413
576 414
575 415
575 416
576 415
577 414
578 413
579 413
580 412
581 411
582 410
583 409
584 408
585 407
586 406
587 405
588 404
589 403
590 402
591 401
592 400
593 399
594 399
595 398
596 397
597 397
598 396
598 395
599 394
600 393
601 392
602 392
603 391
604 390
605 390
606 389
607 388
608 387
609 386
610 386
611 385
612 385
613 385
614 384
615 383
616 383
617 382
618 381
619 381
619 380
620 379
621 378
622 378
623 377
624 377
625 376
626 375
627 374
628 374
629 373
630 372
631 371
632 370
633 369
634 369
635 368
636 367
637 366
638 366
639 365
640 364
641 364
642 363
642 362
643 361
644 360
645 360
646 359
646 358
647 357
648 356
648 355
649 354
649 353
650 352
651 351
652 350
652 349
653 348
653 347
654 346
654 345
655 344
655 343
656 342
656 341
656 340
657 339
658 338
658 337
658 336
659 335
659 334
660 333
660 332
660 331
661 330
662 329
662 328
662 327
663 326
662 325
662 324
663 323
663 322
663 321
663 320
663 319
663 318
663 317
662 316
662 315
662 314
661 313
661 312
660 311
660 310
659 309
658 308
658 307
659 306
660 306
661 305
662 304
663 304
664 304
665 304
666 304
667 304
668 304
669 304
670 304
671 304
672 304
673 305
674 305
675 305
676 305
677 305
678 306
679 306
680 306
681 306
682 306
683 306
684 307
685 307
686 307
687 307
688 307
689 307
690 308
691 308
692 308
693 308
694 308
695 309
696 309
697 309
698 309
699 310
700 310
701 310
702 310
703 310
704 311
705 311
706 311
707 311
708 312
709 312
710 312
711 312
712 312
713 313
714 313
715 313
716 314
717 314
718 314
719 314
720 315
721 315
722 315
723 316
724 316
725 317
726 317
727 317
728 318
729 318
730 319
731 319
732 319
733 319
734 319
735 319
736 319
737 318
737 317
737 316
737 315
737 314
737 313
737 312
736 311
736 310
736 309
736 308
735 308
734 308
733 308
732 308
731 308
730 308
729 308
728 308
727 308
726 308
725 308
724 308
723 308
722 308
721 308
720 308
719 308
718 308
717 307
716 307
715 307
714 307
713 307
712 307
711 307
710 306
709 306
708 306
707 306
706 306
705 306
704 306
703 305
702 305
701 305
700 305
699 305
698 305
697 305
696 304
695 304
694 304
693 304
692 304
691 304
690 304
689 304
688 303
687 303
686 303
685 303
684 303
683 303
682 302
681 302
680 302
679 302
678 302
677 302
676 301
675 301
674 301
673 300
672 299
673 298
674 298
675 298
676 297
677 296
678 296
679 295
680 294
681 293
682 293
683 292
683 291
684 290
684 289
685 288
686 287
687 286
688 285
689 285
690 284
691 283
692 282
693 281
694 280
695 279
696 279
697 278
698 277
699 276
700 275
701 274
702 273
703 272
703 271
704 270
704 269
705 268
706 267
707 266
707 265
707 264
708 263
709 263
709 262
710 261
711 260
712 259
713 258
713 257
714 256
715 255
716 254
716 253
717 252
717 251
718 250
719 250
720 249
720 248
721 247
722 246
723 245
724 244
724 243
725 242
726 241
727 240
728 239
729 239
730 238
731 237
732 236
733 235
734 234
735 233
735 232
736 231
736 230
736 229
735 230
734 230
733 231
732 231
731 232
730 232
729 232
728 232
727 233
726 233
725 233
724 233
723 233
722 234
721 234
720 233
719 234
718 234
717 234
716 234
715 234
714 234
713 234
712 234
711 234
710 234
709 234
708 234
707 234
706 234
705 234
704 234
703 234
702 233
701 233
700 233
699 233
698 233
697 233
696 233
695 233
694 232
693 233
692 233
691 233
690 233
689 233
688 233
687 233
686 233
685 233
684 233
683 233
682 233
681 233
680 233
679 233
678 233
677 233
676 233
675 233
674 233
673 234
672 234
671 234
670 235
669 235
668 236
667 236
666 236
665 237
664 237
663 237
662 237
661 237
660 237
659 237
658 238
657 238
656 238
655 238
654 239
653 239
652 239
651 240
650 240
649 240
648 241
647 242
646 242
645 242
644 243
643 244
642 245
641 246
640 246
639 247
638 248
637 249
636 250
635 251
634 252
633 253
633 254
632 255
631 256
630 257
629 258
629 259
628 260
628 261
628 262
627 263
627 264
627 265
626 266
626 267
626 268
626 269
626 270
626 271
626 272
626 273
626 274
626 275
626 276
626 277
626 278
626 279
626 280
626 281
627 282
627 283
628 284
628 285
628 286
629 287
629 288
630 289
630 290
630 291
629 292
628 292
627 292
626 291
625 291
624 291
623 291
622 291
621 290
620 290
619 290
618 290
617 289
616 289
615 289
614 289
613 288
612 288
611 288
610 288
609 287
608 287
607 287
606 287
605 286
604 286
603 286
602 286
601 285
600 285
599 285
598 285
597 284
596 284
595 284
594 284
593 283
592 283
591 283
590 282
590 281
591 280
592 280
593 279
594 278
595 278
596 277
597 277
598 276
599 275
600 275
600 274
601 273
602 273
603 272
603 271
604 270
605 270
606 269
607 268
607 267
608 266
609 265
610 264
610 263
611 262
611 261
612 260
612 259
612 258
613 257
613 256
614 255
614 254
614 253
615 252
616 251
616 250
617 249
617 248
617 247
618 246
618 245
619 244
619 243
619 242
620 241
620 240
620 239
620 238
620 237
621 236
621 235
622 234
622 233
622 232
622 231
623 230
624 229
624 228
624 227
624 226
624 225
625 224
625 223
625 222
625 221
626 220
626 219
627 218
627 217
627 216
627 215
627 214
627 213
627 212
627 211
627 210
628 209
628 208
628 207
629 206
629 205
629 204
629 203
630 202
630 201
630 200
630 199
630 198
630 197
630 196
630 195
630 194
630 193
630 192
630 191
630 190
630 189
630 188
629 187
629 186
629 185
629 184
629 183
629 182
629 181
629 180
629 179
629 178
629 177
629 176
629 175
629 174
629 173
630 172
630 171
630 170
630 169
630 168
630 167
630 166
630 165
630 164
630 163
630 162
630 161
631 160
631 159
631 158
631 157
631 156
631 155
632 154
632 153
632 152
631 151
630 150
629 150
628 150
627 149
626 149
625 150
624 151
623 152
622 153
621 154
620 154
620 155
619 156
618 157
617 157
616 158
615 159
614 159
613 160
612 160
611 161
610 162
609 162
608 163
607 164
606 164
605 165
604 165
603 166
602 167
601 167
600 168
599 168
598 169
597 169
596 170
595 170
594 170
593 171
592 171
591 172
590 172
589 173
588 174
587 174
586 174
585 175
584 176
583 177
582 177
582 178
581 179
580 180
579 180
578 181
577 182
576 182
575 182
574 183
573 183
572 184
571 185
570 185
569 186
568 186
567 187
566 188
565 189
564 190
563 190
563 191
562 192
561 193
561 194
560 195
559 196
559 197
558 198
557 199
556 200
555 201
555 202
554 203
553 204
552 205
552 206
552 207
551 208
551 209
550 210
549 211
549 212
549 213
548 214
548 215
548 216
547 217
547 218
547 219
546 220
546 221
545 222
545 223
544 224
543 225
542 226
542 227
542 228
542 229
541 230
541 231
540 232
539 233
539 234
539 235
539 236
539 237
538 238
538 239
538 240
538 241
538 242
538 243
538 244
538 245
538 246
538 247
538 248
538 249
538 250
539 251
539 252
539 253
540 254
540 255
540 256
541 257
542 258
542 259
543 260
544 261
544 262
545 263
546 264
547 265
548 266
549 267
550 268
551 269
552 269
553 270
554 271
555 271
556 272
555 273
554 273
553 273
552 273
551 273
550 272
549 272
548 272
547 272
546 271
545 271
544 271
543 271
542 271
541 270
540 270
539 270
538 270
537 269
536 269
535 269
534 269
533 268
532 268
531 268
530 268
529 268
528 267
527 267
526 267
525 267
524 267
523 267
522 266
521 266
520 266
519 266
518 265
517 265
516 265
515 265
514 265
513 265
512 265
511 264
510 264
509 264
508 264
507 264
506 263
505 263
504 263
503 263
502 263
501 263
500 262
499 262
498 262
497 262
496 261
495 260
496 259
497 259
498 259
499 259
500 258
501 258
502 258
503 257
504 256
505 256
506 255
507 254
508 253
509 252
510 251
511 250
512 249
512 248
513 247
514 246
514 245
515 244
516 243
516 242
516 241
516 240
517 239
517 238
517 237
517 236
517 235
517 234
518 233
518 232
519 231
519 230
519 229
519 228
519 227
519 226
520 225
520 224
520 223
520 222
520 221
520 220
520 219
520 218
521 217
521 216
520 215
520 214
520 213
520 212
520 211
520 210
520 209
520 208
520 207
519 206
519 205
519 204
519 203
519 202
519 201
519 200
519 199
519 198
518 197
518 196
518 195
518 194
518 193
518 192
518 191
518 190
518 189
517 188
517 187
517 186
517 185
517 184
517 183
517 182
517 181
516 180
516 179
516 178
516 177
516 176
515 175
515 174
515 173
514 172
514 171
513 170
513 169
513 168
512 167
512 166
512 165
512 164
512 163
511 162
511 161
510 160
510 159
510 158
509 157
509 156
508 155
508 154
507 153
507 152
506 151
505 150
505 149
504 148
504 147
504 146
503 145
503 144
502 143
502 142
501 141
501 140
500 139
500 138
499 137
499 136
498 135
497 134
496 133
496 132
495 131
494 130
493 129
493 128
492 128
491 127
491 126
490 125
489 124
488 123
488 122
487 121
486 121
485 120
485 119
484 118
483 117
482 116
482 115
482 114
481 113
480 112
479 111
478 110
477 109
477 108
476 107
476 106
475 105
474 104
474 103
473 102
473 101
472 100
472 99
471 98
471 97
470 96
469 95
469 94
468 93
468 92
467 91
467 90
466 89
466 88
465 87
465 86
465 85
464 84
464 83
463 82
463 81
462 80
461 79
461 78
460 77
460 76
459 75
458 74
457 73
456 72
455 71
454 71
453 71
