317 112
317 113
317 114
317 115
317 116
317 117
317 118
316 119
316 120
316 121
316 122
315 123
315 124
314 125
314 126
313 127
312 127
312 128
311 129
310 130
310 131
309 132
308 132
307 131
306 132
305 131
304 131
303 131
302 131
301 130
300 130
299 130
298 130
297 130
296 129
295 129
294 129
293 128
292 127
291 126
290 125
290 124
289 123
288 122
288 121
288 120
287 119
286 119
285 120
285 121
284 122
284 123
283 124
282 125
282 126
281 127
281 128
280 129
279 129
278 130
277 131
276 132
275 132
274 133
273 133
272 133
271 133
270 133
269 133
268 133
267 133
266 133
265 133
264 132
263 132
262 132
261 132
260 132
259 132
258 132
257 131
256 131
255 131
254 131
253 130
252 130
251 130
250 130
249 129
248 129
247 128
246 128
245 128
244 128
243 129
243 130
242 131
242 132
241 133
240 134
240 135
239 136
238 137
237 137
236 138
235 138
234 139
233 139
232 140
231 140
230 141
229 141
228 141
227 142
226 142
225 143
224 143
223 144
222 145
221 145
220 145
219 145
218 146
217 146
216 146
215 147
214 147
213 147
212 147
211 147
210 147
209 148
208 149
207 149
206 149
205 149
204 149
203 149
202 149
201 150
200 150
199 149
198 149
197 149
196 149
195 149
194 149
193 148
192 148
191 148
190 149
189 149
188 148
187 147
186 147
185 147
184 146
183 145
182 145
181 144
180 143
179 143
178 142
177 141
176 141
175 140
174 139
173 138
172 137
171 136
170 135
171 136
172 137
173 138
174 139
173 140
173 141
174 142
174 143
174 144
173 145
173 146
173 147
173 148
173 149
173 150
173 151
173 152
172 153
172 154
171 155
171 156
170 157
170 158
169 159
168 159
167 160
166 161
166 162
165 163
164 163
163 163
162 164
161 165
160 166
159 166
158 167
157 166
156 167
155 167
154 167
153 166
152 166
151 166
150 166
149 166
148 165
147 165
146 165
145 164
144 164
143 164
142 165
141 165
141 166
141 167
141 168
141 169
141 170
140 171
140 172
141 173
141 174
140 175
140 176
139 177
139 178
138 179
137 180
137 181
136 182
135 183
134 184
133 184
132 185
131 185
130 185
129 186
128 187
127 187
126 188
127 189
126 190
125 191
124 191
123 192
122 193
121 192
120 193
119 194
118 194
117 195
116 196
115 197
114 198
113 198
112 199
111 199
110 200
110 201
110 202
109 203
108 203
107 203
106 203
105 204
104 204
103 204
102 204
101 205
100 206
99 206
98 206
97 206
96 206
95 206
94 206
93 207
92 207
93 208
94 209
95 210
96 211
97 212
97 213
98 213
99 214
99 215
100 216
101 216
102 217
102 218
103 219
104 220
105 221
105 222
105 223
106 222
107 223
107 224
108 224
109 225
110 226
111 227
112 228
113 229
113 230
114 231
115 231
116 232
117 233
117 234
118 234
119 235
119 236
120 236
121 237
121 238
122 239
123 239
124 240
125 241
126 242
127 243
128 244
128 245
129 246
130 247
131 248
132 249
132 250
133 251
133 252
133 253
133 254
133 255
133 256
133 257
133 258
133 259
133 260
134 261
135 262
136 261
137 261
138 261
139 261
140 261
141 261
142 261
143 261
144 261
145 261
146 261
147 262
148 262
149 262
150 262
151 262
152 263
153 263
154 263
155 264
156 264
157 265
158 265
159 266
160 266
161 267
161 268
161 269
160 270
160 271
160 272
159 273
158 274
158 275
157 276
156 277
155 278
155 279
154 280
153 281
153 282
152 283
151 284
150 285
149 286
148 287
149 288
150 288
151 287
152 288
153 287
154 287
155 287
156 287
157 288
158 288
159 289
159 290
159 291
159 292
158 293
159 294
160 295
161 296
162 296
163 296
164 296
165 297
166 297
167 298
168 298
169 298
170 298
171 299
172 299
173 299
174 300
175 300
176 300
177 300
178 301
178 302
179 302
180 302
181 303
182 304
183 304
184 305
185 305
186 306
187 307
188 308
189 308
190 309
190 310
191 310
192 311
192 312
193 313
194 314
194 315
195 315
196 316
197 316
198 317
199 317
200 317
201 318
202 319
202 320
202 321
203 322
204 323
205 323
206 324
207 324
208 324
209 324
210 324
211 325
212 325
213 326
214 326
215 326
216 327
217 326
218 327
219 327
220 328
221 328
222 328
223 329
224 329
225 330
226 330
227 330
228 331
229 331
230 332
231 332
232 332
233 333
234 333
235 334
236 334
237 335
238 335
239 336
239 337
239 338
240 339
240 340
240 341
240 342
240 343
240 344
241 344
242 345
243 345
244 345
245 345
246 345
247 345
248 345
249 345
250 345
251 345
252 344
253 344
254 344
255 344
256 344
257 344
258 344
259 345
260 345
261 345
262 345
263 345
264 345
265 345
266 345
267 345
268 345
269 345
270 346
271 346
272 346
273 347
274 347
275 348
276 348
277 348
278 349
279 349
280 349
281 350
282 351
283 351
284 352
285 353
286 354
287 355
287 356
288 357
288 358
288 359
288 360
288 361
288 362
288 363
289 364
289 365
288 366
288 367
288 368
289 369
290 369
291 369
292 370
293 370
294 370
295 370
296 369
297 369
298 369
299 368
300 368
301 368
302 368
303 367
304 367
305 367
306 367
307 366
308 366
309 366
310 365
311 365
312 365
313 364
314 364
315 364
316 364
317 363
318 363
319 363
320 363
321 363
322 363
323 363
324 363
325 363
326 363
327 363
328 363
329 363
330 363
331 363
332 363
333 363
334 363
335 364
336 364
337 365
338 366
339 367
339 368
340 369
341 370
341 371
342 372
342 373
342 374
343 375
343 376
343 377
344 378
345 379
346 379
347 378
348 378
349 378
350 378
351 377
352 377
353 376
354 376
355 376
356 375
357 375
358 375
359 374
360 374
361 373
362 373
363 373
364 372
365 372
366 372
367 372
368 372
369 371
370 371
371 371
372 370
373 370
374 370
375 370
376 369
377 369
378 369
379 369
380 369
381 369
382 369
383 368
384 368
385 368
386 368
387 368
388 368
389 368
390 369
391 369
392 369
393 370
394 370
395 371
396 372
397 373
398 374
398 375
399 376
400 377
400 378
401 379
402 379
403 378
404 378
405 377
406 377
407 377
408 376
409 376
410 376
411 376
412 376
413 376
414 375
415 375
416 375
417 375
418 375
419 374
420 374
421 373
422 373
423 373
424 372
425 372
426 371
427 371
428 370
429 370
430 369
431 369
432 368
433 368
434 367
435 367
436 366
437 366
438 366
439 365
440 365
441 365
442 364
443 364
444 364
445 363
446 363
447 363
448 363
449 362
450 362
451 362
452 361
453 361
454 361
455 360
456 360
457 360
458 360
459 360
460 360
461 360
462 359
463 359
464 359
465 360
466 359
467 360
468 360
469 360
470 360
471 360
472 361
473 361
474 361
475 362
475 363
476 363
477 364
478 363
479 362
480 361
480 360
481 359
482 359
483 358
484 358
485 357
486 357
487 356
488 355
489 355
490 354
491 354
492 354
493 353
494 353
495 352
496 352
497 351
498 351
499 350
500 350
501 349
502 348
503 348
504 347
505 347
506 347
507 346
508 346
509 345
510 345
511 345
512 344
513 344
514 343
515 343
516 343
517 342
518 342
519 342
520 341
521 341
522 341
523 341
524 341
525 341
526 341
527 341
528 341
529 341
530 341
531 342
532 342
533 342
534 341
535 341
536 340
537 339
538 339
539 338
540 338
541 337
542 337
543 336
544 336
545 336
546 335
547 335
548 334
549 334
550 334
551 333
552 333
553 333
554 332
555 332
556 331
557 330
558 330
559 330
560 329
561 328
562 328
563 328
564 327
565 327
566 326
567 326
568 326
568 325
568 324
569 323
570 322
571 322
572 321
573 320
574 320
575 319
576 318
577 317
577 316
578 315
579 315
580 314
581 313
582 312
583 311
583 310
584 309
585 308
586 307
586 306
587 305
587 304
588 303
589 302
590 301
590 300
591 299
591 298
592 297
592 296
592 295
593 294
594 293
594 292
594 291
595 290
595 289
596 288
597 287
598 287
599 286
600 285
601 285
602 285
603 285
604 284
605 284
606 284
607 284
608 284
609 284
610 284
611 284
612 284
613 284
614 284
615 284
616 283
617 283
618 283
619 283
620 283
621 283
622 283
623 283
624 283
625 283
626 283
627 283
628 284
629 284
630 283
631 283
632 283
633 283
634 283
635 283
636 283
637 283
638 283
639 283
640 283
641 283
642 283
643 283
644 283
645 283
646 283
647 283
648 282
649 282
650 282
651 282
652 282
653 282
654 282
655 281
656 281
657 281
658 281
659 281
660 281
661 281
662 281
663 281
664 281
665 280
666 280
667 280
668 280
669 280
670 280
671 280
672 279
673 279
674 279
675 279
676 279
677 279
678 279
679 279
680 279
681 280
682 280
683 279
684 279
685 279
685 278
686 277
687 277
688 277
689 276
690 275
691 274
691 273
692 272
692 271
692 270
693 269
693 268
693 267
693 266
693 265
692 264
691 264
690 263
689 263
688 263
687 263
686 264
685 264
684 263
683 263
682 263
681 263
681 264
680 265
679 264
678 264
677 264
676 264
675 264
674 265
673 265
672 265
671 266
670 266
669 265
668 265
667 266
666 266
665 266
664 266
663 266
662 267
661 267
660 267
659 267
658 268
657 267
656 268
655 268
654 268
653 268
652 268
651 269
650 269
649 269
648 268
647 268
646 269
645 269
644 269
643 269
642 269
641 269
640 270
639 269
638 270
637 270
636 270
635 269
634 269
633 269
632 269
631 269
630 269
629 269
628 269
627 270
626 270
625 269
624 269
623 269
622 270
621 269
620 269
619 269
618 269
617 270
616 269
615 269
614 269
613 269
612 269
611 269
610 268
609 268
608 269
607 269
606 268
605 267
604 268
603 268
602 267
601 266
600 267
599 267
598 266
597 265
596 264
595 263
595 262
594 261
593 260
593 259
593 258
593 257
593 256
592 255
592 254
591 253
591 252
591 251
591 250
591 249
591 248
590 247
590 246
590 245
589 244
589 243
588 242
588 241
587 240
587 239
586 238
586 237
585 236
585 235
584 234
583 233
583 232
582 231
581 230
580 229
579 228
578 227
577 226
576 225
575 224
574 223
573 222
572 221
571 220
570 219
569 218
569 217
568 216
568 215
567 214
566 213
565 212
564 211
563 212
562 212
561 212
560 212
559 211
558 211
557 211
556 210
555 210
554 209
553 209
552 208
551 207
550 207
549 206
548 205
547 205
546 204
545 203
544 203
543 202
542 201
541 200
540 200
539 199
538 199
537 198
536 198
535 197
534 196
533 195
533 194
532 193
532 192
531 192
530 191
529 190
528 189
528 188
527 187
527 186
526 186
525 185
524 185
523 185
522 185
521 185
520 185
519 185
518 184
517 184
516 184
515 184
514 184
513 184
512 183
511 183
510 182
509 182
508 181
507 181
506 180
505 180
504 179
504 178
503 178
502 177
501 176
500 175
499 174
498 173
497 172
496 172
495 171
494 170
493 170
492 169
491 168
490 167
489 166
488 165
487 164
486 164
485 163
484 162
483 162
482 161
481 160
480 159
479 158
478 157
477 156
476 155
475 154
474 153
473 152
473 151
472 150
471 149
470 150
469 151
468 152
467 153
466 153
465 153
464 153
463 154
462 154
461 154
460 154
459 154
458 154
457 153
456 153
455 153
454 153
453 152
452 152
451 151
450 151
449 150
448 149
447 149
446 148
445 147
444 147
443 146
442 145
441 144
440 144
439 143
438 142
437 142
436 141
435 140
434 140
433 140
432 139
431 138
430 138
429 137
428 136
427 136
426 136
425 135
424 134
423 133
422 133
421 132
420 131
419 130
419 129
418 128
418 127
418 126
417 125
416 124
415 125
414 126
414 127
413 128
412 129
411 130
410 131
409 132
408 133
407 133
406 134
405 134
404 134
403 135
402 135
401 135
400 135
399 135
398 135
397 135
396 135
395 135
394 135
393 134
392 134
391 133
390 133
389 133
388 132
387 132
386 132
385 132
384 131
383 131
382 131
381 131
380 131
379 130
378 130
377 130
376 130
375 129
374 129
373 129
372 129
371 128
370 128
369 127
368 126
367 125
366 125
365 124
365 123
364 123
363 123
362 123
362 124
362 125
361 126
361 127
360 128
359 129
359 130
358 131
357 131
356 132
355 132
354 133
353 133
352 133
351 133
350 133
349 133
348 133
347 133
346 133
345 132
344 132
343 131
342 131
341 131
340 130
339 130
338 129
337 129
336 129
335 128
334 127
333 127
332 127
331 126
330 126
329 125
328 124
327 123
326 122
325 121
324 120
323 119
322 118
321 117
320 116
319 115
319 114
318 113
317 112
