290 62
289 63
288 63
287 63
286 63
285 63
284 63
283 63
282 64
281 64
280 64
279 64
278 64
277 64
276 64
275 64
274 65
273 65
272 65
271 65
270 65
269 66
268 66
267 66
266 66
265 66
264 66
263 66
262 66
261 67
260 67
259 67
258 67
257 67
256 67
255 67
254 67
253 67
252 68
251 68
250 68
249 68
248 68
247 68
246 68
245 68
244 68
243 68
242 68
241 68
240 68
239 68
238 68
237 68
236 68
235 68
234 68
233 68
232 68
231 69
230 68
229 69
228 69
227 69
226 69
225 69
224 69
223 70
222 70
221 70
220 70
219 71
218 71
217 71
216 72
215 72
214 72
213 73
212 73
211 74
210 74
209 74
208 75
207 75
206 76
205 76
204 76
203 77
202 77
201 77
200 78
199 78
198 78
197 78
196 78
195 78
194 78
193 79
192 79
191 79
190 79
189 79
188 79
187 80
186 80
185 80
184 80
183 80
182 81
181 81
180 81
179 81
178 82
177 82
176 82
175 83
174 84
173 85
172 86
171 86
170 86
169 86
168 86
167 87
166 87
165 87
164 87
163 88
162 88
161 88
160 89
159 89
158 90
157 90
156 91
155 91
154 92
153 92
152 93
151 93
150 94
149 94
148 95
147 96
146 97
145 97
144 97
143 98
142 99
141 99
140 100
139 100
138 101
137 102
136 103
135 103
134 104
133 105
132 106
131 106
130 107
129 108
128 109
127 109
126 110
125 111
124 112
123 112
122 113
121 114
120 115
119 116
118 117
117 118
116 119
115 120
114 121
113 122
112 123
111 124
110 125
109 126
108 127
107 128
106 129
106 130
105 131
104 132
104 133
103 134
102 135
102 136
101 137
101 138
100 139
99 140
99 141
98 142
98 143
97 144
96 145
96 146
95 147
95 148
94 149
94 150
93 151
93 152
92 153
92 154
91 155
91 156
91 157
90 158
90 159
89 160
89 161
88 162
88 163
88 164
88 165
87 166
87 167
87 168
87 169
87 170
87 171
86 172
86 173
86 174
86 175
85 176
85 177
85 178
85 179
85 180
84 181
84 182
84 183
84 184
83 185
83 186
83 187
82 188
82 189
82 190
81 191
81 192
80 193
80 194
80 195
79 196
79 197
79 198
79 199
79 200
78 201
78 202
78 203
79 204
79 205
79 206
79 207
79 208
79 209
79 210
80 211
80 212
80 213
80 214
81 215
81 216
81 217
81 218
81 219
82 220
82 221
82 222
83 223
83 224
83 225
84 226
84 227
84 228
84 229
85 230
85 231
86 232
86 233
86 234
87 235
87 236
87 237
88 238
88 239
88 240
89 241
89 242
90 243
90 244
91 245
91 246
91 247
92 248
93 249
93 250
94 251
94 252
95 253
95 254
95 255
96 256
97 257
97 258
98 259
99 260
99 261
100 262
101 263
101 264
102 265
103 266
103 267
104 268
104 269
105 270
106 271
107 272
107 273
108 274
109 275
110 276
111 277
111 278
112 279
113 280
114 281
115 282
116 283
116 284
117 285
118 286
119 287
120 288
120 289
121 290
122 291
123 292
124 293
125 294
126 295
127 296
128 297
128 298
129 299
130 300
131 301
132 302
133 303
134 304
135 305
135 306
136 307
137 308
138 309
139 310
139 311
140 312
141 313
142 314
143 315
144 315
145 316
146 317
147 318
148 318
149 319
149 320
150 320
151 321
152 322
153 323
154 324
155 325
156 325
157 326
158 327
159 328
160 328
161 329
162 329
163 330
164 331
165 332
166 332
167 333
168 333
169 334
170 334
171 335
172 335
173 335
174 336
175 336
176 336
177 336
178 336
179 336
180 336
181 337
182 337
183 337
184 337
185 337
186 337
187 337
188 337
189 338
190 338
191 338
192 338
193 338
194 338
195 338
196 338
197 338
198 339
199 339
200 339
201 339
202 339
203 340
204 340
205 340
206 340
207 341
208 341
209 341
210 342
211 342
212 342
213 342
214 343
215 343
216 343
217 344
218 344
219 344
220 345
221 345
222 345
223 345
224 346
225 346
226 346
227 346
228 346
229 346
230 347
231 347
232 347
233 347
234 347
235 347
236 348
237 348
238 348
239 348
240 348
241 348
242 348
243 348
244 348
245 348
246 348
247 348
248 348
249 349
250 349
251 349
252 349
253 349
254 349
255 349
256 349
257 349
258 350
259 350
260 350
261 350
262 351
263 351
264 351
265 352
266 352
267 353
268 353
269 354
270 354
271 355
272 355
273 356
274 356
275 356
276 357
277 357
278 357
279 357
280 357
281 357
282 357
283 357
284 357
285 357
286 357
287 356
288 356
289 356
290 356
291 355
292 355
293 355
294 354
295 354
296 353
297 353
298 353
299 352
300 352
301 352
302 351
303 351
304 351
305 350
306 350
307 350
308 350
309 349
310 349
311 349
312 349
313 349
314 349
315 348
316 348
317 348
318 348
319 348
320 348
321 348
322 348
323 347
324 347
325 347
326 347
327 347
328 347
329 347
330 347
331 347
332 347
333 347
334 347
335 347
336 347
337 348
338 348
339 348
340 348
341 348
342 348
343 348
344 348
345 348
346 348
347 348
348 348
349 348
350 348
351 348
352 348
353 348
354 348
355 347
356 347
357 347
358 347
359 346
360 346
361 346
362 345
363 345
364 345
365 345
366 344
367 344
368 344
369 344
370 343
371 343
372 342
373 342
374 342
375 342
376 342
377 341
378 341
379 341
380 340
381 340
382 340
383 340
384 339
385 339
386 339
387 339
388 338
389 338
390 338
391 337
392 337
393 337
394 336
395 336
396 336
397 335
398 335
399 335
400 334
401 334
402 334
403 333
404 333
405 332
406 332
407 331
408 331
409 331
410 330
411 330
412 329
413 329
414 328
415 328
416 327
417 327
418 326
419 326
420 326
421 325
422 325
423 324
424 324
425 323
426 323
427 322
428 322
429 321
430 321
431 320
432 320
433 319
434 319
435 318
436 318
437 317
438 317
439 316
440 316
441 315
442 315
443 314
444 314
445 313
446 313
447 312
448 312
449 311
450 310
451 310
452 309
453 308
454 308
455 307
456 307
457 306
458 305
459 305
460 304
461 304
462 303
463 302
464 302
465 301
466 300
467 299
468 299
469 298
470 298
471 297
472 296
473 295
474 295
475 294
476 294
477 293
478 293
479 292
480 292
481 291
482 291
483 290
484 290
485 289
486 289
487 288
488 288
489 288
490 287
491 287
492 286
493 286
494 285
495 285
496 284
497 284
498 284
499 283
500 283
501 282
502 282
503 282
504 281
505 280
506 280
507 279
508 279
509 279
510 278
511 277
512 277
513 276
514 276
515 275
516 274
517 274
518 273
519 272
520 272
521 271
522 270
523 269
524 269
525 268
526 267
527 266
528 266
529 265
530 264
531 263
532 263
533 262
534 261
535 260
536 260
537 259
538 258
539 257
540 256
541 256
542 255
543 254
544 253
545 253
546 252
547 251
548 251
549 250
550 249
551 249
552 248
553 247
554 247
555 246
556 245
557 245
558 244
559 244
560 243
561 242
562 242
563 241
564 241
565 240
566 240
567 239
568 238
569 238
570 237
571 237
572 236
573 236
574 235
575 235
576 234
577 233
578 233
579 233
580 232
581 232
582 231
583 231
584 230
585 230
586 230
587 229
588 229
589 228
590 228
591 227
592 227
593 227
594 226
595 226
596 225
597 225
598 224
599 224
600 224
601 224
602 223
603 223
604 222
605 222
606 222
607 221
608 221
609 220
610 220
611 219
612 219
613 219
614 218
615 218
616 218
617 217
618 217
619 217
620 216
621 216
622 216
623 215
624 215
625 215
626 214
627 214
628 214
629 213
630 213
631 213
632 212
633 212
634 212
635 211
636 211
637 211
638 210
639 210
640 210
641 209
642 209
643 209
644 209
645 208
646 208
647 208
648 208
649 208
650 208
651 208
652 207
653 207
654 207
655 207
656 207
657 207
658 207
659 207
660 207
661 207
662 207
663 207
664 207
665 207
666 207
667 207
668 207
669 207
670 207
671 207
672 207
673 207
674 207
675 207
676 207
677 207
678 207
679 207
680 207
681 207
682 207
683 207
684 207
685 207
686 207
687 207
688 207
689 207
690 207
691 207
692 207
693 207
694 208
695 208
696 208
697 208
698 208
699 208
700 208
701 208
702 208
703 208
704 208
705 208
706 209
707 209
708 209
709 209
710 209
711 209
712 209
713 209
714 209
715 209
716 209
717 210
718 210
719 210
720 210
721 210
722 210
723 210
724 211
725 211
726 211
727 211
728 211
729 211
730 212
731 212
732 212
733 212
734 212
735 213
736 213
737 213
738 213
739 213
740 213
741 213
742 213
743 213
744 213
745 213
746 212
747 212
748 211
748 210
749 209
750 208
750 207
751 206
752 206
752 205
753 204
753 203
753 202
754 201
755 200
756 199
756 198
756 197
756 196
755 195
754 195
753 195
752 195
751 195
750 195
749 195
748 195
747 196
746 196
745 196
744 195
743 195
742 195
741 195
740 195
739 195
738 195
737 195
736 195
735 195
734 195
733 195
732 195
731 195
730 195
729 194
728 194
727 194
726 194
725 194
724 194
723 194
722 194
721 194
720 193
719 193
718 193
717 193
716 193
715 193
714 193
713 193
712 192
711 192
710 192
709 192
708 192
707 192
706 192
705 192
704 192
703 191
702 191
701 191
700 191
699 191
698 191
697 191
696 191
695 191
694 191
693 191
692 191
691 190
690 190
689 190
688 190
687 190
686 190
685 190
684 190
683 190
682 190
681 190
680 190
679 190
678 190
677 190
676 189
675 189
674 189
673 189
672 189
671 189
670 189
669 189
668 189
667 189
666 188
665 188
664 188
663 188
662 188
661 188
660 188
659 188
658 187
657 187
656 187
655 187
654 187
653 186
652 186
651 186
650 186
649 185
648 185
647 185
646 184
645 184
644 184
643 183
642 183
641 183
640 183
639 183
638 182
637 182
636 182
635 182
634 182
633 182
632 181
631 181
630 181
629 180
628 180
627 180
626 180
625 179
624 179
623 179
622 178
621 178
620 178
619 178
618 178
617 177
616 177
615 177
614 176
613 176
612 176
611 175
610 175
609 175
608 174
607 174
606 174
605 174
604 173
603 173
602 173
601 174
600 173
600 172
599 172
598 172
597 171
596 171
595 171
594 170
593 170
592 169
591 169
590 169
589 168
588 168
587 168
586 167
585 167
584 167
583 167
582 166
581 166
580 166
579 165
578 165
577 165
576 164
575 164
574 164
573 163
572 163
571 163
570 162
569 162
568 162
567 161
566 161
565 161
564 160
563 160
562 160
561 160
560 159
559 159
558 158
557 158
556 158
555 158
554 157
553 157
552 156
551 156
550 156
549 155
548 155
547 155
546 154
545 154
544 154
543 153
542 153
541 152
540 152
539 151
538 151
537 150
536 150
535 149
534 149
533 149
532 148
531 148
530 148
529 148
528 147
527 146
526 146
525 145
524 145
523 145
522 144
521 144
520 143
519 143
518 143
517 143
516 142
515 142
514 141
513 141
512 140
511 140
510 140
509 139
508 138
507 138
506 138
505 137
504 137
503 136
502 136
501 135
500 135
499 134
498 134
497 134
496 133
495 133
494 133
493 132
492 132
491 132
490 132
489 131
488 131
487 130
486 130
485 129
484 129
483 128
482 128
481 127
480 127
479 127
478 126
477 125
476 124
475 124
474 124
473 123
472 122
471 122
470 121
469 120
468 119
467 119
466 119
465 118
464 117
463 117
462 117
461 116
460 115
459 115
458 115
457 114
456 114
455 114
454 113
453 113
452 112
451 112
450 112
449 111
448 111
447 111
446 110
445 110
444 110
443 109
442 109
441 109
440 108
439 108
438 107
437 107
436 106
435 106
434 105
433 105
432 104
431 104
430 103
429 103
428 102
427 102
426 102
425 101
424 101
423 100
422 100
421 99
420 98
419 98
418 98
417 97
416 96
415 96
414 96
413 95
412 95
411 94
410 94
409 93
408 92
407 92
406 92
405 91
404 91
403 91
402 90
401 89
400 89
399 89
398 88
397 88
396 87
395 87
394 87
393 87
392 86
391 86
390 85
389 85
388 84
387 84
386 84
385 83
384 83
383 83
382 82
381 82
380 81
379 81
378 81
377 80
376 80
375 79
374 79
373 78
372 78
371 77
370 77
369 77
368 76
367 76
366 76
365 75
364 75
363 75
362 74
361 74
360 74
359 73
358 73
357 73
356 72
355 72
354 72
353 71
352 71
351 70
350 70
349 70
348 69
347 69
346 69
345 68
344 69
343 68
342 68
341 67
340 67
339 67
338 66
337 66
336 66
335 66
334 66
333 66
332 65
331 65
330 65
329 65
328 65
327 65
326 65
325 65
324 64
323 64
322 64
321 64
320 63
319 63
318 63
317 63
316 63
315 63
314 63
313 62
312 63
311 62
310 62
309 62
308 62
307 62
306 62
305 62
304 62
303 62
302 62
301 62
300 62
299 62
298 62
297 62
296 62
295 62
294 62
293 62
292 62
291 62
290 62
