431 96
431 97
431 98
430 99
430 100
430 101
430 102
430 103
430 104
430 105
430 106
430 107
430 108
430 109
429 110
429 111
429 112
429 113
429 114
429 115
429 116
429 117
429 118
429 119
429 120
428 121
429 121
430 121
431 121
432 122
432 123
431 124
430 124
429 125
428 126
428 127
428 128
428 129
427 130
427 131
426 132
425 132
425 133
424 134
423 134
422 134
421 134
420 135
419 135
418 136
417 136
416 137
415 137
414 138
413 139
412 140
411 140
410 140
409 141
408 141
407 142
406 143
405 143
404 143
403 143
402 144
401 144
400 145
399 145
398 145
397 145
396 145
395 145
394 146
393 146
392 145
391 145
391 146
390 147
389 146
388 145
387 145
386 145
385 145
384 145
383 145
382 145
381 145
380 145
379 145
378 144
377 144
376 144
375 144
374 144
373 144
372 144
371 143
370 143
369 143
368 143
367 143
366 142
365 142
364 141
363 140
362 140
361 140
360 139
359 138
358 137
357 137
356 137
355 136
354 135
353 135
352 135
351 134
350 133
349 132
350 133
349 134
348 134
347 133
347 132
347 131
346 131
345 130
344 130
343 129
342 129
341 129
340 129
339 128
340 127
339 127
338 127
337 126
337 125
336 124
335 123
334 122
333 121
334 120
333 121
332 120
331 119
330 119
329 120
328 121
328 122
328 123
328 124
328 125
327 126
327 127
327 128
327 129
326 130
325 131
324 132
323 133
322 133
322 134
321 135
321 136
320 137
319 137
318 137
317 138
316 138
315 139
315 140
315 141
314 142
313 142
312 143
311 144
310 144
310 145
309 146
308 147
307 148
306 148
305 148
304 147
305 146
306 145
307 145
308 144
307 145
306 145
305 146
304 146
304 147
305 148
304 149
303 149
302 149
301 148
302 147
301 147
300 148
299 148
298 148
299 148
300 148
301 148
302 149
301 150
300 150
299 150
298 150
297 150
296 150
295 150
294 151
293 151
292 151
291 151
290 151
289 151
288 151
287 151
286 151
285 151
284 151
283 150
282 150
281 150
280 149
279 149
278 149
277 149
278 149
279 149
280 149
281 150
280 151
279 152
278 152
277 152
276 152
275 152
274 152
273 152
272 152
271 153
270 153
269 153
268 153
267 153
266 153
265 153
264 153
263 153
262 154
261 154
260 154
259 154
258 154
257 154
256 154
255 154
254 154
253 154
252 154
251 155
250 155
249 155
248 155
247 155
246 155
245 155
244 155
243 155
242 155
241 155
240 156
239 156
238 156
237 156
236 156
235 156
234 156
233 156
232 156
231 156
230 156
229 156
228 156
227 156
226 156
225 156
224 156
223 156
222 156
221 157
220 157
219 157
218 157
217 156
216 156
215 156
214 157
213 157
212 157
211 158
210 158
209 158
208 158
207 158
206 158
205 158
204 158
203 158
203 159
202 160
202 161
202 162
202 163
202 164
203 165
203 166
202 167
202 168
201 169
201 170
201 171
201 172
201 173
201 174
200 175
199 175
199 176
199 177
199 178
199 179
198 180
198 181
197 182
197 183
196 184
195 185
194 186
194 187
194 188
193 189
193 190
194 189
195 190
195 191
194 192
193 193
192 193
191 192
190 193
189 193
190 194
190 195
189 196
188 197
187 198
186 199
185 200
184 201
183 202
182 202
181 203
180 203
179 203
178 203
177 203
177 204
176 205
175 206
174 206
173 205
174 206
173 207
172 207
171 208
170 208
169 208
168 208
167 209
166 209
165 210
164 209
163 209
162 208
161 209
160 210
159 210
158 210
157 210
156 210
155 211
154 211
153 212
152 212
151 212
150 212
149 212
148 212
147 211
146 211
145 211
144 211
145 212
145 213
146 214
146 215
146 216
147 217
147 218
147 219
146 220
146 221
145 222
145 223
145 224
144 225
143 226
143 227
143 228
142 229
142 230
142 231
141 232
141 233
141 234
142 235
142 236
141 237
141 238
141 239
140 240
140 241
139 242
138 243
138 244
138 245
138 246
137 247
136 247
136 248
135 249
135 250
134 251
134 252
133 253
134 253
135 254
134 255
134 256
133 257
132 258
131 258
130 257
131 258
131 259
130 260
129 259
129 260
128 261
127 262
127 263
128 264
128 265
127 266
126 265
125 266
124 267
124 268
123 269
122 270
121 270
120 270
119 269
118 269
117 269
116 269
115 269
114 269
113 269
112 269
111 269
110 269
109 269
108 269
107 269
106 269
105 268
104 268
103 268
102 268
101 268
100 267
99 267
98 267
98 268
99 268
100 268
101 269
102 269
103 270
104 270
105 270
106 271
107 271
108 271
109 272
110 272
111 273
112 273
113 273
114 273
115 274
116 274
117 274
118 274
119 275
120 275
121 275
122 276
123 275
124 276
124 277
124 278
125 279
126 280
127 281
127 282
128 283
128 284
128 285
129 286
129 287
129 288
130 289
131 290
131 291
132 291
133 292
134 293
134 294
135 294
136 295
136 296
137 297
138 297
139 298
140 299
141 300
142 301
142 302
143 303
143 304
144 305
145 306
145 307
146 308
147 309
147 310
148 311
149 312
149 313
149 314
150 315
151 316
151 317
151 318
152 319
152 320
152 321
153 322
154 323
153 324
153 325
154 326
154 327
154 328
155 329
155 330
155 331
155 332
155 333
154 334
154 335
155 336
155 337
155 338
154 339
154 340
154 341
153 342
153 343
152 344
152 345
151 346
150 346
149 346
148 346
147 347
146 347
145 348
144 348
143 348
142 348
141 349
140 349
139 349
138 349
137 349
136 350
135 350
134 350
133 351
132 351
131 351
130 351
130 352
131 352
132 352
133 351
134 351
135 352
136 352
137 352
138 352
139 352
140 352
141 352
142 352
143 352
144 352
145 352
146 353
147 353
148 353
149 353
150 354
151 353
152 353
153 354
154 354
155 354
156 355
157 355
158 355
159 355
160 355
161 355
162 356
162 357
163 357
164 357
165 357
166 358
167 359
168 359
169 360
170 360
171 361
172 362
173 363
174 364
175 364
176 364
177 365
178 366
179 367
180 367
181 368
182 369
183 370
184 371
185 372
185 373
186 373
187 374
188 375
188 376
189 377
190 378
191 379
191 380
192 381
193 382
193 383
194 384
194 385
195 386
195 387
195 388
195 389
196 390
196 391
197 392
197 393
197 394
197 395
198 396
198 397
198 398
198 399
199 400
199 401
199 402
199 403
200 404
200 405
200 406
200 407
200 408
201 409
201 410
200 411
199 412
199 413
198 414
197 415
198 415
199 415
199 414
200 413
201 414
202 415
203 415
204 415
205 415
206 415
207 415
208 415
209 415
210 415
211 416
212 416
213 416
214 416
215 417
215 418
214 419
213 420
212 421
211 422
211 423
210 424
210 425
210 426
211 426
212 427
213 427
214 427
215 427
216 427
217 428
218 428
219 428
220 428
221 428
222 428
223 429
224 429
225 429
226 430
227 430
228 430
229 431
230 431
231 431
232 431
233 431
234 432
235 432
236 432
237 433
238 433
239 433
240 433
241 434
242 434
243 435
244 436
245 436
246 436
247 436
248 437
249 437
250 437
251 437
252 438
253 438
254 439
255 439
256 440
257 440
258 441
258 442
259 443
259 444
259 445
260 446
261 447
261 448
262 449
262 450
262 451
263 452
263 453
263 454
262 455
262 456
261 457
260 458
259 459
258 460
258 461
257 462
257 463
256 464
255 464
255 465
254 466
253 467
252 468
251 469
252 468
253 468
254 467
254 466
255 465
256 465
257 464
258 464
259 463
260 462
261 461
262 461
262 460
263 459
264 458
265 458
266 458
267 457
268 456
269 456
270 456
271 456
272 455
273 455
274 455
275 456
274 457
275 458
276 458
277 458
278 459
279 460
280 461
280 462
281 463
282 464
283 465
284 465
285 465
286 465
287 466
288 466
289 466
290 466
291 466
292 466
293 467
294 467
295 467
296 467
297 467
298 467
299 467
300 467
301 467
302 467
303 467
304 467
305 467
306 467
307 467
308 467
309 467
310 468
311 468
312 468
313 468
314 468
315 468
316 468
317 468
318 468
319 468
320 469
321 469
322 469
323 469
324 469
325 469
326 469
327 469
328 469
329 469
330 469
331 469
332 469
333 469
334 469
335 469
336 469
337 469
338 469
339 468
340 468
341 468
342 468
343 468
344 468
345 468
346 468
347 468
348 468
349 467
350 467
351 467
352 467
353 467
354 467
355 467
356 467
357 467
358 466
359 466
360 466
361 466
362 466
363 466
364 466
365 466
366 466
367 466
368 466
369 466
370 466
371 466
372 466
373 466
374 467
375 467
376 467
377 467
378 467
379 467
380 467
381 467
382 468
383 468
384 468
385 468
386 468
387 468
388 468
389 468
390 468
391 468
392 469
393 469
394 469
395 469
396 469
397 469
398 469
399 469
400 469
401 469
402 469
403 469
404 469
405 469
406 470
407 470
408 470
409 470
410 470
411 470
412 470
413 470
414 470
415 470
416 470
417 470
418 470
419 471
420 471
421 471
422 471
423 471
424 471
425 471
426 472
427 472
428 472
429 472
430 472
431 473
432 473
433 473
434 473
435 474
436 474
437 475
438 475
439 476
440 476
441 477
442 478
443 478
444 479
445 479
446 479
447 479
448 479
449 480
450 480
451 480
452 481
453 482
454 482
455 483
456 483
457 484
458 484
459 484
460 485
461 486
462 487
463 487
464 487
465 488
466 488
467 489
468 489
469 490
470 490
471 490
472 490
473 490
474 491
475 491
476 490
477 490
478 491
478 492
479 492
480 493
481 492
482 491
483 490
484 490
485 489
486 489
487 490
488 489
488 488
489 487
490 487
491 487
492 487
493 487
494 487
495 487
496 487
497 487
498 487
499 486
500 485
501 485
502 486
503 485
504 484
505 484
506 484
507 484
508 484
509 484
510 483
511 483
512 483
513 482
514 482
515 481
516 481
517 481
518 481
519 480
520 480
521 480
522 480
523 480
524 480
525 479
526 480
527 479
528 479
528 478
529 477
530 477
531 476
532 476
533 476
534 476
535 475
536 475
537 475
538 475
539 474
540 474
541 474
542 474
543 473
544 473
544 472
545 471
546 471
547 471
548 471
549 470
550 470
551 470
552 469
553 469
554 469
555 468
556 468
557 468
558 468
559 468
560 468
561 468
562 468
563 468
564 468
565 467
566 467
567 467
568 466
569 466
570 465
571 465
572 465
573 464
574 464
575 464
576 464
577 464
578 463
579 462
580 461
581 461
582 461
583 460
584 459
585 459
586 458
587 457
588 456
589 456
589 455
589 454
589 453
589 452
590 451
591 450
591 449
592 448
592 447
593 446
594 446
595 446
596 445
597 444
598 443
598 442
599 441
600 440
601 439
602 438
603 437
604 437
605 436
606 435
607 434
607 433
607 432
608 431
609 431
610 431
611 430
612 429
613 429
614 428
615 428
616 428
617 427
618 427
618 426
618 425
617 425
616 424
615 423
614 422
613 421
613 420
614 419
615 418
616 417
615 416
615 415
616 414
617 414
618 413
619 412
620 412
621 411
622 410
623 410
624 409
625 408
626 408
627 408
628 408
629 408
630 407
631 408
631 407
630 407
629 406
629 405
629 404
628 403
628 402
627 401
627 400
627 399
626 398
626 397
626 396
626 395
626 394
627 393
628 392
629 393
630 393
631 392
632 392
633 392
634 392
635 392
636 393
637 393
638 393
639 393
640 393
641 393
642 393
643 393
644 393
645 393
646 393
647 393
648 393
649 392
650 392
651 392
652 392
652 391
653 390
654 389
654 388
655 387
655 386
655 385
656 384
656 383
656 382
656 381
656 380
656 379
656 378
656 377
656 376
656 375
656 374
656 373
656 372
656 371
656 370
656 369
655 369
654 368
653 368
652 368
651 368
650 368
649 368
648 367
647 367
646 366
645 366
644 365
643 365
642 365
641 365
640 365
639 365
638 365
637 364
636 363
635 362
635 361
634 360
633 360
632 359
631 358
630 357
629 357
628 357
627 357
626 356
626 355
626 354
627 353
628 353
629 352
630 352
630 351
631 350
631 349
631 348
631 347
632 346
632 345
632 344
632 343
632 342
633 341
633 340
633 339
633 338
633 337
633 336
633 335
633 334
633 333
633 332
633 331
633 330
633 329
632 328
632 327
632 326
633 325
633 324
633 323
633 322
633 321
633 320
633 319
633 318
633 317
633 316
633 315
633 314
633 313
634 312
634 311
634 310
634 309
635 308
635 307
636 306
637 305
637 304
636 303
635 302
634 301
633 300
633 299
632 299
631 299
630 298
630 297
629 297
628 297
627 297
626 296
625 296
624 295
623 295
622 294
621 293
620 292
619 291
618 290
618 289
617 288
616 287
615 286
614 285
614 284
613 283
613 282
612 281
611 280
611 279
610 278
610 277
609 276
608 275
608 274
607 273
606 272
605 271
605 270
604 269
604 268
604 267
603 266
602 265
602 264
602 263
601 262
601 261
601 260
600 259
600 258
600 257
600 256
600 255
600 254
599 253
599 252
599 251
599 250
599 249
599 248
599 247
599 246
599 245
600 244
600 243
600 242
599 241
598 240
598 239
597 239
596 240
595 239
594 239
593 239
592 239
591 239
590 239
589 238
588 238
587 238
586 238
585 238
584 237
583 237
582 237
581 236
581 235
580 235
579 234
578 234
577 234
576 234
575 234
574 233
574 232
573 231
574 230
573 230
572 230
571 229
571 228
570 228
569 227
568 226
567 225
566 225
565 225
564 224
563 225
562 224
561 224
560 223
561 222
562 222
561 221
560 221
559 221
558 220
559 219
560 219
559 218
558 217
557 217
556 216
555 215
554 215
553 216
552 216
551 215
550 214
549 213
548 213
547 212
546 211
545 210
544 209
543 208
542 207
541 206
540 205
539 205
538 204
537 203
537 202
536 202
535 201
534 200
533 199
532 199
531 198
530 197
530 196
530 195
529 194
529 193
528 192
528 191
527 190
526 189
525 188
525 187
524 186
523 185
522 184
522 183
522 182
522 181
521 180
521 179
522 178
523 179
522 178
521 179
520 178
520 177
519 176
519 175
518 174
517 173
517 172
517 171
517 170
517 169
517 168
517 167
517 166
516 166
515 166
514 167
513 168
512 168
511 169
510 169
509 170
508 170
507 171
506 171
505 171
504 171
503 171
502 170
501 171
500 171
499 171
498 172
497 172
496 172
495 172
494 172
493 172
493 173
492 174
491 174
490 174
489 174
488 173
487 172
486 172
485 173
484 173
483 173
482 174
481 174
480 174
479 173
480 172
481 172
480 172
479 172
478 171
477 171
476 170
475 170
474 169
473 168
472 168
471 167
470 166
469 166
468 166
467 165
466 165
465 164
464 164
463 163
462 162
461 162
460 161
459 160
458 159
457 159
456 158
455 158
454 157
453 156
452 155
451 154
450 153
450 152
449 151
449 150
448 149
447 148
446 147
445 146
444 145
443 144
442 143
442 142
441 141
440 142
439 141
438 140
438 139
437 138
437 137
437 136
437 135
436 134
436 133
435 132
434 131
434 130
434 129
434 128
434 127
433 126
433 125
433 124
432 123
432 122
432 121
432 120
432 119
432 118
432 117
432 116
432 115
432 114
432 113
431 112
431 111
431 110
431 109
431 108
431 107
431 106
431 105
431 104
431 103
431 102
431 101
431 100
431 99
431 98
431 97
431 96
