202 42
203 43
203 44
203 45
202 46
201 47
200 48
199 49
199 50
199 51
198 52
198 53
198 54
198 55
198 56
198 57
199 58
199 59
199 60
199 61
199 62
199 63
199 64
200 65
200 66
201 67
201 68
201 69
202 70
202 71
202 72
203 73
203 74
203 75
204 76
204 77
205 78
205 79
205 80
206 81
206 82
207 83
208 84
208 85
208 86
209 87
209 88
209 89
210 90
210 91
210 92
210 93
211 94
211 95
211 96
212 97
212 98
213 99
213 100
214 101
214 102
215 103
215 104
215 105
216 106
216 107
217 108
217 109
218 110
218 111
219 112
219 113
220 114
220 115
220 116
220 117
221 118
221 119
221 120
222 121
222 122
222 123
223 124
223 125
223 126
224 127
224 128
225 129
225 130
226 131
226 132
227 133
227 134
227 135
228 136
228 137
228 138
229 139
229 140
229 141
230 142
230 143
230 144
231 145
231 146
232 147
232 148
233 149
233 150
234 151
234 152
235 153
235 154
236 155
236 156
237 157
237 158
238 159
238 160
238 161
239 162
239 163
240 164
240 165
240 166
241 167
241 168
241 169
242 170
242 171
242 172
243 173
243 174
244 175
244 176
245 177
245 178
246 179
246 180
247 181
247 182
248 183
248 184
249 185
249 186
250 187
251 188
251 189
252 190
253 191
254 192
255 193
256 194
256 195
257 196
258 197
259 198
260 199
261 200
262 201
263 202
264 202
265 203
266 204
267 205
268 206
269 207
270 207
271 208
272 209
273 209
274 210
275 211
276 211
277 212
278 212
279 213
280 213
281 214
282 214
283 215
284 216
285 216
286 217
287 218
288 218
289 219
290 219
291 220
292 220
293 221
294 221
295 222
296 222
297 223
298 224
299 224
300 225
301 225
302 226
303 226
304 227
305 227
306 228
307 228
308 228
309 229
310 229
311 230
312 230
313 231
314 231
315 232
316 232
317 233
316 234
315 235
314 235
313 235
312 235
311 235
310 235
309 235
308 235
307 235
306 235
305 236
304 236
303 236
302 236
301 236
300 236
299 236
298 237
297 237
296 237
295 237
294 237
293 238
292 238
291 238
290 239
289 239
288 239
287 239
286 240
285 240
284 240
283 240
282 240
281 241
280 241
279 241
278 241
277 241
276 241
275 242
274 242
273 242
272 242
271 243
270 243
269 243
268 243
267 243
266 244
265 244
264 244
263 244
262 244
261 245
260 245
259 245
258 245
257 245
256 246
255 246
254 246
253 246
252 246
251 247
250 247
249 248
248 247
248 246
247 245
247 244
247 243
246 242
246 241
245 240
245 239
244 238
244 237
243 236
242 235
242 234
241 233
240 232
240 231
239 230
239 229
238 228
237 227
237 226
236 225
235 224
235 223
234 222
233 221
233 220
232 219
231 218
230 217
229 216
228 215
227 214
226 213
225 212
224 211
223 210
222 209
221 208
220 207
219 206
218 205
217 204
216 203
215 202
214 201
213 201
212 200
211 199
210 198
209 197
208 196
207 195
206 194
205 193
204 192
203 191
202 190
201 190
200 189
199 189
198 188
197 187
196 187
195 186
194 185
193 184
192 183
191 183
190 182
189 181
188 180
187 179
186 179
185 178
184 178
183 178
182 177
181 177
180 176
179 176
178 175
177 175
176 174
175 174
174 173
173 173
172 172
171 172
170 171
169 171
168 171
167 170
166 170
165 169
164 169
163 168
162 168
161 167
160 167
159 166
158 166
157 165
156 165
155 164
154 164
153 164
152 163
151 163
150 162
149 162
148 162
147 161
146 161
145 161
144 160
143 160
142 160
141 160
140 160
139 159
138 159
137 159
136 159
135 158
134 158
133 157
132 157
131 157
130 156
129 156
128 155
127 155
126 155
125 155
124 155
123 154
122 154
121 154
120 153
119 153
118 153
117 152
116 152
115 152
114 151
113 151
112 151
111 150
110 150
109 150
108 149
107 149
106 148
105 148
104 148
103 148
102 148
101 147
100 147
99 147
98 147
97 146
96 146
95 146
94 145
93 145
92 145
91 145
90 144
89 144
88 144
87 144
86 143
85 143
84 143
83 143
82 142
81 142
80 142
79 142
78 141
77 141
76 140
75 140
74 139
73 139
72 138
71 138
70 138
69 138
68 137
67 137
66 137
65 137
64 137
63 137
62 137
61 137
60 137
59 136
58 136
57 136
56 136
55 136
54 136
53 136
52 137
51 137
50 137
49 138
48 138
47 139
46 139
45 140
44 141
43 142
42 142
41 142
40 141
40 142
41 143
42 144
42 145
42 146
42 147
42 148
42 149
42 150
42 151
42 152
43 153
43 154
44 155
45 156
46 157
47 158
48 159
49 160
50 160
51 161
52 162
53 163
54 163
55 163
56 164
57 164
58 165
59 165
60 166
61 167
62 167
63 168
64 168
65 169
66 170
67 170
68 171
69 172
70 173
71 174
72 174
73 175
74 176
75 176
76 177
77 178
78 178
79 179
80 180
81 181
82 182
83 182
84 183
85 184
86 184
87 185
88 186
89 187
90 187
91 188
92 189
93 190
94 191
95 191
96 192
97 193
98 194
99 194
100 195
101 195
102 196
103 197
104 197
105 198
106 199
107 200
108 201
109 202
110 203
111 204
112 205
113 206
114 207
115 208
116 208
117 209
118 209
119 210
120 211
121 212
122 212
123 213
124 213
125 214
126 215
127 216
128 216
129 217
130 218
131 219
132 219
133 220
134 221
135 222
136 222
137 223
138 224
139 225
140 225
141 226
142 227
143 227
144 228
145 229
146 229
147 230
148 231
149 231
150 232
151 232
152 233
153 233
154 233
155 234
156 234
157 235
158 235
159 236
160 237
161 237
162 238
163 238
164 239
165 239
166 240
167 240
168 240
169 241
170 241
171 242
172 242
173 242
174 243
175 243
176 244
177 244
178 244
179 245
180 245
181 245
182 246
183 246
184 246
185 247
186 247
187 247
188 248
189 248
190 249
191 249
192 249
193 250
194 250
195 250
196 250
197 250
198 250
199 250
200 251
201 251
202 251
203 251
204 251
205 251
206 251
207 252
208 252
209 252
210 252
211 252
212 252
213 252
214 252
215 252
216 252
217 253
218 253
219 253
220 253
221 253
222 253
223 253
224 254
225 254
226 254
227 254
228 254
229 254
230 254
231 255
232 255
233 255
234 255
235 255
236 255
237 256
238 257
238 258
237 259
236 259
235 260
234 261
233 261
232 262
231 262
230 263
229 263
228 264
227 264
226 265
225 265
224 266
223 266
222 267
221 267
220 268
219 268
218 269
217 269
216 270
215 270
214 271
213 271
212 272
211 272
210 273
209 273
208 274
207 275
206 275
205 276
204 277
203 278
202 278
201 279
200 280
199 280
198 281
197 282
196 282
195 283
194 284
193 284
192 285
191 286
190 286
189 287
188 288
187 289
186 289
185 290
184 291
183 291
182 292
181 293
180 294
179 294
178 295
177 296
176 297
175 298
174 298
173 299
172 300
171 301
170 302
169 303
168 304
167 305
166 306
166 307
165 308
164 309
164 310
163 311
163 312
162 313
162 314
161 315
160 316
160 317
159 318
158 319
158 320
157 321
156 322
155 323
155 324
154 325
153 326
153 327
152 328
151 329
151 330
150 331
149 332
148 333
148 334
147 335
146 336
145 337
145 338
144 339
144 340
143 341
142 342
141 343
141 344
140 345
139 346
138 347
137 348
136 349
135 350
134 351
134 352
133 353
132 354
132 355
131 356
130 357
130 358
129 359
128 360
128 361
127 362
126 363
125 364
125 365
124 366
123 367
122 368
121 369
121 370
120 371
119 372
119 373
118 374
117 375
117 376
116 377
115 378
114 379
114 380
113 381
112 382
112 383
111 384
110 385
109 386
108 387
107 388
106 389
105 390
105 391
104 392
103 393
102 394
102 395
101 396
100 397
100 398
99 399
98 400
98 401
97 402
97 403
96 404
96 405
96 406
96 407
96 408
96 409
96 410
96 411
96 412
96 413
96 414
96 415
96 416
97 416
98 416
99 416
100 416
101 417
102 417
103 418
104 418
105 418
106 418
107 418
108 418
109 418
110 417
111 417
112 417
113 416
114 416
115 416
116 416
117 415
118 415
119 414
120 414
121 413
122 413
123 413
124 412
125 412
126 411
127 411
128 411
129 410
130 410
131 409
132 409
133 408
134 408
135 407
136 407
137 406
138 406
139 406
140 405
141 405
142 404
143 404
144 403
145 403
146 403
147 402
148 402
149 401
150 400
151 400
152 399
153 398
154 398
155 397
156 396
157 396
158 395
159 395
160 394
161 394
162 393
163 392
164 392
165 391
166 391
167 390
168 389
169 388
170 388
171 387
172 386
173 386
174 385
175 384
176 384
177 383
178 382
179 382
180 381
181 380
182 380
183 379
184 378
185 378
186 377
187 376
188 376
189 375
190 374
191 374
192 373
193 373
194 372
195 371
196 371
197 370
198 370
199 369
200 368
201 367
202 366
203 365
204 364
205 363
206 362
207 361
208 360
209 359
210 358
211 357
212 356
212 355
213 354
214 354
214 353
215 352
216 352
217 351
218 350
219 349
220 348
221 348
222 347
223 346
223 345
224 344
225 343
226 342
227 341
227 340
228 339
229 338
230 337
231 336
232 335
233 334
234 333
234 332
235 331
236 330
237 329
237 328
238 327
239 326
240 325
240 324
241 323
241 322
242 321
242 320
243 319
243 318
244 317
244 316
245 315
245 314
245 313
246 312
247 311
247 310
247 309
248 308
248 307
249 306
249 305
249 304
250 303
250 302
250 301
250 300
250 299
251 298
251 297
251 296
252 295
252 294
252 293
252 292
253 291
253 290
253 289
253 288
253 287
253 286
254 285
254 284
254 283
254 282
254 281
254 280
254 279
254 278
254 277
254 276
254 275
254 274
254 273
254 272
254 271
254 270
254 269
254 268
254 267
254 266
254 265
253 264
253 263
254 262
255 261
256 261
257 260
258 260
259 260
260 260
261 260
262 259
263 259
264 259
265 259
266 259
267 258
268 258
269 258
270 258
271 258
272 257
273 257
274 257
275 257
276 257
277 256
278 256
279 256
280 256
281 256
282 256
283 255
284 255
285 255
286 255
287 255
288 254
289 254
290 254
291 254
292 254
293 254
294 253
295 253
296 253
297 253
298 253
299 253
300 252
301 252
302 252
303 252
304 252
305 252
306 252
307 252
308 252
309 251
310 251
311 251
312 251
313 251
314 251
315 251
316 251
317 250
318 250
319 250
320 250
321 250
322 250
323 249
324 249
325 249
326 249
327 248
328 248
329 248
330 248
331 248
332 248
333 249
332 250
331 251
330 252
329 253
328 254
327 255
326 255
325 256
324 257
323 258
322 258
321 259
320 260
319 260
318 261
317 262
316 262
315 263
314 264
313 264
312 265
311 265
310 266
309 266
308 267
307 268
306 268
305 269
304 269
303 270
302 270
301 271
300 271
299 272
298 272
297 273
296 274
295 274
294 275
293 276
292 277
291 278
290 278
289 279
288 280
287 280
286 281
285 282
284 283
283 284
282 284
281 285
280 286
279 287
278 288
277 288
276 289
275 290
274 291
273 292
272 293
271 294
270 295
269 296
268 297
268 298
267 299
266 300
265 301
264 302
263 303
263 304
262 305
261 306
260 307
259 308
258 309
258 310
257 311
256 312
255 313
255 314
255 315
254 316
254 317
254 318
253 319
253 320
252 321
251 322
251 323
251 324
250 325
249 326
249 327
248 328
247 329
246 330
246 331
245 332
244 333
244 334
244 335
243 336
243 337
242 338
242 339
241 340
241 341
240 342
240 343
240 344
239 345
238 346
238 347
238 348
237 349
237 350
236 351
236 352
235 353
234 354
234 355
233 356
232 357
232 358
231 359
230 360
230 361
229 362
229 363
229 364
228 365
227 366
227 367
226 368
225 369
225 370
224 371
223 372
222 373
222 374
221 375
221 376
220 377
220 378
219 379
219 380
218 381
218 382
217 383
217 384
216 385
216 386
215 387
215 388
215 389
215 390
215 391
214 392
214 393
214 394
215 395
215 396
215 397
215 398
214 399
214 400
215 400
216 401
217 401
218 401
219 402
220 402
221 403
222 403
223 404
224 404
225 404
226 404
227 404
228 404
229 403
230 403
231 403
232 402
233 402
234 401
235 401
236 400
237 400
238 399
239 399
240 398
241 397
242 397
243 396
244 396
245 395
246 395
247 395
248 394
249 393
250 393
251 392
252 392
253 391
254 391
255 390
256 390
257 389
258 389
259 388
260 388
261 387
262 386
263 386
264 385
265 385
266 384
267 384
268 383
269 383
270 382
271 382
272 381
273 380
274 380
275 379
276 378
277 377
278 377
279 376
280 375
281 375
282 374
283 374
284 373
285 372
286 372
287 371
288 370
289 370
290 369
291 368
292 367
293 367
294 366
295 365
296 364
297 364
298 363
299 362
300 361
301 360
302 360
303 359
304 358
305 358
306 357
307 356
308 356
309 355
310 354
311 353
312 352
313 351
314 350
315 349
316 348
317 347
318 346
319 346
320 345
320 344
321 343
322 343
323 342
324 341
325 340
326 339
327 338
327 337
328 336
329 336
330 335
330 334
331 333
331 332
332 331
333 330
334 329
334 328
335 327
336 326
337 325
338 324
338 323
339 322
340 321
340 320
341 319
341 318
342 317
342 316
343 315
344 314
344 313
345 312
345 311
345 310
346 309
346 308
347 307
347 306
347 305
347 304
348 303
348 302
348 301
349 300
350 299
350 298
351 297
351 296
352 295
352 294
352 293
353 292
353 291
353 290
353 289
354 288
354 287
354 286
355 285
355 284
355 283
355 282
355 281
355 280
356 279
356 278
356 277
356 276
356 275
356 274
356 273
356 272
356 271
356 270
356 269
356 268
356 267
356 266
356 265
356 264
356 263
356 262
356 261
356 260
356 259
355 258
355 257
355 256
355 255
355 254
354 253
354 252
354 251
354 250
354 249
355 248
356 248
357 248
358 248
359 248
360 248
361 248
362 248
363 248
364 248
365 248
366 248
367 248
368 248
369 248
370 248
371 248
372 248
373 248
374 248
375 247
376 248
377 248
378 248
379 247
380 247
381 247
382 247
383 247
384 247
385 247
386 247
387 247
388 247
389 247
390 247
391 247
392 247
393 247
394 247
395 247
396 247
397 247
398 247
399 247
400 247
401 247
402 247
403 247
404 247
405 247
406 247
407 247
408 247
409 247
410 247
411 247
412 247
413 247
414 247
415 247
416 247
417 247
418 247
419 247
420 247
421 247
422 247
423 247
424 247
425 247
426 247
427 247
428 247
429 247
430 247
431 247
432 248
433 248
434 249
433 250
432 251
431 251
430 252
429 252
428 253
427 253
426 253
425 254
424 254
423 255
422 255
421 256
420 256
419 257
418 257
417 258
416 259
415 259
414 260
413 260
412 261
411 261
410 261
409 262
408 263
407 263
406 264
405 264
404 265
403 265
402 266
401 266
400 267
399 268
398 268
397 269
396 269
395 270
394 271
393 271
392 272
391 273
390 273
389 274
388 274
387 275
386 276
385 277
384 278
383 278
383 279
382 280
381 280
380 281
379 282
379 283
378 284
377 285
376 286
376 287
376 288
375 289
374 290
374 291
373 292
373 293
372 294
371 295
371 296
370 297
370 298
369 299
369 300
368 301
367 302
367 303
366 304
365 305
365 306
364 307
364 308
363 309
363 310
363 311
362 312
362 313
362 314
361 315
361 316
361 317
361 318
360 319
360 320
360 321
359 322
359 323
358 324
358 325
357 326
357 327
356 328
356 329
356 330
356 331
356 332
356 333
355 334
355 335
355 336
354 337
354 338
353 339
353 340
353 341
352 342
352 343
351 344
351 345
351 346
351 347
350 348
350 349
350 350
349 351
349 352
348 353
347 354
347 355
346 356
345 357
344 358
344 359
343 360
343 361
343 362
342 363
342 364
341 365
341 366
341 367
341 368
340 369
340 370
339 371
338 372
338 373
337 374
337 375
336 376
336 377
336 378
335 379
335 380
334 381
334 382
333 383
333 384
333 385
333 386
332 387
332 388
331 389
331 390
331 391
331 392
331 393
331 394
331 395
332 396
332 397
332 398
333 399
333 400
333 401
333 402
334 403
335 402
336 402
337 402
338 402
339 402
340 403
341 403
342 402
343 402
344 402
345 401
346 401
347 400
348 400
349 399
350 399
351 398
352 398
353 397
354 396
355 396
356 395
357 394
358 393
359 393
360 392
361 391
362 390
363 390
364 389
365 388
366 387
367 386
368 386
369 385
370 385
371 384
372 384
373 383
374 382
375 381
376 381
377 380
378 379
379 379
380 378
381 377
382 377
383 376
383 375
384 374
385 374
386 373
387 372
388 372
389 371
390 370
391 369
392 368
393 368
394 367
395 366
396 365
397 364
398 363
399 363
400 362
401 361
402 360
403 359
404 358
405 358
406 357
406 356
407 355
408 354
409 353
410 352
411 351
412 350
413 349
414 348
415 347
416 346
417 345
418 344
419 343
420 342
421 341
422 340
423 339
424 338
424 337
425 336
426 335
426 334
427 333
428 332
428 331
429 330
430 329
431 328
431 327
432 326
432 325
433 324
434 323
434 322
435 321
435 320
435 319
436 318
436 317
436 316
436 315
437 314
437 313
437 312
438 311
438 310
439 309
439 308
440 307
441 306
441 305
441 304
442 303
443 302
443 301
444 300
444 299
444 298
445 297
445 296
445 295
446 294
446 293
446 292
447 291
447 290
447 289
448 288
448 287
448 286
448 285
449 284
449 283
449 282
449 281
450 280
450 279
450 278
450 277
450 276
450 275
450 274
451 273
451 272
451 271
451 270
451 269
451 268
451 267
451 266
451 265
452 264
452 263
452 262
452 261
452 260
452 259
452 258
452 257
452 256
452 255
452 254
452 253
453 252
454 252
455 252
456 252
457 251
458 251
459 251
460 251
461 251
462 251
463 251
464 251
465 251
466 251
467 252
468 252
469 252
470 252
471 252
472 252
473 252
474 252
475 252
476 252
477 252
478 252
479 252
480 252
481 252
482 252
483 252
484 252
485 252
486 252
487 253
488 253
489 253
490 253
491 253
492 253
493 253
494 253
495 253
496 253
497 254
498 254
499 254
500 254
501 254
502 254
503 254
504 254
505 254
506 254
507 254
508 255
509 255
510 255
511 255
512 255
513 255
514 255
515 255
516 255
517 255
518 256
519 256
520 257
519 258
518 259
517 260
516 260
515 261
514 261
513 262
512 262
511 263
510 263
509 264
508 264
507 265
506 265
505 265
504 266
503 266
502 267
501 267
500 267
499 268
498 268
497 269
496 270
495 270
494 271
493 271
492 272
491 273
490 273
489 274
488 274
487 275
486 276
485 277
484 277
483 278
482 279
481 280
480 280
479 281
478 282
477 283
476 284
475 285
474 286
473 287
472 288
471 289
470 290
470 291
469 292
469 293
469 294
468 295
468 296
467 297
467 298
466 299
466 300
465 301
465 302
465 303
464 304
464 305
463 306
462 307
462 308
461 309
461 310
460 311
460 312
460 313
459 314
459 315
459 316
459 317
458 318
458 319
458 320
457 321
457 322
457 323
457 324
456 325
456 326
456 327
456 328
456 329
456 330
456 331
456 332
455 333
455 334
455 335
455 336
454 337
454 338
454 339
453 340
453 341
453 342
453 343
453 344
453 345
453 346
452 347
452 348
452 349
452 350
451 351
451 352
451 353
450 354
450 355
450 356
450 357
449 358
449 359
448 360
448 361
448 362
447 363
447 364
446 365
446 366
445 367
445 368
445 369
445 370
445 371
445 372
444 373
444 374
444 375
444 376
443 377
443 378
443 379
442 380
442 381
442 382
441 383
441 384
441 385
440 386
440 387
440 388
439 389
439 390
439 391
438 392
438 393
437 394
437 395
437 396
436 397
436 398
436 399
435 400
435 401
435 402
434 403
434 404
434 405
434 406
434 407
434 408
435 409
435 410
435 411
436 412
436 413
436 414
436 415
437 415
438 415
439 415
440 415
441 415
442 415
443 415
444 415
445 415
446 415
447 414
448 413
449 413
450 412
451 412
452 411
453 410
454 409
455 408
456 408
456 407
457 406
458 406
458 405
459 404
460 404
461 403
462 402
463 401
464 400
465 399
466 398
467 397
468 396
468 395
469 394
470 394
470 393
471 392
472 391
473 390
474 390
474 389
475 388
476 387
477 386
477 385
478 384
479 384
479 383
480 382
481 381
481 380
482 379
483 378
484 377
485 376
486 375
487 374
488 373
489 372
489 371
490 370
491 369
492 368
493 368
493 367
494 366
495 365
496 364
497 363
497 362
498 361
499 360
499 359
500 358
501 357
501 356
502 355
502 354
503 353
503 352
504 351
504 350
505 349
505 348
506 347
506 346
507 345
507 344
508 343
508 342
509 341
510 340
510 339
511 338
511 337
512 336
513 335
513 334
514 333
514 332
515 331
516 330
516 329
516 328
517 327
518 326
518 325
518 324
519 323
519 322
520 321
521 320
522 320
522 319
522 318
522 317
523 316
524 315
524 314
525 313
525 312
526 311
527 310
527 309
527 308
528 307
528 306
528 305
528 304
529 303
529 302
529 301
530 300
530 299
530 298
530 297
531 296
531 295
531 294
531 293
531 292
531 291
532 290
532 289
532 288
532 287
532 286
532 285
532 284
533 283
533 282
533 281
533 280
533 279
533 278
533 277
533 276
533 275
533 274
533 273
533 272
533 271
534 270
534 269
534 268
534 267
534 266
534 265
534 264
534 263
534 262
535 261
536 260
537 260
538 260
539 260
540 260
541 260
542 260
543 260
544 260
545 260
546 260
547 260
548 260
549 260
550 260
551 260
552 260
553 261
554 261
555 261
556 261
557 261
558 261
559 261
560 261
561 262
562 262
563 262
564 262
565 262
566 262
567 262
568 263
569 263
570 263
571 263
572 263
573 263
574 263
575 263
576 263
577 263
578 264
579 264
580 264
581 264
582 264
583 265
584 265
585 265
586 265
587 265
588 265
589 266
590 266
591 266
592 266
593 266
594 266
595 266
596 267
597 267
598 267
599 267
600 267
601 267
602 268
603 268
604 268
605 268
606 268
607 268
608 269
609 269
610 269
611 269
612 269
613 270
613 271
612 272
611 272
610 273
609 273
608 274
607 274
606 274
605 275
604 275
603 276
602 276
601 276
600 277
599 277
598 277
597 278
596 278
595 278
594 279
593 279
592 279
591 280
590 280
589 280
588 281
587 281
586 282
585 282
584 282
583 283
582 283
581 284
580 284
579 285
578 285
577 286
576 286
575 287
574 288
573 289
572 290
571 291
570 292
569 293
568 294
567 295
566 296
565 297
564 297
563 298
563 299
562 300
561 301
561 302
560 303
560 304
559 305
559 306
558 307
558 308
557 309
557 310
556 311
556 312
555 313
554 314
554 315
554 316
553 317
553 318
553 319
552 320
552 321
552 322
552 323
551 324
551 325
551 326
551 327
551 328
551 329
550 330
550 331
550 332
550 333
550 334
549 335
549 336
549 337
549 338
549 339
549 340
548 341
548 342
548 343
548 344
548 345
548 346
548 347
548 348
548 349
547 350
547 351
546 352
546 353
546 354
545 355
545 356
545 357
545 358
545 359
544 360
544 361
544 362
543 363
543 364
543 365
542 366
542 367
542 368
541 369
541 370
541 371
540 372
540 373
540 374
540 375
539 376
539 377
539 378
538 379
538 380
538 381
538 382
537 383
537 384
537 385
537 386
537 387
537 388
536 389
536 390
535 391
535 392
534 393
534 394
534 395
533 396
533 397
533 398
533 399
532 400
532 401
532 402
531 403
531 404
531 405
531 406
530 407
530 408
530 409
530 410
530 411
529 412
529 413
529 414
529 415
528 416
528 417
528 418
528 419
528 420
528 421
528 422
528 423
528 424
528 425
528 426
529 427
529 428
529 429
529 430
529 431
530 431
531 430
532 431
533 431
534 430
535 430
536 430
537 430
538 430
539 429
540 428
541 428
542 427
543 427
544 426
545 425
546 424
547 423
548 423
549 422
550 421
551 420
552 419
553 418
554 417
555 416
556 415
557 414
558 413
559 413
559 412
560 411
561 410
562 409
563 408
564 407
565 406
566 405
566 404
567 403
568 403
569 402
570 401
571 400
572 399
573 398
574 397
575 396
576 395
577 394
578 393
579 392
579 391
580 390
581 390
581 389
582 388
583 387
584 386
585 385
586 384
586 383
587 382
588 381
589 380
589 379
590 378
591 377
591 376
592 375
592 374
593 373
593 372
594 371
595 370
595 369
596 368
596 367
597 366
598 365
598 364
598 363
599 362
599 361
600 360
600 359
601 358
602 357
603 356
603 355
604 354
605 353
605 352
606 351
606 350
607 349
607 348
608 347
608 346
608 345
609 344
609 343
610 342
610 341
611 340
611 339
612 338
612 337
613 336
613 335
614 334
614 333
614 332
614 331
615 330
615 329
615 328
615 327
615 326
616 325
616 324
616 323
616 322
617 321
617 320
618 319
618 318
618 317
618 316
619 315
619 314
619 313
619 312
620 311
620 310
620 309
620 308
621 307
621 306
621 305
622 304
622 303
622 302
622 301
622 300
622 299
622 298
623 297
623 296
622 295
622 294
623 293
623 292
623 291
623 290
623 289
623 288
623 287
623 286
623 285
623 284
624 283
624 282
624 281
624 280
624 279
624 278
624 277
625 276
625 275
626 274
627 274
628 274
629 273
630 273
631 273
632 273
633 273
634 273
635 273
636 273
637 273
638 273
639 273
640 274
641 274
642 274
643 274
644 274
645 274
646 275
647 275
648 275
649 275
650 275
651 275
652 276
653 276
654 276
655 276
656 276
657 277
658 277
659 277
660 277
661 277
662 278
663 278
664 278
665 278
666 278
667 278
668 279
669 279
670 279
671 279
672 279
673 280
674 280
675 280
676 280
677 281
678 281
679 281
680 281
681 281
682 282
683 282
684 282
685 282
686 282
687 282
688 283
689 283
690 283
691 283
692 284
693 284
694 284
695 284
696 285
697 285
698 285
699 285
700 285
701 285
702 286
703 286
704 286
705 286
706 286
707 286
708 287
709 287
710 287
711 287
712 287
713 287
714 288
715 288
716 288
717 288
718 288
719 288
720 288
721 289
722 289
723 289
724 289
725 289
726 289
727 289
728 289
729 289
730 290
731 290
732 290
733 290
734 290
735 290
736 290
737 291
738 291
739 291
740 291
741 292
742 292
743 292
744 293
745 293
746 293
747 294
748 294
749 295
750 295
751 295
752 295
753 295
754 296
755 295
756 295
757 295
758 295
759 295
760 294
761 293
762 292
762 291
762 290
762 289
762 288
762 287
763 286
763 285
763 284
764 283
763 282
763 281
762 281
761 281
760 281
759 281
758 281
757 281
756 281
755 281
754 281
753 281
752 281
751 281
750 281
749 281
748 281
747 281
746 281
745 281
744 281
743 281
742 281
741 281
740 280
739 280
738 280
737 280
736 279
735 279
734 279
733 279
732 279
731 278
730 278
729 278
728 278
727 277
726 277
725 277
724 277
723 277
722 276
721 276
720 276
719 275
718 275
717 275
716 275
715 275
714 274
713 274
712 274
711 274
710 273
709 273
708 273
707 273
706 273
705 272
704 272
703 272
702 272
701 272
700 271
699 271
698 271
697 271
696 271
695 271
694 270
693 270
692 270
691 270
690 270
689 269
688 269
687 269
686 269
685 269
684 269
683 268
682 268
681 268
680 268
679 268
678 268
677 267
676 267
675 267
674 267
673 267
672 267
671 266
670 266
669 266
668 266
667 266
666 265
665 265
664 265
663 265
662 265
661 265
660 264
659 264
658 264
657 264
656 264
655 263
654 263
653 263
652 263
651 263
650 262
649 262
648 262
647 262
646 262
645 261
644 261
643 261
642 261
641 260
640 260
639 260
638 260
637 259
636 259
635 259
634 258
633 257
632 256
632 255
632 254
633 253
633 252
633 251
634 250
634 249
634 248
635 247
635 246
635 245
636 244
636 243
637 242
637 241
638 240
638 239
639 238
639 237
639 236
640 235
640 234
640 233
641 232
641 231
642 230
642 229
642 228
643 227
643 226
643 225
643 224
644 223
644 222
644 221
645 220
645 219
645 218
646 217
646 216
646 215
646 214
647 213
647 212
647 211
647 210
647 209
648 208
648 207
648 206
648 205
648 204
648 203
648 202
648 201
648 200
648 199
648 198
648 197
648 196
648 195
648 194
648 193
647 192
647 191
647 190
647 189
647 188
647 187
646 186
646 185
646 184
646 183
646 182
646 181
647 180
646 179
646 178
646 177
646 176
646 175
646 174
645 173
645 172
645 171
644 170
644 169
644 168
644 167
643 166
643 165
642 164
642 163
642 162
641 161
641 160
641 159
641 158
640 157
640 156
640 155
640 154
640 153
640 152
640 151
640 150
639 149
639 148
639 147
639 146
639 145
639 144
638 143
638 142
638 141
637 140
637 139
637 138
636 137
636 136
635 135
635 134
635 133
634 132
634 131
633 130
633 129
632 128
631 127
631 126
630 125
630 124
629 123
628 122
628 121
627 120
627 119
627 118
626 117
626 116
625 115
625 114
624 113
624 112
623 111
623 110
622 109
622 108
621 107
621 106
620 105
619 104
619 103
618 102
618 101
617 100
616 99
616 98
615 97
615 96
614 95
613 94
612 93
612 92
611 91
610 91
609 90
608 89
607 88
606 87
605 87
604 86
603 86
602 85
602 84
601 83
601 82
601 83
600 84
599 85
598 86
597 86
596 87
595 88
594 89
594 90
593 91
593 92
593 93
592 94
592 95
592 96
591 97
591 98
591 99
591 100
591 101
591 102
591 103
591 104
591 105
591 106
591 107
591 108
591 109
591 110
591 111
590 112
590 113
590 114
590 115
590 116
590 117
590 118
590 119
590 120
590 121
590 122
590 123
590 124
590 125
590 126
590 127
590 128
590 129
590 130
590 131
590 132
590 133
591 134
591 135
591 136
591 137
591 138
591 139
591 140
591 141
591 142
590 143
590 144
590 145
590 146
590 147
590 148
590 149
590 150
590 151
590 152
590 153
590 154
590 155
590 156
590 157
590 158
590 159
590 160
590 161
590 162
590 163
590 164
590 165
590 166
590 167
590 168
590 169
590 170
590 171
590 172
590 173
590 174
590 175
590 176
590 177
590 178
590 179
591 180
591 181
591 182
591 183
591 184
591 185
591 186
591 187
591 188
591 189
591 190
591 191
592 192
592 193
592 194
593 195
593 196
594 197
594 198
594 199
595 200
595 201
595 202
596 203
596 204
596 205
596 206
597 207
597 208
597 209
597 210
598 211
598 212
599 213
599 214
600 215
600 216
601 217
601 218
602 219
603 220
603 221
604 222
605 223
605 224
606 225
607 226
607 227
608 228
608 229
609 230
610 231
610 232
611 233
611 234
612 235
613 236
613 237
614 238
614 239
615 240
616 241
617 242
618 243
618 244
619 245
620 246
620 247
621 248
622 249
622 250
623 251
623 252
624 253
624 254
625 255
625 256
624 257
623 257
622 257
621 257
620 257
619 257
618 256
617 256
616 256
615 256
614 256
613 256
612 256
611 255
610 255
609 255
608 255
607 255
606 254
605 254
604 254
603 254
602 254
601 254
600 254
599 253
598 253
597 253
596 253
595 253
594 253
593 253
592 252
591 252
590 252
589 252
588 252
587 252
586 251
585 251
584 251
583 251
582 251
581 251
580 250
579 250
578 250
577 250
576 250
575 250
574 250
573 250
572 250
571 249
570 249
569 249
568 249
567 249
566 249
565 248
564 248
563 248
562 248
561 248
560 248
559 247
558 247
557 247
556 247
555 247
554 247
553 247
552 247
551 246
550 246
549 246
548 246
547 246
546 246
545 246
544 245
543 245
542 245
541 245
540 245
539 245
538 244
537 244
536 244
535 243
534 243
533 243
532 242
531 241
531 240
531 239
532 238
532 237
533 236
533 235
534 234
534 233
534 232
535 231
535 230
535 229
535 228
536 227
536 226
536 225
537 224
537 223
537 222
538 221
538 220
538 219
538 218
538 217
539 216
539 215
539 214
539 213
539 212
539 211
539 210
540 209
540 208
540 207
540 206
540 205
541 204
541 203
541 202
541 201
541 200
541 199
541 198
541 197
541 196
541 195
541 194
542 193
542 192
542 191
542 190
542 189
542 188
542 187
542 186
542 185
542 184
541 183
541 182
541 181
541 180
541 179
540 178
540 177
540 176
540 175
539 174
539 173
539 172
538 171
538 170
537 169
537 168
537 167
537 166
537 165
537 164
536 163
536 162
536 161
536 160
536 159
535 158
535 157
534 156
534 155
533 154
533 153
532 152
532 151
531 150
531 149
530 148
530 147
529 146
529 145
528 144
528 143
528 142
528 141
527 140
527 139
527 138
527 137
527 136
526 135
526 134
526 133
526 132
525 131
525 130
525 129
524 128
524 127
523 126
523 125
522 124
522 123
522 122
521 121
521 120
521 119
521 118
521 117
521 116
520 115
520 114
520 113
519 112
519 111
519 110
518 109
518 108
517 107
517 106
516 105
516 104
515 103
515 102
515 101
515 100
514 99
514 98
514 97
513 96
513 95
513 94
512 93
512 92
511 91
511 90
510 89
510 88
510 87
509 86
509 85
509 84
509 83
508 82
508 81
508 80
507 79
506 78
506 77
506 76
505 75
504 74
504 73
503 72
503 71
502 70
502 69
501 68
501 67
500 66
500 65
499 64
499 63
498 62
497 61
497 60
496 59
495 58
495 57
494 56
493 55
492 54
491 53
490 52
489 51
488 50
487 50
486 50
485 50
484 50
483 49
483 48
482 48
482 49
482 50
481 51
480 52
479 53
478 54
478 55
477 56
476 57
476 58
476 59
476 60
476 61
475 62
475 63
475 64
475 65
475 66
475 67
475 68
475 69
474 70
474 71
474 72
474 73
474 74
474 75
474 76
474 77
474 78
474 79
474 80
474 81
474 82
474 83
474 84
474 85
474 86
474 87
474 88
475 89
475 90
475 91
475 92
475 93
475 94
475 95
475 96
475 97
475 98
475 99
475 100
475 101
476 102
476 103
476 104
476 105
476 106
476 107
476 108
476 109
476 110
476 111
476 112
475 113
475 114
475 115
475 116
475 117
475 118
475 119
474 120
474 121
474 122
474 123
474 124
474 125
473 126
473 127
473 128
473 129
473 130
473 131
472 132
472 133
472 134
471 135
471 136
471 137
471 138
470 139
470 140
470 141
470 142
470 143
470 144
470 145
470 146
470 147
470 148
470 149
469 150
469 151
469 152
469 153
469 154
469 155
469 156
469 157
469 158
469 159
469 160
469 161
469 162
470 163
470 164
470 165
470 166
470 167
470 168
470 169
471 170
471 171
471 172
471 173
471 174
472 175
472 176
472 177
473 178
473 179
473 180
473 181
473 182
474 183
474 184
474 185
474 186
475 187
475 188
475 189
476 190
476 191
477 192
477 193
478 194
478 195
479 196
480 197
481 198
482 199
483 200
484 201
485 202
486 203
486 204
487 205
488 206
488 207
489 208
490 209
491 210
491 211
492 212
493 213
493 214
494 215
495 216
496 217
497 218
498 219
499 220
499 221
500 221
501 222
502 223
503 224
504 225
505 226
506 227
507 228
508 229
509 230
510 231
511 232
512 232
513 233
513 234
514 235
515 235
516 236
517 237
518 238
519 239
519 240
518 241
517 241
516 241
515 241
514 240
513 240
512 240
511 240
510 240
509 240
508 240
507 239
506 239
505 239
504 239
503 239
502 239
501 239
500 239
499 239
498 238
497 238
496 238
495 238
494 238
493 238
492 238
491 238
490 238
489 238
488 237
487 237
486 237
485 237
484 237
483 237
482 237
481 237
480 237
479 237
478 237
477 237
476 237
475 237
474 237
473 237
472 237
471 237
470 237
469 237
468 237
467 237
466 237
465 237
464 236
463 236
462 236
461 236
460 236
459 236
458 236
457 236
456 236
455 236
454 236
453 236
452 236
451 236
450 235
449 235
448 235
447 235
446 235
445 235
444 235
443 235
442 234
441 234
440 234
439 234
438 233
437 233
436 233
435 233
434 232
433 232
432 232
431 231
431 230
432 229
432 228
432 227
432 226
432 225
433 224
433 223
433 222
433 221
433 220
433 219
434 218
434 217
434 216
434 215
434 214
434 213
434 212
434 211
434 210
434 209
434 208
434 207
434 206
434 205
434 204
434 203
434 202
434 201
434 200
434 199
434 198
434 197
434 196
434 195
434 194
434 193
434 192
434 191
434 190
434 189
434 188
434 187
434 186
434 185
434 184
434 183
434 182
433 181
433 180
433 179
433 178
432 177
432 176
432 175
431 174
431 173
431 172
431 171
431 170
430 169
430 168
430 167
430 166
429 165
429 164
429 163
428 162
428 161
427 160
427 159
426 158
426 157
425 156
424 155
424 154
423 153
422 152
421 151
421 150
420 149
420 148
419 147
418 146
418 145
417 144
416 143
416 142
415 141
414 140
413 139
413 138
412 137
412 136
411 135
410 134
410 133
409 132
409 131
408 130
408 129
407 128
406 127
405 126
404 125
404 124
403 123
402 122
402 121
401 120
401 119
400 118
399 117
399 116
398 115
397 114
397 113
396 112
395 111
394 110
393 109
392 108
392 107
391 106
390 105
389 104
389 103
388 102
387 101
386 100
385 99
384 98
383 97
382 96
381 95
381 94
380 93
379 92
378 91
378 90
377 89
377 88
376 87
376 86
375 85
375 84
374 83
373 82
372 81
371 80
370 79
369 78
369 77
368 76
368 75
367 74
366 73
366 72
365 71
364 70
363 69
362 68
361 67
360 66
360 65
359 64
358 63
357 62
356 61
355 60
354 59
353 58
352 57
351 56
350 55
349 54
348 53
347 52
346 51
345 50
344 49
343 48
342 48
341 47
340 46
339 46
338 45
337 45
336 44
335 44
334 44
333 44
332 44
331 44
330 44
329 44
328 43
327 43
328 44
327 45
327 46
326 47
326 48
326 49
326 50
325 51
325 52
325 53
325 54
325 55
325 56
325 57
325 58
326 59
326 60
326 61
327 62
327 63
327 64
328 65
328 66
328 67
328 68
329 69
329 70
329 71
329 72
330 73
330 74
330 75
331 76
331 77
331 78
331 79
331 80
331 81
331 82
332 83
332 84
332 85
332 86
333 87
333 88
334 89
334 90
334 91
334 92
334 93
334 94
335 95
335 96
335 97
335 98
336 99
336 100
337 101
337 102
338 103
338 104
338 105
338 106
339 107
339 108
339 109
340 110
340 111
340 112
341 113
341 114
342 115
342 116
342 117
342 118
343 119
343 120
343 121
344 122
344 123
344 124
345 125
345 126
345 127
345 128
346 129
346 130
346 131
346 132
346 133
347 134
347 135
347 136
348 137
348 138
348 139
349 140
349 141
350 142
350 143
351 144
351 145
351 146
351 147
351 148
351 149
351 150
351 151
351 152
352 153
352 154
352 155
352 156
352 157
353 158
353 159
353 160
353 161
353 162
354 163
354 164
354 165
354 166
355 167
355 168
356 169
357 170
357 171
358 172
358 173
358 174
359 175
359 176
360 177
360 178
360 179
361 180
361 181
362 182
362 183
363 184
364 185
364 186
365 187
366 188
367 189
368 190
368 191
369 192
370 193
371 194
371 195
372 196
373 197
374 198
374 199
375 199
376 200
377 201
377 202
378 203
379 204
380 205
381 206
382 207
383 207
384 208
385 209
386 209
387 210
388 211
389 212
390 212
391 213
392 214
393 214
394 215
395 216
396 216
397 217
398 218
399 218
400 219
401 220
402 220
403 221
404 221
405 222
406 222
407 223
408 224
409 224
410 225
411 226
412 227
413 228
414 228
415 229
416 230
417 231
416 232
415 232
414 232
413 232
412 232
411 232
410 232
409 232
408 232
407 232
406 232
405 232
404 232
403 232
402 232
401 232
400 232
399 232
398 232
397 232
396 232
395 232
394 232
393 232
392 232
391 232
390 232
389 232
388 233
387 233
386 233
385 233
384 233
383 233
382 233
381 233
380 233
379 233
378 233
377 233
376 233
375 233
374 233
373 233
372 233
371 233
370 233
369 233
368 233
367 233
366 233
365 233
364 233
363 234
362 234
361 234
360 234
359 234
358 234
357 234
356 234
355 234
354 234
353 234
352 234
351 234
350 234
349 234
348 234
347 233
346 233
345 233
344 233
343 233
342 233
341 233
340 233
339 233
338 233
337 232
336 232
335 231
335 230
335 229
335 228
336 227
336 226
336 225
336 224
336 223
336 222
336 221
336 220
336 219
336 218
336 217
335 216
335 215
335 214
335 213
335 212
334 211
334 210
334 209
334 208
333 207
333 206
333 205
333 204
332 203
332 202
332 201
332 200
332 199
332 198
332 197
331 196
331 195
331 194
331 193
330 192
330 191
329 190
329 189
329 188
328 187
328 186
328 185
327 184
327 183
327 182
326 181
326 180
326 179
325 178
325 177
325 176
324 175
324 174
323 173
323 172
322 171
322 170
321 169
321 168
320 167
320 166
319 165
319 164
319 163
318 162
318 161
317 160
316 159
316 158
315 157
314 156
314 155
313 154
313 153
312 152
312 151
311 150
310 149
310 148
309 147
309 146
308 145
307 144
307 143
306 142
305 141
305 140
304 139
303 138
303 137
302 136
302 135
301 134
300 133
300 132
299 131
298 130
297 129
296 128
295 127
294 126
293 125
292 124
292 123
291 122
290 121
289 120
288 119
288 118
287 117
286 116
286 115
285 114
284 113
283 112
282 111
281 110
281 109
280 108
279 107
278 106
277 105
276 104
276 103
275 102
274 101
273 100
272 99
271 98
270 97
269 96
269 95
268 94
267 94
266 93
265 92
264 91
263 90
262 89
261 88
260 87
259 86
258 85
257 84
256 83
255 82
254 82
253 81
252 80
251 79
250 78
249 77
248 76
247 75
246 74
245 73
244 72
244 71
243 70
242 69
241 68
240 67
239 66
238 65
237 64
236 63
235 62
234 61
233 60
232 59
231 58
230 57
229 56
228 55
227 54
226 53
225 52
224 51
223 50
222 49
221 48
220 48
219 47
218 46
217 46
216 45
215 45
214 44
213 44
212 44
211 43
210 43
209 44
208 44
207 44
206 44
205 44
204 43
203 42
202 42
