409 60
408 61
407 61
406 61
405 61
404 61
403 61
402 61
401 61
400 61
399 62
398 62
397 62
396 62
395 62
394 63
393 63
392 63
391 63
390 64
389 64
388 64
387 64
386 64
385 64
384 64
383 64
382 64
381 64
380 64
379 64
378 64
377 65
376 65
375 65
374 65
373 65
372 65
371 65
370 66
369 66
368 66
367 66
366 66
365 66
364 67
363 67
362 67
361 67
360 67
359 67
358 67
357 68
356 68
355 68
354 68
353 68
352 68
351 69
350 69
349 69
348 69
347 70
346 70
345 70
344 70
343 70
342 70
341 71
340 71
339 71
338 71
337 72
336 72
335 72
334 72
333 72
332 73
331 73
330 73
329 73
328 74
327 74
326 74
325 75
324 75
323 75
322 76
321 76
320 76
319 76
318 77
317 77
316 77
315 77
314 78
313 78
312 78
311 78
310 78
309 78
308 79
307 79
306 79
305 79
304 80
303 80
302 81
301 81
300 81
299 81
298 81
297 81
296 82
295 82
294 82
293 82
292 83
291 83
290 83
289 83
288 84
287 84
286 84
285 84
284 85
283 85
282 85
281 85
280 86
279 86
278 86
277 87
276 87
275 87
274 87
273 88
272 88
271 88
270 88
269 89
268 89
267 89
266 90
265 90
264 90
263 91
262 91
261 92
260 92
259 92
258 92
257 92
256 93
255 93
254 93
253 94
252 94
251 94
250 95
249 95
248 96
247 96
246 96
245 97
244 97
243 97
242 97
241 98
240 98
239 99
238 99
237 100
236 100
235 101
234 101
233 102
232 102
231 102
230 103
229 103
228 104
227 104
226 104
225 104
224 105
223 105
222 106
221 106
220 106
219 106
218 107
217 107
216 108
215 108
214 108
213 109
212 109
211 109
210 110
209 110
208 110
207 111
206 111
205 112
204 112
203 113
202 113
201 114
200 114
199 115
198 115
197 116
196 116
195 117
194 117
193 118
192 118
191 119
190 119
189 120
188 120
187 121
186 121
185 121
184 122
183 122
182 123
181 124
180 124
179 125
178 125
177 125
176 126
175 126
174 126
173 127
172 127
171 128
170 128
169 129
168 129
167 130
166 130
165 131
164 132
163 132
162 133
161 133
160 133
159 134
158 135
157 136
156 136
155 137
154 137
153 138
152 138
151 139
150 140
149 140
148 141
147 142
146 142
145 143
144 144
143 144
142 144
141 145
140 146
139 146
138 147
137 148
136 148
135 149
134 150
133 150
132 151
131 152
130 152
129 153
128 154
127 155
126 156
125 157
124 158
123 158
122 159
121 160
120 161
119 162
118 163
117 164
117 165
116 166
115 167
114 168
113 169
112 169
111 170
110 171
110 172
109 173
108 173
108 174
107 175
106 176
105 176
104 177
103 178
102 179
101 180
101 181
100 182
99 182
98 183
97 184
96 185
95 186
94 187
93 188
93 189
92 190
91 191
90 192
89 193
88 194
87 195
86 196
85 197
84 198
83 199
82 199
81 200
80 201
79 202
78 203
77 204
77 205
77 206
77 207
77 208
78 209
79 209
80 210
81 211
81 212
82 212
83 213
84 213
85 214
86 215
87 215
88 216
89 216
90 217
91 218
92 218
93 219
94 220
95 221
96 221
97 222
97 223
98 224
99 224
100 225
101 226
102 227
103 227
104 228
105 229
106 229
107 230
108 231
109 231
110 232
111 233
112 234
113 234
114 235
115 235
116 236
117 237
118 237
119 238
120 239
121 239
122 240
123 241
124 241
125 242
126 243
127 243
128 244
129 244
130 245
131 246
132 247
133 247
134 248
135 249
136 249
137 250
138 250
139 250
140 251
141 251
142 251
143 252
144 252
145 252
146 252
147 253
148 253
149 254
150 254
151 255
152 255
153 256
154 256
155 256
156 257
157 257
158 258
159 258
160 258
161 259
162 259
163 260
164 260
165 260
166 261
167 261
168 261
169 262
170 262
171 262
172 263
173 263
174 264
175 264
176 265
177 265
178 266
179 267
180 267
181 268
182 269
183 269
184 270
185 271
186 271
187 272
188 272
189 272
190 272
191 273
192 273
193 273
194 274
195 274
196 274
197 275
198 275
199 275
200 276
201 276
202 276
203 276
204 276
205 277
206 277
207 277
208 277
209 277
210 277
211 278
212 278
213 278
214 278
215 279
216 279
217 279
218 279
219 280
220 280
221 280
222 280
223 280
224 280
225 281
226 281
227 281
228 281
229 281
230 281
231 282
232 282
233 282
234 282
235 283
236 283
237 283
238 283
239 283
240 283
241 283
242 283
243 283
244 284
245 284
246 284
247 284
248 284
249 285
250 285
251 285
252 286
253 286
254 286
255 287
256 287
257 287
258 288
259 288
260 288
261 288
262 289
263 289
264 289
265 289
266 289
267 289
268 290
269 290
270 290
271 290
272 290
273 290
274 290
275 290
276 290
277 290
278 290
279 290
280 290
281 290
282 290
283 290
284 290
285 290
286 291
287 291
288 291
289 291
290 291
291 291
292 291
293 291
294 291
295 292
296 292
297 292
298 292
299 292
300 292
301 293
302 293
303 293
304 294
305 294
306 294
307 294
308 294
309 294
310 294
311 295
312 295
313 295
314 295
315 295
316 295
317 296
318 296
319 296
320 296
321 296
322 296
323 296
324 296
325 297
326 297
327 297
328 297
329 297
330 297
331 297
332 297
333 297
334 297
335 297
336 297
337 297
338 297
339 297
340 297
341 297
342 297
343 297
344 297
345 297
346 297
347 297
348 297
349 297
350 297
351 297
352 297
353 298
354 298
355 298
356 298
357 297
358 297
359 297
360 297
361 298
362 298
363 298
364 298
365 298
366 298
367 298
368 298
369 298
370 298
371 298
372 298
373 298
374 298
375 298
376 298
377 298
378 298
379 298
380 298
381 299
382 299
383 299
384 299
385 299
386 298
387 298
388 298
389 298
390 298
391 297
392 297
393 297
394 297
395 296
396 296
397 296
398 296
399 296
400 296
401 296
402 296
403 295
404 296
405 296
406 295
407 296
408 296
409 296
410 296
411 296
412 296
413 296
414 296
415 296
416 296
417 296
418 296
419 296
420 296
421 296
422 296
423 296
424 296
425 296
426 296
427 295
428 295
429 295
430 295
431 294
432 294
433 293
434 293
435 293
436 292
437 292
438 292
439 291
440 291
441 290
442 290
443 290
444 289
445 289
446 289
447 288
448 288
449 288
450 287
451 287
452 287
453 286
454 286
455 285
456 285
457 285
458 284
459 284
460 284
461 283
462 283
463 282
464 282
465 281
466 281
467 280
468 280
469 279
470 279
471 278
472 278
473 277
474 277
475 277
476 276
477 276
478 276
479 275
480 275
481 274
482 274
483 273
484 273
485 272
486 272
487 272
488 271
489 271
490 271
491 270
492 270
493 270
494 269
495 269
496 269
497 268
498 268
499 267
500 267
501 267
502 266
503 266
504 265
505 265
506 264
507 264
508 263
509 263
510 262
511 262
512 261
513 261
514 260
515 260
516 259
517 259
518 259
519 258
520 258
521 257
522 257
523 256
524 255
525 255
526 254
527 254
528 253
529 252
530 252
531 252
532 251
533 251
534 251
535 250
536 250
537 250
538 249
539 249
540 249
541 248
542 248
543 248
544 248
545 247
546 247
547 247
548 246
549 246
550 245
551 245
552 244
553 244
554 243
555 243
556 242
557 241
558 241
559 240
560 240
561 239
562 238
563 238
564 237
565 237
566 236
567 235
568 235
569 234
570 234
571 233
572 232
573 232
574 231
575 231
576 230
577 230
578 229
579 229
580 228
581 228
582 227
583 227
584 226
585 226
586 225
587 225
588 224
589 223
590 223
591 222
592 222
593 221
594 220
595 219
596 219
597 218
598 217
599 216
600 216
601 215
602 214
603 213
604 212
605 212
606 211
607 210
608 209
609 208
610 208
611 207
612 206
613 205
614 205
615 204
616 203
617 202
618 202
619 201
620 200
621 200
622 199
623 198
624 197
625 197
626 196
627 195
628 195
629 194
630 193
631 192
632 191
633 191
634 190
635 189
636 188
637 188
638 187
639 186
640 186
641 185
642 184
643 183
644 182
645 182
646 181
647 180
648 180
649 179
650 178
651 177
652 176
653 176
654 175
655 174
656 174
657 173
658 172
659 171
660 171
661 171
662 170
663 170
664 170
665 170
666 169
667 169
668 169
669 169
670 168
671 168
672 168
673 168
674 168
675 168
676 167
677 167
678 167
679 167
680 167
681 167
682 167
683 166
684 166
685 166
686 166
687 166
688 166
689 166
690 166
691 166
692 165
693 165
694 165
695 165
696 165
697 165
698 165
699 165
700 164
701 164
702 163
703 163
704 162
704 161
704 160
704 159
704 158
704 157
704 156
704 155
704 154
704 153
704 152
703 151
702 151
701 151
700 151
699 152
698 152
697 152
696 152
695 152
694 152
693 152
692 152
691 152
690 152
689 152
688 152
687 153
686 153
685 153
684 153
683 153
682 153
681 153
680 153
679 153
678 154
677 154
676 154
675 154
674 154
673 154
672 155
671 155
670 155
669 155
668 155
667 155
666 155
665 155
664 155
663 155
662 156
661 156
660 156
659 156
658 156
657 156
656 156
655 155
654 155
653 154
652 153
651 153
650 152
649 151
648 151
647 150
646 149
645 149
644 148
643 147
642 146
641 145
640 145
639 144
638 143
637 142
636 142
635 141
634 140
633 140
632 139
631 138
630 137
629 136
628 135
627 134
626 133
625 132
624 131
623 130
622 129
621 129
620 128
620 127
619 126
618 125
617 124
616 123
615 122
614 121
613 120
612 119
611 118
610 118
609 117
608 116
607 115
606 114
605 114
604 113
603 112
602 112
601 111
600 110
599 109
598 109
597 108
596 107
595 106
594 106
593 105
592 105
591 104
590 103
589 102
588 102
587 101
586 100
585 100
584 99
583 99
582 98
581 97
580 97
579 96
578 95
577 95
576 94
575 94
574 93
573 92
572 92
571 92
570 91
569 91
568 90
567 90
566 89
565 89
564 89
563 88
562 88
561 87
560 87
559 87
558 86
557 86
556 85
555 85
554 84
553 84
552 84
551 83
550 83
549 83
548 82
547 82
546 82
545 81
544 81
543 81
542 80
541 80
540 80
539 79
538 79
537 79
536 78
535 78
534 78
533 78
532 77
531 77
530 77
529 76
528 76
527 75
526 75
525 75
524 75
523 74
522 74
521 74
520 74
519 73
518 73
517 73
516 72
515 72
514 72
513 72
512 71
511 71
510 71
509 71
508 71
507 71
506 70
505 70
504 70
503 70
502 70
501 69
500 69
499 69
498 68
497 68
496 68
495 68
494 68
493 68
492 68
491 68
490 68
489 68
488 68
487 68
486 68
485 68
484 67
483 67
482 67
481 66
480 66
479 66
478 66
477 65
476 65
475 65
474 65
473 65
472 65
471 65
470 65
469 65
468 65
467 65
466 64
465 64
464 64
463 64
462 64
461 64
460 64
459 64
458 64
457 64
456 64
455 64
454 64
453 64
452 64
451 65
450 65
449 65
448 64
447 64
446 64
445 64
444 64
443 64
442 64
441 63
440 63
439 63
438 63
437 63
436 63
435 63
434 63
433 62
432 62
431 62
430 62
429 62
428 61
427 61
426 61
425 61
424 61
423 61
422 60
421 60
420 60
419 60
418 60
417 60
416 60
415 60
414 60
413 60
412 60
411 60
410 60
409 60
