438 63
437 64
436 64
435 64
434 64
433 64
432 65
431 65
430 66
429 67
429 68
428 69
427 70
427 71
426 72
425 73
424 74
424 75
423 76
422 77
422 78
421 79
421 80
420 81
420 82
419 83
419 84
419 85
418 86
418 87
418 88
417 89
417 90
417 91
417 92
417 93
416 94
416 95
416 96
416 97
415 98
415 99
415 100
414 101
414 102
414 103
414 104
414 105
413 106
413 107
413 108
413 109
413 110
413 111
413 112
413 113
413 114
413 115
413 116
413 117
413 118
413 119
413 120
414 121
414 122
414 123
414 124
414 125
414 126
414 127
415 128
415 129
415 130
415 131
415 132
416 133
416 134
416 135
416 136
416 137
416 138
417 139
417 140
417 141
417 142
418 143
418 144
418 145
419 146
419 147
420 148
420 149
421 150
421 151
422 152
422 153
422 154
423 155
423 156
424 157
424 158
425 159
425 160
426 161
426 162
427 163
427 164
428 165
429 166
430 167
431 168
431 169
432 170
433 171
434 172
435 173
435 174
436 175
436 176
437 177
438 178
439 179
440 180
440 181
441 182
442 183
443 184
444 185
445 186
446 186
447 187
448 188
449 188
450 189
451 190
452 191
453 191
454 192
455 192
456 192
457 193
458 193
459 194
460 194
461 194
462 195
463 195
464 195
465 196
466 196
467 196
468 196
469 197
470 197
471 197
472 197
473 197
474 197
475 197
476 197
477 197
478 197
479 197
480 197
481 197
482 197
483 197
484 197
485 197
486 197
487 197
488 197
489 197
490 198
491 199
492 200
492 201
492 202
492 203
492 204
492 205
492 206
492 207
492 208
492 209
492 210
491 211
490 212
489 212
488 212
487 212
486 212
485 212
484 212
483 213
482 213
481 213
480 213
479 213
478 213
477 213
476 213
475 213
474 213
473 213
472 213
471 213
470 213
469 213
468 213
467 214
466 214
465 214
464 214
463 214
462 214
461 214
460 214
459 214
458 214
457 214
456 214
455 214
454 215
453 215
452 215
451 215
450 215
449 215
448 215
447 215
446 215
445 215
444 215
443 215
442 215
441 215
440 216
439 216
438 216
437 216
436 216
435 216
434 216
433 216
432 217
431 217
430 217
429 217
428 217
427 217
426 217
425 217
424 217
423 217
422 217
421 217
420 217
419 217
418 217
417 217
416 218
415 218
414 217
413 217
412 216
411 215
411 214
411 213
411 212
411 211
411 210
411 209
411 208
411 207
411 206
410 205
410 204
411 203
411 202
411 201
411 200
411 199
411 198
412 197
412 196
412 195
412 194
412 193
413 192
413 191
413 190
413 189
413 188
413 187
413 186
413 185
413 184
413 183
413 182
414 181
414 180
414 179
414 178
414 177
414 176
414 175
414 174
413 173
413 172
413 171
413 170
413 169
413 168
413 167
412 166
412 165
412 164
412 163
411 162
411 161
411 160
411 159
410 158
410 157
410 156
409 155
409 154
408 153
408 152
407 151
407 150
406 149
406 148
405 147
404 146
403 145
403 144
402 143
401 142
400 141
400 140
399 139
399 138
398 137
397 136
396 135
396 134
395 133
394 132
393 131
392 130
392 129
391 128
390 128
389 127
389 126
388 125
387 124
386 123
385 123
384 122
383 121
382 121
381 120
380 119
379 118
378 117
377 116
376 115
375 114
374 113
373 113
372 112
371 111
370 110
369 109
368 108
367 107
366 106
365 105
364 105
363 104
362 103
361 103
360 102
359 101
358 101
357 100
356 99
355 99
354 98
353 98
352 97
351 97
350 96
349 96
348 95
347 95
346 95
345 94
344 94
343 94
342 94
341 93
340 93
339 93
338 93
337 92
336 92
335 91
334 91
333 90
332 90
331 90
330 90
329 89
328 89
327 88
326 88
325 88
324 87
323 87
322 86
321 86
320 86
319 85
318 85
317 85
316 84
315 84
314 84
313 84
312 84
311 83
310 84
309 84
308 84
307 84
306 84
305 85
304 85
303 85
302 86
301 86
300 86
299 87
299 88
298 89
297 89
297 90
296 91
296 92
296 93
295 94
295 95
295 96
294 97
294 98
294 99
294 100
294 101
294 102
294 103
294 104
294 105
294 106
294 107
294 108
294 109
295 110
295 111
295 112
295 113
295 114
295 115
296 116
296 117
296 118
296 119
296 120
297 121
297 122
297 123
297 124
297 125
297 126
298 127
298 128
298 129
298 130
297 131
296 130
295 129
294 128
293 127
292 126
292 125
291 125
290 124
289 123
289 122
288 121
287 120
286 119
285 118
284 117
283 116
282 115
281 114
280 113
279 112
278 112
277 111
276 110
275 109
274 109
273 108
272 107
271 107
270 106
269 106
268 105
267 104
266 104
265 103
264 102
263 101
262 101
261 100
260 99
259 99
258 98
257 97
256 97
255 96
254 96
253 95
252 95
251 94
250 94
249 93
248 93
247 92
246 92
245 91
244 91
243 90
242 90
241 90
240 89
239 89
238 89
237 89
236 88
235 88
234 88
233 88
232 88
231 87
230 87
229 87
228 87
227 86
226 86
225 86
224 86
223 86
222 86
221 86
220 86
219 86
218 86
217 86
216 86
215 86
214 86
213 86
212 87
211 87
210 87
209 87
208 87
207 88
206 88
205 89
204 89
203 90
202 90
201 91
200 92
200 93
199 94
198 95
197 96
197 97
196 98
196 99
196 100
195 101
195 102
195 103
195 104
195 105
196 106
196 107
196 108
196 109
196 110
196 111
196 112
196 113
196 114
196 115
197 116
197 117
197 118
197 119
197 120
197 121
197 122
197 123
198 124
198 125
198 126
198 127
199 128
199 129
199 130
200 131
200 132
201 133
201 134
201 135
202 136
202 137
203 138
203 139
204 140
204 141
205 142
205 143
206 144
206 145
207 146
207 147
208 148
209 149
209 150
208 151
207 150
206 149
205 149
204 148
203 147
202 146
201 145
200 145
199 144
198 144
197 143
196 143
195 142
194 142
193 141
192 140
191 140
190 140
189 139
188 139
187 138
186 138
185 137
184 137
183 136
182 136
181 135
180 135
179 134
178 134
177 133
176 133
175 133
174 133
173 132
172 132
171 132
170 132
169 132
168 131
167 131
166 131
165 131
164 130
163 130
162 130
161 130
160 130
159 130
158 130
157 130
156 130
155 130
154 130
153 129
152 129
151 129
150 129
149 129
148 129
147 129
146 129
145 129
144 130
143 130
142 130
141 130
140 130
139 130
138 131
137 131
136 131
135 130
134 130
133 129
132 129
131 128
130 128
129 127
128 127
127 127
126 126
125 126
124 126
123 125
122 125
121 125
120 124
119 124
118 123
117 123
116 122
115 122
114 122
113 121
112 121
111 121
110 121
109 121
108 121
107 121
106 121
105 121
104 121
103 121
102 121
101 122
100 122
99 122
98 123
97 123
96 123
95 124
94 125
93 125
92 126
91 127
91 128
90 129
89 130
89 131
89 132
88 133
88 134
88 135
88 136
88 137
88 138
88 139
88 140
87 141
87 142
87 143
87 144
87 145
87 146
87 147
87 148
87 149
87 150
87 151
87 152
87 153
87 154
87 155
88 156
88 157
88 158
88 159
89 160
89 161
90 162
90 163
91 164
91 165
91 166
92 167
92 168
93 169
94 170
94 171
95 172
95 173
96 174
96 175
96 176
97 177
97 178
98 179
98 180
99 181
100 182
100 183
101 184
101 185
102 186
103 187
103 188
104 189
105 190
106 191
106 192
107 193
107 194
106 195
105 195
104 194
103 193
102 193
101 193
100 193
99 193
98 192
97 192
96 192
95 192
94 192
93 192
92 192
91 192
90 192
89 193
88 193
87 193
86 193
85 194
84 194
83 194
82 195
81 195
80 196
79 196
78 196
77 196
76 196
75 196
74 196
73 196
72 196
71 196
70 197
69 197
68 197
67 197
66 198
65 198
64 198
63 198
62 199
61 199
60 199
59 200
58 201
57 201
56 202
55 203
54 203
53 204
53 205
52 206
52 207
52 208
51 209
51 210
51 211
50 212
49 213
49 214
49 215
49 216
50 217
49 218
49 219
48 220
48 221
48 222
48 223
48 224
48 225
48 226
49 227
49 228
49 229
50 230
50 231
51 232
52 233
53 234
53 235
54 236
54 237
55 238
55 239
56 240
57 241
58 242
59 243
60 244
61 245
62 246
63 247
64 248
65 249
66 250
67 251
68 252
69 252
70 253
71 254
72 254
73 255
74 256
75 257
76 257
77 258
78 259
79 259
80 260
81 260
82 260
83 261
84 261
85 262
86 262
87 262
88 262
89 262
90 262
91 262
92 262
93 262
94 262
95 262
96 263
97 263
98 263
99 262
100 262
101 262
102 262
103 263
102 264
101 265
100 266
100 267
99 268
98 268
97 269
96 270
96 271
95 272
94 272
93 273
92 274
91 275
90 276
89 277
88 278
87 279
86 280
86 281
85 282
84 283
83 284
83 285
82 286
82 287
81 288
81 289
81 290
81 291
80 292
80 293
80 294
80 295
80 296
80 297
80 298
80 299
80 300
79 301
79 302
79 303
78 304
78 305
78 306
78 307
78 308
79 309
79 310
80 311
80 312
81 313
82 314
82 315
82 316
83 317
83 318
84 319
85 320
86 321
87 322
88 323
89 323
90 324
91 324
92 325
93 325
94 326
95 326
96 326
97 326
98 326
99 327
100 327
101 327
102 327
103 327
104 328
105 328
106 328
107 328
108 328
109 328
110 327
111 327
112 327
113 327
114 327
115 327
116 326
117 326
118 326
119 325
120 325
121 325
122 325
123 324
124 324
125 323
126 323
127 323
128 322
129 322
130 321
131 321
132 320
133 320
134 320
135 320
136 321
137 322
138 322
139 323
140 323
141 323
142 324
143 324
144 325
145 325
146 325
147 325
148 326
149 326
150 326
151 326
152 326
153 327
154 327
155 327
156 327
157 327
158 327
159 327
160 327
161 327
162 327
163 327
164 327
165 327
166 326
167 326
168 326
169 326
170 326
171 325
172 325
173 325
174 325
175 324
176 324
177 323
178 323
179 323
180 322
181 322
182 322
183 322
184 322
185 322
186 323
187 324
187 325
188 326
189 327
189 328
190 329
190 330
191 331
192 332
193 332
194 333
195 334
196 334
197 335
198 335
199 335
200 336
201 336
202 336
203 337
204 337
205 337
206 337
207 337
208 337
209 338
210 338
211 338
212 338
213 338
214 338
215 338
216 338
217 338
218 338
219 338
220 338
221 338
222 338
223 338
224 338
225 338
226 338
227 337
228 337
229 337
230 337
231 337
232 337
233 337
234 336
235 336
236 336
237 336
238 336
239 336
240 336
241 336
242 335
243 335
244 335
245 334
246 334
247 334
248 333
249 333
250 333
251 332
252 332
253 332
254 331
255 331
256 330
257 330
258 330
259 329
260 329
261 328
262 327
263 327
264 326
265 325
266 325
267 324
268 323
269 323
270 322
271 322
272 321
273 320
274 320
275 319
276 319
277 318
278 317
279 317
280 316
281 316
282 315
283 315
284 316
284 317
283 318
283 319
283 320
283 321
283 322
283 323
282 324
282 325
282 326
282 327
282 328
282 329
282 330
282 331
282 332
282 333
282 334
282 335
282 336
282 337
283 338
284 339
284 340
285 341
286 342
287 343
288 344
289 345
290 345
291 346
292 346
293 346
294 347
295 347
296 347
297 347
298 348
299 348
300 348
301 348
302 348
303 349
304 349
305 349
306 349
307 349
308 349
309 349
310 349
311 349
312 349
313 349
314 349
315 349
316 349
317 349
318 349
319 349
320 349
321 349
322 349
323 349
324 349
325 349
326 349
327 349
328 349
329 348
330 348
331 348
332 348
333 348
334 347
335 347
336 346
337 346
338 345
339 345
340 344
341 344
342 344
343 343
344 343
345 343
346 342
347 342
348 341
349 341
350 340
351 340
352 339
353 339
354 338
355 338
356 337
357 337
358 336
359 336
360 335
361 334
362 334
363 333
364 332
365 332
366 331
367 331
368 330
369 329
370 328
371 328
372 327
373 326
374 326
375 325
376 324
377 323
378 323
378 322
379 321
380 321
381 320
382 319
383 318
384 317
385 316
386 315
387 314
388 313
389 312
389 311
390 310
391 309
392 308
393 307
393 306
394 305
395 304
396 303
397 302
398 301
398 300
399 299
400 298
401 297
402 296
402 295
403 294
404 293
404 292
405 291
405 290
406 289
407 288
407 287
408 286
408 285
409 284
410 283
410 282
410 281
411 280
411 279
411 278
412 277
412 276
412 275
413 274
413 273
413 272
413 271
413 270
414 269
414 268
414 267
414 266
414 265
414 264
414 263
414 262
414 261
414 260
414 259
414 258
414 257
414 256
413 255
413 254
413 253
413 252
412 251
412 250
412 249
411 248
411 247
411 246
411 245
410 244
410 243
410 242
410 241
409 240
409 239
409 238
409 237
409 236
409 235
409 234
409 233
410 232
410 231
410 230
410 229
410 228
410 227
410 226
410 225
410 224
411 223
412 222
413 221
414 221
415 221
416 221
417 221
418 221
419 221
420 221
421 220
422 220
423 220
424 220
425 220
426 220
427 220
428 220
429 220
430 219
431 219
432 219
433 219
434 219
435 219
436 219
437 219
438 218
439 218
440 218
441 218
442 218
443 218
444 218
445 218
446 218
447 218
448 218
449 218
450 217
451 217
452 217
453 217
454 217
455 217
456 217
457 217
458 217
459 217
460 217
461 217
462 217
463 216
464 216
465 216
466 216
467 216
468 216
469 216
470 216
471 216
472 216
473 216
474 216
475 216
476 216
477 216
478 216
479 215
480 215
481 215
482 215
483 215
484 215
485 215
486 215
487 215
488 215
489 215
490 215
491 216
492 217
492 218
492 219
492 220
492 221
492 222
492 223
492 224
491 225
491 226
490 227
489 228
488 228
487 228
486 228
485 228
484 228
483 228
482 228
481 228
480 228
479 228
478 228
477 228
476 229
475 229
474 229
473 229
472 229
471 229
470 229
469 230
468 230
467 230
466 230
465 231
464 231
463 231
462 232
461 232
460 233
459 233
458 234
457 234
456 235
455 235
454 236
453 236
452 237
451 238
450 238
450 239
449 240
448 241
447 241
446 242
445 243
444 243
443 244
442 245
441 246
440 247
439 248
438 249
438 250
437 251
436 252
435 253
435 254
434 255
433 256
433 257
432 258
432 259
431 260
431 261
430 262
429 263
429 264
428 265
428 266
427 267
427 268
426 269
426 270
425 271
425 272
424 273
423 274
423 275
422 276
421 277
421 278
420 279
419 280
419 281
418 282
418 283
417 284
417 285
416 286
416 287
415 288
415 289
414 290
414 291
414 292
413 293
413 294
412 295
412 296
412 297
411 298
411 299
411 300
411 301
410 302
410 303
410 304
410 305
410 306
410 307
409 308
409 309
409 310
409 311
409 312
408 313
408 314
408 315
408 316
408 317
408 318
408 319
408 320
408 321
408 322
408 323
408 324
408 325
408 326
408 327
408 328
408 329
409 330
409 331
409 332
409 333
409 334
409 335
409 336
409 337
410 338
410 339
410 340
411 341
411 342
411 343
412 344
412 345
413 346
413 347
414 348
415 349
415 350
416 351
417 352
417 353
418 354
419 354
420 355
421 356
422 356
423 357
424 357
425 357
426 357
427 356
428 356
429 356
430 355
431 355
432 354
433 353
434 352
435 352
436 351
436 350
437 349
438 348
439 347
440 347
441 346
442 346
443 345
444 344
445 343
446 343
447 342
448 341
449 340
450 339
450 338
451 337
452 336
453 336
453 335
454 334
455 334
456 333
457 332
458 331
459 330
460 329
460 328
461 327
462 326
463 325
463 324
464 323
465 322
466 321
467 320
468 319
469 318
470 317
471 316
472 315
473 314
474 313
475 312
476 311
477 310
478 309
479 308
480 307
480 306
481 305
482 304
483 303
483 302
484 301
485 300
486 299
486 298
487 297
488 296
489 295
489 294
490 293
490 292
491 291
491 290
492 289
493 288
493 287
494 286
494 285
495 284
495 283
496 282
496 281
496 280
497 279
497 278
497 277
498 276
498 275
499 274
499 273
499 272
500 271
500 270
500 269
500 268
500 267
500 266
500 265
500 264
500 263
500 262
501 261
501 260
501 259
502 258
502 257
502 256
502 255
502 254
502 253
502 252
502 251
502 250
502 249
502 248
501 247
501 246
501 245
501 244
501 243
501 242
500 241
500 240
500 239
499 238
499 237
499 236
498 235
498 234
497 233
497 232
497 231
496 230
496 229
496 228
496 227
496 226
496 225
497 224
497 223
497 222
497 221
497 220
497 219
497 218
497 217
498 216
499 215
500 215
501 215
502 215
503 215
504 215
505 215
506 215
507 215
508 215
509 215
510 215
511 215
512 215
513 215
514 215
515 215
516 215
517 215
518 215
519 215
520 215
521 215
522 215
523 215
524 215
525 215
526 215
527 215
528 215
529 215
530 215
531 215
532 215
533 215
534 215
535 215
536 215
537 215
538 215
539 215
540 215
541 215
542 215
543 215
544 215
545 215
546 215
547 215
548 215
549 215
550 215
551 215
552 215
553 215
554 215
555 215
556 215
557 215
558 215
559 215
560 215
561 215
562 215
563 215
564 215
565 216
566 216
567 217
568 218
568 219
568 220
568 221
568 222
568 223
568 224
567 225
567 226
566 227
565 227
564 227
563 227
562 227
561 227
560 227
559 227
558 227
557 227
556 227
555 227
554 227
553 228
552 228
551 228
550 228
549 228
548 228
547 228
546 229
545 229
544 229
543 229
542 229
541 230
540 230
539 230
538 231
537 231
536 232
535 232
534 233
533 234
532 234
531 235
530 236
529 237
528 238
527 239
526 240
525 241
524 242
523 243
523 244
522 245
522 246
521 247
521 248
520 249
519 250
519 251
518 252
518 253
517 254
517 255
516 256
516 257
516 258
515 259
515 260
514 261
514 262
513 263
513 264
512 265
512 266
511 267
511 268
510 269
510 270
509 271
509 272
508 273
508 274
507 275
507 276
506 277
506 278
505 279
505 280
504 281
504 282
503 283
503 284
503 285
502 286
502 287
502 288
501 289
501 290
501 291
500 292
500 293
500 294
500 295
500 296
499 297
499 298
499 299
499 300
499 301
499 302
499 303
499 304
499 305
499 306
499 307
499 308
500 309
500 310
500 311
500 312
500 313
500 314
500 315
501 316
501 317
501 318
501 319
501 320
502 321
502 322
503 323
503 324
503 325
504 326
504 327
505 328
505 329
506 330
506 331
507 332
508 333
508 334
509 335
509 336
510 337
511 338
512 339
513 340
514 340
515 340
516 340
517 341
518 340
519 340
520 340
521 340
522 339
523 338
524 337
525 337
526 336
527 335
528 334
529 333
530 332
531 331
531 330
532 329
533 328
534 327
535 326
536 325
537 324
538 323
539 322
540 321
540 320
541 319
542 318
543 317
544 316
545 315
546 314
546 313
547 312
548 311
549 310
549 309
550 308
550 307
551 306
552 305
553 304
554 303
555 302
555 301
556 300
557 299
558 298
559 297
560 296
560 295
561 294
562 293
563 292
564 291
565 290
566 289
566 288
567 287
568 286
569 285
570 284
570 283
571 282
572 281
572 280
573 279
573 278
574 277
574 276
574 275
575 274
575 273
576 272
576 271
576 270
576 269
576 268
577 267
577 266
577 265
577 264
577 263
577 262
578 261
578 260
578 259
578 258
578 257
578 256
578 255
578 254
578 253
578 252
578 251
578 250
578 249
578 248
577 247
577 246
577 245
577 244
576 243
576 242
576 241
575 240
575 239
575 238
574 237
574 236
574 235
573 234
573 233
573 232
573 231
573 230
573 229
573 228
572 227
572 226
572 225
573 224
573 223
573 222
573 221
573 220
573 219
573 218
574 217
575 216
576 216
577 216
578 216
579 216
580 216
581 216
582 216
583 216
584 216
585 216
586 217
587 217
588 217
589 217
590 217
591 217
592 217
593 217
594 217
595 217
596 217
597 217
598 217
599 218
600 218
601 218
602 218
603 218
604 218
605 218
606 218
607 218
608 218
609 219
610 219
611 219
612 219
613 219
614 219
615 219
616 219
617 219
618 220
619 220
620 220
621 220
622 220
623 220
624 220
625 220
626 220
627 220
628 221
629 222
629 223
630 224
630 225
630 226
630 227
630 228
631 229
631 230
630 231
630 232
629 233
628 234
627 234
626 235
625 235
624 236
623 236
622 237
621 237
620 238
619 239
618 240
617 240
616 241
615 242
614 243
613 244
612 245
611 246
610 247
609 248
609 249
608 250
608 251
607 252
607 253
607 254
606 255
606 256
606 257
606 258
606 259
605 260
605 261
605 262
605 263
605 264
605 265
605 266
605 267
605 268
605 269
605 270
605 271
605 272
605 273
605 274
605 275
606 276
606 277
606 278
607 279
607 280
607 281
608 282
608 283
609 284
609 285
609 286
610 287
610 288
611 289
611 290
612 291
612 292
612 293
613 294
613 295
614 296
614 297
615 298
615 299
616 300
616 301
617 302
617 303
618 304
619 305
619 306
620 307
621 308
621 309
622 310
623 311
624 312
625 313
625 314
626 315
627 316
628 317
629 318
630 319
631 320
632 320
633 321
634 322
635 323
636 323
637 324
638 324
639 325
640 325
641 326
642 326
643 326
644 327
645 327
646 327
647 328
648 328
649 328
650 328
651 328
652 328
653 328
654 327
655 326
656 325
656 324
657 323
657 322
657 321
658 320
658 319
658 318
658 317
658 316
658 315
658 314
658 313
657 312
657 311
656 310
656 309
655 308
655 307
654 306
654 305
653 304
654 303
655 302
656 301
657 300
658 299
658 298
659 297
659 296
659 295
659 294
659 293
659 292
659 291
659 290
659 289
659 288
659 287
658 286
659 285
659 284
659 283
659 282
658 281
658 280
658 279
658 278
658 277
658 276
658 275
658 274
658 273
658 272
658 271
658 270
658 269
658 268
657 267
657 266
657 265
657 264
657 263
656 262
656 261
656 260
655 259
655 258
654 257
654 256
653 255
653 254
653 253
652 252
652 251
652 250
652 249
651 248
651 247
650 246
650 245
649 244
649 243
648 242
647 241
646 240
645 239
644 238
643 237
642 236
641 235
640 234
639 233
638 232
637 231
636 230
636 229
636 228
635 227
635 226
635 225
634 224
634 223
635 222
636 221
637 222
638 222
639 222
640 222
641 222
642 222
643 222
644 223
645 223
646 223
647 223
648 223
649 223
650 224
651 224
652 224
653 224
654 224
655 224
656 224
657 225
658 225
659 225
660 225
661 225
662 225
663 226
664 226
665 226
666 226
667 227
668 227
669 227
670 227
671 227
672 227
673 227
674 228
675 228
676 228
677 228
678 228
679 229
680 229
681 229
682 229
683 230
684 230
685 230
686 230
687 230
688 230
689 231
690 231
691 231
692 231
693 231
694 232
695 232
696 232
697 232
698 233
699 233
700 233
701 234
702 234
703 234
704 234
705 234
706 234
707 235
708 235
709 235
710 235
711 236
712 236
713 236
714 236
715 237
716 237
717 237
718 237
719 237
720 238
721 238
722 238
723 238
724 239
725 239
726 239
727 240
728 240
729 240
730 240
731 241
732 241
733 241
734 242
735 243
736 244
737 244
738 245
739 246
740 246
741 247
742 247
743 247
744 247
745 248
746 248
747 248
748 248
749 248
750 248
751 248
751 247
750 246
750 245
750 244
749 243
750 242
751 242
752 243
752 244
752 245
753 246
753 247
754 248
755 247
756 247
756 246
756 245
756 244
756 243
755 242
755 241
754 241
753 242
752 243
751 242
751 241
752 240
752 239
751 239
750 239
749 239
748 239
747 238
746 238
745 237
744 237
743 237
742 236
741 236
740 236
739 236
738 236
737 236
736 236
735 236
734 236
733 236
732 236
731 235
730 235
729 235
728 235
727 234
726 234
725 234
724 234
723 233
722 233
721 233
720 233
719 233
718 232
717 232
716 232
715 232
714 232
713 231
712 231
711 231
710 231
709 230
708 230
707 230
706 230
705 229
704 229
703 229
702 229
701 229
700 228
699 228
698 228
697 228
696 227
695 227
694 227
693 227
692 227
691 226
690 226
689 226
688 226
687 225
686 225
685 225
684 225
683 225
682 224
681 224
680 224
679 224
678 224
677 223
676 223
675 223
674 223
673 223
672 223
671 223
670 223
669 223
668 223
667 222
666 222
665 222
664 222
663 222
662 221
661 221
660 221
659 221
658 221
657 221
656 220
655 220
654 220
653 220
652 220
651 220
650 220
649 219
648 219
647 219
646 219
645 219
644 218
643 218
642 218
641 218
640 218
639 218
638 218
637 218
636 217
635 217
634 217
633 217
632 217
631 216
630 216
629 216
628 216
627 216
626 216
625 216
624 215
623 215
622 214
622 213
622 212
622 211
622 210
622 209
622 208
622 207
622 206
622 205
621 204
622 203
622 202
622 201
622 200
623 199
623 198
624 197
625 196
625 195
626 194
626 193
627 192
627 191
628 190
628 189
628 188
629 187
629 186
629 185
629 184
629 183
629 182
630 181
630 180
630 179
630 178
630 177
629 176
629 175
629 174
629 173
629 172
629 171
628 170
628 169
628 168
628 167
628 166
627 165
627 164
627 163
626 162
626 161
625 160
624 159
624 158
624 157
623 156
623 155
622 154
622 153
622 152
621 151
621 150
620 149
620 148
620 147
619 146
619 145
618 144
618 143
618 142
617 141
617 140
616 139
616 138
615 137
615 136
614 135
614 134
613 133
613 132
612 131
612 130
611 129
611 128
610 127
610 126
609 125
608 124
608 123
607 122
607 121
606 120
606 119
605 118
604 117
604 116
603 115
603 114
602 113
602 112
601 111
601 110
600 109
600 108
599 107
598 106
597 105
596 105
595 104
594 104
593 104
592 104
591 105
590 105
589 106
588 106
587 107
586 108
585 108
584 109
583 110
583 111
582 112
581 113
581 114
580 115
580 116
579 117
579 118
578 119
578 120
577 121
577 122
577 123
576 124
576 125
576 126
576 127
575 128
575 129
575 130
575 131
574 132
574 133
574 134
574 135
574 136
573 137
573 138
573 139
573 140
572 141
572 142
572 143
572 144
572 145
572 146
572 147
572 148
572 149
572 150
572 151
571 152
570 151
570 150
569 149
569 148
568 147
567 146
567 145
566 144
566 143
565 142
564 141
563 140
562 139
561 138
560 137
559 136
558 135
557 134
556 134
555 133
554 132
553 132
552 131
551 130
550 129
549 128
549 127
548 126
547 125
546 125
545 124
544 123
543 122
543 121
542 120
541 119
540 118
539 118
538 117
537 116
536 115
536 114
536 113
536 112
535 111
535 110
534 109
533 108
533 107
532 106
532 105
531 104
531 103
530 102
530 101
529 100
529 99
528 98
528 97
527 96
526 95
525 94
524 94
523 94
522 93
521 93
520 93
519 93
518 93
517 93
516 94
515 94
514 95
513 96
512 97
511 97
510 98
509 99
508 100
507 101
507 102
506 103
505 104
504 105
503 106
503 107
502 108
502 109
501 110
501 111
501 112
500 113
500 114
499 115
499 116
499 117
499 118
498 119
498 120
498 121
498 122
498 123
498 124
498 125
497 126
497 127
497 128
497 129
497 130
497 131
497 132
497 133
497 134
497 135
497 136
498 137
498 138
498 139
497 140
496 139
496 138
495 137
495 136
494 135
494 134
493 133
493 132
493 131
492 130
492 129
491 128
490 127
490 126
489 125
489 124
488 123
487 122
486 121
486 120
485 119
484 118
484 117
483 116
482 115
482 114
482 113
481 112
481 111
480 110
480 109
479 108
478 107
477 106
477 105
476 104
475 103
474 102
473 101
473 100
472 99
471 98
470 97
470 96
469 95
468 94
467 93
467 92
466 91
465 90
464 89
463 88
462 87
461 86
460 85
459 84
459 83
458 82
457 81
457 80
456 79
456 78
455 77
454 76
453 75
453 74
452 73
451 72
451 71
450 71
449 70
448 69
447 68
446 67
445 66
444 66
443 65
442 65
441 64
440 64
439 64
438 63
