339 50
338 51
337 51
336 51
335 51
336 52
337 52
338 53
339 53
340 54
341 54
342 55
343 56
344 57
345 58
346 58
347 59
348 60
349 61
350 62
351 62
352 63
353 64
353 65
354 66
355 67
356 68
357 69
358 70
359 71
359 72
360 73
361 74
362 75
363 76
364 77
365 78
365 79
366 80
366 81
367 82
367 83
368 84
368 85
368 86
367 87
366 88
365 89
366 90
367 91
368 92
369 93
370 94
371 95
372 95
373 96
374 97
375 98
376 99
377 100
378 100
379 101
380 102
381 103
382 104
383 105
384 106
384 107
385 108
386 109
387 110
388 111
388 112
389 113
389 114
389 115
390 116
390 117
389 118
388 119
389 120
390 120
391 121
392 121
393 122
394 123
395 123
396 124
397 125
398 125
399 126
400 127
401 128
402 129
403 129
404 130
405 131
406 132
407 133
408 134
409 135
410 136
411 136
412 137
413 138
414 139
415 139
416 140
417 141
418 142
419 143
420 143
421 144
422 145
423 146
424 147
425 148
426 149
427 150
427 151
426 152
425 153
424 154
423 154
422 154
421 154
420 154
419 154
418 153
417 153
416 153
415 153
414 152
413 152
412 152
411 152
410 151
409 151
408 151
407 150
406 150
405 150
404 150
403 149
402 149
401 149
400 149
399 148
398 148
397 148
396 148
395 148
394 148
393 148
392 148
391 148
390 148
389 148
388 148
387 148
386 148
385 148
384 148
383 149
382 149
381 149
380 149
379 149
378 149
377 149
376 149
375 149
374 149
373 149
372 149
371 149
370 149
369 149
368 149
367 149
366 149
365 149
364 149
363 149
362 149
361 149
360 149
359 149
358 149
357 149
356 150
355 150
354 150
353 151
352 151
351 152
350 152
349 152
348 152
347 152
346 153
345 153
344 153
343 153
342 153
341 154
340 154
339 154
338 155
337 155
336 155
335 155
334 156
333 156
332 156
331 156
330 156
329 156
328 157
327 157
326 157
325 157
324 158
323 158
322 158
321 158
320 158
319 158
318 159
317 159
316 159
317 160
317 161
316 162
315 163
314 164
313 164
312 165
311 166
310 166
309 166
308 167
307 167
306 167
305 167
304 167
303 167
302 168
301 168
300 168
299 168
298 169
297 169
296 169
295 169
294 169
293 170
292 170
291 170
290 171
289 171
288 171
287 171
286 171
285 171
284 171
283 171
282 171
281 171
280 171
279 172
278 172
277 172
276 172
275 172
274 172
273 172
272 172
271 173
270 173
269 173
269 174
268 175
267 176
266 176
265 177
264 177
263 177
262 178
261 178
260 178
259 178
258 179
257 179
256 179
255 179
254 180
253 180
252 180
251 180
250 181
249 181
248 181
247 181
246 181
245 182
244 182
243 182
242 182
241 183
240 183
239 183
238 183
237 184
236 184
235 184
234 184
233 184
232 185
231 185
230 185
229 185
228 185
227 186
226 186
225 186
224 186
223 187
222 187
221 187
220 187
219 188
218 188
217 188
216 188
215 188
214 188
213 188
212 188
212 189
211 190
210 191
209 190
208 191
207 191
206 192
205 192
204 193
203 193
202 194
202 195
201 196
200 197
200 198
199 199
198 199
197 199
196 200
195 201
194 201
193 202
192 202
191 203
190 203
189 204
188 204
187 204
186 205
185 205
184 205
183 206
182 206
181 206
180 206
179 207
178 207
177 207
176 208
175 208
174 208
173 209
172 209
171 209
170 210
169 210
168 211
167 211
166 212
165 212
165 213
165 214
166 215
166 216
165 217
164 217
163 218
162 218
161 219
160 219
159 220
158 220
157 220
156 220
155 220
154 220
153 221
152 221
151 221
150 221
149 221
148 221
147 222
146 222
145 222
144 222
143 222
142 223
141 223
140 223
139 223
138 223
137 224
136 224
135 224
134 224
133 224
132 224
131 224
131 225
131 226
131 227
132 228
132 229
132 230
131 231
130 231
129 232
128 232
127 232
126 233
125 233
124 233
123 233
122 233
121 233
120 233
119 234
118 234
117 234
116 234
115 234
114 234
113 235
112 235
111 235
110 235
109 236
108 236
107 236
106 236
105 236
104 236
104 237
104 238
103 239
102 240
101 240
100 240
99 240
98 241
97 241
96 242
95 242
94 243
93 243
92 244
91 245
90 245
89 246
88 247
87 247
86 248
85 248
84 249
83 249
82 249
82 250
83 250
84 250
85 250
86 250
87 250
88 250
89 250
90 250
91 250
92 250
93 250
94 250
95 250
96 249
97 249
98 249
99 249
100 249
101 249
102 249
103 249
104 249
105 248
106 248
107 248
108 248
109 248
110 249
111 249
112 249
113 249
114 249
115 249
116 249
117 249
118 249
119 249
120 249
121 249
122 249
123 249
124 249
125 249
126 248
127 249
127 250
126 251
126 252
126 253
126 254
127 254
128 254
129 253
130 253
131 253
132 253
133 253
134 253
135 253
136 253
137 253
138 253
139 253
140 253
141 253
142 253
143 253
144 254
145 255
145 256
146 256
147 256
148 256
149 256
150 256
151 256
152 256
153 256
154 256
155 256
156 256
157 256
158 256
159 256
160 256
161 256
162 256
163 256
164 256
165 256
166 257
166 258
166 259
167 260
168 260
169 260
170 259
171 259
172 259
173 259
174 260
175 260
176 260
177 260
178 260
179 260
180 260
181 260
182 260
183 260
184 260
185 260
186 260
187 260
188 261
189 261
190 261
191 262
191 263
191 264
191 265
191 266
192 266
193 265
194 265
195 265
196 265
197 264
198 264
199 264
200 264
201 264
202 263
203 263
204 264
205 263
206 263
207 263
208 263
209 263
210 263
211 263
212 263
213 263
214 263
215 263
216 263
217 262
218 262
219 262
220 262
221 262
222 262
223 262
224 262
225 262
226 262
227 262
228 262
229 262
230 263
231 263
232 263
233 264
232 265
232 266
233 267
233 268
233 269
234 268
235 268
236 268
237 268
238 268
239 268
240 268
241 268
242 268
243 268
244 268
245 268
246 268
247 268
248 268
249 267
250 267
251 267
252 267
253 267
254 267
255 266
256 266
257 266
258 266
259 266
260 267
261 267
262 266
263 266
264 266
265 266
266 266
267 265
268 265
269 265
270 265
271 264
272 264
273 264
274 264
275 264
276 264
277 264
278 264
279 263
280 263
281 263
282 263
283 263
284 263
285 263
286 263
287 264
288 264
289 264
290 264
291 265
291 266
291 267
291 268
292 268
293 268
294 268
295 267
296 267
297 267
298 267
299 267
300 266
301 266
302 266
303 266
304 265
305 265
306 265
307 265
308 264
309 264
310 264
311 264
312 264
313 263
314 263
315 263
316 263
317 263
318 263
319 263
320 263
321 263
322 263
323 263
324 263
325 263
326 263
327 263
328 263
329 263
330 263
331 264
332 264
333 264
334 264
335 264
336 264
337 265
338 266
338 267
339 267
340 266
341 265
342 264
343 263
344 262
345 261
346 261
347 260
348 260
349 259
350 259
351 259
352 259
353 259
354 259
355 259
356 259
357 259
358 259
359 259
360 259
361 259
362 259
363 259
364 259
365 259
366 259
367 259
368 258
369 258
370 258
371 258
372 258
373 258
374 258
375 258
376 258
377 258
378 258
379 258
380 259
381 259
382 259
383 260
383 261
384 261
385 261
386 260
387 260
388 259
389 259
390 259
391 258
392 258
393 257
394 257
395 256
396 256
397 255
398 255
399 254
400 254
401 254
402 253
403 253
404 252
405 252
406 252
407 251
408 251
409 250
410 250
411 249
412 249
413 248
414 248
415 247
416 247
417 246
418 246
419 245
420 245
421 244
422 244
423 243
424 243
425 242
426 242
427 242
428 241
429 241
430 240
431 240
432 239
433 238
434 238
435 237
436 237
437 236
438 236
439 235
440 234
441 233
442 233
443 232
444 231
445 230
446 229
447 229
448 228
449 227
450 226
451 226
452 225
453 224
454 223
455 222
456 222
457 221
458 220
459 219
460 218
461 217
462 217
463 216
464 215
465 214
466 213
467 212
468 211
469 210
470 209
471 208
472 207
473 206
474 205
475 204
476 203
477 203
478 202
479 201
480 200
481 199
482 198
483 197
484 196
485 195
486 194
487 193
488 192
489 192
490 191
491 190
492 190
493 189
494 188
495 188
496 187
497 187
498 186
499 186
500 185
501 185
502 185
503 184
504 184
505 183
506 183
507 183
508 182
509 182
510 182
511 182
512 181
513 181
514 181
515 181
516 180
517 180
518 180
519 180
520 179
521 179
522 179
523 179
524 179
525 178
526 178
527 178
528 178
529 178
530 178
531 177
532 177
533 177
534 177
535 176
536 176
537 176
538 176
539 176
540 176
541 176
542 176
543 176
544 176
545 176
546 176
547 176
548 176
549 177
548 178
547 179
546 180
545 180
544 181
543 181
542 181
541 182
540 182
539 182
538 183
537 183
536 183
535 184
534 184
533 184
532 185
531 185
530 185
529 186
528 186
527 186
526 187
525 187
524 187
523 187
522 188
521 188
520 189
519 189
518 189
517 189
516 190
515 190
514 190
513 191
512 191
511 192
510 192
509 193
508 193
507 194
506 194
505 194
504 195
503 196
502 196
501 197
500 197
499 198
498 199
497 199
496 200
495 201
494 202
493 203
492 203
491 204
490 205
489 206
488 207
487 207
486 208
485 209
484 209
483 210
482 211
481 212
480 213
479 214
478 214
478 215
479 216
478 217
478 218
477 219
476 220
475 221
474 222
473 223
472 224
471 225
470 226
469 227
469 228
470 229
469 230
468 231
468 232
467 233
467 234
466 235
465 236
465 237
464 238
463 239
462 240
462 241
461 242
460 243
460 244
459 245
458 246
457 247
457 248
456 249
455 250
454 251
453 252
454 252
455 253
456 254
456 255
455 256
455 257
454 258
454 259
453 260
453 261
453 262
452 263
451 264
451 265
450 266
449 267
449 268
449 269
448 270
448 271
447 272
447 273
446 274
445 275
445 276
444 277
444 278
443 279
442 280
443 281
442 282
442 283
442 284
441 285
441 286
441 287
440 288
440 289
440 290
439 291
439 292
438 293
438 294
438 295
437 296
437 297
438 297
439 297
440 298
441 298
442 299
442 300
442 301
442 302
442 303
442 304
441 305
441 306
441 307
441 308
441 309
440 310
440 311
440 312
440 313
440 314
439 315
439 316
439 317
439 318
439 319
438 320
438 321
438 322
438 323
438 324
438 325
438 326
438 327
437 328
437 329
437 330
437 331
436 332
436 333
436 334
436 335
436 336
435 337
435 338
435 339
434 340
434 341
433 342
434 342
435 342
436 342
437 343
438 343
439 344
439 345
439 346
439 347
439 348
439 349
439 350
438 351
438 352
438 353
437 354
437 355
437 356
436 357
436 358
435 359
435 360
434 361
434 362
434 363
434 364
433 365
433 366
433 367
433 368
432 369
432 370
432 371
431 372
431 373
431 374
432 374
433 375
433 376
433 377
433 378
432 379
432 380
432 381
432 382
431 383
431 384
431 385
431 386
430 387
430 388
429 389
429 390
429 391
428 392
428 393
428 394
427 395
427 396
427 397
427 398
426 399
426 400
426 401
427 400
428 400
429 399
430 398
431 397
432 396
433 395
434 394
435 393
436 392
437 391
437 390
438 389
439 388
440 387
440 386
441 385
442 384
443 383
444 382
445 381
446 380
447 379
448 378
449 377
450 378
451 378
452 377
452 376
453 375
454 374
454 373
455 372
455 371
456 370
457 369
458 368
458 367
459 366
460 365
461 364
462 363
462 362
463 361
464 360
465 359
466 358
467 357
468 356
469 355
470 356
471 357
472 358
473 357
473 356
473 355
474 354
475 353
476 352
477 351
478 350
478 349
479 348
480 347
481 346
481 345
482 344
483 343
484 342
485 341
486 340
487 339
487 338
488 337
489 336
490 335
491 335
492 334
493 333
494 332
495 331
496 332
496 333
497 334
498 334
499 333
500 332
500 331
501 330
501 329
502 328
503 327
504 326
505 325
506 325
507 324
508 323
509 322
510 321
511 320
512 320
513 319
514 318
515 317
516 316
517 315
518 315
518 314
519 313
520 312
521 311
522 310
523 309
524 308
525 307
525 306
526 305
527 304
528 303
528 302
529 301
530 300
531 299
531 298
532 297
532 296
532 295
533 294
534 293
534 292
535 291
536 290
537 289
538 288
539 289
540 289
541 288
541 287
542 286
542 285
543 284
543 283
544 282
544 281
544 280
545 279
545 278
546 277
546 276
546 275
547 274
547 273
547 272
548 271
548 270
548 269
549 268
549 267
549 266
550 265
550 264
551 263
551 262
551 261
552 260
552 259
552 258
552 257
553 256
553 255
553 254
553 253
553 252
554 251
554 250
554 249
554 248
554 247
554 246
555 245
555 244
555 243
555 242
555 241
555 240
555 239
555 238
555 237
555 236
555 235
555 234
555 233
555 232
555 231
555 230
555 229
555 228
555 227
555 226
555 225
555 224
555 223
555 222
555 221
555 220
555 219
555 218
555 217
555 216
555 215
555 214
555 213
555 212
554 211
554 210
554 209
554 208
554 207
554 206
554 205
554 204
554 203
554 202
554 201
553 200
553 199
553 198
553 197
553 196
553 195
553 194
554 193
554 192
554 191
554 190
554 189
554 188
554 187
554 186
554 185
554 184
555 183
555 182
555 181
555 180
555 179
555 178
555 177
556 176
556 175
557 174
558 173
559 172
560 171
561 172
560 171
561 170
562 170
563 171
564 171
565 171
566 171
567 170
568 170
569 170
570 170
571 170
572 169
573 169
574 169
575 169
576 168
577 168
578 168
579 167
580 167
581 167
582 167
583 167
584 167
585 166
586 166
587 166
588 166
589 166
590 166
591 166
592 166
593 165
594 165
595 165
596 165
597 165
598 165
599 164
600 164
601 163
602 163
603 164
604 163
605 163
606 163
607 163
608 163
609 162
610 162
611 162
612 162
613 162
614 161
615 161
616 161
617 161
618 161
619 160
620 160
621 160
622 160
623 160
624 160
625 160
626 159
627 159
628 159
629 159
630 158
631 158
632 158
633 158
634 158
635 158
636 157
637 157
638 157
639 157
640 156
641 156
642 156
643 156
644 156
645 155
646 155
647 155
648 155
649 154
650 154
651 154
652 154
653 154
654 154
655 154
656 153
657 153
658 153
659 152
660 152
661 152
662 152
663 152
664 152
665 152
666 151
667 151
668 151
669 151
670 151
671 151
672 151
673 150
674 150
675 150
676 150
677 150
678 150
679 150
680 150
681 149
682 149
683 149
684 149
685 148
686 148
687 148
688 148
689 147
690 147
691 147
692 147
693 147
694 147
695 146
696 146
697 147
698 146
699 145
700 145
701 145
702 145
703 144
704 144
705 145
706 145
707 144
708 144
709 144
710 144
711 144
712 144
713 144
714 143
715 143
716 143
717 143
718 143
719 142
720 142
721 142
722 142
723 142
724 141
725 141
726 141
727 141
728 141
729 140
730 140
731 140
732 140
733 140
734 140
735 139
736 139
737 139
738 139
739 139
740 139
741 139
742 139
743 139
744 139
745 139
746 139
747 139
748 139
749 139
750 139
751 139
752 139
753 139
754 138
754 137
754 136
754 135
754 134
753 133
753 132
752 131
752 130
751 129
750 129
749 129
748 129
747 130
746 130
745 131
744 132
743 132
742 133
741 133
740 134
739 134
738 135
737 135
736 135
735 135
734 136
733 136
732 136
731 136
730 137
729 137
728 137
727 137
726 137
725 138
724 138
723 138
722 138
721 139
720 139
719 139
718 140
717 140
716 140
715 140
714 140
713 141
712 141
711 141
710 141
709 141
708 142
707 142
706 142
705 142
704 142
703 142
702 143
701 143
700 143
699 143
698 143
697 143
696 144
695 144
694 144
693 145
692 145
691 145
690 145
689 145
688 145
687 145
686 145
685 145
684 146
683 146
682 146
681 146
680 147
679 147
678 147
677 147
676 147
675 147
674 147
673 148
672 148
671 148
670 148
669 149
668 149
667 149
666 149
665 149
664 150
663 150
662 150
661 150
660 150
659 150
658 150
657 150
656 151
655 151
654 151
653 151
652 152
651 152
650 152
649 152
648 153
647 153
646 153
645 153
644 153
643 153
642 154
641 154
640 154
639 154
638 154
637 154
636 155
635 155
634 155
633 155
632 155
631 155
630 156
629 156
628 156
627 156
626 157
625 157
624 157
623 157
622 157
621 158
620 158
619 158
618 158
617 159
616 159
615 159
614 159
613 159
612 159
611 160
610 160
609 160
608 160
607 160
606 161
605 161
604 161
603 161
602 161
601 161
600 161
599 162
598 162
597 162
596 162
595 163
594 163
593 163
592 164
591 164
590 164
589 164
588 165
587 165
586 165
585 165
584 166
583 166
582 166
581 166
580 166
579 166
578 166
577 166
576 167
575 167
574 167
573 167
572 167
571 167
570 168
569 168
568 168
567 168
566 168
565 168
564 168
563 169
562 169
561 169
560 169
559 169
558 170
557 170
556 170
555 170
554 169
553 169
552 168
551 167
550 167
549 166
549 165
548 164
547 163
546 162
545 161
544 160
543 159
542 158
541 157
540 156
539 155
539 154
538 153
537 152
536 151
536 150
535 149
534 148
533 147
533 146
532 145
531 144
531 143
530 142
529 141
528 140
528 139
527 138
526 137
526 136
526 135
525 134
525 133
524 132
524 131
523 130
523 129
522 128
521 127
521 126
520 125
519 124
518 123
518 122
517 121
516 120
516 119
515 118
514 117
513 116
512 115
511 114
511 113
510 113
509 112
509 111
508 111
507 110
507 109
506 108
505 107
504 106
503 105
503 104
502 103
501 102
500 101
500 100
499 99
498 98
498 97
497 96
496 95
496 94
495 93
494 92
493 91
493 90
492 90
491 91
490 91
489 90
488 89
487 89
486 88
485 88
484 87
483 86
482 85
481 85
480 84
479 83
478 82
477 82
476 81
475 81
474 80
473 79
472 79
471 78
470 78
469 77
468 77
467 76
466 76
465 75
464 74
463 73
462 73
461 72
460 71
459 70
458 69
457 70
457 71
456 72
455 73
454 73
453 73
452 72
451 72
450 72
449 72
448 71
447 71
446 71
445 70
444 70
443 70
442 69
441 69
440 69
439 69
438 69
437 68
436 68
435 68
434 67
433 67
432 67
431 66
430 66
429 65
428 65
427 65
426 64
425 64
424 63
423 63
422 62
421 62
420 63
419 64
418 64
417 64
416 64
415 64
414 64
413 63
412 63
411 63
410 63
409 63
408 62
407 62
406 62
405 61
404 61
403 61
402 61
401 60
400 60
399 60
398 59
397 59
396 59
395 59
394 58
393 58
392 58
391 58
390 58
389 57
388 57
387 57
386 57
385 56
384 55
383 55
383 56
383 57
382 58
381 58
380 58
379 58
378 58
377 58
376 58
375 58
374 57
373 57
372 57
371 56
370 56
369 56
368 55
367 55
366 55
365 55
364 54
363 54
362 54
361 54
360 53
359 53
358 53
357 52
356 52
355 52
354 52
353 52
352 52
351 51
350 51
349 51
348 51
347 51
346 51
345 51
344 51
343 50
342 51
341 50
340 50
339 50
