75 388
75 389
75 390
75 391
75 392
75 393
75 394
75 395
75 396
75 397
75 398
75 399
75 400
75 401
75 402
75 403
75 404
75 405
75 406
76 407
77 408
78 409
79 410
80 411
81 412
82 413
83 414
84 414
85 414
86 414
87 415
88 415
89 416
90 416
91 417
92 417
93 418
94 419
95 420
96 421
96 422
97 423
97 424
98 425
99 426
100 427
100 428
101 429
102 430
103 431
104 432
105 433
106 433
107 434
108 435
109 435
110 436
111 436
112 437
113 438
114 438
115 439
116 439
117 440
117 441
118 442
118 443
119 444
118 445
118 446
118 447
118 448
118 449
117 450
117 451
117 452
117 453
116 454
116 455
116 456
116 457
116 458
116 459
116 460
116 461
116 462
116 463
116 464
116 465
116 466
116 467
116 468
116 469
116 470
117 471
118 472
119 473
120 474
121 475
122 476
123 476
124 477
125 478
126 478
127 479
128 479
129 479
130 480
131 480
132 480
133 481
134 481
135 481
136 481
137 481
138 482
139 482
140 482
141 482
142 482
143 482
144 482
145 482
146 482
147 482
148 482
149 482
150 482
151 482
152 482
153 482
154 482
155 482
156 482
157 482
158 482
159 482
160 481
161 481
162 481
163 481
164 481
165 481
166 480
167 480
168 480
169 479
170 479
171 479
172 479
173 479
174 479
175 479
176 479
177 479
178 479
179 479
180 479
181 479
182 479
183 478
184 478
185 478
186 478
187 478
188 478
189 478
190 478
191 478
192 478
193 477
194 477
195 477
196 476
197 476
198 475
199 475
200 475
201 474
202 474
203 474
204 474
205 474
206 474
207 474
208 474
209 474
210 474
211 474
212 474
213 474
214 475
215 475
216 476
217 477
217 478
217 479
216 480
216 481
215 482
215 483
214 484
213 485
212 486
211 487
211 488
210 489
209 490
208 490
207 491
206 491
205 492
204 492
203 493
202 493
201 494
200 494
199 494
198 495
197 495
196 495
195 496
194 496
193 496
192 496
191 496
190 497
189 497
188 498
187 498
186 498
185 499
184 499
183 500
182 500
181 500
180 501
179 502
178 503
177 504
176 505
175 506
174 507
174 508
173 509
173 510
172 511
171 512
171 513
171 514
170 515
170 516
170 517
170 518
170 519
170 520
170 521
169 522
169 523
169 524
169 525
169 526
169 527
168 528
168 529
168 530
168 531
168 532
168 533
168 534
168 535
168 536
168 537
168 538
168 539
168 540
168 541
168 542
167 543
167 544
167 545
167 546
167 547
167 548
167 549
167 550
167 551
166 552
166 553
166 554
166 555
166 556
166 557
166 558
166 559
166 560
165 561
165 562
165 563
165 564
165 565
164 566
164 567
164 568
163 569
163 570
163 571
162 572
162 573
161 574
161 575
160 576
160 577
160 578
159 579
159 580
158 581
158 582
157 583
157 584
156 585
155 586
155 587
155 588
155 589
155 590
155 591
155 592
155 593
155 594
155 595
155 596
156 597
157 598
158 599
159 599
160 600
161 600
162 600
163 600
164 600
165 601
166 601
167 601
168 602
169 602
170 602
171 603
172 603
173 603
174 604
175 604
176 604
177 604
178 604
179 604
180 604
181 604
182 604
183 604
184 604
185 604
186 604
187 604
188 604
189 604
190 604
191 604
192 604
193 604
194 604
195 604
196 604
197 604
198 604
199 604
200 604
201 604
202 604
203 603
204 603
205 603
206 603
207 603
208 602
209 602
210 601
211 601
212 601
213 600
214 601
215 601
216 602
217 603
218 604
219 605
220 605
221 605
222 605
223 605
224 605
225 605
226 605
227 605
228 605
229 605
230 605
231 605
232 605
233 605
234 605
235 604
236 604
237 604
238 604
239 603
240 603
241 603
242 602
243 602
244 601
245 601
246 600
247 600
248 600
249 599
250 599
251 599
252 599
253 599
254 598
255 598
256 598
257 597
258 596
259 595
260 595
261 594
262 593
263 592
264 592
265 591
266 590
267 589
268 588
269 587
270 586
270 585
271 584
272 583
273 582
274 581
275 580
276 579
276 578
277 577
277 576
278 575
278 574
279 573
280 572
281 571
282 570
283 571
283 572
283 573
284 574
284 575
285 576
285 577
285 578
285 579
285 580
285 581
285 582
285 583
285 584
285 585
285 586
285 587
286 588
287 588
288 589
289 589
290 590
291 590
292 590
293 590
294 590
295 590
296 590
297 590
298 590
299 590
300 589
300 588
301 587
301 586
302 585
302 584
303 583
304 582
304 581
305 580
306 579
307 578
308 577
309 576
309 575
310 574
310 573
311 572
311 571
312 570
312 569
313 568
313 567
314 566
314 565
314 564
315 563
315 562
315 561
316 560
316 559
316 558
317 557
317 556
317 555
317 554
318 553
318 552
319 551
319 550
319 549
319 548
319 547
320 546
320 545
320 544
320 543
320 542
320 541
321 540
321 539
321 538
321 537
321 536
321 535
322 534
322 533
323 532
323 531
323 530
323 529
323 528
324 527
324 526
324 525
324 524
324 523
324 522
325 521
325 520
325 519
325 518
325 517
325 516
325 515
325 514
325 513
325 512
325 511
325 510
325 509
325 508
326 507
326 506
326 505
326 504
326 503
326 502
326 501
326 500
326 499
327 498
327 497
327 496
327 495
327 494
328 493
328 492
329 491
329 490
330 489
331 488
331 487
331 486
331 485
331 484
331 483
331 482
332 481
332 480
332 479
332 478
332 477
332 476
332 475
332 474
333 473
333 472
333 471
334 470
334 469
335 468
335 467
335 466
335 465
335 464
335 463
336 462
336 461
336 460
337 459
337 458
338 457
338 456
338 455
339 454
339 453
340 452
340 451
341 450
341 449
341 448
342 447
342 446
343 445
343 444
343 443
343 442
343 441
343 440
344 439
344 438
344 437
344 436
344 435
344 434
344 433
344 432
344 431
344 430
345 429
345 428
346 427
346 426
347 425
347 424
348 423
349 422
350 421
351 420
351 419
352 418
352 417
353 416
353 415
354 414
355 414
356 413
357 413
358 412
359 412
360 412
361 412
362 412
363 412
364 412
365 412
366 412
367 411
368 411
369 411
370 410
371 410
372 409
373 408
374 408
375 407
376 406
377 405
378 404
379 403
380 402
381 401
382 400
383 399
383 398
384 397
385 396
386 395
386 394
387 393
388 392
389 391
389 390
390 389
390 388
391 387
391 386
392 385
392 384
393 383
393 382
394 381
394 380
394 379
395 378
395 377
396 376
396 375
396 374
397 373
397 372
397 371
398 370
398 369
398 368
399 367
399 366
399 365
400 364
400 363
400 362
400 361
401 360
401 359
401 358
402 357
402 356
402 355
403 354
403 353
403 352
403 351
403 350
404 349
404 348
404 347
405 346
405 345
405 344
405 343
406 342
406 341
406 340
406 339
407 338
407 337
407 336
407 335
407 334
408 333
408 332
408 331
408 330
409 329
409 328
409 327
409 326
410 325
410 324
410 323
410 322
410 321
411 320
411 319
411 318
411 317
412 316
412 315
412 314
412 313
413 312
413 311
413 310
413 309
413 308
414 307
414 306
414 305
414 304
415 303
415 302
415 301
415 300
416 299
416 298
416 297
416 296
417 295
417 294
417 293
417 292
417 291
418 290
418 289
418 288
419 287
419 286
419 285
419 284
419 283
420 282
420 281
420 280
421 279
421 278
421 277
421 276
422 275
422 274
422 273
422 272
423 271
423 270
423 269
423 268
423 267
424 266
424 265
424 264
424 263
424 262
425 261
425 260
425 259
425 258
426 257
426 256
426 255
426 254
427 253
427 252
427 251
427 250
428 249
428 248
428 247
428 246
429 245
429 244
429 243
429 242
430 241
430 240
430 239
430 238
431 237
431 236
431 235
431 234
432 233
432 232
432 231
432 230
433 229
433 228
433 227
433 226
434 225
434 224
434 223
434 222
435 221
435 220
435 219
436 218
436 217
436 216
437 215
437 214
437 213
438 212
438 211
438 210
439 209
439 208
439 207
440 206
440 205
441 204
441 203
442 202
442 201
443 200
443 199
444 198
444 197
445 196
446 195
447 194
448 193
449 192
450 192
451 191
452 191
453 190
454 190
455 189
456 189
457 188
458 188
459 187
460 187
461 187
462 187
463 187
464 187
465 187
466 187
467 187
468 187
469 187
470 187
471 187
471 186
471 185
471 184
471 183
471 182
471 181
470 180
470 179
469 178
469 177
469 176
469 175
468 174
468 173
468 172
467 172
466 172
465 172
464 172
463 172
462 172
461 172
460 173
459 173
458 173
457 174
456 174
455 175
454 175
453 175
452 176
451 176
450 177
449 177
448 178
447 179
446 180
445 181
444 181
443 182
442 183
441 184
440 185
439 186
438 187
438 188
437 189
436 190
436 191
435 192
435 193
435 194
434 195
434 196
433 197
433 198
433 199
433 200
432 201
432 202
432 203
431 204
431 205
431 206
431 207
430 208
430 209
430 210
430 211
429 212
429 213
429 214
428 215
428 216
428 217
427 218
427 219
427 220
427 221
427 222
426 223
426 224
426 225
426 226
425 227
425 228
425 229
425 230
424 231
424 232
424 233
424 234
423 235
423 236
423 237
423 238
422 239
422 240
422 241
422 242
422 243
421 244
421 245
421 246
421 247
420 248
420 249
420 250
420 251
419 252
419 253
419 254
419 255
418 256
418 257
418 258
418 259
418 260
417 261
417 262
417 263
417 264
416 265
416 266
416 267
416 268
415 269
415 270
415 271
415 272
414 273
414 274
414 275
414 276
413 277
413 278
413 279
413 280
413 281
412 282
412 283
412 284
412 285
411 286
411 287
411 288
411 289
410 290
410 291
410 292
410 293
410 294
409 295
409 296
409 297
409 298
408 299
408 300
408 301
408 302
407 303
407 304
407 305
407 306
407 307
406 308
406 309
406 310
406 311
405 312
405 313
405 314
405 315
404 316
404 317
404 318
404 319
404 320
403 321
403 322
403 323
403 324
402 325
402 326
402 327
402 328
401 329
401 330
401 331
400 332
400 333
400 334
399 335
399 336
399 337
399 338
399 339
398 340
398 341
398 342
398 343
397 344
397 345
397 346
397 347
396 348
396 349
396 350
396 351
395 352
395 353
395 354
394 355
394 356
394 357
393 358
393 359
393 360
392 361
392 362
391 363
391 364
391 365
390 366
390 367
389 368
389 369
389 370
388 371
388 372
387 373
387 374
386 375
386 376
385 377
385 378
384 379
384 380
383 381
383 382
382 383
382 384
381 385
381 386
380 387
380 388
379 389
378 390
378 391
377 392
376 393
375 394
374 395
373 396
372 397
371 398
370 399
369 400
368 401
367 401
366 402
365 402
364 403
363 403
362 404
361 404
360 403
359 402
358 401
358 400
358 399
358 398
359 397
359 396
360 395
360 394
360 393
360 392
360 391
360 390
360 389
361 388
361 387
362 386
362 385
362 384
363 383
363 382
364 381
364 380
364 379
364 378
364 377
364 376
365 375
365 374
365 373
366 372
366 371
366 370
366 369
366 368
367 367
367 366
367 365
367 364
367 363
367 362
368 361
368 360
368 359
368 358
368 357
368 356
368 355
368 354
369 353
369 352
369 351
369 350
369 349
369 348
369 347
369 346
369 345
369 344
370 343
370 342
370 341
370 340
371 339
371 338
371 337
371 336
371 335
371 334
371 333
371 332
371 331
371 330
371 329
371 328
371 327
371 326
371 325
371 324
371 323
371 322
371 321
371 320
371 319
371 318
371 317
371 316
371 315
371 314
371 313
371 312
371 311
371 310
371 309
371 308
371 307
371 306
371 305
370 304
370 303
370 302
370 301
370 300
370 299
370 298
370 297
369 296
369 295
369 294
369 293
368 292
368 291
368 290
368 289
368 288
367 287
367 286
367 285
367 284
367 283
366 282
366 281
366 280
365 279
365 278
365 277
365 276
364 275
364 274
364 273
363 272
363 271
362 270
362 269
361 268
361 267
360 266
360 265
360 264
359 263
359 262
358 261
358 260
357 259
356 258
355 257
355 256
354 255
353 254
352 253
351 252
350 251
350 250
349 249
348 248
347 247
346 246
345 245
344 244
343 243
342 243
341 242
340 241
339 240
338 239
337 239
336 238
335 238
334 238
333 238
332 237
331 237
330 236
329 236
328 236
327 235
326 235
325 235
324 235
323 235
322 235
321 235
320 235
319 235
318 235
317 235
316 236
315 237
314 238
314 239
313 240
312 241
311 242
311 243
310 244
309 245
309 246
308 247
308 248
308 249
307 250
307 251
306 252
306 253
305 254
305 255
304 256
304 257
304 258
304 259
303 260
303 261
302 262
302 263
302 264
301 265
301 266
301 267
301 268
300 269
300 270
299 271
298 272
297 273
296 273
295 272
294 272
293 271
292 271
291 270
291 269
290 268
289 267
288 266
287 265
286 264
285 263
284 262
283 262
282 261
281 260
280 259
279 258
278 257
277 256
276 255
275 254
274 253
273 253
272 252
271 251
270 250
269 249
269 248
268 247
268 246
267 245
266 244
266 243
265 242
265 241
264 240
264 239
263 238
263 237
263 236
262 235
262 234
261 233
261 232
260 231
259 230
258 229
257 228
256 227
255 226
254 226
253 226
252 226
251 225
250 225
249 225
248 225
247 225
246 225
245 225
244 225
243 225
242 225
241 225
240 225
239 225
238 225
237 225
236 225
235 225
234 225
233 225
232 225
231 225
230 225
229 226
228 226
227 227
226 226
225 226
224 226
223 226
222 226
221 226
220 225
219 225
218 225
217 224
216 224
215 224
214 224
213 224
212 223
211 223
210 223
209 223
208 222
207 222
206 222
205 222
204 222
203 222
202 221
201 221
200 221
199 221
198 221
197 221
196 221
195 221
194 221
193 221
192 221
191 221
190 221
189 221
188 221
187 221
186 221
185 221
184 221
183 221
182 221
181 221
180 221
179 221
178 221
177 222
176 222
175 222
174 223
173 224
172 225
171 226
170 227
169 228
168 228
167 229
166 229
165 230
164 231
163 232
163 233
163 234
163 235
163 236
163 237
163 238
163 239
163 240
163 241
163 242
163 243
163 244
162 245
162 246
162 247
162 248
162 249
162 250
162 251
162 252
162 253
162 254
162 255
162 256
162 257
162 258
162 259
162 260
162 261
162 262
162 263
162 264
162 265
162 266
162 267
162 268
162 269
163 270
163 271
163 272
163 273
163 274
164 275
164 276
164 277
164 278
164 279
165 280
165 281
166 282
166 283
166 284
165 285
165 286
165 287
165 288
165 289
165 290
165 291
165 292
165 293
165 294
165 295
165 296
165 297
165 298
165 299
165 300
165 301
165 302
165 303
165 304
166 305
167 306
168 307
169 308
170 309
171 310
172 311
173 312
174 313
175 314
176 315
177 316
178 317
179 318
179 319
180 320
180 321
180 322
179 323
178 323
177 324
176 323
175 323
174 322
173 322
172 321
171 320
170 320
169 320
168 320
167 319
166 319
165 318
164 318
163 318
162 318
161 318
160 318
159 318
158 318
157 318
156 318
155 318
154 318
153 318
152 318
151 318
150 318
149 318
148 318
147 318
146 318
145 318
144 318
143 318
142 318
141 318
140 318
139 319
138 320
137 321
137 322
136 323
136 324
135 325
135 326
134 327
134 328
133 329
133 330
132 331
132 332
131 333
131 334
130 335
129 336
128 336
127 337
126 338
125 338
124 339
123 339
122 340
121 341
120 342
119 343
118 344
117 345
116 346
115 346
114 347
113 347
112 348
111 348
110 349
109 350
108 351
107 352
106 353
105 354
104 354
103 355
102 355
101 356
100 356
99 356
98 357
97 357
96 358
95 359
94 359
93 360
92 360
91 361
90 361
89 362
88 362
87 363
86 363
85 363
84 364
83 365
82 366
81 367
80 368
80 369
80 370
80 371
80 372
79 373
79 374
79 375
79 376
78 377
78 378
78 379
77 380
77 381
77 382
77 383
76 384
76 385
76 386
76 387
75 388
