284 10
283 11
283 12
283 13
283 14
283 15
283 16
283 17
283 18
283 19
283 20
283 21
284 22
284 23
283 24
282 23
281 23
280 22
279 22
278 22
277 22
276 22
275 22
275 23
275 24
275 25
275 26
276 27
276 28
276 29
277 30
277 31
276 32
275 32
274 32
273 32
273 33
273 34
273 35
273 36
274 37
274 38
275 39
275 40
276 41
276 42
277 43
278 44
277 45
276 45
275 45
274 45
273 45
273 46
273 47
273 48
274 49
274 50
275 51
276 52
277 53
276 54
275 55
274 55
274 56
274 57
273 58
272 57
271 56
271 55
271 54
270 53
270 52
269 51
268 50
267 49
266 50
265 51
265 52
264 53
263 54
262 55
262 56
261 57
261 58
260 59
259 60
258 59
258 58
258 57
258 56
259 55
259 54
259 53
259 52
259 51
258 50
258 49
258 48
257 47
257 46
256 45
256 44
255 43
254 42
253 42
252 41
251 41
251 42
250 43
250 44
249 45
249 46
249 47
249 48
248 49
248 50
248 51
247 52
247 53
247 54
246 55
246 56
245 57
245 58
244 59
244 60
243 61
242 62
241 61
240 60
239 59
239 58
238 57
237 56
237 55
236 54
235 53
235 52
234 51
234 50
234 49
233 48
232 47
232 46
231 45
231 44
230 43
229 42
229 41
228 40
228 39
227 39
227 40
228 41
228 42
228 43
228 44
229 45
229 46
230 47
229 48
228 48
227 48
226 48
225 48
224 48
223 48
222 48
221 48
220 48
219 48
218 47
217 47
216 47
215 47
214 46
213 46
212 46
211 46
210 46
209 46
208 47
207 47
208 48
208 49
209 50
209 51
210 52
211 53
211 54
212 55
213 56
212 57
211 58
210 58
209 58
208 59
207 59
207 60
208 61
208 62
209 63
210 64
211 65
212 66
213 67
214 68
215 69
215 70
214 71
213 71
212 72
212 73
212 74
213 75
214 76
215 77
216 78
215 79
214 80
213 80
214 81
214 82
215 83
215 84
216 85
217 86
218 86
219 87
220 88
221 89
222 89
223 89
224 90
225 90
226 90
227 91
228 91
229 91
230 91
231 92
230 93
229 93
228 93
227 94
226 94
225 94
224 95
223 95
222 94
221 93
220 92
219 92
219 93
218 94
217 93
216 92
216 91
215 90
214 89
213 88
212 87
212 86
211 86
211 87
211 88
210 89
209 88
208 87
208 86
207 85
206 84
205 83
205 84
204 85
204 86
203 87
203 88
202 89
202 90
201 91
200 91
199 90
199 89
199 88
199 87
198 86
198 85
198 84
197 83
196 82
196 81
195 80
194 80
193 79
193 78
192 78
192 79
192 80
191 81
191 82
191 83
190 84
189 85
188 84
187 83
186 82
186 81
186 80
185 79
184 78
183 77
182 76
181 75
180 75
179 75
179 76
179 77
179 78
179 79
179 80
178 81
178 82
178 83
178 84
178 85
178 86
178 87
177 88
177 89
177 90
177 91
176 92
175 92
174 91
173 90
172 89
171 88
170 88
169 87
168 86
167 85
166 84
165 83
165 82
164 82
163 81
162 80
161 79
160 78
160 77
159 76
159 75
159 76
159 77
159 78
159 79
160 80
160 81
161 82
160 83
159 83
158 83
157 83
156 82
155 82
154 82
153 82
152 82
151 82
150 81
149 81
148 81
147 81
146 81
145 81
145 82
145 83
145 84
146 85
146 86
146 87
147 88
148 89
149 90
150 91
151 92
151 93
150 94
149 94
148 94
147 95
146 96
145 96
146 97
146 98
147 99
148 100
149 101
150 102
150 103
149 104
148 104
149 105
150 106
151 107
150 108
151 109
152 110
152 111
153 112
154 113
155 114
156 115
157 116
158 117
158 118
157 119
157 120
157 121
157 122
157 123
158 124
158 125
158 126
158 127
158 128
158 129
158 130
158 131
158 132
157 133
157 134
157 135
157 136
157 137
157 138
157 139
156 140
156 141
156 142
156 143
156 144
155 145
154 145
153 145
152 145
151 144
150 144
149 144
148 143
147 143
146 142
145 142
144 142
143 142
142 141
141 141
140 140
139 140
138 140
137 140
136 139
135 139
134 139
133 138
132 138
131 138
130 138
129 138
128 138
127 137
126 138
126 139
125 140
124 141
123 142
122 143
121 144
120 145
119 146
119 147
119 148
120 149
121 150
120 151
120 152
121 153
120 154
120 155
121 156
122 156
123 157
124 157
125 157
126 157
127 157
128 157
129 158
129 159
128 160
127 161
126 161
125 162
125 163
125 164
126 165
127 165
128 166
129 167
129 168
129 169
130 170
131 171
132 172
133 172
134 173
134 174
135 175
136 176
137 177
138 177
139 178
140 178
141 178
142 178
143 178
144 178
145 178
146 178
147 178
148 179
148 180
147 181
147 182
148 183
148 184
149 185
150 185
151 186
152 186
153 186
154 186
155 187
155 188
154 189
153 189
154 190
154 191
155 192
156 192
157 193
158 193
159 194
160 194
161 194
162 194
163 195
163 196
162 197
163 198
164 199
165 200
166 201
167 201
168 201
169 201
170 201
171 201
172 201
173 201
174 201
175 201
176 200
177 200
178 201
177 202
177 203
176 204
175 205
174 206
174 207
175 207
176 208
177 209
178 209
179 209
180 209
181 209
182 209
183 209
184 208
185 208
186 208
187 207
188 206
189 206
190 205
191 204
192 204
193 203
194 203
195 202
196 202
197 203
196 204
195 205
195 206
194 207
193 208
193 209
192 210
191 211
191 212
190 213
190 214
189 215
190 215
191 215
192 216
193 216
194 217
195 217
196 216
197 216
198 216
199 215
200 214
201 213
202 213
203 214
202 215
202 216
201 217
200 218
200 219
199 220
199 221
200 221
201 221
202 222
202 223
203 224
203 225
202 226
202 227
202 228
202 229
202 230
202 231
201 232
202 233
201 234
200 234
199 233
199 232
198 231
197 230
196 229
196 228
195 228
194 227
193 226
192 226
191 226
190 226
189 225
189 226
189 227
189 228
189 229
189 230
189 231
188 232
187 231
186 230
186 229
185 228
184 227
183 226
182 225
181 224
180 224
179 223
178 223
177 223
176 223
176 224
176 225
176 226
176 227
176 228
177 229
177 230
177 231
177 232
177 233
178 234
178 235
178 236
178 237
178 238
178 239
179 240
179 241
179 242
179 243
179 244
179 245
180 246
180 247
180 248
180 249
180 250
180 251
181 252
181 253
181 254
181 255
181 256
181 257
181 258
181 259
181 260
181 261
182 262
182 263
181 264
180 264
179 264
178 264
177 264
176 264
175 264
174 264
173 263
172 263
171 263
170 262
170 261
170 260
171 259
171 258
171 257
171 256
171 255
172 254
172 253
172 252
172 251
172 250
172 249
172 248
172 247
172 246
172 245
171 244
171 243
171 242
171 241
171 240
171 239
171 238
171 237
170 236
170 235
170 234
169 233
169 232
169 231
168 230
168 229
168 228
167 227
166 226
165 225
164 224
163 224
162 223
161 223
160 223
159 223
159 224
159 225
159 226
159 227
159 228
159 229
159 230
159 231
159 232
159 233
160 234
160 235
160 236
160 237
159 238
158 237
158 236
157 235
157 234
156 233
156 232
155 231
154 230
154 229
153 228
152 227
151 226
150 225
149 224
148 223
147 223
146 222
145 222
144 222
143 222
142 222
142 223
142 224
142 225
142 226
143 227
143 228
143 229
143 230
144 231
144 232
144 233
143 234
142 233
142 232
141 231
140 230
139 229
138 228
137 227
136 226
135 225
134 225
133 225
132 224
131 224
130 224
129 224
129 225
129 226
129 227
129 228
129 229
129 230
130 231
130 232
130 233
130 234
131 235
131 236
132 237
132 238
132 239
132 240
133 241
133 242
133 243
133 244
134 245
134 246
135 247
135 248
135 249
135 250
136 251
136 252
136 253
136 254
136 255
136 256
136 257
137 258
137 259
137 260
136 261
135 261
134 261
133 261
132 261
131 261
130 261
129 261
128 261
127 261
126 261
125 261
124 260
124 259
124 258
124 257
125 256
125 255
125 254
125 253
125 252
125 251
125 250
125 249
124 248
124 247
124 246
124 245
124 244
123 243
123 242
123 241
122 240
122 239
121 238
121 237
120 236
119 235
118 234
117 233
116 233
115 232
114 232
113 232
112 231
111 231
110 231
110 232
110 233
110 234
110 235
110 236
110 237
110 238
109 239
108 238
107 237
106 236
105 236
104 235
103 234
102 233
101 233
100 232
99 232
98 232
97 232
96 233
96 234
96 235
96 236
97 237
97 238
97 239
98 240
98 241
99 242
99 243
100 244
100 245
99 246
98 245
97 244
96 243
96 242
95 242
94 241
93 240
92 239
91 239
90 238
89 238
88 237
87 237
86 237
85 237
84 237
83 237
82 237
81 238
82 239
82 240
82 241
81 242
80 242
79 242
78 241
77 242
76 242
75 243
74 244
74 245
75 246
76 247
77 248
77 249
78 250
79 251
80 252
79 253
78 253
77 252
76 252
75 251
74 251
73 251
72 250
71 250
70 250
69 250
68 250
67 251
66 252
65 253
65 254
65 255
65 256
66 257
67 258
67 259
66 260
65 260
64 261
64 262
64 263
64 264
64 265
64 266
65 266
66 267
67 267
68 268
69 268
70 268
71 268
72 269
73 270
73 271
73 272
73 273
72 274
72 275
73 276
73 277
74 278
75 279
76 280
76 281
77 282
76 283
77 284
78 285
79 285
80 285
81 285
82 285
82 284
83 283
84 282
85 281
85 280
85 279
86 278
86 277
86 276
87 275
87 274
87 273
87 272
87 271
87 270
87 269
88 268
89 267
90 267
91 267
92 267
93 267
94 267
95 267
96 268
96 269
95 270
95 271
95 272
95 273
95 274
95 275
95 276
95 277
94 278
94 279
94 280
94 281
94 282
94 283
94 284
93 285
93 286
93 287
93 288
93 289
93 290
93 291
94 291
95 291
96 291
97 291
98 290
99 290
100 289
101 288
102 287
102 286
102 285
103 284
103 283
104 282
104 281
105 280
105 279
105 278
106 277
106 276
106 275
106 274
106 273
106 272
106 271
106 270
107 269
106 268
106 267
107 266
108 265
109 265
110 265
111 265
112 265
113 265
114 265
115 265
116 265
117 265
118 265
119 265
120 265
121 264
122 264
123 264
124 264
125 264
126 264
127 264
128 264
129 264
130 264
131 264
132 264
133 264
134 265
135 265
136 266
136 267
136 268
135 269
135 270
135 271
135 272
135 273
134 274
134 275
134 276
133 277
133 278
133 279
132 280
132 281
132 282
131 283
131 284
130 285
130 286
130 287
129 288
129 289
128 290
128 291
127 292
126 293
125 294
124 294
123 294
123 295
123 296
123 297
124 298
124 299
123 300
122 300
121 300
120 299
119 299
118 299
117 299
116 299
115 299
114 299
113 299
113 300
113 301
114 302
114 303
115 304
116 305
116 306
117 307
118 308
119 309
120 310
121 311
122 312
123 313
124 314
124 315
125 316
126 317
127 318
128 319
129 320
129 321
128 322
127 321
126 321
125 320
124 320
123 319
122 318
121 318
120 317
119 317
118 317
117 316
116 316
115 316
114 316
113 315
112 315
111 315
110 315
109 315
108 315
107 315
106 315
105 315
104 315
103 315
102 315
101 315
100 316
99 316
98 316
97 316
96 316
95 317
94 317
93 317
92 318
91 319
90 320
91 321
92 322
92 323
93 323
94 324
93 325
92 325
91 326
90 326
89 326
88 327
87 328
86 329
85 330
85 331
86 332
86 333
87 334
87 335
86 336
85 337
84 338
83 339
83 340
82 341
82 342
83 343
84 344
85 344
86 344
87 344
88 344
89 344
90 344
91 344
92 343
93 343
94 344
95 344
96 344
97 345
96 346
95 347
94 348
94 349
94 350
93 351
93 352
93 353
93 354
93 355
94 356
95 356
96 356
97 356
98 356
99 356
100 357
101 357
102 358
103 358
104 357
105 357
106 356
107 356
108 357
109 357
110 357
111 358
112 358
113 358
114 358
115 358
116 358
117 358
118 358
119 357
120 357
121 356
122 355
123 355
124 355
125 355
126 356
126 357
126 358
127 358
128 358
129 358
130 358
131 358
132 358
133 358
134 358
135 358
136 358
137 358
138 358
139 357
140 357
141 357
142 357
143 357
144 358
145 358
146 358
147 358
148 358
149 358
150 357
151 357
152 357
153 356
154 357
154 358
155 359
155 360
156 361
157 361
158 361
159 361
160 361
161 361
162 361
163 361
164 361
165 360
166 360
167 360
168 359
169 358
170 359
170 360
169 361
168 362
167 362
166 363
165 364
164 365
164 366
165 367
166 368
167 368
168 369
167 370
166 370
165 371
164 371
163 371
162 371
161 372
160 372
159 373
158 373
158 374
157 375
157 376
158 377
159 378
160 378
161 379
162 379
163 379
164 379
165 379
166 380
167 380
168 380
169 380
170 380
171 381
172 381
173 381
174 381
175 381
176 382
177 382
178 383
179 383
180 383
181 384
182 384
183 385
184 386
185 386
186 386
187 387
188 388
189 389
188 390
187 391
186 392
185 393
184 394
183 395
182 396
181 397
180 397
179 396
179 395
178 394
177 393
176 392
175 392
174 391
173 391
172 391
171 390
170 390
169 390
168 389
167 389
166 389
165 389
164 389
163 389
162 389
161 389
160 389
159 389
158 389
157 389
156 389
155 389
154 389
153 390
152 390
151 391
150 391
149 392
148 392
147 393
146 393
145 394
145 395
144 396
143 397
144 398
145 399
146 399
147 399
148 399
149 399
150 399
151 399
152 399
153 399
154 400
153 401
152 401
151 401
150 402
149 402
148 403
147 403
146 404
145 405
144 405
143 406
142 407
141 408
141 409
140 410
140 411
140 412
140 413
141 413
142 414
142 415
142 416
141 417
141 418
141 419
140 420
140 421
140 422
141 422
142 422
143 423
143 424
144 423
145 423
146 423
147 423
148 424
148 425
148 426
148 427
148 428
148 429
149 430
150 431
151 431
152 432
153 431
154 432
155 431
156 430
157 431
157 432
157 433
158 434
159 435
159 436
160 436
161 436
162 436
163 435
164 434
164 433
164 432
165 431
165 430
165 429
165 428
165 427
165 426
165 425
165 424
164 423
164 422
163 421
163 420
164 419
165 418
165 417
166 416
167 415
168 414
169 413
170 412
171 411
172 410
173 409
174 408
175 408
176 408
177 409
178 410
178 411
179 412
179 413
179 414
179 415
180 416
180 417
180 418
180 419
180 420
181 421
181 422
181 423
181 424
182 425
182 426
182 427
183 427
184 426
185 426
186 425
187 424
188 423
188 422
189 421
190 420
191 420
192 420
193 421
193 422
194 422
195 422
196 421
197 421
198 421
199 421
200 421
201 421
202 420
203 421
203 422
203 423
202 424
202 425
203 425
204 426
205 427
205 428
206 428
207 428
208 428
209 429
208 430
207 430
206 431
205 431
204 432
203 433
202 434
201 435
201 436
200 437
200 438
200 439
200 440
201 440
202 440
203 440
204 440
205 440
206 439
207 439
208 440
207 441
206 442
205 442
204 443
204 444
203 445
202 446
202 447
202 448
201 449
201 450
201 451
202 452
202 453
203 453
204 453
205 453
206 452
207 452
208 451
209 450
210 450
211 449
212 449
213 449
214 448
215 448
216 448
217 448
218 448
219 448
220 448
221 449
221 450
221 451
220 452
220 453
220 454
220 455
220 456
221 455
221 454
222 453
223 453
224 453
225 453
226 454
227 455
227 456
228 457
228 458
229 459
229 460
230 461
231 461
232 460
233 460
234 459
235 458
236 458
237 458
238 458
239 458
240 457
241 457
242 456
243 456
244 456
245 456
246 456
247 456
248 455
249 455
250 455
251 455
252 454
253 454
254 453
255 453
256 452
257 451
258 451
259 450
260 449
261 448
262 447
262 446
263 445
263 444
264 443
265 442
266 442
267 441
268 442
269 443
270 443
271 443
272 443
273 443
274 442
275 441
275 440
276 439
277 439
278 438
279 437
280 438
281 438
282 437
283 437
284 436
285 435
286 434
287 434
288 433
289 433
290 432
291 432
292 432
293 431
294 430
295 429
296 429
297 428
298 428
299 428
300 427
301 426
302 425
303 424
303 423
303 422
304 421
304 420
304 419
304 418
304 417
304 416
304 415
304 414
305 413
304 412
304 411
304 410
304 409
304 408
304 407
304 406
304 405
304 404
304 403
304 402
304 401
303 400
303 399
303 398
302 397
302 396
302 395
301 394
301 393
300 392
300 391
300 390
299 389
298 388
298 387
297 386
298 385
299 384
300 383
301 383
302 383
303 382
304 382
305 381
306 381
307 382
307 383
308 384
309 385
309 386
309 387
310 388
310 389
310 390
311 391
311 392
311 393
312 394
312 395
312 396
312 397
313 398
313 399
313 400
314 401
314 402
314 403
315 404
315 405
315 406
315 407
316 408
316 409
316 410
316 411
317 412
317 413
317 414
318 414
319 415
320 416
319 417
318 418
317 418
316 419
315 419
315 420
314 421
313 422
314 422
315 423
316 424
315 425
314 425
314 426
313 427
312 427
311 427
310 428
309 429
308 430
307 431
306 432
307 433
308 434
308 435
309 436
309 437
308 438
307 439
306 439
305 440
304 441
303 442
302 443
301 444
301 445
302 445
303 446
303 447
304 448
303 449
302 450
301 451
300 452
299 452
298 453
298 454
297 455
297 456
297 457
298 458
299 458
300 459
301 459
302 459
303 459
304 459
305 459
306 459
307 459
308 459
309 460
308 461
307 461
306 462
305 462
304 463
303 463
302 464
301 465
300 465
299 466
298 467
298 468
297 469
297 470
296 471
296 472
296 473
296 474
297 474
298 475
299 475
300 474
301 474
302 475
301 476
300 477
300 478
299 479
299 480
298 481
298 482
297 483
297 484
297 485
298 486
297 487
297 488
298 488
299 488
300 488
301 488
302 488
303 487
304 486
305 485
306 484
307 484
308 483
309 483
310 482
311 482
312 482
313 483
312 484
311 485
311 486
311 487
310 488
310 489
310 490
309 491
309 492
309 493
309 494
309 495
310 496
310 497
310 498
310 499
311 500
311 501
312 502
313 503
314 503
315 502
316 501
316 500
317 499
317 498
317 497
317 496
317 495
317 494
318 493
318 492
318 491
319 490
320 490
320 489
320 488
320 487
321 486
321 485
322 484
323 484
324 484
325 484
326 485
327 486
328 487
328 488
329 489
330 490
331 491
332 492
333 493
334 493
335 492
335 491
336 490
337 490
338 489
339 489
340 489
341 489
342 489
342 488
343 487
344 486
345 485
346 484
347 483
348 482
349 483
350 483
350 482
351 481
351 480
352 479
352 478
352 477
352 476
352 475
352 474
353 473
354 473
355 473
356 474
357 474
358 474
359 474
360 474
361 474
361 473
361 472
362 471
362 470
362 469
362 468
362 467
361 466
361 465
361 464
362 463
363 464
364 463
365 464
366 464
367 464
368 463
369 463
370 463
371 463
372 463
373 463
374 463
375 463
376 463
377 463
378 463
379 463
380 464
379 465
378 466
377 466
376 467
375 468
374 469
373 470
372 471
372 472
371 473
371 474
370 475
370 476
370 477
369 478
370 478
371 478
372 479
371 480
372 481
372 482
371 483
371 484
371 485
371 486
371 487
372 487
373 487
374 487
375 486
376 486
377 485
378 485
379 484
380 484
381 484
382 484
383 483
384 483
385 482
386 482
387 482
388 481
389 481
390 481
391 481
392 481
393 482
393 483
393 484
393 485
393 486
393 487
392 488
392 489
392 490
392 491
392 492
392 493
392 494
393 495
393 496
393 497
393 496
393 495
393 494
393 493
393 492
393 491
394 490
394 489
394 488
394 487
395 486
395 485
395 484
395 483
396 482
396 481
396 480
396 479
397 478
397 477
398 476
399 476
400 476
401 477
402 478
403 478
404 478
405 479
406 480
407 481
408 482
408 483
409 484
410 484
411 485
412 486
413 487
414 487
414 486
415 485
416 484
417 483
418 482
419 482
420 482
420 481
421 480
421 479
421 478
421 477
421 476
421 475
421 474
421 473
421 472
422 471
423 470
424 471
425 472
426 472
427 472
428 471
429 471
430 472
430 471
430 470
430 469
431 468
431 467
432 466
433 465
434 466
435 465
436 465
437 466
437 467
436 468
435 469
435 470
436 471
435 472
434 472
435 472
436 473
437 473
438 473
439 473
440 473
441 473
442 474
441 475
441 476
440 477
439 477
438 478
437 479
437 480
436 481
436 482
435 483
436 483
437 483
438 483
439 484
440 484
441 484
442 484
443 484
444 484
445 483
446 483
447 483
448 483
449 484
448 485
447 486
446 487
445 488
444 489
444 490
443 491
442 492
442 493
441 494
441 495
440 496
440 497
440 498
440 499
440 500
441 501
442 500
443 500
444 499
445 498
446 497
447 496
448 495
449 494
450 494
451 493
452 492
453 491
454 491
455 490
456 491
457 490
458 490
459 491
459 492
459 493
459 494
459 495
459 496
459 497
460 496
460 495
461 494
462 493
463 492
464 492
465 493
466 494
467 495
467 496
468 497
469 498
470 499
470 500
471 501
472 501
472 500
473 499
474 498
475 497
476 496
477 496
478 496
479 497
480 497
481 496
482 495
482 494
482 493
482 492
482 491
482 490
482 489
482 488
482 487
481 486
481 485
481 484
480 483
480 482
479 481
479 480
478 479
477 478
476 477
475 476
474 475
473 474
472 473
471 473
470 472
470 471
470 470
471 469
471 468
471 467
472 466
473 465
474 464
474 463
475 462
475 461
475 460
476 459
477 459
478 458
479 458
480 459
481 460
482 460
483 461
484 462
485 463
486 464
487 464
488 465
489 466
489 467
490 467
491 468
491 469
492 470
493 470
494 471
495 472
496 473
496 474
496 475
496 476
496 477
496 478
496 479
495 480
495 481
495 482
496 482
497 483
498 483
499 483
500 482
501 482
502 482
503 482
504 481
505 481
506 482
506 483
505 484
505 485
504 486
503 487
503 488
503 489
502 490
502 491
502 492
502 493
502 494
502 495
503 496
504 496
505 496
506 496
507 496
508 495
509 494
510 493
511 492
512 491
512 490
513 489
513 488
514 487
515 486
516 487
516 488
517 487
518 488
519 489
519 490
519 491
519 492
519 493
519 494
519 495
519 496
519 497
519 498
519 499
519 500
519 501
520 501
521 501
522 501
523 500
524 500
525 499
525 498
526 497
527 496
528 495
529 494
530 494
531 493
532 493
533 494
534 494
535 495
536 494
537 493
537 492
538 491
539 490
539 489
540 488
541 487
542 486
543 485
544 486
545 486
546 487
547 487
548 487
548 486
549 485
549 484
549 483
550 482
551 481
551 480
552 479
553 479
553 478
553 477
554 476
554 475
554 474
554 473
555 472
556 471
557 471
558 470
559 470
559 469
560 468
560 467
560 466
560 465
560 464
560 463
561 462
561 461
562 460
563 461
564 460
565 461
566 461
566 460
567 459
567 458
567 457
567 456
567 455
567 454
567 453
568 452
569 452
570 452
571 451
571 450
571 449
571 448
571 447
571 446
571 445
571 444
572 443
572 442
572 441
573 440
574 441
575 441
576 440
576 439
577 438
578 437
579 437
580 437
581 437
582 438
583 438
584 439
584 440
584 441
583 442
583 443
583 444
583 445
583 446
584 447
584 448
585 449
586 449
587 449
588 449
589 449
590 449
591 448
592 448
593 449
593 450
593 451
593 452
592 453
592 454
592 455
593 456
593 457
593 458
594 458
595 458
596 457
597 457
598 456
599 455
599 454
600 453
600 452
601 451
601 450
602 449
603 448
604 447
605 447
606 447
607 448
607 449
608 450
608 451
609 452
609 453
609 454
610 455
610 456
610 457
611 458
611 459
612 460
613 460
614 460
615 459
616 458
617 457
617 456
618 455
618 454
618 453
618 452
618 451
618 450
619 449
620 449
621 449
622 449
623 450
624 451
624 452
625 451
626 452
627 452
628 451
628 450
628 449
629 448
629 447
629 446
629 445
630 444
631 443
632 443
633 443
634 443
634 442
634 441
635 440
634 439
634 438
634 437
635 436
634 435
634 434
635 433
636 433
637 433
638 433
639 434
639 433
639 432
640 431
640 430
640 429
640 428
639 427
639 426
639 425
639 424
638 423
639 422
640 422
641 423
642 423
643 423
644 422
643 421
643 420
643 419
642 418
641 417
641 416
640 415
640 414
639 413
639 412
640 411
641 411
642 410
643 411
644 410
645 410
646 410
647 410
648 410
648 409
648 408
648 407
648 406
647 405
647 404
646 403
646 402
646 401
647 400
646 399
647 398
648 398
649 398
650 398
651 398
652 398
652 397
652 396
652 395
652 394
651 393
650 392
650 391
651 390
652 390
653 389
653 388
653 387
653 386
653 385
652 384
651 383
651 382
651 381
652 380
652 379
653 378
654 378
655 378
656 377
657 377
657 376
657 375
656 374
655 373
655 372
654 371
653 370
654 369
655 369
655 368
655 367
655 366
654 365
654 364
653 363
652 362
651 361
651 360
652 359
653 359
654 359
655 358
655 357
655 356
654 355
654 354
653 353
652 352
651 351
651 350
652 349
653 349
654 349
654 348
654 347
654 346
653 345
653 344
652 343
652 342
652 341
652 340
652 339
651 338
650 337
650 336
649 335
649 334
650 333
651 333
651 332
651 331
650 330
650 329
649 328
648 327
647 326
646 325
645 324
644 324
643 323
642 322
641 322
640 321
639 321
638 320
637 320
636 319
635 319
634 318
633 318
632 318
631 317
630 317
629 316
628 315
628 314
627 313
626 312
626 311
626 310
626 309
626 308
626 307
626 306
626 305
626 304
626 303
626 302
626 301
626 300
626 299
626 298
626 297
626 296
626 295
626 294
626 293
626 292
627 291
628 290
629 290
630 289
631 289
632 289
633 289
634 289
635 288
636 288
637 288
638 287
639 287
640 287
641 287
642 287
643 286
644 286
645 286
646 286
647 286
648 285
649 285
650 285
651 285
652 284
653 284
654 284
655 284
656 283
657 283
658 283
659 283
660 283
661 282
662 282
663 282
664 282
665 281
666 281
667 281
668 281
669 281
670 280
671 280
672 280
673 280
674 279
675 279
676 279
677 279
678 278
679 278
680 278
681 278
682 278
683 277
684 277
685 277
686 277
687 276
688 276
689 276
690 276
691 276
692 275
693 275
694 275
695 275
696 274
697 274
698 274
699 273
700 273
701 273
702 273
703 273
704 272
705 272
706 272
707 272
708 272
709 271
710 271
711 271
712 271
713 270
714 270
715 270
716 269
717 269
718 269
719 269
720 269
721 269
722 268
723 268
724 268
725 268
726 268
727 268
728 268
729 267
730 267
731 267
732 267
733 267
734 267
735 267
736 266
737 266
738 266
739 266
740 265
741 264
742 264
743 263
744 262
745 262
746 261
747 260
748 259
749 258
749 257
750 256
751 255
751 254
752 253
752 252
752 251
752 250
752 249
752 248
752 247
751 246
752 245
752 244
752 243
751 242
751 241
751 240
751 239
751 238
750 237
750 236
750 235
749 235
748 236
747 235
746 235
745 235
744 236
744 237
743 238
742 239
741 240
741 241
740 242
740 243
739 244
738 245
738 246
737 247
737 248
736 249
735 250
734 251
733 251
732 252
731 253
730 253
729 254
728 254
727 255
726 255
725 256
724 256
723 256
722 257
721 257
720 257
719 258
718 258
717 258
716 259
715 259
714 259
713 259
712 260
711 260
710 260
709 261
708 261
707 261
706 261
705 262
704 262
703 262
702 263
701 263
700 263
699 263
698 264
697 264
696 264
695 265
694 265
693 265
692 265
691 266
690 266
689 266
688 266
687 267
686 267
685 267
684 267
683 268
682 268
681 268
680 268
679 269
678 269
677 269
676 269
675 270
674 270
673 270
672 271
671 271
670 271
669 271
668 272
667 272
666 272
665 272
664 273
663 273
662 273
661 273
660 273
659 274
658 274
657 274
656 275
655 275
654 275
653 275
652 275
651 276
650 276
649 276
648 276
647 277
646 277
645 277
644 277
643 277
642 278
641 278
640 278
639 278
638 278
637 279
636 279
635 279
634 279
633 279
632 280
631 280
630 280
629 280
628 280
627 281
626 281
625 281
624 281
623 281
622 280
621 279
621 278
621 277
621 276
620 275
620 274
621 273
620 272
619 271
619 270
619 269
619 268
619 267
619 266
618 265
618 264
618 263
618 262
618 261
619 260
620 260
621 260
622 260
623 260
624 260
625 260
626 259
627 259
628 259
629 258
630 258
631 258
632 257
633 256
634 256
635 255
636 254
637 254
638 253
639 252
640 251
641 250
642 249
643 248
643 247
644 246
644 245
644 244
644 243
643 243
642 243
641 243
640 242
639 243
638 243
637 242
638 241
639 240
640 239
641 238
641 237
642 236
643 235
643 234
644 233
644 232
644 231
644 230
644 229
643 229
642 229
641 229
640 229
639 230
638 230
637 229
637 228
638 227
638 226
639 225
640 224
640 223
641 222
641 221
642 220
643 220
643 219
643 218
643 217
643 216
643 215
643 214
642 215
641 215
640 215
639 215
638 216
637 216
636 217
635 217
634 218
633 218
632 219
631 219
630 220
629 221
628 221
627 222
626 222
625 223
624 223
623 224
622 224
621 225
620 225
619 225
618 226
617 226
616 226
615 227
614 226
614 225
613 224
613 223
613 222
613 221
613 220
614 219
615 219
616 219
617 219
618 219
619 219
620 219
621 218
622 218
623 218
624 218
625 218
626 218
627 218
628 217
629 216
630 215
631 215
632 215
633 214
634 214
635 213
636 213
636 212
637 211
638 210
639 210
640 209
640 208
641 207
641 206
642 205
643 204
643 203
644 202
644 201
644 200
643 199
642 199
641 199
640 199
639 199
638 200
637 200
636 200
635 201
634 201
633 201
632 201
631 200
631 199
632 198
633 197
634 196
635 195
636 194
636 193
637 192
638 191
639 190
639 189
640 188
640 187
640 186
640 185
641 184
640 183
640 182
639 182
638 182
637 182
636 183
635 183
634 182
635 181
636 180
636 179
636 178
637 177
638 176
638 175
639 174
639 173
639 172
639 171
639 170
638 169
637 169
636 169
635 168
635 167
636 166
636 165
636 164
636 163
636 162
636 161
636 160
636 159
635 159
634 159
633 159
632 160
631 159
631 158
632 157
632 156
633 155
633 154
633 153
634 152
634 151
634 150
634 149
633 148
633 147
632 147
631 147
630 148
629 149
628 149
627 150
626 151
625 152
624 152
623 153
622 154
621 155
620 156
619 157
618 157
617 158
616 159
615 160
614 161
613 161
612 162
611 163
610 163
609 164
608 165
607 166
606 166
605 165
605 164
605 163
605 162
604 161
604 160
604 159
604 158
604 157
605 156
606 156
607 156
608 156
609 155
610 154
611 153
612 153
612 152
613 151
614 151
615 150
615 149
616 148
617 147
618 146
619 145
620 144
620 143
621 142
622 141
622 140
623 139
623 138
624 137
624 136
624 135
625 134
625 133
625 132
625 131
625 130
625 129
625 128
625 127
624 127
623 128
622 128
621 129
620 130
619 131
618 132
617 133
616 134
615 135
614 136
613 137
612 138
611 139
610 140
609 141
608 142
607 143
606 143
605 144
604 145
603 146
602 147
601 148
600 147
600 146
600 145
599 144
599 143
599 142
598 141
598 140
597 139
597 138
597 137
596 136
596 135
595 134
595 133
594 132
594 131
594 130
593 129
592 128
592 127
592 126
591 125
591 124
590 123
589 122
589 121
588 120
587 119
587 118
586 117
585 116
584 115
583 114
583 115
583 116
584 116
585 117
585 118
586 119
586 120
587 121
587 122
588 123
588 124
589 125
589 126
590 127
590 128
591 129
591 130
592 131
592 132
593 133
593 134
594 135
594 136
595 137
594 138
593 138
592 138
591 138
590 138
589 138
588 138
587 138
586 138
585 138
584 138
583 138
582 138
581 138
580 138
579 138
578 138
577 138
576 137
575 137
574 137
573 137
572 137
571 136
570 136
569 136
568 135
568 134
568 133
567 132
567 131
567 130
566 130
565 131
564 131
563 130
563 129
564 128
564 127
564 126
564 125
564 124
563 123
563 122
562 121
561 121
560 121
559 122
558 123
557 123
556 122
556 121
556 120
556 119
556 118
557 117
557 116
556 115
556 114
556 113
556 112
556 111
555 110
554 109
553 109
552 110
551 110
550 109
551 108
551 107
551 106
550 105
550 104
550 103
549 102
549 101
548 100
547 100
546 101
545 102
544 103
543 102
542 101
542 100
542 99
542 98
542 97
541 96
541 95
540 94
539 93
538 92
537 91
536 92
535 92
534 91
533 90
533 89
532 88
531 87
530 87
529 86
528 85
527 84
526 83
525 83
524 82
523 82
522 81
521 80
521 79
520 78
520 77
519 76
519 75
520 74
519 73
519 72
519 71
519 70
518 69
517 68
517 67
516 67
515 68
514 69
513 70
512 71
511 72
510 71
510 70
510 69
510 68
510 67
510 66
509 65
509 64
509 63
509 62
508 61
507 60
506 59
505 58
504 58
503 58
502 59
502 60
502 61
501 62
501 63
501 64
500 65
500 66
500 67
499 68
499 69
499 70
498 71
498 72
497 73
497 74
496 75
495 76
495 77
494 78
494 79
493 80
492 81
491 80
490 79
490 78
489 77
488 76
488 75
487 74
487 73
486 72
485 71
484 70
484 69
483 69
482 68
481 68
480 67
480 66
479 65
478 64
477 63
476 62
475 61
474 60
473 59
472 59
471 58
470 58
469 57
468 58
467 59
466 59
465 58
465 57
464 56
463 55
462 54
461 54
460 53
459 54
458 53
458 52
457 51
456 50
456 49
455 48
454 48
453 47
452 47
452 48
452 49
451 50
450 49
449 48
449 47
448 46
447 45
446 44
445 44
445 45
444 46
443 47
443 48
442 49
441 49
440 48
440 47
440 46
439 45
439 44
438 43
437 42
436 41
435 41
434 41
434 42
433 43
433 44
432 45
432 46
432 47
431 48
431 49
431 50
430 51
429 51
428 50
427 49
426 48
425 47
424 47
423 46
422 45
422 44
421 43
420 42
419 41
418 41
417 40
416 40
415 40
414 40
413 40
413 41
413 42
413 43
413 44
413 45
414 46
414 47
414 48
415 49
414 50
413 50
412 50
411 50
410 50
409 50
408 50
407 50
407 51
408 52
408 53
408 54
408 55
409 56
408 57
408 58
408 59
408 60
408 61
409 62
408 63
409 64
409 65
409 66
409 67
409 68
409 69
410 70
410 71
411 72
411 73
412 74
413 75
413 76
414 76
415 77
415 78
416 79
417 80
418 80
419 81
420 82
421 83
421 84
422 85
423 85
424 86
425 86
426 87
427 88
428 89
429 90
428 91
427 91
426 91
425 91
424 91
423 91
422 91
421 91
420 91
419 91
418 91
417 91
416 91
415 91
414 91
414 92
414 93
415 94
414 95
413 95
414 96
415 97
416 98
417 99
417 100
418 101
419 102
419 103
420 104
420 105
420 106
421 107
422 108
422 109
422 110
422 111
421 112
421 113
421 114
421 115
420 116
419 117
418 117
417 118
416 119
415 119
414 120
413 120
412 121
411 121
410 121
409 122
408 122
407 123
406 123
405 123
404 122
404 121
403 120
403 119
402 118
402 117
401 116
401 115
401 114
400 113
400 112
399 111
399 110
398 109
398 108
398 107
397 106
397 105
397 104
398 103
399 103
400 102
401 102
402 101
403 101
404 100
405 100
406 100
407 99
408 98
409 98
410 97
411 96
411 95
410 95
409 94
409 93
409 92
409 91
409 90
410 89
410 88
410 87
410 86
410 85
410 84
410 83
410 82
410 81
410 80
410 79
409 78
409 77
408 76
407 75
406 74
405 73
405 72
404 72
404 73
403 74
402 75
402 76
402 77
402 78
402 79
402 80
402 81
403 82
403 83
403 84
404 85
404 86
403 87
402 88
401 89
400 89
399 90
398 90
397 90
396 91
395 91
394 92
393 92
392 92
391 91
391 90
390 89
390 88
389 87
389 86
388 85
388 84
388 83
387 82
387 81
386 80
385 79
385 78
384 77
384 76
384 75
383 74
383 73
383 72
382 71
381 70
381 69
381 68
380 67
380 66
379 65
379 64
378 63
378 62
378 61
379 60
380 59
381 58
382 58
383 57
384 56
385 56
386 55
387 54
388 54
389 53
390 52
391 51
391 50
392 49
393 48
393 47
393 46
393 45
394 44
394 43
394 42
394 41
395 40
395 39
395 38
395 37
394 36
394 35
393 34
392 33
391 34
390 35
389 36
388 37
387 38
386 39
385 40
384 41
383 40
383 39
384 38
384 37
384 36
384 35
384 34
383 33
383 32
383 31
383 30
383 29
382 28
382 27
381 26
380 25
379 26
378 27
378 28
377 29
376 30
376 31
375 32
374 33
374 34
373 35
372 35
371 34
371 33
371 32
372 31
372 30
372 29
372 28
371 27
371 26
371 25
370 24
369 23
368 22
367 21
366 20
365 20
364 20
363 20
362 19
361 20
362 21
362 22
362 23
362 24
362 25
362 26
362 27
362 28
362 29
362 30
362 31
362 32
361 33
360 33
359 33
358 32
357 31
357 30
356 29
356 28
355 27
354 26
353 25
352 24
351 23
350 23
349 22
348 22
347 22
346 22
346 23
346 24
346 25
345 26
345 27
345 28
345 29
345 30
345 31
345 32
346 33
346 34
347 35
348 36
348 37
349 38
350 39
351 40
351 41
350 42
349 41
348 41
347 41
346 41
345 41
344 40
343 40
342 40
341 40
340 40
339 40
338 40
338 41
338 42
337 43
336 42
336 41
335 40
335 39
335 38
334 37
334 36
333 35
332 36
331 37
330 38
329 39
328 40
328 41
327 42
326 43
325 44
324 45
323 46
323 47
322 48
321 49
320 50
319 51
318 51
317 52
316 53
315 54
314 54
314 55
313 56
312 55
311 54
311 53
310 52
310 51
309 50
309 49
308 48
308 47
309 46
310 46
311 45
312 45
313 44
314 43
315 42
316 41
316 40
317 39
318 38
318 37
318 36
319 35
319 34
319 33
319 32
319 31
319 30
319 29
319 28
319 27
318 26
318 25
317 24
316 24
315 25
314 26
313 27
312 28
311 27
311 26
311 25
311 24
310 23
310 22
310 21
310 20
309 19
308 18
308 17
307 16
306 16
305 17
305 18
304 19
304 20
303 21
303 22
302 23
302 24
301 25
300 26
299 26
298 25
298 24
297 23
297 22
296 21
296 20
295 19
295 18
294 18
293 17
292 16
292 15
291 14
290 13
290 12
289 12
288 11
287 10
286 10
285 10
284 10
