365 22
364 23
363 23
362 23
361 23
360 23
359 23
358 23
357 23
356 23
355 23
354 23
353 23
352 23
351 23
350 23
349 24
348 24
347 24
346 24
345 24
344 24
343 24
342 24
341 24
340 25
339 25
338 25
337 25
336 26
335 26
334 26
333 26
332 27
331 27
330 27
329 28
328 28
327 28
326 28
325 29
324 29
323 29
322 30
321 30
320 30
319 30
318 31
317 31
316 31
315 32
314 32
313 32
312 33
311 33
310 33
309 33
308 34
307 34
306 35
305 35
304 35
303 36
302 36
301 37
300 37
299 37
298 37
297 38
296 38
295 38
294 38
293 39
292 39
291 39
290 39
289 40
288 40
287 40
286 41
285 41
284 41
283 42
282 42
281 42
280 43
279 43
278 43
277 44
276 44
275 45
274 45
273 45
272 46
271 46
270 46
269 47
268 47
267 47
266 48
265 48
264 49
263 49
262 50
261 50
260 50
259 51
258 51
257 52
256 52
255 52
254 53
253 53
252 54
251 54
250 54
249 55
248 55
247 56
246 56
245 57
244 57
243 58
242 58
241 59
240 60
239 60
238 60
237 61
236 62
235 62
234 63
233 63
232 64
231 65
230 65
229 66
228 66
227 67
226 68
225 68
224 69
223 69
222 70
221 70
220 71
219 71
218 72
217 72
216 73
215 74
214 74
213 75
212 76
211 76
210 77
209 78
208 79
207 79
206 80
205 81
204 81
203 82
202 83
201 83
200 84
199 85
198 85
197 86
196 87
195 88
194 89
193 89
192 90
191 91
190 91
189 92
188 93
187 93
186 94
185 95
184 96
183 97
182 97
181 98
180 99
179 99
178 100
177 101
176 102
175 103
174 103
173 104
172 105
171 105
170 106
169 107
168 108
167 109
166 110
165 111
165 112
164 113
163 114
162 114
161 115
160 116
159 117
158 118
157 119
156 120
155 121
154 122
153 123
152 124
151 125
150 126
149 126
148 127
147 128
146 129
145 130
144 131
143 132
142 133
141 134
141 135
140 136
139 137
138 138
137 139
137 140
136 141
135 142
134 143
133 144
132 145
131 146
130 147
129 148
128 149
127 150
126 151
125 152
125 153
124 154
123 154
123 155
122 156
121 157
120 158
119 159
118 160
117 161
117 162
116 163
115 164
115 165
114 166
113 167
113 168
112 169
111 170
110 171
109 172
108 173
108 174
107 175
106 176
106 177
105 178
104 179
104 180
103 181
102 182
101 183
100 184
99 185
99 186
98 187
97 188
97 189
96 190
95 191
94 192
93 193
92 194
92 195
91 196
90 197
90 198
89 199
89 200
88 201
87 202
87 203
86 204
85 205
84 206
83 207
82 208
81 209
80 210
79 211
78 211
77 212
76 213
75 214
74 214
73 215
72 216
71 217
70 217
69 218
68 219
67 219
66 220
65 220
64 221
63 222
62 223
61 224
60 224
59 225
58 226
57 226
56 227
55 228
54 229
53 230
52 230
51 231
50 232
49 233
48 233
47 234
46 235
45 236
44 237
43 237
43 238
42 239
41 240
40 241
40 242
40 243
40 244
40 245
41 246
41 247
42 247
43 247
44 248
45 248
46 248
47 248
48 248
49 248
50 248
51 249
52 249
53 249
54 249
55 249
56 250
57 250
58 250
59 250
60 250
61 250
62 250
63 250
64 250
65 250
66 250
67 250
68 251
69 251
70 252
71 252
72 252
73 252
74 252
75 253
76 253
77 252
78 252
79 252
80 252
81 252
82 252
83 253
84 253
85 254
86 254
87 255
88 256
89 257
90 258
91 259
91 260
92 261
93 262
94 263
95 264
96 265
97 266
98 267
99 267
100 268
101 269
101 270
102 271
103 272
104 273
105 274
106 275
107 276
108 277
109 278
109 279
110 280
111 281
112 282
113 283
114 284
115 285
116 286
117 287
118 288
119 289
120 290
121 291
122 292
123 293
124 294
125 295
126 296
127 297
128 297
129 298
130 299
131 300
132 300
133 301
134 302
135 302
136 303
137 304
138 304
139 305
140 306
141 307
142 308
143 309
143 310
144 311
145 312
146 313
146 314
147 315
148 316
149 317
150 318
151 319
152 320
153 321
153 322
154 323
155 324
156 325
157 326
157 327
158 328
159 329
160 330
160 331
161 332
162 333
163 334
164 335
164 336
165 337
166 338
167 339
168 340
169 341
170 342
171 343
171 344
172 345
173 346
174 347
175 348
176 349
177 350
178 351
179 352
180 353
181 354
182 355
183 356
184 357
185 358
185 359
186 360
187 361
188 362
189 363
190 364
191 365
192 365
193 366
193 367
194 368
195 368
196 369
197 370
198 371
199 372
200 373
201 374
202 375
202 376
203 377
204 378
205 379
206 380
207 381
208 382
209 383
210 384
211 385
212 386
213 387
214 388
215 389
216 389
217 390
218 391
219 392
220 393
221 394
222 394
223 395
224 396
225 396
226 397
227 398
228 398
229 399
230 400
231 401
232 401
233 402
234 403
235 403
236 404
237 404
238 405
239 406
240 406
241 407
242 407
243 408
244 408
245 409
246 410
247 410
248 411
249 411
250 412
251 412
252 413
253 413
254 414
255 414
256 415
257 415
258 416
259 416
260 417
261 417
262 418
263 418
264 419
265 420
266 420
267 421
268 421
269 422
270 422
271 423
272 423
273 424
274 424
275 425
276 425
277 425
278 426
279 426
280 427
281 427
282 427
283 428
284 428
285 429
286 429
287 430
288 430
289 431
290 431
291 431
292 432
293 432
294 432
295 433
296 433
297 434
298 434
299 434
300 435
301 435
302 435
303 436
304 436
305 437
306 437
307 437
308 438
309 438
310 439
311 439
312 439
313 440
314 440
315 440
316 441
317 441
318 441
319 442
320 442
321 442
322 443
323 443
324 444
325 444
326 444
327 444
328 445
329 445
330 445
331 445
332 446
333 446
334 446
335 446
336 447
337 447
338 447
339 447
340 448
341 448
342 448
343 448
344 449
345 449
346 449
347 449
348 450
349 450
350 450
351 450
352 450
353 451
354 451
355 451
356 451
357 451
358 451
359 451
360 452
361 452
362 452
363 452
364 452
365 452
366 453
367 453
368 453
369 453
370 453
371 453
372 453
373 454
374 454
375 454
376 454
377 454
378 454
379 454
380 454
381 454
382 454
383 454
384 454
385 455
386 455
387 455
388 455
389 455
390 455
391 455
392 455
393 455
394 455
395 455
396 454
397 454
398 454
399 454
400 454
401 454
402 454
403 454
404 454
405 454
406 454
407 454
408 454
409 455
410 455
411 455
412 455
413 455
414 455
415 455
416 455
417 455
418 455
419 456
420 456
421 456
422 456
423 456
424 456
425 456
426 456
427 456
428 457
429 457
430 457
431 457
432 457
433 457
434 457
435 457
436 457
437 457
438 457
439 457
440 457
441 458
442 458
443 458
444 458
445 458
446 457
447 457
448 457
449 457
450 457
451 457
452 457
453 457
454 457
455 457
456 457
457 456
458 456
459 456
460 456
461 456
462 456
463 455
464 455
465 455
466 455
467 455
468 454
469 454
470 454
471 454
472 454
473 453
474 453
475 453
476 453
477 452
478 452
479 452
480 452
481 451
482 451
483 451
484 450
485 450
486 450
487 450
488 449
489 449
490 449
491 449
492 448
493 448
494 448
495 448
496 447
497 447
498 447
499 447
500 446
501 446
502 446
503 445
504 445
505 445
506 444
507 444
508 444
509 444
510 443
511 443
512 443
513 443
514 442
515 442
516 442
517 441
518 441
519 441
520 440
521 440
522 440
523 440
524 439
525 439
526 439
527 439
528 439
529 438
530 438
531 438
532 438
533 438
534 438
535 438
536 438
537 437
538 437
539 437
540 437
541 437
542 437
543 437
544 437
545 436
546 436
547 436
548 436
549 436
550 435
551 435
552 435
553 435
554 434
555 434
556 434
557 434
558 433
559 433
560 433
561 432
562 432
563 432
564 431
565 431
566 431
567 430
568 430
569 430
570 429
571 429
572 428
573 428
574 428
575 427
576 426
577 426
578 425
579 425
580 424
581 423
582 423
583 422
584 422
585 421
586 421
587 420
588 419
589 418
590 417
591 417
592 416
593 416
594 415
595 414
596 413
597 412
598 412
599 411
600 410
601 410
602 409
603 408
604 408
605 407
606 406
607 406
608 405
609 404
610 403
611 403
612 402
613 402
614 401
615 401
616 400
617 399
618 399
619 398
620 398
621 397
622 396
623 396
624 395
625 395
626 394
627 393
628 393
629 392
630 391
631 391
632 390
633 389
634 388
635 387
636 386
637 385
638 385
639 384
640 384
640 383
641 382
641 381
642 380
643 379
644 378
645 377
646 377
646 376
647 375
648 375
649 374
650 373
651 372
651 371
652 370
653 369
654 368
655 367
656 366
657 365
658 364
659 363
660 362
661 361
662 360
663 359
664 358
664 357
665 356
666 355
666 354
667 353
668 352
668 351
669 350
670 349
670 348
671 347
672 346
672 345
673 344
673 343
674 342
675 341
675 340
676 339
676 338
677 337
677 336
678 335
679 334
679 333
680 332
680 331
681 330
681 329
682 328
683 327
683 326
684 325
684 324
685 323
685 322
686 321
686 320
687 319
687 318
687 317
687 316
688 315
688 314
688 313
689 312
689 311
689 310
690 309
690 308
690 307
691 306
691 305
691 304
692 303
692 302
693 301
693 300
694 299
695 298
695 297
696 296
697 295
698 294
699 293
700 292
701 291
701 290
702 289
703 289
704 288
704 287
705 286
706 286
707 285
708 284
709 283
710 282
711 281
712 281
713 281
714 280
715 280
716 279
717 279
718 278
719 278
720 278
721 278
722 278
723 277
724 277
725 277
726 277
727 277
728 277
729 277
730 277
731 278
732 278
733 278
734 278
735 278
736 278
737 278
738 278
739 278
740 279
741 279
742 279
743 279
744 279
745 279
746 279
747 279
748 278
749 278
750 278
751 278
752 277
753 277
753 276
754 275
754 274
754 273
755 272
755 271
755 270
755 269
755 268
755 267
755 266
755 265
755 264
754 264
753 263
752 263
751 263
750 262
749 262
748 262
747 262
746 262
745 261
744 261
743 261
742 261
741 261
740 260
739 260
738 260
737 260
736 260
735 260
734 260
733 259
732 259
731 259
730 259
729 258
728 258
727 258
726 257
725 257
724 257
723 256
722 255
721 254
720 253
719 252
718 251
717 250
716 249
715 248
714 247
713 246
713 245
712 244
711 243
711 242
710 241
709 240
708 239
708 238
707 237
707 236
707 235
706 234
706 233
706 232
705 231
705 230
705 229
704 228
704 227
704 226
704 225
704 224
703 223
703 222
703 221
703 220
703 219
703 218
702 217
702 216
701 215
701 214
701 213
700 212
700 211
700 210
700 209
699 208
699 207
698 206
698 205
698 204
697 203
697 202
696 201
696 200
695 199
695 198
694 197
694 196
693 195
692 194
692 193
691 192
691 191
690 190
690 189
690 188
689 187
688 186
688 185
687 184
687 183
686 182
686 181
685 180
685 179
684 178
683 177
683 176
682 175
682 174
681 173
680 172
680 171
679 170
678 169
678 168
677 167
677 166
676 165
675 164
675 163
674 162
673 161
673 160
672 159
672 158
671 157
670 156
669 155
669 154
668 153
667 152
666 151
666 150
665 149
664 148
663 147
663 146
662 145
661 144
661 143
660 142
659 141
658 140
657 139
657 138
656 137
655 136
654 135
653 134
652 133
652 132
651 131
650 130
649 129
648 128
647 127
646 126
646 125
645 124
644 123
643 122
642 121
641 120
640 119
639 118
638 117
637 116
636 115
635 114
634 113
633 113
632 112
631 111
630 110
629 109
628 108
627 107
626 106
625 105
624 104
623 103
622 102
621 101
620 100
619 99
618 98
617 97
616 96
615 95
614 94
613 93
612 92
611 91
610 91
609 90
608 89
607 88
606 87
605 87
604 86
603 85
602 85
601 84
600 83
599 82
598 82
597 81
596 81
595 80
594 79
593 79
592 78
591 77
590 77
589 76
588 76
587 75
586 75
585 74
584 74
583 73
582 73
581 72
580 72
579 71
578 71
577 70
576 69
575 69
574 68
573 68
572 67
571 67
570 66
569 66
568 65
567 65
566 64
565 64
564 63
563 63
562 63
561 62
560 62
559 61
558 61
557 61
556 60
555 60
554 59
553 59
552 58
551 58
550 57
549 57
548 56
547 56
546 56
545 55
544 55
543 54
542 54
541 54
540 53
539 53
538 52
537 52
536 52
535 51
534 51
533 51
532 50
531 50
530 50
529 49
528 49
527 48
526 48
525 47
524 47
523 46
522 46
521 46
520 45
519 45
518 45
517 44
516 44
515 44
514 44
513 43
512 43
511 43
510 43
509 42
508 42
507 42
506 41
505 41
504 41
503 40
502 40
501 40
500 39
499 39
498 39
497 38
496 38
495 38
494 38
493 38
492 38
491 37
490 37
489 37
488 37
487 36
486 36
485 36
484 36
483 35
482 35
481 35
480 35
479 35
478 34
477 34
476 34
475 34
474 34
473 34
472 33
471 33
470 33
469 33
468 32
467 32
466 32
465 32
464 31
463 31
462 31
461 31
460 30
459 30
458 30
457 30
456 30
455 30
454 29
453 29
452 29
451 29
450 29
449 28
448 28
447 28
446 27
445 27
444 27
443 27
442 27
441 27
440 26
439 26
438 26
437 26
436 26
435 25
434 25
433 25
432 25
431 25
430 24
429 24
428 24
427 24
426 24
425 24
424 23
423 23
422 23
421 23
420 23
419 23
418 23
417 23
416 22
415 22
414 22
413 22
412 22
411 22
410 22
409 22
408 22
407 22
406 22
405 22
404 22
403 22
402 22
401 22
400 22
399 22
398 22
397 22
396 22
395 22
394 22
393 22
392 22
391 22
390 22
389 22
388 22
387 22
386 22
385 22
384 22
383 22
382 22
381 22
380 22
379 22
378 22
377 22
376 22
375 22
374 22
373 22
372 22
371 22
370 22
369 22
368 22
367 22
366 22
365 22
