3 3
3 4
3 5
4 5
5 5
6 5
7 5
8 5
9 5
10 5
11 5
12 5
13 5
14 5
15 5
16 5
17 5
18 5
19 5
20 5
21 5
22 5
23 5
24 5
25 5
26 5
27 5
28 5
29 5
30 5
31 5
32 5
33 5
34 5
35 5
36 5
37 5
38 5
39 5
40 5
41 5
42 5
43 5
44 5
45 5
46 5
47 5
48 5
49 5
50 5
51 5
52 5
53 5
54 5
55 5
56 5
57 5
58 5
59 5
60 5
61 5
62 5
63 5
64 5
65 5
66 5
67 5
68 5
69 5
70 5
71 5
72 5
73 5
74 5
75 5
76 5
77 5
78 5
79 5
80 5
81 5
82 5
83 5
84 5
85 5
86 5
87 5
88 5
89 5
90 5
91 5
92 5
93 5
94 5
95 5
96 5
97 6
98 6
99 6
100 6
101 6
102 6
103 6
104 6
105 6
106 6
107 6
108 6
109 6
110 5
111 5
112 5
113 5
114 5
115 5
116 5
117 5
118 5
119 5
120 5
121 5
122 5
123 5
124 5
125 5
126 5
127 5
128 5
129 5
130 5
131 5
132 5
133 5
134 5
135 5
136 5
137 5
138 5
139 5
140 5
141 5
142 5
143 5
144 5
145 5
146 5
147 5
148 5
149 5
150 5
151 5
152 5
153 5
154 5
155 5
156 5
157 5
158 5
159 5
160 5
161 5
162 5
163 5
164 5
165 5
166 5
167 5
168 5
169 5
170 6
171 6
172 6
173 6
174 6
175 6
176 6
177 6
178 6
179 6
180 6
181 6
182 6
183 6
184 6
185 6
186 6
187 6
188 6
189 6
190 6
191 6
192 6
193 6
194 6
195 6
196 6
197 6
198 6
199 6
200 6
201 6
202 6
203 6
204 6
205 6
206 6
207 6
208 6
209 6
210 6
211 6
212 6
213 6
214 6
215 6
216 6
217 6
218 6
219 6
220 6
221 6
222 6
223 6
224 6
225 6
226 6
227 6
228 6
229 6
230 6
231 6
232 6
233 6
234 6
235 6
236 6
237 6
238 6
239 6
240 6
241 6
242 6
243 6
244 6
245 6
246 6
247 6
248 6
249 6
250 6
251 6
252 6
253 6
254 6
255 6
256 6
257 6
258 6
259 6
260 6
261 6
262 6
263 6
264 6
265 6
266 6
267 6
268 6
269 6
270 6
271 6
272 6
273 6
274 6
275 6
276 6
277 6
278 6
279 6
280 6
281 6
282 6
283 6
284 6
285 6
286 6
287 6
288 6
289 6
290 6
291 6
292 6
293 6
294 6
295 6
296 6
297 6
298 6
299 6
300 6
301 6
302 6
303 6
304 6
305 6
306 6
307 6
308 6
309 6
310 6
311 6
312 6
313 6
314 6
315 7
316 7
317 7
318 7
319 7
320 7
321 7
322 7
323 7
324 7
325 7
326 7
327 7
328 7
329 7
330 7
331 7
332 7
333 7
334 7
335 7
336 7
337 7
338 7
339 7
340 7
341 7
342 7
343 7
344 7
345 7
346 7
347 7
348 7
349 7
350 7
351 7
352 7
353 7
354 7
355 7
356 7
357 7
358 7
359 7
360 7
361 7
362 7
363 7
364 7
365 7
366 7
367 7
368 7
369 7
370 7
371 7
372 7
373 7
374 7
375 7
376 7
377 7
378 7
379 7
380 7
381 7
382 7
383 7
384 7
385 7
386 8
387 8
388 8
389 8
390 8
391 8
392 8
393 8
394 8
395 8
396 8
397 8
398 8
399 8
400 8
401 8
402 8
403 8
404 8
405 8
406 8
407 8
408 8
409 8
410 8
411 8
412 8
413 8
414 8
415 8
416 8
417 8
418 8
419 8
420 8
421 8
422 8
423 8
424 8
425 8
426 8
427 8
428 8
429 8
430 8
431 8
432 8
433 8
434 8
435 8
436 8
437 8
438 8
439 8
440 8
441 8
442 8
443 8
444 8
445 8
446 8
447 8
448 8
449 8
450 9
451 9
452 9
453 9
454 9
455 9
456 9
457 9
458 9
459 9
460 9
461 9
462 9
463 9
464 9
465 9
466 9
467 9
468 9
469 9
470 9
471 9
472 9
473 9
474 9
475 9
476 9
477 9
478 9
479 9
480 9
481 9
482 9
483 9
484 9
485 9
486 9
487 9
488 9
489 9
490 9
491 9
492 9
493 9
494 9
495 9
496 9
497 9
498 9
499 9
500 9
501 9
502 9
503 9
504 9
505 9
506 9
507 9
508 9
509 9
510 9
511 9
512 10
513 10
514 10
515 10
516 10
517 10
518 10
519 10
520 10
521 10
522 10
523 10
524 10
525 10
526 10
527 10
528 10
529 10
530 10
531 10
532 10
533 10
534 10
535 10
536 10
537 10
538 10
539 10
540 10
541 10
542 10
543 10
544 10
545 10
546 10
547 10
548 10
549 10
550 10
551 10
552 10
553 10
554 11
555 11
556 11
557 11
558 11
559 11
560 11
561 11
562 11
563 11
564 11
565 11
566 11
567 11
568 11
569 11
570 11
571 11
572 11
573 11
574 11
575 11
576 11
577 11
578 11
579 11
580 11
581 11
582 11
583 11
584 11
585 11
586 11
587 11
588 11
589 11
590 11
591 11
592 11
593 11
594 11
595 11
596 11
597 11
598 11
599 11
600 11
601 11
602 12
603 12
604 12
605 12
606 12
607 12
608 12
609 12
610 12
611 12
612 12
613 12
614 12
615 12
616 12
617 12
618 12
619 12
620 12
621 12
622 12
623 12
624 12
625 12
626 12
627 12
628 12
629 12
630 12
631 12
632 12
633 12
634 12
635 12
636 12
637 12
638 12
639 12
640 12
641 12
642 12
643 12
644 12
645 12
646 13
647 13
648 13
649 13
650 13
651 13
652 13
653 13
654 13
655 13
656 13
657 13
658 13
659 13
660 13
661 13
662 13
663 13
664 13
665 13
666 13
667 13
668 13
669 13
670 13
671 13
672 14
673 14
674 14
675 14
676 14
677 14
678 14
679 14
680 14
681 14
682 14
683 14
684 14
685 14
686 14
687 14
688 14
689 14
690 14
691 14
692 14
693 14
694 14
695 14
696 14
697 14
698 14
699 14
700 14
701 14
702 14
703 14
704 14
705 14
706 14
707 14
708 14
709 14
710 14
711 14
712 14
713 15
714 15
715 15
716 15
717 15
718 15
719 15
720 15
721 15
722 15
723 15
724 15
725 15
726 15
727 15
728 15
729 15
730 15
731 15
732 15
733 15
734 15
735 15
736 15
737 15
738 15
739 15
740 15
741 15
742 15
743 15
744 15
745 15
746 16
747 16
748 16
749 16
750 16
751 16
752 16
753 16
754 16
755 16
756 16
757 16
758 16
759 16
760 16
761 16
762 16
763 16
764 16
765 16
766 16
767 16
768 16
769 16
770 16
771 16
772 16
773 16
774 16
775 16
776 17
777 17
778 17
779 17
780 17
781 17
782 17
783 18
784 18
785 18
786 18
787 18
788 19
789 19
790 20
791 20
792 21
792 22
793 23
793 24
794 25
794 26
795 27
795 28
795 29
795 30
795 31
795 32
796 33
796 34
796 35
796 36
796 37
796 38
796 37
796 36
796 35
796 34
796 33
796 32
796 31
796 30
796 29
796 28
796 27
796 26
796 25
796 24
796 23
796 22
796 21
796 20
796 19
796 18
796 17
796 16
796 15
796 14
796 13
796 12
796 11
796 10
796 9
796 8
796 7
796 6
796 5
796 4
796 3
795 3
794 3
793 3
792 3
791 3
790 3
789 3
788 3
787 3
786 3
785 3
784 3
783 3
782 3
781 3
780 3
779 3
778 3
777 3
776 3
775 3
774 3
773 3
772 3
771 3
770 3
769 3
768 3
767 3
766 3
765 3
764 3
763 3
762 3
761 3
760 3
759 3
758 3
757 3
756 3
755 3
754 3
753 3
752 3
751 3
750 3
749 3
748 3
747 3
746 3
745 3
744 3
743 3
742 3
741 3
740 3
739 3
738 3
737 3
736 3
735 3
734 3
733 3
732 3
731 3
730 3
729 3
728 3
727 3
726 3
725 3
724 3
723 3
722 3
721 3
720 3
719 3
718 3
717 3
716 3
715 3
714 3
713 3
712 3
711 3
710 3
709 3
708 3
707 3
706 3
705 3
704 3
703 3
702 3
701 3
700 3
699 3
698 3
697 3
696 3
695 3
694 3
693 3
692 3
691 3
690 3
689 3
688 3
687 3
686 3
685 3
684 3
683 3
682 3
681 3
680 3
679 3
678 3
677 3
676 3
675 3
674 3
673 3
672 3
671 3
670 3
669 3
668 3
667 3
666 3
665 3
664 3
663 3
662 3
661 3
660 3
659 3
658 3
657 3
656 3
655 3
654 3
653 3
652 3
651 3
650 3
649 3
648 3
647 3
646 3
645 3
644 3
643 3
642 3
641 3
640 3
639 3
638 3
637 3
636 3
635 3
634 3
633 3
632 3
631 3
630 3
629 3
628 3
627 3
626 3
625 3
624 3
623 3
622 3
621 3
620 3
619 3
618 3
617 3
616 3
615 3
614 3
613 3
612 3
611 3
610 3
609 3
608 3
607 3
606 3
605 3
604 3
603 3
602 3
601 3
600 3
599 3
598 3
597 3
596 3
595 3
594 3
593 3
592 3
591 3
590 3
589 3
588 3
587 3
586 3
585 3
584 3
583 3
582 3
581 3
580 3
579 3
578 3
577 3
576 3
575 3
574 3
573 3
572 3
571 3
570 3
569 3
568 3
567 3
566 3
565 3
564 3
563 3
562 3
561 3
560 3
559 3
558 3
557 3
556 3
555 3
554 3
553 3
552 3
551 3
550 3
549 3
548 3
547 3
546 3
545 3
544 3
543 3
542 3
541 3
540 3
539 3
538 3
537 3
536 3
535 3
534 3
533 3
532 3
531 3
530 3
529 3
528 3
527 3
526 3
525 3
524 3
523 3
522 3
521 3
520 3
519 3
518 3
517 3
516 3
515 3
514 3
513 3
512 3
511 3
510 3
509 3
508 3
507 3
506 3
505 3
504 3
503 3
502 3
501 3
500 3
499 3
498 3
497 3
496 3
495 3
494 3
493 3
492 3
491 3
490 3
489 3
488 3
487 3
486 3
485 3
484 3
483 3
482 3
481 3
480 3
479 3
478 3
477 3
476 3
475 3
474 3
473 3
472 3
471 3
470 3
469 3
468 3
467 3
466 3
465 3
464 3
463 3
462 3
461 3
460 3
459 3
458 3
457 3
456 3
455 3
454 3
453 3
452 3
451 3
450 3
449 3
448 3
447 3
446 3
445 3
444 3
443 3
442 3
441 3
440 3
439 3
438 3
437 3
436 3
435 3
434 3
433 3
432 3
431 3
430 3
429 3
428 3
427 3
426 3
425 3
424 3
423 3
422 3
421 3
420 3
419 3
418 3
417 3
416 3
415 3
414 3
413 3
412 3
411 3
410 3
409 3
408 3
407 3
406 3
405 3
404 3
403 3
402 3
401 3
400 3
399 3
398 3
397 3
396 3
395 3
394 3
393 3
392 3
391 3
390 3
389 3
388 3
387 3
386 3
385 3
384 3
383 3
382 3
381 3
380 3
379 3
378 3
377 3
376 3
375 3
374 3
373 3
372 3
371 3
370 3
369 3
368 3
367 3
366 3
365 3
364 3
363 3
362 3
361 3
360 3
359 3
358 3
357 3
356 3
355 3
354 3
353 3
352 3
351 3
350 3
349 3
348 3
347 3
346 3
345 3
344 3
343 3
342 3
341 3
340 3
339 3
338 3
337 3
336 3
335 3
334 3
333 3
332 3
331 3
330 3
329 3
328 3
327 3
326 3
325 3
324 3
323 3
322 3
321 3
320 3
319 3
318 3
317 3
316 3
315 3
314 3
313 3
312 3
311 3
310 3
309 3
308 3
307 3
306 3
305 3
304 3
303 3
302 3
301 3
300 3
299 3
298 3
297 3
296 3
295 3
294 3
293 3
292 3
291 3
290 3
289 3
288 3
287 3
286 3
285 3
284 3
283 3
282 3
281 3
280 3
279 3
278 3
277 3
276 3
275 3
274 3
273 3
272 3
271 3
270 3
269 3
268 3
267 3
266 3
265 3
264 3
263 3
262 3
261 3
260 3
259 3
258 3
257 3
256 3
255 3
254 3
253 3
252 3
251 3
250 3
249 3
248 3
247 3
246 3
245 3
244 3
243 3
242 3
241 3
240 3
239 3
238 3
237 3
236 3
235 3
234 3
233 3
232 3
231 3
230 3
229 3
228 3
227 3
226 3
225 3
224 3
223 3
222 3
221 3
220 3
219 3
218 3
217 3
216 3
215 3
214 3
213 3
212 3
211 3
210 3
209 3
208 3
207 3
206 3
205 3
204 3
203 3
202 3
201 3
200 3
199 3
198 3
197 3
196 3
195 3
194 3
193 3
192 3
191 3
190 3
189 3
188 3
187 3
186 3
185 3
184 3
183 3
182 3
181 3
180 3
179 3
178 3
177 3
176 3
175 3
174 3
173 3
172 3
171 3
170 3
169 3
168 3
167 3
166 3
165 3
164 3
163 3
162 3
161 3
160 3
159 3
158 3
157 3
156 3
155 3
154 3
153 3
152 3
151 3
150 3
149 3
148 3
147 3
146 3
145 3
144 3
143 3
142 3
141 3
140 3
139 3
138 3
137 3
136 3
135 3
134 3
133 3
132 3
131 3
130 3
129 3
128 3
127 3
126 3
125 3
124 3
123 3
122 3
121 3
120 3
119 3
118 3
117 3
116 3
115 3
114 3
113 3
112 3
111 3
110 3
109 3
108 3
107 3
106 3
105 3
104 3
103 3
102 3
101 3
100 3
99 3
98 3
97 3
96 3
95 3
94 3
93 3
92 3
91 3
90 3
89 3
88 3
87 3
86 3
85 3
84 3
83 3
82 3
81 3
80 3
79 3
78 3
77 3
76 3
75 3
74 3
73 3
72 3
71 3
70 3
69 3
68 3
67 3
66 3
65 3
64 3
63 3
62 3
61 3
60 3
59 3
58 3
57 3
56 3
55 3
54 3
53 3
52 3
51 3
50 3
49 3
48 3
47 3
46 3
45 3
44 3
43 3
42 3
41 3
40 3
39 3
38 3
37 3
36 3
35 3
34 3
33 3
32 3
31 3
30 3
29 3
28 3
27 3
26 3
25 3
24 3
23 3
22 3
21 3
20 3
19 3
18 3
17 3
16 3
15 3
14 3
13 3
12 3
11 3
10 3
9 3
8 3
7 3
6 3
5 3
4 3
3 3
