210 59
209 60
208 60
207 60
206 60
205 60
204 60
203 60
202 60
201 60
200 60
199 60
198 60
197 61
196 61
195 61
194 61
193 61
192 61
191 61
190 61
189 61
188 61
187 61
186 61
185 61
184 62
183 62
182 62
181 62
180 62
179 62
178 62
177 63
176 63
175 63
174 63
173 63
172 63
171 64
170 64
169 64
168 64
167 64
166 65
165 65
164 65
163 65
162 65
161 66
160 66
159 66
158 67
157 67
156 67
155 67
154 68
153 68
152 68
151 69
150 69
149 70
148 70
147 70
146 71
145 72
144 72
143 73
142 73
141 73
140 74
139 74
138 75
137 76
136 76
135 77
134 77
133 78
132 79
131 79
130 80
129 80
128 81
127 82
126 83
125 83
125 84
124 85
123 85
122 86
121 86
120 87
119 87
118 88
117 89
116 90
115 90
114 91
113 92
112 93
111 94
110 94
109 95
108 96
107 97
106 98
105 99
104 100
103 100
102 101
101 102
100 103
99 104
98 105
97 106
96 107
95 107
94 108
93 109
92 110
91 111
90 112
89 113
89 114
88 115
87 116
86 117
85 118
84 119
83 120
82 121
81 122
81 123
80 124
79 125
78 126
77 127
77 128
76 129
75 130
74 131
74 132
73 133
73 134
72 135
72 136
71 137
70 138
70 139
70 140
69 141
69 142
68 143
68 144
68 145
67 146
67 147
67 148
67 149
67 150
67 151
66 152
66 153
66 154
66 155
66 156
66 157
66 158
66 159
66 160
67 161
67 162
67 163
68 164
68 165
68 166
69 167
69 168
70 169
70 170
70 171
71 172
71 173
72 174
72 175
73 176
73 177
74 178
75 179
75 180
76 181
76 182
77 183
78 184
78 185
79 186
80 187
80 188
81 189
82 190
82 191
83 192
84 193
84 194
85 195
86 196
86 197
87 198
88 199
89 200
89 201
90 202
91 203
92 204
92 205
93 206
93 207
94 207
95 208
95 209
96 210
97 211
98 212
99 213
99 214
100 214
101 215
101 216
102 217
103 218
104 219
105 220
106 221
107 222
108 223
109 224
110 224
111 225
112 226
113 227
113 228
114 228
115 229
116 230
117 231
118 232
119 233
120 234
121 235
122 236
123 237
124 238
125 239
126 240
127 241
128 242
129 243
130 244
131 245
132 245
133 246
134 247
135 248
136 249
137 250
138 250
139 251
140 252
141 253
142 254
143 254
144 255
145 256
146 256
147 257
148 257
149 258
150 259
151 259
152 260
153 260
154 261
155 261
156 262
157 262
158 263
159 263
160 263
161 264
162 264
163 265
164 265
165 266
166 266
167 266
168 267
169 267
170 267
171 268
172 268
173 268
174 269
175 269
176 269
177 270
178 270
179 270
180 271
181 271
182 271
183 271
184 271
185 272
186 272
187 272
188 272
189 272
190 272
191 273
192 273
193 273
194 273
195 273
196 274
197 274
198 274
199 274
200 274
201 274
202 275
203 275
204 275
205 275
206 275
207 275
208 275
209 275
210 275
211 275
212 276
213 276
214 276
215 276
216 276
217 276
218 276
219 276
220 276
221 276
222 276
223 276
224 276
225 276
226 276
227 276
228 276
229 276
230 277
231 277
232 277
233 277
234 277
235 277
236 277
237 277
238 277
239 277
240 277
241 277
242 277
243 277
244 277
245 277
246 277
247 277
248 277
249 277
250 277
251 277
252 277
253 277
254 277
255 277
256 277
257 277
258 277
259 277
260 277
261 277
262 277
263 277
264 277
265 277
266 277
267 276
268 276
269 276
270 276
271 276
272 276
273 276
274 276
275 276
276 276
277 276
278 276
279 276
280 276
281 276
282 276
283 276
284 276
285 276
286 276
287 275
288 275
289 275
290 275
291 275
292 275
293 275
294 275
295 274
296 274
297 274
298 274
299 274
300 274
301 274
302 273
303 273
304 273
305 273
306 273
307 273
308 272
309 272
310 272
311 272
312 272
313 272
314 271
315 271
316 271
317 271
318 271
319 271
320 270
321 270
322 270
323 270
324 270
325 270
326 269
327 269
328 269
329 269
330 269
331 269
332 269
333 268
334 268
335 268
336 268
337 268
338 268
339 268
340 268
341 267
342 267
343 267
344 267
345 267
346 267
347 266
348 266
349 266
350 266
351 266
352 266
353 266
354 265
355 265
356 265
357 265
358 265
359 265
360 265
361 265
362 264
363 264
364 264
365 264
366 264
367 264
368 263
369 263
370 263
371 263
372 263
373 263
374 262
375 262
376 262
377 262
378 262
379 262
380 261
381 261
382 261
383 261
384 261
385 261
386 260
387 260
388 260
389 260
390 260
391 260
392 260
393 259
394 259
395 259
396 259
397 259
398 259
399 259
400 259
401 258
402 258
403 258
404 258
405 258
406 258
407 257
408 257
409 257
410 257
411 257
412 257
413 256
414 256
415 256
416 256
417 256
418 256
419 255
420 255
421 255
422 255
423 255
424 254
425 254
426 254
427 254
428 253
429 253
430 253
431 253
432 253
433 253
434 252
435 252
436 252
437 252
438 251
439 251
440 251
441 251
442 251
443 250
444 250
445 250
446 250
447 249
448 249
449 249
450 249
451 249
452 248
453 248
454 248
455 248
456 248
457 247
458 247
459 247
460 247
461 247
462 246
463 246
464 246
465 246
466 246
467 245
468 245
469 245
470 245
471 245
472 244
473 244
474 244
475 244
476 244
477 243
478 243
479 243
480 243
481 242
482 242
483 242
484 241
485 241
486 241
487 241
488 240
489 240
490 240
491 240
492 239
493 239
494 239
495 239
496 238
497 238
498 238
499 238
500 237
501 237
502 237
503 236
504 236
505 236
506 235
507 235
508 235
509 235
510 234
511 234
512 234
513 233
514 233
515 233
516 233
517 232
518 232
519 232
520 232
521 231
522 231
523 231
524 230
525 230
526 230
527 229
528 229
529 229
530 229
531 228
532 228
533 228
534 228
535 227
536 227
537 226
538 226
539 226
540 225
541 225
542 225
543 224
544 224
545 224
546 223
547 223
548 223
549 222
550 222
551 222
552 221
553 221
554 221
555 220
556 220
557 220
558 219
559 219
560 219
561 218
562 218
563 218
564 217
565 217
566 217
567 216
568 216
569 216
570 216
571 215
572 215
573 214
574 214
575 213
576 213
577 213
578 213
579 213
580 212
581 212
582 212
583 212
584 211
585 211
586 211
587 210
588 210
589 210
590 210
591 209
592 209
593 209
594 208
595 208
596 208
597 208
598 207
599 207
600 207
601 206
602 206
603 206
604 206
605 205
606 205
607 205
608 205
609 204
610 204
611 204
612 203
613 203
614 203
615 203
616 202
617 202
618 202
619 201
620 201
621 201
622 201
623 200
624 200
625 200
626 200
627 199
628 199
629 199
630 198
631 198
632 198
633 197
634 197
635 197
636 197
637 196
638 196
639 196
640 196
641 195
642 195
643 195
644 195
645 194
646 194
647 194
648 194
649 193
650 193
651 193
652 193
653 193
654 192
655 192
656 192
657 192
658 191
659 191
660 191
661 191
662 191
663 190
664 190
665 190
666 190
667 189
668 189
669 189
670 189
671 188
672 188
673 188
674 188
675 187
676 187
677 187
678 187
679 187
680 186
681 186
682 186
683 186
684 186
685 186
686 185
687 185
688 185
689 185
690 185
691 185
692 185
693 185
694 185
695 185
696 185
697 185
698 185
699 185
700 185
701 185
702 185
703 185
704 185
705 185
706 185
707 185
708 185
709 185
710 185
711 185
712 185
713 185
714 185
715 185
716 185
717 186
718 186
719 186
720 186
721 186
722 186
723 186
724 186
725 186
726 187
727 187
728 187
729 187
730 187
731 187
732 187
733 187
734 187
735 188
736 188
737 188
738 188
739 188
740 188
741 188
742 188
743 188
744 189
745 189
746 189
747 189
748 189
749 189
750 189
751 189
752 189
753 189
754 190
755 190
756 190
757 190
758 190
759 190
760 190
761 190
762 190
763 190
764 190
765 190
766 190
767 190
768 191
769 190
770 190
771 189
772 189
773 188
774 187
775 187
776 187
776 186
776 185
776 184
776 183
777 182
777 181
777 180
778 179
778 178
778 177
778 176
778 175
778 174
777 175
776 175
775 175
774 175
773 175
772 175
771 175
770 175
769 175
768 175
767 175
766 175
765 175
764 175
763 175
762 175
761 175
760 175
759 175
758 175
757 175
756 175
755 174
754 174
753 174
752 174
751 174
750 174
749 174
748 174
747 174
746 173
745 173
744 173
743 173
742 173
741 173
740 173
739 173
738 173
737 173
736 172
735 172
734 172
733 172
732 172
731 172
730 172
729 172
728 171
727 171
726 171
725 171
724 171
723 171
722 171
721 171
720 170
719 170
718 170
717 170
716 170
715 170
714 170
713 169
712 169
711 169
710 169
709 169
708 169
707 168
706 168
705 168
704 168
703 168
702 167
701 167
700 167
699 167
698 166
697 166
696 166
695 166
694 165
693 165
692 164
691 164
690 164
689 163
688 163
687 163
686 162
685 162
684 162
683 162
682 161
681 161
680 161
679 160
678 160
677 160
676 159
675 159
674 159
673 159
672 158
671 158
670 158
669 157
668 157
667 157
666 157
665 156
664 156
663 156
662 155
661 155
660 155
659 155
658 154
657 154
656 154
655 154
654 154
653 154
652 153
651 153
650 153
649 152
648 152
647 152
646 152
645 151
644 151
643 151
642 151
641 151
640 150
639 150
638 150
637 149
636 149
635 149
634 149
633 149
632 149
631 149
630 148
629 148
628 148
627 148
626 147
625 147
624 147
623 147
622 146
621 146
620 146
619 146
618 146
617 145
616 145
615 145
614 145
613 145
612 145
611 144
610 144
609 144
608 143
607 143
606 143
605 143
604 142
603 142
602 142
601 142
600 142
599 142
598 141
597 141
596 141
595 140
594 140
593 140
592 139
591 139
590 139
589 139
588 139
587 138
586 138
585 138
584 138
583 138
582 137
581 137
580 137
579 137
578 136
577 136
576 136
575 136
574 136
573 136
572 135
571 135
570 135
569 135
568 134
567 134
566 133
565 133
564 134
563 133
562 133
561 133
560 132
559 132
558 131
557 131
556 131
555 131
554 130
553 130
552 130
551 129
550 129
549 129
548 129
547 128
546 128
545 128
544 128
543 128
542 127
541 126
540 126
539 126
538 125
537 125
536 125
535 125
534 125
533 125
532 124
531 124
530 123
529 123
528 122
527 122
526 122
525 122
524 121
523 121
522 120
521 120
520 120
519 121
518 120
517 119
516 119
515 119
514 119
513 119
512 118
511 117
510 117
509 117
508 117
507 117
506 117
505 116
504 116
503 115
502 115
501 114
500 114
499 114
498 114
497 113
496 113
495 112
494 112
493 112
492 112
491 111
490 111
489 111
488 111
487 111
486 110
485 109
484 109
483 109
482 109
481 108
480 108
479 107
478 108
477 107
476 107
475 107
474 106
473 107
472 107
471 106
470 105
469 105
468 105
467 104
466 104
465 104
464 104
463 104
462 103
461 103
460 102
459 102
458 102
457 102
456 102
455 101
454 101
453 101
452 101
451 100
450 100
449 99
448 99
447 99
446 98
445 98
444 98
443 98
442 98
441 97
440 97
439 97
438 96
437 96
436 96
435 96
434 95
433 95
432 95
431 95
430 94
429 94
428 94
427 93
426 93
425 93
424 93
423 93
422 93
421 92
420 91
419 91
418 91
417 91
416 90
415 90
414 90
413 90
412 89
411 89
410 89
409 89
408 89
407 88
406 88
405 87
404 87
403 87
402 87
401 87
400 86
399 86
398 86
397 86
396 86
395 86
394 85
393 86
392 85
391 84
390 84
389 84
388 84
387 83
386 83
385 83
384 83
383 83
382 82
381 82
380 82
379 82
378 81
377 81
376 81
375 81
374 81
373 81
372 80
371 80
370 80
369 80
368 79
367 79
366 79
365 78
364 78
363 78
362 78
361 78
360 78
359 78
358 77
357 77
356 77
355 77
354 76
353 76
352 76
351 76
350 75
349 75
348 75
347 75
346 75
345 75
344 74
343 74
342 74
341 74
340 74
339 73
338 73
337 73
336 73
335 73
334 73
333 72
332 72
331 72
330 72
329 72
328 71
327 71
326 71
325 71
324 71
323 70
322 70
321 70
320 70
319 70
318 70
317 70
316 70
315 70
314 69
313 69
312 69
311 69
310 69
309 69
308 68
307 68
306 68
305 68
304 68
303 68
302 68
301 68
300 68
299 68
298 67
297 67
296 67
295 67
294 66
293 66
292 66
291 66
290 66
289 66
288 66
287 66
286 65
285 65
284 65
283 65
282 65
281 65
280 65
279 65
278 65
277 64
276 64
275 64
274 64
273 64
272 64
271 64
270 64
269 63
268 63
267 63
266 63
265 63
264 63
263 63
262 63
261 63
260 63
259 62
258 62
257 62
256 62
255 62
254 62
253 62
252 62
251 62
250 62
249 62
248 61
247 61
246 61
245 61
244 61
243 61
242 61
241 61
240 61
239 61
238 61
237 60
236 60
235 60
234 60
233 60
232 60
231 60
230 60
229 60
228 60
227 60
226 60
225 59
224 59
223 59
222 59
221 59
220 59
219 59
218 59
217 59
216 59
215 59
214 59
213 59
212 59
211 60
210 59
