327 68
327 69
327 70
328 71
327 72
328 73
327 74
327 75
327 76
327 77
326 78
326 79
325 80
325 81
325 82
324 83
324 84
324 85
324 86
323 87
322 87
321 88
321 89
321 90
321 91
321 92
321 93
321 94
321 95
321 96
322 97
321 98
321 99
322 100
322 101
322 102
322 103
322 104
322 105
322 106
322 107
322 108
322 109
322 110
322 111
322 112
322 113
322 114
322 115
322 116
322 117
322 118
322 119
322 120
322 121
322 122
322 123
323 124
323 125
323 126
323 127
323 128
324 129
324 130
324 131
324 132
324 133
325 134
325 135
325 136
325 137
325 138
326 139
326 140
326 141
326 142
326 143
327 144
327 145
327 146
327 147
327 148
328 149
328 150
328 151
328 152
329 153
329 154
329 155
329 156
329 157
329 158
330 159
330 160
331 161
331 162
331 163
331 164
332 165
332 166
333 167
333 168
333 169
334 170
334 171
335 172
335 173
335 174
336 175
336 176
337 177
337 178
337 179
338 180
338 181
338 182
339 183
340 184
340 185
340 186
341 187
341 188
342 189
342 190
343 191
343 192
343 193
344 194
344 195
345 196
345 197
345 198
346 199
346 200
346 201
347 202
347 203
348 204
348 205
348 206
349 207
349 208
350 209
350 210
351 211
351 212
352 213
352 214
352 215
352 216
353 217
353 218
353 219
353 220
354 221
354 222
354 223
355 224
355 225
355 226
356 227
356 228
356 229
357 230
357 231
357 232
358 233
358 234
358 235
359 236
359 237
359 238
359 239
360 240
360 241
360 242
361 243
361 244
360 245
359 245
358 245
357 245
356 246
355 246
354 246
353 246
352 246
351 246
350 245
349 245
348 245
347 245
346 244
345 244
344 243
343 242
342 242
341 241
340 240
339 239
338 238
337 237
336 236
336 235
335 234
334 233
333 232
332 231
331 230
330 229
329 228
328 227
327 226
326 225
325 224
324 223
323 222
322 221
321 220
320 219
319 218
318 217
317 216
317 215
316 214
315 213
314 212
314 211
313 210
312 209
311 209
310 208
309 207
308 206
307 205
307 204
306 204
305 203
304 202
303 201
302 200
301 199
300 199
299 198
298 197
297 196
296 195
295 195
294 194
293 193
292 193
291 192
290 191
289 191
288 190
287 189
286 189
285 188
284 187
283 187
282 186
281 185
280 185
279 184
278 184
277 183
276 182
275 182
274 181
273 180
272 180
271 179
270 179
269 178
268 178
267 177
266 177
265 176
264 175
263 175
262 174
261 174
260 173
259 173
258 172
257 172
256 171
255 170
254 170
253 170
252 169
251 169
250 169
249 168
248 168
247 168
246 167
245 167
244 166
243 166
242 166
241 166
240 166
239 165
238 165
237 164
236 164
235 164
234 163
233 163
232 162
231 162
230 161
229 161
228 161
227 161
226 161
225 160
224 160
223 159
222 159
221 159
220 159
219 159
218 158
217 158
216 158
215 157
214 157
213 156
212 156
211 156
210 155
209 155
208 154
207 154
206 154
205 153
204 153
203 153
203 154
203 155
203 156
203 157
203 158
203 159
202 160
201 160
200 159
199 158
198 158
197 157
196 156
195 156
194 155
193 155
192 154
191 154
190 153
189 153
188 153
187 153
186 152
185 152
184 152
183 152
183 153
183 154
182 155
182 156
181 157
180 157
179 156
178 156
177 156
176 156
175 156
174 156
173 156
172 156
171 156
170 156
169 156
168 155
167 155
166 156
166 157
166 158
166 159
166 160
166 161
166 162
166 163
166 164
166 165
166 166
166 167
166 168
166 169
166 170
166 171
166 172
166 173
166 174
166 175
166 176
167 177
167 178
167 179
167 180
167 181
167 182
168 183
168 184
168 185
169 186
169 187
169 188
169 189
170 190
170 191
170 192
171 193
171 194
172 195
172 196
173 197
173 198
173 199
174 200
174 201
175 202
175 203
176 204
176 205
176 206
177 207
177 208
178 209
179 210
179 211
180 212
180 213
181 214
182 215
183 216
184 217
185 218
185 219
186 220
187 221
188 222
188 223
189 224
190 225
191 226
191 227
192 228
193 229
194 230
195 231
196 232
197 233
198 234
199 235
200 236
201 237
202 238
203 239
204 239
205 240
206 241
207 242
208 243
209 244
210 245
211 246
212 247
213 248
214 249
215 249
216 250
217 251
218 252
219 253
220 254
221 255
222 256
223 257
224 257
225 258
225 259
226 260
226 261
226 262
225 263
224 263
223 263
222 263
221 263
220 263
219 263
218 262
217 262
216 261
215 261
214 261
213 260
212 260
211 259
210 259
209 259
208 258
207 258
206 257
205 257
204 257
203 257
202 256
201 256
200 256
199 255
198 255
197 255
196 255
195 255
194 255
193 255
192 254
191 254
190 254
189 254
188 254
187 254
186 254
185 253
184 253
183 253
182 253
181 253
180 253
179 253
178 253
177 253
176 253
175 253
174 254
173 254
172 254
171 254
170 254
169 254
168 254
167 254
166 254
165 254
164 254
163 255
162 255
161 255
160 255
159 255
158 256
157 256
156 256
155 256
154 257
153 257
152 257
151 257
150 257
149 257
148 257
147 257
146 257
145 258
144 258
143 258
142 258
141 258
140 258
139 258
138 258
137 258
136 259
135 259
134 259
133 259
132 259
131 259
130 259
129 260
128 260
127 260
126 260
125 260
124 260
123 261
122 261
121 262
120 262
119 262
118 262
117 262
116 263
115 263
114 263
113 263
112 264
111 264
110 265
109 265
108 265
107 266
106 266
105 267
104 267
103 268
102 268
101 269
100 269
99 270
98 271
98 272
99 273
99 274
100 275
101 276
101 277
101 278
102 279
102 280
103 281
103 282
104 283
104 284
104 285
104 286
103 287
102 287
101 287
100 287
99 287
98 288
97 288
96 289
95 289
95 290
95 291
95 292
95 293
95 294
95 295
94 296
93 296
92 296
91 296
90 297
89 297
89 298
89 299
90 300
90 301
90 302
90 303
90 304
91 305
91 306
91 307
92 308
92 309
92 310
93 311
93 312
93 313
93 314
94 315
95 316
95 317
96 318
96 319
97 320
97 321
98 322
99 323
100 324
101 325
102 326
103 327
104 328
105 329
106 330
107 331
108 331
109 332
110 333
111 334
112 334
113 335
114 336
115 336
116 337
117 338
118 338
119 339
120 339
121 340
122 341
123 341
124 342
125 342
126 343
127 343
128 344
129 344
130 345
131 345
132 346
133 346
134 347
135 347
136 348
137 348
138 348
139 349
140 349
141 349
142 349
143 349
144 349
145 350
146 350
147 350
148 350
149 350
150 350
151 350
152 351
153 351
154 351
155 351
156 351
157 352
158 352
159 352
160 352
161 353
162 353
163 353
164 353
165 354
166 354
167 354
168 354
169 355
170 355
171 355
172 355
173 355
174 356
175 356
176 356
177 356
178 357
179 357
180 357
181 357
182 358
183 358
184 358
185 359
186 360
186 361
185 362
184 363
183 364
182 365
181 366
180 367
179 368
178 369
177 370
176 371
175 372
174 373
173 373
172 374
171 375
170 375
169 376
168 376
167 377
166 377
165 378
164 379
163 379
162 380
161 380
160 381
159 381
158 382
157 383
156 384
155 384
154 385
153 385
152 386
151 387
150 388
149 389
148 389
147 390
146 391
145 391
144 392
143 393
142 394
141 395
140 396
139 397
138 398
137 399
136 400
135 401
134 402
133 403
132 404
131 405
130 406
129 407
129 408
128 409
127 410
126 411
126 412
125 413
124 414
123 415
123 416
122 417
121 417
121 418
120 419
119 420
119 421
118 422
117 423
116 424
115 425
114 426
113 427
113 428
113 429
113 430
114 431
114 432
115 432
116 433
117 434
118 435
119 436
120 436
121 437
122 437
123 437
124 437
125 438
126 438
127 438
128 438
129 438
130 438
131 438
132 439
133 439
134 439
135 439
136 439
137 439
138 439
139 439
140 439
141 439
142 439
143 439
144 439
145 439
146 439
147 439
148 439
149 439
150 440
151 441
151 442
151 443
152 444
153 444
154 445
155 445
156 445
157 445
158 445
159 445
160 445
161 445
162 445
163 445
164 445
165 445
166 445
167 445
168 445
169 445
170 445
171 445
172 445
173 445
174 445
175 445
176 445
177 445
178 445
179 445
180 445
181 445
182 444
183 444
184 444
185 444
186 444
187 444
188 444
189 444
190 444
191 444
192 444
193 444
194 444
195 444
196 444
197 444
198 444
199 444
200 444
201 444
202 444
203 443
204 443
205 443
206 443
207 443
208 442
209 442
210 442
211 442
212 441
213 441
214 441
215 441
216 441
217 441
218 440
219 440
220 440
221 440
222 440
223 440
224 439
225 439
226 439
227 439
228 439
229 438
230 438
231 438
232 438
233 437
234 437
235 437
236 437
237 436
238 436
239 436
240 436
241 435
242 435
243 435
244 434
245 434
246 434
247 433
248 433
249 433
250 433
251 432
252 432
253 432
254 431
255 431
256 431
257 430
258 430
259 430
260 429
261 429
262 429
263 428
264 428
265 428
266 427
267 427
268 427
269 426
270 426
271 426
272 425
273 424
274 424
275 424
276 423
277 423
278 422
279 422
280 421
281 421
282 420
283 420
284 419
285 419
286 418
287 417
288 417
289 416
290 416
291 416
292 415
293 415
294 414
295 413
296 413
297 413
298 412
299 412
300 411
301 411
302 410
303 410
304 410
305 409
306 409
307 408
308 408
309 407
310 407
311 406
312 406
313 405
314 405
315 404
316 404
317 403
318 403
319 402
320 402
321 401
322 401
323 401
324 400
325 400
326 400
327 400
328 400
329 399
330 399
331 399
332 399
333 399
334 399
335 399
336 399
337 399
338 399
339 399
340 400
340 401
340 402
340 403
339 404
339 405
338 406
338 407
337 408
337 409
336 410
336 411
336 412
336 413
335 414
335 415
335 416
334 417
334 418
333 419
333 420
333 421
332 422
332 423
331 424
331 425
331 426
330 427
329 428
329 429
329 430
328 431
327 432
327 433
326 434
326 435
326 436
325 437
325 438
324 439
324 440
323 441
322 442
322 443
321 444
321 445
320 446
320 447
320 448
319 449
318 450
318 451
318 452
317 453
317 454
316 455
316 456
315 457
314 458
314 459
313 460
313 461
312 462
312 463
312 464
311 465
310 466
310 467
310 468
310 469
309 470
309 471
308 472
308 473
307 474
307 475
306 476
306 477
305 478
304 479
304 480
303 481
303 482
302 483
302 484
301 485
301 486
300 487
300 488
299 489
299 490
298 491
298 492
298 493
297 494
297 495
296 496
296 497
295 498
295 499
294 500
294 501
294 502
293 503
293 504
293 505
292 506
292 507
292 508
291 509
291 510
291 511
290 512
290 513
290 514
289 515
289 516
289 517
289 518
288 519
288 520
288 521
288 522
288 523
288 524
288 525
288 526
288 527
288 528
288 529
288 530
288 531
288 532
289 533
290 533
291 534
292 534
293 535
294 536
295 536
296 536
297 536
298 536
299 536
300 536
301 536
302 536
303 536
304 535
305 535
306 535
307 534
308 534
309 534
310 533
311 533
312 533
313 533
314 533
315 533
316 533
317 533
318 533
319 534
320 534
321 535
322 535
323 535
324 535
325 536
326 536
327 536
328 536
329 537
330 537
331 537
332 537
333 537
334 537
335 537
336 537
337 538
338 538
339 538
340 538
341 539
342 539
343 540
344 540
345 540
346 541
347 541
348 541
349 542
350 542
351 542
352 543
353 543
354 543
355 544
356 544
357 545
358 545
359 546
360 546
361 547
362 548
363 548
364 549
365 550
366 551
367 552
368 553
368 554
368 555
369 556
369 557
370 558
370 559
369 560
369 561
369 562
369 563
369 564
369 565
369 566
369 567
369 568
369 569
370 568
371 568
372 567
373 566
374 565
375 564
376 564
376 563
377 562
378 561
379 560
380 560
381 559
382 558
383 558
384 558
385 559
386 558
387 558
387 557
388 556
389 555
390 554
391 554
391 553
392 552
393 552
394 551
395 550
396 549
397 548
398 547
399 546
400 545
401 544
402 544
402 543
403 542
404 541
405 540
406 539
407 538
408 537
408 536
409 535
410 534
411 533
412 532
413 531
414 530
415 530
416 530
417 529
418 529
419 528
419 527
420 526
421 525
421 524
422 523
423 522
423 521
424 520
424 519
425 518
425 517
426 516
426 515
427 514
427 513
427 512
428 511
428 510
429 509
429 508
429 507
430 506
430 505
430 504
431 503
431 502
432 501
432 500
433 499
433 498
433 497
434 496
434 495
435 494
435 493
435 492
436 491
436 490
436 489
436 488
437 487
437 486
437 485
438 484
438 483
438 482
439 481
439 480
440 479
441 478
441 477
442 476
443 475
444 474
445 473
446 472
447 472
447 471
448 470
449 469
450 469
451 468
452 467
453 466
454 465
455 464
456 463
457 462
458 461
459 460
459 459
460 458
460 457
461 456
462 455
463 454
463 453
464 452
464 451
465 450
466 449
467 448
468 447
469 446
469 445
470 444
471 443
472 442
472 441
473 440
473 439
474 438
475 437
475 436
476 435
476 434
477 433
478 432
479 431
479 430
480 429
481 428
481 427
482 426
483 425
483 424
484 423
485 422
485 421
486 420
486 419
487 418
487 417
488 416
488 415
489 414
489 413
490 412
490 411
490 410
491 409
491 408
492 407
492 406
492 405
493 404
493 403
494 402
494 401
494 400
495 399
495 398
495 397
495 396
496 395
496 394
496 393
496 392
497 391
497 390
497 389
498 388
498 387
499 386
499 385
499 384
500 383
500 382
501 381
501 380
502 379
502 378
503 377
504 376
504 375
505 374
505 373
506 372
506 371
507 370
507 369
507 368
508 367
508 366
508 365
509 364
509 363
510 362
510 361
511 360
511 359
512 358
512 357
512 356
513 355
513 354
513 353
514 352
514 351
515 350
515 349
515 348
516 347
516 346
517 345
517 344
518 343
518 342
519 341
520 340
520 339
521 338
521 337
522 336
522 335
523 334
524 333
524 332
525 331
525 330
526 329
527 328
527 327
528 326
528 325
529 324
530 323
530 322
531 321
532 320
533 319
534 318
534 317
535 316
536 315
537 314
538 314
538 313
539 312
540 311
541 311
542 310
543 309
544 308
544 307
545 306
546 306
547 305
548 304
549 304
550 304
551 304
552 303
553 302
554 302
555 302
556 302
557 301
558 301
559 301
560 300
561 300
562 300
563 300
564 300
565 300
566 299
567 299
568 299
569 299
570 299
571 299
572 298
573 298
574 298
575 298
576 298
577 298
578 297
579 297
580 297
581 297
582 296
583 296
584 296
585 296
586 295
587 295
588 295
589 295
590 295
591 294
592 294
593 294
594 294
595 294
596 294
597 293
598 293
599 293
600 293
601 293
602 293
603 293
604 292
605 292
606 292
607 292
608 292
609 292
610 292
611 291
612 291
613 291
614 291
615 291
616 291
617 290
618 290
619 290
620 290
621 290
622 290
623 289
624 289
625 289
626 289
627 289
628 288
629 288
630 288
631 288
632 288
633 288
634 288
635 288
636 288
637 287
638 287
639 287
640 287
641 287
642 287
643 287
644 287
645 287
646 287
647 287
648 287
649 286
650 286
651 286
652 286
653 286
654 286
655 286
656 286
657 286
658 286
659 285
660 285
661 285
662 285
663 285
664 285
665 285
666 285
667 285
668 285
669 285
670 285
671 285
672 285
673 285
674 285
675 285
676 285
677 285
678 285
679 285
680 285
681 285
682 285
683 285
684 284
685 284
686 284
687 284
688 284
689 284
690 283
691 283
692 283
693 283
694 282
695 282
696 281
697 280
697 279
697 278
698 277
697 276
697 275
697 274
696 273
695 272
695 271
695 270
695 269
695 268
695 267
695 266
694 265
693 265
692 266
691 266
690 267
689 268
688 269
687 269
686 269
685 270
684 270
683 270
682 270
681 271
680 271
679 271
678 272
677 272
676 271
675 271
674 272
673 272
672 272
671 272
670 272
669 272
668 272
667 272
666 273
665 273
664 273
663 273
662 273
661 273
660 273
659 273
658 273
657 273
656 273
655 274
654 274
653 274
652 274
651 275
650 275
649 275
648 275
647 275
646 275
645 275
644 275
643 276
642 276
641 276
640 276
639 276
638 276
637 277
636 277
635 277
634 277
633 277
632 277
631 277
630 277
629 277
628 277
627 277
626 277
625 277
624 278
623 278
622 278
621 278
620 278
619 279
618 279
617 279
616 279
615 279
614 280
613 280
612 280
611 280
610 280
609 280
608 280
607 281
606 281
605 281
604 281
603 281
602 281
601 282
600 282
599 282
598 282
597 282
596 282
595 282
594 283
593 283
592 283
591 283
590 283
589 283
588 283
587 284
586 284
585 284
584 284
583 284
582 284
581 284
580 285
579 285
578 285
577 285
576 285
575 285
574 285
573 285
572 285
571 285
570 286
569 286
568 286
567 286
566 286
565 286
564 287
563 287
562 287
561 287
560 287
559 287
558 287
557 287
556 287
555 287
554 288
553 288
552 288
551 288
550 288
549 288
548 288
547 288
546 288
545 288
544 288
543 288
542 288
541 287
540 288
539 288
538 287
537 287
536 287
535 287
534 287
533 287
532 287
531 287
530 286
529 286
528 286
527 286
526 286
525 286
524 286
523 286
522 286
521 285
520 285
519 285
518 285
517 285
516 285
515 285
514 285
513 284
512 284
511 284
510 284
509 283
508 283
507 283
506 283
505 282
504 282
503 281
502 281
501 281
500 280
499 280
498 279
497 279
496 278
495 278
494 278
493 277
492 276
491 276
490 275
489 274
488 273
487 272
486 271
485 270
484 269
483 269
482 268
481 268
480 268
479 267
478 266
477 265
476 264
475 263
474 263
473 263
472 262
471 261
470 261
469 260
468 259
468 258
467 257
466 256
465 255
465 254
465 253
465 252
464 251
464 250
463 249
463 248
462 247
462 246
461 245
461 244
460 243
459 242
459 241
459 240
458 239
458 238
457 237
457 236
456 235
456 234
455 233
455 232
454 231
454 230
454 229
453 228
453 227
452 226
452 225
451 224
450 223
450 222
449 221
449 220
448 219
448 218
447 217
447 216
446 215
446 214
445 213
444 212
444 211
444 210
443 209
442 208
441 207
441 206
440 205
440 204
439 203
438 202
438 201
437 200
437 199
436 198
435 197
435 196
435 195
434 194
434 193
433 192
432 191
432 190
432 189
431 188
431 187
430 186
429 185
429 184
428 183
428 182
427 181
427 180
426 179
426 178
425 177
425 176
424 175
424 174
423 173
423 172
422 171
422 170
421 169
421 168
420 167
419 166
419 165
418 164
417 163
417 162
416 161
416 160
415 159
415 158
415 157
414 156
414 155
413 154
413 153
412 152
412 151
412 150
411 149
411 148
410 147
410 146
410 145
409 144
409 143
408 142
407 141
407 140
406 140
405 141
404 140
403 139
402 138
402 137
401 136
401 135
400 134
400 133
399 132
399 131
398 130
398 129
397 128
397 127
397 126
396 125
396 124
396 123
396 122
395 121
394 120
393 120
392 119
392 118
391 117
391 116
391 115
390 114
389 113
389 112
388 111
388 110
387 109
387 108
386 107
386 106
385 105
385 104
384 103
384 102
384 101
383 100
383 99
383 98
382 97
382 96
382 95
381 94
381 93
380 92
379 91
378 91
378 92
378 93
377 94
377 95
376 96
375 96
374 95
374 94
373 93
373 92
372 91
371 90
371 89
370 88
370 87
369 86
368 85
368 84
367 83
366 82
365 81
364 80
363 79
362 78
361 77
360 77
359 76
358 75
357 75
356 74
355 73
354 73
354 74
354 75
354 76
354 77
354 78
353 79
353 80
353 81
352 82
351 83
351 84
350 85
349 84
348 83
347 82
346 81
345 80
344 79
344 78
343 77
342 77
341 76
341 75
340 75
339 74
338 74
337 73
336 73
335 72
334 72
333 71
332 71
331 70
330 69
329 68
328 68
327 68
