215 1
216 1
217 2
218 3
219 4
219 5
219 6
220 7
221 7
222 8
222 9
223 9
224 10
225 11
224 12
224 13
225 14
225 15
226 16
227 16
228 16
229 17
229 18
230 19
230 20
229 21
230 22
230 23
231 24
232 25
232 26
233 27
233 28
232 29
232 30
232 31
233 32
234 33
234 34
234 35
233 36
232 36
231 36
230 37
231 38
231 39
232 40
233 41
233 42
233 43
233 44
233 45
233 46
232 47
231 47
230 47
229 46
228 46
227 46
226 47
226 48
227 49
227 50
228 51
229 52
229 53
230 54
230 55
229 56
228 56
227 56
226 56
225 56
224 56
223 55
222 55
221 55
220 55
219 55
219 56
220 57
220 58
220 59
221 60
222 61
222 62
223 63
224 63
225 64
224 65
224 66
224 67
224 68
225 69
224 70
223 70
222 70
221 69
220 69
219 69
218 69
217 69
216 68
215 68
214 67
213 67
212 67
212 68
212 69
212 70
212 71
212 72
213 73
213 74
213 75
214 76
215 76
216 77
217 78
217 79
217 80
218 81
219 81
220 82
219 83
218 84
218 85
219 86
219 87
219 88
218 89
217 89
216 90
215 90
214 89
213 89
212 89
211 90
210 90
209 90
208 90
207 90
206 91
207 92
207 93
208 94
208 95
208 96
209 96
210 97
211 98
211 99
212 100
213 100
214 100
215 101
216 102
216 103
217 104
218 104
219 104
220 105
220 106
220 107
221 108
222 109
223 109
224 110
223 111
222 112
223 113
224 114
224 115
223 116
222 116
222 117
222 118
222 119
223 120
223 121
224 122
225 123
226 124
226 125
226 126
226 127
226 128
227 129
227 130
226 131
225 131
224 131
223 130
222 130
221 130
220 130
221 131
222 132
223 133
224 133
225 134
226 135
227 135
228 136
229 137
230 137
231 138
232 139
233 139
234 140
235 141
236 142
236 143
235 144
236 145
237 145
238 145
239 145
240 146
240 147
240 148
241 149
242 150
242 151
241 152
241 153
241 154
242 155
243 155
244 156
245 157
245 158
245 159
246 159
247 160
248 161
247 162
246 162
245 162
244 162
243 162
243 163
244 164
245 164
246 165
247 165
248 166
249 166
250 167
251 167
252 167
253 168
254 168
255 169
256 169
257 170
258 170
259 171
260 171
261 171
262 172
263 172
264 173
265 173
266 174
267 174
268 175
269 175
270 176
271 176
272 177
273 178
274 178
275 179
276 180
277 180
278 181
279 182
280 182
281 183
282 184
283 184
284 185
285 186
286 187
286 188
287 188
288 189
289 189
290 190
291 190
292 191
293 191
294 192
295 192
296 193
297 193
298 194
299 195
300 195
301 196
302 196
303 197
304 197
305 198
306 198
307 198
308 199
309 199
310 200
311 200
312 201
313 201
314 202
315 202
316 203
317 203
318 204
319 204
320 205
321 205
322 205
323 206
324 206
325 207
326 208
327 209
326 210
325 210
324 211
323 211
322 211
321 210
320 209
319 208
318 208
317 207
316 207
315 207
314 207
313 208
312 209
311 208
310 207
309 206
308 205
307 205
306 204
305 203
304 203
303 203
303 204
302 205
301 206
300 206
299 205
298 205
297 205
296 205
295 204
294 204
293 204
292 203
291 203
290 203
289 203
288 202
287 202
286 202
285 201
284 201
283 201
282 200
281 200
280 200
279 199
278 199
277 199
276 198
275 198
274 198
273 197
272 196
271 195
270 194
270 193
269 192
268 191
267 191
266 190
265 190
264 191
264 192
263 193
262 193
261 192
260 192
259 191
258 191
257 190
256 190
255 190
254 191
253 192
252 192
251 191
250 190
249 189
248 189
247 188
246 188
245 188
244 189
243 190
242 190
241 189
240 189
239 189
238 189
237 189
236 189
235 189
234 188
233 188
232 188
231 188
230 188
229 187
228 187
227 187
226 187
225 187
224 187
223 187
222 186
221 186
220 186
219 185
218 185
217 185
216 185
215 185
214 184
213 184
212 184
211 184
210 183
209 183
208 183
207 183
206 184
206 185
205 186
204 186
203 185
202 185
201 185
200 185
199 185
198 185
197 185
196 185
195 184
194 184
193 184
192 185
191 186
192 187
192 188
192 189
191 190
190 189
189 189
188 188
187 188
186 188
185 188
184 188
183 188
183 189
182 190
181 190
180 189
179 189
178 189
177 188
176 188
175 188
175 189
175 190
174 191
173 192
172 192
171 192
170 192
169 192
168 193
167 193
166 193
165 193
164 193
163 194
162 194
161 194
160 194
159 194
158 195
157 195
156 195
155 195
154 195
153 195
152 195
151 194
150 194
149 195
148 195
148 196
147 197
146 197
145 196
144 196
143 196
142 197
141 197
140 197
139 197
138 197
137 197
136 198
136 199
136 200
137 201
138 202
138 203
137 204
136 203
135 203
134 203
133 204
132 204
131 204
130 205
131 206
131 207
130 208
129 207
128 207
127 206
126 206
125 206
124 206
123 206
122 207
121 207
120 207
119 207
118 206
117 206
116 206
115 207
114 207
113 207
112 206
111 207
110 207
109 207
108 208
107 209
107 210
108 211
109 211
110 212
111 213
112 213
113 214
114 215
114 216
113 217
112 218
111 217
110 217
109 217
108 217
107 218
107 219
108 220
108 221
107 222
106 222
105 222
104 222
103 223
102 223
101 224
101 225
101 226
102 227
103 228
104 228
105 229
106 229
107 230
106 231
105 231
104 231
103 232
102 232
102 233
101 234
100 234
99 233
98 233
97 233
96 234
95 235
94 235
93 235
92 235
91 235
90 236
89 236
88 236
87 236
86 237
85 238
84 238
84 239
84 240
85 241
86 242
87 242
88 243
89 243
90 244
91 244
92 245
93 245
94 246
95 247
95 248
94 249
94 250
94 251
93 252
92 252
91 252
90 252
89 253
88 253
87 253
86 253
85 254
84 255
83 256
82 256
82 257
81 258
80 259
81 260
82 260
83 261
84 261
85 261
86 262
87 262
88 262
89 262
90 263
91 264
91 265
90 266
89 266
88 267
87 268
86 268
85 268
84 269
83 269
83 270
82 271
83 272
84 272
85 273
86 274
85 275
84 276
83 276
82 277
81 278
81 279
81 280
82 280
83 281
84 282
83 283
82 283
81 283
80 283
80 284
80 285
81 286
82 286
83 287
84 288
85 289
86 290
85 291
84 291
83 290
82 290
81 290
80 291
79 292
78 293
77 293
76 293
75 294
74 294
74 295
74 296
73 297
72 297
71 298
70 298
69 298
68 298
67 299
67 300
67 301
67 302
66 303
65 303
64 303
63 302
62 302
61 302
60 302
59 302
58 302
58 303
58 304
57 305
56 305
55 305
54 305
53 305
52 305
51 305
50 306
49 307
48 307
47 307
46 307
45 307
44 307
43 307
42 307
41 307
40 308
39 308
38 308
37 308
36 308
35 309
34 309
33 309
32 309
31 309
30 309
29 310
28 310
27 311
26 311
25 312
24 313
25 314
26 314
27 314
28 314
29 315
30 315
31 315
32 315
33 315
34 315
35 315
36 315
37 315
38 316
39 315
40 315
41 315
42 315
43 315
44 316
45 316
46 316
47 316
48 316
49 316
50 315
51 315
52 315
53 315
54 316
55 317
56 317
57 317
58 317
59 316
60 316
61 316
62 316
63 315
64 315
65 316
65 317
65 318
66 318
67 319
68 319
69 318
70 318
71 318
72 318
73 318
74 318
75 318
76 319
77 320
76 321
75 322
75 323
76 323
77 324
78 324
79 324
80 324
81 324
82 325
82 326
82 327
83 327
84 328
85 328
86 328
87 329
88 329
89 330
88 331
87 332
87 333
87 334
88 334
89 335
89 336
88 337
88 338
88 339
89 340
90 340
91 340
92 341
93 341
94 341
95 341
96 342
97 343
97 344
96 345
95 346
94 346
93 346
92 346
91 347
90 347
89 348
88 348
88 349
88 350
89 351
90 352
91 352
92 353
93 353
94 353
95 353
96 354
97 354
98 354
99 354
100 355
100 356
101 356
102 357
102 358
102 359
101 360
100 361
99 362
99 363
98 364
97 365
96 366
95 366
94 367
94 368
94 369
95 370
96 370
97 371
98 371
99 372
100 372
101 373
102 372
103 372
104 372
105 372
106 373
107 373
108 373
109 372
110 372
111 371
112 371
113 372
113 373
114 374
115 374
116 374
117 375
118 375
119 375
120 376
119 377
118 378
118 379
117 380
116 380
116 381
115 382
115 383
115 384
116 385
117 385
118 386
119 386
120 386
121 387
122 386
123 387
123 388
122 389
121 390
120 391
120 392
120 393
121 394
122 394
123 394
124 394
125 394
126 394
127 394
128 394
129 394
130 394
131 393
132 393
133 393
134 393
135 393
136 393
137 393
137 392
138 391
139 390
140 391
140 392
140 393
141 393
142 393
143 393
144 393
145 393
146 394
146 395
146 396
145 397
145 398
145 399
146 400
147 400
148 400
149 400
150 400
151 400
152 400
153 400
154 400
155 399
156 399
157 399
158 400
159 401
160 401
161 401
162 401
163 400
164 400
165 401
165 402
164 403
164 404
164 405
164 406
165 407
166 407
167 407
168 407
169 407
170 407
171 406
172 406
173 406
174 406
175 406
176 405
177 405
178 404
179 404
180 404
181 404
182 404
183 403
184 402
185 401
186 402
187 403
188 403
189 402
190 402
191 401
192 400
193 399
194 400
195 401
195 402
196 402
197 402
198 402
199 402
200 401
201 401
202 401
203 401
204 401
205 401
206 402
206 403
206 404
207 405
208 405
209 405
210 405
211 405
212 404
213 404
214 403
215 404
216 404
217 404
218 403
219 403
220 403
221 404
221 405
222 406
223 406
224 406
225 406
226 405
227 405
228 404
229 404
230 403
231 402
232 403
233 402
234 402
234 401
235 400
236 400
237 401
238 401
239 400
240 400
241 399
242 398
243 399
244 400
245 400
246 399
247 399
248 399
249 398
250 398
251 397
252 397
253 396
254 395
255 394
256 395
257 396
258 396
259 396
260 396
261 395
262 395
263 394
264 393
265 393
266 392
267 392
268 392
269 392
270 392
271 391
272 390
272 389
273 388
274 387
275 387
276 387
277 386
278 386
279 387
280 388
280 389
279 390
278 390
277 390
276 391
275 391
274 392
273 392
272 393
272 394
272 395
272 396
271 397
270 398
269 398
268 398
267 398
266 399
265 399
265 400
265 401
264 402
263 403
262 403
261 403
260 403
259 403
258 403
257 404
256 404
256 405
256 406
255 407
254 407
253 407
252 407
251 407
250 407
249 408
248 409
247 409
246 409
245 409
244 409
243 409
242 410
241 411
240 411
239 411
238 411
237 412
236 412
235 413
234 413
233 414
232 414
231 415
231 416
232 417
233 418
234 419
234 420
233 421
232 421
231 421
230 422
229 423
230 424
229 425
228 426
227 426
226 426
225 426
224 427
223 427
222 428
221 429
220 429
220 430
219 431
220 432
221 433
222 433
223 434
222 435
221 436
220 436
219 437
218 438
217 438
216 439
216 440
216 441
216 442
217 442
218 443
218 444
217 445
216 445
215 445
214 445
213 445
212 446
212 447
212 448
211 449
210 449
209 450
208 450
207 450
206 450
205 451
205 452
204 453
203 453
202 453
201 454
200 455
199 456
198 456
197 457
196 458
195 459
194 460
194 461
194 462
195 462
196 463
197 463
198 463
199 463
200 464
201 465
200 466
200 467
199 468
198 469
198 470
198 471
197 472
197 473
198 474
198 475
199 476
198 477
198 478
199 479
199 480
199 481
198 482
197 482
196 483
195 483
195 484
194 485
193 486
192 487
191 488
190 489
189 490
188 491
188 492
188 493
188 494
188 495
189 495
190 495
191 495
192 495
193 495
194 495
195 496
195 497
195 498
195 499
195 500
195 501
196 501
197 501
198 500
199 499
200 499
201 498
202 498
203 498
204 498
205 499
206 499
207 500
207 501
208 502
208 503
209 504
209 505
208 506
208 507
207 508
206 509
206 510
205 511
205 512
204 513
204 514
203 515
202 516
201 516
200 516
199 516
198 516
197 517
197 518
198 519
198 520
197 521
196 522
196 523
196 524
195 525
194 526
194 527
194 528
194 529
194 530
194 531
194 532
195 533
196 532
197 532
198 533
199 534
199 535
199 536
199 537
199 538
199 539
198 540
198 541
197 542
197 543
196 544
197 545
198 545
199 545
200 545
201 544
202 544
203 544
204 543
205 543
206 543
207 543
208 544
208 545
208 546
208 547
208 548
208 549
207 550
206 551
206 552
206 553
206 554
206 555
206 556
207 556
208 556
209 556
210 556
211 556
212 557
211 558
211 559
211 560
210 561
209 562
209 563
209 564
210 565
211 565
212 565
213 564
214 565
214 566
214 567
214 568
214 569
213 570
213 571
214 572
214 573
215 573
216 573
217 573
218 574
218 575
217 576
217 577
217 578
217 579
218 580
218 581
217 582
216 583
215 584
215 585
214 586
214 587
214 588
215 589
216 590
215 591
215 592
214 593
213 594
213 595
212 596
212 597
212 598
213 599
213 600
214 601
214 602
213 603
213 604
212 605
212 606
213 607
213 608
213 609
213 610
213 611
213 612
213 613
213 614
213 615
213 616
214 616
215 616
216 616
217 616
218 616
219 616
220 615
220 614
220 613
220 612
220 611
220 610
220 609
221 608
222 608
222 607
223 606
223 605
223 604
223 603
223 602
224 601
225 601
226 601
226 600
227 599
227 598
227 597
227 596
227 595
228 594
229 594
230 595
230 594
231 593
232 592
232 591
232 590
233 589
234 589
235 589
236 589
237 589
238 589
239 588
240 587
241 586
242 586
243 585
244 586
245 587
246 587
247 586
248 586
249 587
249 588
250 588
251 588
252 588
253 588
254 587
255 587
256 588
257 587
258 587
259 587
260 586
261 586
262 586
263 587
263 588
263 589
264 590
265 591
264 592
264 593
263 594
262 595
262 596
262 597
261 598
262 599
262 600
263 600
264 600
265 600
266 599
267 599
268 598
269 597
270 597
271 596
272 596
272 595
273 594
274 595
275 596
276 596
277 596
278 596
279 597
279 598
278 599
277 600
277 601
277 602
277 603
276 604
276 605
276 606
276 607
276 608
277 609
278 609
279 609
280 609
281 609
282 608
283 607
284 606
285 606
286 605
287 605
288 604
288 603
289 602
290 601
291 600
292 600
293 600
294 600
295 601
295 602
295 603
296 603
297 604
298 604
299 603
300 603
301 603
302 603
303 604
304 605
304 606
304 607
304 608
304 609
304 610
304 611
305 612
305 613
305 614
305 615
306 616
307 616
308 616
309 616
310 616
311 615
312 614
313 614
313 613
314 612
314 611
315 610
316 610
317 609
317 608
318 607
318 606
319 605
320 605
321 604
321 603
322 602
322 601
323 600
324 600
325 601
326 601
327 600
328 601
328 602
328 603
329 604
330 605
331 605
332 604
333 604
334 603
335 603
336 603
337 602
338 602
339 602
340 603
340 604
340 605
341 606
341 607
341 608
341 609
342 610
343 611
344 611
345 611
346 610
347 609
348 609
348 608
349 607
350 607
351 606
351 605
352 604
352 603
353 602
354 602
355 601
355 600
356 599
356 598
356 597
357 596
358 595
359 595
359 594
359 593
359 592
359 591
360 590
360 589
361 588
362 588
363 588
364 588
365 587
365 586
366 585
367 584
368 583
369 584
370 584
371 584
372 583
373 582
374 582
375 581
376 580
377 579
378 578
379 578
380 579
381 579
382 579
383 579
383 578
384 577
384 576
384 575
385 574
386 573
387 572
388 571
388 570
388 569
389 568
389 567
389 566
390 565
390 564
390 563
391 562
391 561
392 560
392 559
393 558
393 557
394 556
395 555
395 554
396 553
396 552
397 551
397 550
398 549
399 548
400 547
400 546
401 545
402 544
403 544
404 545
405 545
406 544
406 543
406 542
406 541
407 540
407 539
407 538
407 537
408 536
408 535
409 534
410 534
411 535
412 534
413 534
413 533
414 532
414 531
414 530
415 529
415 528
415 527
415 526
415 525
415 524
416 523
417 523
418 524
419 523
420 523
420 522
420 521
420 520
420 519
421 518
421 517
422 516
422 515
422 514
423 513
423 512
423 511
423 510
424 509
424 508
425 507
425 506
425 505
426 504
426 503
427 502
427 501
428 500
428 499
428 498
429 497
429 496
430 495
431 495
432 494
432 493
432 492
432 491
432 490
431 489
431 488
432 487
433 487
434 486
434 485
434 484
434 483
434 482
434 481
434 480
434 479
434 478
435 477
436 477
437 477
437 476
438 475
438 474
438 473
438 472
438 471
438 470
439 469
440 469
441 469
442 469
443 468
443 467
443 466
443 465
444 464
444 463
444 462
445 461
446 460
447 459
447 458
448 457
448 456
449 455
449 454
449 453
449 452
450 451
450 450
450 449
450 448
450 447
450 446
451 445
452 444
452 443
452 442
452 441
453 440
453 439
454 438
454 437
454 436
454 435
454 434
454 433
455 432
455 431
456 430
457 430
458 429
458 428
458 427
458 426
458 425
458 424
458 423
458 422
458 421
459 420
460 419
461 419
461 418
461 417
462 416
463 415
464 416
465 417
464 418
464 419
463 420
463 421
462 422
462 423
462 424
462 425
462 426
462 427
462 428
461 429
461 430
461 431
461 432
461 433
460 434
460 435
460 436
460 437
460 438
461 439
461 440
462 440
463 441
463 442
462 443
462 444
461 445
461 446
461 447
462 448
462 449
462 450
461 451
461 452
462 453
462 454
462 455
462 456
461 457
461 458
461 459
461 460
462 461
463 461
464 461
465 462
465 463
464 464
464 465
464 466
463 467
463 468
462 469
463 470
464 471
464 472
464 473
463 474
463 475
462 476
462 477
463 478
463 479
463 480
462 481
462 482
461 483
461 484
462 485
461 486
461 487
461 488
461 489
461 490
461 491
461 492
461 493
461 494
461 495
462 496
463 495
464 495
465 495
466 496
466 497
466 498
466 499
466 500
466 501
466 502
466 503
466 504
467 505
468 506
469 507
469 508
468 509
468 510
468 511
468 512
467 513
467 514
467 515
468 516
469 517
469 518
469 519
468 520
468 521
468 522
468 523
468 524
468 525
468 526
468 527
468 528
468 529
468 530
468 531
468 532
468 533
468 534
467 535
467 536
468 537
468 538
468 539
468 540
468 541
468 542
468 543
468 544
469 545
469 546
470 547
470 548
471 548
472 547
473 547
474 548
475 549
475 550
475 551
476 552
477 553
478 553
479 552
480 552
481 553
480 554
480 555
480 556
480 557
480 558
481 559
482 560
482 561
482 562
482 563
481 564
482 565
482 566
482 567
482 568
482 569
482 570
483 571
483 572
483 573
484 574
484 575
485 575
486 576
487 575
488 574
489 574
490 573
491 572
492 571
493 572
494 573
495 574
496 574
497 575
498 575
499 576
499 577
499 578
500 579
500 580
501 581
501 582
501 583
502 584
502 585
503 586
504 587
505 587
506 587
507 587
507 586
508 585
509 584
510 584
511 585
512 586
513 587
513 588
513 589
513 590
513 591
514 592
514 593
515 594
516 595
517 596
518 595
519 594
519 593
520 592
520 591
521 590
522 590
523 591
523 592
524 593
525 593
526 592
527 592
528 593
528 594
528 595
528 596
529 597
529 598
530 599
530 600
531 600
532 600
533 600
534 601
535 601
536 601
537 602
537 603
537 604
537 605
538 606
538 607
539 607
540 608
541 609
541 610
541 611
542 612
543 613
544 613
545 613
546 614
546 615
546 616
547 616
548 616
549 616
550 616
551 616
552 616
553 616
554 616
555 616
556 616
557 616
558 616
559 616
560 616
561 616
562 616
563 616
563 615
562 614
563 613
564 612
564 611
564 610
563 609
563 608
562 607
562 606
563 605
564 605
565 606
566 606
567 605
567 604
567 603
567 602
568 601
567 600
567 599
568 598
569 597
570 596
571 596
571 595
571 594
571 593
572 592
572 591
573 590
574 590
575 591
576 592
577 591
577 590
578 589
578 588
578 587
579 586
578 585
578 584
579 583
580 583
581 582
582 583
583 584
584 585
585 585
586 585
587 584
587 583
587 582
587 581
587 580
587 579
588 578
588 577
589 576
590 576
591 575
592 574
593 575
594 576
594 577
595 578
596 579
597 579
598 578
599 578
599 577
600 576
600 575
600 574
601 573
601 572
601 571
601 570
600 569
601 568
602 567
602 566
602 565
601 564
601 563
602 562
603 562
604 562
604 561
604 560
605 559
606 558
607 558
608 559
609 560
610 560
611 561
612 561
613 560
613 559
614 558
614 557
614 556
614 555
614 554
614 553
614 552
614 551
614 550
613 549
613 548
613 547
613 546
614 545
614 544
613 543
612 542
612 541
613 540
614 540
615 540
616 540
616 539
617 538
617 537
617 536
617 535
617 534
617 533
618 532
619 533
620 534
621 534
622 535
623 535
624 536
625 536
626 536
627 535
627 534
627 533
627 532
627 531
627 530
627 529
627 528
627 527
626 526
626 525
625 524
625 523
626 522
626 521
626 520
625 519
625 518
624 517
624 516
625 515
626 515
626 514
627 513
626 512
626 511
626 510
626 509
627 508
628 508
629 509
630 509
631 509
632 509
633 508
633 507
633 506
632 505
632 504
632 503
632 502
632 501
631 500
631 499
630 498
629 497
630 496
630 495
630 494
629 493
628 492
627 491
626 490
627 489
628 489
629 488
629 487
629 486
628 485
628 484
628 483
628 482
629 481
630 481
631 481
632 481
632 480
632 479
632 478
632 477
632 476
631 475
632 474
632 473
631 472
631 471
630 470
629 469
630 468
631 468
631 467
631 466
631 465
630 464
629 463
629 462
628 461
628 460
628 459
628 458
628 457
627 456
627 455
626 454
626 453
626 452
627 451
627 450
626 449
626 448
625 447
624 446
623 445
623 444
624 443
625 442
625 441
625 440
624 439
624 438
623 437
622 436
621 435
621 434
622 433
623 432
623 431
623 430
622 429
622 428
621 427
620 426
619 425
618 424
619 423
619 422
619 421
619 420
618 419
618 418
617 417
616 416
616 415
616 414
615 413
615 412
614 411
613 410
614 409
614 408
613 407
612 406
611 405
610 404
609 403
609 402
610 401
610 400
609 399
609 398
608 398
607 397
606 396
605 396
604 395
604 394
605 393
605 392
605 391
605 390
604 389
604 388
603 387
602 386
601 385
600 384
599 384
598 383
597 382
596 381
596 380
596 379
596 378
596 377
595 376
594 375
594 374
593 373
592 372
591 371
591 370
590 370
589 369
589 368
588 367
588 366
587 365
586 364
585 364
584 363
584 362
584 361
583 360
583 359
582 358
581 357
580 357
579 356
578 356
577 355
577 354
577 353
577 352
576 351
576 350
575 350
574 349
573 348
572 347
571 346
570 346
569 345
568 344
568 343
567 342
566 342
565 341
564 340
563 340
562 339
561 338
560 337
559 336
558 336
557 335
557 334
557 333
556 332
555 331
554 331
553 330
552 330
551 329
551 328
551 327
550 326
549 325
549 324
548 324
547 323
546 322
545 321
544 321
543 320
542 319
541 319
540 318
539 317
538 316
538 315
537 314
536 314
535 313
534 312
533 311
532 310
531 309
531 308
530 307
529 306
528 305
527 304
527 303
526 302
525 301
524 300
523 299
522 298
522 297
521 296
521 295
520 294
520 293
520 292
519 291
519 290
518 289
517 288
516 287
516 286
517 285
518 285
519 284
520 284
521 283
522 283
523 282
524 282
525 282
526 282
527 282
528 282
529 281
530 281
531 281
532 281
533 280
534 280
535 280
536 280
537 279
538 279
539 279
540 278
541 278
542 277
543 277
544 277
545 277
546 277
547 277
548 276
549 276
550 276
551 275
552 275
553 274
554 274
555 274
556 274
557 273
558 273
559 273
560 272
561 272
562 271
563 271
564 271
565 271
566 270
567 270
568 270
569 270
570 269
571 269
572 269
573 268
574 268
575 268
576 267
577 267
578 267
579 267
580 267
581 266
582 266
583 266
584 266
585 265
586 265
587 265
588 264
589 264
590 264
591 264
592 264
593 263
594 263
595 263
596 262
597 262
598 262
599 261
600 261
601 261
602 260
603 260
604 260
605 260
606 259
607 259
608 259
609 259
610 258
611 258
612 258
613 257
614 257
615 257
616 256
617 256
618 256
619 256
620 255
621 255
622 255
623 254
624 254
625 254
626 254
627 254
628 253
629 253
630 253
631 252
632 252
633 252
634 252
635 251
636 251
637 251
638 250
639 250
640 250
641 249
642 249
643 249
644 249
645 248
646 248
647 248
648 247
649 247
650 247
651 247
652 246
653 246
654 246
655 246
656 246
657 245
658 245
659 245
660 244
661 244
662 244
663 244
664 243
665 243
666 243
667 242
668 242
669 241
670 241
671 241
672 241
673 240
674 240
675 240
676 240
677 239
678 239
679 238
680 238
681 238
682 237
683 237
684 237
685 237
686 237
687 236
688 236
689 235
690 235
691 235
692 235
693 234
694 234
695 234
696 234
697 233
698 233
699 232
700 232
701 232
702 231
703 231
704 231
705 230
706 230
707 230
708 229
709 229
710 229
711 229
712 228
713 228
714 228
715 227
716 227
717 227
718 227
719 226
720 226
721 225
722 225
723 224
724 224
725 224
726 224
727 224
728 223
729 223
730 223
731 222
732 222
733 222
734 221
735 221
736 221
737 221
738 220
739 220
740 220
741 219
742 219
743 219
744 219
745 218
746 218
747 218
748 218
749 217
750 217
751 217
752 216
752 215
753 214
753 213
754 212
755 212
756 211
757 211
758 210
758 209
759 208
758 207
758 206
758 205
759 204
759 203
758 203
757 204
756 205
755 206
755 207
754 208
753 208
753 209
753 210
752 211
751 210
750 209
749 208
749 207
750 206
751 205
752 205
753 204
754 203
755 202
756 201
756 200
757 199
758 198
757 198
756 198
755 197
754 197
754 198
753 199
752 200
751 201
750 202
749 202
748 203
747 204
746 205
745 205
744 206
743 207
742 208
741 209
740 209
739 209
738 210
737 211
736 211
735 212
734 212
733 212
732 213
731 213
730 213
729 214
728 214
727 215
726 215
725 216
724 216
723 216
722 216
721 217
720 217
719 218
718 218
717 218
716 218
715 219
714 219
713 219
712 220
711 220
710 221
709 221
708 221
707 222
706 222
705 222
704 223
703 223
702 224
701 224
700 224
699 224
698 225
697 225
696 225
695 226
694 226
693 226
692 227
691 227
690 228
689 228
688 228
687 228
686 229
685 229
684 229
683 230
682 230
681 230
680 231
679 231
678 231
677 231
676 232
675 232
674 232
673 232
672 233
671 233
670 233
669 234
668 234
667 234
666 235
665 235
664 235
663 236
662 236
661 236
660 236
659 237
658 237
657 237
656 237
655 238
654 238
653 238
652 238
651 239
650 239
649 240
648 240
647 240
646 241
645 241
644 241
643 241
642 242
641 242
640 242
639 243
638 243
637 243
636 243
635 243
634 244
633 244
632 244
631 244
630 245
629 245
628 246
627 246
626 246
625 246
624 246
623 246
622 247
621 247
620 248
619 248
618 248
617 248
616 249
615 249
614 249
613 250
612 250
611 250
610 250
609 251
608 251
607 251
606 251
605 252
604 252
603 252
602 252
601 253
600 253
599 253
598 254
597 254
596 254
595 254
594 255
593 255
592 256
591 256
590 256
589 256
588 256
587 257
586 257
585 257
584 257
583 257
582 258
581 258
580 259
579 259
578 259
577 259
576 260
575 260
574 260
573 260
572 260
571 261
570 261
569 261
568 261
567 261
566 261
565 262
564 262
563 262
562 263
561 263
560 263
559 263
558 263
557 263
556 263
555 264
554 264
553 264
552 264
551 264
550 265
549 265
548 266
547 266
546 266
545 266
544 267
543 267
542 267
541 267
540 267
539 267
538 267
537 267
536 268
535 268
534 268
533 269
532 269
531 269
530 269
529 269
528 269
527 269
526 269
525 269
524 270
523 270
522 270
521 270
520 270
519 271
518 271
517 270
518 269
519 268
520 268
520 267
521 266
522 265
522 264
523 263
524 263
524 262
525 261
525 260
525 259
526 258
526 257
527 256
528 255
529 254
530 253
531 252
532 252
533 251
534 250
535 249
536 248
537 248
538 247
539 246
540 246
541 245
542 244
543 243
544 243
545 242
546 241
547 240
547 239
548 238
548 237
548 236
549 235
550 235
551 234
552 234
552 233
553 232
554 232
555 231
556 230
557 229
558 229
559 228
560 227
561 226
562 226
563 225
564 224
565 223
566 223
567 222
568 221
569 220
570 219
571 219
572 220
573 219
573 218
573 217
574 216
575 215
576 215
577 214
578 213
579 213
580 212
580 211
580 210
580 209
581 208
582 207
583 207
584 207
585 206
585 205
585 204
586 203
587 202
588 201
589 200
589 199
590 198
591 197
592 197
592 196
593 195
594 194
595 193
596 192
596 191
596 190
596 189
596 188
597 187
598 186
599 185
600 185
601 184
602 184
603 183
604 182
604 181
603 180
603 179
604 178
605 178
606 177
607 176
607 175
608 174
608 173
609 172
609 171
608 170
608 169
609 168
610 167
611 167
612 166
613 165
612 164
612 163
613 162
614 161
615 161
616 160
617 159
617 158
617 157
618 156
619 155
620 154
621 153
622 152
623 151
624 151
624 150
624 149
624 148
623 147
623 146
624 145
625 144
626 143
625 142
626 141
627 140
628 139
628 138
628 137
628 136
627 136
626 136
625 135
626 134
627 133
627 132
628 131
628 130
628 129
627 128
628 127
629 127
630 126
631 126
632 125
632 124
632 123
631 122
632 121
633 120
634 119
634 118
634 117
635 116
635 115
636 114
636 113
637 112
637 111
638 110
638 109
638 108
638 107
637 106
636 105
635 106
634 106
633 105
632 105
631 104
631 103
632 102
632 101
632 100
633 99
633 98
632 97
632 96
631 96
630 95
630 94
631 93
632 92
632 91
632 90
631 89
632 88
633 87
633 86
633 85
634 84
634 83
634 82
634 81
634 80
634 79
634 78
633 78
632 78
631 78
630 77
630 76
629 75
629 74
628 73
627 74
626 74
625 73
625 72
625 71
625 70
625 69
624 69
623 68
624 67
624 66
625 65
624 64
624 63
625 62
625 61
625 60
624 59
624 58
624 57
623 57
622 57
621 57
620 57
619 58
618 58
617 57
616 56
615 56
614 56
613 55
613 54
613 53
614 52
613 51
613 50
613 49
614 48
614 47
613 46
613 45
613 44
612 44
611 44
610 44
609 45
608 46
607 46
606 47
605 48
604 49
603 48
602 48
601 47
601 46
602 45
602 44
602 43
602 42
602 41
603 40
602 39
602 38
601 37
600 38
599 39
598 39
597 40
596 40
595 39
595 38
595 37
594 37
593 36
593 35
594 34
594 33
595 32
594 31
593 31
592 30
592 29
592 28
592 27
592 26
593 25
593 24
592 23
591 23
590 23
589 22
589 21
590 20
589 20
588 19
588 18
588 17
589 16
589 15
589 14
589 13
590 12
589 11
588 11
587 11
586 10
586 9
586 8
587 7
586 6
586 5
586 4
586 3
586 2
586 1
585 1
584 1
583 1
582 1
581 1
580 1
579 1
578 1
577 1
576 1
575 1
574 1
573 1
572 1
571 1
572 2
571 3
571 4
570 5
570 6
569 7
568 7
567 7
566 7
565 8
564 9
563 10
562 11
561 11
560 11
559 12
558 12
557 13
556 14
556 15
555 16
554 17
553 17
552 16
551 16
550 16
549 16
549 17
548 18
548 19
547 20
547 21
547 22
546 23
545 23
544 24
543 25
542 24
541 23
541 22
540 21
540 20
539 19
539 18
538 17
537 18
536 18
535 19
535 20
534 21
534 22
533 23
533 24
532 25
532 26
532 27
532 28
531 29
530 30
529 29
528 29
527 29
526 30
525 30
524 31
523 32
522 32
521 31
521 30
521 29
520 28
519 28
518 29
517 30
517 31
516 32
515 33
515 34
515 35
515 36
514 37
514 38
514 39
514 40
513 41
512 42
511 41
510 42
510 43
509 44
509 45
509 46
508 47
507 47
506 46
505 45
504 45
503 45
502 46
501 47
500 48
500 49
500 50
500 51
499 52
499 53
499 54
499 55
499 56
498 57
498 58
498 59
498 60
498 61
497 62
496 62
496 63
495 64
496 65
496 66
496 67
496 68
496 69
495 70
494 70
493 71
493 72
493 73
493 74
493 75
493 76
493 77
493 78
492 79
492 80
492 81
492 82
491 83
491 84
491 85
491 86
491 87
491 88
490 89
490 90
490 91
490 92
490 93
490 94
490 95
489 96
489 97
489 98
489 99
489 100
489 101
488 102
487 103
486 103
486 104
485 105
486 106
486 107
486 108
486 109
486 110
487 111
487 112
487 113
487 114
486 115
485 115
484 116
484 117
484 118
485 119
485 120
485 121
486 122
486 123
486 124
486 125
486 126
485 127
484 128
484 129
484 130
484 131
484 132
484 133
484 134
484 135
484 136
484 137
484 138
483 139
483 140
483 141
483 142
483 143
484 144
484 145
484 146
483 147
482 148
482 149
483 150
483 151
483 152
484 153
484 154
484 155
484 156
483 157
482 157
482 158
482 159
482 160
482 161
482 162
482 163
482 164
482 165
481 166
481 167
481 168
481 169
481 170
481 171
481 172
481 173
481 174
481 175
481 176
481 177
482 178
482 179
481 180
480 181
480 182
480 183
480 184
481 185
481 186
481 187
480 188
479 189
478 189
477 189
476 189
475 188
475 187
475 186
475 185
475 184
474 183
474 182
474 181
474 180
474 179
473 178
472 178
471 177
471 176
471 175
471 174
471 173
471 172
471 171
471 170
470 170
469 169
469 168
469 167
469 166
468 165
468 164
468 163
468 162
468 161
467 160
467 159
467 158
467 157
467 156
466 155
465 155
464 154
463 153
463 152
463 151
463 150
463 149
462 148
461 147
461 146
461 145
461 144
461 143
461 142
460 141
459 141
458 140
458 139
458 138
458 137
458 136
458 135
458 134
457 134
456 133
456 132
456 131
456 130
456 129
456 128
455 127
454 126
454 125
454 124
454 123
453 122
453 121
452 120
452 119
452 118
452 117
451 116
451 115
450 114
449 114
448 115
447 114
447 113
447 112
447 111
446 110
446 109
445 108
444 107
444 106
445 105
445 104
444 103
444 102
444 101
443 100
442 100
441 101
440 100
440 99
440 98
440 97
440 96
440 95
440 94
439 93
439 92
439 91
438 90
438 89
438 88
437 87
437 86
436 86
435 85
435 84
435 83
435 82
435 81
434 80
433 80
432 79
431 78
431 77
430 76
430 75
429 74
429 73
428 72
427 71
427 70
426 69
426 68
425 67
425 66
424 65
424 64
423 63
423 62
422 61
422 60
421 59
421 58
420 57
420 56
420 55
420 54
420 53
420 52
420 51
420 50
420 49
419 48
419 47
418 47
417 47
416 46
416 45
416 44
416 43
416 42
416 41
416 40
415 39
415 38
415 37
414 37
413 36
412 35
412 34
412 33
412 32
411 31
411 30
411 29
410 29
409 28
408 28
407 28
406 27
406 26
406 25
406 24
405 23
405 22
404 21
403 20
402 21
401 21
400 20
400 19
400 18
400 17
399 16
399 15
398 15
397 15
396 14
396 13
395 12
395 11
395 10
394 9
394 8
393 7
393 6
392 5
391 4
390 3
389 3
388 4
388 5
388 6
387 7
386 8
385 7
385 6
384 5
383 5
382 4
381 3
380 3
379 3
378 3
377 3
376 2
377 1
376 1
375 1
374 1
373 1
372 1
371 1
370 1
369 1
368 1
367 1
366 1
365 1
364 1
363 1
362 1
361 1
360 1
359 1
358 1
357 1
356 1
355 1
354 1
353 1
352 1
351 1
350 1
349 1
348 1
347 1
346 1
345 1
344 1
343 1
342 1
341 1
340 1
339 1
338 1
337 1
336 1
335 1
334 1
333 1
332 1
331 1
330 1
329 1
328 1
327 1
326 1
325 1
324 1
323 1
322 1
321 1
320 1
319 1
318 1
317 1
316 1
315 1
314 1
313 1
312 1
311 1
310 1
309 1
308 1
307 1
306 1
305 1
304 1
303 1
302 1
301 1
300 2
299 2
298 2
297 2
296 3
295 3
294 2
293 1
292 1
291 1
290 1
289 1
288 1
287 1
286 1
285 1
284 1
283 1
282 1
281 1
281 2
282 3
282 4
283 5
283 6
283 7
282 8
281 8
280 8
279 8
278 8
277 8
276 9
275 9
274 8
273 8
272 9
272 10
271 11
270 12
269 11
268 10
267 10
266 10
265 10
264 10
264 11
264 12
263 13
262 13
261 12
260 12
259 11
258 10
257 10
256 11
255 12
254 12
253 13
252 12
251 11
250 10
249 9
248 9
247 9
246 10
245 11
244 10
244 9
243 8
242 7
241 7
240 7
239 8
238 9
237 8
237 7
237 6
236 5
235 5
234 5
233 5
232 4
232 3
231 2
231 1
230 1
229 1
228 1
227 1
226 1
225 1
224 1
223 1
222 1
221 1
220 1
219 1
218 1
217 1
216 1
215 1
