568 127
567 128
566 128
565 129
564 129
563 129
562 130
561 130
560 130
559 130
558 130
557 131
556 131
555 131
554 132
553 132
552 132
551 133
550 133
549 133
548 133
547 134
546 134
545 134
544 135
543 135
542 135
541 136
540 136
539 136
538 137
537 137
536 138
535 139
535 140
535 141
534 142
533 143
532 144
531 145
530 146
529 147
528 148
527 148
526 149
525 149
524 149
523 150
522 151
521 152
520 153
520 154
519 155
518 155
517 156
516 156
515 157
514 157
513 158
512 158
511 158
510 159
509 159
508 159
507 159
506 159
505 159
504 159
503 160
502 160
501 160
500 160
499 161
498 161
497 162
496 163
495 164
494 165
494 166
493 167
492 168
491 169
490 170
489 171
488 171
487 172
486 172
485 173
484 173
483 174
483 175
483 176
483 177
483 178
483 179
482 180
481 181
480 181
479 181
478 182
477 183
476 184
475 185
474 186
473 187
472 188
472 189
471 190
470 190
469 191
468 192
467 192
466 193
465 193
464 193
463 194
462 194
462 195
461 196
461 197
461 198
462 199
462 200
463 201
463 202
463 203
462 204
461 205
460 206
459 207
458 207
457 208
456 209
455 209
454 210
453 210
452 211
451 212
450 213
449 213
448 214
447 215
447 216
447 217
446 218
446 219
446 220
446 221
446 222
447 223
447 224
447 225
446 226
446 227
446 228
446 229
445 230
445 231
445 232
445 233
446 234
446 235
446 236
447 237
447 238
447 239
448 240
448 241
449 242
450 243
451 244
452 244
453 245
454 245
455 246
456 246
457 247
458 247
459 248
460 249
461 250
462 250
463 251
464 252
465 252
466 253
467 254
468 254
469 254
470 255
471 255
472 255
473 255
474 256
475 256
476 256
477 256
478 256
479 256
480 257
481 257
482 257
483 258
484 258
485 258
486 258
487 258
488 258
489 259
490 259
491 259
492 259
493 259
494 259
495 260
496 260
497 260
498 260
499 260
500 260
501 260
502 260
503 260
504 260
505 261
506 262
505 263
504 263
503 263
502 263
501 263
500 263
499 263
498 263
497 263
496 263
495 263
494 264
493 264
492 264
491 264
490 264
489 264
488 265
487 265
486 265
485 265
484 265
483 265
482 265
481 265
480 265
479 266
478 266
477 266
476 266
475 267
474 267
473 267
472 267
471 267
470 267
469 268
468 268
467 268
466 268
465 268
464 268
463 269
462 269
461 270
460 270
459 271
458 272
457 273
456 274
455 275
455 276
454 277
453 278
452 279
451 280
450 281
449 282
448 283
447 284
446 285
445 286
444 287
443 288
442 289
442 290
442 291
442 292
442 293
442 294
441 295
441 296
441 297
441 298
442 299
443 300
443 301
443 302
443 303
443 304
443 305
443 306
443 307
443 308
444 309
445 310
446 311
447 311
448 312
449 313
450 313
451 313
452 314
453 314
454 315
455 316
456 317
456 318
457 319
457 320
457 321
457 322
457 323
458 324
459 325
460 326
461 327
461 328
462 329
462 330
463 330
464 331
465 331
466 332
467 332
468 333
469 334
470 334
471 334
472 335
473 335
474 336
475 337
476 338
476 339
477 340
477 341
478 342
478 343
479 344
480 345
481 346
482 347
483 348
484 348
485 349
486 349
487 350
487 351
488 351
489 352
490 351
491 351
492 351
493 351
494 351
495 352
496 352
497 352
498 353
499 354
500 355
500 356
501 357
502 358
502 359
503 360
503 361
503 362
503 363
503 364
503 365
503 366
503 367
503 368
504 369
505 369
506 369
507 369
508 370
509 371
510 372
510 373
511 374
511 375
511 376
511 377
512 378
513 379
514 379
515 379
516 379
517 379
518 379
519 379
520 379
521 379
522 379
523 378
524 378
525 378
526 378
527 378
528 378
529 378
530 378
531 379
532 380
533 381
534 382
535 383
536 384
537 384
538 384
539 384
540 384
541 384
542 384
543 384
544 384
545 383
546 383
547 383
548 383
549 383
550 383
551 383
552 383
553 383
554 383
555 383
556 384
557 384
558 384
559 385
560 385
561 385
562 385
563 384
564 384
565 384
566 383
567 383
568 383
569 383
570 383
571 382
572 381
573 381
574 380
575 380
576 379
577 378
578 377
579 376
580 375
580 374
581 373
582 372
582 371
583 370
583 369
584 368
584 367
585 366
585 365
586 364
586 363
586 362
587 361
587 360
587 359
588 358
588 357
588 356
588 355
589 354
589 353
589 352
589 351
590 350
590 349
590 348
590 347
590 346
590 345
591 344
591 343
591 342
591 341
591 340
591 339
591 338
591 337
591 336
591 335
591 334
591 333
591 332
591 331
591 330
591 329
591 328
591 327
591 326
591 325
591 324
591 323
591 322
591 321
591 320
591 319
591 318
591 317
591 316
592 315
592 314
592 313
592 312
592 311
592 310
592 309
592 308
592 307
592 306
592 305
592 304
592 303
592 302
592 301
592 300
592 299
593 298
593 297
593 296
593 295
593 294
593 293
593 292
594 291
594 290
594 289
594 288
595 287
595 286
596 285
596 284
597 283
597 282
598 281
599 280
599 279
600 278
601 277
601 276
602 275
603 274
603 273
604 272
605 271
605 270
606 269
607 268
608 267
609 266
610 265
611 264
612 264
613 263
614 263
615 262
616 262
617 261
618 261
619 261
620 261
621 260
622 260
623 260
624 260
625 260
626 260
627 260
628 260
629 260
630 259
631 259
632 259
633 259
634 259
635 259
636 258
637 258
638 258
639 258
640 258
641 257
642 257
643 257
644 257
645 257
646 257
647 257
648 256
649 256
650 256
651 256
652 256
653 256
654 256
655 255
656 255
657 255
658 255
659 255
660 254
661 254
662 254
663 254
664 254
665 254
666 254
667 253
668 253
669 253
670 253
671 253
672 253
673 252
674 252
675 252
676 252
677 252
678 251
679 251
680 251
681 251
682 251
683 250
684 250
685 250
686 250
687 250
688 249
689 249
690 249
691 249
692 249
693 249
694 248
695 248
696 248
697 248
698 248
699 248
700 247
701 247
702 247
703 247
704 247
705 247
706 247
707 246
708 246
709 246
710 246
711 246
712 245
713 245
714 245
715 245
716 245
717 244
718 244
719 244
720 244
721 244
722 244
723 243
724 243
725 243
726 243
727 243
728 242
729 242
730 242
731 242
732 242
733 242
734 241
735 241
736 241
737 241
738 241
739 240
740 240
741 240
742 240
743 240
744 240
745 240
746 239
747 239
748 239
749 239
750 239
751 238
752 238
753 238
754 238
755 238
756 237
757 237
758 237
759 237
760 237
761 236
762 236
763 236
764 236
765 236
766 236
767 235
768 235
769 235
770 235
771 235
772 234
773 234
774 234
775 234
776 233
777 233
778 233
779 233
780 233
781 232
782 232
783 232
784 232
785 231
785 230
785 229
785 228
785 227
784 227
783 227
782 227
781 227
780 227
779 227
778 227
777 228
776 228
775 229
774 229
773 230
772 230
771 230
770 231
769 231
768 231
767 232
766 232
765 232
764 232
763 232
762 233
761 233
760 233
759 233
758 233
757 234
756 234
755 234
754 234
753 234
752 235
751 235
750 235
749 235
748 235
747 236
746 236
745 236
744 236
743 237
742 237
741 237
740 237
739 237
738 237
737 238
736 238
735 238
734 238
733 238
732 238
731 239
730 239
729 239
728 239
727 240
726 240
725 240
724 240
723 240
722 240
721 241
720 241
719 241
718 241
717 241
716 241
715 241
714 242
713 242
712 242
711 242
710 242
709 242
708 243
707 243
706 243
705 243
704 243
703 243
702 244
701 244
700 244
699 244
698 244
697 244
696 245
695 245
694 245
693 245
692 245
691 245
690 246
689 246
688 246
687 246
686 246
685 247
684 247
683 247
682 247
681 248
680 248
679 248
678 248
677 248
676 248
675 249
674 249
673 249
672 249
671 249
670 249
669 250
668 250
667 250
666 250
665 250
664 250
663 250
662 250
661 251
660 251
659 251
658 251
657 251
656 251
655 252
654 252
653 252
652 252
651 252
650 252
649 252
648 252
647 253
646 253
645 253
644 253
643 253
642 253
641 253
640 253
639 253
638 254
637 254
636 254
635 254
634 254
633 254
632 254
631 254
630 254
629 254
628 254
627 254
626 254
625 254
624 255
623 255
622 254
621 254
620 254
619 254
618 254
617 254
616 254
615 253
614 253
613 252
612 252
611 251
610 250
609 249
608 248
608 247
607 246
606 245
606 244
605 243
604 242
604 241
603 240
602 239
602 238
601 237
601 236
600 235
600 234
600 233
599 232
599 231
599 230
599 229
599 228
599 227
599 226
598 225
598 224
598 223
598 222
598 221
598 220
597 219
597 218
597 217
597 216
597 215
597 214
597 213
597 212
597 211
597 210
597 209
597 208
597 207
596 206
596 205
596 204
596 203
597 202
597 201
597 200
597 199
597 198
597 197
597 196
597 195
597 194
597 193
597 192
597 191
597 190
597 189
597 188
597 187
597 186
597 185
598 184
598 183
598 182
598 181
598 180
598 179
598 178
598 177
598 176
598 175
597 174
597 173
597 172
597 171
597 170
597 169
597 168
597 167
597 166
597 165
597 164
596 163
596 162
596 161
596 160
596 159
595 158
595 157
595 156
595 155
595 154
595 153
594 152
594 151
594 150
593 149
593 148
592 147
592 146
592 145
591 144
591 143
590 142
589 141
588 140
587 139
586 138
585 137
584 136
584 135
583 134
582 133
581 132
580 131
580 130
579 130
578 129
577 129
576 129
575 129
574 128
573 128
572 128
571 128
570 127
569 127
568 127
