427 59
426 60
425 60
424 60
423 61
422 61
421 62
420 63
419 63
418 64
417 64
416 64
415 64
414 64
413 64
412 64
411 64
410 63
409 63
408 63
407 62
406 62
405 62
404 62
403 62
402 62
401 63
400 64
399 64
398 65
397 65
396 65
395 66
394 66
393 66
392 65
391 65
390 65
389 65
388 65
387 65
386 64
385 64
384 64
383 64
382 63
381 63
380 63
379 63
378 63
377 63
376 64
375 64
374 64
373 65
372 65
371 66
370 67
369 68
368 69
367 70
366 70
365 71
364 71
363 71
362 72
361 72
360 72
359 72
358 72
357 72
356 72
355 72
354 72
353 72
352 72
351 72
350 72
349 73
348 73
347 74
346 74
345 74
344 74
343 74
342 74
341 75
340 75
339 75
338 75
337 75
336 75
335 75
334 76
333 76
332 76
331 77
330 78
329 79
328 80
327 81
326 82
325 83
324 83
323 83
322 83
321 84
320 84
319 84
318 84
317 84
316 84
315 85
314 85
313 85
312 85
311 85
310 85
309 85
308 86
307 86
306 86
305 86
304 87
303 87
302 88
301 89
301 90
300 91
299 92
298 93
297 94
296 95
295 95
294 96
293 96
292 96
291 96
290 96
289 96
288 97
287 97
286 98
285 99
284 100
283 100
282 101
281 102
280 102
279 103
278 103
277 104
276 104
275 105
274 106
273 106
273 107
272 108
272 109
272 110
272 111
272 112
272 113
272 114
272 115
273 116
273 117
274 118
274 119
274 120
275 121
275 122
275 123
275 124
275 125
276 126
276 127
277 128
277 129
278 130
278 131
279 132
280 133
280 134
281 135
282 136
283 137
284 138
285 139
286 140
287 141
288 142
289 143
290 144
291 145
291 146
292 147
293 148
294 149
294 150
295 151
295 152
295 153
296 154
296 155
297 156
298 157
299 157
300 157
301 158
302 158
303 159
304 159
305 160
306 160
307 161
308 161
309 162
310 163
311 163
312 164
312 165
313 166
314 166
315 167
316 167
317 168
318 168
319 168
320 169
321 169
322 170
323 170
324 170
325 171
326 171
327 172
328 172
329 172
330 173
331 173
332 173
333 174
333 175
334 175
335 175
336 176
337 177
338 178
339 178
340 179
341 179
342 180
343 181
344 181
345 182
346 182
347 183
348 184
349 185
350 186
351 187
352 188
353 189
354 189
355 190
356 191
357 192
358 193
359 194
360 194
361 195
362 196
363 197
364 198
365 198
366 199
367 200
368 200
369 201
369 202
370 203
371 204
372 205
372 206
373 207
373 208
374 209
375 210
375 211
376 212
376 213
377 214
377 215
377 216
377 217
377 218
377 219
377 220
377 221
376 222
375 222
374 222
373 222
372 222
371 222
370 223
369 223
368 223
367 223
366 223
365 223
364 223
363 223
362 223
361 223
360 223
359 222
358 222
357 221
357 220
356 219
355 218
354 218
353 217
352 217
351 217
350 216
349 216
348 216
347 215
346 215
345 215
344 214
343 214
342 214
341 214
340 214
339 213
338 213
337 212
336 212
335 211
334 211
333 210
332 209
331 208
330 207
329 207
328 206
327 205
326 205
325 204
324 204
323 203
322 202
321 201
320 200
319 199
318 198
317 197
316 197
315 196
314 195
313 194
312 194
311 193
310 193
309 192
308 191
307 190
306 190
305 189
304 188
303 188
302 187
301 186
300 185
299 184
298 183
297 183
296 182
295 181
294 181
293 180
292 179
291 178
290 178
289 178
288 177
287 177
286 177
285 176
284 176
283 175
282 175
281 175
280 174
279 174
278 173
277 173
276 172
275 171
274 170
273 170
272 169
271 169
270 168
269 168
268 168
267 168
266 168
265 168
264 167
263 167
262 166
261 166
260 166
259 166
258 165
257 165
256 164
255 164
254 163
253 163
252 163
251 163
250 163
249 163
248 164
247 164
246 165
245 165
244 166
243 166
242 166
241 166
240 166
239 166
238 165
237 165
236 165
235 164
234 164
233 164
232 163
231 163
230 163
229 163
228 163
227 163
226 163
225 163
224 164
223 165
223 166
222 167
221 168
220 169
219 170
218 170
217 171
216 171
215 171
214 171
213 171
212 171
211 171
210 171
209 171
208 171
207 171
206 172
205 172
204 173
203 174
203 175
202 176
201 176
200 177
199 177
198 178
197 178
196 178
195 179
194 179
193 179
192 179
191 179
190 180
189 180
188 180
187 181
186 182
185 183
184 184
183 185
182 186
182 187
181 188
180 188
179 189
178 189
177 190
176 190
175 190
174 190
173 190
172 191
171 191
170 191
169 192
168 193
167 193
167 194
166 195
166 196
165 197
164 198
163 199
162 199
161 199
160 200
159 200
158 200
157 201
156 201
155 201
154 201
153 201
152 201
151 202
150 202
149 203
149 204
148 205
147 206
147 207
146 208
145 209
144 210
143 211
142 211
141 212
140 212
139 212
138 212
137 212
136 213
135 213
134 213
133 213
132 214
131 214
130 214
129 214
128 215
127 215
126 215
125 216
124 217
123 218
122 219
122 220
121 221
120 222
119 223
118 223
117 224
116 225
115 225
114 226
113 226
112 227
111 228
110 229
109 230
108 231
107 232
107 233
106 234
105 235
104 236
103 236
102 237
101 237
100 238
99 238
98 239
97 239
96 240
95 240
94 240
93 240
92 241
91 241
90 241
89 242
88 242
87 243
86 244
85 245
84 246
83 246
82 247
81 248
80 248
79 249
78 249
77 249
76 250
75 251
74 252
73 253
73 254
72 255
71 255
70 256
69 257
68 257
67 258
66 258
65 259
64 259
63 260
62 261
61 262
60 263
59 264
58 264
57 265
56 266
55 267
54 267
53 268
52 269
51 270
50 271
49 272
48 273
47 274
46 275
46 276
45 277
44 278
44 279
43 280
43 281
43 282
43 283
43 284
43 285
44 286
44 287
45 288
45 289
46 290
47 291
47 292
48 293
49 294
50 295
50 296
51 297
52 298
53 299
54 300
55 301
56 302
57 302
58 303
59 304
60 305
61 306
62 307
63 308
64 309
65 310
66 311
67 312
67 313
68 314
69 315
70 315
71 316
72 317
73 317
74 318
75 318
76 319
77 320
78 320
79 321
80 321
81 322
82 323
83 324
84 325
85 326
86 327
87 328
87 329
88 330
89 331
90 331
91 332
92 332
93 333
94 333
95 334
96 334
97 335
98 335
99 336
100 336
101 337
102 338
103 339
103 340
104 341
104 342
105 343
106 344
107 345
108 346
109 346
110 346
111 347
112 347
113 347
114 348
115 349
116 350
117 351
118 352
119 353
120 353
121 354
122 354
123 354
124 355
125 355
126 355
127 355
128 355
129 356
130 356
131 356
132 357
133 357
134 357
135 358
136 358
137 359
138 360
139 360
140 361
141 362
142 363
143 364
143 365
144 366
144 367
145 368
145 369
146 370
147 370
148 370
149 371
150 371
151 372
152 372
153 373
154 373
155 374
156 375
157 376
158 376
159 377
160 378
161 378
162 379
163 379
164 379
165 380
166 380
167 381
168 382
169 383
170 384
171 385
172 386
173 387
174 388
175 388
176 389
177 389
178 389
179 389
180 390
181 390
182 390
183 390
184 391
185 391
186 392
187 393
188 394
189 395
190 396
190 397
191 398
192 399
193 400
193 401
194 402
195 402
196 402
197 403
198 403
199 403
200 403
201 403
202 403
203 403
204 403
205 403
206 403
207 404
208 404
209 404
210 404
211 405
212 405
213 406
214 406
215 407
216 407
217 408
218 408
219 409
220 409
221 408
222 408
223 408
224 407
225 407
226 407
227 407
228 407
229 407
230 407
231 407
232 408
233 408
234 409
235 409
236 409
237 409
238 409
239 408
240 408
241 408
242 407
243 407
244 406
245 406
246 406
247 406
248 406
249 406
250 406
251 407
252 407
253 408
254 408
255 408
256 408
257 408
258 407
259 407
260 407
261 406
262 406
263 405
264 405
265 404
266 403
267 403
268 402
269 402
270 401
271 401
272 400
273 400
274 400
275 400
276 399
277 399
278 399
279 398
280 398
281 398
282 397
283 397
284 397
285 397
286 396
287 396
288 395
289 395
290 394
291 394
292 393
293 393
294 393
295 392
296 392
297 392
298 392
299 391
300 391
301 390
302 390
303 390
304 389
305 389
306 388
307 388
308 388
309 387
310 387
311 386
312 386
313 385
314 385
315 385
316 384
317 384
318 384
319 383
320 383
321 384
322 385
322 386
322 387
322 388
322 389
322 390
322 391
322 392
322 393
322 394
322 395
321 396
321 397
321 398
320 399
319 400
318 401
317 402
316 403
315 404
314 405
314 406
313 407
312 408
312 409
311 410
310 411
309 412
309 413
308 414
307 415
306 416
305 417
305 418
304 419
303 420
302 421
302 422
301 423
301 424
300 425
299 426
299 427
298 428
297 429
296 430
296 431
295 432
294 433
294 434
294 435
293 436
293 437
293 438
292 439
292 440
292 441
292 442
292 443
292 444
292 445
292 446
291 447
291 448
290 449
290 450
289 451
289 452
288 453
288 454
287 455
287 456
286 457
286 458
285 459
285 460
284 461
284 462
283 463
283 464
282 465
282 466
281 467
281 468
281 469
281 470
282 471
282 472
282 473
282 474
283 475
283 476
283 477
283 478
283 479
283 480
283 481
283 482
283 483
283 484
283 485
283 486
283 487
283 488
284 489
284 490
285 491
285 492
286 493
287 494
287 495
288 495
289 496
290 497
291 498
292 498
293 499
294 500
295 500
296 501
297 502
298 502
299 503
300 504
301 504
302 505
303 506
304 506
305 507
306 508
306 509
307 510
308 511
309 512
310 512
311 513
312 514
313 514
314 515
315 515
316 515
317 516
318 516
319 516
320 516
321 516
322 516
323 517
324 517
325 517
326 518
327 518
328 518
329 518
330 519
331 519
332 519
333 520
334 520
335 521
336 522
337 522
338 523
339 524
340 525
341 526
342 527
343 527
344 528
345 528
346 528
347 528
348 529
349 529
350 529
351 529
352 529
353 529
354 529
355 529
356 529
357 529
358 529
359 529
360 529
361 529
362 529
363 529
364 530
365 530
366 530
367 531
368 531
369 531
370 532
371 532
372 533
373 534
374 535
375 535
376 536
377 537
378 537
379 537
380 537
381 537
382 537
383 537
384 537
385 537
386 537
387 537
388 536
389 536
390 536
391 536
392 536
393 535
394 535
395 535
396 535
397 535
398 535
399 535
400 535
401 536
402 536
403 536
404 537
405 538
406 539
407 540
408 540
409 541
410 541
411 541
412 541
413 541
414 541
415 541
416 541
417 541
418 541
419 541
420 540
421 540
422 540
423 540
424 540
425 540
426 540
427 540
428 540
429 540
430 540
431 540
432 541
433 542
434 542
435 543
436 544
437 545
438 546
439 547
440 547
441 547
442 547
443 547
444 547
445 546
446 546
447 546
448 546
449 545
450 545
451 545
452 545
453 544
454 544
455 544
456 543
457 543
458 543
459 543
460 542
461 542
462 542
463 541
464 541
465 541
466 541
467 541
468 541
469 541
470 541
471 541
472 542
473 542
474 543
475 543
476 544
477 544
478 545
479 546
480 547
481 547
482 547
483 547
484 547
485 547
486 547
487 547
488 546
489 546
490 546
491 545
492 545
493 544
494 544
495 544
496 543
497 543
498 543
499 543
500 542
501 542
502 542
503 542
504 542
505 543
506 543
507 543
508 542
509 542
510 541
511 540
511 539
512 538
513 537
514 536
515 535
516 534
517 533
518 533
519 533
520 532
521 532
522 532
523 532
524 532
525 532
526 532
527 532
528 532
529 533
530 533
531 533
532 532
533 532
534 531
535 531
536 530
536 529
537 528
538 527
538 526
539 525
539 524
540 523
540 522
541 521
542 520
543 519
544 518
545 517
546 517
547 517
548 517
549 516
550 516
551 517
552 517
553 517
554 517
555 517
556 516
557 516
558 515
559 514
560 513
561 512
562 511
563 510
564 509
565 509
566 508
567 508
568 508
569 508
570 508
571 508
572 509
573 508
574 508
575 507
576 506
576 505
577 504
577 503
578 502
578 501
579 500
579 499
580 498
581 497
582 496
583 495
584 495
585 495
586 494
587 495
588 495
589 494
590 494
591 493
592 492
592 491
593 490
593 489
593 488
594 487
594 486
595 485
595 484
596 483
596 482
597 481
597 480
598 479
598 478
598 477
599 476
600 475
601 474
602 473
603 472
604 472
605 472
606 471
607 471
608 471
609 471
610 471
611 471
612 471
613 470
614 469
615 468
615 467
616 466
616 465
616 464
616 463
616 462
617 461
617 460
617 459
617 458
617 457
618 456
618 455
618 454
618 453
619 452
619 451
619 450
619 449
620 448
621 447
622 447
623 447
624 447
625 448
626 447
627 446
628 445
628 444
628 443
629 442
629 441
629 440
630 439
630 438
630 437
631 436
632 435
633 434
634 434
635 433
636 433
637 433
638 433
639 433
640 433
641 433
642 432
643 431
643 430
644 429
644 428
645 427
646 426
646 425
646 424
647 423
647 422
647 421
647 420
647 419
648 418
648 417
649 416
649 415
650 414
651 413
651 412
652 411
653 410
654 410
655 409
656 409
657 409
658 409
659 409
660 409
661 409
662 409
663 409
664 409
665 408
666 407
667 406
667 405
667 404
667 403
668 402
668 401
668 400
668 399
668 398
667 397
667 396
667 395
667 394
667 393
667 392
667 391
667 390
667 389
667 388
666 387
667 386
667 385
667 384
667 383
668 382
669 381
669 380
670 379
671 379
672 378
673 377
674 376
675 375
675 374
675 373
675 372
675 371
675 370
675 369
675 368
674 367
674 366
674 365
674 364
673 363
673 362
672 361
671 360
670 359
670 358
669 357
669 356
668 355
667 354
667 353
666 352
665 351
665 350
665 349
664 348
663 347
663 346
662 345
661 344
661 343
661 342
661 341
660 340
660 339
660 338
660 337
659 336
659 335
658 334
658 333
658 332
658 331
658 330
659 329
658 328
657 328
656 327
655 326
654 325
653 324
652 323
652 322
651 321
651 320
650 319
649 318
648 317
648 316
647 315
646 314
646 313
645 312
644 311
644 310
643 309
642 308
642 307
641 306
640 305
641 304
642 304
643 304
644 305
645 305
646 306
647 306
648 306
649 307
650 307
651 307
652 308
653 308
654 308
655 309
656 309
657 310
658 310
659 310
660 311
661 311
662 311
663 312
664 312
665 313
666 313
667 313
668 314
669 314
670 314
671 315
672 315
673 316
674 316
675 317
676 317
677 317
678 317
679 318
680 318
681 319
682 319
683 320
684 320
685 320
686 321
687 321
688 321
689 322
690 323
691 323
692 323
693 324
694 324
695 324
696 325
697 325
698 325
699 326
700 326
701 327
702 327
703 328
704 328
705 329
706 329
707 329
708 330
709 330
710 331
711 331
712 332
713 332
714 333
715 333
716 334
717 334
718 335
719 335
720 336
721 336
722 336
723 337
724 337
725 338
726 339
727 339
728 340
729 340
730 341
731 341
732 341
733 342
734 342
735 343
736 343
737 344
738 344
739 345
740 345
741 345
742 345
743 345
743 344
744 343
745 342
746 342
746 341
747 340
747 339
748 338
749 337
750 336
751 335
751 334
751 333
750 333
749 332
748 331
747 331
746 331
745 330
744 330
743 330
742 330
741 330
740 330
739 329
738 329
737 329
736 328
735 328
734 327
733 327
732 327
731 326
730 326
729 325
728 325
727 325
726 324
725 324
724 323
723 323
722 323
721 322
720 321
719 321
718 321
717 320
716 320
715 320
714 319
713 319
712 318
711 318
710 318
709 317
708 317
707 317
706 316
705 316
704 315
703 315
702 315
701 314
700 314
699 313
698 313
697 313
696 312
695 312
694 311
693 311
692 311
691 310
690 310
689 309
688 309
687 309
686 308
685 308
684 308
683 307
682 306
681 306
680 305
679 305
678 305
677 305
676 304
675 304
674 304
673 303
672 302
671 302
670 302
669 302
668 301
667 301
666 300
665 300
664 300
663 299
662 299
661 299
660 298
659 298
658 298
657 297
656 297
655 296
654 296
653 296
652 296
651 295
650 295
649 294
648 294
647 294
646 293
645 293
644 293
643 292
642 292
641 292
640 291
639 291
638 290
637 290
636 290
635 289
634 289
633 289
632 288
631 288
630 288
629 287
628 287
627 287
626 286
625 286
624 286
623 285
622 285
621 285
620 284
619 284
618 284
617 283
616 283
615 283
614 282
613 282
612 282
611 281
610 281
609 281
608 280
607 280
606 280
605 279
604 278
603 277
604 276
605 276
606 275
607 275
608 274
609 274
610 274
611 273
612 273
613 273
614 273
615 272
616 272
617 272
618 272
619 271
620 271
621 270
622 270
623 269
624 269
625 268
626 268
627 267
628 267
629 266
630 265
631 265
632 264
633 263
634 263
635 262
636 261
637 260
638 259
639 258
640 257
641 256
642 255
642 254
642 253
643 252
643 251
644 250
644 249
645 248
645 247
646 246
646 245
647 244
647 243
648 242
649 241
650 240
650 239
651 238
652 237
653 236
654 235
655 234
655 233
656 232
656 231
656 230
655 229
655 228
654 227
654 226
653 225
653 224
653 223
654 222
654 221
654 220
655 219
655 218
655 217
656 216
656 215
656 214
657 213
657 212
658 211
659 210
659 209
660 208
660 207
661 206
661 205
662 204
662 203
662 202
662 201
663 200
663 199
663 198
663 197
663 196
662 195
661 194
661 193
661 192
660 191
660 190
660 189
660 188
660 187
660 186
660 185
660 184
660 183
660 182
660 181
660 180
660 179
659 178
659 177
659 176
660 175
660 174
660 173
660 172
660 171
659 170
659 169
659 168
659 167
659 166
659 165
659 164
658 163
657 162
657 161
656 160
655 160
654 159
653 159
652 158
651 157
650 156
649 155
649 154
649 153
648 152
648 151
648 150
648 149
648 148
647 147
647 146
647 145
647 144
646 143
646 142
646 141
646 140
646 139
646 138
646 137
645 136
645 135
645 134
645 133
644 132
644 131
643 130
642 129
641 129
640 128
639 128
638 128
637 128
636 128
635 128
634 127
633 127
632 126
631 126
630 125
630 124
629 123
628 122
628 121
627 120
627 119
626 118
626 117
626 116
625 115
625 114
624 113
624 112
623 111
623 110
622 109
621 108
620 107
619 106
618 105
617 105
616 105
615 105
614 105
613 104
612 104
611 104
610 105
609 105
608 105
607 105
606 106
605 106
604 106
603 107
602 107
601 107
600 107
599 107
598 107
597 107
596 107
595 107
594 107
593 107
592 106
591 106
590 105
589 104
588 103
587 102
586 101
585 100
584 100
583 99
582 98
581 98
580 97
579 97
578 96
577 96
576 96
575 97
574 97
573 97
572 98
571 98
570 99
569 99
568 99
567 99
566 100
565 100
564 99
563 99
562 99
561 98
560 97
559 96
558 95
557 94
556 94
555 93
554 92
553 91
552 91
551 90
550 90
549 89
548 90
547 90
546 91
545 91
544 92
543 92
542 92
541 93
540 93
539 93
538 93
537 93
536 93
535 93
534 93
533 92
532 92
531 91
530 91
529 90
528 89
527 89
526 88
525 87
524 86
523 85
522 84
522 83
521 82
520 81
520 80
519 79
518 78
517 77
516 76
515 76
514 75
513 75
512 75
511 75
510 75
509 76
508 76
507 76
506 76
505 77
504 77
503 77
502 76
501 76
500 76
499 75
498 75
497 74
496 73
495 73
494 72
493 72
492 71
491 70
490 69
489 68
488 67
487 67
486 66
485 66
484 65
483 65
482 65
481 66
480 66
479 66
478 67
477 67
476 67
475 68
474 67
473 67
472 67
471 67
470 66
469 66
468 65
467 65
466 64
465 63
464 62
463 62
462 62
461 61
460 61
459 61
458 61
457 62
456 62
455 62
454 63
453 63
452 64
451 64
450 65
449 65
448 65
447 65
446 65
445 65
444 64
443 64
442 64
441 64
440 63
439 63
438 62
437 62
436 61
435 61
434 60
433 60
432 59
431 59
430 59
429 59
428 59
427 59
