139 379
139 380
139 381
139 382
139 383
139 384
139 385
139 386
140 386
141 386
142 386
143 386
144 386
145 386
146 386
147 386
148 386
149 386
150 385
151 385
152 385
153 385
154 384
155 384
156 384
157 383
158 383
159 384
160 385
161 386
161 387
162 388
162 389
162 390
162 391
162 392
162 393
162 394
162 395
162 396
162 397
163 398
163 399
163 400
164 401
164 402
164 403
165 404
165 405
166 406
167 406
168 406
169 406
170 406
171 406
172 406
173 406
174 406
174 405
174 404
174 403
174 402
174 401
174 400
174 399
175 398
175 397
176 396
177 395
178 394
179 394
180 394
181 394
182 394
183 394
184 394
185 394
186 394
186 393
187 392
187 391
188 390
188 389
189 388
190 388
191 387
192 387
193 386
194 386
195 386
196 386
196 385
197 384
197 383
198 382
198 381
199 380
200 380
201 379
202 379
203 378
204 378
205 378
206 378
206 377
206 376
207 375
207 374
208 373
208 372
209 371
210 371
211 370
212 370
213 369
214 369
215 369
215 368
216 367
216 366
217 365
218 365
219 364
220 364
221 364
222 364
223 365
224 366
225 367
225 368
226 369
226 370
226 371
226 372
226 373
226 374
226 375
225 376
225 377
224 378
223 379
222 380
221 380
220 381
219 381
218 381
218 382
218 383
218 384
218 385
218 386
218 387
218 388
219 389
219 390
218 391
217 392
216 393
215 393
214 394
213 394
212 394
211 394
210 394
209 395
208 395
208 396
208 397
208 398
208 399
208 400
208 401
208 402
209 402
210 402
211 402
212 403
213 403
214 403
215 403
216 404
217 404
218 404
219 404
220 404
221 405
222 405
223 406
224 406
225 407
226 408
227 409
227 410
226 411
226 412
225 413
224 414
224 415
223 416
223 417
222 418
222 419
222 420
221 421
221 422
221 423
221 424
221 425
221 426
221 427
221 428
221 429
221 430
221 431
221 432
221 433
222 433
223 433
224 433
225 433
226 433
227 432
228 431
229 430
230 429
231 428
232 427
232 426
233 425
234 424
235 423
236 423
237 422
238 422
239 423
240 423
241 424
242 425
242 426
243 427
244 428
245 429
246 430
246 431
247 432
247 433
247 434
246 435
246 436
245 437
244 438
243 439
243 440
243 441
243 442
243 443
243 444
243 445
244 445
245 445
246 445
247 445
248 445
249 445
250 445
251 445
252 445
253 445
254 445
255 445
256 445
257 444
258 444
259 444
260 443
261 443
262 443
263 443
264 442
265 442
266 442
267 442
268 441
269 441
270 441
271 441
272 442
273 443
274 444
274 445
275 446
275 447
275 448
275 449
275 450
275 451
275 452
275 453
276 454
276 455
276 456
276 457
276 458
276 459
277 460
277 461
277 462
277 463
277 464
277 465
278 466
279 466
280 466
281 466
282 466
283 466
283 465
283 464
283 463
283 462
284 461
284 460
284 459
284 458
284 457
284 456
284 455
284 454
284 453
284 452
284 451
284 450
284 449
284 448
284 447
284 446
284 445
285 444
285 443
286 442
287 442
288 441
289 442
290 442
291 443
292 444
293 444
294 445
295 446
296 447
297 448
298 448
299 448
300 448
301 448
302 448
303 448
304 448
305 448
306 448
307 448
307 447
308 446
309 446
310 445
311 445
312 444
313 444
314 444
315 444
316 443
317 443
318 443
319 443
320 443
321 443
322 443
323 442
324 442
325 442
326 442
327 442
328 442
329 442
330 442
331 442
332 442
333 442
334 441
335 441
336 441
337 442
338 443
339 444
339 445
340 446
340 447
341 448
341 449
342 450
343 451
343 452
344 453
345 454
346 455
347 456
348 457
349 458
350 459
351 460
352 461
353 462
354 463
355 464
356 464
357 464
358 464
359 464
360 464
361 464
361 463
361 462
361 461
361 460
361 459
361 458
361 457
361 456
361 455
361 454
362 453
363 452
364 452
365 451
366 451
367 451
367 450
367 449
367 448
367 447
367 446
367 445
367 444
368 443
368 442
369 441
370 440
371 439
372 439
373 439
374 439
375 440
376 440
377 441
378 441
379 441
380 441
381 441
382 441
383 441
384 441
385 441
386 441
387 441
388 441
389 441
390 440
391 440
392 440
393 440
394 440
395 440
396 439
397 439
398 439
399 439
400 439
401 439
402 439
403 439
404 438
405 438
406 438
407 438
408 439
409 439
410 440
410 441
411 442
411 443
412 444
412 445
412 446
412 447
412 448
413 449
414 450
415 451
415 452
416 453
417 454
418 455
418 456
419 457
420 458
420 459
421 460
422 461
423 462
424 463
425 464
426 464
427 464
428 464
429 464
430 464
430 463
430 462
430 461
430 460
430 459
430 458
430 457
430 456
430 455
430 454
430 453
430 452
429 451
429 450
429 449
429 448
429 447
430 446
431 446
432 445
433 445
434 445
435 445
436 445
437 445
438 445
439 445
440 445
440 444
440 443
440 442
440 441
441 440
441 439
442 438
442 437
443 436
444 436
445 435
445 434
445 433
445 432
445 431
446 430
446 429
447 428
447 427
448 426
449 426
449 425
449 424
449 423
449 422
449 421
449 420
449 419
449 418
449 417
449 416
449 415
450 414
451 413
452 412
453 412
454 411
455 411
456 411
457 410
457 409
457 408
457 407
457 406
457 405
457 404
458 403
458 402
459 401
460 400
461 399
461 398
461 397
461 396
461 395
461 394
461 393
462 392
462 391
463 390
463 389
464 388
465 388
466 387
467 387
468 386
468 385
468 384
468 383
468 382
468 381
468 380
468 379
469 378
469 377
470 376
470 375
471 374
472 373
473 372
474 372
473 371
473 370
472 369
472 368
472 367
472 366
472 365
472 364
472 363
472 362
472 361
472 360
473 359
473 358
474 357
475 356
476 355
477 355
478 354
479 355
479 354
479 353
479 352
479 351
479 350
479 349
479 348
479 347
479 346
479 345
479 344
479 343
479 342
479 341
480 340
480 339
481 338
482 338
483 337
483 336
484 335
484 334
484 333
484 332
484 331
484 330
484 329
484 328
484 327
484 326
485 325
485 324
486 323
486 322
486 321
487 320
487 319
487 318
487 317
487 316
487 315
487 314
487 313
487 312
487 311
487 310
488 309
488 308
489 307
489 306
489 305
489 304
489 303
489 302
489 301
489 300
489 299
489 298
489 297
489 296
489 295
489 294
489 293
490 292
490 291
491 290
491 289
491 288
491 287
491 286
491 285
491 284
491 283
491 282
491 281
491 280
491 279
491 278
491 277
492 276
493 276
494 275
495 275
496 275
497 275
498 275
499 275
500 275
501 275
502 275
503 275
504 275
505 275
506 275
507 275
508 275
509 276
510 276
511 277
512 278
513 279
513 280
514 281
514 282
514 283
514 284
514 285
513 286
513 287
512 288
512 289
511 290
510 290
509 291
508 291
507 292
506 292
505 293
504 293
504 294
504 295
504 296
504 297
504 298
504 299
504 300
504 301
504 302
505 303
505 304
504 305
503 306
502 307
501 307
500 308
499 308
499 309
499 310
499 311
499 312
499 313
499 314
499 315
499 316
499 317
499 318
499 319
498 320
497 321
496 322
495 322
494 323
494 324
494 325
494 326
494 327
494 328
494 329
494 330
494 331
494 332
494 333
495 334
496 335
497 336
498 336
499 337
500 338
501 339
500 340
499 341
498 342
497 342
496 343
495 343
494 343
493 343
492 343
491 343
490 343
489 343
488 343
487 343
487 344
487 345
487 346
487 347
487 348
487 349
487 350
487 351
487 352
486 353
486 354
485 355
484 356
483 357
482 357
481 356
481 357
481 358
482 359
482 360
482 361
482 362
482 363
482 364
482 365
482 366
483 367
484 368
485 369
486 370
486 371
485 372
484 373
483 374
482 374
481 375
480 375
479 375
478 375
477 374
476 374
475 374
476 375
476 376
477 377
477 378
477 379
477 380
477 381
477 382
478 383
479 384
480 385
481 386
482 387
481 388
480 389
479 390
478 390
477 391
476 391
475 391
474 391
473 391
472 391
472 392
472 393
472 394
472 395
472 396
472 397
473 398
474 399
475 400
476 401
477 402
478 403
478 404
477 405
476 406
475 407
474 407
473 408
472 408
471 408
470 408
469 408
469 409
469 410
469 411
469 412
469 413
469 414
469 415
470 416
471 416
472 417
473 418
474 419
473 420
473 421
472 422
471 422
470 423
469 423
468 424
467 424
467 425
467 426
467 427
467 428
467 429
467 430
467 431
468 432
469 432
470 432
471 433
472 433
473 434
474 435
475 436
474 437
473 438
472 439
471 440
470 440
469 441
468 442
467 443
467 444
467 445
467 446
467 447
467 448
468 448
469 448
470 448
471 448
472 448
473 448
474 448
475 448
476 448
477 448
478 448
479 448
480 448
481 448
482 448
483 448
484 447
485 447
486 447
487 447
488 447
489 446
490 446
491 446
492 445
493 445
494 445
495 444
496 443
497 442
498 441
499 440
500 440
501 439
502 439
503 439
504 439
505 440
506 440
507 440
508 440
509 440
510 440
511 441
512 441
513 441
514 441
515 441
516 441
517 441
518 441
519 441
520 441
521 441
522 441
523 441
524 441
525 441
526 441
527 441
528 440
529 440
529 439
529 438
529 437
529 436
529 435
529 434
530 433
530 432
531 431
531 430
532 429
532 428
532 427
532 426
532 425
532 424
532 423
532 422
532 421
531 420
531 419
530 418
530 417
530 416
531 415
532 414
532 413
532 412
532 411
532 410
532 409
532 408
532 407
532 406
532 405
532 404
531 403
532 402
533 401
534 400
535 400
535 399
535 398
535 397
535 396
535 395
535 394
535 393
535 392
536 391
536 390
537 389
537 388
537 387
537 386
537 385
537 384
537 383
537 382
537 381
537 380
537 379
537 378
536 377
536 376
535 375
536 374
537 373
538 372
539 372
540 371
541 371
541 370
541 369
541 368
541 367
541 366
541 365
541 364
541 363
541 362
540 361
539 360
538 359
537 358
538 357
539 356
540 355
541 355
542 354
543 354
544 354
544 353
544 352
544 351
544 350
544 349
544 348
544 347
544 346
544 345
545 344
545 343
546 342
547 341
548 340
548 339
548 338
548 337
548 336
548 335
548 334
548 333
548 332
548 331
548 330
548 329
549 328
549 327
550 326
550 325
551 324
551 323
551 322
551 321
551 320
551 319
551 318
551 317
551 316
551 315
551 314
552 313
552 312
552 311
552 310
552 309
552 308
552 307
552 306
552 305
552 304
552 303
552 302
552 301
552 300
552 299
553 298
553 297
553 296
553 295
553 294
553 293
553 292
553 291
553 290
553 289
553 288
553 287
553 286
553 285
553 284
552 283
552 282
553 281
554 280
555 279
556 279
557 278
558 278
559 278
560 278
561 278
562 278
563 278
564 278
565 278
566 278
567 278
568 278
569 278
570 278
571 278
572 278
573 278
574 278
575 278
576 279
577 279
578 280
579 281
580 282
579 283
578 284
577 285
576 285
575 286
574 286
573 287
572 288
571 289
571 290
571 291
571 292
571 293
571 294
571 295
571 296
570 297
570 298
569 299
569 300
568 301
567 302
567 303
567 304
567 305
567 306
567 307
567 308
567 309
567 310
567 311
568 312
568 313
568 314
567 315
566 316
566 317
566 318
566 319
566 320
566 321
566 322
566 323
566 324
566 325
566 326
567 327
567 328
566 329
565 330
564 331
564 332
564 333
564 334
564 335
564 336
564 337
564 338
564 339
564 340
564 341
565 342
566 342
567 343
568 344
569 345
568 346
567 347
566 348
565 348
564 349
563 350
563 351
563 352
563 353
563 354
563 355
563 356
563 357
563 358
563 359
564 360
565 361
566 362
565 363
564 364
564 365
564 366
564 367
564 368
564 369
564 370
564 371
564 372
564 373
565 374
565 375
566 376
566 377
565 378
564 379
563 380
562 380
562 381
562 382
562 383
562 384
562 385
562 386
562 387
562 388
563 389
564 390
565 391
566 392
566 393
565 394
564 395
563 396
563 397
563 398
563 399
563 400
563 401
563 402
563 403
564 404
565 404
566 404
567 404
568 404
569 404
570 404
571 404
572 404
573 404
574 404
575 404
576 405
577 405
578 406
579 407
580 408
579 409
578 410
577 411
576 411
575 412
574 412
573 413
572 413
571 414
570 414
569 415
568 415
567 415
566 416
565 416
564 417
564 418
564 419
564 420
564 421
564 422
565 423
566 423
567 424
568 424
569 424
570 424
571 424
572 424
573 424
574 424
575 424
576 424
577 424
578 424
579 424
580 424
581 424
582 424
583 424
584 424
585 424
586 424
587 424
588 423
589 423
590 423
591 422
592 422
593 421
594 421
595 421
596 422
597 422
598 423
599 424
600 425
601 426
602 427
603 427
604 427
605 428
606 428
607 429
608 429
609 430
610 430
611 431
612 432
613 432
614 433
615 434
616 434
617 434
618 434
619 434
619 433
619 432
619 431
619 430
619 429
619 428
619 427
618 427
617 426
616 425
615 424
614 424
613 423
612 423
611 422
610 421
609 421
608 420
607 419
606 418
606 417
605 416
604 415
604 414
603 413
604 412
605 411
606 410
607 410
608 410
609 411
610 411
611 411
612 412
613 412
614 413
615 413
616 413
617 413
618 413
619 413
620 413
621 413
622 413
623 413
624 413
625 413
626 413
627 413
628 413
629 413
630 413
631 413
632 413
633 413
634 412
635 411
636 410
637 409
638 408
638 407
638 406
638 405
638 404
639 403
639 402
640 401
641 400
642 399
643 399
644 398
645 398
646 398
647 398
648 398
649 398
650 398
651 398
652 398
653 398
654 398
655 398
656 398
657 398
658 398
659 398
660 398
661 398
662 398
663 397
664 396
664 395
664 394
664 393
664 392
664 391
664 390
664 389
665 388
665 387
666 386
666 385
667 384
668 383
668 382
668 381
668 380
668 379
668 378
668 377
667 376
666 376
665 375
665 374
664 373
665 372
665 371
666 370
667 369
667 368
667 367
667 366
667 365
667 364
667 363
667 362
667 361
667 360
667 359
667 358
667 357
668 356
668 355
668 354
668 353
668 352
668 351
668 350
668 349
668 348
668 347
668 346
667 345
667 344
666 343
666 342
666 341
666 340
666 339
666 338
666 337
666 336
666 335
666 334
666 333
666 332
666 331
665 330
664 329
663 328
662 327
662 326
663 325
664 324
665 323
666 322
666 321
666 320
666 319
666 318
666 317
666 316
666 315
666 314
666 313
666 312
666 311
665 310
665 309
665 308
665 307
665 306
665 305
665 304
664 303
663 302
662 302
661 301
660 300
660 299
659 298
659 297
659 296
659 295
659 294
659 293
659 292
659 291
659 290
659 289
659 288
659 287
658 286
657 285
656 284
655 283
654 282
655 281
656 280
657 279
658 279
659 278
660 278
661 278
662 278
663 278
664 278
665 278
666 278
667 278
668 278
669 278
670 278
671 278
672 278
673 278
674 278
675 278
676 278
677 278
678 278
679 278
680 279
681 279
682 279
683 279
684 279
685 280
686 280
687 280
688 281
689 281
690 281
691 281
692 282
693 282
694 282
695 282
696 282
697 282
698 282
699 282
700 282
701 282
702 281
702 280
702 279
702 278
702 277
702 276
702 275
702 274
702 273
702 272
702 271
702 270
701 270
700 270
699 270
698 270
697 270
696 270
695 270
694 270
693 271
692 271
691 271
690 271
689 271
688 271
687 271
686 271
685 271
684 271
683 272
682 272
681 272
680 272
679 272
678 272
677 273
676 273
675 273
674 273
673 273
672 273
671 273
670 273
669 273
668 273
667 273
666 273
665 273
664 273
663 273
662 273
661 273
660 273
659 273
658 273
657 273
656 273
655 273
654 273
653 272
652 272
651 271
650 270
649 269
649 268
648 267
648 266
649 265
649 264
650 263
650 262
651 261
652 260
653 260
654 259
654 258
654 257
654 256
655 255
655 254
656 253
656 252
657 251
658 250
659 249
659 248
659 247
659 246
659 245
659 244
660 243
660 242
661 241
661 240
662 239
663 238
664 237
665 236
665 235
665 234
665 233
665 232
665 231
665 230
665 229
665 228
665 227
665 226
665 225
666 224
667 223
668 223
668 222
668 221
668 220
668 219
668 218
668 217
668 216
668 215
668 214
669 213
669 212
670 211
671 210
672 209
672 208
672 207
672 206
672 205
672 204
672 203
673 202
673 201
674 200
674 199
675 198
676 197
677 197
678 196
678 195
678 194
678 193
678 192
678 191
678 190
678 189
678 188
678 187
678 186
678 185
679 184
680 183
681 183
682 182
682 181
682 180
682 179
682 178
682 177
682 176
682 175
682 174
681 173
681 172
682 171
683 170
684 169
685 169
686 168
687 168
687 167
687 166
687 165
687 164
687 163
687 162
686 161
686 160
685 159
686 158
687 157
688 156
689 156
690 156
691 156
692 156
693 156
694 156
695 156
695 155
695 154
695 153
695 152
695 151
694 150
693 149
692 148
691 148
690 147
689 147
688 147
687 147
686 147
685 147
684 147
683 147
682 147
681 147
680 147
679 147
678 147
677 147
676 147
675 147
674 147
673 147
672 147
671 147
670 147
669 146
668 146
667 145
666 144
665 143
665 142
664 141
664 140
664 139
663 138
663 137
663 136
662 135
661 134
661 133
660 132
659 131
658 130
657 129
656 129
655 128
654 128
653 128
652 128
651 128
650 128
649 128
648 128
648 129
648 130
648 131
648 132
649 133
649 134
650 135
650 136
651 137
652 138
652 139
653 140
653 141
654 142
654 143
654 144
654 145
653 146
652 146
651 147
650 147
649 146
648 146
647 146
646 146
645 146
644 146
643 146
642 146
641 146
640 146
639 146
638 146
637 146
636 146
635 146
634 146
633 146
633 147
633 148
633 149
633 150
633 151
634 152
635 152
636 153
637 153
638 154
638 155
639 156
638 157
637 158
636 159
635 159
634 160
633 160
632 160
631 160
630 160
629 160
629 161
629 162
629 163
629 164
629 165
629 166
630 167
630 168
629 169
628 170
627 171
626 171
625 172
624 172
624 173
624 174
624 175
624 176
624 177
624 178
624 179
624 180
625 181
625 182
625 183
624 184
623 185
622 185
621 186
620 186
620 187
620 188
620 189
620 190
620 191
620 192
620 193
620 194
620 195
620 196
620 197
620 198
620 199
620 200
620 201
620 202
620 203
620 204
620 205
620 206
620 207
620 208
620 209
620 210
620 211
619 212
618 213
617 214
616 214
616 215
616 216
616 217
616 218
616 219
616 220
616 221
616 222
616 223
616 224
617 225
617 226
616 227
615 228
614 229
613 230
613 231
613 232
613 233
613 234
613 235
613 236
613 237
613 238
613 239
613 240
613 241
612 242
612 243
612 244
612 245
612 246
612 247
612 248
612 249
612 250
612 251
612 252
612 253
612 254
612 255
612 256
613 257
614 258
615 259
615 260
616 261
616 262
617 263
617 264
618 265
618 266
619 267
618 268
618 269
617 270
616 271
615 272
614 272
613 273
612 273
611 273
610 273
609 273
608 273
607 273
606 273
605 273
604 273
603 273
602 273
601 273
600 272
599 272
598 271
597 271
596 270
596 269
595 268
595 267
594 266
594 265
594 264
594 263
595 262
595 261
595 260
595 259
595 258
595 257
596 256
596 255
597 254
597 253
598 252
598 251
598 250
598 249
599 248
599 247
599 246
599 245
599 244
599 243
599 242
599 241
599 240
599 239
599 238
599 237
599 236
599 235
599 234
599 233
599 232
599 231
599 230
599 229
599 228
599 227
599 226
599 225
599 224
599 223
599 222
599 221
598 220
598 219
598 218
599 217
599 216
599 215
599 214
599 213
599 212
599 211
599 210
599 209
599 208
599 207
598 207
597 206
596 206
595 205
594 204
593 203
594 202
594 201
595 200
596 200
597 199
598 198
599 197
599 196
599 195
599 194
599 193
599 192
599 191
599 190
599 189
598 188
597 187
596 186
597 185
597 184
598 183
599 182
599 181
599 180
599 179
599 178
599 177
599 176
599 175
599 174
599 173
598 172
597 171
597 170
596 169
596 168
595 167
595 166
595 165
595 164
595 163
595 162
595 161
594 160
593 160
592 159
591 159
590 158
589 157
588 156
589 155
589 154
590 153
591 153
592 152
592 151
592 150
592 149
592 148
592 147
592 146
592 145
591 144
590 144
589 143
588 142
587 141
588 140
589 139
590 138
590 137
590 136
590 135
590 134
590 133
590 132
590 131
589 130
588 130
587 129
586 128
585 127
586 126
587 125
588 124
588 123
588 122
588 121
588 120
588 119
588 118
587 118
586 118
585 118
584 117
583 117
582 116
581 115
580 114
581 113
581 112
582 111
583 111
584 110
584 109
584 108
584 107
584 106
584 105
584 104
583 104
582 104
581 104
580 104
579 104
578 104
577 104
576 104
575 104
574 104
573 104
572 104
571 104
570 104
569 105
568 105
567 105
566 106
565 106
564 107
563 108
562 109
561 110
560 111
559 111
558 112
557 112
556 112
555 111
554 111
553 110
552 109
551 108
550 108
549 107
548 107
547 107
546 107
545 107
544 106
543 106
542 106
541 106
540 106
539 106
538 106
537 106
536 106
535 106
534 106
533 106
532 106
531 106
531 107
530 108
530 109
529 110
528 111
527 112
526 112
525 113
524 113
523 112
522 112
521 111
520 110
519 109
519 108
520 107
520 106
520 105
521 104
521 103
521 102
521 101
521 100
521 99
521 98
521 97
521 96
520 96
519 96
518 96
517 96
516 96
515 96
514 96
513 96
512 97
511 98
510 99
509 100
508 101
507 102
506 103
505 104
504 105
503 105
502 106
501 106
500 106
499 105
498 104
498 103
497 102
497 101
496 100
496 99
495 98
495 97
495 96
494 95
493 94
492 93
492 92
491 91
490 90
489 89
489 88
488 87
487 87
486 87
485 87
484 87
483 87
483 88
483 89
483 90
483 91
483 92
483 93
483 94
483 95
483 96
484 97
484 98
484 99
484 100
484 101
485 102
485 103
486 104
486 105
486 106
487 107
487 108
488 109
488 110
489 111
489 112
489 113
488 114
487 115
486 116
485 116
484 116
483 116
482 116
481 116
480 116
479 116
478 116
477 116
476 116
475 116
474 116
473 116
472 117
471 117
470 117
470 118
470 119
470 120
470 121
470 122
471 123
472 123
473 124
474 124
475 125
476 126
477 127
476 128
476 129
475 130
474 130
473 131
472 131
471 132
471 133
471 134
471 135
471 136
471 137
472 137
473 137
474 138
475 138
476 139
477 140
478 141
478 142
478 143
477 144
477 145
477 146
477 147
477 148
477 149
477 150
477 151
478 151
479 151
480 151
481 152
482 152
483 153
484 154
485 155
484 156
483 157
482 158
481 159
480 160
480 161
480 162
480 163
480 164
480 165
480 166
480 167
481 167
482 168
483 169
484 170
484 171
485 172
485 173
485 174
485 175
485 176
485 177
485 178
486 178
487 179
488 179
489 180
490 181
491 182
490 183
490 184
489 185
489 186
489 187
489 188
489 189
489 190
489 191
489 192
489 193
489 194
490 195
491 196
491 197
492 198
492 199
492 200
492 201
492 202
492 203
492 204
492 205
492 206
493 207
493 208
494 209
493 210
493 211
492 212
491 213
491 214
491 215
491 216
491 217
491 218
491 219
491 220
491 221
492 222
493 223
494 224
495 225
495 226
495 227
495 228
495 229
495 230
495 231
495 232
495 233
495 234
495 235
495 236
495 237
495 238
495 239
495 240
495 241
495 242
495 243
495 244
495 245
495 246
495 247
495 248
495 249
495 250
495 251
495 252
496 253
497 253
498 254
499 254
500 255
500 256
501 257
501 258
502 259
502 260
502 261
502 262
502 263
503 264
503 265
503 266
502 267
501 268
500 269
499 269
498 270
497 270
496 269
495 269
494 269
493 269
492 269
491 269
490 269
489 269
488 269
487 269
486 269
485 269
484 269
483 269
482 269
481 269
480 269
479 268
478 268
477 268
476 268
475 268
474 267
473 267
472 266
471 265
470 264
470 263
469 262
469 261
469 260
469 259
469 258
469 257
469 256
470 255
470 254
470 253
471 252
471 251
471 250
471 249
471 248
471 247
471 246
471 245
471 244
471 243
471 242
470 241
470 240
469 239
469 238
469 237
469 236
469 235
469 234
469 233
469 232
469 231
469 230
469 229
469 228
469 227
468 227
467 226
466 225
465 224
465 223
466 222
466 221
466 220
466 219
466 218
466 217
466 216
466 215
466 214
466 213
466 212
465 212
464 212
463 211
462 211
461 210
460 209
459 208
460 207
460 206
460 205
460 204
460 203
460 202
460 201
460 200
460 199
460 198
460 197
459 197
458 196
457 196
456 195
455 194
454 193
454 192
455 191
455 190
455 189
455 188
455 187
455 186
455 185
455 184
455 183
455 182
454 182
453 182
452 182
451 182
450 181
449 181
448 180
447 179
446 178
446 177
447 176
447 175
448 174
448 173
448 172
448 171
448 170
448 169
448 168
448 167
448 166
448 165
448 164
447 164
446 163
445 162
444 161
444 160
443 159
443 158
443 157
443 156
443 155
443 154
443 153
443 152
443 151
442 151
441 150
441 149
440 148
440 147
439 146
439 145
439 144
438 144
437 144
436 144
435 143
434 143
433 142
432 141
431 140
431 139
431 138
431 137
431 136
431 135
431 134
431 133
431 132
431 131
431 130
430 130
429 130
428 129
427 129
426 128
425 128
424 127
424 126
423 125
423 124
422 123
422 122
422 121
422 120
422 119
421 119
420 118
419 118
418 117
417 117
416 116
416 115
415 114
415 113
414 112
414 111
414 110
414 109
414 108
413 107
412 107
411 106
411 105
410 104
410 103
409 102
408 102
407 102
406 102
405 102
404 102
403 102
402 102
401 103
400 103
399 102
398 101
397 100
397 99
396 98
396 97
396 96
396 95
396 94
396 93
396 92
396 91
396 90
396 89
395 89
394 89
393 89
392 89
391 89
390 89
389 89
389 90
389 91
388 92
388 93
388 94
388 95
387 96
387 97
387 98
387 99
387 100
387 101
387 102
387 103
387 104
387 105
387 106
386 107
386 108
385 109
384 110
383 111
382 111
381 111
380 111
379 110
378 110
377 109
376 109
375 109
374 108
373 108
372 108
371 107
370 107
369 107
368 106
367 106
366 106
365 105
364 105
363 105
362 105
361 105
360 105
359 105
358 105
357 105
357 106
357 107
357 108
357 109
357 110
357 111
358 112
359 113
360 113
361 114
362 115
363 116
364 117
365 117
366 118
367 119
368 120
368 121
367 122
366 123
365 124
364 124
364 125
364 126
364 127
364 128
364 129
364 130
365 130
366 130
367 131
368 131
369 132
370 133
371 134
371 135
372 136
372 137
372 138
372 139
372 140
372 141
372 142
373 143
374 143
375 144
376 144
377 145
377 146
378 147
378 148
379 149
379 150
379 151
379 152
379 153
380 154
381 154
382 155
383 156
383 157
384 158
384 159
385 160
386 161
387 161
388 162
388 163
389 164
389 165
390 166
390 167
390 168
390 169
390 170
391 170
392 171
393 171
394 172
395 173
395 174
396 175
396 176
396 177
396 178
396 179
396 180
396 181
396 182
397 182
398 182
399 182
400 183
401 183
402 184
403 185
404 186
404 187
403 188
403 189
403 190
403 191
403 192
403 193
403 194
403 195
403 196
404 196
405 197
406 197
407 198
407 199
408 200
408 201
409 202
409 203
409 204
409 205
409 206
409 207
410 207
411 207
412 207
413 208
414 208
415 209
416 210
417 211
416 212
416 213
416 214
416 215
416 216
416 217
416 218
416 219
416 220
416 221
416 222
417 222
418 222
419 222
420 223
421 223
422 224
423 225
424 226
424 227
423 228
422 229
421 230
421 231
421 232
421 233
421 234
421 235
421 236
421 237
421 238
421 239
422 239
423 240
424 240
425 241
426 241
427 242
427 243
428 244
428 245
429 246
429 247
429 248
429 249
429 250
429 251
429 252
429 253
430 253
431 254
432 254
433 255
433 256
434 257
434 258
435 259
435 260
435 261
435 262
435 263
435 264
434 265
433 266
432 267
431 267
430 268
429 268
428 268
427 268
426 268
425 268
424 268
423 268
422 268
421 268
420 268
419 268
418 268
417 268
416 268
415 268
414 268
413 267
412 267
411 266
411 265
410 264
410 263
410 262
410 261
410 260
410 259
410 258
410 257
410 256
410 255
410 254
410 253
410 252
410 251
410 250
410 249
410 248
410 247
410 246
410 245
410 244
410 243
410 242
409 242
408 241
407 240
406 239
406 238
405 237
405 236
405 235
405 234
405 233
405 232
405 231
405 230
405 229
405 228
405 227
404 227
403 226
402 225
401 224
401 223
400 222
400 221
400 220
400 219
400 218
400 217
400 216
400 215
400 214
400 213
400 212
399 212
398 211
397 211
396 210
395 210
394 209
394 208
393 207
393 206
393 205
393 204
393 203
393 202
393 201
393 200
393 199
393 198
393 197
393 196
393 195
392 194
391 194
390 193
389 193
388 192
388 191
387 190
387 189
386 188
386 187
386 186
386 185
386 184
385 184
384 184
383 183
382 183
381 182
380 181
379 180
379 179
378 178
378 177
378 176
378 175
378 174
378 173
378 172
378 171
378 170
377 169
376 169
375 168
374 168
373 167
373 166
372 165
372 164
371 163
371 162
371 161
371 160
371 159
371 158
371 157
370 156
369 156
368 155
367 155
366 154
366 153
365 152
365 151
364 150
364 149
364 148
364 147
363 147
362 146
361 146
360 145
359 145
358 144
358 143
357 142
357 141
356 140
356 139
356 138
355 138
354 138
353 137
352 137
351 136
350 136
349 135
349 134
348 133
348 132
347 131
347 130
347 129
346 128
345 128
344 127
344 126
343 125
343 124
342 123
342 122
341 122
340 122
339 122
338 121
337 121
336 120
335 120
334 119
334 118
333 117
333 116
332 115
332 114
331 114
330 114
329 114
328 114
327 114
326 114
325 115
324 116
323 117
322 117
321 118
320 117
319 116
318 115
318 114
317 113
317 112
317 111
317 110
317 109
317 108
317 107
316 106
316 105
316 104
315 103
315 102
314 101
313 100
312 100
311 100
310 100
309 100
308 100
307 100
307 101
307 102
307 103
307 104
307 105
307 106
307 107
307 108
307 109
307 110
307 111
307 112
307 113
307 114
307 115
307 116
307 117
307 118
307 119
306 120
306 121
305 122
304 123
303 123
302 123
301 123
300 123
299 122
298 122
297 122
296 121
295 121
294 121
293 120
292 120
291 120
290 119
289 119
288 119
287 119
286 119
285 119
284 119
283 119
283 120
283 121
283 122
283 123
283 124
283 125
284 126
285 127
286 128
287 129
288 130
289 131
290 132
291 132
292 133
293 133
294 133
295 134
296 134
297 135
298 135
299 136
299 137
300 138
299 139
298 140
297 141
296 141
295 142
294 142
293 142
292 142
291 141
290 141
289 141
288 141
287 141
286 140
285 140
284 139
283 139
282 138
282 137
281 136
281 135
280 134
280 133
279 133
278 133
277 132
276 132
275 131
274 131
273 130
273 129
272 128
272 127
271 126
271 125
271 124
271 123
271 122
270 122
269 122
268 122
267 122
266 122
265 122
264 122
263 123
262 124
261 125
260 125
259 126
258 125
257 124
256 123
256 122
255 121
255 120
255 119
255 118
254 117
253 117
252 117
251 117
250 117
249 117
248 117
248 118
248 119
248 120
247 121
247 122
247 123
247 124
247 125
247 126
247 127
247 128
247 129
247 130
247 131
247 132
247 133
248 134
248 135
248 136
247 137
247 138
246 139
246 140
245 141
244 141
243 142
242 142
241 143
240 143
239 143
238 143
237 143
236 143
235 143
234 143
233 143
232 143
231 143
230 143
229 143
228 143
227 143
226 143
225 143
224 144
223 144
223 145
223 146
223 147
223 148
223 149
223 150
224 151
225 151
226 151
227 151
228 151
229 151
230 151
231 152
232 152
233 153
234 154
235 155
234 156
234 157
233 158
232 158
231 159
231 160
231 161
231 162
231 163
231 164
231 165
232 165
233 165
234 165
235 165
236 165
237 166
238 166
239 167
240 167
241 168
241 169
242 170
242 171
243 172
243 173
244 173
245 173
246 174
247 174
248 175
249 175
250 176
251 176
252 177
252 178
253 179
253 180
254 180
255 180
256 180
257 181
258 181
259 182
260 182
261 183
261 184
262 185
262 186
263 187
263 188
264 189
265 189
266 190
267 190
268 190
269 191
270 191
271 191
272 192
273 192
274 193
275 193
276 194
276 195
277 196
277 197
278 198
278 199
278 200
278 201
278 202
279 202
280 203
281 203
282 204
283 204
284 205
284 206
285 207
285 208
286 209
286 210
286 211
286 212
287 212
288 213
289 213
290 214
290 215
291 216
291 217
292 218
292 219
292 220
292 221
293 221
294 221
295 221
296 221
297 221
298 222
299 222
300 223
301 223
302 224
302 225
303 226
303 227
303 228
303 229
303 230
303 231
303 232
303 233
304 234
305 234
306 235
307 235
308 236
308 237
309 238
309 239
310 240
310 241
310 242
310 243
310 244
310 245
310 246
311 246
312 246
313 246
314 246
315 247
316 248
317 249
317 250
317 251
317 252
317 253
317 254
317 255
317 256
317 257
317 258
318 258
319 258
320 259
321 259
322 260
323 260
324 261
324 262
325 263
325 264
326 265
326 266
326 267
326 268
326 269
326 270
325 271
324 272
323 273
322 273
321 274
320 274
319 274
318 274
317 274
316 274
315 274
314 274
313 274
312 275
311 275
310 275
309 274
308 274
307 273
306 272
305 271
305 270
305 269
305 268
305 267
305 266
305 265
305 264
305 263
305 262
305 261
305 260
305 259
305 258
305 257
305 256
304 256
303 255
303 254
302 253
302 252
301 251
301 250
300 250
299 250
298 249
297 249
296 248
295 248
294 247
294 246
293 245
293 244
292 243
292 242
292 241
292 240
292 239
292 238
292 237
292 236
291 236
290 236
289 236
288 236
287 235
286 235
285 234
284 234
283 233
283 232
282 231
282 230
281 229
281 228
281 227
281 226
281 225
280 225
279 225
278 224
277 224
276 223
275 223
274 222
274 221
273 220
273 219
272 218
272 217
272 216
272 215
272 214
272 213
271 213
270 213
269 213
268 213
267 213
266 213
265 213
264 213
263 213
262 212
261 211
260 210
260 209
259 208
259 207
259 206
259 205
258 205
257 205
256 204
255 204
254 203
253 203
252 202
252 201
251 201
250 201
249 201
248 201
247 201
246 200
245 200
244 199
243 199
242 198
242 197
241 196
241 195
240 194
240 193
240 192
239 192
238 192
237 192
236 192
235 192
234 191
233 191
232 190
231 190
230 189
229 189
228 188
227 188
226 187
225 187
224 186
223 185
223 184
222 183
222 182
221 182
220 182
219 182
218 182
217 181
216 181
215 180
214 180
213 179
213 178
212 177
212 176
211 176
210 176
209 176
208 176
207 176
206 175
205 175
204 174
203 174
202 173
202 172
201 171
201 170
200 169
200 168
199 168
198 168
197 168
196 168
195 168
194 168
193 168
192 168
191 169
190 169
189 168
188 167
187 166
187 165
186 164
186 163
185 162
185 161
184 160
183 160
182 160
181 160
180 160
179 160
178 160
177 160
177 161
177 162
177 163
177 164
177 165
176 166
176 167
176 168
176 169
176 170
176 171
176 172
176 173
176 174
176 175
176 176
176 177
176 178
176 179
176 180
175 181
175 182
174 183
173 184
172 185
171 185
170 186
169 186
168 186
167 186
166 186
165 186
164 186
163 186
162 186
161 186
160 186
159 186
158 186
157 186
156 186
155 186
154 186
153 186
152 186
151 186
150 186
149 186
149 187
149 188
149 189
149 190
149 191
149 192
150 193
151 194
152 194
153 194
154 194
155 195
156 195
157 196
158 197
159 198
158 199
157 200
156 201
156 202
156 203
156 204
156 205
156 206
156 207
156 208
156 209
156 210
156 211
156 212
156 213
156 214
157 215
157 216
157 217
158 218
158 219
158 220
159 221
159 222
160 223
160 224
161 225
161 226
161 227
160 228
159 229
158 230
157 230
156 231
155 231
154 232
153 232
152 233
151 234
150 235
149 236
148 237
147 238
146 238
145 239
145 240
145 241
145 242
145 243
145 244
145 245
145 246
145 247
146 247
147 247
148 247
149 247
150 247
151 247
152 247
153 247
154 247
155 248
156 248
157 249
158 250
159 251
159 252
160 253
160 254
160 255
161 255
162 255
163 255
164 255
165 256
166 256
167 257
168 257
169 258
169 259
170 260
171 260
172 260
173 260
174 260
175 261
176 261
177 262
178 262
179 262
180 262
181 262
182 262
183 262
184 262
185 263
186 263
187 264
188 264
189 265
189 266
190 267
191 267
192 267
193 267
194 267
195 268
196 268
197 269
198 269
199 270
199 271
200 272
201 272
202 272
203 273
204 273
205 274
206 274
207 275
207 276
208 277
209 277
210 277
211 277
212 277
213 278
214 278
215 279
216 279
217 280
217 281
218 282
218 283
219 283
220 283
221 284
222 284
223 285
224 286
225 287
225 288
225 289
224 290
224 291
223 292
223 293
222 294
221 294
220 295
219 295
218 296
217 296
216 296
215 296
215 297
215 298
214 299
214 300
213 301
213 302
212 303
211 303
210 304
209 304
208 305
207 305
206 305
205 305
204 305
204 306
203 307
203 308
202 309
202 310
201 311
200 311
199 312
198 312
197 313
196 313
195 313
194 314
194 315
193 316
192 316
191 317
190 317
189 318
188 318
187 318
186 318
186 319
185 320
185 321
184 322
184 323
183 324
182 324
181 325
180 325
180 326
180 327
179 328
179 329
178 330
178 331
177 332
176 332
175 333
174 333
173 334
172 334
171 334
170 334
170 335
169 336
169 337
168 338
168 339
167 340
166 340
165 341
164 341
163 342
162 342
161 342
161 343
160 344
160 345
159 346
158 346
157 347
156 347
155 348
154 348
153 348
152 348
152 349
151 350
151 351
150 352
149 352
148 353
147 353
146 354
145 354
144 354
143 354
142 354
141 354
141 355
141 356
141 357
141 358
141 359
141 360
142 361
143 362
144 363
145 364
146 364
147 365
148 366
149 366
150 367
150 368
151 369
151 370
150 371
149 372
148 373
147 373
146 374
145 374
144 374
143 375
142 376
141 377
140 378
139 379
