371 58
371 59
370 60
369 61
368 62
367 62
366 62
365 62
364 61
363 61
362 61
361 61
360 61
359 61
358 61
357 61
356 61
355 61
354 61
353 61
353 62
352 63
352 64
351 65
350 65
349 65
348 64
347 64
346 64
345 64
344 64
343 64
342 64
341 64
340 63
339 63
338 63
337 63
337 64
336 65
336 66
335 67
334 67
333 67
332 67
331 67
330 66
329 66
328 66
327 66
326 66
325 66
324 66
323 66
322 67
322 68
321 69
320 70
319 70
318 70
317 70
316 70
315 69
314 69
313 70
312 69
311 69
310 69
309 69
308 69
307 69
307 70
307 71
306 72
306 73
306 74
305 75
304 75
303 75
302 75
301 75
300 75
299 75
298 75
297 75
296 75
295 75
294 75
293 75
292 75
292 76
292 77
292 78
291 79
290 80
289 79
288 80
287 80
286 80
285 80
284 80
283 80
282 80
281 80
280 80
279 80
279 81
279 82
278 83
278 84
278 85
277 86
276 86
275 86
274 86
273 86
272 86
271 86
270 87
269 87
268 87
267 87
266 87
265 87
264 88
263 88
263 89
263 90
262 91
262 92
262 93
261 94
260 94
259 95
258 94
257 95
256 95
255 95
254 96
253 96
252 96
251 96
250 97
249 97
249 98
249 99
248 100
248 101
248 102
248 103
247 104
246 104
245 104
244 104
243 105
242 105
241 105
240 106
239 106
238 106
239 107
238 108
238 109
237 110
236 110
235 110
234 110
233 110
232 111
231 111
230 112
229 112
228 112
228 113
228 114
228 115
228 116
227 117
227 118
227 119
227 120
227 121
227 122
227 123
226 124
225 124
224 125
223 125
222 125
221 125
220 125
219 126
218 126
217 127
216 128
215 127
214 128
213 128
212 129
211 129
210 129
209 129
208 130
207 130
207 131
208 132
207 133
207 134
207 135
207 136
207 137
207 138
207 139
207 140
206 141
205 141
204 141
203 142
202 142
201 143
200 143
199 144
198 144
197 145
196 145
195 145
194 146
193 146
192 147
192 148
192 149
192 150
192 151
192 152
192 153
192 154
191 155
190 155
189 155
188 155
187 155
186 155
185 155
184 156
183 156
182 156
181 157
180 157
179 158
179 159
179 160
179 161
179 162
179 163
178 164
177 164
176 165
175 165
174 165
173 166
172 166
171 166
170 167
169 167
168 168
168 169
168 170
168 171
168 172
168 173
168 174
168 175
167 176
166 176
165 176
164 176
163 177
162 177
161 177
161 178
160 179
159 179
158 179
157 179
156 180
155 181
154 182
153 182
152 183
152 184
153 185
153 186
152 187
152 188
152 189
153 190
152 191
151 191
150 192
149 192
148 193
147 193
146 193
145 194
144 195
143 195
143 196
143 197
142 198
142 199
142 200
141 201
140 202
139 202
138 202
137 203
136 204
135 204
134 205
133 206
133 207
133 208
133 209
133 210
133 211
133 212
133 213
133 214
132 215
131 215
130 215
129 216
128 216
127 217
126 217
125 218
124 219
123 219
123 220
122 221
121 222
122 223
121 224
121 225
121 226
120 227
119 227
118 228
117 229
116 229
115 230
114 230
113 231
112 232
111 232
110 233
109 234
109 235
108 236
107 236
106 237
106 238
106 239
106 240
106 241
105 242
104 242
103 243
102 243
101 244
100 244
99 245
98 246
97 246
96 247
95 248
94 248
94 249
95 250
94 251
93 252
92 252
91 253
90 253
89 254
88 255
87 256
86 257
85 257
85 258
84 259
83 260
82 260
81 260
80 261
79 261
78 262
77 263
76 264
75 264
74 265
74 266
73 267
72 267
71 268
70 268
69 269
68 269
67 269
66 270
65 270
64 271
63 272
62 272
61 273
60 273
59 273
58 274
57 274
56 275
55 275
55 276
54 277
54 278
53 279
53 280
52 281
52 282
52 283
53 283
54 284
55 285
56 285
57 285
58 285
59 285
60 285
61 285
62 285
63 285
64 286
65 286
66 286
67 287
68 287
69 287
70 287
71 288
72 288
73 288
74 288
75 288
76 288
77 288
78 288
79 288
80 288
81 288
82 288
83 288
84 288
85 288
86 288
87 289
88 290
89 290
90 290
91 291
92 291
93 291
94 291
95 291
96 292
97 292
98 293
99 294
100 294
101 294
102 295
103 295
104 295
105 295
106 295
107 295
108 295
109 295
110 296
111 296
112 297
113 298
114 299
115 299
116 300
117 300
118 301
119 301
120 302
121 302
122 302
123 303
124 303
125 304
125 305
126 306
126 307
127 308
128 309
129 310
130 310
131 311
132 311
133 312
134 312
135 313
136 313
137 314
138 315
139 316
140 317
141 318
141 319
142 320
143 321
144 321
145 322
145 323
146 323
147 324
148 324
149 324
150 324
151 325
152 326
152 327
152 328
153 328
154 329
155 330
156 330
157 331
158 331
159 331
160 332
161 332
162 333
163 334
163 335
163 336
163 337
163 338
164 339
165 340
166 341
167 341
168 342
169 342
170 343
171 343
172 344
173 344
174 344
175 345
176 345
177 346
178 347
179 348
179 349
179 350
179 351
180 352
181 352
182 353
183 354
184 354
185 354
186 355
187 355
188 355
189 355
190 356
191 356
192 357
193 358
194 359
195 360
196 360
197 361
198 361
199 361
200 361
201 361
202 361
203 362
204 362
205 363
205 364
205 365
206 366
205 367
206 368
207 368
208 369
209 370
210 370
211 371
212 371
213 371
214 371
215 372
216 372
217 372
218 373
219 373
220 373
221 373
222 374
222 375
223 376
223 377
223 378
224 379
225 380
226 380
227 381
228 381
229 381
230 381
231 381
232 382
233 382
234 382
235 383
236 384
237 385
238 385
239 386
240 386
241 387
242 388
242 389
243 390
244 390
245 391
246 391
247 391
248 391
249 391
250 392
251 392
252 392
253 392
254 393
255 393
256 394
256 395
256 396
257 396
258 397
258 398
259 398
260 398
261 398
262 398
263 398
264 399
265 399
266 399
267 399
268 399
269 399
270 399
271 399
272 400
273 400
274 400
275 401
276 402
277 402
278 403
279 403
280 403
281 403
282 403
283 403
284 403
285 403
286 404
287 404
288 404
289 404
290 405
291 405
292 405
293 405
294 406
295 406
296 406
297 406
298 406
299 406
300 406
301 406
302 407
303 407
304 408
304 409
305 410
306 411
307 411
308 411
309 411
310 411
311 411
312 411
313 411
314 411
315 411
316 410
317 410
318 410
319 410
320 409
321 409
322 408
323 408
324 409
325 409
326 409
327 409
328 410
329 411
330 411
331 412
331 413
332 413
333 414
334 414
335 414
336 414
337 414
338 414
339 414
340 414
341 415
342 415
343 416
344 417
345 418
346 418
347 418
348 418
349 418
350 418
351 418
352 418
353 417
354 417
355 417
356 417
357 417
358 418
359 418
360 418
361 418
362 418
363 418
364 418
365 417
366 417
367 417
368 417
369 417
370 418
371 418
372 419
373 419
374 419
375 420
376 420
377 421
378 421
379 421
380 421
381 421
382 421
383 421
384 421
385 421
386 420
387 420
388 420
389 419
390 418
391 418
392 418
393 418
394 419
395 420
396 420
397 421
398 420
399 420
400 420
401 420
402 420
403 420
404 420
405 420
406 420
407 420
408 420
409 419
410 418
411 418
412 417
412 416
413 415
414 415
415 414
416 413
417 413
418 413
419 413
420 414
421 414
422 414
423 414
424 413
425 412
426 412
426 411
427 410
427 409
428 408
429 407
430 407
431 407
432 407
433 407
434 407
435 408
436 408
437 409
438 409
439 409
440 409
441 409
442 408
443 408
444 408
445 407
446 407
447 406
448 405
449 405
450 404
451 404
452 404
453 403
454 404
455 405
456 405
457 406
458 406
459 406
460 406
461 406
462 406
463 406
464 406
465 405
466 405
467 405
468 404
469 404
470 404
471 403
472 403
473 403
474 403
475 402
476 402
477 402
478 402
479 402
480 401
481 401
482 401
483 400
484 399
485 398
486 397
487 397
488 396
489 396
490 396
491 396
492 396
493 396
494 395
495 395
496 395
497 395
498 395
499 395
500 395
501 395
502 395
503 395
504 395
505 395
506 395
507 395
508 395
509 394
510 394
511 394
512 393
513 392
514 392
515 392
516 391
517 391
518 390
519 390
520 389
521 389
522 388
523 388
524 388
525 387
526 387
527 386
528 385
529 384
530 384
531 384
532 384
533 384
534 384
535 383
536 383
537 382
538 381
539 381
540 380
541 380
542 379
543 379
544 378
545 377
546 376
547 376
548 375
549 374
550 373
551 372
552 371
552 370
552 369
553 368
554 368
554 367
554 366
555 365
556 364
557 364
557 363
558 362
559 361
560 360
560 359
561 358
561 357
562 356
563 355
563 354
564 353
564 352
564 351
564 350
565 349
565 348
566 347
567 347
568 346
568 345
568 344
569 343
569 342
569 341
570 340
570 339
571 338
571 337
571 336
572 335
572 334
571 333
571 332
571 331
570 331
569 330
570 329
570 328
571 327
572 327
572 326
573 325
574 325
575 325
576 325
577 324
577 323
578 322
578 321
579 320
579 319
579 318
580 317
580 316
580 315
581 314
581 313
581 312
580 311
580 310
581 309
582 309
582 308
582 307
583 306
583 305
583 304
583 303
582 302
582 301
581 300
580 300
579 299
580 298
579 297
578 296
577 295
576 294
575 293
574 292
574 291
575 290
575 289
576 288
577 287
578 287
579 286
580 285
581 285
581 284
582 283
583 283
584 283
584 282
584 281
584 280
584 279
585 278
586 277
586 276
586 275
586 274
586 273
586 272
586 271
586 270
587 269
587 268
587 267
587 266
587 265
587 264
587 263
587 262
587 261
587 260
587 259
587 258
587 257
588 256
589 255
590 255
591 254
592 254
593 254
594 254
595 253
596 253
597 253
598 253
599 253
600 252
601 252
602 252
603 252
604 251
605 251
606 251
607 251
608 250
609 250
610 250
611 249
612 249
613 249
614 249
615 248
616 248
617 248
618 248
619 248
620 247
621 247
622 247
623 247
624 246
625 246
626 246
627 246
628 245
629 245
630 245
631 245
632 244
633 244
634 244
635 243
636 243
637 243
638 242
639 242
640 242
641 242
642 242
643 241
644 241
645 241
646 241
647 241
648 240
649 240
650 239
651 239
652 239
653 239
654 238
655 238
656 238
657 238
658 237
659 237
660 236
661 236
662 236
663 236
664 235
665 235
666 235
667 235
668 234
669 234
670 234
671 234
672 234
673 233
674 233
675 232
676 232
677 232
678 232
679 231
680 231
681 231
682 231
683 230
684 230
685 230
686 230
687 229
688 229
689 229
690 228
691 228
692 228
693 228
694 228
695 227
696 227
697 227
698 227
699 227
700 226
701 226
702 226
703 225
704 225
705 225
706 225
707 225
708 224
709 224
710 224
711 223
712 223
713 223
714 223
715 223
716 222
717 222
718 222
719 222
720 221
721 221
722 221
723 221
724 220
725 220
726 220
727 220
728 220
729 219
730 219
731 219
732 219
733 219
734 218
735 218
736 218
737 217
738 217
739 217
740 217
741 217
742 217
743 217
744 217
745 217
746 217
747 216
748 216
749 216
750 216
751 216
752 216
753 216
754 216
755 216
756 216
757 216
758 216
759 216
760 216
761 216
762 216
763 216
764 216
765 216
766 216
767 216
768 216
769 216
770 216
771 216
772 216
773 216
774 216
775 215
776 214
777 213
777 212
777 211
776 210
775 209
775 208
775 207
775 206
776 205
775 204
774 204
773 204
772 204
771 204
770 204
769 204
768 204
767 204
766 204
765 204
764 204
763 204
762 204
761 204
760 204
759 204
758 204
757 204
756 204
755 204
754 204
753 204
752 204
751 205
750 205
749 205
748 205
747 205
746 205
745 205
744 205
743 206
742 206
741 206
740 206
739 206
738 206
737 207
736 207
735 207
734 207
733 207
732 208
731 208
730 208
729 208
728 209
727 209
726 209
725 209
724 209
723 210
722 210
721 210
720 210
719 210
718 211
717 211
716 211
715 211
714 212
713 212
712 212
711 212
710 213
709 213
708 213
707 213
706 213
705 214
704 214
703 214
702 214
701 215
700 215
699 215
698 215
697 215
696 216
695 216
694 216
693 216
692 217
691 217
690 217
689 217
688 218
687 218
686 218
685 218
684 219
683 219
682 219
681 219
680 220
679 220
678 220
677 221
676 221
675 221
674 221
673 222
672 222
671 222
670 222
669 222
668 223
667 223
666 224
665 224
664 224
663 224
662 225
661 225
660 225
659 226
658 226
657 226
656 226
655 227
654 227
653 227
652 228
651 228
650 228
649 228
648 229
647 229
646 229
645 230
644 230
643 230
642 230
641 231
640 231
639 231
638 232
637 232
636 232
635 232
634 233
633 233
632 233
631 233
630 234
629 234
628 234
627 235
626 235
625 235
624 235
623 236
622 236
621 236
620 237
619 237
618 237
617 237
616 238
615 238
614 238
613 238
612 239
611 239
610 239
609 240
608 240
607 240
606 241
605 241
604 241
603 241
602 242
601 242
600 242
599 243
598 243
597 243
596 243
595 244
594 244
593 244
592 244
591 244
590 244
589 244
588 243
587 242
587 241
587 240
587 239
587 238
587 237
587 236
587 235
587 234
586 233
586 232
586 231
586 230
586 229
586 228
586 227
585 226
585 225
585 224
584 223
584 222
583 221
583 220
582 219
582 218
581 217
581 216
581 215
581 214
581 213
580 212
579 211
579 210
579 209
578 208
578 207
578 206
578 205
577 204
577 203
576 202
576 201
575 200
575 199
575 198
574 197
574 196
574 195
573 194
573 193
573 192
572 191
572 190
572 189
572 188
571 188
570 187
570 186
569 185
569 184
568 183
568 182
568 181
567 180
567 179
567 178
566 178
565 177
565 176
564 175
564 174
563 173
562 172
562 171
561 170
561 169
560 168
559 167
559 166
558 165
558 164
557 163
556 162
556 161
555 160
555 159
554 158
553 157
553 156
552 155
552 154
551 153
551 152
550 151
550 150
549 149
549 148
548 147
548 146
547 145
547 144
546 143
546 142
545 142
544 141
544 140
544 139
543 138
543 137
542 136
541 135
541 134
540 133
540 132
539 132
538 131
537 130
537 129
536 128
536 127
535 126
534 125
533 124
532 123
531 122
530 121
530 120
529 119
528 118
527 117
527 116
526 115
525 115
524 114
523 113
523 112
522 111
521 110
520 109
519 108
519 107
518 106
517 105
516 104
515 104
514 103
513 102
512 101
511 100
510 100
509 99
509 98
508 98
507 98
506 97
505 96
504 95
503 94
502 94
501 93
500 92
499 91
498 91
497 90
496 89
495 88
495 87
494 87
493 88
492 88
491 87
490 86
489 85
488 84
487 83
486 83
485 82
484 81
483 81
482 80
481 79
480 78
479 78
478 78
477 79
476 79
475 78
474 78
473 77
472 76
471 76
470 75
469 75
468 75
467 75
466 74
465 73
464 73
463 72
462 72
461 71
460 70
459 70
459 71
458 72
457 72
456 72
455 71
454 71
453 70
452 70
451 69
450 69
449 68
448 68
447 68
446 67
445 67
444 66
443 66
442 66
441 65
440 66
439 67
438 67
437 67
436 67
435 66
434 65
433 65
432 64
431 64
430 63
429 63
428 62
427 61
426 62
425 63
424 64
423 63
422 63
421 62
420 62
419 61
418 61
417 61
416 60
415 59
414 59
413 59
413 60
412 61
411 62
410 62
409 61
408 61
407 61
406 61
405 60
404 60
403 60
402 59
402 60
401 61
400 62
399 61
398 61
397 61
396 60
395 60
394 60
393 59
392 59
391 59
390 58
389 58
388 58
388 59
387 60
386 61
385 61
384 60
383 60
382 60
381 60
380 59
379 59
378 60
377 59
376 59
375 59
374 59
373 59
372 58
371 58
