15 291
15 292
15 293
15 294
15 295
15 296
15 297
15 298
15 299
15 300
15 301
15 302
15 303
15 304
15 305
15 306
15 307
15 308
15 309
15 310
15 311
16 312
17 312
18 313
19 314
20 315
21 316
22 317
23 318
23 319
24 320
25 321
26 322
26 323
27 324
27 325
28 326
28 327
28 328
28 329
29 330
30 331
31 332
32 333
33 333
34 334
34 335
35 336
35 337
36 338
36 339
37 340
38 341
39 342
40 342
41 343
42 343
43 344
44 344
45 345
46 345
47 346
48 346
49 347
49 348
50 349
51 350
52 351
53 351
54 352
55 353
56 353
57 354
57 355
58 356
59 357
59 358
60 359
60 360
61 361
61 362
61 363
61 364
61 365
61 366
62 367
62 368
63 369
63 370
64 370
65 371
66 371
67 372
68 372
69 373
70 373
71 373
72 373
73 373
74 373
75 373
76 373
77 373
78 373
79 373
80 372
81 372
82 371
83 371
84 371
85 371
86 371
87 371
88 371
89 371
90 371
91 371
92 371
93 372
94 372
95 373
96 373
97 374
97 375
98 376
99 376
100 376
101 376
102 377
103 377
104 378
105 379
106 380
105 381
104 382
103 383
102 383
101 384
100 385
100 386
99 387
98 387
98 388
98 389
98 390
98 391
99 391
100 391
101 391
102 392
103 392
104 393
105 393
106 394
106 395
107 396
107 397
108 398
108 399
108 400
108 401
109 402
109 403
110 404
110 405
110 406
111 407
111 408
111 409
111 410
111 411
111 412
111 413
111 414
111 415
111 416
111 417
111 418
111 419
111 420
111 421
111 422
111 423
111 424
111 425
111 426
111 427
111 428
111 429
111 430
111 431
111 432
111 433
111 434
111 435
111 436
111 437
111 438
110 439
110 440
110 441
110 442
110 443
110 444
110 445
110 446
110 447
111 447
112 447
113 447
114 447
114 446
115 445
115 444
116 443
116 442
117 441
117 440
118 439
118 438
119 437
119 436
120 435
120 434
121 433
122 432
123 431
124 430
124 429
125 428
126 427
127 427
128 426
129 425
130 424
131 424
132 423
133 422
134 421
135 420
136 419
137 418
138 417
138 416
139 415
140 415
141 414
142 413
143 412
144 411
145 411
146 410
147 409
148 408
149 407
150 406
151 405
152 404
153 403
153 402
154 401
154 400
154 399
154 398
154 397
155 396
155 395
156 394
156 393
157 392
158 391
159 391
160 391
161 392
162 393
163 394
163 395
164 396
164 397
164 398
164 399
164 400
164 401
164 402
164 403
164 404
163 405
162 406
161 407
160 408
160 409
160 410
160 411
160 412
160 413
160 414
160 415
160 416
160 417
160 418
160 419
160 420
159 421
159 422
159 423
158 424
158 425
158 426
158 427
157 428
157 429
157 430
157 431
156 432
156 433
156 434
156 435
156 436
155 437
155 438
155 439
154 440
154 441
153 442
153 443
152 444
152 445
152 446
151 447
151 448
150 449
150 450
150 451
150 452
150 453
150 454
150 455
151 455
152 455
153 455
154 455
155 455
156 455
157 455
158 454
159 453
160 452
161 451
162 450
163 449
164 449
165 448
166 447
167 447
168 446
169 445
170 445
171 444
172 444
173 443
174 442
175 441
176 440
177 439
178 439
179 438
180 438
181 437
182 436
183 436
184 435
185 434
186 434
187 433
188 432
189 432
190 431
191 430
192 429
193 429
194 428
195 427
196 427
197 426
198 425
199 424
200 424
201 423
202 422
203 421
204 420
205 419
206 418
207 417
208 416
209 415
210 415
211 414
212 413
213 412
214 411
214 410
215 409
216 408
217 407
218 406
218 405
219 404
220 403
220 402
221 401
222 400
223 399
223 398
224 397
225 396
226 395
227 394
228 393
229 392
229 391
229 390
230 389
230 388
230 387
231 386
231 385
231 384
232 383
232 382
233 381
233 380
233 379
234 378
234 377
234 376
235 375
235 374
236 373
236 372
236 371
236 370
237 369
237 368
238 367
238 366
238 365
239 364
239 363
240 362
240 361
241 360
241 359
242 358
243 358
243 357
243 356
243 355
243 354
243 353
244 352
244 351
245 350
245 349
246 348
247 347
247 346
247 345
247 344
247 343
247 342
247 341
247 340
247 339
247 338
247 337
247 336
247 335
247 334
247 333
247 332
247 331
247 330
247 329
247 328
246 327
246 326
246 325
246 324
246 323
245 322
244 321
244 320
243 319
243 318
242 317
242 316
242 315
243 314
244 313
245 312
246 312
247 311
248 311
249 310
250 310
251 310
252 310
253 310
254 310
255 310
256 310
257 310
258 310
259 310
260 310
261 310
262 310
263 310
264 310
265 310
266 310
267 310
268 310
269 310
270 311
271 311
272 312
273 312
274 313
275 314
276 315
276 316
275 317
275 318
274 319
273 319
272 320
271 321
270 322
269 323
268 324
267 325
266 326
265 327
264 328
263 329
263 330
262 331
262 332
261 333
261 334
260 335
260 336
259 337
259 338
259 339
259 340
259 341
259 342
259 343
259 344
259 345
259 346
259 347
259 348
259 349
259 350
258 351
258 352
257 353
256 354
256 355
255 356
255 357
255 358
255 359
254 360
254 361
254 362
254 363
254 364
254 365
254 366
254 367
254 368
253 369
253 370
253 371
253 372
253 373
253 374
253 375
253 376
253 377
253 378
253 379
253 380
253 381
253 382
253 383
253 384
253 385
253 386
253 387
253 388
253 389
254 390
254 391
254 392
254 393
254 394
254 395
254 396
254 397
254 398
254 399
254 400
254 401
254 402
254 403
254 404
254 405
254 406
254 407
255 408
255 409
255 410
255 411
255 412
255 413
255 414
255 415
256 416
256 417
256 418
256 419
257 420
257 421
258 422
258 423
258 424
258 425
258 426
259 427
259 428
259 429
259 430
260 431
260 432
260 433
261 434
261 435
262 436
262 437
263 438
263 439
264 440
264 441
265 442
265 443
266 444
266 445
266 446
266 447
266 448
266 449
266 450
267 451
267 452
267 453
267 454
268 455
268 456
268 457
269 458
269 459
269 460
270 460
271 460
271 459
271 458
271 457
272 456
272 455
272 454
273 453
273 452
274 451
274 450
274 449
275 448
275 447
276 446
276 445
276 444
276 443
277 442
277 441
278 440
278 439
279 438
279 437
279 436
280 435
280 434
281 433
281 432
282 431
283 430
284 429
285 428
286 427
286 426
287 425
287 424
287 423
288 422
288 421
289 420
289 419
290 418
290 417
291 416
292 415
293 414
294 413
295 412
295 411
296 410
296 409
296 408
297 407
297 406
298 405
298 404
299 403
300 402
301 401
302 400
303 399
303 398
304 397
305 396
305 395
306 394
306 393
307 392
308 391
309 390
309 389
309 388
310 387
310 386
310 385
311 384
311 383
311 382
312 381
312 380
313 379
313 378
314 377
314 376
315 375
315 374
316 373
316 372
316 371
317 370
317 369
317 368
318 367
318 366
318 365
319 364
319 363
319 362
319 361
319 360
319 359
319 358
319 357
319 356
319 355
319 354
320 353
320 352
320 351
320 350
320 349
320 348
320 347
320 346
320 345
320 344
321 343
321 342
322 341
322 340
323 339
323 338
323 337
323 336
323 335
323 334
323 333
323 332
323 331
323 330
323 329
322 328
322 327
322 326
321 325
321 324
320 323
320 322
319 321
318 320
317 319
316 318
315 317
315 316
314 315
314 314
314 313
315 312
316 311
317 311
318 310
319 310
320 309
321 309
322 309
323 309
324 309
325 309
326 309
327 309
328 309
329 309
330 309
331 309
332 309
333 309
334 309
335 309
336 309
337 308
338 309
339 309
340 309
341 309
342 309
343 310
344 310
345 311
346 312
347 313
347 314
346 315
346 316
345 317
344 318
344 319
343 320
343 321
342 322
341 323
340 324
340 325
339 326
339 327
338 328
337 329
336 330
336 331
336 332
335 333
335 334
335 335
334 336
334 337
333 338
333 339
333 340
332 341
332 342
331 343
331 344
331 345
330 346
330 347
330 348
330 349
329 350
329 351
329 352
329 353
329 354
328 355
328 356
328 357
328 358
328 359
328 360
327 361
327 362
327 363
327 364
327 365
327 366
327 367
327 368
327 369
327 370
327 371
326 372
326 373
326 374
326 375
326 376
326 377
326 378
326 379
326 380
326 381
326 382
326 383
326 384
326 385
326 386
326 387
326 388
326 389
326 390
326 391
326 392
326 393
326 394
327 395
327 396
328 397
328 398
328 399
328 400
329 401
329 402
329 403
329 404
330 405
330 406
330 407
331 408
331 409
332 410
332 411
333 412
333 413
333 414
334 415
334 416
335 417
335 418
335 419
336 420
336 421
337 422
337 423
337 424
338 425
338 426
338 427
339 428
340 429
340 430
341 431
341 432
342 433
342 434
343 435
343 436
343 437
344 438
344 439
344 440
345 441
345 442
345 443
345 444
346 445
346 446
346 447
346 448
347 449
347 450
347 451
348 452
348 453
348 454
348 455
348 456
348 457
348 458
348 459
347 460
347 461
346 462
346 463
346 464
346 465
346 466
346 467
346 468
347 468
348 468
349 468
349 467
350 466
350 465
351 464
351 463
352 462
352 461
353 460
353 459
354 458
354 457
355 456
355 455
356 454
357 453
357 452
358 451
358 450
359 449
360 448
361 447
362 446
362 445
363 444
363 443
364 442
365 441
366 440
367 439
367 438
368 437
368 436
369 435
370 434
371 433
372 432
373 431
374 430
374 429
375 428
376 427
377 426
378 425
378 424
379 423
379 422
380 421
380 420
381 419
382 418
382 417
383 416
383 415
384 414
384 413
385 412
385 411
386 410
386 409
387 408
387 407
388 406
388 405
389 404
389 403
390 402
390 401
391 400
391 399
392 398
392 397
393 396
393 395
394 394
394 393
395 392
395 391
396 390
396 389
397 388
397 387
397 386
398 385
398 384
398 383
398 382
398 381
399 380
399 379
399 378
399 377
399 376
399 375
399 374
400 373
400 372
401 371
402 370
403 369
404 370
405 371
406 372
406 373
407 374
407 375
407 376
407 377
407 378
408 379
408 380
408 381
408 382
408 383
408 384
408 385
408 386
408 387
408 388
409 389
409 390
409 391
409 392
409 393
409 394
409 395
410 396
410 397
410 398
410 399
410 400
411 401
411 402
411 403
411 404
411 405
412 406
412 407
412 408
412 409
413 410
413 411
413 412
413 413
414 414
414 415
415 416
415 417
416 418
416 419
417 420
417 421
418 422
419 423
419 424
420 425
421 426
421 427
422 428
422 429
423 430
423 431
424 432
424 433
425 434
425 435
426 436
426 437
426 438
426 439
426 440
426 441
426 442
427 443
427 444
427 445
427 446
427 447
427 448
427 449
427 450
427 451
427 452
428 452
429 452
430 452
431 452
432 452
432 451
433 450
433 449
434 448
434 447
435 446
435 445
435 444
436 443
436 442
437 441
437 440
438 439
438 438
439 437
440 436
441 435
442 434
443 434
444 433
445 433
446 432
447 431
448 430
449 429
450 428
451 427
451 426
452 425
453 424
453 423
454 422
454 421
455 420
455 419
455 418
456 417
456 416
457 415
457 414
458 413
458 412
459 411
460 410
461 409
462 408
462 407
462 406
462 405
462 404
463 403
463 402
464 401
464 400
465 399
466 399
467 398
468 397
468 396
468 395
468 394
469 393
469 392
469 391
469 390
469 389
470 388
470 387
470 386
470 385
470 384
470 383
471 382
471 381
471 380
471 379
471 378
471 377
472 376
472 375
472 374
472 373
472 372
472 371
472 370
472 369
472 368
472 367
472 366
472 365
472 364
472 363
472 362
472 361
472 360
472 359
472 358
472 357
472 356
472 355
472 354
473 353
473 352
473 351
473 350
473 349
473 348
474 347
474 346
474 345
474 344
474 343
474 342
475 341
475 340
476 339
476 338
477 337
478 337
478 336
478 335
478 334
478 333
478 332
478 331
478 330
478 329
478 328
478 327
478 326
478 325
478 324
477 323
477 322
477 321
477 320
476 319
475 318
474 317
473 316
473 315
472 314
471 313
471 312
470 311
471 310
472 309
473 308
474 308
475 307
476 307
477 307
478 307
479 307
480 307
481 307
482 307
483 307
484 307
485 307
486 307
487 307
488 307
489 307
490 307
491 307
492 307
493 307
494 307
495 307
496 307
497 307
498 307
499 307
500 307
501 307
502 307
503 307
504 307
505 307
506 307
507 307
508 307
509 307
510 307
511 307
512 308
513 308
514 309
515 310
516 311
516 312
516 313
516 314
516 315
516 316
516 317
515 318
515 319
514 320
514 321
513 322
513 323
512 324
512 325
511 326
511 327
511 328
511 329
511 330
510 331
510 332
510 333
510 334
510 335
510 336
510 337
510 338
510 339
510 340
510 341
510 342
510 343
510 344
510 345
509 346
509 347
509 348
509 349
509 350
509 351
509 352
509 353
509 354
509 355
509 356
509 357
509 358
509 359
509 360
509 361
509 362
509 363
509 364
509 365
509 366
510 367
510 368
510 369
510 370
510 371
510 372
511 373
511 374
512 375
512 376
512 377
513 378
513 379
513 380
514 381
514 382
515 383
515 384
516 385
516 386
517 387
517 388
518 389
519 390
519 391
520 392
521 393
522 394
523 395
524 396
525 397
525 398
526 399
527 400
528 401
529 402
530 403
530 404
531 405
532 406
533 407
533 408
534 409
535 410
536 411
536 412
537 413
537 414
538 415
538 416
539 417
539 418
540 419
540 420
541 421
542 421
543 421
544 421
545 421
546 421
547 421
548 421
549 421
550 421
550 420
551 419
551 418
552 417
552 416
553 415
554 414
555 413
556 412
556 411
557 410
558 409
558 408
559 407
559 406
560 405
560 404
560 403
561 402
561 401
562 400
562 399
563 398
563 397
564 396
564 395
565 394
565 393
566 392
567 391
567 390
568 389
569 388
569 387
569 386
569 385
569 384
569 383
570 382
570 381
570 380
570 379
570 378
570 377
570 376
570 375
570 374
570 373
570 372
570 371
570 370
569 369
570 368
570 367
570 366
570 365
570 364
570 363
571 362
571 361
571 360
571 359
572 358
572 357
572 356
572 355
572 354
572 353
572 352
573 351
573 350
574 349
574 348
574 347
574 346
575 345
575 344
575 343
575 342
575 341
575 340
575 339
575 338
575 337
575 336
575 335
575 334
575 333
575 332
575 331
575 330
575 329
575 328
575 327
575 326
575 325
575 324
575 323
575 322
575 321
575 320
575 319
575 318
575 317
574 317
573 316
573 315
572 314
571 313
570 312
569 312
568 311
567 310
566 309
565 308
565 307
566 306
567 305
568 304
569 304
570 303
571 303
572 303
573 303
574 303
575 303
576 303
577 303
578 303
579 303
580 303
581 303
582 303
583 303
584 303
585 304
586 304
587 304
588 304
589 304
590 304
591 304
592 304
593 304
594 304
595 304
596 304
597 304
598 303
599 303
600 303
601 303
602 304
603 304
604 304
605 305
606 305
607 306
608 307
609 308
609 309
610 310
610 311
610 312
609 313
609 314
608 315
608 316
607 317
607 318
607 319
607 320
607 321
607 322
607 323
607 324
607 325
608 326
608 327
609 328
609 329
608 330
608 331
608 332
608 333
608 334
608 335
608 336
608 337
608 338
608 339
608 340
608 341
609 342
609 343
609 344
609 345
609 346
609 347
609 348
609 349
609 350
609 351
609 352
609 353
609 354
609 355
610 356
610 357
611 358
611 359
611 360
611 361
611 362
611 363
611 364
611 365
612 366
612 367
613 368
613 369
613 370
613 371
613 372
613 373
613 374
614 375
614 376
615 377
615 378
616 379
616 380
617 381
617 382
618 383
619 383
620 384
621 384
622 385
623 386
624 387
625 388
626 389
627 390
628 391
628 392
629 393
629 394
630 394
631 394
632 394
633 394
634 394
635 394
636 394
637 394
638 394
639 394
640 394
641 394
642 394
643 394
644 393
645 393
646 392
647 391
648 390
648 389
649 388
650 387
651 386
652 385
653 384
654 383
655 382
656 381
656 380
657 379
657 378
658 377
659 376
660 375
660 374
661 373
661 372
662 371
662 370
663 369
664 368
664 367
665 366
665 365
665 364
666 363
666 362
667 361
667 360
667 359
668 358
668 357
669 356
669 355
670 354
670 353
671 352
671 351
672 350
672 349
672 348
672 347
672 346
672 345
672 344
672 343
672 342
672 341
672 340
672 339
672 338
672 337
672 336
672 335
672 334
672 333
672 332
672 331
671 330
671 329
670 328
670 327
669 326
669 325
669 324
669 323
669 322
669 321
669 320
669 319
669 318
669 317
669 316
668 315
667 314
666 314
665 313
664 313
663 312
662 311
661 310
660 309
659 309
658 309
657 309
656 309
655 309
654 309
653 309
652 309
651 309
650 309
649 308
648 308
647 307
646 306
645 305
646 304
647 303
648 302
649 302
650 301
651 301
652 301
653 300
654 300
655 300
656 300
657 300
658 300
659 300
660 300
661 300
662 299
663 299
664 299
665 299
666 299
667 299
668 299
669 299
670 299
671 299
672 299
673 299
674 298
675 298
676 298
677 298
678 298
679 298
680 298
681 298
682 298
683 298
684 298
685 297
686 297
687 297
688 297
689 297
690 297
691 297
692 297
693 297
694 297
695 297
696 296
697 296
698 296
699 296
700 296
701 296
702 296
703 296
704 296
705 296
706 296
707 295
708 295
709 295
710 295
711 295
712 295
713 295
714 295
715 295
716 295
717 294
718 294
719 294
720 294
721 294
722 294
723 294
724 294
725 294
726 293
727 293
728 293
729 293
730 294
731 294
732 295
733 296
734 297
735 297
736 297
737 297
738 296
739 296
740 295
741 295
742 294
743 294
744 294
745 294
746 293
747 293
748 292
749 293
750 293
751 294
752 294
753 294
754 294
755 294
756 294
757 294
758 294
758 293
759 292
760 292
761 291
762 291
763 290
764 290
764 289
764 288
764 287
764 286
764 285
764 284
763 283
763 282
762 281
762 280
762 279
761 279
760 279
759 279
758 279
757 279
756 279
755 279
754 279
753 279
752 280
751 280
750 281
749 281
748 282
747 282
746 283
745 283
744 284
743 284
742 285
741 285
740 286
739 286
738 286
737 287
736 287
735 287
734 287
733 287
732 288
731 288
730 288
729 288
728 288
727 288
726 289
725 289
724 289
723 289
722 289
721 289
720 289
719 289
718 290
717 290
716 290
715 290
714 291
713 291
712 291
711 291
710 291
709 291
708 291
707 291
706 291
705 291
704 292
703 292
702 292
701 292
700 292
699 292
698 292
697 293
696 293
695 293
694 293
693 293
692 293
691 293
690 294
689 294
688 294
687 294
686 294
685 294
684 294
683 294
682 294
681 294
680 294
679 294
678 295
677 295
676 295
675 295
674 295
673 295
672 295
671 295
670 295
669 295
668 295
667 295
666 295
665 295
664 295
663 296
662 296
661 296
660 296
659 296
658 295
657 295
656 294
655 293
654 292
655 291
655 290
656 289
657 289
658 288
659 287
660 286
661 285
662 284
662 283
662 282
662 281
662 280
662 279
662 278
662 277
662 276
662 275
662 274
662 273
663 272
663 271
664 270
664 269
664 268
665 267
665 266
665 265
666 264
666 263
666 262
666 261
666 260
666 259
666 258
666 257
666 256
666 255
666 254
666 253
666 252
666 251
666 250
666 249
665 248
665 247
665 246
665 245
665 244
665 243
664 242
664 241
664 240
664 239
664 238
664 237
663 236
663 235
663 234
663 233
663 232
662 231
662 230
662 229
662 228
662 227
662 226
662 225
661 224
661 223
661 222
661 221
660 220
660 219
660 218
659 217
659 216
659 215
658 214
658 213
657 212
657 211
656 210
655 209
654 208
653 207
652 206
651 205
651 204
650 203
650 202
649 201
649 200
648 199
647 198
647 197
646 196
646 195
645 194
645 193
644 192
644 191
643 190
643 189
643 188
642 187
642 186
642 185
641 184
641 183
641 182
640 181
640 180
640 179
640 178
640 177
639 177
638 177
637 177
636 178
636 179
636 180
636 181
635 182
635 183
634 184
634 185
633 186
633 187
632 188
631 189
631 190
630 191
629 192
629 193
628 194
628 195
627 196
626 197
626 198
625 199
624 200
623 201
622 202
621 203
620 204
620 205
619 206
618 207
618 208
617 209
617 210
616 211
615 212
615 213
614 214
613 215
612 216
612 217
612 218
611 219
611 220
610 221
610 222
609 223
609 224
609 225
608 226
608 227
607 228
607 229
607 230
606 231
606 232
606 233
605 234
605 235
605 236
604 237
604 238
604 239
603 240
603 241
603 242
602 243
602 244
601 245
601 246
600 247
600 248
599 249
599 250
599 251
599 252
598 253
598 254
598 255
598 256
598 257
597 258
597 259
597 260
596 261
596 262
596 263
596 264
595 265
595 266
595 267
595 268
595 269
595 270
595 271
595 272
595 273
595 274
595 275
595 276
595 277
596 278
596 279
596 280
596 281
596 282
597 283
597 284
597 285
597 286
598 287
598 288
598 289
599 290
598 291
598 292
597 293
597 294
596 295
595 295
594 296
593 296
592 297
591 297
590 297
589 298
588 298
587 299
586 299
585 299
584 300
583 300
582 300
581 300
580 300
579 300
578 300
577 300
576 300
575 300
574 300
573 300
572 300
571 300
570 300
569 300
568 299
567 299
566 298
565 297
564 296
565 295
565 294
566 293
567 293
568 292
569 291
570 290
571 289
572 288
573 287
574 286
575 285
575 284
575 283
575 282
575 281
575 280
575 279
575 278
575 277
574 276
574 275
573 274
574 273
574 272
574 271
574 270
574 269
574 268
574 267
574 266
574 265
574 264
574 263
574 262
574 261
574 260
574 259
574 258
574 257
574 256
574 255
574 254
574 253
574 252
574 251
574 250
574 249
574 248
574 247
574 246
574 245
574 244
574 243
574 242
574 241
574 240
574 239
574 238
573 237
573 236
573 235
573 234
573 233
573 232
573 231
573 230
573 229
573 228
573 227
573 226
573 225
573 224
573 223
573 222
573 221
573 220
573 219
573 218
573 217
573 216
573 215
573 214
573 213
573 212
573 211
573 210
573 209
573 208
573 207
573 206
573 205
573 204
573 203
573 202
573 201
573 200
572 199
572 198
572 197
572 196
571 195
570 194
570 193
569 192
568 191
567 190
566 190
565 189
564 188
563 187
562 186
561 185
561 184
560 183
559 182
558 181
557 180
556 179
555 178
555 177
554 176
554 175
553 174
553 173
552 172
552 171
551 170
551 169
550 168
550 167
549 166
549 165
548 164
548 163
548 162
547 161
547 160
546 159
546 158
546 157
546 156
546 155
546 154
546 153
545 152
545 151
545 150
545 149
544 149
543 149
542 149
542 150
542 151
542 152
541 153
541 154
541 155
541 156
540 157
540 158
540 159
539 160
539 161
539 162
538 163
538 164
537 165
537 166
536 167
536 168
535 169
535 170
534 171
534 172
534 173
533 174
533 175
532 176
532 177
531 178
531 179
531 180
530 181
530 182
530 183
529 184
529 185
529 186
528 187
528 188
528 189
527 190
527 191
526 192
526 193
525 194
525 195
524 196
524 197
524 198
524 199
523 200
523 201
522 202
522 203
521 204
521 205
520 206
520 207
519 208
519 209
518 210
518 211
517 212
517 213
516 214
516 215
515 216
515 217
515 218
515 219
514 220
514 221
514 222
514 223
513 224
513 225
513 226
512 227
512 228
512 229
512 230
512 231
512 232
511 233
511 234
511 235
511 236
511 237
511 238
510 239
510 240
510 241
510 242
509 243
509 244
509 245
509 246
509 247
509 248
509 249
509 250
509 251
509 252
509 253
509 254
509 255
509 256
509 257
509 258
509 259
509 260
509 261
509 262
509 263
509 264
509 265
509 266
509 267
509 268
509 269
509 270
509 271
509 272
509 273
509 274
509 275
509 276
510 277
510 278
510 279
510 280
510 281
511 282
511 283
511 284
512 285
512 286
512 287
512 288
512 289
512 290
513 291
513 292
513 293
514 294
515 295
515 296
516 297
515 298
514 299
513 300
512 300
511 301
510 301
509 301
508 301
507 302
506 302
505 303
504 303
503 303
502 303
501 303
500 303
499 303
498 303
497 303
496 303
495 304
494 304
493 304
492 304
491 304
490 304
489 304
488 304
487 304
486 304
485 304
484 304
483 304
482 304
481 304
480 304
479 304
478 304
477 304
476 304
475 303
474 303
473 302
472 301
471 300
472 299
473 298
474 297
475 296
476 295
477 294
478 293
479 292
480 291
481 290
482 289
482 288
483 287
484 286
484 285
484 284
484 283
484 282
484 281
484 280
484 279
484 278
484 277
484 276
484 275
484 274
484 273
484 272
484 271
484 270
484 269
484 268
484 267
484 266
484 265
485 264
485 263
485 262
485 261
485 260
485 259
485 258
485 257
485 256
485 255
486 254
486 253
486 252
486 251
486 250
486 249
486 248
486 247
486 246
486 245
486 244
486 243
486 242
486 241
486 240
485 239
485 238
485 237
485 236
485 235
485 234
485 233
485 232
485 231
485 230
485 229
485 228
485 227
485 226
485 225
485 224
485 223
485 222
485 221
484 220
484 219
484 218
484 217
484 216
484 215
483 214
483 213
483 212
482 211
482 210
482 209
481 208
481 207
481 206
480 205
480 204
480 203
479 202
479 201
478 200
478 199
477 198
476 197
475 196
475 195
474 194
473 193
473 192
472 191
471 190
471 189
470 188
469 187
469 186
468 185
467 184
467 183
466 182
465 181
464 180
463 179
462 178
462 177
461 176
460 175
459 174
458 173
457 172
456 171
455 170
454 169
453 168
452 167
452 166
451 165
451 164
450 163
450 162
449 161
448 160
447 159
446 158
446 157
445 156
445 155
444 154
444 153
443 152
443 151
442 150
442 149
441 148
441 147
440 146
440 145
440 144
439 143
439 142
439 141
439 140
438 139
438 138
437 138
436 138
436 139
435 140
435 141
435 142
435 143
434 144
434 145
434 146
434 147
434 148
433 149
433 150
433 151
433 152
433 153
432 154
432 155
431 156
431 157
430 158
430 159
429 160
429 161
428 162
428 163
427 164
426 165
426 166
425 167
424 168
424 169
423 170
423 171
422 172
422 173
421 174
421 175
420 176
420 177
419 178
419 179
419 180
418 181
418 182
417 183
417 184
417 185
416 186
416 187
416 188
415 189
415 190
415 191
414 192
414 193
414 194
413 195
413 196
413 197
413 198
412 199
412 200
412 201
411 202
411 203
411 204
411 205
410 206
410 207
410 208
410 209
409 210
409 211
409 212
409 213
408 214
408 215
407 216
406 217
405 218
404 217
403 216
402 215
402 214
401 213
401 212
401 211
401 210
401 209
401 208
401 207
401 206
401 205
401 204
401 203
401 202
401 201
401 200
401 199
401 198
401 197
401 196
400 195
400 194
400 193
399 192
399 191
399 190
398 189
398 188
398 187
398 186
398 185
398 184
398 183
398 182
398 181
398 180
398 179
398 178
398 177
398 176
397 175
397 174
397 173
397 172
397 171
397 170
396 169
396 168
396 167
396 166
395 165
395 164
394 163
394 162
394 161
393 160
393 159
393 158
393 157
392 156
392 155
392 154
392 153
391 152
391 151
390 150
390 149
390 148
390 147
389 146
389 145
389 144
389 143
389 142
389 141
389 140
389 139
389 138
389 137
388 136
388 135
388 134
387 134
386 134
385 134
384 135
384 136
384 137
384 138
383 139
383 140
383 141
382 142
382 143
382 144
381 145
381 146
380 147
380 148
379 149
379 150
378 151
378 152
377 153
377 154
376 155
376 156
375 157
374 158
374 159
373 160
373 161
372 162
371 163
371 164
370 165
369 166
369 167
368 168
368 169
367 170
366 171
365 172
365 173
364 174
363 175
362 176
362 177
361 178
360 179
359 180
359 181
358 182
357 183
356 184
356 185
355 186
355 187
355 188
354 189
354 190
353 191
353 192
352 193
352 194
351 195
351 196
350 197
350 198
350 199
349 200
349 201
348 202
348 203
348 204
347 205
347 206
346 207
346 208
346 209
345 210
345 211
345 212
344 213
344 214
344 215
343 216
343 217
342 218
342 219
342 220
341 221
341 222
341 223
340 224
340 225
340 226
340 227
340 228
339 229
339 230
339 231
339 232
339 233
338 234
338 235
338 236
338 237
338 238
338 239
338 240
338 241
338 242
338 243
338 244
338 245
338 246
338 247
338 248
338 249
338 250
338 251
338 252
338 253
338 254
338 255
338 256
338 257
338 258
338 259
339 260
339 261
339 262
339 263
339 264
339 265
339 266
339 267
339 268
339 269
339 270
340 271
340 272
340 273
340 274
340 275
340 276
340 277
341 278
341 279
341 280
341 281
341 282
341 283
342 284
342 285
342 286
342 287
342 288
342 289
343 290
343 291
344 292
344 293
345 294
346 295
346 296
347 297
348 298
348 299
349 300
349 301
348 302
347 303
346 304
345 304
344 305
343 305
342 305
341 305
340 305
339 306
338 306
337 306
336 306
335 307
334 307
333 306
332 306
331 306
330 306
329 306
328 306
327 306
326 306
325 306
324 306
323 306
322 306
321 306
320 306
319 306
318 305
317 305
316 304
315 303
314 302
314 301
314 300
315 299
315 298
316 297
316 296
317 295
317 294
318 293
319 293
320 292
321 292
322 291
323 291
323 290
323 289
323 288
323 287
323 286
323 285
323 284
323 283
323 282
322 281
321 281
320 280
320 279
319 278
319 277
318 276
318 275
318 274
318 273
318 272
318 271
318 270
317 269
317 268
317 267
317 266
316 265
316 264
316 263
316 262
316 261
316 260
316 259
316 258
315 257
315 256
315 255
315 254
314 253
314 252
314 251
314 250
313 249
313 248
313 247
313 246
313 245
312 244
312 243
312 242
311 241
311 240
311 239
311 238
311 237
310 236
310 235
310 234
310 233
310 232
310 231
310 230
310 229
310 228
310 227
309 226
309 225
309 224
308 223
308 222
308 221
308 220
307 219
307 218
307 217
307 216
306 215
306 214
305 213
304 212
304 211
303 210
303 209
302 208
302 207
301 206
301 205
300 204
300 203
299 202
299 201
299 200
299 199
299 198
298 197
298 196
297 195
297 194
296 193
295 192
295 191
294 190
293 189
293 188
292 187
292 186
291 185
291 184
290 183
290 182
289 181
288 180
287 179
287 178
286 177
285 176
284 175
283 174
282 173
281 172
280 171
279 170
278 169
278 168
277 167
276 166
275 165
274 164
273 163
272 162
271 161
271 160
270 159
269 158
269 157
268 156
267 155
266 154
266 153
265 152
265 151
264 150
264 149
263 148
263 147
262 146
262 145
261 144
260 143
259 142
258 141
257 141
256 141
256 142
256 143
256 144
256 145
256 146
256 147
256 148
256 149
256 150
256 151
256 152
256 153
256 154
256 155
256 156
256 157
256 158
256 159
256 160
256 161
256 162
256 163
256 164
255 165
255 166
255 167
254 168
254 169
254 170
253 171
253 172
253 173
253 174
252 175
252 176
252 177
251 178
251 179
251 180
251 181
251 182
250 183
250 184
250 185
250 186
249 187
249 188
249 189
249 190
249 191
249 192
248 193
248 194
248 195
248 196
248 197
248 198
248 199
248 200
247 201
247 202
247 203
247 204
247 205
247 206
247 207
247 208
247 209
247 210
247 211
247 212
247 213
247 214
247 215
247 216
247 217
247 218
247 219
247 220
247 221
247 222
247 223
247 224
247 225
247 226
247 227
247 228
247 229
247 230
247 231
247 232
247 233
247 234
247 235
247 236
247 237
247 238
247 239
247 240
247 241
247 242
247 243
248 244
248 245
248 246
248 247
248 248
248 249
248 250
248 251
249 252
249 253
250 254
250 255
250 256
250 257
250 258
250 259
250 260
250 261
250 262
250 263
250 264
250 265
250 266
250 267
250 268
251 269
251 270
251 271
251 272
251 273
251 274
251 275
251 276
251 277
252 278
253 279
254 280
255 281
256 282
256 283
257 284
257 285
258 286
258 287
258 288
259 289
259 290
260 291
260 292
261 293
261 294
262 295
263 295
264 296
264 297
265 298
266 299
266 300
267 301
267 302
267 303
266 304
265 305
264 306
263 306
262 307
261 307
260 307
259 308
258 308
257 308
256 308
255 308
254 308
253 308
252 308
251 308
250 309
249 309
248 309
247 309
246 309
245 309
244 309
243 308
242 308
241 307
240 306
239 305
239 304
240 303
240 302
241 301
242 300
243 299
243 298
243 297
244 296
244 295
244 294
244 293
245 292
245 291
245 290
245 289
245 288
245 287
245 286
245 285
245 284
245 283
244 282
243 281
243 280
242 279
242 278
241 277
241 276
241 275
241 274
241 273
240 272
240 271
240 270
240 269
240 268
239 267
239 266
239 265
239 264
239 263
239 262
239 261
239 260
239 259
239 258
238 257
238 256
238 255
238 254
238 253
237 252
237 251
237 250
236 249
236 248
236 247
236 246
236 245
235 244
235 243
235 242
235 241
234 240
234 239
234 238
234 237
233 236
233 235
233 234
232 233
232 232
231 231
231 230
231 229
230 228
230 227
230 226
230 225
230 224
229 223
229 222
229 221
229 220
229 219
229 218
228 217
228 216
227 215
227 214
227 213
227 212
226 211
226 210
226 209
225 208
225 207
225 206
224 205
223 204
222 203
222 202
221 201
220 200
219 199
218 198
218 197
217 196
217 195
216 194
216 193
215 192
215 191
214 190
213 189
213 188
212 187
211 186
210 185
210 184
209 183
209 182
208 181
207 180
207 179
206 178
205 177
205 176
204 175
203 174
203 173
202 172
202 171
201 170
201 169
200 168
200 167
199 166
199 165
199 164
198 163
198 162
197 161
197 160
196 159
196 158
196 157
195 156
195 155
195 154
194 153
194 152
194 151
193 150
193 149
193 148
192 147
192 146
191 145
191 144
191 143
190 143
189 143
189 144
189 145
189 146
189 147
189 148
189 149
189 150
188 151
188 152
188 153
188 154
188 155
188 156
188 157
187 158
187 159
187 160
187 161
187 162
186 163
186 164
186 165
185 166
185 167
185 168
184 169
184 170
184 171
183 172
183 173
182 174
182 175
181 176
181 177
181 178
180 179
180 180
180 181
180 182
179 183
179 184
179 185
179 186
178 187
178 188
178 189
178 190
178 191
178 192
177 193
177 194
177 195
177 196
177 197
177 198
176 199
176 200
176 201
176 202
176 203
176 204
176 205
176 206
176 207
176 208
176 209
176 210
176 211
175 212
175 213
175 214
175 215
175 216
175 217
175 218
175 219
175 220
175 221
175 222
175 223
175 224
175 225
175 226
175 227
175 228
175 229
175 230
176 231
176 232
176 233
176 234
176 235
176 236
176 237
176 238
176 239
176 240
176 241
176 242
176 243
176 244
176 245
176 246
176 247
176 248
176 249
176 250
176 251
176 252
176 253
176 254
176 255
176 256
176 257
176 258
176 259
177 260
177 261
178 262
178 263
178 264
178 265
178 266
178 267
179 268
179 269
180 270
180 271
181 272
181 273
181 274
181 275
181 276
181 277
182 278
182 279
183 280
183 281
184 282
184 283
185 284
185 285
186 286
186 287
187 288
187 289
187 290
187 291
187 292
188 293
188 294
189 295
189 296
189 297
189 298
190 299
190 300
190 301
190 302
190 303
191 304
191 305
190 306
190 307
189 308
189 309
188 310
187 310
186 311
185 311
184 312
183 312
182 312
181 311
180 311
179 310
178 309
177 308
177 307
177 306
177 305
177 304
177 303
177 302
177 301
177 300
177 299
177 298
177 297
177 296
177 295
177 294
177 293
177 292
177 291
177 290
177 289
177 288
177 287
177 286
177 285
177 284
177 283
177 282
176 281
175 280
175 279
174 278
174 277
173 276
173 275
172 274
172 273
172 272
171 271
170 270
170 269
169 268
168 267
167 266
166 265
165 264
164 263
163 262
162 261
161 260
160 259
159 258
158 257
157 256
157 255
156 254
155 253
155 252
154 251
154 250
153 249
152 248
152 247
151 246
150 245
150 244
149 243
148 242
147 241
146 240
145 239
145 238
144 237
144 236
143 235
143 234
142 233
142 232
141 231
141 230
140 229
140 228
139 227
139 226
138 225
138 224
137 223
137 222
137 221
137 220
136 219
135 218
135 217
134 216
133 215
132 214
131 213
130 212
129 212
128 211
127 210
126 209
126 208
125 207
124 206
124 205
123 204
123 203
122 202
121 201
120 200
119 199
118 198
117 197
116 197
115 196
114 195
113 195
112 194
111 193
110 192
109 192
108 191
107 190
106 189
105 188
104 187
103 186
102 185
101 184
100 183
99 182
98 181
98 180
97 179
96 178
96 177
95 176
95 175
94 174
94 173
93 172
92 172
91 172
91 173
91 174
91 175
91 176
91 177
91 178
91 179
91 180
91 181
91 182
91 183
91 184
91 185
92 186
92 187
92 188
92 189
92 190
93 191
93 192
93 193
93 194
93 195
94 196
94 197
94 198
94 199
94 200
95 201
95 202
95 203
96 204
96 205
96 206
97 207
97 208
98 209
98 210
98 211
98 212
98 213
98 214
98 215
98 216
98 217
98 218
98 219
98 220
98 221
98 222
98 223
98 224
98 225
98 226
98 227
98 228
98 229
98 230
98 231
98 232
98 233
99 234
99 235
99 236
99 237
99 238
99 239
99 240
99 241
100 242
100 243
100 244
100 245
100 246
101 247
101 248
101 249
101 250
102 251
102 252
102 253
102 254
102 255
103 256
103 257
103 258
103 259
103 260
103 261
104 262
104 263
104 264
104 265
104 266
104 267
104 268
104 269
104 270
105 271
105 272
105 273
106 274
106 275
107 276
107 277
107 278
108 279
108 280
108 281
108 282
108 283
108 284
108 285
108 286
108 287
108 288
108 289
109 290
110 291
109 292
108 293
107 294
106 294
105 294
104 293
103 293
102 293
101 293
100 293
99 292
98 292
97 291
96 291
95 290
94 290
93 289
92 288
91 288
90 288
89 287
88 287
87 286
86 286
85 285
84 285
83 284
83 283
82 283
81 283
80 283
80 284
80 285
80 286
80 287
80 288
79 289
79 290
78 291
77 292
76 293
75 293
74 294
73 294
72 294
71 294
70 294
69 294
68 294
67 294
66 294
65 294
64 294
63 294
62 294
61 294
60 294
59 294
58 294
57 294
56 294
55 294
54 294
53 294
52 294
51 294
50 294
49 294
48 295
47 295
46 295
45 295
44 296
43 296
42 296
41 297
40 297
39 298
38 298
37 298
36 299
35 299
34 299
33 300
32 300
31 301
30 301
29 302
28 302
27 302
26 301
25 301
24 301
23 300
22 300
21 299
20 299
19 298
19 297
18 296
18 295
17 294
17 293
17 292
17 291
16 291
15 291
