69 272
69 273
69 274
69 275
69 276
69 277
69 278
69 279
69 280
69 281
69 282
69 283
69 284
69 285
69 286
69 287
69 288
69 289
69 290
70 291
71 291
72 291
73 292
74 292
75 293
76 293
77 294
78 294
79 295
80 295
81 295
82 296
83 296
84 297
85 297
86 298
87 298
88 299
89 299
90 300
91 300
92 301
93 302
94 302
95 303
96 304
97 304
98 305
99 305
100 306
101 306
102 306
103 307
104 307
105 308
106 308
107 309
107 310
108 311
108 312
109 313
109 314
109 315
109 316
109 317
109 318
110 319
111 319
112 319
113 320
114 320
115 321
116 321
117 322
118 323
119 324
120 325
121 325
122 326
123 326
124 326
125 327
126 327
127 328
128 328
129 329
130 330
130 331
131 332
131 333
132 334
132 335
132 336
132 337
133 337
134 337
135 337
136 337
137 338
138 338
139 339
140 339
141 340
141 341
142 342
142 343
142 344
142 345
142 346
142 347
142 348
142 349
142 350
142 351
142 352
142 353
142 354
143 355
144 355
145 355
146 356
147 356
148 357
149 357
150 358
150 359
151 360
151 361
152 361
153 361
154 361
155 362
156 362
157 362
158 363
159 363
160 364
161 364
162 365
162 366
163 367
163 368
164 369
164 370
164 371
164 372
164 373
164 374
165 374
166 374
167 374
168 374
169 374
170 374
171 374
172 374
173 374
174 374
175 374
176 374
177 374
178 373
179 374
180 374
181 375
182 375
183 376
183 377
184 378
185 378
186 378
187 378
188 378
189 378
190 378
191 378
192 378
193 378
194 378
195 378
196 379
197 379
198 380
199 380
200 381
200 382
201 383
201 384
202 385
202 386
202 387
202 388
202 389
203 389
204 389
205 389
206 389
207 389
208 389
209 389
210 389
211 389
212 389
213 389
214 389
215 389
216 389
217 389
218 389
219 390
220 390
221 391
222 392
223 393
223 394
224 395
225 395
226 395
227 395
228 395
229 395
230 395
231 395
232 395
233 395
234 396
235 396
236 396
237 396
238 396
239 396
240 396
241 396
242 396
243 396
244 396
245 396
246 395
247 395
248 394
249 394
250 395
251 396
252 397
252 398
253 399
253 400
253 401
254 401
255 401
256 401
257 401
258 401
259 401
260 401
261 400
262 400
263 399
264 399
265 399
266 398
267 398
268 398
269 398
270 398
271 398
272 398
273 398
274 399
275 399
276 399
277 399
278 399
279 399
280 399
281 399
282 399
283 399
284 399
285 399
286 398
287 398
288 398
289 397
290 397
291 396
292 396
293 395
294 395
295 395
296 394
297 394
298 395
299 395
300 396
300 397
301 398
301 399
302 399
303 399
304 399
305 399
306 399
307 399
308 399
309 399
310 399
311 399
312 399
313 398
314 398
315 397
316 397
317 396
318 396
319 396
320 396
321 396
322 396
323 396
324 396
325 396
326 396
327 396
328 395
329 395
330 394
331 394
332 393
333 393
334 393
335 393
336 393
337 393
338 393
339 393
340 393
341 392
342 392
343 391
344 391
345 391
346 392
347 393
348 394
348 395
349 395
350 395
351 395
352 395
353 395
354 395
355 395
356 395
357 395
358 394
359 394
360 394
361 393
362 393
363 393
364 392
365 392
366 392
367 392
368 392
369 392
370 392
371 392
372 392
373 392
374 392
375 392
376 392
377 392
378 392
379 391
380 391
381 391
382 390
383 390
384 390
385 390
386 390
387 390
388 390
389 389
390 389
391 389
392 389
393 389
394 389
395 389
396 389
397 389
398 389
399 389
400 389
401 389
402 389
403 389
404 388
405 388
406 388
407 388
408 388
409 388
410 387
411 387
412 386
413 386
414 386
415 386
416 386
417 387
418 387
419 387
420 387
421 387
422 387
423 387
424 387
425 387
426 387
427 387
428 387
429 387
430 386
431 386
432 385
433 385
434 385
435 384
436 384
437 384
438 383
439 383
440 383
441 383
442 383
443 383
444 383
445 383
446 383
447 383
448 383
449 383
450 383
451 383
452 383
453 383
454 383
455 383
456 382
457 382
458 381
459 381
460 380
461 380
462 380
463 379
464 379
465 379
466 379
467 379
468 379
469 379
470 379
471 379
472 379
473 379
474 379
475 378
476 378
477 377
478 377
479 376
480 376
481 375
482 375
483 375
484 375
485 375
486 374
487 374
488 373
489 373
490 373
491 373
492 373
493 373
494 373
495 373
496 373
497 372
498 372
499 371
500 371
501 371
502 370
503 370
504 369
505 369
506 369
507 369
508 368
509 368
510 367
511 367
512 366
513 366
514 366
515 366
516 366
517 366
518 366
519 366
520 366
521 365
522 365
523 364
524 364
525 363
526 362
527 362
528 361
529 361
530 360
531 360
532 359
533 359
534 358
535 358
536 358
537 358
538 358
539 357
540 357
541 356
542 356
543 355
544 355
545 355
546 355
547 355
548 355
549 355
550 355
551 355
552 355
553 355
554 355
555 354
556 354
557 353
558 352
559 352
560 351
561 350
562 349
563 349
564 348
565 348
566 347
567 347
568 346
569 346
570 346
571 346
572 345
573 345
574 344
575 343
576 343
577 342
578 342
579 341
580 341
581 340
582 340
583 340
584 339
585 339
586 339
587 339
588 339
589 339
590 339
591 339
592 339
593 339
594 338
595 338
596 337
597 337
598 336
599 336
600 335
601 335
602 334
603 333
604 333
605 332
606 332
607 331
608 331
609 330
610 330
611 330
612 330
613 330
614 330
615 330
616 329
617 328
618 328
619 327
620 326
621 326
622 325
623 324
624 323
625 323
626 322
627 322
628 321
629 321
630 320
631 320
632 320
633 319
634 319
635 319
636 319
637 319
638 319
639 319
640 319
641 319
642 318
643 318
644 318
645 318
646 317
647 317
648 316
649 316
650 315
651 315
652 314
653 314
654 313
655 313
656 312
657 312
658 311
659 311
660 310
661 310
662 309
663 309
664 308
665 308
666 308
667 307
668 307
669 307
670 306
671 306
672 305
673 305
674 304
675 304
676 304
677 303
678 303
679 302
680 302
681 301
682 301
683 301
684 301
685 301
686 301
687 300
688 300
689 300
690 300
691 300
692 301
693 301
694 301
695 301
696 301
697 302
698 302
699 303
700 303
701 303
702 304
703 304
704 305
705 305
706 305
707 306
708 306
709 307
710 307
711 307
712 308
713 308
714 309
715 309
716 310
717 310
718 310
719 310
720 311
721 311
722 312
723 312
724 312
725 312
726 312
727 312
728 312
729 312
730 312
730 311
730 310
730 309
730 308
730 307
730 306
730 305
730 304
730 303
730 302
730 301
730 300
730 299
730 298
730 297
729 296
729 295
728 294
727 293
726 292
725 291
724 290
723 290
722 290
721 289
720 289
719 289
718 288
717 288
716 287
715 287
714 286
713 286
712 286
711 285
710 285
709 285
708 284
707 284
706 283
705 283
704 283
703 283
702 283
701 282
700 282
699 281
698 281
697 281
696 280
695 280
694 279
693 279
692 278
691 278
690 277
689 276
688 276
687 275
686 274
685 273
684 272
683 271
682 270
681 269
680 268
679 268
678 267
677 266
676 265
675 265
674 264
673 263
672 262
671 261
670 261
669 260
668 259
667 258
666 257
665 257
664 256
663 255
662 254
661 253
660 252
659 251
658 250
657 249
657 248
656 247
655 246
654 246
653 245
652 245
651 244
650 243
649 242
648 241
647 240
646 239
646 238
645 237
644 237
643 237
642 236
641 236
640 235
639 235
638 234
637 234
636 233
635 233
634 232
633 231
632 230
631 229
630 228
630 227
629 226
628 226
627 225
626 225
625 224
624 223
623 222
622 221
621 221
620 220
619 219
618 218
617 217
616 217
615 217
614 217
613 217
612 217
611 217
610 216
609 216
608 215
607 215
606 214
605 213
604 212
603 211
602 210
601 209
600 209
599 208
598 208
597 207
596 207
595 206
594 206
593 205
592 204
591 203
590 202
589 201
588 201
587 201
586 201
585 201
584 201
583 201
582 201
581 200
580 200
579 199
578 199
577 198
576 198
575 197
574 196
573 195
572 195
571 194
570 194
569 193
568 193
567 192
566 192
565 191
564 191
563 190
562 189
561 188
560 188
559 187
558 186
557 186
556 186
555 186
554 186
553 186
552 186
551 186
550 186
549 186
548 186
547 185
546 185
545 184
544 184
543 184
542 184
541 183
540 183
539 182
538 182
537 181
536 181
535 180
534 179
533 179
532 178
531 178
530 177
529 176
528 175
527 174
526 174
525 174
524 174
523 174
522 174
521 174
520 174
519 174
518 174
517 173
516 173
515 172
514 172
513 171
512 170
511 169
510 169
509 169
508 169
507 169
506 169
505 169
504 169
503 169
502 169
501 170
500 170
499 169
498 169
497 168
496 167
495 167
494 166
493 165
492 164
491 163
490 163
489 163
488 163
487 163
486 163
485 162
484 162
483 161
482 161
481 160
480 160
479 160
478 160
477 160
476 160
475 160
474 160
473 160
472 160
471 160
470 160
469 161
468 161
467 160
466 160
465 159
464 158
463 157
462 157
461 156
460 156
459 156
458 156
457 156
456 155
455 155
454 154
453 154
452 153
451 153
450 152
449 151
448 151
447 151
446 151
445 151
444 151
443 151
442 151
441 151
440 151
439 151
438 152
437 153
436 153
435 152
434 152
433 151
432 151
431 150
430 150
429 149
428 149
427 148
426 148
425 148
424 148
423 148
422 148
421 148
420 147
419 147
418 146
417 146
416 145
415 145
414 144
413 144
412 143
411 143
410 143
409 143
408 143
407 143
406 143
405 143
404 143
403 143
402 143
401 144
400 144
399 144
398 144
397 144
396 144
395 144
394 144
393 144
392 144
391 144
390 144
389 144
388 143
387 143
386 143
385 142
384 142
383 142
382 142
381 142
380 142
379 142
378 142
377 142
376 142
375 142
374 143
373 144
372 144
371 144
370 144
369 144
368 143
367 143
366 143
365 143
364 143
363 143
362 143
361 143
360 143
359 143
358 143
357 143
356 143
355 142
354 142
353 142
352 141
351 141
350 140
349 140
348 140
347 140
346 140
345 140
344 140
343 140
342 140
341 141
340 142
339 143
338 143
337 144
336 144
335 143
334 143
333 142
332 142
331 141
330 141
329 140
328 140
327 139
326 138
325 138
324 138
323 138
322 138
321 138
320 138
319 138
318 138
317 137
316 137
315 136
314 136
313 135
312 135
311 134
310 134
309 134
308 134
307 134
306 134
305 134
304 134
303 134
302 134
301 134
300 135
300 136
299 137
298 138
297 139
296 139
295 138
294 138
293 137
292 137
291 136
290 136
289 136
288 136
287 136
286 136
285 136
284 136
283 136
282 136
281 136
280 136
279 137
278 137
277 137
276 136
275 136
274 136
273 136
272 136
271 136
270 136
269 136
268 136
267 136
266 136
265 137
265 138
264 139
263 140
262 141
261 141
260 141
259 141
258 141
257 141
256 141
255 141
254 141
253 141
252 141
251 141
250 141
249 141
248 142
247 142
246 143
245 143
244 143
243 143
242 143
241 143
240 143
239 143
238 143
237 143
236 143
235 143
235 144
234 145
234 146
233 147
232 148
231 149
230 149
229 150
228 150
227 150
226 150
225 150
224 150
223 150
222 150
221 150
220 150
219 150
218 150
217 150
216 150
215 151
214 151
213 152
212 152
211 152
210 152
209 152
208 152
207 152
207 153
207 154
207 155
207 156
207 157
207 158
207 159
207 160
207 161
206 162
206 163
205 164
204 165
203 166
202 166
201 167
200 167
199 167
198 167
197 167
196 168
195 168
194 169
193 169
192 169
191 169
190 169
189 169
188 169
187 170
187 171
186 172
186 173
185 174
184 174
183 175
182 175
181 176
180 176
179 176
178 176
177 176
176 176
175 176
174 176
173 176
172 176
171 176
170 176
169 176
168 176
168 177
168 178
168 179
168 180
168 181
168 182
168 183
168 184
168 185
168 186
168 187
168 188
167 189
166 190
165 191
164 191
163 192
162 192
161 192
160 192
159 192
158 192
157 192
156 192
155 192
154 192
153 193
152 193
151 193
150 193
150 194
149 195
149 196
148 197
148 198
147 199
146 199
145 200
144 200
143 201
142 201
141 201
140 202
139 202
138 202
137 203
136 203
135 204
134 204
133 204
132 205
132 206
132 207
132 208
132 209
131 210
131 211
130 212
130 213
129 214
128 214
127 215
126 215
125 216
124 216
123 217
122 217
121 218
120 218
119 219
118 219
117 220
117 221
117 222
117 223
117 224
117 225
117 226
117 227
117 228
117 229
117 230
117 231
117 232
116 233
116 234
115 235
114 236
113 236
112 237
111 238
110 238
109 239
108 240
107 240
106 241
105 242
104 242
103 243
102 243
101 244
100 245
99 246
99 247
99 248
98 249
98 250
97 251
97 252
96 253
96 254
95 255
94 256
93 257
92 257
91 258
90 259
89 259
88 260
87 261
86 261
85 262
84 262
83 263
82 263
81 264
80 264
79 265
78 265
77 266
76 266
75 267
74 267
73 268
72 269
71 270
70 271
69 272
