332 75
331 76
330 76
329 76
328 77
327 77
326 77
325 78
324 78
323 79
322 79
321 80
320 80
319 81
318 81
317 81
316 81
315 82
314 82
313 82
312 83
311 83
310 83
309 84
308 84
307 84
306 84
305 85
304 85
303 85
302 85
301 85
300 86
299 86
298 86
297 87
296 87
295 87
294 88
293 88
292 88
291 88
290 88
289 88
288 89
287 89
286 90
285 90
284 91
283 91
282 92
281 92
280 93
279 93
278 93
277 94
276 94
275 94
274 94
273 94
272 95
271 95
270 95
269 95
268 95
267 96
266 96
265 96
264 96
263 97
262 97
261 97
260 97
259 98
258 98
257 98
256 99
255 99
254 100
253 100
252 101
251 101
250 102
249 102
248 103
247 103
246 104
245 105
244 105
243 106
242 106
241 107
240 108
239 109
238 109
237 110
236 111
235 111
234 112
233 113
232 113
231 114
230 114
229 115
228 116
227 116
226 117
225 118
224 118
223 119
222 120
221 121
220 122
219 123
218 124
217 124
217 125
216 126
215 127
214 128
213 129
212 130
211 131
210 131
210 132
209 133
208 133
207 134
206 135
206 136
205 137
204 137
204 138
203 139
202 140
201 141
200 142
199 142
198 143
197 144
196 145
195 145
194 146
193 147
192 148
191 149
190 150
189 151
188 152
187 153
186 154
185 154
185 155
184 156
183 157
182 158
181 158
181 159
180 160
179 161
178 161
177 162
176 163
176 164
175 165
174 165
173 166
172 167
171 168
170 169
170 170
169 171
169 172
168 173
167 174
166 175
165 176
165 177
164 178
163 179
163 180
162 181
161 182
160 183
159 184
158 185
158 186
157 187
156 188
155 189
155 190
154 191
153 192
153 193
152 194
151 195
151 196
150 197
150 198
149 199
149 200
148 201
147 202
147 203
146 204
146 205
145 206
145 207
145 208
144 209
143 210
143 211
143 212
143 213
143 214
142 215
142 216
141 217
141 218
141 219
141 220
140 221
140 222
140 223
140 224
140 225
139 226
139 227
139 228
139 229
138 230
138 231
138 232
138 233
137 234
137 235
137 236
136 237
136 238
136 239
136 240
135 241
135 242
135 243
135 244
135 245
135 246
135 247
134 248
134 249
133 250
133 251
133 252
133 253
133 254
132 255
132 256
132 257
132 258
131 259
131 260
131 261
131 262
130 263
130 264
130 265
129 266
129 267
129 268
129 269
128 270
128 271
128 272
128 273
128 274
127 275
127 276
127 277
127 278
127 279
127 280
127 281
127 282
127 283
127 284
127 285
127 286
127 287
127 288
127 289
127 290
127 291
127 292
127 293
127 294
127 295
127 296
127 297
127 298
127 299
127 300
127 301
127 302
127 303
127 304
127 305
127 306
127 307
127 308
127 309
127 310
127 311
128 312
128 313
128 314
128 315
129 316
129 317
129 318
129 319
129 320
130 321
130 322
130 323
130 324
130 325
130 326
130 327
130 328
131 329
131 330
131 331
131 332
131 333
131 334
131 335
131 336
131 337
131 338
131 339
131 340
131 341
131 342
131 343
132 344
132 345
131 346
131 347
131 348
130 349
129 349
128 349
127 349
126 350
125 350
124 351
123 351
122 352
121 352
121 353
120 354
120 355
121 355
122 356
121 357
120 358
120 359
121 359
122 360
122 361
122 362
121 363
120 363
119 363
118 364
117 365
117 366
117 367
117 368
117 369
116 370
117 371
117 372
116 373
115 374
114 375
114 376
114 377
114 378
114 379
113 380
113 381
113 382
114 383
113 384
113 385
112 386
112 387
112 388
112 389
112 390
112 391
112 392
112 393
112 394
112 395
112 396
112 397
112 398
112 399
112 400
113 401
113 402
113 403
114 404
114 405
114 406
114 407
114 408
114 409
114 410
114 411
114 412
115 413
115 414
115 415
115 416
116 417
116 418
117 419
117 420
118 421
118 422
119 423
119 424
120 425
120 426
121 427
122 428
122 429
123 430
123 431
124 432
125 433
125 434
125 435
125 436
126 437
126 438
127 439
127 440
128 441
128 442
129 443
129 444
128 445
128 446
129 447
129 448
130 449
130 450
130 451
131 452
132 453
132 454
133 455
133 456
133 457
133 458
134 459
135 460
135 461
136 462
136 463
137 464
138 465
139 466
139 467
140 468
141 469
141 470
142 471
142 472
143 473
144 474
144 475
145 476
146 477
147 478
148 479
149 480
149 481
150 482
151 483
152 484
152 485
153 486
154 487
154 488
154 489
154 490
155 491
156 492
156 493
157 494
158 495
158 496
159 497
159 498
160 499
160 500
161 501
161 502
162 503
162 504
163 505
163 506
164 507
164 508
165 509
165 510
166 511
166 512
167 512
168 513
168 514
168 515
169 516
170 517
171 518
172 519
172 520
173 521
173 522
174 523
175 524
176 525
177 526
177 527
178 528
179 529
180 530
180 531
181 532
181 533
182 534
183 535
183 536
184 537
185 538
186 539
186 540
187 541
188 542
189 543
190 544
191 544
192 545
193 546
193 547
194 547
195 548
196 548
197 549
197 550
198 550
199 551
200 552
201 552
202 553
203 553
204 554
204 555
205 556
206 557
206 558
207 558
208 559
208 560
209 561
209 562
210 563
211 564
212 565
213 566
214 567
215 568
216 569
217 570
218 571
219 572
220 573
221 574
222 574
223 575
224 576
225 577
226 578
227 578
228 579
229 579
230 580
231 580
232 581
233 582
234 582
235 583
236 584
237 584
238 584
239 585
240 586
241 586
242 586
243 587
244 588
245 588
246 588
247 588
248 588
249 589
250 589
251 590
252 590
253 591
254 591
255 592
256 592
257 592
258 593
259 593
260 593
261 594
262 594
263 594
264 595
265 596
266 596
267 597
268 597
269 598
270 599
271 599
272 600
273 601
274 602
275 603
276 604
277 605
278 606
278 607
279 607
280 608
281 609
282 610
283 611
284 612
285 613
286 614
287 614
288 615
289 616
289 617
290 618
291 619
292 620
293 620
294 621
294 622
295 622
296 623
297 624
298 625
299 626
300 626
301 627
302 627
303 627
304 627
305 628
306 628
307 629
308 629
309 630
310 630
311 631
312 632
313 632
314 632
315 633
316 633
317 634
318 635
319 635
320 636
321 636
322 636
323 637
324 638
325 639
326 639
327 640
328 640
329 640
330 641
331 641
332 642
333 642
334 643
335 643
336 643
337 643
338 643
339 643
340 644
341 644
342 644
343 645
344 645
345 646
346 646
347 646
348 646
349 647
350 647
351 648
352 648
353 648
354 648
355 648
356 648
357 648
358 649
359 649
360 649
361 649
362 649
363 649
364 649
365 649
366 650
367 650
368 650
369 650
370 650
371 650
372 650
373 651
374 651
375 651
376 651
377 651
378 651
379 651
380 651
381 651
382 651
383 651
384 651
385 651
386 651
387 651
388 651
389 651
390 651
391 651
392 651
393 651
394 651
395 650
396 650
397 650
398 650
399 650
400 650
401 649
402 649
403 649
404 648
405 648
406 648
407 648
408 647
409 647
410 647
411 646
412 645
413 644
414 644
415 643
416 643
417 642
418 642
419 641
420 641
421 640
422 640
423 640
424 639
425 639
426 638
427 638
428 638
429 637
430 637
431 636
432 636
433 635
434 635
435 635
436 635
437 634
438 634
439 634
440 635
441 635
442 634
443 634
444 634
445 634
446 633
447 633
448 633
449 632
450 632
451 632
452 631
453 631
454 631
455 630
456 630
457 629
458 629
459 629
460 628
461 628
462 628
463 627
464 627
465 626
466 626
467 626
468 626
469 626
470 626
471 626
472 626
473 626
474 625
475 625
476 625
477 625
478 625
479 624
480 624
481 624
482 623
483 623
484 623
485 622
486 622
487 622
488 621
489 621
490 621
491 620
492 620
493 619
494 619
495 619
496 618
497 617
498 617
499 616
500 616
501 615
502 614
503 613
504 612
505 611
506 611
507 610
507 609
508 608
509 608
510 607
511 606
512 605
513 604
514 603
515 602
516 601
516 600
517 599
518 598
519 597
520 596
521 596
522 595
522 594
523 593
524 592
525 591
526 590
527 589
528 588
528 587
529 586
530 585
531 584
532 583
532 582
533 581
534 580
534 579
535 578
535 577
536 576
537 575
538 574
539 573
539 572
540 571
541 570
542 569
543 568
544 567
544 566
545 565
546 564
547 564
547 563
548 562
548 561
549 560
550 560
551 559
551 558
552 557
552 556
553 555
553 554
554 553
555 552
555 551
556 550
556 549
557 548
557 547
558 546
558 545
558 544
559 543
559 542
560 541
560 540
560 539
561 538
561 537
561 536
562 535
562 534
562 533
563 532
563 531
563 530
564 529
564 528
564 527
564 526
564 525
564 524
564 523
565 522
565 521
565 520
565 519
565 518
565 517
565 516
565 515
565 514
565 513
565 512
565 511
565 510
565 509
565 508
565 507
565 506
564 505
564 504
564 503
564 502
564 501
564 500
564 499
563 498
563 497
563 496
563 495
562 494
562 493
562 492
561 491
561 490
561 489
560 488
560 487
559 486
559 485
558 484
558 483
558 482
557 481
556 480
556 479
555 478
555 477
554 476
554 475
553 474
552 473
552 472
551 471
550 470
550 469
549 468
549 467
548 466
548 465
547 465
546 464
545 463
545 462
544 461
544 460
543 459
542 459
541 458
541 457
540 457
539 456
539 455
538 454
537 453
536 452
536 451
535 451
534 450
534 449
533 449
532 448
531 448
530 447
529 446
528 445
527 444
526 443
525 443
524 442
523 441
522 441
521 440
520 440
519 439
518 438
517 438
516 437
515 437
514 437
513 436
512 436
511 436
510 435
509 435
508 434
507 434
506 434
505 434
504 433
503 433
502 433
501 432
500 432
499 432
498 432
497 431
496 431
495 431
494 431
493 430
492 430
491 430
490 430
489 430
488 430
487 429
486 429
485 429
484 429
483 429
482 429
481 429
480 428
479 428
478 428
477 428
476 428
475 427
474 427
473 426
472 425
471 425
470 424
469 423
468 423
467 422
467 421
466 420
466 419
466 418
466 417
465 416
464 415
464 414
464 413
464 412
464 411
464 410
465 409
466 408
467 408
468 408
469 408
470 408
471 408
472 409
473 409
474 409
475 409
476 409
477 409
478 409
479 409
480 409
481 409
482 409
483 410
484 410
485 410
486 410
487 410
488 410
489 411
490 411
491 411
492 411
493 412
494 412
495 412
496 412
497 413
498 413
499 413
500 414
501 414
502 414
503 414
504 415
505 415
506 415
507 415
508 416
509 416
510 416
511 416
512 416
513 417
514 417
515 417
516 417
517 418
518 418
519 419
520 419
521 419
522 419
523 420
524 420
525 420
526 420
527 420
528 420
529 421
530 421
531 422
532 422
533 422
534 422
535 423
536 423
537 423
538 424
539 424
540 424
541 425
542 425
543 425
544 425
545 426
546 426
547 426
548 426
549 427
550 427
551 427
552 428
553 428
554 428
555 429
556 429
557 429
558 429
559 429
560 430
561 430
562 430
563 431
564 431
565 432
566 432
567 432
568 432
569 432
570 433
571 433
572 433
573 434
574 434
575 434
576 435
577 435
578 435
579 435
580 435
581 436
582 435
583 436
584 437
585 437
586 437
587 438
588 438
589 438
590 438
591 438
592 438
593 439
594 440
595 440
596 440
597 440
598 441
599 441
600 440
601 441
602 441
603 442
604 442
605 442
606 443
607 443
608 443
609 444
610 444
611 444
612 444
613 444
614 445
615 446
614 447
615 447
616 447
617 446
618 447
619 447
620 448
621 448
622 448
623 449
624 450
625 450
626 449
627 450
628 451
628 452
629 451
630 452
631 452
632 452
633 453
634 454
635 455
636 455
637 456
638 456
639 456
640 457
641 457
642 457
643 456
644 456
644 455
643 454
642 453
641 452
640 451
641 450
642 449
643 448
643 447
643 446
643 445
642 445
641 444
640 443
639 442
638 442
637 441
636 441
635 441
634 440
633 440
632 441
631 441
630 440
629 440
628 439
627 439
626 439
625 438
624 438
623 438
622 437
621 437
620 437
619 437
618 436
617 436
616 436
615 436
614 436
613 436
612 436
611 436
610 436
609 436
608 436
607 436
606 435
605 435
604 435
603 434
602 434
601 434
600 434
599 433
598 433
597 433
596 433
595 432
594 432
593 432
592 431
591 431
590 431
589 431
588 430
587 430
586 430
585 429
584 429
583 429
582 428
581 428
580 428
579 428
578 427
577 427
576 427
575 426
574 426
573 426
572 426
571 425
570 425
569 425
568 424
567 424
566 424
565 423
564 423
563 423
562 423
561 422
560 422
559 422
558 422
557 421
556 421
555 421
554 420
553 420
552 420
551 419
550 419
549 419
548 419
547 418
546 418
545 418
544 417
543 417
542 417
541 416
540 416
539 416
538 416
537 415
536 415
535 415
534 414
533 414
532 414
531 414
530 413
529 413
528 413
527 413
526 412
525 412
524 412
523 412
522 411
521 411
520 410
519 410
518 410
517 410
516 409
515 409
514 409
513 409
512 408
511 408
510 408
509 407
508 407
507 407
506 406
505 406
504 406
503 406
502 405
501 405
500 405
499 405
498 404
497 404
496 403
495 403
494 403
493 403
492 402
491 402
490 401
489 401
488 401
487 400
486 400
485 400
484 399
483 399
482 398
481 398
480 397
479 396
478 395
477 395
476 394
475 394
474 393
473 392
472 391
471 390
470 389
469 388
468 387
468 386
468 385
467 384
467 383
467 382
468 381
469 381
470 381
471 380
472 380
473 380
474 380
475 380
476 380
477 379
478 379
479 379
480 380
481 379
482 379
483 379
484 379
485 379
486 379
487 379
488 379
489 379
490 380
491 380
492 380
493 380
494 380
495 380
496 380
497 381
498 381
499 381
500 381
501 382
502 382
503 382
504 382
505 383
506 383
507 383
508 384
509 384
510 384
511 384
512 385
513 385
514 385
515 386
516 386
517 386
518 386
519 386
520 386
521 387
522 387
523 387
524 387
525 387
526 387
527 387
528 387
529 387
530 387
531 387
532 387
533 386
534 386
535 386
536 386
537 386
538 386
539 386
540 386
541 386
542 386
543 385
544 385
545 385
546 385
547 384
548 384
549 384
550 384
551 384
552 384
553 383
554 383
555 382
556 382
557 382
558 381
559 381
560 381
561 380
562 379
563 379
564 378
565 377
566 377
567 376
568 376
569 375
570 374
571 373
572 372
573 371
574 370
575 370
576 369
576 368
577 367
578 366
578 365
579 364
580 364
581 363
582 362
582 361
583 360
584 359
585 358
586 357
586 356
587 355
588 354
588 353
589 352
589 351
590 350
591 349
591 348
592 347
593 346
593 345
594 344
595 343
596 342
596 341
597 340
597 339
597 338
597 337
598 336
599 336
599 335
600 334
600 333
601 332
602 331
602 330
603 329
603 328
603 327
604 326
605 325
605 324
605 323
605 322
606 321
606 320
606 319
606 318
606 317
607 316
607 315
607 314
607 313
608 312
608 311
608 310
608 309
608 308
608 307
609 306
609 305
609 304
609 303
609 302
609 301
609 300
608 299
608 298
608 297
608 296
608 295
608 294
608 293
608 292
608 291
608 290
607 289
607 288
607 287
606 286
606 285
606 284
606 283
605 282
605 281
605 280
605 279
605 278
605 277
605 276
605 275
604 274
604 273
604 272
604 271
604 270
604 269
604 268
604 267
604 266
604 265
604 264
603 263
603 262
603 261
603 260
603 259
603 258
603 257
603 256
602 255
602 254
602 253
602 252
602 251
602 250
602 249
601 248
601 247
601 246
601 245
600 244
600 243
600 242
599 241
599 240
598 239
598 238
598 237
597 236
597 235
596 234
596 233
596 232
595 231
595 230
594 229
594 228
594 227
593 226
593 225
592 224
591 223
591 222
590 221
590 220
589 219
589 218
588 217
587 216
587 215
586 214
586 213
585 212
585 211
584 210
584 209
583 208
582 207
582 206
582 205
581 204
581 203
580 202
580 201
580 200
579 199
579 198
578 197
577 196
577 195
577 194
576 193
576 192
575 191
574 190
574 189
574 188
573 187
573 186
572 185
571 184
570 183
569 182
569 181
568 180
567 179
566 178
565 177
564 176
564 175
563 174
562 173
561 172
561 171
560 171
559 170
559 169
558 168
557 167
556 166
555 165
554 164
554 163
553 162
552 161
551 160
550 159
549 158
548 157
547 156
546 155
545 155
544 154
543 153
542 152
541 152
540 151
539 150
538 149
537 149
536 148
535 147
534 146
533 146
532 145
531 145
530 144
529 144
528 144
527 143
526 142
525 142
524 141
523 141
522 141
521 140
520 139
519 139
518 139
517 138
516 138
515 137
514 137
513 137
512 136
511 135
510 135
509 134
508 133
507 133
506 132
505 131
504 130
503 129
502 128
502 127
501 126
500 125
500 124
499 124
498 123
497 122
496 121
496 120
495 120
494 119
493 118
492 117
491 116
490 115
489 114
488 113
487 113
486 112
485 111
484 110
483 109
482 109
481 108
480 107
479 107
478 106
477 105
476 104
475 103
474 102
473 102
472 101
471 101
470 100
469 99
468 98
467 98
466 97
465 97
464 96
463 95
462 95
461 94
460 94
459 93
458 92
457 92
456 91
455 91
454 90
453 90
452 89
451 89
450 88
449 88
448 87
447 87
446 86
445 86
444 86
443 85
442 85
441 85
440 84
439 84
438 84
437 83
436 83
435 83
434 82
433 82
432 82
431 81
430 81
429 81
428 81
427 80
426 80
425 80
424 79
423 79
422 79
421 78
420 78
419 78
418 78
417 78
416 77
415 77
414 77
413 77
412 77
411 77
410 77
409 77
408 77
407 77
406 77
405 77
404 77
403 77
402 77
401 77
400 76
399 76
398 76
397 76
396 76
395 76
394 76
393 76
392 76
391 76
390 76
389 76
388 76
387 77
386 77
385 77
384 77
383 77
382 77
381 77
380 78
379 78
378 77
377 77
376 77
375 77
374 77
373 77
372 77
371 77
370 77
369 77
368 76
367 76
366 76
365 76
364 76
363 76
362 76
361 75
360 76
359 75
358 75
357 75
356 75
355 75
354 75
353 75
352 75
351 75
350 75
349 75
348 75
347 75
346 75
345 75
344 75
343 75
342 75
341 75
340 75
339 75
338 75
337 75
336 75
335 75
334 75
333 75
332 75
