358 79
358 80
358 81
357 82
357 83
357 84
356 85
355 86
354 87
353 88
352 89
351 89
350 89
349 89
348 90
347 90
346 90
345 91
344 92
343 91
342 91
341 91
340 91
339 92
338 92
337 92
336 92
335 92
334 92
333 92
332 92
331 91
330 92
329 92
328 91
327 92
326 91
325 91
324 91
323 91
322 91
321 91
320 91
319 91
318 91
317 91
316 91
315 91
314 92
313 92
312 92
311 92
310 92
309 92
308 92
307 92
306 92
305 92
304 92
303 92
302 92
301 92
300 92
299 93
298 93
297 94
296 94
295 94
294 94
293 94
292 95
291 95
290 95
289 95
288 95
287 95
286 95
285 95
284 95
283 95
282 96
281 96
280 95
279 95
278 95
277 95
276 96
275 96
274 96
273 96
272 96
271 96
270 96
269 96
268 97
267 97
266 97
265 97
264 97
263 98
262 98
261 98
260 98
259 99
258 99
257 99
256 99
255 100
254 100
253 100
252 101
251 101
250 101
249 101
248 101
247 101
246 101
245 101
244 101
243 102
242 102
241 102
240 102
239 102
238 102
237 102
236 101
235 102
235 103
235 104
235 105
235 106
235 107
234 108
234 109
233 110
232 111
232 112
231 113
230 114
229 114
228 115
227 115
227 116
226 117
225 118
224 118
223 119
222 119
221 119
220 120
219 120
218 121
217 121
216 121
215 121
214 121
213 122
212 122
211 122
210 122
210 123
209 124
208 124
207 124
206 125
205 124
204 124
203 125
202 125
201 125
200 126
199 126
198 126
197 127
196 127
195 128
194 127
193 128
192 128
191 128
191 129
190 130
189 129
188 130
187 129
186 130
185 130
184 131
183 131
182 132
181 132
180 132
179 133
178 134
177 134
176 135
175 134
174 135
173 135
172 135
171 136
170 136
169 136
168 136
167 137
166 138
165 138
164 139
163 140
163 141
162 142
161 142
161 143
161 144
160 145
159 146
159 147
159 148
158 149
157 150
156 151
155 152
155 153
154 154
153 155
152 155
151 155
150 156
149 156
148 157
147 158
146 159
145 159
144 159
143 160
143 161
142 162
141 161
140 161
139 161
138 162
137 163
136 164
135 165
134 166
133 167
132 168
131 168
130 169
129 170
128 171
127 172
127 173
126 174
125 175
124 176
123 177
122 178
122 179
121 180
120 181
119 181
118 182
118 183
117 184
116 184
115 185
114 186
113 187
112 188
111 188
110 189
109 190
108 190
107 191
106 192
105 193
104 193
103 194
102 195
101 195
100 196
99 197
98 198
98 199
97 200
96 201
95 201
94 202
93 203
92 204
91 205
90 206
89 207
88 207
88 208
87 209
86 209
85 210
84 211
83 212
82 213
82 214
81 215
80 216
79 217
79 218
78 219
77 220
76 221
75 222
75 223
74 224
73 225
72 226
72 227
71 228
70 229
69 230
68 231
68 232
67 233
66 234
65 235
65 236
64 237
63 238
62 239
61 240
60 241
60 242
59 243
59 244
60 245
61 245
62 246
63 247
64 248
65 248
66 249
67 250
68 250
69 251
70 252
71 253
72 253
73 254
74 255
75 256
76 256
77 257
78 258
79 258
80 258
81 259
82 260
83 260
84 260
85 261
86 262
87 263
88 264
89 265
90 266
91 267
92 267
93 268
94 269
95 270
96 271
96 272
96 273
97 274
97 275
97 276
97 277
97 278
98 279
98 280
98 281
97 282
97 283
97 284
96 285
97 285
98 285
99 286
100 286
101 287
102 287
103 287
104 288
105 288
106 289
107 289
108 289
109 289
110 290
111 290
112 291
113 292
114 293
115 293
116 293
117 294
118 295
119 295
120 295
121 296
122 297
123 297
124 298
125 298
126 299
127 300
128 300
129 301
130 302
131 303
132 303
133 304
134 305
134 306
135 307
135 308
135 309
136 310
136 311
136 312
136 313
136 314
136 315
136 316
136 317
135 318
135 319
135 320
136 320
137 321
138 321
139 322
140 322
141 322
142 322
143 322
144 323
145 323
146 323
147 323
148 324
149 325
150 325
151 325
152 326
153 327
154 328
155 329
156 330
157 331
158 332
159 332
160 333
160 334
161 335
162 336
163 336
164 337
165 338
166 339
167 339
168 340
169 341
170 342
171 342
172 343
173 344
174 344
175 344
176 345
177 346
178 347
179 347
180 347
181 348
182 348
183 348
184 349
185 348
186 348
187 349
188 349
189 350
190 350
191 350
192 350
193 350
194 351
195 351
196 351
197 352
198 352
199 352
200 352
201 352
202 353
203 353
204 354
205 354
206 355
207 355
208 355
209 356
210 357
211 358
212 359
213 360
214 361
215 362
215 363
216 364
217 365
218 366
218 367
218 368
219 369
219 370
220 371
221 371
222 371
223 371
224 371
225 371
226 371
227 370
228 370
229 370
230 371
231 371
232 370
233 370
234 371
235 371
236 370
237 371
238 372
239 372
240 373
241 373
242 373
243 373
244 374
245 374
246 374
247 375
247 376
248 375
249 376
250 376
251 376
252 377
253 377
254 378
255 378
256 378
257 379
258 380
259 380
260 381
261 381
262 382
263 383
264 383
265 384
266 384
267 384
268 384
269 385
270 386
271 386
272 386
273 387
274 387
275 387
276 387
277 388
278 388
279 388
280 388
281 388
282 389
283 389
284 389
285 389
286 390
287 390
288 389
289 390
290 390
291 390
292 390
293 391
294 391
295 391
296 391
297 391
298 391
299 391
300 391
301 391
302 392
303 392
304 391
305 391
306 391
307 391
308 392
309 392
310 392
311 392
312 392
313 393
314 393
315 393
316 394
317 394
318 394
319 395
320 395
321 396
322 397
323 397
324 397
325 398
326 399
327 400
328 401
329 402
330 403
331 404
332 404
333 404
334 404
335 404
336 404
337 404
338 404
339 404
340 404
341 404
342 404
343 404
344 404
345 404
346 404
347 403
348 403
349 403
350 404
351 404
352 403
353 403
354 404
355 404
356 404
357 404
358 404
359 404
360 404
361 404
362 404
363 404
364 404
365 404
366 404
367 404
368 404
369 404
370 404
371 404
372 404
373 404
374 404
375 404
376 405
377 405
378 405
379 405
380 405
381 405
382 404
383 404
384 404
385 404
386 404
387 404
388 404
389 404
390 403
391 403
392 403
393 403
394 402
395 402
396 402
397 402
398 401
399 401
400 401
401 400
402 400
403 399
404 399
405 399
406 399
407 399
408 399
409 399
410 399
411 399
412 398
413 398
414 397
415 398
416 397
417 398
418 397
419 397
420 397
421 397
422 397
423 397
424 397
425 397
426 396
427 396
428 396
429 396
430 396
431 396
432 396
433 396
434 396
435 396
436 396
437 395
438 395
439 395
440 394
441 394
442 394
443 394
444 394
445 393
446 393
447 393
448 392
449 392
450 392
451 392
452 391
453 391
454 391
455 391
456 390
457 390
458 390
459 389
460 389
461 389
462 388
463 388
464 388
465 388
466 387
467 387
468 387
469 386
470 386
471 386
472 385
473 385
474 385
475 384
476 384
477 384
478 383
479 383
480 383
481 382
482 382
483 382
484 381
485 381
486 381
487 380
488 379
489 379
490 379
491 378
492 378
493 377
494 377
495 376
496 376
497 375
498 375
499 375
500 375
501 374
502 374
503 374
504 374
505 374
506 374
507 374
508 373
509 373
510 374
511 374
512 374
513 373
514 372
515 372
516 372
517 372
518 372
519 371
520 371
521 371
522 370
523 370
524 369
525 369
526 369
527 368
528 368
529 367
530 367
531 366
532 365
533 365
534 365
535 364
536 363
537 363
538 362
539 362
540 361
541 360
542 360
543 359
544 358
545 358
546 357
547 356
548 355
549 354
550 354
551 353
552 353
553 352
554 352
555 351
556 350
557 350
558 349
559 348
560 348
561 347
562 347
563 346
564 346
565 345
566 345
567 344
568 344
569 343
570 343
571 343
572 342
573 342
574 341
575 341
576 341
577 340
578 340
579 340
580 340
581 340
582 340
583 339
583 338
584 337
585 336
586 336
586 335
587 334
588 333
588 332
589 331
590 330
591 329
591 328
592 327
593 326
594 325
595 324
596 323
597 323
597 322
598 321
599 321
600 320
601 319
602 319
603 318
604 317
605 316
606 316
606 315
607 314
608 313
609 312
610 311
610 310
611 309
612 308
613 307
614 306
614 305
615 304
616 304
617 303
617 302
618 301
618 300
619 299
620 298
621 297
622 296
622 295
622 294
621 293
622 292
623 292
624 291
623 290
624 289
625 289
625 288
625 287
626 286
626 285
627 284
627 283
627 282
627 281
627 280
628 279
628 278
628 277
628 276
628 275
628 274
629 273
629 272
629 271
629 270
629 269
629 268
629 267
629 266
629 265
629 264
629 263
630 262
630 261
630 260
631 259
631 258
631 257
630 257
629 257
628 257
627 257
626 256
625 257
624 256
624 257
624 258
623 259
622 258
622 257
622 256
621 256
620 257
619 256
619 255
619 254
619 255
618 256
617 255
617 254
616 254
615 255
614 254
613 253
614 252
615 251
616 251
617 251
618 251
619 252
619 251
620 250
621 251
621 252
621 251
621 250
621 249
620 248
619 248
618 249
617 248
617 247
617 246
617 245
617 244
618 243
619 243
620 243
621 242
622 243
623 243
623 242
624 241
625 241
626 240
627 240
628 240
627 239
627 238
627 237
627 236
627 235
627 234
627 233
627 232
627 231
627 230
627 229
627 228
627 227
627 226
627 225
627 224
627 223
627 222
627 221
627 220
627 219
627 218
627 217
627 216
627 215
627 214
627 213
627 212
626 211
626 210
626 209
625 208
624 207
624 206
624 205
624 204
623 203
623 202
623 201
622 200
621 199
621 198
620 197
620 196
620 195
619 195
618 194
617 193
616 192
616 191
616 190
615 189
614 188
613 187
613 186
613 185
612 185
611 184
610 183
609 182
608 181
607 180
606 180
605 179
605 178
604 178
603 177
603 176
602 175
601 175
600 176
599 175
599 174
599 173
598 172
597 172
596 171
595 170
594 169
593 169
592 168
591 167
590 166
589 166
588 165
587 164
586 163
585 163
584 162
583 162
582 161
581 160
580 159
579 158
578 158
577 157
576 156
575 156
574 155
574 154
573 154
572 153
571 152
570 151
569 151
568 150
567 150
566 149
565 148
564 147
563 146
563 145
562 145
561 144
561 143
560 142
560 141
559 140
559 139
558 138
558 137
557 136
557 135
556 134
555 133
554 134
553 134
552 134
551 134
550 134
549 134
548 134
547 135
546 135
545 135
544 135
543 135
542 134
541 134
540 134
539 134
538 135
537 134
536 134
535 133
534 133
533 133
532 132
531 132
530 131
529 131
528 130
527 130
526 129
525 129
524 128
523 128
522 127
521 127
520 126
519 126
518 126
517 125
516 125
515 124
514 124
513 124
512 123
511 123
510 123
509 122
508 122
507 121
506 121
505 120
504 120
503 120
502 119
501 119
500 118
499 118
498 117
497 117
496 117
495 116
494 116
493 116
492 115
491 114
490 114
489 113
488 112
487 112
486 111
485 110
484 110
483 109
482 109
481 108
480 108
479 107
478 106
477 106
476 106
475 105
474 105
473 104
472 103
471 103
470 103
469 102
468 102
467 102
466 101
465 101
464 100
463 99
462 99
461 99
460 99
459 98
458 97
457 97
456 97
455 97
454 96
453 96
452 95
451 95
450 94
449 94
448 94
447 93
446 93
445 92
444 92
443 91
442 91
441 90
440 90
439 89
438 89
437 88
436 87
435 87
434 86
433 86
432 85
431 85
430 85
429 84
428 83
427 82
426 82
425 82
424 82
423 82
422 83
421 83
420 83
419 84
418 84
417 84
416 84
415 85
414 85
413 85
412 85
411 85
410 85
409 85
408 85
407 85
406 85
405 85
404 85
403 85
402 85
401 85
400 85
399 85
398 85
397 85
396 85
395 85
394 85
393 85
392 85
391 85
390 85
389 85
388 85
387 85
386 84
385 84
384 84
383 84
382 84
381 84
380 84
379 84
378 83
377 83
376 83
375 83
374 82
373 82
372 82
371 81
370 81
369 81
368 81
367 81
366 81
365 80
364 80
363 80
362 79
361 79
360 79
359 79
358 79
