313 29
312 30
312 31
312 32
312 33
312 34
312 35
312 36
312 37
312 38
312 39
312 40
311 41
311 42
311 43
312 44
312 45
312 46
312 47
312 48
312 49
312 50
312 51
313 52
313 53
313 54
313 55
313 56
313 57
314 58
314 59
314 60
315 61
315 62
315 63
315 64
316 65
316 66
316 67
317 68
317 69
317 70
317 71
317 72
318 73
318 74
318 75
318 76
319 77
319 78
319 79
319 80
320 81
320 82
320 83
320 84
321 85
321 86
321 87
321 88
322 89
322 90
323 91
323 92
323 93
324 94
324 95
325 96
325 97
326 98
326 99
327 100
327 101
328 102
329 103
330 104
330 105
331 106
332 107
333 108
333 109
334 110
334 111
335 112
335 113
336 114
336 115
337 116
337 117
338 118
338 119
339 120
340 121
340 122
341 123
342 124
343 125
344 126
344 127
345 128
346 129
346 130
347 131
347 132
348 133
348 134
349 135
349 136
350 137
351 138
352 139
353 140
354 141
354 142
355 143
356 144
357 145
358 146
358 147
359 148
359 149
360 150
361 151
362 152
362 153
363 154
364 155
365 156
366 157
367 158
368 159
369 160
370 160
371 161
372 161
373 162
374 162
375 163
376 163
377 164
378 164
379 165
380 166
381 166
382 167
383 168
384 169
385 169
386 170
387 170
388 171
389 171
390 172
391 172
392 172
393 173
394 173
395 174
396 174
397 175
398 175
399 175
400 175
401 176
402 176
403 176
404 176
405 176
406 176
407 176
408 176
409 176
410 176
411 176
412 176
413 175
414 175
415 175
416 174
417 174
418 174
419 174
420 175
421 176
421 177
420 178
419 178
418 178
417 179
416 179
415 179
414 179
413 179
412 179
411 179
410 179
409 179
408 179
407 179
406 179
405 179
404 179
403 179
402 179
401 179
400 179
399 179
398 179
397 179
396 179
395 179
394 180
393 180
392 180
391 180
390 180
389 180
388 180
387 180
386 180
385 180
384 180
383 180
382 180
381 180
380 180
379 180
378 180
377 180
376 180
375 180
374 181
373 181
372 181
371 181
370 181
369 181
368 181
367 181
366 181
365 181
364 181
363 181
362 181
361 181
360 181
359 181
358 181
357 181
356 181
355 181
354 182
353 182
352 182
351 182
350 182
349 182
348 182
347 182
346 182
345 182
344 182
343 182
342 182
341 182
340 182
339 182
338 182
337 182
336 182
335 182
334 182
333 182
332 182
331 182
330 182
329 182
328 181
327 181
326 180
325 179
325 178
325 177
324 176
324 175
324 174
324 173
324 172
324 171
325 170
325 169
325 168
325 167
325 166
324 165
324 164
324 163
324 162
324 161
323 160
323 159
323 158
323 157
322 156
322 155
322 154
321 153
321 152
321 151
320 150
320 149
319 148
319 147
318 146
318 145
317 144
317 143
316 142
316 141
315 140
315 139
314 138
313 137
313 136
312 135
311 134
310 133
309 132
308 131
307 130
307 129
306 129
305 128
304 127
303 126
302 125
301 124
300 123
300 122
299 121
298 120
297 119
296 118
295 117
294 116
293 115
292 114
291 114
290 113
289 112
288 111
287 110
286 109
285 108
284 108
283 107
282 106
281 105
280 105
279 104
278 103
277 102
276 102
275 101
274 100
273 100
272 99
271 98
270 97
269 97
268 96
267 96
266 95
265 94
264 94
263 93
262 93
261 92
260 91
259 90
258 90
257 89
256 89
255 88
254 87
253 87
252 86
251 86
250 85
249 84
248 83
247 83
246 82
245 82
244 81
243 81
242 80
241 80
240 79
239 79
238 78
237 78
236 78
235 77
234 76
233 76
232 76
231 75
230 74
229 74
228 74
227 73
226 73
225 73
224 72
223 72
222 72
221 71
220 71
219 71
218 71
217 70
216 69
215 69
214 68
213 68
212 67
211 67
210 66
209 66
208 66
207 65
206 65
205 64
204 64
203 64
202 63
201 63
200 63
199 63
198 62
197 62
196 61
195 61
194 61
193 61
192 60
191 60
190 60
190 61
190 62
190 63
190 64
190 65
191 66
191 67
191 68
192 69
192 70
192 71
193 72
193 73
193 74
194 75
194 76
194 77
194 78
195 79
195 80
195 81
195 82
195 83
196 84
196 85
196 86
197 87
197 88
198 89
198 90
199 91
200 92
200 93
201 94
202 95
202 96
203 97
203 98
204 99
204 100
205 101
205 102
206 103
207 104
208 105
209 106
209 107
210 108
211 109
212 110
212 111
213 112
214 113
215 114
216 115
217 116
218 117
219 118
220 119
221 120
221 121
222 121
223 122
223 123
224 124
225 125
226 126
227 127
228 128
229 129
229 130
230 131
231 132
232 133
232 134
233 135
234 136
235 137
236 138
237 139
238 140
239 141
240 142
241 143
242 144
243 144
244 145
245 146
246 147
247 147
248 148
249 149
249 150
250 151
251 152
252 153
253 154
254 154
255 155
256 156
257 157
258 158
259 159
260 160
261 161
262 162
263 163
264 163
265 164
266 165
267 165
268 166
269 167
270 167
271 168
272 169
273 169
274 170
275 170
276 171
277 171
278 172
279 172
280 173
281 173
282 173
283 174
284 174
285 174
286 175
287 175
288 176
289 176
290 177
291 177
292 177
293 178
294 178
295 178
296 179
297 179
298 179
299 179
300 180
301 180
302 180
303 180
304 180
305 180
306 180
307 180
308 180
309 180
310 180
311 179
312 179
313 179
314 179
315 178
316 178
317 178
318 177
319 177
320 177
321 177
322 178
323 179
324 180
324 181
323 182
322 182
321 183
320 183
319 183
318 183
317 183
316 183
315 184
314 184
313 184
312 184
311 184
310 184
309 184
308 184
307 184
306 185
305 185
304 185
303 185
302 185
301 185
300 185
299 185
298 185
297 185
296 186
295 186
294 186
293 186
292 186
291 186
290 186
289 186
288 186
287 187
286 187
285 187
284 187
283 187
282 187
281 187
280 187
279 187
278 187
277 188
276 188
275 188
274 188
273 188
272 188
271 188
270 188
269 188
268 188
267 188
266 189
265 189
264 189
263 189
262 189
261 189
260 189
259 189
258 189
257 189
256 189
255 190
254 190
253 190
252 190
251 190
250 190
249 190
248 190
247 190
246 190
245 190
244 190
243 190
242 189
242 188
241 187
241 186
241 185
240 184
240 183
241 182
241 181
241 180
242 179
242 178
242 177
242 176
242 175
242 174
242 173
241 172
241 171
241 170
241 169
241 168
241 167
240 166
240 165
240 164
240 163
240 162
239 161
239 160
239 159
238 158
238 157
238 156
237 155
237 154
236 153
236 152
235 151
235 150
234 149
234 148
233 147
233 146
232 145
232 144
231 143
231 142
230 141
230 140
229 139
229 138
228 137
228 136
227 135
226 134
225 133
224 132
224 131
223 130
222 129
222 128
221 127
220 126
219 125
218 124
218 123
217 122
216 121
215 120
214 119
213 118
212 117
211 116
210 115
210 114
209 113
208 112
207 111
206 110
205 109
204 108
203 107
202 106
201 105
200 104
199 103
198 102
197 102
196 101
195 100
194 99
193 99
192 98
191 97
190 96
189 95
188 95
187 94
186 93
185 92
184 91
183 91
182 90
181 89
180 89
179 89
178 88
177 88
176 87
175 86
174 86
173 85
172 84
171 84
170 83
169 82
168 81
167 81
166 80
165 79
164 78
163 78
162 77
161 77
160 76
159 76
158 76
157 75
156 74
155 74
154 73
153 72
152 72
151 71
150 71
149 70
148 70
147 69
146 69
145 69
144 68
143 68
142 67
141 67
140 66
139 66
138 65
137 65
136 65
135 65
134 64
133 64
132 64
131 64
130 63
129 63
128 63
127 64
127 65
127 66
128 67
128 68
128 69
128 70
129 71
129 72
129 73
129 74
130 75
130 76
130 77
130 78
130 79
131 80
131 81
131 82
132 83
132 84
132 85
133 86
133 87
133 88
134 89
134 90
134 91
135 92
135 93
136 94
137 95
137 96
138 97
138 98
139 99
139 100
140 101
140 102
140 103
141 104
141 105
142 106
142 107
143 108
143 109
144 110
144 111
145 112
146 113
146 114
147 115
148 116
149 117
149 118
150 119
151 120
152 121
153 122
153 123
154 124
155 125
156 126
157 127
157 128
158 129
159 130
159 131
160 132
161 133
161 134
162 135
163 136
163 137
164 138
164 139
165 140
165 141
166 142
167 143
168 144
169 145
170 146
170 147
171 148
172 149
173 150
174 151
175 152
176 153
176 154
177 155
177 156
178 157
179 158
180 159
181 160
182 161
183 162
184 162
185 163
186 164
187 165
188 166
189 167
190 168
191 169
192 169
193 170
194 171
195 172
196 173
197 173
198 174
199 175
200 175
201 176
202 176
203 177
204 178
205 178
206 179
207 179
208 180
209 181
210 181
211 182
212 182
213 182
214 183
215 183
216 183
217 184
218 184
219 184
220 184
221 185
222 185
223 185
224 185
225 185
226 185
227 185
228 185
229 185
230 185
231 185
232 185
233 185
234 185
235 185
236 185
237 185
238 186
239 187
239 188
240 189
240 190
239 191
238 191
237 191
236 191
235 192
234 192
233 192
232 192
231 192
230 192
229 193
228 193
227 193
226 193
225 193
224 193
223 194
222 194
221 194
220 194
219 194
218 194
217 194
216 194
215 195
214 195
213 195
212 195
211 195
210 195
209 195
208 196
207 196
206 196
205 196
204 196
203 196
202 196
201 196
200 196
199 196
198 196
197 196
196 196
195 196
194 196
193 195
193 194
192 193
192 192
191 191
190 190
189 189
188 188
188 187
187 186
186 185
185 184
184 183
183 182
182 181
181 181
180 180
180 179
179 179
178 178
177 178
176 177
175 177
174 176
173 176
172 175
171 175
170 174
169 174
168 173
167 173
166 172
165 172
164 172
163 171
162 171
161 171
160 171
159 170
158 170
157 170
156 170
155 169
154 169
153 169
152 169
151 169
150 169
149 169
148 169
147 169
146 169
145 169
144 169
143 169
142 169
141 168
140 168
139 168
138 168
137 168
136 168
135 168
134 168
133 168
132 167
131 167
130 167
129 167
128 167
127 167
126 168
125 168
124 168
123 168
122 169
121 169
120 169
119 170
118 170
117 170
116 171
115 171
114 171
113 171
112 172
111 172
110 172
109 172
108 172
107 172
106 172
105 172
104 173
103 173
102 173
101 173
100 173
99 173
98 174
97 174
96 174
95 174
94 174
93 174
92 175
91 175
90 175
89 176
88 176
87 176
86 176
85 177
84 177
83 177
82 177
81 177
80 178
79 178
78 178
77 179
76 179
75 179
74 180
73 181
72 181
71 181
70 181
69 182
68 183
67 183
66 184
65 184
64 184
63 185
62 186
61 186
60 187
59 187
58 188
57 188
56 189
55 190
54 190
53 191
52 192
51 192
50 193
49 194
48 194
47 195
46 196
45 196
44 197
43 197
42 198
41 199
40 199
39 199
38 198
39 199
40 200
41 201
42 202
43 202
44 203
45 204
46 204
47 205
48 205
49 206
50 206
51 207
52 208
53 208
54 208
55 209
56 209
57 209
58 210
59 210
60 211
61 211
62 212
63 212
64 213
65 213
66 213
67 214
68 214
69 215
70 215
71 215
72 216
73 216
74 216
75 217
76 217
77 217
78 218
79 218
80 218
81 219
82 219
83 219
84 220
85 220
86 220
87 220
88 221
89 221
90 221
91 222
92 222
93 222
94 222
95 222
96 222
97 223
98 223
99 223
100 223
101 224
102 224
103 224
104 225
105 225
106 225
107 225
108 225
109 225
110 225
111 225
112 225
113 225
114 225
115 225
116 225
117 225
118 225
119 225
120 225
121 226
122 226
123 226
124 226
125 226
126 226
127 226
128 226
129 226
130 226
131 226
132 226
133 226
134 226
135 226
136 226
137 225
138 225
139 225
140 225
141 225
142 225
143 225
144 225
145 225
146 225
147 224
148 224
149 224
150 224
151 224
152 224
153 224
154 223
155 223
156 223
157 223
158 222
159 222
160 222
161 221
162 221
163 221
164 221
165 220
166 220
167 219
168 219
169 219
170 218
171 218
172 217
173 216
174 216
175 215
176 214
177 213
178 212
179 212
180 211
181 210
182 209
183 209
184 208
185 207
186 206
187 205
188 204
189 203
190 202
191 201
192 200
193 199
194 199
195 198
196 198
197 198
198 198
199 198
200 198
201 198
202 198
203 198
204 197
205 197
206 197
207 197
208 197
209 196
210 196
211 196
212 196
213 196
214 195
215 195
216 195
217 195
218 195
219 195
220 195
221 195
222 194
223 194
224 194
225 194
226 194
227 194
228 194
229 193
230 193
231 193
232 193
233 193
234 193
235 192
236 192
237 192
238 192
239 192
240 192
241 192
242 192
243 192
244 192
245 193
245 194
245 195
245 196
245 197
244 198
243 199
242 198
241 198
240 198
239 198
238 198
237 197
236 197
235 197
234 197
233 197
232 197
231 197
230 197
229 197
228 197
227 197
226 197
225 197
224 197
223 198
222 198
221 198
220 198
219 198
218 199
217 199
216 199
215 200
214 200
213 201
212 201
211 201
210 202
209 202
208 203
207 204
206 204
205 205
204 205
203 206
202 207
201 208
200 208
199 209
198 210
197 211
196 212
195 213
194 214
193 214
192 215
191 216
190 217
189 218
188 219
187 220
186 221
185 222
185 223
184 224
183 225
182 226
181 227
180 228
180 229
179 230
178 231
177 232
177 233
176 234
175 235
174 236
174 237
173 238
172 239
172 240
171 241
170 242
170 243
169 244
168 245
168 246
167 247
167 248
167 249
166 250
165 251
165 252
164 253
163 254
163 255
163 256
162 257
162 258
161 259
161 260
161 261
160 262
160 263
159 264
159 265
159 266
158 267
158 268
157 269
156 270
156 271
155 272
154 273
154 274
153 275
152 276
152 277
151 278
151 279
150 280
150 281
149 282
149 283
148 284
148 285
147 286
147 287
146 288
146 289
146 290
146 291
145 292
145 293
145 294
145 295
144 296
144 297
144 298
144 299
143 300
143 301
143 302
142 303
142 304
142 305
141 306
141 307
141 308
140 309
140 310
140 311
139 312
139 313
139 314
138 315
138 316
138 317
138 318
137 319
137 320
137 321
137 322
137 323
137 324
138 324
139 324
140 324
141 323
142 323
143 323
144 322
145 322
146 322
147 321
148 321
149 320
150 320
151 320
152 319
153 319
154 318
155 318
156 318
157 317
158 317
159 316
160 316
161 315
162 315
163 315
164 314
165 314
166 313
167 313
168 312
169 312
170 311
171 310
172 310
173 309
174 308
175 308
176 307
177 306
178 305
179 305
180 304
181 304
182 303
183 302
184 302
185 301
186 300
187 300
188 299
189 298
190 297
191 297
192 296
193 295
194 295
195 294
196 293
197 292
198 291
199 290
200 290
201 289
202 288
203 287
204 286
205 285
206 284
207 283
208 282
209 281
210 281
211 280
212 279
213 278
214 277
215 276
215 275
216 274
217 273
218 272
219 271
220 270
220 269
221 268
222 267
223 266
224 265
225 264
226 263
227 262
228 261
229 260
230 259
231 258
232 257
232 256
233 255
233 254
234 253
234 252
235 251
235 250
236 249
237 248
237 247
238 246
239 245
239 244
240 243
240 242
241 241
241 240
242 239
242 238
242 237
243 236
243 235
243 234
243 233
244 232
244 231
244 230
245 229
245 228
245 227
246 226
246 225
246 224
247 223
247 222
247 221
247 220
247 219
248 218
248 217
248 216
248 215
248 214
248 213
248 212
248 211
248 210
248 209
248 208
248 207
248 206
248 205
248 204
248 203
248 202
247 201
247 200
247 199
247 198
247 197
247 196
247 195
248 194
249 193
250 192
251 192
252 192
253 192
254 192
255 192
256 192
257 191
258 191
259 191
260 191
261 191
262 191
263 191
264 191
265 190
266 190
267 190
268 190
269 190
270 190
271 190
272 190
273 190
274 190
275 189
276 189
277 189
278 189
279 189
280 189
281 189
282 189
283 189
284 189
285 188
286 188
287 188
288 188
289 188
290 188
291 188
292 188
293 188
294 187
295 187
296 187
297 187
298 187
299 187
300 187
301 187
302 186
303 186
304 186
305 186
306 186
307 186
308 186
309 186
310 186
311 185
312 185
313 185
314 185
315 185
316 185
317 185
318 185
319 185
320 185
321 184
322 184
323 184
324 184
325 184
326 184
327 184
328 184
329 184
330 184
331 184
332 184
333 184
334 184
335 184
336 184
337 184
338 184
339 184
340 184
341 185
342 186
341 187
341 188
341 189
341 190
340 191
339 191
338 191
337 191
336 191
335 191
334 191
333 191
332 191
331 191
330 191
329 191
328 191
327 191
326 191
325 191
324 191
323 191
322 191
321 191
320 191
319 191
318 191
317 191
316 191
315 191
314 192
313 192
312 192
311 193
310 193
309 194
308 195
307 195
306 196
305 196
304 197
303 197
302 198
301 198
300 198
299 199
298 199
297 200
296 200
295 201
294 201
293 202
292 203
291 203
290 204
289 205
288 206
287 206
286 207
285 208
284 209
283 209
282 210
281 211
280 212
279 212
278 213
277 214
276 215
275 216
274 217
274 218
273 219
272 220
271 221
270 222
269 223
268 224
267 225
266 226
266 227
265 228
264 229
263 230
263 231
262 232
262 233
261 234
260 235
260 236
259 237
258 238
257 239
257 240
256 241
255 242
254 243
254 244
253 245
252 246
251 247
250 248
250 249
249 250
248 251
248 252
247 253
246 254
246 255
246 256
245 257
245 258
244 259
244 260
243 261
243 262
242 263
242 264
241 265
241 266
240 267
240 268
239 269
239 270
238 271
238 272
238 273
237 274
237 275
237 276
237 277
236 278
236 279
236 280
235 281
235 282
235 283
234 284
234 285
234 286
234 287
233 288
233 289
232 290
232 291
232 292
231 293
231 294
231 295
231 296
230 297
230 298
230 299
229 300
229 301
229 302
228 303
228 304
227 305
227 306
227 307
227 308
226 309
226 310
226 311
226 312
225 313
226 313
227 313
228 313
229 313
230 313
231 312
232 312
233 312
234 312
235 311
236 311
237 311
238 310
239 310
240 310
241 309
242 309
243 308
244 308
245 308
246 307
247 307
248 306
249 306
250 306
251 305
252 305
253 305
254 304
255 304
256 303
257 303
258 302
259 302
260 301
261 301
262 300
263 300
264 299
265 299
266 299
267 298
268 298
269 297
270 297
271 296
272 296
273 295
274 294
275 294
276 293
277 292
278 292
279 291
280 291
281 290
282 289
283 289
284 288
285 287
286 286
287 286
288 285
289 284
290 283
291 282
292 281
293 280
294 280
295 279
296 278
297 277
298 276
299 275
300 274
301 273
302 272
303 272
304 271
305 270
306 269
307 268
308 267
309 266
310 265
311 264
312 263
313 262
314 261
315 260
316 259
317 258
318 257
319 256
320 255
320 254
321 253
322 252
323 251
323 250
324 249
325 248
325 247
326 246
327 245
328 244
329 243
330 242
330 241
331 240
331 239
332 238
332 237
333 236
333 235
334 234
334 233
335 232
335 231
336 230
336 229
336 228
337 227
337 226
337 225
338 224
338 223
339 222
339 221
339 220
340 219
340 218
340 217
341 216
341 215
341 214
342 213
342 212
342 211
342 210
342 209
342 208
343 207
343 206
343 205
343 204
343 203
343 202
343 201
344 200
344 199
344 198
344 197
343 196
343 195
343 194
343 193
342 192
343 191
343 190
343 189
343 188
343 187
344 186
345 185
346 185
347 185
348 185
349 184
350 184
351 184
352 184
353 184
354 184
355 184
356 184
357 184
358 184
359 184
360 184
361 184
362 183
363 183
364 183
365 183
366 183
367 183
368 183
369 183
370 183
371 183
372 183
373 183
374 183
375 183
376 183
377 182
378 182
379 182
380 182
381 182
382 182
383 182
384 182
385 182
386 182
387 182
388 182
389 182
390 182
391 182
392 182
393 182
394 182
395 182
396 182
397 182
398 181
399 181
400 181
401 181
402 181
403 181
404 181
405 181
406 181
407 181
408 181
409 181
410 181
411 181
412 181
413 181
414 181
415 181
416 181
417 181
418 181
419 181
420 181
421 181
422 181
423 181
424 181
425 181
426 181
427 181
428 181
429 181
430 182
430 183
430 184
430 185
429 186
428 187
427 187
426 186
425 186
424 186
423 185
422 185
421 185
420 185
419 185
418 185
417 184
416 184
415 184
414 184
413 184
412 184
411 184
410 184
409 184
408 184
407 185
406 185
405 185
404 185
403 185
402 186
401 186
400 186
399 187
398 187
397 188
396 188
395 189
394 189
393 190
392 190
391 191
390 191
389 191
388 192
387 193
386 193
385 194
384 195
383 196
382 196
381 197
380 198
379 199
378 200
377 201
376 202
375 203
374 203
373 204
372 205
371 206
370 207
369 208
368 209
367 210
366 211
366 212
365 213
364 214
363 215
362 216
362 217
361 218
360 219
359 220
358 221
357 222
356 223
355 224
354 225
353 226
352 227
351 228
351 229
350 230
349 231
349 232
348 233
347 234
346 235
346 236
345 237
344 238
344 239
343 240
342 241
341 242
341 243
340 244
339 245
338 246
338 247
337 248
337 249
336 250
336 251
335 252
334 253
334 254
333 255
332 256
332 257
331 258
331 259
330 260
330 261
329 262
329 263
328 264
328 265
328 266
327 267
327 268
327 269
327 270
326 271
326 272
325 273
325 274
324 275
324 276
323 277
323 278
322 279
321 280
321 281
321 282
320 283
320 284
320 285
319 286
319 287
319 288
318 289
318 290
317 291
317 292
317 293
316 294
316 295
315 296
315 297
315 298
315 299
314 300
314 301
314 302
314 303
313 304
313 305
313 306
313 307
313 308
313 309
314 310
315 309
316 309
317 308
318 308
319 307
320 307
321 307
322 306
323 305
324 305
325 305
326 304
327 304
328 304
329 303
330 303
331 303
332 302
333 302
334 301
335 301
336 300
337 299
338 299
339 298
340 298
341 297
342 297
343 296
344 296
345 296
346 295
347 295
348 294
349 293
350 293
351 292
352 291
353 291
354 290
355 290
356 289
357 288
358 288
359 287
360 287
361 286
362 285
363 284
364 284
365 283
366 283
367 282
368 281
369 280
370 279
371 279
372 278
373 277
374 276
375 276
376 275
377 274
378 274
379 273
380 272
381 272
382 272
383 271
384 270
385 270
386 269
387 268
388 268
389 267
390 266
391 265
392 264
393 263
394 262
395 261
396 260
397 259
398 258
399 257
400 256
401 255
401 254
402 253
403 252
404 251
405 250
406 249
407 248
408 247
409 246
410 245
411 244
412 243
413 242
414 241
415 240
415 239
416 238
416 237
417 236
418 235
418 234
419 233
420 232
421 231
421 230
422 229
422 228
423 227
424 226
424 225
425 224
426 223
426 222
426 221
427 220
427 219
428 218
428 217
428 216
428 215
429 214
429 213
429 212
429 211
430 210
430 209
430 208
430 207
430 206
430 205
430 204
430 203
431 202
431 201
431 200
431 199
431 198
431 197
431 196
432 195
432 194
432 193
432 192
431 191
431 190
431 189
431 188
432 187
432 186
432 185
432 184
432 183
433 182
434 182
435 181
436 181
437 181
438 181
439 181
440 181
441 181
442 181
443 181
444 181
445 181
446 181
447 181
448 181
449 181
450 181
451 181
452 181
453 181
454 180
455 180
456 180
457 180
458 180
459 180
460 180
461 180
462 180
463 180
464 180
465 180
466 180
467 180
468 180
469 180
470 180
471 180
472 180
473 180
474 180
475 180
476 180
477 180
478 180
479 180
480 180
481 180
482 180
483 180
484 180
485 180
486 180
487 180
488 180
489 180
490 180
491 180
492 180
493 180
494 179
495 179
496 179
497 179
498 179
499 179
500 179
501 179
502 179
503 179
504 179
505 179
506 179
507 179
508 179
509 179
510 179
511 179
512 179
513 179
514 179
515 180
516 180
517 180
518 180
519 180
520 180
521 180
522 180
523 180
524 180
525 180
526 180
527 180
528 180
529 180
530 180
531 180
532 180
533 180
534 180
535 180
536 180
537 180
538 180
539 180
540 180
541 180
542 180
543 180
544 180
545 180
546 180
547 180
548 180
549 180
550 180
551 180
552 180
553 180
554 180
555 180
556 180
557 180
558 180
559 180
560 180
561 180
562 180
563 180
564 180
565 180
566 180
567 180
568 180
569 180
570 180
571 180
572 180
573 180
574 180
575 180
576 180
577 180
578 180
579 180
580 180
581 180
582 180
583 180
584 180
585 180
586 180
587 180
588 180
589 180
590 180
591 180
592 180
593 180
594 181
595 181
596 181
597 181
598 181
599 181
600 181
601 182
602 183
601 184
601 185
600 186
599 185
598 185
597 185
596 185
595 185
594 185
593 185
592 185
591 185
590 185
589 185
588 185
587 186
586 186
585 186
584 186
583 187
582 187
581 188
580 188
579 189
578 190
577 190
576 191
575 192
574 193
573 194
572 195
571 196
570 196
569 197
568 198
567 199
566 200
566 201
565 202
564 203
564 204
563 205
562 206
561 207
560 208
559 209
559 210
558 211
558 212
557 213
556 214
556 215
555 216
554 217
554 218
553 219
553 220
552 221
552 222
552 223
551 224
551 225
550 226
550 227
550 228
549 229
549 230
549 231
548 232
548 233
547 234
547 235
547 236
546 237
546 238
545 239
545 240
544 241
544 242
543 243
543 244
543 245
543 246
542 247
542 248
542 249
542 250
541 251
541 252
541 253
541 254
540 255
540 256
540 257
540 258
539 259
539 260
539 261
539 262
538 263
538 264
538 265
538 266
538 267
538 268
538 269
538 270
538 271
538 272
537 273
537 274
537 275
537 276
537 277
537 278
537 279
537 280
537 281
537 282
537 283
538 284
538 285
538 286
538 287
538 288
538 289
538 290
538 291
538 292
538 293
538 294
539 295
539 296
539 297
539 298
539 299
540 300
540 301
540 302
541 302
542 301
543 300
544 300
545 299
546 298
547 298
548 297
549 296
550 295
551 295
552 294
553 293
554 293
555 292
556 291
557 290
558 289
559 288
560 287
561 286
562 285
563 284
564 283
565 282
566 281
567 280
568 280
568 279
569 278
570 277
571 276
572 275
572 274
573 273
574 272
575 271
575 270
576 269
577 268
578 267
579 266
579 265
580 264
581 263
582 262
583 261
584 260
584 259
585 258
586 257
586 256
587 255
588 254
589 253
590 252
590 251
591 250
592 249
593 248
593 247
594 246
595 245
595 244
596 243
596 242
597 241
598 240
599 239
599 238
600 237
600 236
601 235
601 234
602 233
602 232
603 231
603 230
604 229
604 228
605 227
605 226
605 225
606 224
606 223
606 222
607 221
607 220
608 219
608 218
608 217
608 216
608 215
609 214
609 213
609 212
609 211
609 210
609 209
609 208
608 207
608 206
608 205
609 204
609 203
609 202
609 201
608 200
608 199
608 198
608 197
608 196
608 195
607 194
607 193
606 192
606 191
605 190
605 189
604 188
603 187
603 186
603 185
603 184
603 183
604 182
605 181
606 181
607 181
608 181
609 181
610 181
611 181
612 181
613 181
614 181
615 181
616 181
617 181
618 181
619 181
620 181
621 181
622 181
623 181
624 182
625 182
626 182
627 182
628 182
629 182
630 182
631 182
632 182
633 182
634 182
635 182
636 182
637 182
638 182
639 182
640 182
641 182
642 182
643 182
644 182
645 182
646 182
647 182
648 182
649 183
650 183
651 183
652 183
653 183
654 183
655 183
656 183
657 183
658 183
659 183
660 183
661 183
662 183
663 183
664 183
665 183
666 184
667 184
668 184
669 184
670 184
671 184
672 184
673 184
674 184
675 184
676 184
677 184
678 184
679 185
680 185
681 185
682 186
682 187
681 188
680 187
679 187
678 187
677 187
676 187
675 187
674 187
673 187
672 187
671 187
670 187
669 187
668 187
667 187
666 188
665 188
664 188
663 189
662 189
661 190
660 191
659 191
658 192
657 193
656 194
655 195
654 196
653 197
652 198
652 199
651 200
650 201
650 202
649 203
649 204
648 205
648 206
647 207
646 208
646 209
645 210
645 211
644 212
644 213
643 214
643 215
642 216
641 217
641 218
641 219
640 220
640 221
639 222
639 223
638 224
638 225
638 226
637 227
637 228
636 229
636 230
636 231
635 232
635 233
635 234
635 235
634 236
634 237
634 238
634 239
634 240
634 241
634 242
634 243
634 244
634 245
634 246
634 247
634 248
634 249
634 250
634 251
634 252
634 253
634 254
634 255
634 256
635 257
636 257
637 256
638 256
639 256
640 255
641 255
642 254
643 253
644 253
645 252
646 251
647 250
648 250
649 249
650 248
651 248
652 247
653 246
654 245
655 245
656 244
656 243
657 242
658 242
659 241
660 240
661 240
662 239
663 238
664 237
665 236
666 236
667 235
668 235
669 234
670 233
671 232
672 231
673 230
674 229
675 228
675 227
676 226
677 225
677 224
678 223
678 222
679 221
679 220
680 219
681 218
681 217
682 216
682 215
683 214
683 213
684 212
684 211
684 210
685 209
685 208
685 207
685 206
685 205
685 204
685 203
685 202
685 201
684 200
684 199
684 198
684 197
683 196
683 195
683 194
683 193
683 192
682 191
682 190
682 189
683 188
683 187
684 186
685 185
686 185
687 185
688 185
689 185
690 185
691 186
692 186
693 186
694 186
695 186
696 186
697 186
698 186
699 186
700 186
701 186
702 186
703 187
704 187
705 187
706 187
707 187
708 187
709 187
710 187
711 188
712 188
713 188
714 188
715 188
716 188
717 188
718 188
719 189
720 189
721 189
722 189
723 189
724 189
725 189
726 190
727 190
728 190
729 190
730 190
731 190
732 191
733 191
734 191
735 191
736 191
737 191
738 192
739 192
740 192
741 192
742 192
743 193
744 193
745 193
746 193
747 194
748 194
749 195
750 195
751 196
752 196
753 197
754 197
755 197
756 198
757 198
758 198
759 198
760 198
761 198
762 198
763 197
764 196
764 195
763 195
762 194
761 193
760 193
759 193
758 192
757 192
756 192
755 191
755 190
754 189
753 189
752 189
751 189
750 189
749 189
748 189
747 189
746 189
745 189
744 189
743 189
742 189
741 188
740 188
739 188
738 188
737 188
736 188
735 187
734 187
733 187
732 187
731 187
730 187
729 187
728 186
727 186
726 186
725 186
724 186
723 186
722 186
721 186
720 185
719 185
718 185
717 185
716 185
715 185
714 185
713 185
712 185
711 184
710 184
709 184
708 184
707 184
706 184
705 184
704 184
703 184
702 183
701 183
700 183
699 183
698 183
697 183
696 183
695 183
694 183
693 183
692 183
691 182
690 182
689 182
688 182
687 182
686 182
685 182
684 182
683 182
682 181
681 181
680 181
679 181
678 181
677 181
676 181
675 181
674 181
673 180
672 179
671 178
671 177
671 176
671 175
670 174
670 173
670 172
670 171
671 170
671 169
671 168
671 167
671 166
671 165
671 164
671 163
671 162
671 161
671 160
671 159
671 158
671 157
671 156
671 155
671 154
671 153
670 152
670 151
670 150
669 149
669 148
668 147
668 146
667 145
666 144
665 143
664 142
664 141
663 141
662 140
661 139
660 138
659 138
658 137
657 137
656 136
655 136
654 135
653 135
652 135
651 134
650 134
649 134
648 133
647 133
646 132
645 132
644 132
643 131
642 131
641 130
640 130
639 129
638 129
637 129
636 128
635 128
634 128
633 127
632 127
631 126
630 126
629 125
628 125
627 125
626 124
625 124
624 123
623 123
622 123
621 123
620 122
619 122
618 122
617 121
616 121
615 121
614 120
613 120
612 120
611 120
610 119
609 119
608 119
607 119
606 119
605 119
604 119
603 119
602 119
601 119
600 119
599 119
598 119
597 119
596 119
595 119
595 120
595 121
595 122
595 123
595 124
595 125
595 126
595 127
595 128
596 129
596 130
596 131
596 132
597 133
597 134
598 135
598 136
599 137
600 138
600 139
601 140
602 141
602 142
603 143
603 144
604 145
604 146
605 147
606 148
607 149
607 150
608 151
609 152
609 153
610 154
611 155
612 156
613 157
614 158
615 158
616 159
617 160
618 160
619 161
620 162
621 163
622 163
623 164
624 164
625 165
626 166
627 166
628 167
629 168
630 169
631 170
632 171
633 171
634 172
635 173
636 173
637 174
638 174
639 175
640 176
641 177
642 177
643 177
644 177
645 178
644 179
643 179
642 179
641 179
640 179
639 179
638 179
637 179
636 179
635 179
634 179
633 179
632 179
631 179
630 179
629 179
628 179
627 179
626 179
625 179
624 179
623 179
622 179
621 179
620 178
619 178
618 178
617 178
616 178
615 178
614 178
613 178
612 178
611 178
610 178
609 178
608 178
607 178
606 178
605 178
604 178
603 178
602 177
601 177
600 177
599 177
598 177
597 177
596 177
595 177
594 177
593 176
593 175
592 174
592 173
592 172
592 171
592 170
591 169
592 168
592 167
592 166
592 165
593 164
593 163
593 162
593 161
593 160
593 159
593 158
593 157
593 156
593 155
593 154
593 153
593 152
593 151
593 150
593 149
593 148
593 147
593 146
593 145
592 144
592 143
592 142
592 141
592 140
591 139
591 138
590 137
590 136
589 135
589 134
588 133
588 132
587 131
586 130
586 129
585 128
585 127
584 126
584 125
583 124
583 123
582 122
581 121
580 120
579 119
578 118
577 117
576 117
575 116
574 115
573 114
572 113
571 112
570 111
569 110
568 109
567 108
566 107
565 106
564 105
563 104
562 104
561 103
560 102
559 101
558 101
557 100
556 100
555 99
554 98
553 98
552 97
551 96
550 95
549 94
548 93
547 92
546 91
545 91
544 90
543 89
542 89
541 88
540 88
539 87
538 86
537 86
536 85
535 85
534 84
533 83
532 82
531 82
530 81
529 80
528 79
527 78
526 78
525 77
524 76
523 75
522 75
521 74
520 73
519 73
518 72
517 71
516 70
515 70
514 69
513 68
512 68
511 67
510 67
509 66
508 66
507 65
506 65
505 65
504 64
503 64
502 63
501 63
500 63
499 63
498 62
498 63
498 64
498 65
498 66
498 67
498 68
498 69
498 70
498 71
498 72
498 73
498 74
498 75
498 76
498 77
498 78
498 79
499 80
499 81
499 82
499 83
499 84
499 85
500 86
500 87
500 88
500 89
501 90
501 91
501 92
502 93
502 94
502 95
503 96
503 97
504 98
504 99
504 100
505 101
505 102
505 103
506 104
506 105
507 106
507 107
508 108
508 109
509 110
509 111
510 112
510 113
511 114
512 115
512 116
513 117
514 118
514 119
515 120
515 121
516 122
516 123
517 124
518 125
518 126
519 127
520 128
520 129
521 130
522 131
522 132
523 133
524 134
525 135
526 136
526 137
527 138
527 139
528 140
529 141
529 142
530 143
531 144
532 145
533 146
533 147
534 148
535 149
536 150
537 151
538 152
539 153
540 154
541 155
542 156
543 157
544 158
545 159
546 160
547 160
548 161
549 162
550 163
551 163
552 164
553 165
554 166
555 166
556 167
557 168
558 168
559 168
560 169
561 170
562 170
563 171
564 172
565 172
566 173
567 173
568 173
569 174
570 174
571 174
572 175
573 175
574 175
575 176
574 177
573 177
572 177
571 177
570 177
569 177
568 177
567 177
566 177
565 177
564 177
563 177
562 177
561 177
560 177
559 177
558 177
557 177
556 177
555 177
554 177
553 177
552 177
551 177
550 177
549 177
548 177
547 177
546 177
545 177
544 177
543 177
542 177
541 177
540 177
539 177
538 177
537 177
536 177
535 177
534 177
533 177
532 177
531 177
530 177
529 177
528 177
527 177
526 177
525 177
524 177
523 177
522 177
521 177
520 177
519 177
518 176
517 176
516 176
515 176
514 176
513 176
512 176
511 176
510 176
509 176
508 175
508 174
508 173
508 172
508 171
507 170
507 169
507 168
507 167
508 166
508 165
508 164
508 163
509 162
509 161
509 160
509 159
509 158
509 157
509 156
509 155
509 154
509 153
509 152
509 151
509 150
509 149
509 148
508 147
508 146
508 145
508 144
508 143
507 142
507 141
507 140
507 139
507 138
506 137
506 136
506 135
505 134
505 133
505 132
504 131
504 130
503 129
503 128
502 127
502 126
501 125
501 124
501 123
500 122
500 121
499 120
498 119
498 118
497 117
496 116
495 115
494 114
493 113
492 112
491 111
491 110
490 109
489 108
488 107
488 106
487 105
486 104
485 104
484 103
483 102
482 101
481 100
480 99
479 98
478 97
477 96
476 96
475 95
474 94
474 93
473 93
472 92
471 91
470 90
470 89
469 88
468 87
467 86
466 85
465 84
464 83
463 82
462 81
461 80
460 79
459 79
458 78
457 77
456 76
455 75
454 75
453 74
452 73
451 72
450 72
449 71
448 70
447 70
446 69
445 69
444 68
443 67
442 67
441 66
440 65
439 65
438 64
437 63
436 63
435 62
434 61
433 61
432 60
431 60
430 59
429 59
428 58
427 58
426 58
425 57
424 56
423 56
422 55
421 55
420 54
419 53
418 53
417 52
416 51
415 51
414 50
413 49
412 49
411 48
410 48
409 47
408 46
407 46
406 46
405 45
404 45
403 44
402 44
401 44
400 43
399 43
398 43
397 44
397 45
397 46
397 47
397 48
398 49
398 50
398 51
398 52
398 53
399 54
399 55
399 56
400 57
400 58
400 59
401 60
401 61
401 62
402 63
402 64
403 65
403 66
403 67
404 68
404 69
404 70
405 71
405 72
405 73
406 74
406 75
406 76
407 77
407 78
408 79
408 80
409 81
409 82
410 83
410 84
410 85
411 86
411 87
411 88
412 89
412 90
413 91
413 92
414 93
414 94
414 95
415 96
415 97
416 98
416 99
417 100
417 101
418 102
419 103
419 104
420 105
420 106
421 107
421 108
422 109
423 110
424 111
424 112
425 113
425 114
426 115
426 116
426 117
427 118
427 119
428 120
429 121
429 122
430 123
431 124
432 125
432 126
433 127
433 128
434 129
434 130
435 131
436 132
436 133
437 134
438 135
439 136
439 137
440 138
441 139
442 140
443 141
443 142
444 143
445 144
446 144
447 145
448 146
449 147
450 148
451 149
452 150
453 151
454 152
455 153
456 154
457 155
457 156
458 157
459 158
460 159
460 160
461 161
462 162
463 163
464 164
465 165
466 166
467 167
468 167
469 168
470 168
471 169
472 170
473 170
474 171
475 172
476 172
477 173
478 173
479 173
480 174
481 174
482 174
483 174
484 175
485 175
486 175
487 175
488 175
489 175
490 175
491 175
492 175
493 175
494 175
495 174
496 174
497 174
498 174
499 173
500 173
501 173
502 173
503 172
504 172
505 173
506 174
506 175
505 176
504 176
503 177
502 177
501 177
500 177
499 177
498 177
497 177
496 177
495 177
494 177
493 177
492 177
491 177
490 177
489 177
488 177
487 177
486 177
485 177
484 177
483 177
482 177
481 177
480 177
479 177
478 177
477 177
476 177
475 177
474 177
473 177
472 177
471 177
470 177
469 178
468 178
467 178
466 178
465 178
464 178
463 178
462 178
461 178
460 178
459 178
458 178
457 178
456 178
455 178
454 178
453 178
452 178
451 178
450 178
449 178
448 178
447 178
446 178
445 178
444 178
443 178
442 178
441 178
440 178
439 178
438 178
437 178
436 178
435 178
434 178
433 178
432 178
431 178
430 178
429 178
428 178
427 178
426 178
425 178
424 177
423 176
423 175
423 174
423 173
423 172
422 171
422 170
422 169
422 168
423 167
423 166
423 165
423 164
423 163
423 162
423 161
424 160
424 159
424 158
424 157
424 156
423 155
423 154
423 153
423 152
423 151
423 150
423 149
423 148
422 147
422 146
422 145
422 144
422 143
421 142
421 141
420 140
420 139
420 138
420 137
419 136
419 135
418 134
418 133
417 132
417 131
417 130
416 129
415 128
415 127
415 126
414 125
413 124
413 123
412 122
412 121
411 120
410 119
410 118
409 117
408 116
408 115
407 114
407 113
406 112
405 111
404 110
403 109
402 108
402 107
401 106
400 105
400 104
399 103
398 102
397 101
396 100
396 99
395 98
394 97
393 96
392 95
391 94
390 93
389 92
388 91
387 91
386 90
385 89
384 88
383 87
382 86
381 85
380 84
379 83
378 82
378 81
377 80
376 79
375 78
374 77
373 76
372 75
371 75
370 74
369 73
368 72
367 72
366 71
365 70
364 70
363 70
362 69
361 69
360 69
359 68
358 67
358 66
357 65
356 64
356 63
355 62
354 61
353 60
352 59
352 58
351 58
350 57
349 56
348 55
347 54
346 53
345 52
344 52
343 51
342 50
341 49
340 48
339 47
338 46
337 45
336 45
335 44
334 43
333 42
332 41
331 41
330 40
329 39
328 38
327 37
326 37
325 36
324 35
323 35
322 34
321 34
320 33
319 32
318 32
317 31
316 30
315 30
314 29
313 29
