49 183
49 184
49 185
49 186
49 187
49 188
50 189
51 190
52 191
53 192
53 193
54 194
55 195
55 196
56 197
56 198
57 199
57 200
58 201
58 202
58 203
59 204
59 205
60 206
60 207
60 208
61 209
61 210
61 211
62 212
62 213
63 214
63 215
64 216
64 217
64 218
65 219
66 220
66 221
67 222
67 223
68 224
68 225
69 226
70 227
70 228
71 229
72 230
73 231
74 232
75 233
76 234
77 235
78 236
79 237
80 238
81 239
82 240
83 241
84 242
85 243
86 244
87 244
88 245
89 246
90 247
91 248
92 248
93 249
94 249
95 250
96 250
97 250
98 251
99 251
100 252
101 252
102 253
103 254
103 255
103 256
102 257
102 258
101 259
101 260
100 261
99 262
98 263
98 264
97 265
96 266
96 267
95 268
94 269
94 270
93 271
93 272
93 273
92 274
92 275
91 276
91 277
91 278
91 279
91 280
90 281
90 282
90 283
90 284
90 285
90 286
89 287
89 288
89 289
89 290
89 291
89 292
89 293
89 294
89 295
89 296
89 297
88 298
88 299
88 300
88 301
88 302
88 303
88 304
88 305
88 306
88 307
88 308
88 309
88 310
87 311
87 312
87 313
86 314
86 315
85 316
85 317
85 318
85 319
85 320
85 321
85 322
85 323
86 323
87 323
88 323
89 323
90 323
91 322
92 321
93 321
94 320
95 319
96 319
97 318
98 318
99 317
100 316
101 316
102 315
103 315
104 314
105 314
106 313
107 312
108 311
109 310
110 309
111 308
112 307
113 306
114 305
115 304
116 304
117 303
118 303
119 303
120 304
121 305
121 306
122 307
122 308
121 309
121 310
121 311
121 312
121 313
121 314
120 315
120 316
120 317
120 318
120 319
120 320
120 321
120 322
120 323
120 324
120 325
120 326
120 327
120 328
120 329
120 330
120 331
120 332
120 333
120 334
120 335
120 336
120 337
120 338
120 339
120 340
120 341
120 342
120 343
120 344
120 345
120 346
120 347
120 348
120 349
120 350
120 351
120 352
120 353
120 354
120 355
120 356
120 357
121 358
121 359
121 360
121 361
121 362
121 363
122 364
122 365
122 366
122 367
122 368
122 369
123 370
123 371
123 372
122 373
122 374
122 375
122 376
121 377
121 378
120 379
120 380
120 381
120 382
120 383
120 384
120 385
120 386
121 386
122 386
123 386
124 386
125 386
125 385
126 384
126 383
127 382
128 381
128 380
129 379
130 378
130 377
131 376
132 375
133 374
134 373
134 372
135 371
135 370
136 369
137 368
138 368
139 367
140 366
141 365
141 364
142 363
143 362
144 361
145 360
146 359
147 359
148 358
149 357
150 356
150 355
151 354
152 353
153 352
154 351
155 350
155 349
156 348
157 347
157 346
158 345
158 344
159 343
160 342
160 341
161 340
161 339
162 338
162 337
163 336
164 335
165 334
165 333
166 332
167 331
168 330
168 329
169 328
170 327
171 326
171 325
172 324
173 323
174 322
174 321
175 320
176 319
177 318
177 317
177 316
178 315
178 314
178 313
178 312
178 311
179 310
179 309
179 308
180 307
180 306
180 305
180 304
181 303
181 302
181 301
181 300
181 299
182 298
182 297
182 296
182 295
183 294
183 293
184 292
184 291
184 290
185 289
185 288
185 287
186 286
186 285
187 284
187 283
187 282
187 281
188 280
188 279
188 278
189 277
189 276
190 275
190 274
190 273
190 272
190 271
190 270
190 269
190 268
190 267
190 266
190 265
190 264
191 263
191 262
192 261
192 260
193 259
194 259
195 258
196 258
197 258
198 258
199 258
200 258
201 258
202 259
203 259
204 259
205 259
206 259
207 259
208 259
209 260
210 260
211 260
212 260
213 260
214 260
215 260
216 261
217 261
218 261
219 261
220 261
221 261
222 261
223 262
224 262
225 263
226 264
227 265
227 266
226 267
225 268
224 269
223 269
222 270
221 270
220 270
219 271
218 271
217 272
216 272
215 273
214 273
213 274
212 274
211 275
210 275
209 276
208 276
207 277
206 278
205 279
204 280
203 281
202 282
201 283
201 284
200 285
199 286
198 287
198 288
197 289
197 290
196 291
195 292
195 293
195 294
194 295
194 296
193 297
193 298
192 299
192 300
191 301
190 302
190 303
189 304
189 305
188 306
187 307
187 308
186 309
186 310
185 311
185 312
185 313
184 314
184 315
183 316
183 317
183 318
183 319
183 320
183 321
182 322
182 323
182 324
182 325
182 326
182 327
182 328
182 329
181 330
181 331
181 332
181 333
181 334
181 335
181 336
181 337
180 338
180 339
180 340
180 341
180 342
180 343
180 344
180 345
180 346
180 347
180 348
180 349
180 350
180 351
180 352
180 353
180 354
180 355
180 356
180 357
180 358
180 359
180 360
180 361
180 362
180 363
181 364
181 365
181 366
181 367
181 368
182 369
182 370
182 371
182 372
182 373
182 374
182 375
182 376
183 377
183 378
183 379
183 380
183 381
183 382
182 383
182 384
181 385
181 386
180 387
180 388
179 389
179 390
178 391
178 392
177 393
176 394
176 395
175 396
174 397
173 398
173 399
173 400
173 401
173 402
173 403
173 404
174 404
175 404
176 404
177 404
178 404
179 404
180 403
181 402
182 401
183 401
184 400
185 399
186 399
187 398
188 397
189 396
190 396
191 395
192 394
193 394
194 393
195 392
196 392
197 391
198 390
199 390
200 389
201 389
202 388
203 388
204 387
205 387
206 386
207 386
208 385
209 385
210 384
211 384
212 383
213 383
214 382
215 382
216 381
217 381
218 380
219 380
220 379
221 378
222 378
223 377
224 377
225 376
226 376
227 375
228 375
229 374
230 373
231 372
232 372
233 371
234 370
235 369
236 369
237 368
238 367
239 366
240 365
240 364
241 363
242 362
243 361
244 360
245 359
246 358
246 357
247 356
248 355
248 354
249 353
249 352
250 351
250 350
251 349
251 348
252 347
252 346
253 345
253 344
253 343
253 342
254 341
254 340
255 339
255 338
256 337
256 336
256 335
256 334
256 333
257 332
257 331
258 330
258 329
258 328
259 327
259 326
259 325
259 324
260 323
260 322
260 321
261 320
261 319
261 318
262 317
262 316
262 315
262 314
263 313
263 312
263 311
263 310
263 309
264 308
264 307
264 306
264 305
264 304
264 303
265 302
265 301
265 300
265 299
265 298
266 297
266 296
266 295
266 294
266 293
266 292
266 291
266 290
266 289
266 288
266 287
266 286
267 285
267 284
267 283
267 282
267 281
267 280
267 279
267 278
267 277
267 276
267 275
267 274
268 273
268 272
269 271
269 270
270 269
271 269
272 268
273 268
274 268
275 268
276 268
277 268
278 268
279 268
280 268
281 268
282 268
283 268
284 268
285 269
286 269
287 269
288 269
289 269
290 269
291 269
292 269
293 269
294 270
295 270
296 270
297 270
298 270
299 270
300 270
301 270
302 271
303 271
304 271
305 271
306 271
307 271
308 271
309 271
310 271
311 272
312 272
313 273
314 274
315 275
314 276
313 277
312 278
311 278
310 279
309 279
308 280
307 280
306 281
305 282
304 283
303 284
302 284
301 285
300 285
299 286
298 287
297 288
297 289
296 290
295 291
294 292
293 293
292 294
291 295
290 296
289 297
288 298
287 299
286 300
286 301
285 302
285 303
284 304
284 305
284 306
284 307
283 308
283 309
283 310
282 311
282 312
281 313
281 314
281 315
281 316
280 317
280 318
280 319
279 320
279 321
279 322
279 323
278 324
278 325
278 326
278 327
277 328
277 329
277 330
277 331
277 332
276 333
276 334
276 335
276 336
276 337
275 338
275 339
275 340
275 341
275 342
275 343
274 344
274 345
274 346
274 347
274 348
274 349
274 350
274 351
274 352
274 353
274 354
274 355
274 356
274 357
274 358
274 359
275 360
275 361
275 362
275 363
275 364
275 365
275 366
275 367
275 368
275 369
275 370
275 371
276 372
276 373
276 374
276 375
276 376
276 377
277 378
277 379
277 380
277 381
277 382
277 383
278 384
278 385
278 386
278 387
278 388
278 389
279 390
279 391
279 392
279 393
280 394
280 395
280 396
280 397
280 398
280 399
281 400
281 401
281 402
281 403
281 404
282 405
282 406
283 407
283 408
283 409
284 410
284 411
285 412
285 413
286 414
286 415
286 416
286 417
286 418
286 419
286 420
286 421
287 422
287 423
287 424
287 425
287 426
287 427
287 428
287 429
287 430
287 431
288 432
288 433
288 434
288 435
288 436
288 437
288 438
288 439
288 440
288 441
288 442
288 443
288 444
288 445
288 446
289 446
290 446
291 446
292 446
293 445
293 444
293 443
293 442
294 441
294 440
295 439
295 438
296 437
296 436
297 435
297 434
298 433
298 432
299 431
299 430
300 429
301 428
301 427
302 426
303 425
304 424
305 423
305 422
306 421
307 420
308 419
309 418
310 417
310 416
311 415
312 414
313 413
314 412
315 411
316 410
317 409
318 408
319 407
320 406
321 406
322 405
323 405
324 404
325 403
326 402
327 401
327 400
328 399
329 399
330 398
331 397
332 396
333 395
334 394
334 393
335 392
336 391
337 390
337 389
338 388
338 387
339 386
340 385
341 384
341 383
342 382
343 381
343 380
344 379
344 378
345 377
345 376
346 375
347 374
347 373
348 372
349 371
349 370
350 369
350 368
351 367
351 366
352 365
352 364
352 363
353 362
353 361
354 360
354 359
354 358
354 357
355 356
355 355
355 354
355 353
355 352
355 351
356 350
356 349
356 348
356 347
356 346
356 345
356 344
356 343
357 342
357 341
357 340
357 339
357 338
357 337
357 336
357 335
358 334
358 333
358 332
358 331
358 330
358 329
358 328
358 327
358 326
358 325
358 324
358 323
358 322
359 321
359 320
359 319
359 318
359 317
359 316
359 315
359 314
359 313
359 312
359 311
359 310
359 309
359 308
359 307
359 306
359 305
359 304
359 303
359 302
359 301
359 300
359 299
359 298
359 297
359 296
358 295
358 294
358 293
358 292
358 291
358 290
358 289
358 288
358 287
358 286
358 285
357 284
357 283
357 282
357 281
357 280
357 279
358 278
359 277
360 276
361 276
362 275
363 275
364 275
365 275
366 275
367 275
368 275
369 275
370 275
371 275
372 275
373 275
374 275
375 275
376 275
377 276
378 276
379 276
380 276
381 276
382 276
383 276
384 276
385 276
386 276
387 276
388 276
389 276
390 275
391 275
392 275
393 275
394 275
395 275
396 275
397 275
398 275
399 275
400 275
401 275
402 275
403 275
404 275
405 275
406 276
407 276
408 277
409 278
410 279
410 280
409 281
408 282
407 283
406 284
405 285
404 285
403 286
402 287
401 288
400 289
399 290
398 291
397 292
396 293
395 294
394 295
393 296
393 297
392 298
392 299
392 300
391 301
391 302
390 303
390 304
389 305
389 306
388 307
388 308
388 309
388 310
387 311
387 312
387 313
386 314
386 315
386 316
386 317
386 318
385 319
385 320
385 321
385 322
385 323
385 324
385 325
385 326
384 327
384 328
384 329
384 330
384 331
384 332
384 333
384 334
384 335
384 336
384 337
384 338
384 339
384 340
384 341
384 342
384 343
384 344
384 345
384 346
384 347
384 348
384 349
384 350
384 351
384 352
384 353
384 354
384 355
384 356
384 357
384 358
384 359
385 360
385 361
385 362
385 363
385 364
385 365
385 366
385 367
385 368
386 369
386 370
386 371
386 372
386 373
386 374
387 375
387 376
388 377
388 378
388 379
388 380
388 381
389 382
389 383
390 384
390 385
390 386
390 387
391 388
391 389
392 390
392 391
393 392
393 393
393 394
393 395
394 396
395 397
395 398
396 399
396 400
397 401
398 402
399 403
399 404
400 405
401 406
402 407
402 408
403 409
404 410
405 411
406 412
406 413
407 414
407 415
408 416
409 417
410 418
411 419
411 420
412 421
413 422
414 423
415 424
416 425
416 426
417 427
418 428
419 429
419 430
420 431
421 432
422 433
423 434
424 435
424 436
425 437
426 438
427 439
428 440
429 441
429 442
430 443
431 444
432 445
432 446
433 447
433 448
433 449
433 450
433 451
433 452
433 453
433 454
434 454
435 454
436 454
437 454
438 453
439 452
440 451
440 450
441 449
441 448
442 447
442 446
442 445
442 444
443 443
443 442
443 441
444 440
444 439
444 438
444 437
445 436
445 435
445 434
446 433
446 432
446 431
446 430
447 429
447 428
448 427
448 426
449 425
449 424
450 423
450 422
451 421
451 420
452 419
452 418
453 417
453 416
454 415
454 414
455 413
455 412
456 411
456 410
457 409
457 408
458 407
458 406
459 405
459 404
459 403
460 402
460 401
461 400
461 399
461 398
461 397
461 396
462 395
462 394
462 393
462 392
462 391
462 390
463 389
463 388
463 387
463 386
463 385
464 384
464 383
464 382
464 381
465 380
465 379
465 378
465 377
465 376
465 375
465 374
465 373
465 372
466 371
466 370
466 369
466 368
466 367
466 366
466 365
466 364
466 363
466 362
466 361
466 360
466 359
466 358
466 357
466 356
467 355
467 354
467 353
467 352
467 351
467 350
467 349
467 348
467 347
467 346
467 345
467 344
467 343
467 342
467 341
467 340
467 339
467 338
466 337
466 336
466 335
466 334
466 333
466 332
465 331
465 330
465 329
465 328
465 327
465 326
465 325
465 324
465 323
465 322
465 321
465 320
465 319
465 318
465 317
465 316
465 315
465 314
465 313
465 312
465 311
465 310
465 309
464 308
464 307
464 306
464 305
463 304
463 303
463 302
463 301
463 300
462 299
462 298
462 297
461 296
461 295
461 294
460 293
460 292
460 291
459 290
459 289
458 288
458 287
457 286
457 285
456 284
455 283
455 282
454 281
454 280
454 279
455 278
456 277
457 276
458 276
459 275
460 275
461 275
462 275
463 275
464 275
465 275
466 275
467 275
468 275
469 275
470 275
471 275
472 275
473 275
474 275
475 275
476 275
477 274
478 274
479 274
480 274
481 274
482 274
483 274
484 274
485 274
486 274
487 274
488 274
489 274
490 274
491 274
492 274
493 275
494 275
495 276
496 277
497 278
496 279
496 280
495 281
494 282
493 283
492 284
491 285
490 286
489 287
488 288
487 289
486 290
485 291
484 292
484 293
484 294
483 295
483 296
483 297
483 298
482 299
482 300
482 301
482 302
482 303
481 304
481 305
481 306
481 307
481 308
481 309
481 310
480 311
480 312
480 313
480 314
480 315
480 316
480 317
480 318
480 319
480 320
480 321
480 322
480 323
480 324
480 325
480 326
480 327
480 328
480 329
480 330
480 331
480 332
481 333
481 334
481 335
481 336
481 337
481 338
481 339
481 340
481 341
482 342
482 343
482 344
482 345
483 346
483 347
484 348
484 349
484 350
484 351
485 352
485 353
485 354
485 355
485 356
485 357
486 358
486 359
487 360
487 361
488 362
488 363
488 364
488 365
489 366
490 367
490 368
491 369
492 370
493 371
493 372
494 373
494 374
495 375
495 376
496 377
497 378
498 379
499 380
499 381
500 382
500 383
501 384
501 385
502 386
503 387
503 388
504 389
505 390
506 391
506 392
507 393
508 394
509 395
510 396
511 397
512 398
513 399
514 400
515 401
516 402
517 402
518 403
519 404
520 405
521 406
522 407
523 407
524 408
525 409
526 410
527 411
528 412
529 412
530 413
531 414
532 414
533 415
534 416
535 416
536 417
537 418
538 418
539 419
540 420
541 420
542 421
543 422
544 423
545 424
546 425
547 426
548 427
549 427
550 427
551 427
552 427
553 427
554 427
555 427
556 427
557 427
558 427
559 427
559 426
559 425
559 424
559 423
559 422
560 421
560 420
560 419
560 418
560 417
560 416
560 415
560 414
560 413
560 412
561 411
561 410
561 409
561 408
562 407
562 406
563 405
563 404
563 403
563 402
563 401
563 400
563 399
563 398
563 397
564 396
564 395
564 394
565 393
565 392
565 391
565 390
565 389
565 388
565 387
565 386
565 385
565 384
565 383
565 382
565 381
565 380
565 379
565 378
565 377
565 376
565 375
565 374
565 373
565 372
565 371
565 370
565 369
565 368
565 367
565 366
565 365
565 364
565 363
565 362
565 361
565 360
565 359
565 358
564 357
564 356
564 355
564 354
564 353
564 352
564 351
564 350
563 349
563 348
563 347
563 346
563 345
563 344
562 343
562 342
562 341
562 340
562 339
562 338
563 337
564 336
565 335
566 336
567 336
568 337
568 338
569 339
569 340
570 341
570 342
571 343
571 344
571 345
571 346
572 347
572 348
573 349
573 350
574 351
574 352
575 353
576 354
576 355
577 356
577 357
578 358
578 359
579 360
580 361
581 362
582 363
583 364
584 365
585 366
586 367
587 368
588 369
589 370
590 371
591 372
592 373
593 374
594 375
595 376
596 377
597 378
598 379
599 380
600 380
601 381
602 382
603 382
604 383
605 384
606 385
607 386
608 387
609 387
610 388
611 389
611 390
612 391
613 392
614 393
615 394
616 395
616 396
617 397
618 397
619 397
620 397
621 397
622 397
623 397
623 396
623 395
623 394
623 393
623 392
623 391
623 390
623 389
623 388
623 387
623 386
622 385
623 384
623 383
623 382
623 381
623 380
623 379
623 378
624 377
624 376
624 375
624 374
624 373
624 372
624 371
625 370
625 369
625 368
625 367
626 366
626 365
626 364
627 363
627 362
627 361
627 360
627 359
627 358
628 357
628 356
628 355
628 354
629 353
629 352
629 351
629 350
629 349
629 348
629 347
629 346
629 345
629 344
630 343
630 342
630 341
630 340
630 339
630 338
630 337
630 336
630 335
630 334
630 333
630 332
630 331
630 330
630 329
630 328
630 327
630 326
630 325
629 324
629 323
629 322
629 321
629 320
629 319
629 318
629 317
629 316
629 315
629 314
628 313
628 312
628 311
628 310
628 309
627 308
627 307
627 306
626 305
626 304
626 303
626 302
626 301
626 300
626 299
626 298
626 297
626 296
626 295
626 294
626 293
626 292
626 291
626 290
625 289
625 288
625 287
625 286
624 285
624 284
624 283
624 282
623 281
623 280
623 279
622 278
622 277
622 276
621 275
620 274
620 273
619 272
619 271
620 270
621 269
622 268
623 268
624 267
625 267
626 267
627 267
628 267
629 267
630 266
631 266
632 266
633 266
634 266
635 266
636 266
637 266
638 266
639 266
640 267
641 267
642 268
643 269
644 270
644 271
643 272
643 273
642 274
641 275
641 276
640 277
640 278
639 279
639 280
639 281
638 282
638 283
638 284
638 285
638 286
638 287
638 288
638 289
638 290
638 291
638 292
638 293
638 294
638 295
638 296
639 297
639 298
639 299
639 300
640 301
640 302
640 303
640 304
640 305
640 306
640 307
641 308
641 309
641 310
641 311
642 312
642 313
642 314
642 315
643 316
643 317
643 318
644 319
645 320
645 321
646 322
647 323
647 324
648 325
649 326
650 327
651 328
651 329
652 330
652 331
653 332
654 333
655 334
656 335
657 336
657 337
658 338
659 339
660 340
661 341
662 341
663 342
664 343
665 343
666 344
667 345
668 346
669 347
670 348
671 349
671 350
672 351
673 352
673 353
674 354
675 355
676 356
677 357
678 358
679 359
680 359
681 359
682 359
683 359
684 359
684 358
684 357
684 356
684 355
684 354
684 353
684 352
684 351
684 350
684 349
684 348
685 347
685 346
685 345
685 344
686 343
686 342
686 341
686 340
687 339
687 338
687 337
687 336
688 335
688 334
689 333
689 332
690 331
690 330
690 329
691 328
691 327
692 326
692 325
693 324
693 323
694 322
694 321
694 320
694 319
694 318
695 317
695 316
695 315
695 314
695 313
695 312
695 311
695 310
695 309
695 308
695 307
695 306
696 305
696 304
696 303
696 302
696 301
696 300
696 299
696 298
696 297
696 296
696 295
696 294
696 293
696 292
696 291
696 290
696 289
696 288
696 287
696 286
696 285
696 284
696 283
695 282
695 281
695 280
695 279
695 278
695 277
695 276
695 275
695 274
694 273
694 272
694 271
694 270
693 269
693 268
694 267
695 266
696 265
697 265
698 264
699 264
700 264
701 264
702 264
703 264
704 264
705 264
706 264
707 264
708 264
709 264
710 264
711 264
712 264
713 264
714 264
715 264
716 264
717 264
718 263
719 263
720 263
721 263
722 263
723 263
724 263
725 263
726 263
727 263
728 263
729 263
730 263
731 263
732 263
733 263
734 263
735 263
736 263
737 263
738 263
739 263
740 263
741 263
742 263
743 263
744 263
745 263
746 263
747 263
748 264
749 264
750 264
751 265
752 265
753 265
754 266
755 266
756 266
757 266
758 266
759 266
760 266
761 266
762 266
763 266
764 265
764 264
764 263
764 262
764 261
764 260
764 259
764 258
764 257
764 256
764 255
763 255
762 255
761 255
760 255
759 255
758 255
757 255
756 255
755 255
754 255
753 255
752 255
751 255
750 255
749 256
748 256
747 256
746 256
745 256
744 257
743 257
742 257
741 257
740 257
739 257
738 257
737 257
736 257
735 257
734 257
733 257
732 257
731 258
730 258
729 258
728 258
727 258
726 258
725 258
724 258
723 258
722 258
721 258
720 258
719 258
718 258
717 258
716 258
715 258
714 258
713 258
712 258
711 258
710 258
709 258
708 258
707 258
706 258
705 258
704 258
703 258
702 258
701 258
700 259
699 259
698 259
697 258
696 258
695 257
694 256
693 255
693 254
694 253
694 252
695 251
695 250
695 249
695 248
695 247
695 246
695 245
695 244
695 243
695 242
695 241
695 240
695 239
695 238
695 237
695 236
695 235
694 234
694 233
693 232
693 231
692 230
691 229
691 228
690 227
690 226
689 225
689 224
688 223
688 222
688 221
687 220
687 219
687 218
686 217
686 216
685 215
685 214
685 213
684 212
684 211
683 210
683 209
683 208
682 207
682 206
682 205
682 204
682 203
681 202
680 201
679 200
678 199
678 198
677 197
677 196
676 195
675 194
674 193
673 192
672 191
671 190
670 189
669 188
668 187
667 186
666 185
666 184
665 183
664 182
664 181
663 180
662 179
662 178
661 177
661 176
660 175
660 174
659 173
659 172
658 171
658 170
657 169
657 168
657 167
656 166
656 165
655 165
654 165
653 165
652 165
652 166
652 167
651 168
651 169
651 170
651 171
651 172
651 173
650 174
650 175
650 176
650 177
649 178
649 179
648 180
648 181
648 182
647 183
647 184
647 185
646 186
646 187
645 188
645 189
644 190
644 191
643 192
643 193
643 194
642 195
642 196
641 197
641 198
641 199
641 200
640 201
640 202
640 203
639 204
639 205
639 206
639 207
639 208
639 209
639 210
639 211
639 212
639 213
639 214
639 215
639 216
639 217
639 218
639 219
639 220
639 221
639 222
639 223
639 224
639 225
639 226
639 227
640 228
640 229
640 230
640 231
640 232
640 233
641 234
641 235
641 236
642 237
642 238
642 239
643 240
643 241
643 242
644 243
644 244
644 245
645 246
645 247
646 248
646 249
646 250
646 251
647 252
648 253
649 254
650 254
651 255
651 256
652 257
651 258
650 259
649 260
648 260
647 261
646 261
645 261
644 261
643 261
642 262
641 262
640 262
639 262
638 262
637 262
636 262
635 262
634 262
633 262
632 262
631 262
630 262
629 261
628 261
627 260
626 259
625 258
625 257
626 256
626 255
626 254
627 253
627 252
627 251
627 250
628 249
628 248
628 247
628 246
628 245
628 244
628 243
628 242
628 241
628 240
628 239
628 238
628 237
628 236
629 235
629 234
629 233
629 232
629 231
629 230
629 229
629 228
629 227
629 226
629 225
629 224
629 223
629 222
629 221
629 220
629 219
629 218
629 217
629 216
629 215
629 214
629 213
629 212
629 211
629 210
629 209
629 208
629 207
629 206
629 205
629 204
629 203
629 202
629 201
629 200
629 199
629 198
629 197
629 196
629 195
629 194
629 193
629 192
629 191
629 190
629 189
629 188
629 187
629 186
629 185
628 184
628 183
627 182
627 181
627 180
626 179
626 178
626 177
625 176
625 175
624 174
624 173
624 172
623 171
623 170
623 169
622 168
622 167
622 166
622 165
622 164
621 163
621 162
620 161
620 160
619 159
619 158
619 157
619 156
618 155
618 154
618 153
618 152
617 151
617 150
617 149
617 148
617 147
617 146
617 145
617 144
617 143
617 142
617 141
617 140
617 139
617 138
617 137
616 137
615 137
614 137
614 138
613 139
612 140
612 141
611 142
611 143
610 144
609 145
609 146
608 147
608 148
607 149
607 150
606 151
606 152
606 153
605 154
605 155
605 156
605 157
604 158
604 159
604 160
603 161
603 162
603 163
602 164
602 165
602 166
601 167
601 168
601 169
600 170
600 171
600 172
599 173
599 174
599 175
598 176
598 177
597 178
597 179
597 180
596 181
596 182
596 183
595 184
595 185
595 186
594 187
594 188
593 189
593 190
593 191
592 192
592 193
591 194
591 195
591 196
590 197
590 198
589 199
589 200
589 201
588 202
588 203
588 204
588 205
587 206
587 207
587 208
586 209
586 210
585 211
585 212
585 213
584 214
584 215
584 216
584 217
583 218
583 219
582 220
582 221
582 222
581 223
581 224
580 225
580 226
580 227
579 228
579 229
579 230
579 231
578 232
578 233
578 234
577 235
577 236
576 237
576 238
576 239
576 240
576 241
576 242
576 243
576 244
576 245
576 246
576 247
576 248
576 249
576 250
576 251
576 252
576 253
576 254
577 255
578 256
579 257
580 258
581 259
582 260
583 261
582 262
581 263
580 264
579 264
578 265
577 265
576 265
575 265
574 265
573 265
572 266
571 266
570 266
569 266
568 266
567 266
566 266
565 266
564 266
563 266
562 266
561 266
560 266
559 266
558 266
557 266
556 267
555 267
554 267
553 267
552 266
551 266
550 265
549 264
548 263
548 262
549 261
549 260
550 259
550 258
550 257
550 256
551 255
551 254
551 253
551 252
552 251
552 250
552 249
552 248
552 247
552 246
553 245
553 244
553 243
553 242
553 241
553 240
553 239
553 238
553 237
553 236
553 235
553 234
553 233
553 232
553 231
553 230
553 229
553 228
554 227
554 226
554 225
554 224
554 223
554 222
554 221
554 220
554 219
554 218
554 217
554 216
554 215
553 214
553 213
553 212
553 211
553 210
553 209
553 208
553 207
554 206
554 205
554 204
554 203
554 202
554 201
554 200
554 199
554 198
554 197
554 196
554 195
554 194
554 193
554 192
554 191
554 190
554 189
554 188
554 187
554 186
554 185
554 184
554 183
554 182
554 181
554 180
554 179
554 178
554 177
554 176
554 175
554 174
553 173
553 172
553 171
553 170
552 169
552 168
552 167
552 166
551 165
551 164
551 163
550 162
550 161
550 160
550 159
549 158
549 157
549 156
548 155
548 154
547 153
547 152
546 151
546 150
545 149
545 148
544 147
544 146
544 145
543 144
543 143
543 142
542 141
542 140
541 139
541 138
540 137
540 136
539 135
539 134
539 133
539 132
538 131
538 130
537 129
537 128
536 127
536 126
535 125
535 124
535 123
535 122
534 121
534 120
534 119
534 118
534 117
533 116
533 115
533 114
533 113
533 112
533 111
533 110
533 109
533 108
533 107
533 106
533 105
533 104
532 104
531 104
530 104
529 104
529 105
528 106
528 107
527 108
527 109
526 110
526 111
525 112
525 113
524 114
523 115
523 116
522 117
522 118
521 119
521 120
520 121
519 122
519 123
518 124
517 125
517 126
516 127
515 128
514 129
513 130
513 131
512 132
511 133
511 134
510 135
509 136
508 137
507 138
507 139
506 140
505 141
504 142
503 143
502 144
502 145
501 146
500 147
499 148
499 149
498 150
497 151
496 152
496 153
495 154
494 155
493 156
493 157
492 158
492 159
491 160
491 161
490 162
489 163
489 164
488 165
488 166
488 167
487 168
487 169
487 170
486 171
486 172
485 173
485 174
485 175
484 176
484 177
483 178
483 179
483 180
483 181
483 182
482 183
482 184
482 185
482 186
481 187
481 188
481 189
481 190
481 191
480 192
480 193
480 194
480 195
480 196
479 197
479 198
479 199
479 200
479 201
479 202
479 203
479 204
479 205
479 206
479 207
478 208
478 209
478 210
478 211
478 212
478 213
478 214
478 215
478 216
478 217
478 218
478 219
478 220
478 221
478 222
478 223
478 224
478 225
478 226
478 227
478 228
478 229
478 230
478 231
478 232
478 233
478 234
478 235
478 236
479 237
479 238
479 239
480 240
480 241
480 242
480 243
480 244
481 245
481 246
482 247
482 248
482 249
483 250
483 251
484 252
485 253
485 254
486 255
487 256
488 257
489 257
490 258
491 259
492 260
493 261
494 261
495 262
496 263
497 263
498 264
499 264
500 265
501 266
502 267
501 268
500 269
499 270
498 270
497 271
496 271
495 271
494 271
493 271
492 271
491 271
490 271
489 271
488 271
487 271
486 271
485 271
484 271
483 271
482 271
481 272
480 272
479 272
478 272
477 272
476 272
475 272
474 272
473 272
472 272
471 272
470 272
469 272
468 272
467 272
466 272
465 272
464 272
463 272
462 272
461 272
460 271
459 271
458 270
457 269
457 268
457 267
458 266
458 265
459 264
460 263
460 262
461 261
462 260
462 259
462 258
463 257
463 256
464 255
464 254
465 253
465 252
465 251
465 250
465 249
466 248
466 247
466 246
466 245
466 244
466 243
466 242
466 241
466 240
466 239
467 238
467 237
467 236
467 235
467 234
467 233
467 232
467 231
467 230
467 229
467 228
467 227
467 226
467 225
467 224
467 223
467 222
467 221
467 220
467 219
466 218
466 217
466 216
466 215
466 214
466 213
466 212
466 211
465 210
465 209
465 208
465 207
464 206
464 205
464 204
464 203
464 202
464 201
464 200
464 199
464 198
463 197
463 196
462 195
462 194
462 193
462 192
462 191
462 190
462 189
462 188
462 187
462 186
462 185
462 184
462 183
462 182
461 181
461 180
461 179
461 178
460 177
460 176
460 175
460 174
459 173
459 172
459 171
458 170
458 169
457 168
457 167
457 166
456 165
456 164
456 163
455 162
455 161
455 160
455 159
454 158
454 157
453 156
453 155
452 154
452 153
451 152
451 151
450 150
450 149
449 148
449 147
448 146
448 145
447 144
446 143
445 142
445 141
444 140
444 139
443 138
443 137
442 136
442 135
441 134
440 133
440 132
439 131
438 130
438 129
437 128
437 127
436 126
436 125
435 124
435 123
434 122
434 121
433 120
433 119
432 118
432 117
431 116
431 115
430 114
430 113
430 112
430 111
429 110
429 109
428 108
428 107
427 106
427 105
427 104
426 103
426 102
426 101
425 100
425 99
425 98
425 97
425 96
425 95
425 94
425 93
425 92
424 91
424 90
423 90
422 90
421 90
421 91
421 92
420 93
420 94
420 95
420 96
419 97
419 98
419 99
419 100
418 101
418 102
418 103
417 104
417 105
417 106
416 107
416 108
415 109
415 110
415 111
414 112
414 113
413 114
413 115
412 116
412 117
411 118
411 119
410 120
409 121
409 122
408 123
408 124
407 125
407 126
406 127
405 128
404 129
403 130
403 131
402 132
402 133
401 134
400 135
399 136
399 137
398 138
398 139
397 140
397 141
396 142
395 143
395 144
394 145
394 146
393 147
393 148
392 149
392 150
392 151
391 152
391 153
391 154
391 155
390 156
390 157
389 158
389 159
389 160
388 161
388 162
387 163
387 164
387 165
387 166
386 167
386 168
386 169
386 170
386 171
386 172
386 173
385 174
385 175
385 176
385 177
385 178
384 179
384 180
384 181
384 182
384 183
384 184
384 185
384 186
383 187
383 188
383 189
383 190
383 191
383 192
383 193
383 194
383 195
382 196
382 197
382 198
382 199
382 200
382 201
382 202
382 203
382 204
382 205
382 206
382 207
382 208
382 209
382 210
382 211
382 212
382 213
382 214
382 215
382 216
382 217
382 218
382 219
382 220
382 221
382 222
382 223
382 224
382 225
383 226
383 227
383 228
384 229
384 230
384 231
384 232
384 233
385 234
385 235
385 236
385 237
385 238
386 239
386 240
386 241
387 242
387 243
388 244
388 245
389 246
389 247
390 248
391 249
391 250
392 251
393 252
394 253
394 254
395 255
396 256
397 257
398 258
399 258
400 259
401 260
402 261
403 262
404 262
405 263
406 264
407 265
408 266
409 266
410 267
411 267
412 268
413 269
414 270
413 271
412 272
411 273
410 273
409 274
408 274
407 274
406 273
405 273
404 273
403 273
402 273
401 273
400 273
399 273
398 273
397 273
396 273
395 273
394 273
393 273
392 273
391 273
390 273
389 273
388 273
387 273
386 273
385 273
384 273
383 273
382 273
381 273
380 273
379 273
378 273
377 273
376 273
375 273
374 273
373 273
372 273
371 273
370 273
369 272
368 272
367 271
366 270
365 269
365 268
365 267
366 266
366 265
367 264
367 263
367 262
367 261
367 260
368 259
368 258
368 257
368 256
368 255
368 254
368 253
368 252
368 251
368 250
368 249
368 248
368 247
368 246
368 245
368 244
368 243
368 242
368 241
368 240
368 239
368 238
368 237
368 236
368 235
368 234
368 233
368 232
368 231
368 230
368 229
368 228
367 227
367 226
367 225
367 224
367 223
367 222
367 221
367 220
367 219
367 218
367 217
367 216
367 215
367 214
367 213
367 212
367 211
367 210
367 209
367 208
366 207
366 206
366 205
366 204
366 203
366 202
366 201
366 200
366 199
366 198
365 197
365 196
365 195
364 194
364 193
364 192
364 191
364 190
363 189
363 188
363 187
363 186
363 185
363 184
362 183
362 182
362 181
362 180
361 179
361 178
361 177
360 176
360 175
360 174
359 173
359 172
359 171
358 170
358 169
357 168
356 167
356 166
355 165
355 164
354 163
354 162
353 161
352 160
352 159
351 158
350 157
350 156
349 155
348 154
348 153
347 152
346 151
346 150
345 149
344 148
344 147
343 146
342 145
341 144
340 143
339 142
338 141
337 140
336 139
335 138
334 137
334 136
333 135
332 134
332 133
331 132
330 131
330 130
329 129
329 128
328 127
328 126
327 125
326 124
326 123
325 122
324 121
324 120
323 119
323 118
322 117
321 116
321 115
320 114
319 113
319 112
318 111
318 110
317 109
317 108
316 107
316 106
316 105
315 104
315 103
314 102
314 101
314 100
313 99
313 98
313 97
313 96
313 95
312 94
312 93
312 92
312 91
312 90
312 89
311 89
310 89
309 90
309 91
309 92
309 93
309 94
308 95
308 96
308 97
308 98
307 99
307 100
307 101
307 102
306 103
306 104
306 105
306 106
306 107
305 108
305 109
305 110
305 111
304 112
304 113
304 114
303 115
303 116
303 117
303 118
303 119
302 120
302 121
302 122
301 123
301 124
301 125
301 126
300 127
300 128
300 129
299 130
299 131
299 132
298 133
298 134
297 135
297 136
296 137
296 138
295 139
294 140
294 141
293 142
293 143
292 144
292 145
291 146
291 147
291 148
291 149
290 150
290 151
290 152
289 153
289 154
289 155
288 156
288 157
287 158
287 159
287 160
287 161
286 162
286 163
286 164
286 165
286 166
286 167
286 168
286 169
286 170
286 171
285 172
285 173
284 174
283 175
282 176
281 175
280 174
279 173
279 172
278 171
278 170
278 169
278 168
278 167
278 166
277 165
277 164
277 163
277 162
277 161
276 160
276 159
275 158
275 157
275 156
274 155
274 154
274 153
273 152
273 151
272 150
272 149
271 148
271 147
270 146
269 145
269 144
268 143
267 142
266 141
265 140
265 139
264 138
264 137
263 136
262 135
262 134
261 133
260 132
259 131
258 130
258 129
257 128
256 127
256 126
255 125
254 124
254 123
253 122
253 121
252 120
252 119
251 118
250 117
250 116
249 115
249 114
248 113
248 112
247 111
247 110
246 109
246 108
245 107
245 106
244 105
244 104
243 103
243 102
242 101
242 100
241 99
241 98
240 97
240 96
240 95
240 94
239 93
239 92
239 91
239 90
239 89
239 88
239 87
238 86
238 85
238 84
238 83
238 82
238 81
237 80
236 80
235 81
235 82
235 83
235 84
235 85
235 86
234 87
234 88
234 89
234 90
233 91
233 92
233 93
233 94
233 95
232 96
232 97
231 98
231 99
231 100
231 101
230 102
230 103
230 104
229 105
229 106
228 107
228 108
228 109
227 110
227 111
227 112
227 113
226 114
226 115
225 116
225 117
225 118
224 119
224 120
224 121
223 122
223 123
222 124
222 125
222 126
221 127
221 128
220 129
220 130
219 131
219 132
218 133
218 134
218 135
217 136
217 137
216 138
216 139
215 140
215 141
215 142
215 143
214 144
214 145
214 146
213 147
213 148
213 149
213 150
213 151
212 152
212 153
212 154
212 155
212 156
211 157
211 158
211 159
211 160
211 161
211 162
211 163
211 164
211 165
211 166
211 167
211 168
211 169
211 170
210 171
210 172
210 173
210 174
210 175
210 176
210 177
210 178
210 179
210 180
210 181
210 182
210 183
210 184
210 185
210 186
210 187
210 188
210 189
210 190
210 191
210 192
210 193
210 194
210 195
210 196
210 197
210 198
210 199
211 200
211 201
211 202
211 203
211 204
212 205
212 206
212 207
212 208
212 209
213 210
213 211
213 212
213 213
214 214
214 215
214 216
214 217
215 218
215 219
215 220
216 221
216 222
216 223
217 224
217 225
218 226
218 227
219 228
219 229
220 230
220 231
220 232
221 233
221 234
222 235
222 236
223 237
224 238
224 239
225 240
225 241
226 242
227 243
228 244
229 245
230 246
231 247
232 248
233 249
234 250
235 250
236 251
237 252
238 253
239 253
240 254
241 255
242 256
242 257
243 258
242 259
241 260
240 261
239 261
238 261
237 261
236 261
235 261
234 261
233 260
232 260
231 260
230 260
229 260
228 260
227 259
226 259
225 259
224 259
223 259
222 259
221 259
220 259
219 258
218 258
217 258
216 258
215 258
214 258
213 257
212 257
211 257
210 257
209 257
208 257
207 257
206 256
205 256
204 256
203 256
202 256
201 255
200 255
199 254
198 254
197 253
197 252
196 251
196 250
196 249
196 248
196 247
196 246
196 245
196 244
196 243
196 242
196 241
196 240
196 239
196 238
196 237
196 236
196 235
196 234
196 233
196 232
196 231
196 230
196 229
196 228
196 227
196 226
196 225
196 224
196 223
196 222
196 221
196 220
196 219
195 218
195 217
195 216
195 215
195 214
195 213
195 212
195 211
195 210
195 209
195 208
195 207
195 206
195 205
195 204
194 203
194 202
194 201
194 200
193 199
193 198
193 197
193 196
192 195
192 194
192 193
192 192
192 191
192 190
191 189
191 188
191 187
191 186
190 185
190 184
189 183
189 182
188 181
188 180
187 179
187 178
186 177
186 176
185 175
185 174
184 173
184 172
183 171
182 170
181 169
180 168
179 167
179 166
178 165
177 164
176 163
175 162
175 161
174 160
173 159
172 158
171 157
170 157
169 156
168 155
167 154
166 153
165 152
164 151
163 150
162 149
161 148
160 147
159 146
158 145
158 144
157 143
156 142
155 141
154 140
153 139
152 138
152 137
151 136
151 135
150 134
150 133
149 132
149 131
148 130
148 129
147 128
146 128
145 128
144 128
143 128
143 129
143 130
142 131
142 132
142 133
142 134
142 135
142 136
142 137
142 138
141 139
141 140
141 141
141 142
141 143
141 144
141 145
140 146
140 147
140 148
140 149
140 150
140 151
140 152
140 153
140 154
140 155
140 156
140 157
140 158
141 159
142 159
143 160
144 160
145 161
145 162
146 163
146 164
147 165
147 166
147 167
147 168
147 169
148 170
148 171
149 172
149 173
150 174
150 175
150 176
149 177
149 178
148 179
148 180
147 181
147 182
146 183
145 184
145 185
144 186
144 187
143 188
142 188
141 189
141 190
140 191
140 192
139 193
138 194
137 194
136 195
136 196
136 197
136 198
136 199
136 200
136 201
136 202
136 203
136 204
136 205
136 206
136 207
136 208
137 209
137 210
137 211
137 212
138 213
138 214
138 215
139 216
139 217
139 218
139 219
139 220
139 221
140 222
140 223
141 224
141 225
142 226
143 227
144 228
145 229
145 230
146 231
146 232
147 233
148 234
149 235
150 236
150 237
151 238
152 239
153 240
154 241
155 242
156 242
157 243
157 244
158 245
158 246
157 247
156 248
155 249
154 249
153 249
152 249
151 249
150 249
149 249
148 249
147 249
146 249
145 249
144 249
143 249
142 249
141 248
140 248
139 247
138 247
137 246
136 246
135 245
134 245
133 244
132 243
131 242
130 242
129 241
129 240
128 239
128 238
127 237
127 236
127 235
127 234
127 233
127 232
127 231
127 230
127 229
127 228
127 227
127 226
126 225
125 224
124 223
123 222
122 221
121 220
121 219
120 218
119 217
118 216
118 215
117 214
116 213
115 212
114 211
113 210
112 209
111 208
110 207
109 206
108 205
107 204
106 203
105 202
104 201
103 200
102 199
101 198
100 198
99 197
98 196
97 196
96 195
95 195
94 194
93 194
92 193
91 193
90 193
89 192
88 192
87 192
86 192
85 191
84 191
83 190
82 190
81 190
80 189
79 189
78 188
77 188
76 188
75 188
74 187
73 187
72 187
71 187
70 187
69 187
68 186
67 186
66 186
65 186
64 185
63 185
62 185
61 184
60 184
59 184
58 183
57 183
56 183
55 183
54 183
53 183
52 183
51 183
50 183
49 183
