232 35
232 36
232 37
232 38
232 39
232 40
232 41
232 42
233 43
233 44
233 45
233 46
233 47
233 48
233 49
234 50
234 51
234 52
234 53
235 54
235 55
235 56
235 57
235 58
235 59
236 60
236 61
236 62
237 63
237 64
237 65
237 66
237 67
238 68
238 69
238 70
239 71
239 72
240 73
240 74
241 75
241 76
241 77
241 78
242 79
242 80
243 81
243 82
243 83
244 84
244 85
244 86
244 87
245 88
245 89
245 90
245 91
246 92
246 93
247 94
247 95
247 96
248 97
248 98
249 99
249 100
249 101
249 102
250 103
250 104
250 105
250 106
250 107
251 108
251 109
252 110
252 111
252 112
253 113
253 114
253 115
254 116
254 117
255 118
256 119
256 120
257 121
257 122
257 123
258 124
258 125
259 126
259 127
260 128
260 129
261 130
261 131
262 132
263 133
263 134
264 135
264 136
265 137
265 138
266 139
266 140
266 141
267 142
267 143
268 144
268 145
269 146
269 147
270 148
270 149
271 150
271 151
272 152
273 153
273 154
274 155
274 156
275 157
275 158
276 159
276 160
277 161
277 162
277 163
278 164
278 165
278 166
279 167
279 168
279 169
280 170
280 171
280 172
281 173
281 174
282 175
282 176
283 177
283 178
284 179
284 180
285 181
285 182
286 183
287 184
287 185
287 186
288 187
288 188
289 189
289 190
290 191
290 192
291 193
291 194
292 195
293 196
293 197
293 198
294 199
294 200
295 201
295 202
296 203
296 204
297 205
297 206
298 207
298 208
299 209
300 210
300 211
301 212
301 213
302 214
302 215
303 216
304 217
304 218
305 219
306 220
307 221
308 222
308 223
309 224
309 225
310 226
310 227
311 228
312 229
312 230
313 231
314 232
314 233
315 234
315 235
316 236
316 237
317 238
317 239
318 240
319 241
319 242
320 243
320 244
321 245
321 246
322 247
323 248
323 249
324 250
325 251
325 252
326 253
326 254
327 255
328 256
328 257
329 258
330 259
330 260
331 261
331 262
332 263
333 264
333 265
334 266
335 267
336 268
337 269
337 270
338 271
339 272
339 273
340 274
341 275
341 276
342 277
343 278
343 279
344 280
345 281
346 282
347 283
347 284
348 284
349 285
349 286
350 287
351 288
352 288
353 289
353 290
354 290
355 291
356 292
357 293
358 294
359 295
360 296
361 297
362 298
363 299
364 300
365 300
366 301
367 302
368 303
369 304
370 305
371 306
372 307
373 308
374 309
375 310
376 311
377 312
378 313
379 314
380 315
381 315
382 316
383 317
384 318
385 319
386 320
387 321
388 322
389 323
390 323
391 324
392 325
393 326
394 327
395 328
396 329
397 330
398 330
399 331
400 332
401 333
402 334
403 334
404 335
405 336
406 337
407 337
408 338
409 339
410 340
411 341
412 342
413 343
414 344
415 344
416 345
417 346
418 347
419 348
420 349
421 350
422 351
423 351
424 352
425 353
426 353
427 354
428 355
429 355
430 356
431 356
432 357
433 358
434 358
435 359
436 359
437 360
438 361
439 361
440 362
441 362
442 363
443 363
444 364
445 365
446 365
447 366
448 366
449 367
450 367
451 368
452 368
453 369
454 369
455 370
456 370
457 371
458 371
459 372
460 372
461 373
462 373
463 374
464 375
465 375
466 376
467 377
468 377
469 378
470 378
471 379
472 379
473 380
474 380
475 381
476 382
477 382
478 383
479 384
480 385
481 385
482 386
483 387
484 388
485 389
486 389
487 390
488 391
489 392
490 393
491 394
492 394
493 395
493 396
494 396
495 397
496 398
497 399
498 400
499 401
500 401
501 402
502 403
503 404
504 405
505 406
504 407
503 407
502 407
501 407
500 407
499 407
498 407
497 407
496 407
495 407
494 407
493 407
492 407
491 407
490 407
489 407
488 406
487 406
486 406
485 406
484 406
483 405
482 405
481 405
480 405
479 404
478 404
477 404
476 404
475 403
474 403
473 403
472 402
471 402
470 401
469 401
468 400
467 400
466 399
465 398
464 398
463 397
462 396
461 396
460 395
459 394
458 394
457 393
456 392
455 392
454 391
453 390
452 389
451 388
450 388
449 387
448 386
448 385
447 384
446 384
445 383
444 382
443 381
442 380
441 379
440 378
439 377
438 377
437 376
436 375
435 374
434 374
433 373
432 372
431 371
430 371
429 370
428 369
427 368
426 368
425 367
424 366
423 365
422 365
421 364
420 363
419 362
418 362
417 361
416 360
415 359
414 359
413 358
412 357
411 357
410 356
409 355
408 354
407 353
406 353
405 352
404 351
403 350
402 350
401 349
400 348
399 347
398 347
397 346
396 346
395 345
394 345
393 344
392 343
391 343
390 342
389 341
388 341
387 340
386 340
385 339
384 338
383 338
382 337
381 337
380 336
379 335
378 335
377 334
376 333
375 332
374 332
373 331
372 330
371 330
370 329
369 328
368 328
367 327
366 327
365 326
364 325
363 325
362 324
361 323
360 323
359 322
358 322
357 321
356 320
355 320
354 319
353 319
352 318
351 318
350 317
349 317
348 316
347 316
346 315
345 315
344 315
343 314
342 314
341 313
340 313
339 313
338 312
337 312
336 311
335 311
334 311
333 311
332 310
331 310
330 309
329 309
328 309
327 309
326 309
325 308
324 308
323 308
322 308
321 307
320 307
319 306
318 306
317 306
316 305
315 305
314 305
313 305
312 304
311 304
310 304
309 303
308 303
307 302
306 302
305 302
304 301
303 301
302 301
301 301
300 300
299 300
298 300
297 299
296 299
295 299
294 298
293 298
292 298
291 298
290 297
289 297
288 296
287 296
286 296
285 296
284 295
283 295
282 294
281 294
280 294
279 293
278 293
277 292
276 292
275 292
274 292
273 291
272 290
271 290
270 290
269 290
268 289
267 289
266 289
265 289
264 288
263 288
262 288
261 288
260 288
259 287
258 287
257 287
256 287
255 286
254 286
253 286
252 285
251 285
250 285
249 284
248 284
247 283
246 283
245 283
244 282
243 282
242 282
241 281
240 281
239 281
238 281
237 281
236 280
235 280
234 280
233 280
232 279
231 279
230 279
229 279
228 278
227 278
226 278
225 277
224 277
223 277
222 276
221 276
220 276
219 275
218 275
217 275
216 274
215 274
214 274
213 274
212 274
211 273
210 273
209 273
208 273
207 273
206 272
205 272
204 272
203 272
202 271
201 271
200 271
199 270
198 270
197 270
196 270
195 269
194 269
193 269
192 269
191 268
190 268
189 268
188 268
187 267
186 267
185 267
184 267
183 267
182 266
181 266
180 266
179 266
178 266
177 265
176 265
175 265
174 264
173 264
172 264
171 264
170 264
169 263
168 263
167 263
166 263
165 263
164 263
163 263
162 263
161 263
160 263
159 262
158 262
157 262
156 262
155 262
154 261
153 261
152 261
151 261
150 260
149 260
148 260
147 260
146 260
145 259
144 259
143 259
142 259
141 259
140 259
139 258
138 258
137 258
136 257
135 257
134 257
133 257
132 256
131 256
130 256
129 255
128 255
127 255
126 254
125 254
124 254
123 253
122 253
121 253
120 253
119 252
118 252
117 251
116 251
115 251
114 250
113 250
112 249
111 249
110 249
109 248
108 248
107 247
106 247
105 247
104 246
103 246
102 246
101 245
100 245
99 245
98 244
97 244
96 244
95 244
94 243
93 243
92 243
91 243
90 243
89 243
88 242
87 242
86 242
85 242
84 242
83 241
82 241
81 241
80 241
79 240
78 240
77 239
76 239
75 239
74 238
73 238
72 238
71 237
70 237
69 236
68 236
67 235
66 235
65 234
64 234
63 233
62 233
61 233
60 232
59 232
58 231
57 231
56 231
55 230
54 230
53 230
52 229
51 229
50 229
49 228
48 228
47 228
46 228
45 227
44 227
43 227
42 226
41 226
40 226
39 226
38 225
37 225
36 225
35 225
34 224
33 224
32 224
31 224
30 223
29 223
28 223
27 223
26 223
25 223
24 222
23 222
22 222
21 222
20 223
20 224
21 225
21 226
22 227
23 228
24 229
25 230
26 230
27 231
28 232
29 233
30 233
31 234
32 235
33 236
34 236
35 237
36 237
37 238
38 239
39 240
40 240
41 241
42 242
43 243
44 244
45 245
46 246
47 247
48 248
49 248
50 249
51 250
52 251
53 251
54 252
55 253
56 253
57 254
58 255
59 255
60 256
61 256
62 257
63 258
64 259
65 259
66 260
67 261
68 261
69 262
70 263
71 264
72 264
73 265
74 266
75 266
76 267
77 268
78 269
79 269
80 270
81 271
82 272
83 272
84 272
85 273
86 274
87 274
88 275
89 276
90 276
91 277
92 277
93 278
94 278
95 279
96 279
97 280
98 281
99 281
100 282
101 283
102 283
103 284
104 284
105 285
106 286
107 286
108 287
109 288
110 288
111 289
112 289
113 290
114 291
115 292
116 292
117 293
118 294
119 295
120 296
121 296
122 297
123 297
124 298
125 299
126 299
127 300
128 301
129 301
130 302
131 303
132 303
133 304
134 305
135 306
136 306
137 307
138 308
139 309
140 309
141 310
142 310
143 310
144 311
145 312
146 312
147 313
148 313
149 314
150 314
151 315
152 316
153 316
154 317
155 317
156 318
157 319
158 319
159 320
160 320
161 321
162 321
163 322
164 322
165 323
166 323
167 324
168 324
169 325
170 325
171 326
172 326
173 326
174 327
175 328
176 328
177 329
178 330
179 330
180 331
181 332
182 332
183 333
184 333
185 334
186 335
187 335
188 336
189 336
190 337
191 337
192 338
193 338
194 339
195 340
196 340
197 341
198 342
199 342
200 343
201 344
202 344
203 345
204 345
205 346
206 347
207 347
208 348
209 348
210 349
211 349
212 350
213 350
214 351
215 352
216 352
217 352
218 353
219 353
220 354
221 354
222 354
223 355
224 355
225 356
226 356
227 356
228 357
229 357
230 357
231 358
232 358
233 359
234 359
235 360
236 360
237 360
238 361
239 361
240 361
241 361
242 362
243 362
244 362
245 363
246 363
247 363
248 363
249 364
250 364
251 364
252 365
253 365
254 366
255 366
256 367
257 367
258 368
259 368
260 369
261 369
262 370
263 370
264 371
265 371
266 372
267 372
268 373
269 373
270 374
271 374
272 375
273 375
274 376
275 376
276 376
277 377
278 377
279 378
280 379
281 379
282 380
283 380
284 381
285 381
286 381
287 382
288 382
289 382
290 383
291 383
292 383
293 384
294 384
295 384
296 384
297 385
298 385
299 385
300 386
301 386
302 386
303 387
304 387
305 387
306 387
307 388
308 388
309 388
310 389
311 389
312 389
313 390
314 390
315 390
316 391
317 391
318 391
319 392
320 392
321 392
322 392
323 393
324 393
325 393
326 394
327 394
328 394
329 395
330 395
331 395
332 395
333 396
334 396
335 396
336 396
337 397
338 397
339 397
340 397
341 397
342 398
343 398
344 398
345 398
346 399
347 399
348 399
349 399
350 400
351 400
352 400
353 401
354 401
355 401
356 402
357 402
358 402
359 403
360 403
361 403
362 403
363 404
364 404
365 404
366 404
367 405
368 405
369 405
370 405
371 406
372 406
373 406
374 406
375 407
376 407
377 407
378 407
379 407
380 408
381 408
382 408
383 408
384 408
385 409
386 409
387 409
388 409
389 409
390 410
391 410
392 410
393 410
394 410
395 410
396 410
397 411
398 411
399 411
400 411
401 411
402 411
403 411
404 411
405 411
406 411
407 412
408 412
409 412
410 412
411 412
412 412
413 412
414 412
415 412
416 412
417 412
418 412
419 412
420 412
421 412
422 412
423 412
424 412
425 413
426 413
427 413
428 413
429 413
430 413
431 413
432 413
433 413
434 413
435 413
436 412
437 412
438 412
439 412
440 412
441 412
442 412
443 412
444 412
445 412
446 412
447 412
448 412
449 412
450 412
451 412
452 412
453 412
454 412
455 413
456 413
457 413
458 413
459 413
460 413
461 413
462 413
463 413
464 413
465 413
466 413
467 413
468 413
469 413
470 414
471 414
472 414
473 414
474 414
475 414
476 414
477 414
478 415
479 415
480 415
481 415
482 415
483 415
484 415
485 415
486 416
487 416
488 416
489 416
490 416
491 416
492 416
493 416
494 416
495 416
496 416
497 416
498 416
499 416
500 416
501 417
501 418
500 419
499 420
498 420
497 421
496 421
495 422
494 422
493 423
492 423
491 424
490 424
489 425
488 425
487 426
486 426
485 426
484 427
483 427
482 427
481 427
480 427
479 427
478 428
477 428
476 428
475 428
474 428
473 428
472 428
471 428
470 428
469 428
468 428
467 428
466 428
465 428
464 428
463 428
462 428
461 428
460 428
459 428
458 428
457 428
456 428
455 428
454 428
453 428
452 428
451 428
450 428
449 428
448 428
447 428
446 428
445 428
444 429
443 429
442 429
441 429
440 429
439 430
438 430
437 430
436 430
435 430
434 430
433 430
432 431
431 431
430 431
429 431
428 431
427 431
426 432
425 432
424 432
423 432
422 433
421 433
420 433
419 433
418 434
417 434
416 434
415 435
414 435
413 435
412 435
411 435
410 436
409 436
408 436
407 436
406 436
405 437
404 437
403 437
402 437
401 438
400 438
399 438
398 439
397 439
396 439
395 440
394 440
393 441
392 441
391 442
390 442
389 442
388 443
387 443
386 444
385 444
384 445
383 445
382 446
381 446
380 446
379 447
378 447
377 448
376 448
375 448
374 449
373 449
372 450
371 450
370 450
369 450
368 451
367 451
366 451
365 452
364 452
363 452
362 453
361 453
360 454
359 454
358 454
357 455
356 455
355 455
354 456
353 456
352 456
351 456
350 457
349 457
348 457
347 458
346 458
345 458
344 458
343 459
342 459
341 459
340 459
339 460
338 460
337 460
336 461
335 461
334 462
333 462
332 463
331 463
330 464
329 464
328 465
327 465
326 465
325 466
324 466
323 467
322 467
321 468
320 468
319 469
318 469
317 470
316 471
315 471
314 472
313 472
312 473
311 473
310 474
309 474
308 474
307 475
306 475
305 476
304 476
303 477
302 478
301 478
300 479
299 479
298 480
297 481
296 482
295 482
294 483
293 484
292 484
291 485
290 486
289 486
288 487
287 488
286 488
285 489
284 489
283 490
282 490
281 491
280 491
279 492
278 493
277 494
276 494
275 495
274 495
273 496
272 497
271 498
270 499
269 500
268 500
267 501
266 502
265 502
264 503
263 504
262 505
261 505
260 506
259 507
258 507
257 508
256 509
255 510
254 510
253 511
252 512
251 513
250 513
249 514
248 515
247 516
246 517
245 518
244 518
243 519
242 520
241 520
240 521
239 522
238 523
237 523
236 524
235 524
234 525
233 525
232 526
231 527
230 527
229 528
228 528
227 529
226 530
225 530
224 531
223 532
222 533
221 534
220 535
219 535
218 536
217 537
216 537
216 538
215 539
214 540
213 540
212 541
211 542
210 543
209 544
208 545
207 546
206 547
205 548
204 548
203 549
202 550
201 551
200 552
199 552
198 553
197 554
196 555
195 556
194 556
193 557
192 558
191 559
190 560
189 560
188 561
187 562
186 563
185 564
184 565
183 566
182 567
181 567
180 568
179 569
178 569
177 570
176 571
175 572
174 572
173 573
172 574
171 575
170 575
169 576
168 577
167 578
166 579
165 580
164 581
163 582
162 583
161 584
160 585
159 586
158 587
157 588
156 588
155 589
154 590
153 591
152 592
151 593
150 594
149 594
148 595
147 596
146 597
145 598
144 599
143 600
142 601
141 601
140 602
140 603
139 604
138 605
137 606
137 607
136 608
137 609
138 610
139 610
140 610
141 610
142 610
143 610
144 610
145 610
146 610
147 609
148 609
149 609
150 609
151 608
152 608
153 608
154 607
155 607
156 606
157 606
158 605
159 605
160 605
161 604
162 603
163 603
164 602
165 602
166 601
167 601
168 600
169 600
170 600
171 599
172 598
173 598
174 598
175 597
176 597
177 597
178 596
179 596
180 595
181 595
182 594
183 593
184 593
185 592
186 592
187 591
188 591
189 590
190 590
191 589
192 589
193 588
194 588
195 587
196 587
197 587
198 586
199 586
200 586
201 585
202 585
203 584
204 584
205 584
206 583
207 583
208 583
209 582
210 582
211 582
212 581
213 581
214 581
215 580
216 580
217 579
218 579
219 579
220 578
221 578
222 578
223 577
224 577
225 576
226 576
227 576
228 575
229 575
230 575
231 574
232 574
233 573
234 573
235 572
236 572
237 572
238 571
239 571
240 570
241 570
242 569
243 569
244 569
245 568
246 568
247 568
248 567
249 567
250 567
251 566
252 566
253 566
254 565
255 565
256 565
257 564
258 564
259 564
260 563
261 563
262 563
263 563
264 562
265 562
266 562
267 562
268 561
269 561
270 561
271 560
272 560
273 559
274 559
275 559
276 558
277 558
278 558
279 557
280 557
281 557
282 556
283 556
284 555
285 555
286 554
287 554
288 553
289 553
290 552
291 552
292 552
293 551
294 551
295 551
296 550
297 550
298 550
299 549
300 549
301 549
302 548
303 548
304 548
305 548
306 548
307 547
308 547
309 547
310 546
311 546
312 545
313 545
314 545
315 544
316 544
317 544
318 544
319 543
320 543
321 542
322 542
323 542
324 541
325 541
326 541
327 540
328 540
329 540
330 540
331 539
332 539
333 538
334 538
335 538
336 537
337 537
338 537
339 536
340 536
341 536
342 536
343 535
344 535
345 534
346 534
347 534
348 533
349 533
350 532
351 532
352 532
353 531
354 531
355 530
356 530
357 530
358 529
359 529
360 528
361 528
362 527
363 527
364 526
365 526
366 525
367 525
368 524
369 523
370 523
371 522
372 522
373 521
374 520
375 519
376 519
377 518
378 517
379 517
380 516
381 516
382 515
383 514
384 514
385 513
386 512
387 512
388 511
389 511
390 510
391 510
392 509
393 509
394 508
395 508
396 507
397 507
398 507
399 506
400 506
401 505
402 505
403 504
404 504
405 503
406 503
407 502
408 501
409 501
410 500
411 500
412 499
413 499
414 498
415 497
416 497
417 496
418 496
419 495
420 494
421 494
422 494
423 493
424 492
425 492
426 491
427 491
428 490
429 489
430 489
431 488
432 488
433 487
434 487
435 486
436 485
437 485
438 484
439 483
440 482
441 482
442 481
443 480
444 479
445 478
446 478
447 477
448 476
449 475
450 474
451 474
452 473
453 472
454 471
455 470
456 469
457 468
458 468
459 467
460 466
461 465
462 464
463 464
464 463
464 462
465 461
466 461
467 460
468 459
469 458
470 457
471 456
472 455
473 454
474 453
475 452
476 451
477 450
477 449
478 448
479 448
479 447
480 446
481 445
482 444
483 443
484 442
484 441
485 440
486 439
487 438
488 437
489 436
490 435
491 434
492 433
493 432
494 432
495 432
496 431
497 431
497 430
497 429
498 428
499 428
500 427
501 426
502 426
503 426
504 425
505 425
506 425
507 426
507 427
507 428
506 429
506 430
506 431
505 432
505 433
504 434
504 435
503 436
502 437
502 438
501 439
500 440
499 441
498 442
498 443
497 444
496 445
495 446
494 447
493 448
492 449
491 450
490 451
489 452
489 453
488 454
487 455
486 456
486 457
485 458
484 459
483 460
482 461
482 462
481 463
480 464
480 465
479 466
478 467
478 468
477 469
476 470
476 471
475 472
474 473
474 474
473 475
472 476
472 477
471 478
471 479
470 480
470 481
469 482
469 483
468 484
468 485
467 486
467 487
466 488
466 489
466 490
465 491
465 492
465 493
465 494
464 495
464 496
464 497
463 498
463 499
463 500
463 501
462 502
462 503
461 504
461 505
460 506
460 507
459 508
459 509
459 510
458 511
458 512
457 513
457 514
457 515
456 516
456 517
456 518
455 519
455 520
455 521
454 522
454 523
453 524
453 525
452 526
452 527
451 528
451 529
451 530
450 531
450 532
449 533
449 534
449 535
449 536
448 537
448 538
448 539
447 540
447 541
447 542
446 543
446 544
446 545
446 546
445 547
445 548
445 549
445 550
444 551
444 552
444 553
444 554
444 555
443 556
443 557
443 558
443 559
442 560
442 561
442 562
442 563
442 564
442 565
442 566
442 567
442 568
441 569
441 570
441 571
441 572
441 573
441 574
441 575
441 576
440 577
440 578
440 579
440 580
440 581
440 582
440 583
440 584
440 585
440 586
440 587
440 588
440 589
440 590
440 591
440 592
440 593
440 594
440 595
440 596
439 597
439 598
439 599
439 600
439 601
439 602
439 603
439 604
439 605
439 606
439 607
439 608
438 609
438 610
438 611
438 612
438 613
438 614
438 615
438 616
438 617
438 618
438 619
438 620
438 621
438 622
438 623
438 624
438 625
438 626
438 627
438 628
438 629
438 630
438 631
438 632
438 633
438 634
438 635
438 636
438 637
438 638
438 639
438 640
439 641
439 642
439 643
439 644
439 645
439 646
439 647
439 648
439 649
439 650
439 651
439 652
439 653
439 654
439 655
439 656
440 657
440 658
440 659
440 660
440 661
440 662
440 663
440 664
440 665
440 666
440 667
440 668
440 669
440 670
440 671
440 672
439 673
439 674
439 675
439 676
439 677
439 678
439 679
439 680
439 681
439 682
439 683
439 684
439 685
439 686
439 687
439 688
439 689
439 690
439 691
439 692
439 693
439 694
439 695
439 696
439 697
439 698
439 699
439 700
439 701
439 702
439 703
439 704
439 705
439 706
439 707
439 708
439 709
439 710
439 711
439 712
439 713
439 714
439 715
440 716
440 717
440 718
441 719
441 720
442 720
443 720
444 719
444 718
445 717
445 716
446 715
446 714
447 713
447 712
448 711
448 710
449 709
449 708
449 707
450 706
450 705
450 704
450 703
451 702
451 701
451 700
451 699
452 698
452 697
452 696
452 695
453 694
453 693
453 692
453 691
454 690
454 689
455 688
455 687
455 686
456 685
456 684
456 683
457 682
457 681
457 680
457 679
458 678
458 677
458 676
458 675
459 674
459 673
459 672
459 671
460 670
460 669
460 668
461 667
461 666
461 665
462 664
462 663
462 662
463 661
463 660
464 659
464 658
464 657
465 656
465 655
466 654
466 653
466 652
467 651
467 650
468 649
468 648
469 647
469 646
470 645
470 644
471 643
471 642
471 641
472 640
472 639
473 638
473 637
473 636
474 635
474 634
475 633
475 632
475 631
476 630
476 629
476 628
477 627
477 626
478 625
478 624
479 623
479 622
479 621
480 620
480 619
481 618
481 617
482 616
482 615
483 614
483 613
483 612
484 611
484 610
485 609
485 608
486 607
486 606
486 605
487 604
487 603
488 602
489 601
489 600
490 599
491 598
492 597
492 596
493 595
493 594
494 593
494 592
495 591
495 590
496 589
496 588
497 587
497 586
498 585
498 584
499 583
499 582
500 581
500 580
500 579
501 578
502 577
502 576
503 575
503 574
504 573
504 572
504 571
505 570
505 569
505 568
505 567
506 566
506 565
506 564
506 563
506 562
507 561
507 560
507 559
508 558
508 557
508 556
508 555
509 554
509 553
509 552
510 551
510 550
510 549
510 548
511 547
511 546
511 545
511 544
511 543
512 542
512 541
512 540
512 539
513 538
513 537
514 536
514 535
515 534
515 533
515 532
516 531
516 530
516 529
517 528
517 527
517 526
518 525
518 524
518 523
519 522
519 521
519 520
519 519
519 518
519 517
519 516
520 515
520 514
520 513
520 512
520 511
520 510
520 509
520 508
521 507
521 506
521 505
521 504
521 503
521 502
521 501
521 500
521 499
522 498
522 497
522 496
522 495
522 494
522 493
522 492
522 491
522 490
521 489
521 488
521 487
521 486
521 485
521 484
521 483
521 482
521 481
520 480
520 479
520 478
520 477
520 476
520 475
519 474
519 473
519 472
519 471
519 470
518 469
518 468
518 467
517 466
517 465
517 464
517 463
516 462
516 461
516 460
515 459
515 458
515 457
515 456
515 455
514 454
514 453
514 452
514 451
514 450
514 449
513 448
513 447
513 446
513 445
513 444
513 443
513 442
513 441
513 440
513 439
513 438
513 437
513 436
513 435
513 434
513 433
513 432
513 431
513 430
514 429
514 428
514 427
514 426
514 425
514 424
515 423
515 422
516 421
517 420
518 419
519 419
520 419
521 419
522 419
523 419
524 419
525 419
526 420
527 420
528 420
529 420
530 420
531 421
532 421
533 421
534 422
535 422
536 422
537 423
538 423
539 424
540 424
541 424
542 424
543 425
544 425
545 425
546 426
547 426
548 427
549 427
550 428
551 428
552 428
553 429
554 429
555 429
556 430
557 430
558 431
559 431
560 431
561 432
562 432
563 433
564 433
565 433
566 434
567 434
568 435
569 435
570 435
571 436
572 436
573 437
574 437
575 437
576 438
577 438
578 438
579 439
580 439
581 439
582 440
583 440
584 441
585 441
586 441
587 442
588 442
589 442
590 443
591 443
592 443
593 444
594 444
595 445
596 445
597 446
598 446
599 446
600 447
601 447
602 447
603 448
604 448
605 448
606 449
607 449
608 449
609 450
610 450
611 450
612 451
613 451
614 451
615 452
616 452
617 453
618 453
619 453
620 453
621 454
622 454
623 454
624 455
625 455
626 455
627 456
628 456
629 456
630 457
631 457
632 457
633 458
634 458
635 458
636 458
637 459
638 459
639 459
640 459
641 460
642 460
643 460
644 460
645 461
646 461
647 461
648 462
649 462
650 462
651 462
652 463
653 463
654 463
655 463
656 464
657 464
658 464
659 464
660 464
661 465
662 465
663 465
664 465
665 466
666 466
667 466
668 466
669 467
670 467
671 467
672 467
673 467
674 468
675 468
676 468
677 468
678 468
679 469
680 469
681 469
682 469
683 469
684 470
685 470
686 470
687 470
688 470
689 471
690 471
691 471
692 471
693 471
694 472
695 472
696 472
697 472
698 472
699 472
700 473
701 473
702 473
703 473
704 473
705 473
706 474
707 474
708 474
709 474
710 474
711 475
712 475
713 475
714 475
715 475
716 475
717 476
718 476
719 476
720 476
721 476
722 477
723 477
724 477
725 477
726 477
727 477
728 478
729 478
730 478
731 478
732 478
733 479
734 479
735 479
736 479
737 479
738 480
739 480
740 480
741 480
742 480
743 481
744 481
745 481
746 481
747 482
748 482
749 482
750 482
751 482
752 482
753 481
754 481
755 481
756 481
757 480
758 479
759 478
759 477
759 476
759 475
758 474
757 474
756 473
755 473
754 473
753 473
752 472
751 472
750 472
749 471
748 471
747 471
746 471
745 470
744 470
743 470
742 470
741 470
740 469
739 469
738 469
737 469
736 469
735 469
734 469
733 469
732 468
731 468
730 468
729 468
728 468
727 468
726 468
725 468
724 467
723 467
722 467
721 467
720 467
719 467
718 466
717 466
716 466
715 466
714 466
713 466
712 465
711 465
710 465
709 465
708 465
707 465
706 465
705 464
704 464
703 464
702 464
701 464
700 464
699 463
698 463
697 463
696 463
695 463
694 463
693 462
692 462
691 462
690 462
689 462
688 461
687 461
686 461
685 461
684 461
683 461
682 460
681 460
680 460
679 460
678 460
677 459
676 459
675 459
674 459
673 459
672 458
671 458
670 458
669 458
668 457
667 457
666 457
665 457
664 457
663 456
662 456
661 456
660 456
659 456
658 455
657 455
656 455
655 455
654 454
653 454
652 454
651 454
650 453
649 453
648 453
647 453
646 452
645 452
644 452
643 452
642 451
641 451
640 451
639 451
638 450
637 450
636 450
635 449
634 449
633 449
632 449
631 448
630 448
629 448
628 447
627 447
626 447
625 446
624 446
623 446
622 446
621 445
620 445
619 445
618 444
617 444
616 444
615 443
614 443
613 443
612 442
611 442
610 442
609 441
608 441
607 441
606 440
605 440
604 440
603 439
602 439
601 438
600 438
599 438
598 437
597 437
596 437
595 436
594 436
593 436
592 435
591 435
590 435
589 434
588 434
587 433
586 433
585 433
584 432
583 432
582 431
581 431
580 430
579 430
578 430
577 429
576 429
575 429
574 428
573 428
572 427
571 427
570 427
569 426
568 426
567 425
566 425
565 425
564 424
563 424
562 423
561 423
560 422
559 422
558 422
557 421
556 421
555 421
554 420
553 420
552 419
551 419
550 418
549 418
548 417
547 417
546 417
545 416
544 416
543 415
542 415
541 415
540 414
539 414
538 413
537 413
536 412
535 412
534 411
533 410
534 409
535 409
536 408
537 408
538 408
539 407
540 406
541 406
542 406
543 405
544 405
545 404
546 404
547 403
548 402
549 402
550 401
551 401
552 400
553 400
554 399
555 398
556 397
557 396
558 396
559 395
560 394
561 393
562 392
563 391
564 390
565 389
566 388
567 387
567 386
568 385
569 384
570 384
571 383
572 382
573 381
574 380
575 379
576 378
577 378
577 377
578 376
579 375
580 374
581 373
581 372
582 371
582 370
583 369
583 368
584 367
585 366
586 365
587 364
587 363
588 362
588 361
589 360
590 359
591 358
592 357
592 356
593 355
593 354
594 353
595 352
595 351
596 350
596 349
597 348
597 347
598 346
598 345
599 344
599 343
600 342
600 341
599 341
598 340
597 340
596 340
595 340
594 341
593 341
592 342
591 342
590 343
589 343
588 344
587 345
586 345
585 346
584 347
583 348
582 348
581 349
580 349
579 350
578 351
577 351
576 352
575 353
574 354
573 354
572 355
571 356
570 356
569 357
568 357
567 358
566 358
565 359
564 360
563 361
562 361
561 362
560 362
559 363
558 364
557 364
556 365
555 366
554 366
553 367
552 367
551 368
550 369
549 370
548 370
547 371
546 372
545 372
544 373
543 374
542 375
541 375
540 376
539 377
538 377
537 378
536 379
535 380
534 381
533 382
532 383
531 384
530 385
529 385
528 386
527 387
526 388
526 389
525 390
524 391
523 392
522 393
522 394
521 395
520 396
519 396
519 397
519 398
518 399
517 398
517 397
517 396
517 395
517 394
517 393
517 392
517 391
517 390
517 389
517 388
517 387
517 386
517 385
518 384
518 383
518 382
518 381
518 380
518 379
518 378
518 377
518 376
519 375
519 374
519 373
519 372
519 371
519 370
519 369
519 368
520 367
520 366
520 365
520 364
520 363
520 362
520 361
521 360
521 359
521 358
521 357
522 356
522 355
522 354
522 353
522 352
522 351
522 350
522 349
523 348
523 347
523 346
523 345
523 344
523 343
523 342
523 341
524 340
524 339
524 338
524 337
524 336
524 335
524 334
524 333
524 332
525 331
525 330
525 329
525 328
525 327
525 326
525 325
525 324
525 323
525 322
525 321
525 320
525 319
525 318
525 317
525 316
524 315
524 314
524 313
524 312
524 311
524 310
524 309
524 308
524 307
524 306
524 305
524 304
524 303
523 302
523 301
523 300
523 299
522 298
522 297
522 296
522 295
521 294
521 293
521 292
521 291
520 290
520 289
520 288
520 287
519 286
519 285
519 284
519 283
518 282
518 281
518 280
518 279
518 278
517 277
517 276
517 275
516 274
516 273
515 272
515 271
514 270
514 269
513 268
513 267
513 266
512 265
512 264
512 263
511 262
511 261
511 260
510 259
510 258
510 257
509 256
509 255
508 254
508 253
508 252
507 251
507 250
507 249
506 248
506 247
505 246
505 245
504 244
504 243
504 242
503 241
503 240
502 239
502 238
501 237
501 236
500 235
500 234
500 233
499 232
498 231
498 230
497 229
497 228
496 227
496 226
495 225
495 224
494 223
494 222
494 221
493 220
493 219
493 218
492 217
492 216
491 215
491 214
490 213
490 212
489 211
489 210
488 209
488 208
487 207
487 206
486 205
486 204
486 203
485 202
485 201
485 200
484 199
484 198
483 197
483 196
483 195
482 194
482 193
481 192
481 191
480 190
480 189
479 188
479 187
478 186
478 185
477 184
476 183
476 182
475 181
475 180
474 179
474 178
473 177
472 176
472 175
471 174
471 173
470 172
469 171
469 170
468 169
467 168
467 167
466 166
466 165
465 164
465 163
464 162
464 161
463 160
463 159
462 158
462 157
461 156
460 155
460 154
459 153
458 152
458 151
457 150
456 149
456 148
455 147
454 146
454 145
453 144
453 143
453 142
452 141
452 140
451 139
451 138
451 137
450 136
450 135
449 134
449 133
448 132
448 131
448 130
447 129
447 128
447 127
446 126
446 125
445 124
444 123
444 122
443 121
443 120
442 119
442 118
441 117
441 116
440 115
440 114
439 113
438 112
438 111
437 110
437 109
436 108
436 107
435 106
435 105
435 104
434 103
434 102
433 101
433 100
432 99
432 98
431 97
431 96
430 95
429 94
429 93
428 92
427 91
427 90
426 89
425 88
424 87
423 87
422 86
422 87
421 88
421 89
421 90
421 91
421 92
421 93
421 94
421 95
421 96
421 97
421 98
422 99
422 100
422 101
422 102
422 103
422 104
422 105
422 106
422 107
422 108
422 109
422 110
422 111
422 112
423 113
423 114
423 115
423 116
424 117
424 118
424 119
424 120
424 121
424 122
424 123
424 124
424 125
424 126
425 127
425 128
425 129
425 130
425 131
425 132
425 133
425 134
426 135
426 136
426 137
426 138
426 139
426 140
426 141
426 142
426 143
426 144
427 145
427 146
427 147
427 148
427 149
427 150
427 151
427 152
427 153
427 154
427 155
427 156
427 157
427 158
427 159
427 160
427 161
427 162
427 163
427 164
427 165
427 166
427 167
428 168
428 169
428 170
428 171
428 172
428 173
428 174
428 175
428 176
429 177
429 178
429 179
429 180
429 181
429 182
429 183
429 184
429 185
429 186
430 187
430 188
430 189
430 190
430 191
430 192
431 193
431 194
431 195
431 196
431 197
431 198
432 199
432 200
432 201
432 202
433 203
433 204
433 205
433 206
433 207
433 208
433 209
433 210
433 211
434 212
434 213
434 214
434 215
434 216
434 217
434 218
434 219
434 220
434 221
434 222
434 223
434 224
433 225
434 226
434 227
434 228
434 229
434 230
434 231
434 232
435 233
435 234
435 235
435 236
435 237
435 238
435 239
435 240
436 241
436 242
436 243
436 244
437 245
437 246
437 247
437 248
438 249
438 250
438 251
438 252
439 253
439 254
439 255
439 256
439 257
439 258
440 259
440 260
440 261
440 262
441 263
441 264
441 265
441 266
441 267
441 268
442 269
442 270
442 271
442 272
441 273
441 274
441 275
440 276
439 275
439 274
438 273
437 272
436 271
435 270
435 269
434 268
433 267
433 266
432 265
431 264
431 263
430 262
429 261
428 260
428 259
427 258
427 257
426 256
426 255
425 254
424 253
424 252
423 251
422 250
422 249
421 248
421 247
420 246
419 245
418 244
417 243
416 242
415 241
414 240
413 239
413 238
412 237
411 236
410 235
410 234
409 233
408 232
408 231
407 230
406 229
406 228
405 227
404 226
404 225
403 224
402 223
402 222
401 221
400 220
399 219
399 218
398 217
397 216
396 215
395 214
394 213
393 212
392 211
392 210
391 209
390 208
389 207
389 206
388 205
387 204
386 203
386 202
385 201
384 200
383 199
382 198
381 197
380 196
379 195
379 194
378 193
377 192
376 191
375 190
374 189
373 188
372 187
371 186
371 185
370 184
369 183
368 182
367 181
366 180
365 179
364 178
363 177
362 176
361 175
360 174
360 173
359 172
358 171
358 170
357 169
356 168
355 167
354 166
353 165
353 164
352 163
351 162
350 162
349 161
348 160
347 159
346 158
345 157
344 156
343 156
342 155
341 154
340 153
339 152
338 151
337 150
336 149
335 148
334 147
333 146
332 145
331 144
330 143
330 142
329 141
328 140
327 139
326 138
325 137
324 136
323 135
322 134
321 133
320 132
319 131
318 130
317 129
316 128
315 128
314 127
313 126
312 125
311 125
310 124
309 123
308 122
307 122
306 121
305 120
304 119
303 118
302 117
301 116
300 116
299 115
298 114
297 113
296 112
295 111
294 110
293 109
292 109
291 108
290 107
289 106
288 105
288 104
287 104
286 103
286 102
285 102
284 101
283 100
282 99
282 98
281 97
280 97
279 96
278 95
277 94
276 93
276 92
275 91
274 90
273 89
272 88
271 87
271 86
270 85
269 84
268 83
267 82
267 81
266 80
266 79
265 78
264 77
263 76
262 75
262 74
261 73
260 72
260 71
259 70
259 69
258 68
257 67
257 66
256 65
256 64
255 63
254 62
254 61
253 60
252 59
251 58
251 57
250 56
249 55
249 54
248 53
247 52
246 51
246 50
245 49
244 48
243 47
243 46
242 45
241 44
240 43
240 42
239 41
238 40
238 39
237 38
236 37
235 36
234 35
233 35
232 35
