85 279
85 280
85 281
85 282
85 283
85 284
85 285
85 286
85 287
85 288
86 288
87 289
88 289
89 290
89 291
90 291
91 291
92 291
93 291
94 291
95 292
96 292
97 293
98 294
99 295
100 295
101 295
102 295
103 295
104 295
105 295
106 294
107 294
108 293
109 293
110 293
111 294
112 294
113 295
113 296
114 296
115 296
116 296
117 296
118 296
119 296
120 296
121 296
122 296
123 295
124 295
125 295
126 295
127 295
128 295
129 295
130 296
131 296
132 297
133 297
134 297
135 297
136 297
137 297
138 297
139 297
140 297
141 297
142 297
143 297
144 297
145 297
146 297
147 297
148 298
149 298
150 299
151 300
152 301
153 302
153 303
154 304
154 305
155 306
155 307
156 308
157 309
157 310
158 311
158 312
159 313
159 314
159 315
159 316
159 317
159 318
160 318
161 318
162 319
163 319
164 320
165 320
166 321
166 322
167 323
168 323
169 324
170 324
171 325
172 325
173 326
173 327
174 328
174 329
175 330
175 331
175 332
175 333
175 334
175 335
176 336
177 336
178 337
179 337
180 337
181 337
182 337
183 337
184 337
185 337
186 337
187 337
188 337
189 337
190 337
191 337
192 337
193 338
194 338
195 339
195 340
196 341
196 342
195 343
195 344
195 345
195 346
194 347
194 348
194 349
194 350
194 351
194 352
194 353
195 353
196 354
197 354
198 355
199 355
200 355
201 356
202 356
203 357
204 357
205 358
205 359
206 360
207 360
208 360
209 361
210 361
211 362
212 362
213 363
213 364
214 365
214 366
215 367
215 368
215 369
215 370
215 371
215 372
216 373
217 373
218 374
219 374
220 374
221 374
222 375
223 375
224 375
225 375
226 375
227 375
228 375
229 376
230 376
231 377
232 377
233 378
233 379
234 379
235 379
236 379
237 379
238 379
239 379
240 380
241 380
242 381
243 381
244 382
244 383
245 384
245 385
246 386
246 387
246 388
246 389
247 390
248 390
249 390
250 390
251 390
252 391
253 391
254 391
255 391
256 391
257 391
258 391
259 392
260 392
261 392
262 392
263 392
264 392
265 392
266 392
267 392
268 392
269 392
270 393
271 393
272 394
273 395
274 396
275 396
276 396
277 396
278 396
279 396
280 396
281 396
282 396
283 397
284 397
285 398
285 399
286 400
286 401
287 402
287 403
288 404
288 405
289 405
290 405
291 405
292 405
293 405
294 405
295 405
296 405
297 405
298 405
299 405
300 405
301 405
302 405
303 405
304 405
305 406
306 406
307 407
308 407
309 407
310 407
311 407
312 407
313 407
314 407
315 407
316 408
317 408
318 408
319 408
320 409
321 409
322 410
323 410
324 411
325 411
326 412
326 413
327 414
327 415
328 416
329 416
330 416
331 416
332 416
333 416
334 416
335 416
336 416
337 416
338 416
339 417
340 417
341 417
342 417
343 417
344 417
345 417
346 417
347 417
348 417
349 417
350 417
351 418
352 418
353 418
354 418
355 418
356 418
357 418
358 418
359 418
360 417
361 417
362 418
363 419
364 419
365 419
366 419
367 419
368 419
369 419
370 419
371 418
372 418
373 417
374 417
375 417
376 417
377 418
378 418
379 419
379 420
380 421
381 422
382 422
383 423
384 423
385 423
386 423
387 423
388 423
389 423
390 423
391 423
392 423
393 423
394 423
395 423
396 423
397 423
398 423
399 423
400 423
401 423
402 422
403 422
404 421
405 421
406 421
407 421
408 421
409 421
410 421
411 421
412 421
413 421
414 421
415 421
416 422
417 422
418 422
419 422
420 422
421 422
422 422
423 422
424 422
425 422
426 422
427 421
428 421
429 420
430 420
431 420
432 420
433 420
434 420
435 420
436 420
437 420
438 420
439 419
440 419
441 419
442 419
443 418
444 418
445 417
446 417
447 416
448 416
449 416
450 416
451 416
452 416
453 416
454 416
455 416
456 416
457 415
458 415
459 415
460 415
461 415
462 415
463 414
464 414
465 414
466 414
467 414
468 414
469 414
470 413
471 413
472 413
473 413
474 412
475 412
476 412
477 411
478 411
479 411
480 411
481 412
482 412
483 412
484 412
485 412
486 412
487 412
488 412
489 412
490 412
491 412
492 412
493 412
494 413
495 414
496 414
497 414
498 414
499 414
500 414
501 414
502 414
503 414
504 413
505 413
506 412
507 412
508 411
509 411
510 410
511 410
512 409
513 409
514 408
515 408
516 408
517 408
518 408
519 408
520 408
521 408
522 408
523 408
524 408
525 408
526 408
527 408
528 408
529 408
530 407
531 407
532 406
533 406
534 405
535 405
536 404
537 404
538 403
539 403
540 402
541 402
542 401
543 401
544 401
545 401
546 400
547 400
548 400
549 400
550 400
551 400
552 400
553 400
554 400
555 400
556 400
557 400
558 401
559 401
560 401
561 401
562 401
563 401
564 401
565 400
566 399
567 398
568 398
569 397
570 396
571 396
572 395
573 395
574 394
575 394
576 394
577 394
578 393
579 392
580 391
580 390
581 389
582 388
583 387
583 386
584 385
585 384
586 383
587 382
588 382
589 381
590 381
591 380
592 380
593 380
594 380
595 380
596 380
597 380
598 380
599 380
600 380
601 380
602 380
603 379
604 379
605 379
606 378
607 378
608 377
609 377
610 376
611 376
612 375
613 374
614 373
615 373
616 372
617 372
618 371
618 370
619 369
619 368
620 367
621 366
622 366
623 365
624 365
625 364
626 364
626 363
627 362
628 361
628 360
629 359
629 358
630 357
630 356
631 355
632 354
632 353
633 352
634 351
635 350
636 349
636 348
637 347
638 346
639 345
640 344
641 343
641 342
642 341
643 340
644 339
645 338
646 337
646 336
647 335
648 334
648 333
649 332
649 331
649 330
649 329
650 328
650 327
650 326
651 325
651 324
652 323
652 322
653 321
654 320
655 319
656 319
657 318
658 318
659 317
660 317
661 317
662 317
663 317
664 318
665 318
666 318
667 318
668 319
669 319
670 319
671 319
672 320
673 320
674 320
675 320
676 321
677 321
678 321
679 322
680 322
681 322
682 322
683 322
684 322
685 322
686 322
687 322
688 322
689 323
690 323
691 323
692 323
693 323
694 323
695 323
696 323
697 324
698 324
699 324
700 324
701 324
702 324
703 324
704 324
705 324
706 324
707 324
708 324
709 324
710 325
711 325
712 325
713 325
714 325
715 326
716 326
717 326
718 327
719 327
720 327
721 327
722 327
723 327
724 327
725 327
726 327
727 327
728 327
728 326
728 325
728 324
728 323
728 322
728 321
728 320
728 319
728 318
728 317
727 316
726 315
725 315
724 314
723 314
722 314
721 314
720 314
719 314
718 314
717 314
716 314
715 314
714 314
713 314
712 314
711 314
710 314
709 314
708 314
707 314
706 314
705 314
704 314
703 314
702 314
701 314
700 314
699 314
698 314
697 315
696 315
695 315
694 315
693 315
692 315
691 314
690 314
689 314
688 314
687 314
686 314
685 313
684 313
683 313
682 313
681 313
680 312
679 312
678 312
677 311
676 311
675 311
674 311
673 311
672 311
671 310
670 310
669 310
668 309
667 309
666 309
665 308
664 308
663 307
662 307
661 306
660 305
659 304
659 303
658 302
658 301
657 300
657 299
657 298
657 297
657 296
657 295
657 294
657 293
657 292
657 291
657 290
657 289
657 288
657 287
656 286
656 285
656 284
656 283
656 282
655 281
655 280
655 279
654 278
654 277
653 276
653 275
653 274
652 273
652 272
651 271
651 270
650 269
650 268
650 267
649 266
649 265
649 264
648 263
648 262
648 261
648 260
647 259
647 258
647 257
647 256
647 255
646 254
646 253
646 252
646 251
646 250
645 249
645 248
644 247
643 246
642 246
641 245
641 244
640 243
640 242
639 241
639 240
639 239
639 238
639 237
638 236
637 235
636 235
635 234
635 233
634 232
634 231
633 230
633 229
632 228
632 227
632 226
631 225
631 224
630 223
629 222
628 222
627 221
626 220
626 219
625 218
625 217
624 216
624 215
623 215
622 214
621 214
620 213
619 213
618 212
617 211
616 210
615 210
614 209
613 209
612 208
611 207
610 206
609 205
608 204
607 203
606 203
605 203
604 203
603 203
602 203
601 203
600 204
599 204
598 205
597 205
596 205
595 204
594 204
593 203
592 203
591 202
591 201
590 200
590 199
589 198
588 198
587 198
586 198
585 198
584 198
583 199
582 200
581 200
580 200
579 199
578 199
577 198
577 197
576 196
575 196
574 196
573 196
572 195
571 195
570 194
569 194
568 193
567 192
567 191
566 190
565 190
564 189
563 189
562 188
561 188
560 187
559 187
558 186
557 186
556 185
555 185
554 184
553 183
552 182
551 181
550 181
549 180
548 180
547 179
547 178
546 177
546 176
545 175
545 174
544 174
543 174
542 174
541 174
540 174
539 174
538 175
537 176
536 176
535 177
534 176
533 176
532 175
531 175
530 174
529 173
529 172
528 171
528 170
527 170
526 169
525 169
524 168
523 168
522 167
522 166
521 165
520 165
519 165
518 164
517 164
516 163
515 163
514 162
514 161
513 160
513 159
512 158
511 158
510 157
509 157
508 156
507 156
506 155
505 154
504 153
503 153
502 152
501 152
500 151
499 151
498 150
497 150
496 149
495 149
494 148
493 147
492 146
491 145
490 145
489 145
488 145
487 145
486 145
485 145
485 146
484 147
483 148
482 148
481 148
480 147
479 147
478 146
477 146
476 145
475 145
474 144
473 144
472 143
471 142
470 141
469 141
468 141
467 141
466 141
465 141
464 141
463 142
462 143
461 143
460 143
459 142
458 141
457 141
456 141
455 141
454 141
453 141
452 141
451 140
450 140
449 139
448 138
447 138
446 138
445 138
444 137
443 137
442 136
441 136
440 136
439 135
438 135
437 134
436 134
435 134
434 134
433 134
432 133
431 133
430 133
429 132
428 132
427 131
426 131
425 130
424 130
423 130
422 130
421 130
420 130
419 130
418 130
418 131
417 132
417 133
416 134
415 134
414 135
413 135
412 136
411 136
410 136
409 135
408 135
407 134
406 134
405 134
404 134
403 134
402 134
401 134
400 134
399 135
399 136
398 137
397 137
396 138
395 137
394 137
393 136
392 136
391 136
390 136
389 136
388 136
387 136
386 136
385 136
384 136
383 136
382 136
381 136
380 136
379 136
378 136
377 136
376 136
375 136
374 136
373 136
372 137
371 137
370 138
369 139
368 140
367 140
366 141
365 141
364 141
363 141
362 141
361 141
360 140
359 140
358 140
357 140
356 140
355 140
354 140
353 140
352 140
351 140
350 140
349 140
348 140
347 140
346 140
345 140
344 140
343 140
342 140
342 141
341 142
340 143
339 144
338 144
337 144
336 144
335 144
334 144
333 144
332 144
331 144
330 144
329 144
328 144
327 145
326 145
325 145
324 145
323 145
322 145
321 145
320 144
319 144
318 143
317 143
316 143
315 143
314 143
313 143
313 144
312 145
312 146
311 147
310 148
310 149
309 150
308 151
307 152
306 152
305 152
304 152
303 152
302 152
301 151
300 151
299 150
298 150
297 150
296 150
295 150
294 150
293 150
292 150
291 150
290 150
289 150
288 150
287 151
286 151
285 152
284 152
283 152
282 152
281 152
280 152
279 152
278 152
277 152
276 152
275 152
274 152
273 152
272 153
272 154
271 155
270 155
269 156
269 157
268 158
268 159
267 160
266 160
265 161
264 161
263 162
262 162
261 163
260 163
259 164
258 164
257 165
257 166
256 167
255 167
254 168
253 168
252 169
251 169
250 169
249 169
248 170
247 169
246 169
245 169
244 169
243 169
242 169
241 169
240 169
240 170
239 171
239 172
238 173
237 174
236 175
236 176
235 177
234 177
233 178
232 178
231 179
230 179
229 179
228 179
227 179
226 179
225 179
224 179
223 180
223 181
222 182
221 182
220 183
219 183
218 184
217 184
216 184
215 184
214 184
213 185
212 185
211 186
210 186
209 187
208 187
207 187
206 187
205 187
204 187
203 188
203 189
203 190
203 191
203 192
202 193
202 194
201 195
201 196
200 197
199 197
198 198
197 199
196 200
196 201
195 202
194 202
193 203
192 203
191 204
190 205
189 205
188 206
187 206
186 207
185 207
184 207
183 207
183 208
183 209
183 210
183 211
182 212
182 213
181 214
181 215
180 216
179 216
178 217
178 218
177 219
177 220
176 221
175 221
174 222
173 222
172 223
171 223
170 223
169 223
168 223
167 223
166 224
165 224
165 225
165 226
165 227
164 228
164 229
163 230
163 231
162 232
161 233
161 234
160 235
160 236
159 237
158 237
157 238
156 238
155 239
154 239
153 239
152 240
152 241
152 242
152 243
151 244
151 245
150 246
149 247
148 247
147 248
146 248
145 248
144 248
143 248
142 248
141 248
140 248
139 248
138 248
137 248
136 248
135 248
135 249
134 250
134 251
133 252
133 253
132 254
131 254
130 255
129 255
128 256
127 257
126 258
125 258
124 259
123 259
122 260
121 260
120 260
119 260
118 261
118 262
117 263
116 263
115 264
114 264
113 265
112 265
111 265
110 265
109 265
108 265
107 266
106 266
105 267
104 267
103 267
102 267
101 267
100 267
99 268
99 269
98 270
97 270
96 271
95 271
94 272
93 272
92 272
91 272
90 272
89 273
89 274
88 275
87 276
86 277
86 278
85 279
