39 362
39 363
39 364
39 365
39 366
40 367
41 367
42 368
43 368
44 369
45 369
46 369
47 370
48 370
49 370
50 371
51 371
52 371
53 371
54 372
55 372
56 372
57 372
58 373
59 373
60 373
61 373
62 373
63 373
64 373
65 373
66 373
67 373
68 373
69 374
70 374
71 374
72 374
73 374
74 374
75 374
76 374
77 374
78 374
79 374
80 374
81 374
82 374
83 374
84 374
85 374
86 374
87 374
88 375
89 375
90 375
91 375
92 375
93 375
94 375
95 375
96 375
97 375
98 375
99 375
100 375
101 375
102 375
103 375
104 375
105 375
106 375
107 375
108 375
109 375
110 375
111 375
112 375
113 375
114 375
115 375
116 375
117 375
118 375
119 374
120 374
121 374
122 374
123 374
124 374
125 374
126 374
127 374
128 374
129 374
130 374
131 374
132 373
133 373
134 373
135 373
136 373
137 373
138 373
139 373
140 373
141 373
142 372
143 372
144 372
145 372
146 372
147 371
148 371
149 371
150 371
151 370
152 370
153 370
154 369
155 369
156 369
157 368
158 368
159 367
160 367
161 366
162 366
163 365
164 364
165 363
166 362
167 361
168 360
169 359
170 358
171 357
172 356
173 355
174 354
175 354
176 353
177 354
178 354
179 355
179 356
179 357
178 358
178 359
177 360
176 361
176 362
175 363
174 364
174 365
173 366
172 367
171 368
171 369
170 370
170 371
169 372
169 373
168 374
168 375
167 376
167 377
167 378
166 379
166 380
166 381
165 382
165 383
165 384
164 385
164 386
164 387
164 388
163 389
163 390
163 391
163 392
163 393
163 394
163 395
163 396
163 397
163 398
163 399
163 400
163 401
163 402
162 403
162 404
161 405
161 406
160 407
160 408
160 409
160 410
160 411
160 412
161 412
162 412
163 412
164 412
165 412
166 412
167 412
168 412
169 412
170 412
171 412
172 412
173 412
174 412
175 412
176 412
177 412
178 412
179 412
180 412
181 412
182 412
183 412
184 412
185 412
186 411
187 411
188 411
189 410
190 410
191 409
192 409
193 408
194 408
195 407
196 406
197 406
198 405
199 404
200 404
201 403
202 402
203 402
204 402
205 403
206 404
205 405
205 406
204 407
204 408
203 409
202 410
202 411
201 412
201 413
201 414
200 415
200 416
200 417
199 418
199 419
198 420
198 421
198 422
197 423
197 424
197 425
196 426
196 427
196 428
196 429
195 430
195 431
195 432
195 433
195 434
194 435
194 436
194 437
194 438
193 439
193 440
193 441
193 442
193 443
192 444
192 445
192 446
192 447
192 448
191 449
191 450
191 451
190 452
190 453
190 454
190 455
189 456
189 457
189 458
189 459
189 460
189 461
189 462
189 463
189 464
190 464
191 464
192 464
193 464
194 464
195 464
196 464
197 464
198 464
199 463
200 463
201 462
202 462
203 461
204 461
205 460
206 460
207 459
208 459
209 458
210 458
211 457
212 457
213 456
214 456
215 456
216 455
217 455
218 454
219 454
220 453
221 453
222 452
223 452
224 451
225 450
226 450
227 449
228 448
229 448
230 447
231 446
232 446
233 445
234 445
235 444
236 443
237 442
238 441
239 440
240 439
241 438
242 437
243 436
244 435
245 434
246 434
247 433
248 433
249 432
250 431
251 430
252 430
253 429
254 428
255 427
256 426
257 425
258 424
259 423
260 422
261 422
262 421
263 420
264 419
265 418
266 418
267 417
268 416
269 415
270 414
271 413
272 412
273 411
274 410
275 409
276 408
277 407
278 406
279 405
280 404
281 403
281 402
282 401
283 400
284 399
285 398
286 398
287 397
288 396
289 395
290 394
290 393
291 392
292 391
293 390
294 389
295 388
296 387
297 387
298 386
299 386
300 387
300 388
300 389
300 390
299 391
299 392
298 393
298 394
297 395
297 396
296 397
295 398
295 399
294 400
294 401
293 402
293 403
292 404
292 405
291 406
291 407
290 408
290 409
289 410
289 411
288 412
288 413
287 414
286 415
285 416
285 417
284 418
284 419
283 420
283 421
283 422
282 423
282 424
282 425
281 426
281 427
281 428
280 429
280 430
280 431
279 432
279 433
279 434
279 435
278 436
278 437
278 438
278 439
278 440
278 441
277 442
277 443
277 444
276 445
276 446
276 447
276 448
276 449
276 450
276 451
276 452
276 453
276 454
276 455
276 456
276 457
276 458
276 459
276 460
276 461
276 462
276 463
277 463
278 463
279 463
280 463
281 463
282 462
283 461
284 461
285 460
286 459
287 459
288 458
289 458
290 457
291 457
292 456
293 456
294 455
295 455
296 454
297 454
298 453
299 453
300 452
301 452
302 451
303 451
304 450
305 450
306 449
307 449
308 448
309 448
310 447
311 447
312 446
313 446
314 445
315 444
316 443
317 443
318 442
319 441
320 441
321 440
322 440
323 439
324 438
325 438
326 437
327 436
328 435
329 435
330 434
331 433
332 433
333 432
334 432
335 431
336 431
337 430
338 429
339 429
340 428
341 427
342 427
343 426
344 425
345 424
346 423
347 422
348 421
349 421
350 420
351 419
352 418
353 417
354 416
355 415
356 414
357 413
358 413
359 412
360 411
361 410
361 409
362 408
363 408
364 407
365 406
366 405
367 404
368 403
369 402
370 401
371 400
372 400
373 399
374 398
375 397
376 396
377 395
377 394
378 393
379 392
380 391
380 390
381 389
382 388
383 387
384 386
385 385
386 384
387 383
388 382
388 381
389 380
390 379
391 378
391 377
392 376
392 375
393 374
394 373
394 372
395 371
395 370
396 369
396 368
396 367
397 366
397 365
397 364
398 363
398 362
398 361
398 360
398 359
398 358
399 357
399 356
399 355
399 354
399 353
399 352
399 351
399 350
399 349
399 348
399 347
399 346
399 345
399 344
399 343
399 342
399 341
399 340
399 339
399 338
399 337
399 336
399 335
399 334
399 333
399 332
399 331
399 330
400 329
400 328
401 327
402 327
403 326
404 326
405 325
406 325
407 325
408 325
409 325
410 325
411 325
412 325
413 325
414 325
415 325
416 325
417 325
418 325
419 325
420 326
421 326
422 326
423 326
424 326
425 326
426 326
427 326
428 326
429 326
430 326
431 326
432 326
433 326
434 326
435 326
436 326
437 326
438 327
439 327
440 327
441 327
442 327
443 327
444 327
445 327
446 327
447 327
448 327
449 327
450 327
451 327
452 328
453 328
454 329
455 330
456 331
455 332
454 333
453 334
452 334
451 335
450 335
449 336
448 336
447 337
446 337
445 338
444 339
443 339
442 340
441 341
440 341
439 342
438 343
437 344
437 345
436 346
435 347
434 348
433 349
432 350
431 351
430 352
429 353
429 354
428 355
427 356
426 357
425 358
424 359
423 360
422 361
421 362
421 363
420 364
419 365
419 366
418 367
417 368
417 369
416 370
416 371
416 372
415 373
415 374
414 375
414 376
413 377
413 378
412 379
412 380
411 381
411 382
410 383
410 384
409 385
409 386
409 387
409 388
408 389
408 390
408 391
407 392
407 393
407 394
406 395
406 396
406 397
405 398
405 399
405 400
404 401
404 402
403 403
403 404
403 405
402 406
402 407
402 408
402 409
401 410
401 411
401 412
401 413
400 414
400 415
400 416
400 417
400 418
400 419
400 420
400 421
400 422
400 423
400 424
400 425
400 426
400 427
400 428
400 429
400 430
400 431
400 432
400 433
400 434
400 435
400 436
400 437
400 438
400 439
400 440
400 441
400 442
400 443
400 444
400 445
400 446
400 447
400 448
400 449
400 450
400 451
400 452
400 453
400 454
401 454
402 454
403 454
404 454
405 454
406 454
407 454
408 454
409 453
410 453
411 452
412 452
413 451
414 450
415 450
416 449
417 448
418 447
419 447
420 446
421 445
422 444
423 444
424 443
425 442
426 441
427 440
428 440
429 439
430 438
431 438
432 437
433 436
434 435
435 435
436 434
437 433
438 432
439 432
440 431
441 430
442 429
443 429
444 428
445 427
446 426
447 425
448 424
449 423
450 422
451 422
452 421
453 420
454 419
455 418
456 418
457 417
458 417
459 416
460 416
461 415
462 415
463 414
464 413
465 413
466 412
467 411
468 410
469 409
470 408
471 408
472 407
473 406
474 406
475 405
476 404
477 403
478 402
479 401
480 400
481 399
482 398
483 397
484 396
484 395
485 394
486 393
486 392
487 391
488 390
488 389
489 388
490 387
490 386
491 385
491 384
492 383
492 382
493 381
493 380
494 379
494 378
495 377
495 376
495 375
495 374
496 373
496 372
496 371
496 370
496 369
497 368
497 367
497 366
497 365
497 364
497 363
497 362
497 361
497 360
497 359
497 358
497 357
497 356
497 355
497 354
497 353
497 352
497 351
497 350
497 349
497 348
496 347
496 346
496 345
496 344
496 343
496 342
496 341
495 340
495 339
495 338
495 337
496 336
496 335
497 334
498 334
499 333
500 333
501 332
502 332
503 332
504 332
505 332
506 332
507 332
508 333
509 333
510 333
511 333
512 333
513 333
514 333
515 333
516 333
517 334
518 334
519 334
520 334
521 334
522 334
523 334
524 334
525 335
526 335
527 335
528 335
529 335
530 335
531 335
532 335
533 335
534 335
535 336
536 336
537 336
538 336
539 336
540 336
541 337
542 337
543 338
544 338
545 339
546 340
547 341
546 342
545 343
544 344
543 345
542 346
541 347
540 348
539 349
538 350
537 351
536 351
535 352
534 353
533 354
532 354
531 355
530 356
529 357
528 358
527 359
526 360
525 361
525 362
524 363
523 364
522 365
521 366
521 367
520 368
519 369
518 370
517 371
517 372
516 373
515 374
515 375
514 376
513 377
513 378
512 379
511 380
511 381
510 382
509 383
509 384
508 385
508 386
507 387
507 388
506 389
506 390
506 391
505 392
505 393
505 394
504 395
504 396
504 397
504 398
504 399
503 400
503 401
503 402
503 403
502 404
502 405
501 406
501 407
500 408
500 409
500 410
500 411
499 412
499 413
499 414
499 415
499 416
499 417
499 418
499 419
499 420
499 421
499 422
499 423
499 424
498 425
498 426
498 427
498 428
498 429
498 430
498 431
498 432
498 433
498 434
498 435
498 436
498 437
499 437
500 437
501 437
502 437
503 437
504 437
505 436
506 436
507 436
508 435
509 435
510 435
511 435
512 434
513 434
514 433
515 433
516 432
517 432
518 432
519 431
520 431
521 430
522 430
523 429
524 429
525 428
526 428
527 427
528 427
529 426
530 426
531 425
532 424
533 423
534 423
535 422
536 422
537 421
538 421
539 420
540 419
541 419
542 418
543 418
544 417
545 417
546 416
547 416
548 415
549 415
550 415
551 414
552 414
553 413
554 413
555 412
556 411
557 410
558 410
559 409
560 409
561 408
562 408
563 407
564 407
565 406
566 405
567 404
568 403
569 402
570 401
571 400
572 399
573 398
574 397
575 396
576 395
577 394
578 393
579 392
580 391
581 390
582 389
583 388
584 387
584 386
585 385
586 384
586 383
587 382
587 381
587 380
588 379
588 378
588 377
588 376
589 375
589 374
589 373
589 372
589 371
589 370
589 369
589 368
589 367
589 366
589 365
589 364
589 363
589 362
589 361
589 360
588 359
588 358
588 357
588 356
588 355
588 354
588 353
588 352
588 351
588 350
588 349
588 348
588 347
589 346
590 345
591 344
592 344
593 343
594 343
595 344
596 344
597 344
598 344
599 344
600 345
601 345
602 345
603 345
604 345
605 345
606 345
607 345
608 346
609 346
610 346
611 346
612 346
613 346
614 347
615 347
616 347
617 347
618 347
619 347
620 347
621 348
622 348
623 348
624 348
625 348
626 349
627 349
628 349
629 349
630 349
631 349
632 349
633 350
634 350
635 350
636 350
637 350
638 350
639 350
640 351
641 351
642 351
643 352
644 352
645 353
646 354
647 355
646 356
646 357
645 358
644 359
643 360
642 361
641 362
640 362
639 363
638 364
637 365
636 366
635 367
634 368
633 369
632 370
631 371
630 372
629 373
628 374
627 375
626 376
625 377
625 378
624 379
624 380
623 381
623 382
622 383
622 384
621 385
621 386
620 387
619 388
618 389
617 390
616 391
616 392
615 393
614 394
614 395
613 396
613 397
613 398
612 399
612 400
612 401
612 402
611 403
611 404
611 405
611 406
610 407
610 408
610 409
610 410
610 411
609 412
609 413
609 414
609 415
609 416
609 417
609 418
609 419
609 420
609 421
609 422
610 422
611 422
612 422
613 422
614 422
615 422
616 422
617 422
618 421
619 421
620 421
621 421
622 420
623 420
624 420
625 420
626 419
627 419
628 419
629 418
630 418
631 417
632 417
633 416
634 415
635 415
636 414
637 414
638 413
639 413
640 412
641 412
642 412
643 412
644 411
645 411
646 410
647 409
648 408
649 408
650 407
651 407
652 406
653 405
654 405
655 404
656 403
657 403
658 402
659 402
660 401
661 401
662 400
663 399
664 398
665 397
666 396
667 395
668 394
669 393
670 392
670 391
671 390
672 389
672 388
673 387
673 386
673 385
673 384
674 383
674 382
674 381
674 380
675 379
675 378
675 377
675 376
675 375
675 374
675 373
675 372
675 371
675 370
675 369
675 368
675 367
675 366
675 365
675 364
675 363
675 362
676 361
677 360
678 359
679 359
680 358
681 359
682 359
683 359
684 359
685 359
686 360
687 360
688 360
689 360
690 361
691 361
692 361
693 361
694 362
695 362
696 362
697 362
698 363
699 363
700 363
701 363
702 364
703 364
704 364
705 364
706 365
707 365
708 365
709 365
710 366
711 366
712 366
713 366
714 367
715 367
716 367
717 367
718 368
719 368
720 368
721 368
722 369
723 369
724 369
725 369
726 370
727 370
728 370
729 371
730 371
731 371
732 371
733 372
734 372
735 372
736 372
737 373
738 373
739 373
740 374
741 374
742 374
743 375
744 375
745 375
746 376
747 376
748 377
749 377
750 378
751 379
752 380
753 380
754 380
755 380
756 380
757 380
758 380
759 380
760 380
761 380
762 380
763 380
764 380
765 380
765 379
765 378
765 377
765 376
765 375
765 374
765 373
765 372
765 371
764 371
763 371
762 371
761 371
760 371
759 371
758 371
757 370
756 370
755 370
754 369
753 369
752 369
751 368
750 368
749 368
748 367
747 367
746 367
745 366
744 366
743 366
742 365
741 365
740 365
739 364
738 364
737 364
736 364
735 363
734 363
733 363
732 362
731 362
730 362
729 361
728 361
727 361
726 361
725 360
724 360
723 360
722 359
721 359
720 359
719 359
718 358
717 358
716 358
715 358
714 357
713 357
712 357
711 356
710 356
709 356
708 356
707 355
706 355
705 355
704 355
703 354
702 354
701 354
700 354
699 353
698 353
697 353
696 353
695 352
694 352
693 352
692 352
691 351
690 351
689 351
688 350
687 350
686 349
685 349
684 348
683 347
683 346
682 345
682 344
682 343
682 342
683 341
683 340
684 339
685 338
685 337
686 336
686 335
687 334
687 333
687 332
687 331
687 330
688 329
688 328
688 327
688 326
688 325
688 324
688 323
688 322
688 321
688 320
688 319
688 318
688 317
688 316
688 315
688 314
688 313
688 312
688 311
687 310
687 309
687 308
687 307
687 306
686 305
686 304
685 303
684 302
683 301
683 300
682 299
681 298
680 297
679 296
679 295
678 294
677 293
676 292
675 291
674 290
673 289
672 288
671 287
670 287
669 286
668 285
667 284
666 284
665 283
664 282
663 281
662 280
661 280
660 279
659 278
658 277
657 276
656 275
655 274
654 274
653 273
652 272
651 271
650 271
649 270
648 269
647 268
646 267
645 267
644 266
643 266
642 265
641 264
640 264
639 263
638 263
637 262
636 262
635 261
634 260
633 260
632 259
631 258
630 257
629 257
628 256
627 256
626 255
625 255
624 255
623 255
622 255
621 255
620 255
620 256
620 257
620 258
620 259
620 260
620 261
620 262
620 263
620 264
620 265
620 266
620 267
620 268
620 269
620 270
620 271
620 272
620 273
621 274
621 275
621 276
621 277
621 278
622 279
622 280
622 281
622 282
622 283
622 284
622 285
623 286
623 287
623 288
623 289
623 290
623 291
623 292
623 293
624 294
624 295
624 296
624 297
625 298
625 299
625 300
626 301
626 302
627 303
627 304
628 305
628 306
628 307
629 308
629 309
629 310
630 311
630 312
631 313
631 314
632 315
633 316
633 317
634 318
635 319
636 320
636 321
637 322
637 323
638 324
638 325
639 326
639 327
640 328
640 329
641 330
641 331
642 332
642 333
643 334
643 335
644 336
644 337
645 338
644 339
644 340
643 341
642 341
641 342
640 342
639 342
638 341
637 341
636 341
635 341
634 341
633 341
632 340
631 340
630 340
629 340
628 340
627 340
626 340
625 339
624 339
623 339
622 339
621 339
620 339
619 338
618 338
617 338
616 338
615 338
614 338
613 337
612 337
611 337
610 337
609 337
608 337
607 336
606 336
605 336
604 335
603 335
602 334
601 334
600 333
599 332
599 331
598 330
598 329
597 328
597 327
598 326
598 325
599 324
599 323
600 322
600 321
601 320
601 319
601 318
602 317
602 316
602 315
603 314
603 313
603 312
603 311
603 310
604 309
604 308
604 307
604 306
604 305
604 304
604 303
604 302
604 301
604 300
604 299
604 298
604 297
604 296
604 295
604 294
604 293
604 292
604 291
604 290
604 289
604 288
604 287
603 286
603 285
603 284
603 283
602 282
602 281
601 280
601 279
601 278
601 277
600 276
600 275
599 274
599 273
598 272
598 271
597 270
597 269
596 268
595 267
595 266
594 265
594 264
593 263
593 262
592 261
591 260
590 259
590 258
589 257
588 256
587 255
586 254
586 253
585 252
584 251
584 250
583 249
582 248
581 247
581 246
580 245
580 244
579 243
578 242
577 241
577 240
576 239
575 238
574 237
574 236
573 235
572 234
571 233
570 232
569 231
568 230
567 229
566 228
565 227
564 226
563 225
562 224
561 223
560 222
559 221
558 220
557 219
556 218
555 217
554 216
553 215
552 214
551 213
550 212
549 211
548 210
547 209
546 208
545 207
544 207
543 207
542 207
541 207
540 207
539 207
538 207
537 207
536 207
536 208
536 209
535 210
535 211
535 212
535 213
535 214
535 215
535 216
534 217
534 218
534 219
534 220
534 221
534 222
534 223
534 224
534 225
534 226
534 227
534 228
534 229
534 230
534 231
534 232
534 233
534 234
534 235
534 236
534 237
534 238
534 239
534 240
534 241
534 242
534 243
534 244
534 245
534 246
534 247
534 248
534 249
534 250
535 251
535 252
535 253
535 254
535 255
535 256
535 257
535 258
535 259
535 260
535 261
535 262
535 263
535 264
535 265
536 266
536 267
536 268
536 269
536 270
536 271
536 272
536 273
536 274
537 275
537 276
537 277
537 278
537 279
537 280
537 281
538 282
538 283
538 284
538 285
539 286
539 287
539 288
539 289
539 290
539 291
540 292
540 293
540 294
540 295
540 296
541 297
541 298
541 299
542 300
542 301
543 302
543 303
543 304
543 305
544 306
544 307
544 308
545 309
545 310
546 311
546 312
546 313
547 314
547 315
548 316
548 317
549 318
550 319
550 320
551 321
552 322
553 323
553 324
554 325
554 326
553 327
552 328
551 329
550 329
549 330
548 330
547 330
546 329
545 329
544 329
543 329
542 329
541 329
540 329
539 329
538 329
537 328
536 328
535 328
534 328
533 328
532 328
531 328
530 328
529 328
528 327
527 327
526 327
525 327
524 327
523 327
522 327
521 327
520 327
519 326
518 326
517 326
516 326
515 326
514 326
513 325
512 325
511 324
510 324
509 323
508 322
508 321
507 320
507 319
506 318
506 317
506 316
506 315
506 314
507 313
507 312
507 311
507 310
507 309
508 308
508 307
508 306
508 305
508 304
508 303
508 302
508 301
508 300
508 299
508 298
508 297
508 296
508 295
508 294
508 293
508 292
508 291
508 290
508 289
507 288
507 287
507 286
507 285
507 284
507 283
507 282
506 281
506 280
506 279
506 278
506 277
505 276
505 275
505 274
504 273
504 272
503 271
503 270
502 269
502 268
502 267
501 266
500 265
500 264
499 263
498 262
497 261
497 260
496 259
495 258
494 257
494 256
493 255
492 254
491 253
490 253
489 252
488 251
487 250
486 249
485 248
484 247
483 246
482 245
481 244
480 243
479 242
478 241
477 240
476 239
475 238
474 237
473 237
472 236
471 235
470 234
469 233
468 232
467 232
466 231
465 230
464 229
463 228
462 227
461 227
460 226
459 225
458 225
457 224
456 223
455 222
454 222
453 221
452 220
451 219
450 218
449 217
448 217
447 216
446 215
445 214
444 214
443 213
442 212
441 212
440 211
439 210
438 210
437 209
436 209
435 208
434 208
433 207
432 207
431 206
430 206
429 205
428 205
427 205
426 204
425 204
424 203
423 203
422 203
421 202
420 202
419 201
418 201
417 200
416 200
415 199
414 199
413 198
412 198
411 198
410 197
409 197
408 197
407 196
406 196
405 196
404 195
403 195
402 195
401 195
400 194
399 194
398 194
397 194
396 194
395 194
394 194
393 194
392 194
391 194
390 194
389 194
388 194
388 195
388 196
388 197
388 198
388 199
388 200
388 201
388 202
388 203
389 204
389 205
390 206
390 207
391 208
391 209
391 210
392 211
392 212
393 213
393 214
394 215
394 216
395 217
395 218
396 219
396 220
397 221
397 222
398 223
398 224
399 225
399 226
400 227
400 228
401 229
401 230
402 231
402 232
402 233
403 234
403 235
404 236
404 237
404 238
405 239
405 240
406 241
406 242
407 243
407 244
408 245
408 246
409 247
409 248
409 249
409 250
409 251
410 252
410 253
411 254
411 255
412 256
413 257
413 258
414 259
414 260
415 261
416 262
417 263
418 264
418 265
419 266
419 267
420 268
420 269
421 270
421 271
422 272
423 273
423 274
424 275
425 276
425 277
426 278
426 279
427 280
428 281
428 282
429 283
429 284
430 285
431 286
431 287
432 288
433 289
433 290
434 291
435 292
435 293
436 294
436 295
437 296
438 297
439 298
440 299
440 300
441 301
442 302
443 303
444 304
445 305
446 306
447 307
448 308
449 309
450 310
451 311
452 311
453 312
454 313
455 314
456 314
457 315
458 316
459 316
460 317
461 318
462 319
461 320
460 321
459 322
458 322
457 323
456 323
455 323
454 323
453 323
452 323
451 322
450 322
449 322
448 322
447 322
446 322
445 322
444 322
443 322
442 322
441 322
440 322
439 322
438 322
437 322
436 322
435 322
434 322
433 322
432 322
431 322
430 322
429 322
428 321
427 321
426 321
425 321
424 321
423 321
422 321
421 321
420 321
419 320
418 320
417 319
416 319
415 318
414 317
414 316
413 315
413 314
412 313
412 312
412 311
412 310
412 309
412 308
412 307
412 306
412 305
412 304
412 303
413 302
413 301
413 300
413 299
413 298
413 297
413 296
413 295
413 294
413 293
413 292
413 291
413 290
413 289
413 288
413 287
413 286
413 285
413 284
413 283
413 282
413 281
412 280
412 279
412 278
412 277
411 276
411 275
411 274
411 273
410 272
410 271
410 270
410 269
409 268
409 267
409 266
408 265
408 264
407 263
407 262
406 261
406 260
405 259
404 258
403 257
402 256
402 255
401 254
401 253
400 252
399 251
399 250
398 249
397 248
396 247
396 246
395 245
394 244
393 243
392 242
391 241
390 240
389 239
388 238
387 237
386 236
386 235
385 234
384 233
383 232
382 232
381 231
380 230
379 229
378 228
377 227
376 226
375 225
374 224
373 223
372 222
371 221
370 221
369 220
368 219
367 219
366 218
365 217
364 216
363 215
362 214
361 213
360 212
359 211
358 210
357 209
356 208
355 207
354 206
353 205
352 204
351 203
350 202
349 202
348 201
347 200
346 200
345 199
344 199
343 198
342 197
341 196
340 196
339 195
338 194
337 193
336 193
335 192
334 192
333 191
332 190
331 190
330 189
329 189
328 188
327 187
326 186
325 185
324 184
323 184
322 183
321 183
320 182
319 181
318 181
317 180
316 180
315 179
314 178
313 178
312 177
311 177
310 176
309 175
308 175
307 174
306 174
305 173
304 173
303 172
302 171
301 171
300 170
299 169
298 169
297 168
296 167
295 167
294 166
293 166
292 165
291 165
290 164
289 164
288 164
287 164
286 164
285 164
285 165
285 166
285 167
285 168
285 169
285 170
285 171
285 172
285 173
285 174
285 175
285 176
285 177
285 178
285 179
285 180
285 181
286 182
286 183
286 184
286 185
287 186
287 187
287 188
288 189
288 190
288 191
288 192
288 193
289 194
289 195
289 196
289 197
290 198
290 199
291 200
291 201
291 202
291 203
292 204
292 205
293 206
293 207
293 208
294 209
294 210
295 211
295 212
295 213
296 214
296 215
297 216
297 217
298 218
299 219
299 220
300 221
300 222
301 223
301 224
302 225
302 226
303 227
303 228
304 229
304 230
304 231
304 232
305 233
305 234
306 235
306 236
307 237
307 238
308 239
309 240
309 241
310 242
311 243
311 244
312 245
312 246
313 247
313 248
314 249
315 250
316 251
316 252
317 253
317 254
318 255
319 256
319 257
320 258
320 259
321 260
321 261
322 262
322 263
323 264
323 265
324 266
324 267
325 268
325 269
326 270
326 271
327 272
328 273
328 274
329 275
330 276
330 277
331 278
332 279
333 280
334 281
335 282
335 283
336 284
337 285
338 286
339 287
340 288
341 289
341 290
342 291
343 292
344 293
345 294
346 295
347 296
348 297
349 298
350 299
351 300
352 301
353 302
354 303
355 304
356 305
357 305
358 306
359 307
360 308
361 309
362 310
363 310
364 311
365 312
366 313
367 314
368 314
369 315
369 316
370 317
369 318
368 319
367 320
366 320
365 321
364 321
363 320
362 320
361 320
360 320
359 320
358 320
357 320
356 320
355 320
354 320
353 320
352 320
351 320
350 320
349 320
348 320
347 320
346 320
345 320
344 320
343 320
342 320
341 320
340 320
339 320
338 320
337 320
336 320
335 320
334 320
333 320
332 320
331 320
330 320
329 320
328 320
327 319
326 319
325 318
324 318
323 317
322 317
321 316
321 315
320 314
320 313
319 312
319 311
319 310
319 309
319 308
319 307
319 306
319 305
319 304
319 303
319 302
320 301
320 300
320 299
320 298
320 297
320 296
320 295
320 294
320 293
320 292
320 291
320 290
320 289
320 288
320 287
320 286
319 285
319 284
319 283
319 282
319 281
319 280
319 279
318 278
318 277
318 276
317 275
317 274
317 273
317 272
317 271
316 270
316 269
315 268
315 267
315 266
315 265
314 264
314 263
314 262
313 261
313 260
312 259
312 258
311 257
311 256
310 255
309 254
308 253
307 252
307 251
306 250
305 249
304 248
303 247
303 246
302 245
301 244
300 243
299 242
299 241
298 240
297 239
296 238
295 237
294 236
293 236
292 235
291 234
290 233
289 232
288 231
287 230
286 229
285 228
284 227
283 226
282 225
281 224
280 223
280 222
279 221
278 220
277 219
276 219
275 218
274 217
273 216
272 216
271 215
270 214
269 213
268 212
267 212
266 211
265 210
264 209
263 208
262 208
261 207
260 206
259 205
258 205
257 204
256 203
255 203
254 202
253 201
252 200
251 199
250 198
249 198
248 197
247 197
246 196
245 195
244 195
243 194
242 193
241 193
240 192
239 191
238 190
237 189
236 189
235 188
234 188
233 187
232 186
231 185
230 185
229 184
228 183
227 183
226 182
225 182
224 181
223 181
222 180
221 180
220 179
219 179
218 178
217 178
216 177
215 177
214 176
213 175
212 175
211 174
210 174
209 173
208 173
207 172
206 172
205 171
204 171
203 171
202 170
201 170
200 169
199 169
198 168
197 167
196 166
195 165
194 164
193 164
192 164
191 164
190 164
189 164
189 165
189 166
189 167
189 168
189 169
189 170
189 171
189 172
189 173
189 174
189 175
189 176
189 177
189 178
189 179
190 180
190 181
190 182
190 183
190 184
190 185
191 186
191 187
191 188
191 189
191 190
192 191
192 192
192 193
192 194
193 195
193 196
193 197
194 198
194 199
195 200
195 201
195 202
195 203
196 204
196 205
196 206
196 207
197 208
197 209
197 210
198 211
198 212
199 213
199 214
200 215
200 216
201 217
201 218
202 219
203 220
203 221
204 222
205 223
206 224
206 225
207 226
207 227
208 228
208 229
209 230
210 231
210 232
211 233
211 234
212 235
213 236
213 237
214 238
214 239
215 240
216 241
216 242
217 243
217 244
218 245
219 246
220 247
220 248
221 249
222 250
222 251
223 252
223 253
224 254
225 255
225 256
226 257
227 258
228 259
228 260
229 261
230 262
231 263
232 264
233 265
233 266
234 267
235 268
236 269
237 270
238 271
239 272
240 273
240 274
241 275
242 276
242 277
243 278
244 279
245 280
246 280
247 281
248 282
249 283
250 284
251 285
251 286
252 287
253 288
254 289
255 290
256 291
257 292
258 293
259 294
260 295
261 296
262 296
263 297
264 298
265 299
266 300
267 301
268 302
269 303
270 304
271 305
272 306
273 306
274 307
275 308
276 308
277 309
278 309
279 310
280 310
281 311
282 311
283 311
284 311
285 312
286 312
287 312
288 313
289 313
290 313
291 313
292 313
293 313
294 314
295 314
296 315
297 316
298 317
297 318
296 319
295 320
294 320
293 321
292 321
291 321
290 321
289 321
288 321
287 321
286 321
285 321
284 321
283 321
282 321
281 321
280 321
279 321
278 321
277 321
276 321
275 321
274 321
273 321
272 321
271 321
270 321
269 321
268 321
267 321
266 321
265 321
264 321
263 321
262 321
261 321
260 321
259 321
258 321
257 321
256 321
255 321
254 322
253 322
252 322
251 322
250 322
249 322
248 322
247 322
246 322
245 321
244 321
243 320
242 320
241 319
241 318
240 317
240 316
239 315
239 314
238 313
238 312
237 311
237 310
237 309
237 308
237 307
237 306
237 305
237 304
237 303
237 302
237 301
237 300
237 299
237 298
237 297
237 296
236 295
236 294
236 293
236 292
236 291
236 290
235 289
235 288
235 287
234 286
234 285
234 284
233 283
233 282
232 281
232 280
232 279
231 278
230 277
230 276
229 275
228 274
227 273
227 272
226 271
225 270
225 269
224 268
223 267
223 266
222 265
222 264
221 263
220 262
219 261
219 260
218 259
217 258
216 257
215 256
214 255
213 254
213 253
212 252
211 251
210 250
209 249
208 248
207 247
206 246
205 245
204 244
203 244
202 243
201 242
200 241
199 240
198 239
197 238
196 237
195 237
194 236
193 236
192 235
191 234
190 233
189 232
188 232
187 231
186 230
185 230
184 229
183 228
182 227
181 226
180 226
179 225
178 224
177 224
176 223
175 222
174 222
173 221
172 221
171 220
170 219
169 219
168 218
167 218
166 218
165 218
164 218
163 218
162 218
161 218
160 218
159 218
158 219
158 220
158 221
158 222
158 223
157 224
157 225
156 226
156 227
155 228
155 229
154 230
153 230
152 231
151 232
150 233
149 233
148 234
147 234
146 235
145 235
144 236
143 236
142 237
141 237
141 238
141 239
141 240
141 241
141 242
141 243
141 244
141 245
141 246
141 247
141 248
142 249
143 250
143 251
144 252
145 253
145 254
146 255
147 256
147 257
148 258
148 259
149 260
150 261
150 262
151 263
152 264
152 265
153 266
154 267
154 268
155 269
155 270
156 271
156 272
157 273
157 274
158 275
159 276
159 277
160 278
161 279
162 280
163 281
164 282
165 283
165 284
166 285
167 286
168 287
169 288
170 289
170 290
171 291
172 292
173 293
174 294
175 295
176 296
177 297
178 298
179 299
180 300
181 301
182 301
183 302
184 302
185 303
186 304
187 305
188 306
189 306
190 307
191 308
192 309
193 309
194 310
195 311
196 311
197 312
198 313
199 314
200 314
201 315
202 315
203 316
204 316
205 316
206 316
207 317
208 317
209 318
210 319
211 320
210 321
209 322
208 323
207 323
206 324
205 324
204 324
203 324
202 324
201 324
200 324
199 324
198 324
197 324
196 323
195 323
194 322
193 322
192 321
191 321
190 320
189 320
188 319
187 318
186 318
185 317
184 316
183 316
182 315
181 314
180 314
179 314
178 313
177 313
176 313
175 312
174 312
173 312
172 311
171 311
170 311
169 310
168 310
167 310
166 309
165 309
164 309
163 309
162 308
161 308
160 308
159 308
158 308
157 308
156 308
155 308
154 308
153 308
152 308
151 308
150 308
149 308
148 308
147 308
146 308
145 308
144 308
143 308
142 308
141 308
140 308
139 308
138 308
137 308
136 308
135 309
134 309
133 309
132 309
131 309
130 309
129 310
128 310
127 310
126 310
125 310
124 310
123 310
122 310
121 311
120 311
119 311
118 312
117 312
116 312
115 312
114 312
113 313
112 313
111 314
110 314
109 314
108 315
107 315
106 315
105 316
104 316
103 317
102 317
101 318
100 318
99 319
98 319
97 320
96 320
95 321
94 321
93 322
92 322
91 323
90 323
89 323
88 324
87 324
86 325
85 326
84 326
83 327
82 327
81 328
80 329
79 329
78 330
77 331
76 331
75 332
74 333
73 333
72 334
71 334
70 335
69 336
68 337
67 337
66 338
65 338
64 339
63 340
62 341
61 342
60 343
59 344
58 345
57 346
56 347
55 348
54 348
53 349
52 350
51 351
50 352
49 353
48 354
47 355
46 356
45 357
44 358
43 359
42 360
41 361
40 362
39 362
