55 296
55 297
55 298
55 299
55 300
55 301
55 302
56 302
57 302
58 302
59 302
60 302
61 302
62 302
63 302
64 301
65 301
66 300
67 300
68 299
69 299
70 299
71 299
72 299
73 299
74 299
75 299
76 300
77 300
78 300
79 300
80 301
81 301
82 301
83 302
84 302
85 303
86 303
87 303
88 303
89 304
90 304
91 304
92 305
93 305
94 306
95 306
96 306
97 306
98 307
99 307
100 308
101 308
102 309
103 309
104 309
105 309
106 309
107 309
108 309
109 309
110 310
111 310
112 310
113 310
114 310
115 310
116 310
117 311
118 311
119 311
120 311
121 311
122 312
123 312
124 312
125 313
126 313
127 313
128 313
129 314
130 314
131 315
132 315
133 316
133 317
134 318
134 319
135 319
136 319
137 319
138 319
139 319
140 319
141 319
142 319
143 319
144 319
145 319
146 319
147 319
148 320
149 320
150 320
151 321
152 321
153 322
154 322
155 323
156 324
157 325
158 325
159 326
160 326
161 327
162 327
163 328
164 328
165 329
166 329
167 329
168 329
169 330
170 330
171 331
172 331
173 332
174 332
175 332
176 332
177 332
178 333
179 333
180 333
181 333
182 334
183 334
184 335
185 335
186 336
187 337
188 338
189 339
190 339
191 339
192 339
193 339
194 340
195 340
196 340
197 340
198 340
199 340
200 340
201 340
202 340
203 340
204 340
205 341
206 341
207 342
208 342
209 343
210 343
211 344
211 345
212 346
212 347
213 348
214 348
215 348
216 348
217 348
218 348
219 348
220 348
221 348
222 348
223 348
224 348
225 348
226 348
227 349
228 349
229 350
230 350
231 351
232 352
232 353
233 353
234 353
235 353
236 353
237 353
238 353
239 353
240 353
241 354
242 354
243 355
244 355
245 356
245 357
246 358
246 359
247 360
247 361
247 362
248 362
249 362
250 362
251 362
252 362
253 363
254 363
255 364
256 364
257 365
258 365
259 365
260 365
261 365
262 366
263 366
264 367
265 367
266 368
266 369
267 370
267 371
268 372
269 372
270 372
271 372
272 372
273 372
274 372
275 372
276 372
277 372
278 372
279 372
280 373
281 373
282 373
283 373
284 373
285 373
286 374
287 374
288 375
289 375
290 376
291 377
291 378
292 379
292 380
293 381
293 382
294 382
295 382
296 382
297 382
298 382
299 382
300 382
301 382
302 382
303 382
304 383
305 383
306 384
307 384
308 385
308 386
309 387
309 388
310 389
310 390
311 391
312 391
313 391
314 391
315 391
316 391
317 392
318 392
319 393
320 393
321 393
322 393
323 394
324 394
325 394
326 394
327 394
328 394
329 394
330 394
331 395
332 395
333 396
334 396
335 397
336 397
337 397
338 397
339 397
340 397
341 397
342 398
343 398
344 398
345 398
346 398
347 398
348 398
349 398
350 398
351 398
352 398
353 398
354 398
355 398
356 398
357 399
358 399
359 400
360 400
361 400
362 400
363 400
364 400
365 400
366 400
367 400
368 400
369 400
370 400
371 400
372 400
373 400
374 400
375 400
376 400
377 400
378 400
379 400
380 401
381 401
382 402
383 402
384 402
385 402
386 402
387 402
388 402
389 402
390 402
391 402
392 402
393 402
394 402
395 402
396 402
397 402
398 402
399 403
400 403
401 404
402 404
403 404
404 404
405 404
406 404
407 404
408 404
409 404
410 404
411 404
412 404
413 404
414 404
415 404
416 403
417 403
418 403
419 403
420 403
421 404
422 404
423 405
424 405
425 405
426 405
427 405
428 405
429 405
430 405
431 405
432 405
433 405
434 405
435 405
436 404
437 404
438 404
439 404
440 404
441 404
442 404
443 403
444 403
445 403
446 403
447 403
448 403
449 403
450 403
451 403
452 403
453 403
454 403
455 403
456 403
457 402
458 402
459 402
460 402
461 401
462 401
463 401
464 400
465 400
466 399
467 399
468 399
469 398
470 398
471 398
472 398
473 398
474 398
475 398
476 398
477 398
478 398
479 398
480 398
481 398
482 398
483 398
484 397
485 397
486 396
487 396
488 396
489 396
490 396
491 396
492 396
493 396
494 396
495 396
496 396
497 396
498 396
499 396
500 395
501 395
502 394
503 394
504 394
505 394
506 394
507 394
508 394
509 394
510 394
511 393
512 393
513 392
514 391
515 391
516 390
517 389
518 388
519 387
520 387
521 386
522 386
523 385
524 385
525 384
526 384
527 383
528 383
529 383
530 383
531 383
532 383
533 382
534 381
535 380
536 379
537 378
538 377
539 377
540 376
541 376
542 375
543 375
544 374
545 374
546 374
547 373
548 372
549 371
550 371
551 370
552 370
553 369
554 369
555 368
556 368
557 368
558 368
559 368
560 368
561 368
562 368
563 368
564 367
565 367
566 366
567 365
568 364
569 363
570 363
571 362
572 361
573 360
574 359
575 359
576 358
577 358
578 357
579 357
580 356
581 356
582 355
583 354
584 353
584 352
585 351
586 350
586 349
587 348
587 347
588 346
589 346
590 345
591 345
592 344
593 343
594 342
595 341
596 340
597 340
598 339
599 339
600 338
601 338
602 337
603 337
604 337
605 336
606 335
607 334
607 333
608 332
608 331
609 330
610 329
610 328
611 327
612 326
612 325
613 324
614 323
614 322
615 321
615 320
616 319
617 318
618 317
619 316
620 316
621 315
622 315
623 314
624 314
624 313
624 312
624 311
624 310
625 309
625 308
625 307
625 306
625 305
625 304
625 303
625 302
625 301
625 300
625 299
625 298
625 297
625 296
625 295
626 294
626 293
627 292
627 291
628 290
629 290
630 289
631 289
632 288
633 287
633 286
633 285
633 284
633 283
633 282
633 281
634 280
634 279
634 278
634 277
634 276
634 275
635 274
635 273
635 272
635 271
635 270
635 269
635 268
635 267
635 266
635 265
635 264
635 263
635 262
635 261
636 260
636 259
636 258
636 257
636 256
636 255
636 254
636 253
636 252
636 251
636 250
637 249
637 248
637 247
638 246
638 245
638 244
639 243
639 242
640 241
640 240
641 239
641 238
642 237
643 236
643 235
644 234
644 233
645 232
645 231
646 230
647 230
648 229
649 229
650 228
651 228
652 227
653 227
654 227
655 227
656 227
657 227
658 226
659 226
660 225
661 225
662 225
663 225
664 225
665 225
666 224
667 224
668 224
669 224
670 224
671 223
672 223
673 223
674 223
675 223
676 222
677 222
678 222
679 221
680 221
681 221
682 221
683 221
684 221
685 220
686 220
687 220
688 220
689 220
690 220
691 219
692 219
693 219
694 218
695 218
696 218
697 218
698 218
699 217
700 217
701 217
702 216
703 216
704 216
705 215
706 215
707 214
708 213
709 213
710 212
711 211
711 210
712 209
712 208
712 207
712 206
712 205
712 204
712 203
712 202
712 201
712 200
712 199
711 199
710 199
709 199
708 199
707 199
706 199
705 199
704 200
703 201
702 201
701 202
700 202
699 203
698 203
697 204
696 204
695 205
694 205
693 205
692 206
691 206
690 206
689 207
688 207
687 208
686 208
685 208
684 208
683 208
682 209
681 209
680 209
679 209
678 210
677 210
676 210
675 210
674 210
673 210
672 210
671 211
670 211
669 211
668 211
667 211
666 211
665 212
664 212
663 212
662 212
661 212
660 213
659 213
658 213
657 213
656 213
655 213
654 213
653 214
652 214
651 214
650 214
649 215
648 215
647 215
646 215
645 215
644 215
643 216
642 216
641 216
640 216
639 216
638 217
637 217
636 217
635 217
634 217
633 218
632 218
631 218
630 218
629 217
628 217
627 216
626 216
625 215
624 215
623 214
622 213
621 212
620 211
619 210
618 209
617 209
616 208
615 207
614 207
613 206
612 205
611 205
610 204
609 204
608 203
607 203
606 202
605 202
604 201
603 201
602 200
601 199
600 199
599 198
598 198
597 197
596 197
595 196
594 196
593 195
592 195
591 194
590 194
589 193
588 193
587 193
586 192
585 192
584 192
583 192
582 191
581 191
580 191
579 191
578 191
577 191
576 191
575 191
574 191
573 191
572 191
571 191
570 191
569 192
568 192
567 192
566 192
565 192
564 192
563 192
562 192
561 192
560 191
559 191
558 191
557 190
556 190
555 190
554 189
553 189
552 189
551 189
550 188
549 188
548 188
547 188
546 188
545 187
544 187
543 187
542 187
541 187
540 187
539 187
538 186
537 186
536 186
535 186
534 186
533 185
532 185
531 185
530 185
529 185
528 185
527 185
526 185
525 185
524 185
523 184
522 184
521 184
520 183
519 183
518 182
517 182
516 181
515 181
514 180
513 180
512 179
511 179
510 179
509 179
508 178
507 178
506 177
505 177
504 176
503 176
502 175
501 174
500 173
499 173
498 172
497 171
496 171
495 170
494 170
493 170
492 169
491 169
490 169
489 169
488 169
487 169
486 169
485 169
484 169
483 169
482 169
481 169
480 169
479 169
478 169
477 170
476 170
475 171
474 171
473 171
472 170
471 170
470 169
469 169
468 168
467 168
466 168
465 168
464 167
463 167
462 166
461 166
460 165
459 165
458 165
457 165
456 165
455 165
454 165
453 165
452 165
451 165
450 165
449 166
449 167
448 168
447 168
446 169
445 169
444 169
443 168
442 168
441 167
440 167
439 167
438 167
437 167
436 167
435 167
434 167
433 167
432 167
431 167
430 168
430 169
429 170
428 171
427 171
426 172
425 172
424 173
423 173
422 173
421 173
420 173
419 173
418 173
417 173
416 173
415 173
414 173
413 173
412 173
411 173
410 173
409 174
408 174
407 174
406 174
405 174
404 174
403 174
402 174
401 174
400 174
399 174
398 174
397 174
396 174
395 174
394 175
393 175
392 176
391 176
390 177
389 177
388 177
387 177
386 177
385 177
384 177
383 177
382 177
381 177
380 177
379 177
378 177
377 177
377 178
377 179
376 180
376 181
375 182
375 183
374 184
373 184
372 185
371 185
370 186
369 186
368 186
367 186
366 186
365 186
364 186
363 186
362 186
361 186
360 186
359 186
358 186
357 186
356 186
355 186
354 186
353 187
352 187
351 187
350 187
350 188
350 189
349 190
349 191
348 192
348 193
347 194
346 194
345 195
344 195
343 196
342 196
341 196
340 196
339 196
338 196
337 196
336 196
335 196
334 196
333 196
332 196
331 196
330 196
329 196
328 196
327 196
326 196
325 197
324 197
323 197
322 198
321 198
320 199
319 199
318 200
317 200
316 200
315 200
314 200
313 200
312 200
311 200
310 200
309 200
308 200
307 200
306 200
305 200
304 200
303 201
303 202
302 203
302 204
301 205
300 205
299 206
298 206
297 207
296 207
295 207
294 207
293 207
292 208
291 208
290 209
289 209
288 210
287 210
286 210
285 210
284 210
283 210
282 210
281 211
280 211
279 211
278 211
277 212
277 213
276 214
276 215
275 216
275 217
274 218
273 218
272 219
271 220
270 221
269 221
268 222
267 222
266 223
265 223
264 223
263 223
262 223
261 223
260 223
260 224
260 225
260 226
259 227
259 228
258 229
258 230
257 231
256 231
255 232
254 232
253 233
252 233
251 234
250 234
249 235
248 235
247 236
246 236
245 236
244 236
243 236
242 236
241 236
240 236
239 236
239 237
238 238
238 239
237 240
237 241
236 242
235 242
234 243
233 243
232 244
231 244
230 244
229 244
228 244
227 244
226 244
225 245
225 246
224 247
224 248
223 249
222 249
221 250
220 250
219 251
218 251
217 251
216 251
215 251
214 251
214 252
213 253
213 254
212 255
212 256
211 257
210 257
209 258
208 258
207 259
206 259
205 259
204 259
203 259
202 259
201 259
200 260
200 261
199 262
198 262
197 263
196 263
195 264
194 264
193 264
192 264
191 264
190 264
189 264
188 265
187 265
186 266
185 266
184 266
183 266
182 266
181 266
181 267
180 268
180 269
179 270
178 270
177 271
176 271
175 272
174 272
173 272
172 272
171 272
170 273
169 273
168 274
167 274
166 274
165 274
164 274
163 274
162 274
161 275
160 276
160 277
159 278
158 278
157 279
156 279
155 280
154 280
153 280
152 280
151 281
150 281
149 282
148 282
147 282
146 283
145 283
144 284
143 284
142 284
141 284
140 284
139 284
138 285
137 286
136 287
135 287
134 288
133 288
132 289
131 289
130 290
129 290
128 290
127 290
126 291
125 291
124 291
123 291
122 291
121 292
120 292
119 292
118 292
117 292
116 292
115 292
114 293
113 292
112 292
111 292
110 292
109 292
108 292
107 292
106 292
105 292
104 292
103 292
102 292
101 292
100 292
99 293
98 293
97 293
96 293
95 293
94 292
93 292
92 292
91 292
90 292
89 291
88 291
87 291
86 291
85 291
84 291
83 291
82 291
81 291
80 291
79 291
78 291
77 291
76 291
75 291
74 291
73 291
72 291
71 291
70 291
69 291
68 291
67 292
66 292
65 292
64 292
63 292
62 292
61 292
60 293
59 293
58 293
57 294
56 295
55 296
