56 283
56 284
56 285
56 286
56 287
56 288
56 289
56 290
56 291
56 292
56 293
57 294
58 295
59 296
60 297
61 298
61 299
62 300
63 301
64 302
65 303
66 303
67 304
68 305
69 305
70 306
71 307
72 307
73 308
74 309
75 310
76 311
77 312
78 313
79 314
80 315
81 316
82 317
83 318
84 318
85 319
86 319
87 320
88 321
89 322
90 323
91 324
92 324
93 325
94 325
95 325
96 326
97 326
98 327
99 327
100 328
101 328
102 329
103 329
104 330
105 330
106 331
106 332
107 333
108 334
109 335
110 335
111 336
112 337
113 337
114 338
115 338
116 338
117 339
118 339
119 339
120 339
121 339
122 340
123 340
124 340
125 340
126 340
127 340
128 340
129 340
130 340
131 341
132 341
133 342
134 342
135 343
135 344
136 344
137 344
138 345
139 345
140 345
141 345
142 345
143 345
144 345
145 345
146 345
147 345
148 345
149 345
150 345
151 345
152 346
153 346
154 347
155 347
156 348
157 348
158 349
159 350
160 351
160 352
161 353
161 354
162 355
162 356
162 357
162 358
162 359
163 360
164 361
165 361
166 362
167 362
168 363
169 364
170 364
171 365
172 366
173 366
174 367
175 367
176 368
177 368
178 369
179 369
180 370
181 370
182 371
183 371
184 372
185 372
186 373
187 373
188 373
189 373
190 373
191 374
192 374
193 375
194 375
195 376
196 376
197 376
198 377
199 377
200 378
201 378
202 379
203 379
204 380
205 381
205 382
206 383
207 384
208 385
209 386
210 387
211 387
212 387
213 388
214 388
215 388
216 389
217 389
218 389
219 389
220 389
221 389
222 389
223 389
224 389
225 389
226 389
227 389
228 389
229 389
230 389
231 389
232 388
233 388
234 388
235 387
236 387
237 387
238 387
239 387
240 387
241 386
242 386
243 386
244 386
245 386
246 386
247 386
248 386
249 386
250 386
251 386
252 386
253 386
254 386
255 386
256 386
257 386
258 386
259 385
260 385
261 385
262 384
263 384
264 384
265 384
266 384
267 384
268 385
269 386
270 387
270 388
270 389
270 390
269 391
269 392
269 393
268 394
268 395
268 396
268 397
268 398
268 399
268 400
268 401
267 402
267 403
267 404
267 405
267 406
267 407
267 408
267 409
267 410
267 411
267 412
267 413
267 414
268 415
268 416
268 417
269 418
269 419
269 420
269 421
269 422
270 423
271 423
272 424
273 424
274 425
275 425
276 425
277 425
278 425
279 425
280 425
281 425
282 425
283 425
284 426
285 426
286 427
287 427
288 428
289 428
290 429
291 430
292 431
293 431
294 431
295 431
296 431
297 431
298 431
299 431
300 432
301 432
302 432
303 432
304 432
305 432
306 432
307 432
308 432
309 432
310 432
311 432
312 432
313 432
314 432
315 432
316 432
317 432
318 432
319 432
320 432
321 432
322 433
323 433
324 434
325 434
326 435
327 435
328 436
329 437
330 437
331 437
332 437
333 438
334 438
335 438
336 438
337 438
338 438
339 438
340 438
341 438
342 438
343 438
344 438
345 438
346 438
347 438
348 438
349 438
350 438
351 438
352 438
353 438
354 438
355 438
356 438
357 438
358 438
359 439
360 439
361 439
362 439
363 439
364 439
365 439
366 439
367 439
368 439
369 439
370 439
371 439
372 439
373 439
374 439
375 439
376 439
377 439
378 439
379 439
380 439
381 439
382 439
383 439
384 439
385 439
386 439
387 439
388 439
389 439
390 439
391 439
392 439
393 439
394 439
395 438
396 438
397 437
398 437
399 436
400 436
401 435
402 435
403 434
404 434
405 434
406 433
407 433
408 432
409 432
410 432
411 432
412 432
413 432
414 432
415 432
416 432
417 432
418 432
419 432
420 432
421 432
422 433
423 433
424 434
425 435
426 436
427 437
428 438
429 438
430 439
431 439
432 439
433 440
434 440
435 440
436 440
437 440
438 440
439 440
440 440
441 440
442 440
443 440
444 440
445 440
446 440
447 440
448 439
449 439
450 439
451 439
452 440
453 440
454 440
455 441
456 441
457 441
458 441
459 441
460 441
461 441
462 441
463 441
464 441
465 441
466 441
467 441
468 441
469 441
470 440
471 440
472 440
473 440
474 440
475 439
476 439
477 438
478 438
479 437
480 437
481 436
482 436
483 435
484 435
485 435
486 435
487 435
488 435
489 435
490 435
491 435
492 435
493 435
494 435
495 434
496 434
497 433
498 433
499 432
500 432
501 431
502 431
503 431
504 431
505 431
506 430
507 429
508 429
509 428
510 428
511 427
512 427
513 426
514 426
514 425
515 424
515 423
515 422
516 421
516 420
517 419
517 418
518 417
518 416
519 415
520 415
521 414
522 414
523 413
524 413
525 413
526 413
527 413
528 413
529 412
530 411
531 411
532 410
533 410
534 409
535 409
536 408
537 408
538 407
539 406
540 405
541 405
542 404
543 404
544 403
545 402
546 402
547 401
548 400
549 399
550 398
550 397
551 396
551 395
552 394
553 393
554 392
555 391
556 391
557 390
558 390
559 389
560 389
561 389
562 388
563 387
564 386
565 385
566 384
566 383
567 382
567 381
568 380
569 379
570 378
571 378
572 377
573 376
574 376
575 375
576 374
577 373
578 372
579 372
580 371
581 370
582 369
583 368
583 367
584 366
584 365
585 364
585 363
586 362
587 361
588 360
589 360
590 359
591 358
591 357
591 356
591 355
591 354
591 353
592 352
592 351
593 350
593 349
594 348
595 347
596 346
596 345
596 344
597 343
597 342
598 341
598 340
599 339
599 338
599 337
599 336
599 335
599 334
599 333
599 332
599 331
599 330
599 329
600 328
600 327
601 326
601 325
602 324
602 323
602 322
602 321
602 320
602 319
602 318
602 317
602 316
602 315
602 314
602 313
602 312
601 311
601 310
601 309
601 308
600 307
600 306
600 305
600 304
600 303
600 302
600 301
599 300
599 299
599 298
598 297
598 296
598 295
598 294
597 293
597 292
597 291
596 290
596 289
596 288
595 287
594 286
593 285
592 284
592 283
591 282
590 281
589 280
588 280
587 279
586 279
585 278
584 277
583 276
583 275
582 274
583 273
583 272
584 271
585 271
586 270
587 270
588 269
589 269
590 268
591 268
592 268
593 268
594 268
595 268
596 268
597 268
598 268
599 268
600 268
601 268
602 268
603 268
604 268
605 268
606 267
607 267
608 267
609 267
610 267
611 267
612 267
613 267
614 267
615 267
616 267
617 266
618 266
619 266
620 266
621 266
622 266
623 266
624 266
625 266
626 266
627 266
628 266
629 266
630 266
631 266
632 266
633 266
634 266
635 266
636 266
637 266
638 266
639 266
640 266
641 266
642 266
643 266
644 266
645 266
646 266
647 266
648 266
649 266
650 266
651 266
652 266
653 266
654 265
655 265
656 265
657 265
658 265
659 265
660 265
661 265
662 265
663 265
664 265
665 265
666 265
667 266
668 266
669 266
670 266
671 266
672 266
673 266
674 266
675 266
676 266
677 266
678 266
679 266
680 266
681 266
682 266
683 266
684 266
685 266
686 266
687 266
688 266
689 266
690 266
691 266
692 266
693 266
694 266
695 266
696 266
697 266
698 266
699 266
700 266
701 266
702 266
703 266
704 266
705 266
706 266
707 266
708 266
709 266
710 266
711 267
712 267
713 267
714 267
715 267
716 267
717 267
718 267
719 267
720 267
721 267
722 267
723 267
724 267
725 267
726 267
727 267
728 267
729 267
730 267
731 267
732 267
733 267
734 267
735 267
736 267
737 267
738 267
739 267
740 267
741 267
742 267
743 267
744 267
745 267
746 267
747 267
748 267
749 267
750 267
751 267
752 268
753 268
754 268
755 268
756 268
757 268
758 268
759 268
760 268
761 268
762 268
763 269
764 269
765 269
766 269
767 269
768 269
769 269
770 269
771 269
772 269
773 269
773 268
774 267
774 266
775 265
775 264
775 263
775 262
775 261
775 260
775 259
775 258
775 257
775 256
775 255
774 255
773 255
772 255
771 255
770 255
769 255
768 255
767 255
766 255
765 255
764 255
763 255
762 255
761 255
760 255
759 255
758 255
757 255
756 255
755 255
754 255
753 255
752 255
751 255
750 255
749 255
748 255
747 255
746 255
745 255
744 255
743 255
742 255
741 255
740 255
739 255
738 255
737 255
736 255
735 255
734 255
733 255
732 255
731 255
730 255
729 255
728 255
727 255
726 255
725 255
724 255
723 255
722 255
721 255
720 255
719 255
718 255
717 255
716 255
715 255
714 255
713 255
712 255
711 255
710 255
709 255
708 255
707 255
706 255
705 255
704 255
703 255
702 255
701 255
700 255
699 255
698 255
697 255
696 255
695 255
694 255
693 255
692 255
691 255
690 255
689 255
688 255
687 255
686 255
685 255
684 255
683 255
682 255
681 255
680 255
679 255
678 255
677 255
676 255
675 255
674 255
673 255
672 255
671 255
670 255
669 255
668 255
667 255
666 255
665 255
664 255
663 255
662 255
661 255
660 255
659 255
658 255
657 255
656 255
655 255
654 255
653 255
652 255
651 255
650 255
649 255
648 255
647 255
646 255
645 255
644 255
643 255
642 255
641 255
640 255
639 255
638 255
637 255
636 255
635 255
634 255
633 255
632 255
631 255
630 255
629 255
628 255
627 255
626 255
625 255
624 255
623 255
622 255
621 255
620 255
619 255
618 255
617 255
616 255
615 255
614 255
613 255
612 255
611 255
610 255
609 255
608 255
607 255
606 255
605 255
604 255
603 255
602 255
601 255
600 255
599 255
598 255
597 255
596 254
595 254
594 253
593 252
592 251
592 250
593 249
593 248
594 247
595 246
595 245
595 244
596 243
596 242
597 241
597 240
598 239
598 238
598 237
598 236
598 235
598 234
598 233
598 232
599 231
599 230
600 229
600 228
600 227
601 226
601 225
601 224
601 223
601 222
601 221
601 220
601 219
601 218
601 217
601 216
601 215
601 214
601 213
601 212
600 211
600 210
599 209
599 208
599 207
599 206
599 205
599 204
599 203
599 202
599 201
599 200
599 199
599 198
599 197
599 196
599 195
599 194
599 193
598 192
598 191
597 190
597 189
597 188
597 187
597 186
596 185
596 184
596 183
596 182
595 181
595 180
594 179
594 178
593 177
593 176
592 175
592 174
591 173
591 172
590 171
590 170
589 169
589 168
588 167
588 166
587 165
587 164
586 163
586 162
585 161
585 160
584 159
583 159
582 159
581 159
580 159
579 158
578 158
577 157
576 157
575 156
575 155
574 154
574 153
573 152
573 151
572 151
571 151
570 150
569 150
568 149
567 149
566 148
565 147
564 147
563 146
562 145
561 145
560 145
559 144
558 144
557 143
556 143
555 142
554 141
553 140
552 140
551 140
550 139
549 139
548 138
547 138
546 137
545 136
544 135
543 134
542 133
541 132
540 132
539 132
538 132
537 132
536 132
535 132
534 132
533 132
532 131
531 131
530 130
529 130
528 129
527 128
526 127
525 126
524 125
523 125
522 125
521 125
520 125
519 125
518 124
517 124
516 123
515 123
514 122
513 122
512 121
511 120
510 119
509 118
508 117
507 117
506 116
505 116
504 115
503 115
502 114
501 114
500 114
499 114
498 114
497 114
496 114
495 114
494 113
493 113
492 112
491 112
490 112
489 112
488 111
487 111
486 110
485 110
484 109
483 109
482 108
481 107
480 106
479 106
478 106
477 105
476 105
475 105
474 104
473 104
472 103
471 103
470 103
469 103
468 103
467 103
466 103
465 103
464 103
463 103
462 103
461 103
460 103
459 103
458 103
457 103
456 103
455 103
454 103
453 103
452 103
451 104
450 104
449 104
448 104
447 103
446 103
445 103
444 103
443 103
442 103
441 103
440 103
439 103
438 103
437 103
436 103
435 103
434 103
433 103
432 103
431 103
430 104
429 104
428 104
427 105
426 104
425 104
424 103
423 103
422 103
421 102
420 102
419 102
418 102
417 102
416 102
415 102
414 102
413 101
412 101
411 101
410 100
409 100
408 100
407 100
406 100
405 100
404 100
403 100
402 100
401 100
400 100
399 100
398 100
397 100
396 100
395 101
394 101
393 101
392 100
391 100
390 99
389 99
388 99
387 99
386 99
385 99
384 99
383 99
382 99
381 99
380 98
379 98
378 98
377 98
376 98
375 98
374 98
373 98
372 98
371 98
370 98
369 98
368 98
367 98
366 98
365 99
364 99
363 99
362 99
361 99
360 98
359 98
358 98
357 98
356 98
355 98
354 98
353 98
352 98
351 98
350 98
349 98
348 98
347 98
346 98
345 99
344 99
343 100
342 100
341 101
340 101
339 102
338 102
337 103
336 103
335 103
334 103
333 103
333 104
332 105
332 106
331 107
331 108
330 109
330 110
330 111
330 112
330 113
330 114
330 115
330 116
330 117
329 118
329 119
328 120
328 121
327 122
326 123
325 123
324 124
323 124
322 125
321 125
320 126
319 126
318 127
317 127
316 126
315 126
314 126
313 126
312 126
311 126
310 126
309 126
308 126
307 126
306 126
305 126
304 126
303 126
302 126
301 127
300 127
299 128
298 128
297 128
296 128
295 128
294 128
293 128
292 128
291 128
290 128
289 129
288 129
287 130
286 130
285 131
284 131
283 132
282 132
281 133
280 133
279 134
278 134
277 134
276 134
275 134
274 134
273 134
272 135
271 136
270 136
269 137
268 137
267 138
266 138
265 139
264 139
263 139
262 139
261 139
260 140
259 141
258 142
257 143
256 144
255 145
254 146
253 147
252 148
251 148
250 149
249 149
248 150
247 150
246 151
245 151
244 152
243 152
242 153
241 153
240 154
239 154
238 155
237 156
236 157
235 157
234 158
233 158
232 159
232 160
232 161
232 162
232 163
232 164
232 165
232 166
232 167
232 168
232 169
232 170
232 171
232 172
232 173
232 174
232 175
232 176
232 177
232 178
232 179
232 180
233 181
232 182
232 183
231 184
230 185
229 186
228 186
227 187
226 187
225 187
224 187
223 187
222 187
221 187
220 187
219 187
218 188
217 188
216 188
215 189
214 189
213 190
212 190
211 191
210 191
209 192
208 192
207 193
206 193
205 194
204 194
203 194
202 194
201 194
200 194
199 194
198 194
197 195
196 196
195 197
194 197
193 198
192 198
191 199
190 199
189 199
188 199
187 199
186 200
185 201
184 202
183 202
182 203
181 203
180 204
179 204
178 205
177 205
176 206
175 206
174 206
173 206
172 207
171 207
170 208
169 208
168 208
167 208
166 209
165 209
164 209
163 210
162 210
161 210
160 211
159 211
158 211
157 211
156 211
155 212
154 212
153 212
152 212
151 212
150 212
149 213
148 213
147 214
146 214
145 215
144 215
143 215
143 216
143 217
143 218
143 219
143 220
143 221
143 222
143 223
143 224
142 225
142 226
141 227
140 227
139 228
138 228
137 229
136 229
135 229
134 229
133 230
132 231
131 231
130 232
129 232
128 233
127 234
126 234
125 235
124 236
123 237
122 238
121 239
121 240
120 241
119 242
118 242
117 243
116 243
115 244
114 244
113 245
112 245
111 245
110 245
109 246
108 246
107 246
106 246
105 247
104 247
103 248
102 249
101 249
100 250
99 250
98 251
97 251
96 252
95 253
94 254
93 254
92 255
91 256
90 257
89 258
88 259
87 259
86 260
85 260
84 261
83 261
82 262
81 262
80 262
79 263
78 264
77 265
76 266
75 267
75 268
74 269
73 270
72 270
71 271
70 271
69 272
68 272
67 273
66 274
65 274
64 275
63 276
62 277
61 278
60 279
59 280
58 281
57 282
56 283
