140 32
139 33
138 33
137 33
136 33
135 33
134 33
133 33
132 33
131 33
130 33
129 33
128 33
127 33
126 33
125 34
124 34
123 34
122 34
121 34
120 34
119 35
118 35
117 35
116 36
115 36
114 36
113 36
112 36
111 37
110 37
109 37
108 38
107 38
106 38
105 37
104 37
103 37
102 37
101 38
100 38
99 38
98 39
97 39
97 40
97 41
98 42
98 43
98 44
99 45
99 46
99 47
100 48
100 49
100 50
100 51
101 52
101 53
101 54
101 55
102 56
102 57
102 58
103 59
103 60
103 61
104 62
104 63
105 64
105 65
106 66
106 67
107 68
108 69
108 70
109 71
109 72
110 73
111 74
112 75
113 76
114 77
114 78
115 79
116 80
117 81
118 82
119 83
120 84
121 85
122 86
123 87
124 88
125 89
126 90
127 91
128 92
129 93
130 94
131 95
132 95
133 96
133 97
134 97
135 98
136 99
137 100
138 101
139 101
140 102
141 102
142 103
143 104
144 105
145 106
146 107
147 107
148 108
149 109
150 109
151 110
152 111
153 112
154 112
155 112
156 113
157 114
158 115
159 115
160 116
161 117
162 118
163 118
164 119
165 119
166 120
167 121
168 122
169 122
170 123
171 123
172 124
173 125
174 125
175 125
176 126
177 127
178 127
179 127
180 128
181 128
182 129
183 130
184 130
185 131
186 131
187 132
188 133
189 133
190 134
191 134
192 135
193 135
194 135
195 136
196 136
197 136
198 136
199 136
200 137
200 138
201 138
202 139
203 139
204 139
205 140
206 140
207 140
208 141
209 142
210 143
211 143
212 143
213 144
214 144
215 144
216 145
217 145
218 146
219 146
220 146
221 147
222 147
223 148
224 148
225 148
226 148
227 149
228 149
229 149
230 150
231 150
232 150
233 151
234 151
235 152
236 152
237 152
238 152
239 153
240 153
241 154
242 154
243 154
244 154
245 155
246 155
247 156
248 156
249 156
250 157
251 157
252 157
253 158
254 158
255 158
256 159
257 159
258 160
259 160
260 161
261 161
262 161
263 161
264 161
265 162
266 162
267 162
268 163
269 164
270 164
271 164
272 164
273 164
274 165
275 165
276 166
277 166
278 166
279 166
280 167
281 167
282 168
283 168
284 168
285 169
286 169
287 169
288 169
289 170
290 170
291 170
292 171
293 171
294 171
295 172
296 172
297 173
298 173
299 173
300 174
301 174
302 174
303 175
304 175
305 175
306 176
307 176
308 176
309 176
310 177
311 177
312 177
313 178
314 178
315 178
316 179
317 179
318 180
319 180
320 180
321 180
322 181
323 181
324 181
325 181
326 181
327 182
328 182
329 182
330 182
331 183
332 184
333 184
334 184
335 184
336 185
337 185
338 186
339 186
340 186
341 186
342 187
343 187
344 187
345 188
346 188
347 188
348 188
349 188
350 189
351 189
352 189
353 189
354 190
355 190
356 190
357 190
358 191
359 191
360 191
361 191
362 191
363 191
364 191
365 191
366 192
367 192
368 192
369 193
370 193
371 193
372 193
373 193
374 193
375 194
376 194
377 194
378 194
379 194
380 195
381 195
382 195
383 195
384 195
385 196
386 196
387 196
388 196
389 196
390 197
391 197
392 197
393 197
394 197
395 197
396 198
397 198
398 198
399 198
400 198
401 198
402 198
403 198
404 199
405 199
406 199
407 200
408 200
409 199
410 200
411 200
412 200
413 200
414 200
415 200
416 200
417 201
418 201
419 201
420 201
421 201
422 201
423 202
424 202
425 202
426 202
427 202
428 202
429 202
430 202
431 202
432 202
433 202
434 203
435 203
436 203
437 203
438 203
439 203
440 203
441 203
442 203
443 203
444 203
445 203
446 204
447 204
448 204
449 204
450 204
451 205
452 204
453 204
454 204
455 204
456 205
457 205
458 205
459 205
460 205
461 205
462 205
463 205
464 205
465 205
466 206
467 206
468 206
469 206
470 206
471 206
472 206
473 206
474 206
475 206
476 206
477 206
478 206
479 206
480 206
481 206
482 206
483 206
484 206
485 206
486 207
487 207
488 206
489 207
490 207
491 207
492 206
493 207
494 207
495 207
496 206
497 206
498 206
499 207
500 206
501 206
502 206
503 207
504 206
505 207
506 206
507 206
508 206
509 206
510 206
511 206
512 206
513 206
514 206
515 206
516 206
517 205
518 205
519 205
520 205
521 205
522 205
523 205
524 205
525 205
526 205
527 205
528 205
529 205
530 205
531 205
532 205
533 204
534 204
535 204
536 204
537 204
538 204
539 204
540 204
541 204
542 204
543 203
544 204
545 204
546 203
547 203
548 203
549 203
550 203
551 203
552 203
553 203
554 203
555 202
556 202
557 202
558 202
559 202
560 202
561 202
562 202
563 202
564 202
565 202
566 202
567 202
568 202
569 201
570 201
571 201
572 201
573 201
574 200
575 200
576 200
577 200
578 200
579 200
580 200
581 200
582 200
583 200
584 199
585 199
586 199
587 199
588 199
589 199
590 199
591 198
592 198
593 198
594 198
595 197
596 197
597 197
598 197
599 197
600 196
601 196
602 196
603 196
604 196
605 196
606 196
607 196
608 195
609 195
610 195
611 195
612 194
613 194
614 194
615 194
616 194
617 193
618 193
619 193
620 193
621 192
622 192
623 192
624 192
625 192
626 192
627 192
628 191
629 191
630 191
631 191
632 191
633 191
634 190
635 189
636 190
637 189
638 189
639 188
640 187
641 187
642 186
643 186
644 185
645 185
646 184
647 184
648 184
649 183
650 182
651 182
652 182
653 181
654 181
655 180
656 179
657 179
658 179
659 178
660 178
661 178
662 177
663 177
664 178
665 177
666 177
667 177
668 177
669 177
670 177
671 177
672 177
673 177
674 177
675 177
676 177
677 177
678 178
679 178
680 179
681 179
682 179
683 180
684 180
685 180
686 180
687 180
688 181
689 181
690 181
691 182
692 182
693 182
694 182
695 182
696 182
697 183
697 184
698 184
699 184
700 184
701 184
702 185
703 185
704 186
705 186
706 186
707 186
708 187
709 187
710 187
711 187
712 187
713 186
714 186
715 185
715 184
715 183
715 182
715 181
716 180
716 179
715 178
715 177
714 176
714 175
713 174
712 173
712 172
711 172
710 171
709 170
708 170
707 170
706 170
705 170
704 170
703 170
702 170
701 170
700 170
699 170
698 170
697 170
696 170
695 169
694 169
693 170
692 169
691 168
690 168
689 168
688 168
687 168
686 168
685 168
684 167
683 167
682 167
681 167
680 166
679 166
678 166
677 166
676 166
675 166
674 166
673 166
672 166
671 166
670 166
669 166
668 166
667 165
666 165
665 165
664 165
663 165
662 165
661 165
660 164
659 164
658 164
657 164
656 164
655 163
654 162
653 162
652 161
651 160
650 160
649 159
648 159
647 158
647 157
646 157
645 157
644 157
643 156
642 156
641 155
640 155
639 154
638 154
637 153
636 153
635 152
634 152
633 151
632 151
631 151
630 150
629 150
628 150
627 149
626 149
625 149
624 149
623 148
622 148
621 147
620 147
619 146
618 146
617 146
616 145
615 145
614 145
613 144
612 144
611 144
610 144
609 143
608 143
607 142
606 142
605 142
604 142
603 141
602 141
601 140
600 140
599 140
598 140
597 139
596 139
595 138
594 138
593 138
592 138
591 138
590 137
589 137
588 137
587 136
586 136
585 136
584 136
583 135
582 135
581 135
580 135
579 135
578 134
577 134
576 133
575 133
574 133
573 132
572 132
571 131
570 131
569 131
568 130
567 130
566 129
565 129
564 129
563 128
562 128
561 127
560 127
559 127
558 126
557 126
556 125
555 125
554 125
553 125
552 124
551 124
550 123
549 123
548 123
547 123
546 122
545 122
544 121
543 121
542 121
541 121
540 120
539 120
538 119
537 119
536 118
535 118
534 118
533 117
532 117
531 117
530 116
529 116
528 116
527 115
526 115
525 114
524 114
523 114
522 113
521 113
520 113
519 113
518 112
517 112
516 112
515 111
514 111
513 111
512 111
511 110
510 109
509 109
508 109
507 109
506 108
505 108
504 107
503 107
502 107
501 107
500 106
499 106
498 106
497 106
496 105
495 105
494 104
493 104
492 104
491 104
490 103
489 103
488 103
487 102
486 102
485 102
484 101
483 101
482 101
481 100
480 100
479 99
478 100
477 99
476 99
475 99
474 98
474 97
473 97
472 97
471 97
470 97
469 96
468 96
467 95
466 95
465 95
464 95
463 95
462 94
461 94
460 94
459 93
458 93
457 93
456 92
455 92
454 92
453 92
452 92
451 92
450 92
449 91
448 91
447 90
446 90
445 90
444 89
443 89
442 89
441 88
440 88
439 88
438 88
437 87
436 88
435 87
434 87
433 87
432 86
431 86
430 87
429 86
428 86
427 86
426 86
425 85
424 85
423 85
422 85
421 85
420 85
419 84
418 84
417 84
416 83
415 83
414 83
413 83
412 82
411 82
410 81
409 81
408 81
407 81
406 80
405 80
404 80
403 80
402 79
401 79
400 79
399 79
398 79
397 78
396 78
395 78
394 78
393 78
392 77
391 77
390 77
389 77
388 76
387 76
386 76
385 75
384 75
383 75
382 74
381 74
380 74
379 74
378 73
377 73
376 72
375 72
374 72
373 72
372 71
371 71
370 70
369 70
368 70
367 70
366 69
365 69
364 68
363 68
362 68
361 67
360 67
359 67
358 67
357 66
356 66
355 65
354 66
353 65
352 65
351 65
350 65
349 64
348 64
347 64
346 63
345 62
344 63
343 63
342 62
341 61
340 61
339 61
338 61
337 60
336 60
335 60
334 60
333 60
332 59
331 59
330 59
329 58
328 58
327 58
326 58
325 57
324 57
323 57
322 57
321 57
320 57
319 57
318 56
317 56
316 56
315 56
314 55
313 55
312 54
311 54
310 54
309 54
308 54
307 53
306 53
305 53
304 53
303 53
302 52
301 52
300 52
299 52
298 51
297 51
296 50
295 51
294 50
293 50
292 50
291 50
290 50
289 49
288 49
287 48
286 48
285 49
284 48
283 48
282 47
281 47
280 47
279 47
278 47
277 47
276 46
275 46
274 46
273 46
272 46
271 46
270 45
269 45
268 44
267 44
266 45
265 44
264 44
263 44
262 43
261 43
260 43
259 43
258 43
257 43
256 43
255 42
254 43
253 42
252 42
251 42
250 42
249 41
248 42
247 41
246 41
245 41
244 41
243 41
242 40
241 40
240 40
239 40
238 40
237 40
236 40
235 40
234 40
233 39
232 39
231 39
230 38
229 38
228 38
227 38
226 38
225 38
224 37
223 38
222 38
221 38
220 38
219 38
218 37
217 37
216 37
215 37
214 37
213 37
212 36
211 36
210 36
209 36
208 36
207 36
206 36
205 36
204 36
203 35
202 35
201 36
200 35
199 35
198 35
197 36
196 36
195 35
194 35
193 35
192 35
191 35
190 35
189 35
188 35
187 35
186 34
185 34
184 34
183 34
182 33
181 34
180 33
179 33
178 33
177 33
176 33
175 33
174 33
173 33
172 33
171 33
170 33
169 33
168 32
167 32
166 32
165 32
164 32
163 32
162 32
161 32
160 32
159 32
158 32
157 32
156 32
155 32
154 32
153 32
152 32
151 32
150 32
149 32
148 32
147 32
146 32
145 32
144 32
143 32
142 32
141 32
140 32
