202 306
202 307
202 308
202 309
202 310
203 310
204 310
205 310
206 310
207 310
208 310
209 310
210 310
211 310
212 310
213 310
214 310
215 310
216 310
217 310
218 310
219 310
220 310
221 310
222 310
223 310
224 310
225 310
226 309
227 309
228 309
229 309
230 309
231 310
232 310
233 310
234 310
235 310
236 310
237 310
238 310
239 311
240 311
241 311
242 311
243 311
244 311
245 311
246 311
247 312
248 312
249 312
250 312
251 312
252 312
253 312
254 313
255 313
256 313
257 313
258 313
259 313
260 314
261 314
262 314
263 314
264 314
265 314
266 314
267 315
268 315
269 315
270 315
271 315
272 316
273 316
274 316
275 316
276 317
277 317
278 317
279 317
280 317
281 317
282 318
283 318
284 318
285 318
286 319
287 319
288 320
289 320
290 321
291 321
292 322
293 323
293 324
294 325
294 326
295 326
296 326
297 326
298 326
299 326
300 326
301 326
302 326
303 326
304 326
305 326
306 326
307 325
308 325
309 324
310 324
311 323
312 323
313 322
314 322
315 322
316 323
317 323
318 324
319 324
320 325
321 326
322 327
323 328
324 329
325 330
326 331
327 332
328 333
329 334
330 334
331 335
332 336
333 336
334 337
335 338
336 338
337 339
338 339
339 339
340 340
341 340
342 340
343 340
344 341
345 341
346 341
347 341
348 341
349 341
350 341
351 341
352 341
353 341
354 341
355 342
356 342
357 342
358 342
359 342
360 343
361 343
362 343
363 343
364 343
365 343
366 343
367 343
368 343
369 343
370 344
371 344
372 344
373 344
374 344
375 345
376 345
377 345
378 346
379 346
380 347
381 347
382 348
383 348
384 349
385 350
386 351
386 352
387 353
387 354
388 355
388 356
388 357
387 358
387 359
386 360
386 361
385 362
385 363
384 364
384 365
383 366
383 367
382 368
382 369
381 370
381 371
380 372
379 373
379 374
378 375
378 376
377 377
377 378
376 379
376 380
375 381
375 382
374 383
373 384
373 385
372 386
371 387
370 388
369 389
368 390
368 391
367 392
366 393
365 394
364 395
363 396
362 397
362 398
362 399
362 400
362 401
362 402
362 403
362 404
362 405
362 406
362 407
362 408
363 408
364 409
365 409
366 410
367 411
367 412
368 413
368 414
369 415
368 416
368 417
367 418
367 419
366 420
366 421
365 422
364 423
363 424
362 425
362 426
362 427
362 428
362 429
362 430
362 431
362 432
362 433
362 434
362 435
363 436
363 437
364 438
364 439
365 440
365 441
364 442
364 443
364 444
363 445
363 446
363 447
363 448
362 449
362 450
362 451
361 452
361 453
361 454
360 455
360 456
359 457
359 458
359 459
358 460
358 461
357 462
357 463
356 464
356 465
355 466
355 467
355 468
354 469
354 470
353 471
353 472
352 473
352 474
351 475
351 476
350 477
350 478
350 479
350 480
350 481
350 482
350 483
350 484
350 485
350 486
351 486
352 486
353 486
354 486
355 486
356 486
357 486
358 485
359 485
360 485
361 485
362 484
363 484
364 483
365 483
366 482
367 482
368 481
369 481
370 480
371 480
372 479
373 479
374 478
375 478
376 477
377 477
378 476
379 476
380 475
381 475
382 474
383 474
384 473
385 473
386 472
387 472
388 471
389 471
390 471
391 470
392 470
393 469
394 469
395 468
396 467
397 467
398 466
399 466
400 465
401 465
402 464
403 464
404 464
405 463
406 463
407 463
408 463
409 463
410 463
411 462
412 462
413 462
414 461
415 461
416 461
417 461
418 462
419 462
420 463
421 463
422 464
423 464
424 464
425 464
426 464
427 464
428 464
429 464
430 463
431 462
432 461
433 460
433 459
434 458
435 458
436 457
437 457
438 456
439 456
440 455
441 455
442 454
443 454
444 453
445 454
446 454
447 455
448 456
449 457
450 458
451 458
452 458
453 458
454 458
455 458
456 458
457 458
458 458
459 457
460 456
461 455
461 454
462 453
462 452
463 451
463 450
464 449
464 448
465 447
465 446
466 445
466 444
467 443
468 442
469 441
469 440
470 439
471 438
472 438
473 437
474 436
475 435
476 434
477 433
478 433
479 432
480 431
481 431
482 430
483 430
484 429
485 429
486 428
487 428
488 427
489 427
490 426
491 426
492 426
493 427
494 427
495 428
496 428
497 429
498 429
499 430
500 431
501 432
501 433
502 434
502 435
503 436
503 437
504 438
504 439
505 440
505 441
506 442
506 443
507 444
508 445
508 446
509 447
509 448
510 449
510 450
511 451
512 452
512 453
513 454
513 455
514 456
515 457
515 458
516 459
516 460
517 461
517 462
518 463
519 464
520 465
520 466
521 467
521 468
522 469
522 470
523 471
524 472
524 473
525 474
526 475
526 476
527 477
527 478
528 479
529 480
529 481
530 482
530 483
531 484
532 484
533 484
534 484
535 484
536 484
537 483
537 482
537 481
537 480
537 479
537 478
537 477
538 476
538 475
538 474
538 473
538 472
539 471
539 470
540 469
540 468
540 467
540 466
540 465
540 464
541 463
541 462
541 461
542 460
542 459
543 458
543 457
543 456
543 455
544 454
544 453
545 452
545 451
545 450
546 449
546 448
547 447
547 446
548 445
548 444
549 443
550 442
551 442
551 441
551 440
551 439
551 438
551 437
551 436
551 435
551 434
551 433
551 432
552 431
552 430
553 429
553 428
554 427
555 426
556 425
557 425
558 424
559 424
559 423
559 422
559 421
559 420
559 419
559 418
559 417
559 416
559 415
559 414
559 413
559 412
559 411
560 410
560 409
560 408
561 407
561 406
562 405
562 404
563 403
563 402
564 401
565 401
566 400
567 400
568 399
569 399
570 398
571 399
572 399
573 399
574 400
575 400
576 401
577 401
578 402
579 402
580 403
581 404
582 405
583 406
584 407
585 408
586 409
587 409
588 409
589 409
590 409
591 409
591 408
591 407
591 406
591 405
591 404
591 403
591 402
591 401
591 400
590 399
590 398
590 397
589 396
589 395
589 394
588 393
588 392
587 391
587 390
586 389
586 388
585 387
585 386
584 385
584 384
584 383
583 382
583 381
583 380
583 379
583 378
583 377
584 376
584 375
585 374
585 373
586 372
587 372
588 371
589 371
590 370
591 370
592 369
593 369
593 368
593 367
593 366
593 365
593 364
592 363
591 362
590 361
589 360
588 359
587 358
586 357
585 356
584 355
583 354
582 353
581 352
580 351
579 350
579 349
578 348
577 347
576 346
576 345
575 344
574 343
573 342
572 341
571 340
570 339
569 338
568 337
568 336
567 335
566 334
565 333
564 332
563 331
562 330
561 329
560 328
559 327
558 326
557 325
556 324
556 323
555 322
555 321
554 320
553 319
553 318
552 317
552 316
551 315
551 314
550 313
550 312
549 311
549 310
549 309
548 308
548 307
548 306
547 305
547 304
547 303
546 302
546 301
546 300
545 299
545 298
544 297
544 296
544 295
543 294
543 293
543 292
543 291
543 290
542 289
542 288
542 287
542 286
542 285
542 284
541 283
541 282
541 281
541 280
541 279
541 278
542 277
542 276
543 275
543 274
544 273
545 273
546 272
547 272
548 271
549 271
550 271
551 271
552 272
553 272
554 272
555 272
556 272
557 272
558 272
559 273
560 273
561 273
562 273
563 273
564 273
565 273
566 273
567 274
568 274
569 274
570 274
571 274
572 275
573 275
574 275
575 275
576 275
577 275
578 276
579 276
580 276
581 276
582 277
583 277
584 277
585 277
586 277
587 277
588 278
589 278
590 278
591 278
592 278
593 278
594 279
595 279
596 279
597 279
598 279
599 280
600 280
601 280
602 281
603 281
604 281
605 281
606 281
607 282
608 282
609 282
610 282
611 283
612 283
613 283
614 283
615 284
616 284
617 284
618 285
619 285
620 285
621 285
622 286
623 286
624 286
625 287
626 287
627 287
628 287
629 288
630 288
631 288
632 289
633 289
634 289
635 290
636 290
637 290
638 291
639 291
640 291
641 292
642 292
643 293
644 293
645 294
646 294
647 295
648 295
649 296
650 296
651 297
652 298
653 299
654 300
655 300
656 301
657 302
658 303
659 303
660 304
661 304
662 305
663 305
664 305
665 305
666 305
667 305
668 305
669 305
670 305
671 305
671 304
672 303
672 302
672 301
672 300
672 299
672 298
672 297
672 296
672 295
672 294
672 293
672 292
672 291
672 290
671 289
670 289
669 289
668 289
667 289
666 289
665 289
664 289
663 289
662 289
661 289
660 289
659 289
658 289
657 288
656 288
655 288
654 288
653 288
652 287
651 287
650 287
649 287
648 286
647 286
646 286
645 286
644 285
643 285
642 285
641 285
640 284
639 284
638 284
637 283
636 283
635 283
634 283
633 282
632 282
631 282
630 282
629 281
628 281
627 281
626 281
625 280
624 280
623 280
622 280
621 279
620 279
619 279
618 279
617 279
616 278
615 278
614 278
613 278
612 277
611 277
610 277
609 277
608 277
607 276
606 276
605 276
604 276
603 276
602 275
601 275
600 275
599 275
598 275
597 274
596 274
595 274
594 274
593 274
592 274
591 273
590 273
589 273
588 273
587 273
586 272
585 272
584 272
583 272
582 272
581 271
580 271
579 271
578 271
577 271
576 271
575 271
574 270
573 270
572 270
571 270
570 270
569 270
568 270
567 269
566 269
565 269
564 269
563 269
562 269
561 269
560 268
559 268
558 268
557 268
556 268
555 267
554 267
553 267
552 267
551 267
550 266
549 266
548 266
547 265
546 265
545 264
544 264
543 263
542 263
541 262
540 261
540 260
539 259
539 258
538 257
539 256
539 255
539 254
539 253
539 252
539 251
540 250
540 249
540 248
540 247
540 246
541 245
541 244
541 243
542 242
542 241
542 240
543 239
543 238
543 237
544 236
544 235
545 234
545 233
546 232
546 231
547 230
547 229
548 228
548 227
549 226
549 225
550 224
550 223
551 222
552 221
552 220
553 219
553 218
554 217
554 216
555 215
556 214
557 213
558 212
558 211
559 210
560 209
560 208
561 207
561 206
562 205
562 204
563 203
563 202
564 201
565 200
565 199
566 198
567 197
568 196
569 195
569 194
570 193
570 192
571 191
571 190
571 189
572 188
572 187
573 186
573 185
574 184
574 183
575 182
575 181
576 180
576 179
577 178
578 177
578 176
578 175
578 174
578 173
578 172
578 171
578 170
578 169
578 168
578 167
578 166
578 165
578 164
577 163
577 162
576 161
577 160
577 159
578 158
578 157
578 156
578 155
578 154
579 153
579 152
579 151
579 150
579 149
580 148
580 147
580 146
580 145
580 144
580 143
580 142
580 141
580 140
580 139
580 138
580 137
580 136
580 135
580 134
579 134
578 134
577 134
576 134
575 134
574 134
573 135
572 136
571 137
570 138
569 139
568 140
567 141
566 141
565 142
564 143
563 143
562 144
561 145
560 145
559 146
558 146
557 147
556 147
555 146
554 146
553 145
552 144
551 143
550 142
550 141
549 140
549 139
548 138
548 137
547 136
547 135
547 134
546 133
546 132
546 131
546 130
546 129
546 128
547 127
547 126
547 125
547 124
547 123
547 122
547 121
547 120
547 119
547 118
547 117
547 116
547 115
547 114
547 113
547 112
546 112
545 112
544 112
543 112
542 112
541 112
540 112
539 111
538 110
537 109
537 108
536 107
535 106
535 105
534 104
534 103
533 102
533 101
532 100
532 99
531 98
531 97
530 96
530 95
529 94
529 93
528 92
528 91
528 90
527 89
527 88
526 88
525 87
524 87
523 86
522 85
521 84
521 83
521 82
521 81
521 80
521 79
521 78
521 77
521 76
521 75
521 74
521 73
521 72
521 71
521 70
521 69
520 68
520 67
520 66
520 65
519 64
519 63
519 62
518 61
517 61
516 61
515 61
514 61
513 62
513 63
512 64
512 65
511 66
511 67
510 68
510 69
509 70
509 71
508 72
508 73
507 74
507 75
506 76
506 77
505 78
505 79
504 80
503 81
503 82
502 83
501 84
501 85
500 86
500 87
499 88
499 89
498 90
498 91
497 92
497 93
496 94
496 95
495 96
495 97
494 98
494 99
493 100
493 101
492 102
492 103
491 104
491 105
490 106
490 107
489 108
489 109
489 110
488 111
488 112
487 113
487 114
486 115
486 116
485 117
484 118
483 119
482 119
481 119
480 119
479 118
478 118
477 117
477 116
476 115
476 114
475 113
474 112
474 111
473 110
473 109
472 108
472 107
471 106
471 105
470 104
469 103
468 103
467 103
466 103
465 103
464 103
463 103
462 104
462 105
461 106
460 107
459 108
458 108
457 108
456 108
455 107
454 107
453 106
452 105
451 105
450 104
449 103
448 103
447 102
446 101
445 100
444 100
443 99
442 98
441 97
440 96
440 95
439 94
439 93
438 92
438 91
437 90
436 89
436 88
435 87
434 86
433 85
432 84
431 84
430 84
429 84
428 84
427 84
426 84
425 85
425 86
424 87
423 88
422 89
421 89
420 90
419 89
418 89
417 89
416 88
415 88
414 87
413 87
412 87
411 86
410 86
409 86
408 85
407 85
406 84
405 84
404 83
403 83
402 82
401 82
400 81
399 80
398 79
398 78
397 77
396 76
395 75
394 74
393 74
392 74
391 74
390 74
389 74
388 74
387 74
386 75
385 76
384 77
383 77
382 78
381 78
380 78
379 78
378 78
377 77
376 77
375 77
374 77
373 76
372 76
371 76
370 76
369 76
368 76
367 76
366 75
365 75
364 74
363 74
362 73
361 72
360 71
359 70
358 69
357 68
356 67
355 66
354 66
353 65
352 64
351 63
350 62
349 61
348 60
347 59
346 58
345 58
344 58
343 58
342 58
341 58
341 59
341 60
341 61
341 62
341 63
341 64
341 65
341 66
341 67
341 68
341 69
342 70
342 71
342 72
342 73
342 74
343 75
343 76
344 77
344 78
344 79
345 80
345 81
345 82
346 83
346 84
346 85
347 86
347 87
347 88
348 89
348 90
348 91
349 92
349 93
349 94
350 95
350 96
350 97
351 98
351 99
351 100
352 101
352 102
352 103
353 104
353 105
353 106
353 107
354 108
354 109
354 110
355 111
355 112
355 113
355 114
356 115
356 116
356 117
355 118
355 119
354 120
354 121
353 122
352 122
352 123
352 124
352 125
352 126
352 127
352 128
352 129
352 130
352 131
353 132
354 132
355 133
356 134
357 135
358 135
359 136
360 137
361 137
362 138
363 139
364 139
365 140
366 140
367 141
368 142
369 143
369 144
370 145
370 146
371 147
371 148
371 149
371 150
371 151
371 152
371 153
371 154
371 155
372 156
372 157
372 158
372 159
372 160
372 161
372 162
372 163
372 164
373 165
373 166
373 167
374 168
374 169
375 170
375 171
375 172
376 173
377 174
377 175
378 176
378 177
379 178
379 179
380 180
380 181
381 182
381 183
382 184
382 185
383 186
382 187
382 188
381 189
380 189
379 190
378 190
377 191
376 191
375 192
374 192
373 192
372 192
371 192
370 192
369 192
368 192
367 192
366 192
365 192
364 192
363 192
362 192
361 192
360 191
359 191
358 191
357 191
356 191
355 191
354 191
353 191
352 191
351 190
350 190
349 190
348 190
347 189
346 189
345 189
344 189
343 189
342 189
341 189
340 188
339 188
338 188
337 188
336 187
335 187
334 187
333 187
332 187
331 187
330 187
329 187
328 187
327 187
326 187
325 187
324 187
323 187
322 187
321 187
320 187
319 187
318 187
318 188
318 189
318 190
318 191
318 192
318 193
318 194
318 195
319 196
319 197
320 198
320 199
320 200
319 201
319 202
318 203
317 204
316 204
315 205
314 205
313 206
312 207
311 208
310 209
309 210
308 211
307 212
306 213
305 213
304 214
303 215
302 216
301 217
300 217
299 218
298 218
297 219
296 219
295 220
294 220
293 221
292 221
291 221
290 222
289 222
288 222
287 222
286 222
285 222
285 223
285 224
285 225
285 226
285 227
285 228
284 229
284 230
283 231
283 232
282 233
281 233
280 234
279 234
278 235
277 235
276 236
275 236
274 237
273 237
272 237
271 238
270 238
269 238
269 239
269 240
269 241
269 242
269 243
269 244
269 245
269 246
268 247
268 248
267 249
267 250
266 251
265 252
264 253
263 254
262 255
261 256
260 257
260 258
259 259
258 260
257 261
256 261
255 262
254 262
253 263
252 263
251 264
250 264
249 265
248 265
248 266
248 267
248 268
247 269
247 270
246 271
246 272
245 273
245 274
244 275
243 276
242 277
242 278
241 279
240 280
239 281
238 281
237 282
236 283
235 283
234 284
233 285
232 285
231 286
230 287
229 288
228 288
227 289
226 290
225 291
224 291
223 292
222 293
221 293
220 294
219 295
218 295
217 296
216 296
215 297
214 298
213 299
212 299
211 300
210 301
209 301
208 302
207 302
206 303
205 303
204 304
203 305
202 306
