363 43
363 44
363 45
363 46
362 47
362 48
362 49
362 50
362 51
361 52
361 53
361 54
361 55
360 56
360 57
359 58
359 59
359 60
358 61
358 62
358 63
358 64
357 65
357 66
357 67
356 68
356 69
356 70
355 71
354 71
354 72
355 73
354 74
354 75
354 76
354 77
353 78
352 79
352 80
352 81
352 82
352 83
351 84
351 85
351 86
350 87
350 88
349 89
348 89
347 90
348 91
347 92
347 93
347 94
347 95
347 96
347 97
347 98
346 99
346 100
346 101
345 102
345 103
344 104
343 104
342 105
342 106
342 107
342 108
342 109
342 110
342 111
342 112
341 113
341 114
341 115
340 116
339 116
339 117
339 118
339 119
338 120
338 121
338 122
338 123
338 124
338 125
338 126
337 127
337 128
337 129
336 130
335 130
335 131
335 132
334 133
334 134
334 135
334 136
334 137
333 138
333 139
333 140
333 141
332 142
332 143
331 144
330 145
330 146
330 147
330 148
330 149
331 150
331 151
331 152
331 153
331 154
331 155
331 156
331 157
331 158
331 159
330 160
329 161
328 161
328 162
328 163
328 164
328 165
328 166
327 167
327 168
327 169
327 170
327 171
327 172
327 173
327 174
326 175
325 175
325 176
325 177
325 178
325 179
326 180
326 181
326 182
326 183
326 184
326 185
326 186
326 187
326 188
326 189
325 190
325 191
325 192
326 193
326 194
326 195
326 196
326 197
326 198
326 199
325 200
325 201
325 202
326 203
326 204
326 205
327 206
327 207
327 208
327 209
327 210
327 211
328 212
328 213
328 214
329 215
329 216
329 217
329 218
328 219
328 220
329 221
330 222
330 223
331 224
331 225
332 226
332 227
333 228
333 229
334 230
334 231
333 232
334 233
334 234
335 235
336 236
336 237
337 238
337 239
338 240
338 241
339 242
340 243
340 244
341 245
342 246
343 247
344 248
344 249
345 250
346 251
347 252
348 253
349 254
350 255
351 256
352 257
353 258
354 259
354 260
355 261
356 262
356 263
356 264
355 265
354 265
353 265
352 265
351 265
350 265
349 265
348 264
347 264
346 264
345 264
344 264
343 263
342 263
341 263
340 263
339 262
338 262
337 262
336 262
335 262
334 261
333 261
332 261
331 261
330 261
329 261
328 261
327 261
326 260
325 260
324 260
323 260
322 260
321 260
320 259
319 259
318 259
317 259
316 259
315 259
314 259
313 258
312 259
311 258
310 258
309 258
308 258
307 258
306 258
305 258
304 258
303 257
302 257
301 257
300 257
299 257
298 257
297 257
296 257
295 257
294 257
293 257
292 257
291 257
290 257
289 257
288 256
287 256
286 256
285 256
284 256
283 256
282 256
281 256
280 256
279 256
278 256
277 256
276 256
275 256
274 256
273 256
272 256
271 256
270 256
269 256
268 255
267 255
266 254
266 253
266 252
266 251
266 250
267 249
267 248
268 247
268 246
269 245
269 244
269 243
270 242
270 241
271 240
271 239
272 238
272 237
273 236
273 235
274 234
275 233
276 232
277 231
278 230
279 229
279 228
280 227
281 226
282 226
283 225
284 224
285 223
286 222
287 221
288 220
289 219
290 218
291 217
292 216
293 215
293 214
294 213
295 212
295 211
296 210
297 209
297 208
298 207
298 206
299 205
299 204
300 203
301 202
302 201
303 200
303 199
304 198
304 197
305 196
305 195
305 194
306 193
306 192
307 191
307 190
308 189
308 188
309 187
309 186
310 185
310 184
310 183
309 182
309 181
308 180
308 179
307 178
306 177
306 176
305 175
305 174
305 173
305 172
305 171
306 170
307 169
308 169
309 169
310 168
311 167
312 167
313 167
314 166
315 165
315 164
315 163
315 162
316 161
316 160
316 159
316 158
316 157
316 156
317 155
317 154
317 153
317 152
317 151
317 150
317 149
318 148
318 147
318 146
318 145
318 144
318 143
318 142
318 141
318 140
318 139
318 138
318 137
318 136
318 135
318 134
317 133
317 132
317 131
317 130
317 129
317 128
316 127
315 126
314 126
313 125
312 125
311 125
310 125
309 125
308 125
307 125
306 125
305 125
304 125
303 125
302 125
301 125
300 125
299 124
298 124
297 123
296 122
296 121
295 120
294 120
293 119
292 118
291 118
290 117
289 117
288 117
287 116
286 115
285 115
284 114
283 114
282 113
281 113
280 113
279 113
278 114
278 115
277 116
276 117
275 118
274 119
273 119
272 120
272 121
271 122
271 123
271 124
270 125
270 126
269 127
269 128
268 129
267 130
267 131
266 132
265 133
264 133
263 134
263 135
263 136
262 137
262 138
262 139
261 140
260 141
260 142
259 143
258 143
258 144
257 145
257 146
257 147
257 148
256 149
256 150
256 151
255 152
255 153
254 154
253 155
253 156
252 157
252 158
251 159
251 160
250 161
249 161
248 162
248 163
248 164
248 165
248 166
247 167
247 168
247 169
246 170
245 171
245 172
245 173
245 174
245 175
245 176
244 177
244 178
244 179
244 180
243 181
243 182
243 183
242 184
242 185
242 186
242 187
241 188
241 189
241 190
241 191
240 192
240 193
240 194
240 195
240 196
240 197
240 198
240 199
240 200
240 201
240 202
240 203
239 204
239 205
239 206
239 207
240 208
240 209
240 210
240 211
240 212
240 213
240 214
240 215
240 216
240 217
240 218
240 219
241 220
241 221
241 222
241 223
241 224
241 225
242 226
242 227
242 228
242 229
243 230
243 231
243 232
244 233
244 234
245 235
245 236
245 237
246 238
246 239
247 240
247 241
248 242
248 243
249 244
249 245
250 246
250 247
251 248
251 249
252 250
253 251
253 252
254 253
254 254
254 255
253 256
252 256
251 256
250 256
249 256
248 256
247 255
246 255
245 255
244 254
243 254
242 253
241 253
240 253
239 252
238 252
237 252
236 252
235 251
234 251
233 251
232 250
231 250
230 250
229 250
228 250
227 250
226 250
225 250
224 250
223 250
222 250
221 250
220 250
219 250
218 250
217 250
216 250
215 250
214 250
213 250
212 250
211 251
210 251
209 251
208 251
207 251
206 252
205 252
204 252
203 252
202 253
201 253
200 253
199 253
198 254
197 254
196 254
195 255
194 255
193 255
192 255
191 254
190 253
190 252
189 251
188 250
188 249
187 248
186 247
186 246
185 245
185 244
184 243
183 242
183 241
182 240
181 239
181 238
180 237
179 236
178 235
177 234
176 233
176 232
175 231
174 230
173 229
172 228
171 227
170 226
169 225
168 224
167 223
166 223
165 222
165 221
164 221
163 220
162 219
161 218
160 217
159 216
158 215
157 214
156 213
155 212
154 211
153 210
152 209
152 208
151 207
150 207
149 206
148 206
147 205
146 204
145 204
144 203
143 202
142 201
141 200
140 199
140 198
139 197
138 196
137 196
136 196
135 195
134 194
133 194
132 193
131 192
130 191
129 190
128 189
127 189
126 189
125 189
124 188
123 188
122 187
121 187
120 186
119 185
118 184
117 183
116 182
115 183
114 183
113 183
112 183
111 182
110 182
109 181
108 180
107 179
106 178
105 178
104 178
103 178
102 177
101 177
100 176
99 176
98 175
97 175
96 174
95 173
94 172
93 171
92 171
91 171
90 171
89 171
88 170
87 170
86 169
85 169
84 168
83 168
82 167
81 166
80 165
79 164
78 164
77 165
76 164
75 163
74 163
73 162
72 161
71 161
70 160
69 161
68 161
67 160
66 159
65 158
64 158
63 157
62 157
61 156
60 156
59 155
58 156
57 157
56 156
55 156
54 156
53 155
52 154
51 154
50 153
49 153
48 153
47 152
46 151
45 151
44 150
43 150
42 150
41 150
40 149
39 149
38 149
37 148
36 148
35 148
34 147
33 147
32 146
31 146
30 146
29 146
30 147
30 148
31 149
31 150
32 151
33 152
33 153
34 153
35 154
36 155
36 156
37 157
38 158
38 159
39 159
40 160
41 161
42 162
42 163
43 164
43 165
43 166
44 167
45 167
46 168
47 169
48 170
49 171
49 172
50 173
50 174
50 175
51 176
52 177
53 178
54 178
55 179
55 180
56 181
57 182
58 183
59 184
60 185
61 186
61 187
61 188
61 189
62 190
63 191
64 192
65 193
66 194
66 195
67 195
68 196
67 197
67 198
68 199
69 199
70 200
71 201
72 202
73 203
73 204
74 205
75 206
76 207
77 208
78 209
79 210
80 211
81 212
80 213
81 213
82 214
83 215
84 215
85 216
86 217
87 218
88 218
89 219
90 220
90 221
91 222
91 223
91 224
92 225
93 225
94 226
95 227
96 227
97 228
98 229
99 230
100 230
101 231
101 232
101 233
102 233
103 233
104 234
105 234
106 235
107 235
108 235
109 236
110 237
111 238
110 239
111 239
112 240
113 240
114 240
115 241
116 242
117 242
118 243
119 244
119 245
120 246
121 246
122 246
123 247
124 247
125 247
126 248
127 248
128 248
129 249
129 250
130 250
131 250
132 251
133 251
134 251
135 252
136 252
137 252
138 253
139 253
140 254
141 254
142 254
143 254
144 254
145 254
146 254
147 255
148 255
149 255
150 255
151 255
152 255
153 256
154 256
155 256
156 257
157 257
158 256
159 256
160 256
161 256
162 256
163 256
164 257
165 257
166 257
167 257
168 257
169 257
170 257
171 256
172 256
173 256
174 256
175 256
176 256
177 256
178 256
179 256
180 256
181 256
182 257
183 257
184 257
185 258
185 259
185 260
184 261
184 262
183 263
182 264
182 265
181 266
180 267
179 268
178 269
177 269
176 270
175 271
174 272
173 272
172 273
171 273
170 274
169 274
168 274
167 275
166 275
165 276
164 276
163 277
162 277
161 278
160 278
159 279
158 279
157 280
156 280
155 281
154 281
153 282
152 282
151 283
150 284
149 284
148 285
147 285
146 286
145 286
144 287
143 287
142 288
141 288
140 289
139 289
138 290
138 291
137 292
136 293
135 294
134 295
133 296
132 297
131 298
130 298
129 299
128 300
127 301
126 302
125 302
124 303
124 304
124 305
123 306
122 307
121 308
120 309
119 310
118 311
117 312
116 312
115 313
114 314
113 314
112 315
111 316
110 317
110 318
110 319
109 320
109 321
108 322
107 323
106 324
105 325
105 326
104 327
103 328
103 329
102 330
101 330
100 331
99 332
98 333
98 334
99 335
99 336
98 337
98 338
97 339
97 340
97 341
96 342
95 343
94 344
94 345
93 346
92 346
92 347
91 348
90 348
89 349
90 350
90 351
90 352
90 353
89 354
88 355
88 356
87 357
86 358
85 359
84 360
83 361
83 362
84 363
84 364
83 365
83 366
83 367
82 368
82 369
81 370
81 371
81 372
81 373
80 374
80 375
79 376
79 377
80 378
80 379
80 380
79 381
79 382
78 383
78 384
77 385
77 386
78 387
77 388
77 389
77 390
76 391
76 392
75 393
75 394
74 395
74 396
73 397
74 398
75 399
74 400
74 401
74 402
74 403
73 404
72 405
71 406
71 407
70 408
69 409
69 410
70 411
69 412
69 413
69 414
68 415
67 416
66 417
65 418
65 419
64 420
63 421
63 422
63 423
62 424
61 425
61 426
60 427
59 428
59 429
58 430
57 431
56 432
55 433
56 432
57 433
58 433
59 433
60 433
61 432
62 432
63 432
64 431
65 431
66 431
67 430
68 429
69 428
70 427
71 426
72 426
73 425
74 424
75 423
76 422
77 422
78 422
79 421
80 420
81 419
82 418
82 417
83 416
84 416
85 415
86 414
87 413
88 413
89 413
90 412
91 411
92 410
93 410
94 409
95 409
96 408
97 407
98 406
99 405
100 404
101 404
102 403
103 403
104 402
105 401
106 400
107 399
108 398
109 397
110 396
111 395
112 395
113 395
114 395
115 394
116 394
117 393
118 392
119 392
120 391
121 390
122 389
123 388
124 387
125 386
126 386
127 385
128 385
129 384
130 383
131 382
132 382
133 382
134 381
135 380
136 379
137 378
138 377
139 376
140 375
141 374
142 373
143 373
144 373
145 372
146 371
147 370
148 370
148 369
149 368
150 368
151 367
152 366
153 365
154 366
155 365
156 364
156 363
157 362
158 361
158 360
159 359
160 358
161 357
162 357
163 357
164 356
165 355
166 354
166 353
167 352
167 351
168 350
169 349
169 348
170 347
171 346
171 345
172 344
173 343
174 342
175 342
175 341
176 340
176 339
177 338
177 337
177 336
177 335
178 334
178 333
179 332
179 331
180 330
181 329
182 328
182 327
183 326
183 325
183 324
184 323
184 322
185 321
185 320
186 319
186 318
186 317
186 316
186 315
186 314
187 313
187 312
187 311
187 310
187 309
187 308
188 307
188 306
188 305
189 304
189 303
189 302
189 301
189 300
189 299
190 298
190 297
190 296
190 295
190 294
191 293
191 292
191 291
192 290
192 289
192 288
192 287
192 286
192 285
192 284
193 283
193 282
193 281
193 280
193 279
193 278
193 277
193 276
193 275
193 274
193 273
193 272
193 271
193 270
193 269
193 268
193 267
193 266
193 265
193 264
193 263
193 262
193 261
194 260
194 259
195 258
196 258
197 258
198 257
199 257
200 257
201 256
202 256
203 256
204 256
205 255
206 255
207 255
208 254
209 254
210 254
211 254
212 254
213 253
214 253
215 253
216 253
217 253
218 253
219 252
220 252
221 252
222 252
223 252
224 252
225 252
226 252
227 252
228 252
229 253
230 253
231 253
232 253
233 253
234 254
235 254
236 254
237 255
238 255
239 255
240 256
241 256
242 257
243 257
244 257
245 258
246 258
247 258
248 259
249 259
250 259
251 260
252 260
253 260
254 260
255 261
255 262
255 263
255 264
255 265
254 266
253 267
253 268
252 269
251 270
250 271
249 272
248 273
248 274
247 275
246 276
245 277
244 278
243 279
242 280
241 281
240 282
240 283
239 284
238 285
237 286
236 287
236 288
235 289
234 290
234 291
234 292
234 293
233 294
233 295
233 296
232 297
232 298
231 299
231 300
231 301
230 302
230 303
229 304
230 305
230 306
229 307
229 308
229 309
229 310
228 311
228 312
228 313
228 314
227 315
227 316
227 317
227 318
228 319
228 320
228 321
228 322
228 323
227 324
227 325
227 326
227 327
226 328
226 329
226 330
227 331
227 332
227 333
227 334
226 335
226 336
226 337
226 338
225 339
225 340
225 341
224 342
224 343
224 344
225 344
226 345
226 346
226 347
226 348
226 349
226 350
226 351
226 352
226 353
226 354
226 355
226 356
226 357
226 358
226 359
226 360
225 361
225 362
225 363
225 364
226 365
226 366
226 367
227 368
227 369
227 370
227 371
227 372
227 373
227 374
227 375
227 376
227 377
227 378
227 379
227 380
228 380
229 381
229 382
229 383
229 384
229 385
229 386
229 387
229 388
229 389
229 390
229 391
229 392
230 393
230 394
230 395
230 396
231 396
232 396
233 397
233 398
234 399
234 400
234 401
235 402
235 403
235 404
235 405
235 406
235 407
235 408
235 409
235 410
236 410
237 411
237 412
238 413
238 414
238 415
238 416
239 417
239 418
239 419
239 420
239 421
240 421
241 422
242 423
242 424
243 425
243 426
243 427
244 428
244 429
244 430
245 431
245 432
246 433
246 434
246 435
246 436
247 437
247 438
247 439
248 439
249 440
249 441
250 442
250 443
250 444
250 445
250 446
251 447
251 448
251 449
251 450
251 451
251 452
251 453
252 453
253 454
253 455
253 456
254 457
254 458
254 459
255 460
255 461
255 462
255 463
255 464
256 464
257 465
257 466
258 467
258 468
259 469
259 470
260 471
260 472
260 473
261 474
261 475
261 476
262 477
262 478
263 479
263 480
263 481
264 482
264 483
265 484
265 485
266 486
267 487
268 488
269 488
269 487
269 486
269 485
269 484
269 483
270 482
270 481
270 480
270 479
270 478
270 477
270 476
270 475
270 474
270 473
271 472
271 471
271 470
271 469
271 468
271 467
271 466
271 465
271 464
271 463
271 462
272 461
272 460
272 459
272 458
272 457
272 456
273 455
274 454
274 453
274 452
274 451
274 450
274 449
274 448
274 447
274 446
274 445
274 444
274 443
275 442
275 441
275 440
275 439
275 438
275 437
275 436
275 435
275 434
276 433
276 432
276 431
277 430
277 429
278 428
278 427
278 426
278 425
278 424
278 423
279 422
279 421
279 420
279 419
279 418
279 417
280 416
280 415
280 414
281 413
281 412
281 411
281 410
281 409
281 408
282 407
281 406
281 405
281 404
281 403
281 402
281 401
282 400
282 399
282 398
282 397
282 396
282 395
282 394
282 393
282 392
282 391
283 390
284 389
284 388
284 387
284 386
284 385
284 384
284 383
284 382
285 381
285 380
286 379
286 378
286 377
286 376
286 375
286 374
286 373
286 372
286 371
286 370
285 369
285 368
285 367
285 366
286 365
286 364
287 363
287 362
287 361
287 360
287 359
286 358
286 357
286 356
286 355
286 354
286 353
285 352
285 351
285 350
285 349
285 348
285 347
285 346
285 345
285 344
285 343
286 342
285 341
285 340
285 339
284 338
284 337
284 336
284 335
284 334
284 333
284 332
284 331
283 330
283 329
283 328
283 327
283 326
283 325
283 324
283 323
283 322
283 321
283 320
282 319
282 318
282 317
282 316
281 315
281 314
281 313
281 312
281 311
280 310
280 309
280 308
280 307
279 306
279 305
278 304
278 303
278 302
278 301
277 300
277 299
277 298
277 297
277 296
276 295
276 294
276 293
276 292
275 291
275 290
275 289
274 288
274 287
274 286
273 285
273 284
273 283
272 282
272 281
271 280
271 279
270 278
270 277
270 276
269 275
269 274
268 273
268 272
267 271
267 270
266 269
266 268
265 267
265 266
265 265
265 264
265 263
264 262
265 261
266 261
267 260
268 260
269 260
270 260
271 260
272 260
273 260
274 260
275 259
276 259
277 259
278 259
279 259
280 259
281 259
282 259
283 259
284 259
285 259
286 259
287 259
288 259
289 259
290 259
291 259
292 259
293 260
294 260
295 260
296 260
297 260
298 260
299 260
300 260
301 260
302 260
303 260
304 260
305 260
306 260
307 260
308 261
309 261
310 261
311 261
312 261
313 261
314 261
315 261
316 262
317 262
318 262
319 262
320 262
321 262
322 262
323 263
324 263
325 263
326 263
327 263
328 263
329 263
330 264
331 264
332 264
333 264
334 264
335 264
336 265
337 265
338 265
339 265
340 266
341 266
342 266
343 266
344 266
345 267
346 267
347 267
348 267
349 267
350 268
351 268
352 268
353 269
354 269
355 270
356 271
357 272
357 273
357 274
357 275
356 276
355 277
354 278
354 279
353 280
352 281
351 282
350 283
349 284
348 285
348 286
347 287
346 288
345 289
344 290
343 291
342 292
341 293
341 294
340 295
339 296
338 297
338 298
337 299
337 300
336 301
335 302
334 303
333 304
333 305
333 306
333 307
333 308
332 309
332 310
331 311
331 312
331 313
330 314
330 315
330 316
330 317
330 318
330 319
330 320
330 321
329 322
329 323
330 324
330 325
330 326
331 327
331 328
330 329
330 330
330 331
330 332
330 333
330 334
330 335
330 336
330 337
329 338
329 339
329 340
329 341
330 342
330 343
330 344
330 345
330 346
330 347
330 348
330 349
329 350
329 351
330 351
331 352
331 353
331 354
331 355
331 356
331 357
332 358
332 359
333 360
333 361
333 362
333 363
333 364
333 365
333 366
333 367
333 368
332 369
332 370
333 371
334 372
334 373
334 374
334 375
334 376
334 377
335 378
335 379
335 380
335 381
335 382
335 383
335 384
335 385
334 386
334 387
335 388
335 389
335 390
335 391
336 392
336 393
336 394
336 395
336 396
336 397
337 397
338 398
339 399
339 400
340 401
340 402
341 403
341 404
341 405
341 406
341 407
341 408
342 409
342 410
342 411
343 412
343 413
343 414
343 415
343 416
344 417
345 417
346 418
346 419
347 420
347 421
347 422
348 423
348 424
348 425
348 426
349 427
349 428
349 429
349 430
350 431
351 432
351 433
351 434
352 435
352 436
352 437
352 438
352 439
353 440
354 440
355 441
355 442
356 443
356 444
356 445
357 446
357 447
357 448
358 449
359 450
359 451
360 452
360 453
360 454
361 455
362 455
363 455
364 454
365 454
366 454
367 454
368 454
369 454
370 454
371 454
372 454
373 455
374 456
374 457
374 458
374 459
374 460
374 461
374 462
374 463
374 464
374 465
373 466
372 467
372 468
371 469
370 470
370 471
371 472
371 473
372 474
372 475
372 476
373 477
373 478
374 479
375 480
376 481
377 482
377 483
378 484
379 485
380 485
381 486
381 485
381 484
381 483
381 482
381 481
381 480
380 479
380 478
380 477
380 476
380 475
380 474
380 473
380 472
380 471
380 470
380 469
380 468
379 467
379 466
379 465
379 464
379 463
379 462
379 461
380 460
380 459
380 458
380 457
380 456
380 455
380 454
381 453
381 452
381 451
382 450
382 449
382 448
383 447
383 446
383 445
384 444
384 443
384 442
384 441
385 440
385 439
386 438
386 437
386 436
387 435
387 434
387 433
387 432
387 431
388 430
388 429
389 428
390 427
390 426
390 425
390 424
390 423
390 422
390 421
390 420
391 419
391 418
391 417
391 416
391 415
391 414
392 413
392 412
392 411
393 410
394 409
394 408
394 407
394 406
394 405
394 404
394 403
394 402
394 401
394 400
394 399
394 398
394 397
395 396
395 395
395 394
395 393
395 392
395 391
394 390
394 389
394 388
394 387
394 386
394 385
394 384
395 383
395 382
396 381
396 380
396 379
396 378
396 377
396 376
396 375
396 374
396 373
396 372
396 371
396 370
396 369
397 368
397 367
397 366
397 365
397 364
397 363
397 362
397 361
397 360
397 359
397 358
396 357
396 356
397 355
396 354
396 353
396 352
395 351
395 350
395 349
395 348
395 347
395 346
395 345
395 344
395 343
395 342
395 341
395 340
395 339
395 338
395 337
394 336
394 335
394 334
393 333
393 332
393 331
393 330
393 329
392 328
392 327
392 326
392 325
392 324
391 323
390 322
390 321
389 320
389 319
389 318
388 317
388 316
388 315
388 314
387 313
387 312
387 311
387 310
386 309
386 308
386 307
385 306
385 305
384 304
384 303
384 302
383 301
383 300
382 299
382 298
381 297
381 296
380 295
380 294
379 293
379 292
378 291
378 290
377 289
376 288
376 287
375 286
375 285
374 284
373 283
373 282
372 281
371 280
371 279
370 278
370 277
369 276
369 275
368 274
368 273
367 272
367 271
367 270
368 269
369 268
370 267
371 267
372 267
373 267
374 267
375 266
376 266
377 266
378 266
379 266
380 266
381 266
382 266
383 266
384 265
385 265
386 265
387 265
388 265
389 265
390 265
391 265
392 265
393 265
394 265
395 264
396 264
397 264
398 264
399 264
400 264
401 264
402 264
403 264
404 264
405 263
406 263
407 263
408 263
409 263
410 263
411 263
412 263
413 263
414 263
415 263
416 263
417 262
418 262
419 262
420 262
421 262
422 262
423 262
424 262
425 262
426 262
427 262
428 262
429 262
430 262
431 262
432 262
433 262
434 262
435 262
436 262
437 262
438 262
439 262
440 262
441 261
442 261
443 261
444 261
445 261
446 261
447 261
448 261
449 261
450 262
451 262
452 263
452 264
453 265
453 266
453 267
452 268
452 269
452 270
451 271
451 272
450 273
450 274
449 275
449 276
449 277
448 278
448 279
448 280
447 281
447 282
447 283
446 284
446 285
446 286
446 287
445 288
445 289
445 290
444 291
444 292
444 293
444 294
443 295
443 296
443 297
442 298
442 299
443 300
443 301
443 302
442 303
442 304
442 305
442 306
442 307
442 308
442 309
442 310
443 311
443 312
443 313
443 314
443 315
443 316
443 317
443 318
443 319
444 320
445 321
446 322
446 323
446 324
447 325
447 326
447 327
447 328
447 329
448 330
448 331
449 331
450 332
451 333
451 334
452 335
452 336
453 337
453 338
453 339
453 340
454 341
455 342
456 343
456 344
456 345
457 346
457 347
457 348
458 347
459 347
460 348
460 349
461 350
462 351
462 352
462 353
462 354
463 355
464 356
465 357
465 358
466 359
466 360
466 361
467 362
467 363
468 362
469 363
470 364
471 365
471 366
471 367
472 368
473 368
474 369
475 370
475 371
476 372
477 373
477 374
478 375
478 376
479 377
480 377
481 376
482 377
483 378
483 379
484 380
485 381
486 382
486 383
487 384
488 385
489 385
490 385
491 386
491 387
492 388
493 389
493 390
494 391
495 392
495 393
496 394
497 394
498 395
499 396
499 397
500 398
500 399
501 400
502 401
503 401
504 401
505 402
506 403
507 403
508 404
509 405
510 406
511 407
512 408
513 409
514 410
514 411
515 411
516 412
517 413
518 414
519 415
520 416
521 416
522 416
523 417
524 418
525 419
526 420
527 421
528 422
529 423
530 424
531 425
532 425
533 426
533 427
534 428
535 429
535 430
536 431
537 431
538 432
539 433
540 434
541 435
542 436
542 437
543 438
544 439
544 438
545 437
545 436
545 435
545 434
545 433
545 432
544 431
544 430
544 429
544 428
544 427
544 426
544 425
544 424
544 423
544 422
544 421
544 420
544 419
544 418
544 417
543 416
543 415
543 414
542 413
542 412
542 411
541 410
541 409
541 408
541 407
540 406
540 405
540 404
541 403
540 402
540 401
539 400
539 399
539 398
538 397
538 396
537 395
537 394
537 393
537 392
537 391
538 390
538 389
538 388
538 387
537 386
537 385
537 384
537 383
536 382
536 381
536 380
537 379
537 378
537 377
537 376
536 375
536 374
536 373
536 372
535 371
535 370
535 369
534 368
534 367
534 366
533 365
533 364
533 363
533 362
534 361
533 360
532 359
532 358
531 357
530 356
530 355
529 354
529 353
528 352
528 351
527 350
527 349
527 348
527 347
528 346
527 345
526 344
525 343
524 342
524 341
523 340
522 339
522 338
521 337
521 336
521 335
520 334
520 333
519 332
518 331
518 330
517 329
517 328
517 327
517 326
516 325
516 324
515 323
514 322
514 321
513 320
512 319
512 318
512 317
512 316
512 315
511 314
510 313
509 312
509 311
508 310
508 309
507 308
506 307
506 306
506 305
505 304
505 303
504 302
503 301
502 300
501 299
500 298
499 297
498 296
497 295
496 294
496 293
495 292
494 291
493 290
493 289
493 288
492 287
491 286
491 285
490 285
489 284
488 283
488 282
487 281
486 280
485 279
484 278
483 277
482 277
481 276
480 275
479 274
478 273
477 273
476 272
475 271
474 271
473 270
472 269
471 269
470 268
469 267
468 266
467 266
466 265
465 265
464 264
463 263
463 262
462 261
463 260
464 259
465 258
466 257
467 257
468 257
469 256
470 256
471 256
472 255
473 255
474 255
475 255
476 254
477 254
478 254
479 254
480 253
481 253
482 253
483 253
484 252
485 252
486 252
487 252
488 252
489 252
490 251
491 251
492 251
493 251
494 251
495 251
496 250
497 250
498 250
499 250
500 250
501 250
502 249
503 249
504 249
505 249
506 249
507 249
508 249
509 249
510 248
511 248
512 248
513 248
514 248
515 248
516 248
517 248
518 248
519 247
520 247
521 247
522 247
523 247
524 247
525 247
526 247
527 247
528 247
529 247
530 247
531 247
532 247
533 247
534 247
535 248
536 249
536 250
536 251
536 252
535 253
534 254
534 255
533 256
532 257
532 258
531 259
530 260
530 261
529 262
529 263
528 264
527 265
527 266
526 267
526 268
525 269
525 270
524 271
524 272
523 273
523 274
522 275
522 276
521 277
521 278
521 279
521 280
520 281
520 282
519 283
519 284
519 285
518 286
518 287
519 288
519 289
519 290
519 291
519 292
519 293
519 294
519 295
519 296
520 297
520 298
520 299
520 300
520 301
519 302
519 303
519 304
519 305
519 306
519 307
520 308
521 309
522 310
522 311
523 312
523 313
523 314
523 315
523 316
524 317
524 318
524 319
524 320
524 321
525 321
526 322
526 323
527 324
527 325
527 326
528 327
528 328
528 329
528 330
529 331
529 332
529 333
529 334
530 335
531 335
532 336
532 337
533 338
533 339
533 340
534 341
534 342
535 343
535 344
536 344
537 345
537 346
538 347
538 348
538 349
539 350
539 351
539 352
539 353
539 354
540 355
540 356
541 357
542 358
543 359
544 360
544 361
544 362
545 363
545 364
546 365
547 366
548 367
549 368
549 369
550 370
550 371
551 372
551 373
552 374
552 375
553 376
553 377
554 378
555 377
556 378
557 379
558 380
558 381
559 382
559 383
560 384
561 385
561 386
561 387
562 388
562 389
563 390
563 391
563 392
564 393
565 393
566 394
567 395
568 396
569 397
569 398
570 399
570 400
571 401
571 402
572 403
573 404
574 404
575 405
576 406
576 407
577 408
578 409
578 410
579 410
580 411
581 412
582 413
582 414
582 415
583 416
583 417
584 418
585 419
586 420
587 421
587 422
588 423
589 424
590 423
590 422
590 421
590 420
589 419
589 418
589 417
589 416
589 415
589 414
589 413
589 412
589 411
589 410
589 409
589 408
589 407
589 406
588 405
588 404
588 403
588 402
588 401
588 400
588 399
589 398
589 397
589 396
589 395
589 394
589 393
589 392
589 391
589 390
589 389
589 388
589 387
589 386
589 385
589 384
589 383
589 382
589 381
589 380
589 379
589 378
589 377
589 376
589 375
589 374
589 373
589 372
589 371
589 370
589 369
590 368
590 367
590 366
590 365
590 364
590 363
590 362
590 361
590 360
590 359
590 358
590 357
590 356
590 355
591 354
592 354
592 353
592 352
592 351
592 350
592 349
592 348
592 347
592 346
592 345
591 344
591 343
591 342
590 341
590 340
590 339
590 338
590 337
589 336
589 335
589 334
589 333
590 332
590 331
590 330
590 329
589 328
589 327
588 326
588 325
588 324
587 323
587 322
587 321
587 320
587 319
587 318
586 317
585 316
585 315
584 314
584 313
584 312
583 311
583 310
583 309
583 308
583 307
582 306
582 305
582 304
581 303
581 302
581 301
581 300
581 299
581 298
581 297
580 296
580 295
579 294
579 293
578 292
578 291
577 290
577 289
576 288
576 287
576 286
575 285
575 284
574 283
574 282
573 281
572 280
572 279
571 278
571 277
571 276
570 275
569 274
569 273
568 272
567 271
567 270
566 269
566 268
565 267
564 266
563 265
562 264
561 263
560 263
559 262
558 261
558 260
557 260
556 259
556 258
555 257
554 256
553 256
552 255
551 254
550 253
549 252
548 251
548 250
547 249
547 248
548 247
549 246
550 246
551 245
552 245
553 245
554 245
555 245
556 245
557 245
558 244
559 244
560 244
561 244
562 244
563 244
564 244
565 244
566 244
567 244
568 244
569 244
570 243
571 243
572 243
573 243
574 243
575 243
576 243
577 243
578 243
579 243
580 243
581 242
582 242
583 242
584 242
585 242
586 242
587 242
588 242
589 242
590 241
591 241
592 241
593 241
594 241
595 241
596 241
597 241
598 241
599 241
600 241
601 241
602 241
603 241
604 241
605 241
606 242
606 243
606 244
605 245
604 246
603 247
602 248
601 249
600 250
599 251
598 252
597 253
596 254
596 255
595 256
594 257
593 258
592 259
592 260
591 261
590 262
590 263
590 264
590 265
589 266
589 267
589 268
589 269
588 270
588 271
588 272
588 273
588 274
589 275
589 276
589 277
589 278
590 279
590 280
590 281
590 282
590 283
590 284
590 285
590 286
590 287
591 288
592 289
592 290
593 291
593 292
593 293
593 294
594 295
595 296
595 297
596 298
596 299
596 300
597 301
597 302
597 303
598 304
599 305
599 306
600 307
600 308
601 309
601 310
601 311
601 312
602 312
603 313
603 314
604 315
604 316
605 317
605 318
605 319
606 319
607 319
608 320
609 321
610 322
610 323
611 324
611 325
612 326
612 327
612 328
612 329
613 330
614 331
614 332
614 333
614 334
615 335
615 336
616 337
617 338
617 339
618 340
618 341
618 342
618 343
619 344
619 345
620 346
620 347
620 348
620 349
621 350
622 351
622 352
623 353
624 354
624 355
625 356
626 356
627 356
628 357
627 358
626 359
626 360
626 361
627 362
627 363
627 364
627 365
627 366
628 367
628 368
629 369
629 370
630 371
630 372
630 373
631 374
632 375
633 376
633 377
634 378
634 379
634 380
635 381
635 382
636 383
636 384
636 385
637 386
637 387
638 388
638 389
639 390
639 391
640 392
640 393
641 394
641 395
642 394
643 393
644 392
644 391
644 390
645 389
645 388
645 387
645 386
645 385
646 384
646 383
646 382
647 381
647 380
647 379
647 378
647 377
647 376
647 375
647 374
646 374
645 374
644 374
643 375
642 374
641 373
641 372
641 371
641 370
641 369
641 368
641 367
641 366
641 365
641 364
641 363
641 362
641 361
641 360
640 359
640 358
639 357
639 356
639 355
638 354
638 353
638 352
638 351
638 350
638 349
638 348
638 347
639 346
639 345
640 344
641 344
642 344
643 343
644 342
645 341
646 341
647 340
648 340
649 340
650 340
650 339
650 338
650 337
650 336
650 335
650 334
650 333
650 332
650 331
650 330
650 329
649 328
649 327
648 327
647 326
646 326
645 325
644 324
643 323
643 322
642 321
642 320
642 319
641 318
641 317
642 316
643 315
644 314
645 313
645 312
645 311
645 310
645 309
645 308
646 307
646 306
646 305
646 304
646 303
646 302
646 301
645 300
645 299
645 298
645 297
645 296
645 295
645 294
645 293
645 292
644 291
644 290
644 289
644 288
644 287
644 286
644 285
643 284
643 283
643 282
643 281
643 280
643 279
643 278
643 277
642 276
642 275
642 274
642 273
642 272
642 271
642 270
641 269
641 268
641 267
640 266
640 265
639 264
639 263
638 263
637 262
636 261
635 260
634 259
633 258
632 257
631 257
630 256
629 256
628 255
627 254
626 253
625 253
624 252
623 252
622 251
621 251
620 250
619 249
618 248
617 248
616 247
616 246
616 245
616 244
616 243
617 242
618 242
619 241
620 241
621 241
622 241
623 241
624 241
625 240
626 240
627 240
628 240
629 240
630 240
631 240
632 240
633 240
634 240
635 240
636 240
637 240
638 240
639 240
640 240
641 240
642 240
643 240
644 240
645 239
646 239
647 239
648 239
649 239
650 239
651 239
652 239
653 239
654 239
655 239
656 239
657 239
658 239
659 239
660 239
661 239
662 239
663 239
664 239
665 239
666 239
667 239
668 239
669 239
670 239
671 239
672 239
673 238
674 238
675 238
676 238
677 238
678 238
679 238
680 238
681 238
682 238
683 238
684 238
685 238
686 238
687 238
688 238
689 239
690 239
691 239
692 239
693 239
694 239
695 239
696 239
697 239
698 239
699 239
700 239
701 239
702 239
703 239
704 239
705 239
706 239
707 239
708 239
709 239
710 239
711 239
712 239
713 239
714 239
715 239
716 239
717 239
718 239
719 240
720 240
721 240
722 240
723 240
724 240
725 240
726 240
727 240
728 240
729 240
730 240
731 240
732 240
733 241
734 241
735 241
736 241
737 241
738 241
739 241
740 241
741 242
742 242
743 242
744 242
745 242
746 242
747 242
748 242
749 242
750 242
751 242
752 242
753 243
754 243
755 243
756 244
757 244
758 244
759 245
760 245
761 245
762 246
763 246
764 246
765 246
766 247
767 247
768 247
769 246
770 246
771 245
772 244
772 243
773 242
772 241
771 240
770 240
769 239
768 239
767 238
766 238
765 238
764 237
763 237
762 237
761 237
760 237
759 237
758 237
757 237
756 237
755 237
754 237
753 236
752 236
751 236
750 236
749 236
748 236
747 236
746 236
745 236
744 236
743 236
742 236
741 236
740 236
739 236
738 236
737 236
736 236
735 236
734 236
733 236
732 236
731 236
730 236
729 235
728 235
727 235
726 235
725 235
724 235
723 235
722 235
721 235
720 235
719 235
718 235
717 235
716 235
715 235
714 235
713 235
712 235
711 235
710 235
709 235
708 235
707 235
706 235
705 235
704 234
703 234
702 234
701 234
700 234
699 234
698 234
697 234
696 234
695 234
694 234
693 234
692 234
691 234
690 234
689 234
688 234
687 234
686 234
685 234
684 234
683 234
682 234
681 234
680 235
679 234
678 234
677 235
676 235
675 235
674 234
673 234
672 235
671 235
670 235
669 235
668 235
667 235
666 235
665 235
664 235
663 235
662 235
661 235
660 235
659 235
658 235
657 235
656 235
655 235
654 235
653 235
652 235
651 235
650 235
649 235
648 235
647 235
646 235
645 235
644 235
643 235
642 235
641 235
640 235
639 235
638 235
637 235
636 235
635 235
634 235
633 235
632 235
631 235
630 235
629 235
628 235
627 235
626 235
625 235
624 235
623 235
622 235
621 235
620 235
619 235
618 235
617 235
616 235
615 235
614 235
613 234
612 234
611 234
610 234
609 233
608 232
607 231
608 230
609 230
610 229
611 229
612 228
613 228
614 228
615 227
616 227
617 226
618 226
619 225
620 225
621 224
622 224
623 223
624 222
625 221
626 221
627 220
628 219
629 218
630 217
631 216
632 215
633 214
634 213
635 212
636 211
636 210
637 209
637 208
638 207
638 206
639 205
639 204
640 203
640 202
641 201
641 200
641 199
642 198
642 197
643 196
643 195
644 194
644 193
644 192
645 191
645 190
645 189
646 188
646 187
647 186
647 185
648 184
648 183
649 182
649 181
649 180
650 179
650 178
651 177
652 176
653 175
653 174
653 173
653 172
654 171
654 170
654 169
655 168
655 167
656 166
657 165
657 164
658 163
659 162
660 161
660 160
660 159
660 158
661 157
662 156
662 155
663 154
663 153
664 152
665 151
665 150
665 149
665 148
665 147
666 146
666 145
667 144
667 143
668 142
668 141
669 140
669 139
668 138
669 137
669 136
669 135
670 134
670 133
671 132
671 131
672 130
672 129
673 128
673 127
673 126
674 125
674 124
674 123
675 122
675 121
675 120
675 119
675 118
674 117
673 116
673 115
672 114
672 113
672 112
672 111
672 110
672 109
672 108
672 107
672 106
672 105
672 104
671 104
670 105
669 105
668 105
667 106
666 107
665 107
664 108
663 109
662 109
661 110
660 110
659 111
658 112
657 112
656 113
655 114
654 115
653 116
652 117
651 118
650 119
649 119
648 120
647 121
646 121
645 122
644 123
643 124
642 124
641 125
641 126
640 127
639 128
638 129
637 129
637 130
636 131
635 132
635 133
634 134
633 135
632 136
631 137
630 138
629 138
629 139
628 140
628 141
627 142
626 143
625 144
625 145
624 146
623 147
623 148
622 149
621 149
621 150
621 151
620 152
619 152
618 153
618 154
617 155
617 156
616 157
615 157
614 157
613 158
612 159
612 160
611 161
610 162
609 163
608 162
607 163
607 164
606 165
606 166
605 167
605 168
604 169
603 169
602 170
602 171
602 172
602 173
601 174
601 175
601 176
600 177
599 178
598 178
597 179
597 180
597 181
596 182
596 183
595 184
595 185
594 186
593 186
593 187
592 188
592 189
592 190
591 191
591 192
590 193
590 194
590 195
590 196
589 197
589 198
589 199
589 200
589 201
589 202
589 203
588 204
588 205
588 206
588 207
588 208
588 209
588 210
589 211
589 212
589 213
589 214
589 215
590 216
590 217
591 218
591 219
591 220
592 221
592 222
592 223
593 224
593 225
594 226
594 227
595 228
595 229
595 230
596 231
596 232
597 233
597 234
597 235
596 236
595 237
594 237
593 237
592 237
591 237
590 237
589 237
588 237
587 238
586 238
585 238
584 238
583 238
582 238
581 238
580 238
579 238
578 238
577 238
576 239
575 239
574 239
573 239
572 239
571 239
570 239
569 239
568 239
567 239
566 240
565 240
564 240
563 240
562 240
561 240
560 240
559 240
558 240
557 240
556 240
555 240
554 240
553 240
552 240
551 240
550 239
549 239
548 238
548 237
547 236
548 235
549 234
550 233
551 232
552 231
553 231
554 230
555 229
556 228
557 227
558 226
558 225
559 224
560 223
561 222
562 221
563 220
564 219
564 218
565 217
566 216
566 215
567 214
568 213
569 212
569 211
570 210
571 209
572 208
572 207
573 206
573 205
573 204
573 203
574 202
574 201
574 200
575 199
575 198
576 197
576 196
577 195
577 194
577 193
577 192
577 191
578 190
578 189
578 188
578 187
578 186
578 185
579 184
579 183
579 182
580 181
580 180
580 179
581 178
581 177
581 176
581 175
582 174
582 173
582 172
583 171
583 170
583 169
583 168
583 167
584 166
584 165
584 164
584 163
584 162
584 161
584 160
584 159
584 158
584 157
584 156
584 155
584 154
584 153
584 152
584 151
584 150
584 149
584 148
584 147
585 146
585 145
585 144
585 143
585 142
585 141
585 140
586 139
586 138
586 137
586 136
586 135
586 134
586 133
586 132
586 131
586 130
586 129
586 128
586 127
586 126
585 125
585 124
586 123
586 122
586 121
586 120
586 119
586 118
586 117
586 116
586 115
586 114
586 113
586 112
586 111
586 110
586 109
586 108
586 107
586 106
586 105
587 104
587 103
587 102
586 101
586 100
587 99
587 98
587 97
587 96
587 95
587 94
587 93
588 92
588 91
588 90
588 89
587 88
587 87
587 86
587 85
587 84
587 83
587 82
587 81
587 80
587 79
587 78
587 77
587 76
587 75
587 74
587 73
586 72
586 71
586 70
586 69
586 68
586 67
586 66
586 65
586 64
586 63
586 62
586 61
586 60
586 59
586 58
587 57
587 56
586 56
585 57
584 58
583 58
582 59
581 60
580 61
580 62
579 63
578 64
577 65
577 66
576 67
575 68
574 69
573 70
572 71
571 72
571 73
570 74
569 75
568 76
567 76
567 77
566 78
566 79
566 80
565 81
565 82
564 83
564 84
563 85
562 86
562 87
561 88
560 89
560 90
560 91
559 92
559 93
558 94
558 95
557 96
556 97
555 97
555 98
554 99
554 100
553 101
553 102
552 103
552 104
551 105
551 106
551 107
550 108
549 109
548 110
547 111
547 112
547 113
546 114
546 115
546 116
545 117
545 118
545 119
544 120
543 121
542 122
541 123
541 124
541 125
540 126
540 127
539 128
539 129
538 130
537 131
536 132
535 133
534 134
534 135
534 136
534 137
533 138
533 139
533 140
532 141
532 142
532 143
532 144
531 145
530 146
529 147
529 148
528 149
527 150
527 151
526 152
526 153
526 154
525 155
524 156
524 157
524 158
524 159
524 160
523 161
523 162
522 163
522 164
521 165
521 166
521 167
521 168
521 169
521 170
521 171
521 172
520 173
520 174
520 175
519 176
518 177
518 178
518 179
518 180
518 181
517 182
517 183
517 184
517 185
516 186
516 187
516 188
516 189
516 190
516 191
516 192
515 193
515 194
514 195
514 196
514 197
514 198
514 199
514 200
515 201
515 202
516 203
516 204
516 205
516 206
517 207
517 208
517 209
517 210
517 211
516 212
517 213
518 214
518 215
519 216
519 217
520 218
520 219
521 220
521 221
522 222
522 223
523 224
523 225
524 226
525 227
525 228
526 229
527 230
528 231
528 232
529 233
530 234
531 235
531 236
532 237
533 238
533 239
534 240
533 241
532 242
531 242
530 242
529 243
528 243
527 243
526 243
525 243
524 243
523 243
522 244
521 244
520 244
519 244
518 244
517 244
516 244
515 244
514 244
513 244
512 245
511 245
510 245
509 245
508 245
507 245
506 245
505 245
504 246
503 246
502 246
501 246
500 246
499 246
498 247
497 247
496 247
495 247
494 247
493 247
492 247
491 248
490 248
489 248
488 248
487 248
486 249
485 249
484 249
483 249
482 249
481 249
480 250
479 250
478 250
477 250
476 251
475 251
474 251
473 251
472 251
471 252
470 252
469 252
468 252
467 252
466 252
465 252
464 253
463 252
462 251
462 250
462 249
462 248
462 247
463 246
464 245
464 244
465 243
465 242
466 241
466 240
467 239
467 238
468 237
468 236
469 235
469 234
470 233
470 232
471 231
471 230
471 229
472 228
472 227
473 226
473 225
473 224
474 223
474 222
474 221
475 220
475 219
475 218
475 217
476 216
476 215
476 214
477 213
477 212
477 211
478 210
478 209
479 208
479 207
479 206
479 205
480 204
480 203
480 202
481 201
481 200
481 199
482 198
482 197
482 196
483 195
483 194
483 193
483 192
484 191
483 190
483 189
483 188
483 187
484 186
484 185
484 184
484 183
484 182
484 181
485 180
485 179
485 178
485 177
485 176
485 175
485 174
485 173
485 172
485 171
485 170
485 169
485 168
485 167
485 166
485 165
486 164
486 163
486 162
486 161
486 160
485 159
485 158
485 157
485 156
484 155
484 154
484 153
484 152
484 151
484 150
484 149
484 148
483 147
482 146
482 145
482 144
482 143
482 142
481 141
481 140
481 139
481 138
481 137
481 136
481 135
481 134
480 133
480 132
480 131
479 130
479 129
479 128
479 127
479 126
479 125
479 124
478 123
477 122
477 121
476 120
476 119
476 118
476 117
476 116
476 115
476 114
476 113
476 112
476 111
476 110
476 109
476 108
475 107
475 106
475 105
475 104
475 103
475 102
475 101
475 100
475 99
475 98
475 97
474 96
474 95
473 94
473 93
472 92
472 91
472 90
472 89
472 88
472 87
471 86
471 85
471 84
470 83
470 82
470 81
470 80
469 79
468 78
467 78
466 77
465 77
464 77
463 77
462 76
462 75
461 74
462 73
462 72
462 71
463 70
464 69
465 68
466 67
467 66
467 65
468 64
468 63
468 62
468 61
468 60
468 59
468 58
468 57
468 56
467 55
467 54
467 53
467 52
467 51
467 50
467 49
467 48
467 47
466 46
466 45
466 46
465 47
465 48
464 49
463 50
463 51
462 52
461 53
461 54
460 55
460 56
459 57
458 58
458 59
457 60
456 61
456 62
456 63
455 64
455 65
455 66
455 67
454 68
454 69
453 70
452 71
452 72
452 73
452 74
452 75
451 76
451 77
450 78
450 79
449 80
448 81
448 82
448 83
448 84
447 85
447 86
446 87
446 88
445 89
444 90
444 91
444 92
444 93
444 94
444 95
443 96
443 97
443 98
443 99
442 100
442 101
441 102
440 103
439 103
439 104
439 105
439 106
439 107
439 108
438 109
438 110
438 111
438 112
437 113
437 114
437 115
436 116
436 117
435 118
435 119
434 120
433 121
433 122
433 123
433 124
433 125
433 126
433 127
433 128
433 129
433 130
432 131
432 132
432 133
431 134
431 135
430 136
429 137
428 137
428 138
428 139
428 140
428 141
427 142
427 143
427 144
427 145
426 146
426 147
426 148
425 149
424 150
423 150
423 151
423 152
423 153
423 154
423 155
423 156
423 157
423 158
423 159
423 160
422 161
422 162
422 163
421 164
420 165
420 166
420 167
420 168
420 169
420 170
420 171
420 172
420 173
420 174
420 175
419 176
419 177
419 178
419 179
419 180
420 181
420 182
420 183
420 184
419 185
419 186
419 187
419 188
418 189
417 190
417 191
417 192
417 193
417 194
417 195
418 196
418 197
418 198
418 199
418 200
419 201
419 202
419 203
419 204
419 205
419 206
419 207
418 208
419 209
419 210
419 211
419 212
420 213
420 214
420 215
420 216
421 217
421 218
421 219
422 220
421 221
421 222
421 223
422 224
422 225
423 226
424 227
424 228
425 229
425 230
426 231
426 232
427 233
427 234
428 235
429 236
430 237
431 238
431 239
432 240
433 241
434 242
435 243
436 244
437 245
438 246
439 247
440 248
441 248
442 249
443 250
444 251
445 252
446 252
447 253
448 254
449 255
448 256
447 257
446 257
445 257
444 257
443 258
442 258
441 258
440 258
439 258
438 259
437 259
436 259
435 259
434 259
433 259
432 259
431 259
430 259
429 259
428 259
427 259
426 259
425 259
424 259
423 259
422 259
421 260
420 260
419 260
418 260
417 260
416 260
415 260
414 260
413 260
412 260
411 260
410 261
409 261
408 261
407 261
406 261
405 261
404 261
403 261
402 261
401 261
400 261
399 262
398 262
397 262
396 262
395 262
394 262
393 262
392 262
391 262
390 262
389 262
388 262
387 262
386 262
385 263
384 263
383 263
382 263
381 263
380 263
379 263
378 263
377 263
376 263
375 263
374 263
373 263
372 263
371 263
370 263
369 262
368 261
368 260
368 259
369 258
370 257
370 256
371 255
371 254
372 253
372 252
373 251
373 250
374 249
374 248
374 247
375 246
375 245
376 244
376 243
376 242
377 241
377 240
378 239
378 238
378 237
379 236
379 235
379 234
380 233
380 232
380 231
381 230
381 229
381 228
381 227
382 226
382 225
382 224
383 223
383 222
383 221
383 220
384 219
384 218
384 217
384 216
385 215
385 214
385 213
386 212
386 211
386 210
386 209
387 208
387 207
387 206
387 205
387 204
387 203
388 202
388 201
388 200
388 199
389 198
389 197
389 196
389 195
390 194
390 193
390 192
390 191
390 190
390 189
390 188
390 187
390 186
390 185
391 184
391 183
391 182
391 181
391 180
391 179
391 178
391 177
391 176
391 175
391 174
391 173
391 172
391 171
390 170
390 169
390 168
390 167
390 166
390 165
389 164
389 163
389 162
389 161
389 160
389 159
389 158
388 157
388 156
388 155
388 154
388 153
387 152
387 151
387 150
387 149
387 148
387 147
387 146
387 145
387 144
387 143
386 142
386 141
386 140
385 139
385 138
384 137
384 136
384 135
384 134
384 133
384 132
384 131
384 130
384 129
384 128
384 127
383 126
383 125
383 124
383 123
383 122
383 121
383 120
383 119
383 118
382 117
382 116
382 115
382 114
382 113
381 112
381 111
381 110
381 109
381 108
380 107
380 106
380 105
380 104
379 103
379 102
379 101
379 100
379 99
379 98
378 97
378 96
378 95
378 94
377 93
377 92
376 91
376 90
376 89
376 88
375 87
375 86
375 85
375 84
375 83
375 82
375 81
375 80
374 79
374 78
373 77
373 76
373 75
372 74
372 73
372 72
372 71
372 70
372 69
372 68
372 67
372 66
372 65
372 64
372 63
371 62
371 61
370 60
370 59
370 58
370 57
369 56
369 55
369 54
368 53
368 52
368 51
367 50
367 49
366 48
366 47
366 46
365 45
365 44
364 43
363 43
