276 133
277 134
276 135
276 136
275 137
275 138
275 139
274 140
273 140
272 140
271 140
270 141
270 142
269 143
269 144
268 145
267 146
266 145
265 145
264 145
263 145
262 145
261 145
260 145
259 145
259 146
258 147
257 146
256 146
255 146
254 146
253 145
252 145
251 146
251 147
250 148
249 149
249 150
248 151
247 151
246 151
245 150
244 150
243 150
242 150
241 150
240 149
239 149
239 150
238 151
237 150
236 150
235 149
234 149
233 149
232 149
232 150
231 151
231 152
230 153
229 154
228 154
227 153
226 153
225 153
224 153
223 154
222 154
221 153
220 153
219 153
218 153
218 154
217 155
217 156
216 157
215 156
214 156
213 156
212 156
211 155
210 155
209 156
208 156
207 156
206 156
205 156
204 156
203 156
203 157
203 158
203 159
203 160
203 161
203 162
203 163
203 164
202 165
201 166
200 166
199 167
198 167
197 167
198 168
197 169
197 170
197 171
197 172
197 173
197 174
196 175
195 175
194 175
193 176
192 176
191 176
191 177
191 178
190 179
189 180
188 180
187 180
186 180
185 180
184 180
183 181
182 181
182 182
182 183
182 184
181 185
181 186
181 187
180 188
179 188
178 188
177 188
176 188
175 188
174 189
173 190
172 190
171 190
170 190
169 190
169 191
169 192
169 193
169 194
168 195
167 195
166 195
165 195
164 195
163 195
162 195
161 196
160 196
159 196
158 197
157 197
156 197
157 198
157 199
158 200
159 201
160 202
161 203
160 204
160 205
161 206
161 207
161 208
162 209
162 210
161 211
160 212
159 212
158 213
157 214
158 215
158 216
159 217
158 218
158 219
159 220
159 221
160 222
160 223
159 224
158 224
157 225
156 225
156 226
155 227
154 228
155 229
155 230
155 231
155 232
155 233
156 234
155 235
154 235
153 236
152 236
151 237
150 237
150 238
150 239
149 240
148 241
147 241
146 242
145 242
145 243
145 244
145 245
146 245
147 246
148 246
149 247
149 248
149 249
150 249
151 250
151 251
150 252
149 253
149 254
149 255
149 256
150 257
150 258
151 259
152 260
151 261
150 262
149 263
148 264
148 265
148 266
148 267
149 268
148 269
147 269
146 270
145 270
144 270
144 271
144 272
143 273
142 274
141 274
140 275
139 276
140 277
141 278
141 279
142 280
141 281
142 282
142 283
142 284
141 285
140 285
139 285
139 286
139 287
139 288
138 289
137 289
136 288
135 288
135 289
134 290
133 290
132 290
131 291
130 291
130 292
130 293
130 294
130 295
130 296
130 297
129 298
128 298
127 298
126 298
125 298
124 298
124 299
124 300
123 301
122 302
121 302
120 302
119 302
118 302
117 302
116 302
115 302
114 303
114 304
113 305
113 306
113 307
112 308
111 308
110 308
109 308
108 308
107 308
106 309
105 310
104 310
103 309
102 309
101 309
100 310
99 310
98 310
97 310
97 311
97 312
97 313
96 314
95 314
94 314
93 314
92 315
91 315
90 315
89 315
88 316
87 316
86 316
86 317
86 318
86 319
85 320
84 320
83 320
82 320
81 319
81 320
81 321
80 322
79 322
78 323
78 324
78 325
79 325
80 326
81 326
82 327
82 328
82 329
83 329
84 329
85 328
86 328
87 328
88 328
89 328
90 328
91 328
92 329
93 330
93 331
94 331
95 331
96 331
97 330
98 330
99 329
100 329
101 330
101 331
102 330
103 330
104 330
105 331
106 330
107 331
107 332
108 333
108 334
109 335
110 335
111 335
112 335
113 335
114 335
115 335
116 334
117 335
118 336
119 336
120 336
121 336
122 336
123 336
124 336
125 337
125 338
125 339
125 340
125 341
125 342
125 343
126 343
127 343
128 344
129 343
130 343
131 344
131 345
132 345
133 344
134 344
135 344
136 345
136 346
135 347
136 348
137 348
138 348
139 349
140 349
141 350
141 351
141 352
141 353
141 354
142 355
141 356
141 357
142 358
143 358
144 358
145 358
146 358
147 359
147 360
147 361
148 361
149 361
150 362
150 363
150 364
150 365
151 366
152 367
153 368
154 369
154 370
154 371
153 372
153 373
153 374
153 375
154 376
154 377
154 378
153 379
153 380
152 381
152 382
153 383
154 383
155 384
156 384
157 385
157 386
158 386
159 386
160 387
160 388
160 389
160 390
160 391
160 392
161 393
162 394
163 394
164 395
165 396
164 397
164 398
163 399
163 400
163 401
162 402
163 403
164 404
165 405
165 406
165 407
164 408
164 409
163 410
163 411
162 412
162 413
163 414
164 414
165 414
166 414
167 414
168 414
169 414
170 415
170 416
170 417
171 418
172 418
173 418
174 418
175 419
176 420
175 421
175 422
175 423
175 424
175 425
176 425
177 426
178 426
179 427
179 428
179 429
180 429
181 429
182 430
182 431
182 432
181 433
181 434
181 435
181 436
181 437
181 438
181 439
181 440
182 441
183 441
184 442
185 443
184 444
184 445
184 446
184 447
183 448
184 449
184 450
184 451
183 452
183 453
183 454
183 455
184 455
185 455
186 455
187 455
188 455
189 455
190 454
191 454
192 453
193 453
194 454
194 455
194 456
195 456
196 456
197 455
198 455
199 455
200 455
201 455
202 455
203 455
204 456
204 457
204 458
205 459
205 460
205 461
206 460
207 460
208 460
209 459
210 460
211 460
212 460
213 460
214 459
215 459
216 459
217 459
218 460
218 461
219 462
219 463
219 464
220 464
221 464
222 464
223 464
224 464
225 464
226 465
226 466
227 466
228 466
229 466
230 466
231 466
232 466
233 467
233 468
233 469
234 470
234 471
234 472
234 473
235 473
236 473
237 474
238 474
239 474
240 475
240 476
240 477
240 478
240 479
240 480
240 481
240 482
240 483
241 483
242 483
243 483
244 483
245 482
246 482
247 482
248 482
249 481
250 481
251 480
252 480
253 479
254 480
255 481
256 482
257 481
258 481
259 481
260 481
261 480
262 480
263 479
264 480
265 481
265 482
266 483
266 484
267 484
268 484
269 484
270 483
271 482
272 482
273 482
274 483
275 482
276 482
277 481
278 481
279 480
280 480
281 480
282 481
283 482
283 483
284 484
285 484
286 483
287 483
288 482
289 482
290 481
291 480
292 480
293 481
294 480
295 480
296 480
297 479
298 479
299 478
300 479
301 480
301 481
302 482
303 483
304 483
305 483
306 483
307 483
308 482
309 482
309 481
310 480
311 481
312 482
312 483
313 482
314 482
315 482
316 482
317 481
318 481
319 482
319 483
320 484
320 485
321 486
322 486
323 486
324 487
325 488
325 489
325 490
325 491
325 492
325 493
326 493
327 493
328 492
329 492
330 492
331 491
332 491
333 491
334 490
335 489
336 490
336 491
337 491
338 491
339 490
340 490
341 490
342 490
343 489
344 489
345 488
346 489
346 490
347 491
348 492
349 492
350 491
351 491
352 490
353 490
354 489
355 488
356 488
357 489
358 489
359 488
360 487
361 486
362 485
363 486
364 486
365 487
366 488
367 487
368 487
369 486
370 486
371 486
372 485
373 484
374 483
375 483
376 483
377 482
378 481
379 481
380 480
381 479
382 479
383 479
384 480
385 481
386 481
387 480
388 479
389 478
390 477
391 477
392 478
392 477
393 476
394 475
395 474
396 473
397 473
398 474
399 473
400 472
401 471
402 470
403 469
404 469
404 468
405 467
406 467
407 467
408 468
409 468
410 469
411 468
412 468
413 467
413 466
414 465
415 465
416 466
416 465
417 464
417 463
418 462
419 463
420 463
421 462
421 461
422 460
423 459
424 458
425 458
426 458
427 458
428 457
429 457
430 456
430 455
431 454
432 454
433 455
434 454
435 453
436 452
437 452
438 453
439 453
440 454
441 455
442 454
443 454
444 453
445 452
446 451
447 451
448 451
448 450
449 449
450 448
451 448
452 449
453 449
454 448
455 447
456 446
457 445
458 445
459 444
460 443
461 442
462 443
463 443
464 444
465 444
466 443
466 442
467 441
468 441
469 441
470 440
471 439
472 438
473 437
474 438
474 439
475 439
476 439
477 440
478 440
479 441
480 441
481 440
482 439
483 439
484 438
485 437
486 438
487 437
488 436
489 435
490 434
491 433
492 434
493 434
494 434
495 433
496 432
497 431
498 431
499 430
499 429
500 428
501 427
502 428
503 428
504 428
505 427
506 426
507 425
508 424
509 423
510 423
511 422
512 421
512 420
513 419
514 418
515 418
516 418
517 419
518 419
519 418
520 417
520 416
521 415
522 414
523 413
523 412
524 411
525 411
526 410
527 409
527 408
528 407
528 406
528 405
529 404
530 405
531 405
532 406
533 406
534 405
535 404
536 403
536 402
536 401
537 400
538 400
539 400
539 399
539 398
540 397
541 396
542 395
543 395
544 394
545 393
546 393
547 394
548 395
549 396
550 395
551 395
552 394
553 393
554 393
555 393
556 392
557 391
557 390
558 389
559 389
560 390
560 389
561 388
562 387
563 386
563 385
564 384
565 383
566 383
567 383
568 383
568 382
569 381
570 380
570 379
571 378
571 377
572 376
573 375
574 374
574 373
575 372
576 372
577 371
578 370
579 369
579 368
580 367
581 366
581 365
581 364
581 363
582 362
582 361
582 360
583 359
583 358
583 357
584 356
584 355
584 354
584 353
585 352
585 351
585 350
585 349
585 348
585 347
585 346
585 345
585 344
585 343
584 342
584 341
584 340
584 339
584 338
583 337
583 336
582 335
582 334
582 333
581 332
581 331
580 330
580 329
580 328
579 327
579 326
579 325
579 324
580 323
581 322
582 322
583 322
584 322
585 322
586 323
587 323
588 323
589 323
590 323
591 323
592 324
593 324
594 324
595 324
596 324
597 324
598 324
599 325
600 326
601 325
602 325
603 326
604 326
605 326
606 327
607 327
608 327
609 328
610 328
611 328
612 328
613 328
614 329
615 329
616 330
617 329
618 330
619 330
620 330
621 330
622 330
623 331
624 331
625 331
626 332
627 332
628 332
629 332
630 332
631 332
632 333
633 334
634 334
635 334
636 334
637 335
638 335
639 335
640 335
641 335
642 336
643 336
644 336
645 336
646 336
647 336
648 337
649 337
650 337
651 337
652 338
653 337
654 338
655 339
655 340
656 340
657 340
658 339
659 338
660 338
661 337
662 336
662 335
661 334
660 333
659 333
658 333
657 333
656 333
655 333
654 334
653 333
652 332
651 333
650 333
649 332
648 332
647 332
646 331
645 331
645 332
644 333
643 332
642 332
641 332
640 331
640 330
639 330
638 330
637 330
636 330
635 329
634 329
633 329
632 329
631 328
630 328
629 328
628 328
627 328
626 327
625 327
624 327
623 327
622 327
621 327
620 327
619 326
618 326
617 326
616 326
615 325
614 325
613 325
612 325
611 325
610 325
609 325
608 325
607 324
606 324
605 324
604 324
603 323
602 323
601 323
600 323
599 323
598 322
597 322
596 322
595 322
594 322
593 321
592 321
591 321
590 321
589 321
588 320
587 321
586 320
585 320
584 320
583 320
582 320
581 319
580 319
579 318
578 318
577 318
576 318
575 317
574 316
573 315
572 314
572 313
572 312
572 311
572 310
572 309
573 308
573 307
574 306
575 305
576 304
577 303
577 302
578 301
578 300
579 299
580 298
580 297
580 296
581 295
581 294
581 293
581 292
581 291
581 290
581 289
581 288
582 287
583 286
583 285
583 284
583 283
583 282
583 281
583 280
583 279
582 278
582 277
581 277
580 276
580 275
580 274
580 273
580 272
580 271
580 270
580 269
580 268
580 267
579 266
579 265
579 264
579 263
579 262
579 261
579 260
579 259
579 258
578 257
578 256
577 255
576 254
575 254
574 254
573 254
572 253
572 252
572 251
572 250
572 249
571 248
571 247
570 246
570 245
570 244
570 243
570 242
569 241
568 240
568 239
567 238
566 237
565 237
564 237
563 236
563 235
563 234
563 233
562 232
561 231
561 230
560 230
559 229
558 228
558 227
558 226
557 226
556 225
555 224
554 223
553 223
552 224
551 224
550 225
549 225
548 224
547 223
547 222
546 221
545 220
544 219
544 218
543 217
542 216
541 215
540 215
539 215
538 215
537 214
537 213
536 212
535 211
535 210
534 209
533 208
533 207
532 206
531 205
530 205
529 205
528 204
527 203
526 202
525 201
525 200
524 199
523 199
522 199
521 198
521 197
520 197
519 196
518 195
517 194
516 194
515 195
514 196
513 196
512 195
511 194
510 193
509 192
509 191
508 191
507 190
506 189
506 188
505 187
504 187
503 186
502 186
501 185
501 184
500 183
499 182
499 181
498 180
497 181
496 181
495 180
495 179
494 178
493 178
492 178
491 177
490 176
489 176
488 176
487 177
486 177
485 177
484 178
483 177
482 176
481 175
481 174
480 173
479 172
478 171
477 171
476 172
475 171
474 170
473 169
473 168
472 167
472 166
471 167
470 167
469 166
468 165
468 164
467 164
466 163
465 162
464 163
463 164
462 164
461 165
460 165
459 164
458 164
457 163
456 162
456 161
455 161
454 160
453 160
452 160
451 160
450 159
450 158
449 157
449 156
448 156
447 156
446 155
445 154
444 153
443 152
442 151
441 150
440 151
439 151
438 151
437 152
436 151
435 150
434 149
433 148
433 147
432 147
431 147
430 146
429 145
428 145
427 144
426 143
425 142
424 142
423 143
422 143
421 144
420 144
419 143
418 142
417 141
416 140
415 141
414 141
413 140
412 139
411 139
410 138
409 137
408 138
407 139
406 140
405 140
404 139
403 138
402 138
401 137
400 137
399 138
398 138
397 137
396 136
395 136
394 136
393 136
392 135
391 135
390 135
389 134
389 135
389 136
388 137
388 138
387 139
386 139
385 138
384 138
384 139
383 140
382 141
381 141
380 140
379 140
378 140
377 139
376 139
375 139
374 140
373 140
372 141
371 141
370 140
369 140
368 139
367 139
366 139
365 139
364 140
363 139
362 139
361 139
360 138
359 138
358 139
357 140
356 141
355 141
354 141
354 142
353 143
352 142
351 141
350 141
349 140
348 139
347 139
346 139
345 140
344 140
343 139
343 138
342 138
341 138
340 138
339 137
338 137
337 136
336 137
335 138
334 139
333 140
332 140
331 139
330 139
329 138
328 137
327 137
326 136
325 136
324 137
323 137
322 136
321 136
320 136
319 135
318 134
317 134
316 134
315 135
314 136
313 137
312 138
311 137
310 137
309 137
308 136
307 136
306 137
305 136
304 135
303 135
302 135
301 134
300 134
300 135
299 136
298 137
297 137
296 137
295 136
294 136
293 135
292 135
291 135
290 134
289 135
288 136
287 137
286 136
285 135
284 134
283 134
282 134
281 134
280 134
279 133
278 133
277 133
276 133
