85 1
85 2
84 3
84 4
84 5
83 6
83 7
83 8
82 9
82 10
82 11
82 12
81 13
81 14
81 15
81 16
81 17
81 18
80 19
80 20
80 21
80 22
80 23
80 24
80 25
80 26
80 27
81 28
81 29
81 30
81 31
81 32
82 33
82 34
82 35
82 36
83 37
83 38
83 39
84 40
84 41
84 42
84 43
85 44
85 45
85 46
84 47
83 46
82 45
81 44
80 43
79 42
79 41
78 40
77 39
76 38
75 37
74 36
73 35
72 34
71 34
70 33
69 32
68 32
67 31
66 30
65 29
64 28
63 28
62 27
61 27
60 26
59 25
58 25
57 24
56 23
55 23
54 23
53 22
52 22
51 21
50 20
49 20
48 19
47 19
46 18
45 18
44 18
43 17
42 17
41 17
40 17
39 17
38 17
37 17
36 17
35 17
34 17
33 17
32 17
31 17
30 17
29 17
28 17
27 17
26 18
25 18
24 18
23 18
22 18
21 18
20 19
19 19
18 19
18 20
18 21
18 22
18 23
17 24
17 25
16 26
15 26
14 26
13 27
12 27
11 27
10 27
9 27
8 27
7 27
6 27
5 26
4 26
3 26
2 25
1 25
1 26
1 27
1 28
1 29
1 30
1 31
1 32
1 33
1 34
1 35
1 36
1 37
1 38
1 39
1 40
1 41
1 42
1 43
1 44
1 45
1 46
1 47
1 48
1 49
2 50
2 51
3 52
3 53
3 54
3 55
4 56
5 57
5 58
6 59
6 60
7 61
8 62
8 63
9 64
10 65
11 66
11 67
12 68
13 69
14 70
15 71
16 72
17 73
17 74
18 75
19 76
20 77
21 78
22 79
23 80
24 81
25 82
26 83
27 83
28 84
29 84
30 85
31 86
32 86
33 87
34 88
35 89
34 90
33 90
32 90
31 90
30 90
29 90
28 91
27 91
26 90
25 90
24 90
23 90
22 90
21 90
20 90
19 91
18 91
17 91
16 91
15 91
14 92
13 92
12 92
11 92
10 93
9 93
8 93
7 93
6 94
5 94
4 94
3 94
2 95
1 95
1 96
1 97
1 98
1 99
1 100
1 101
1 102
1 103
1 104
1 105
1 106
1 107
1 108
1 109
2 110
2 111
3 112
3 113
4 114
4 115
4 116
5 117
5 118
6 119
7 120
7 121
8 122
9 123
9 124
10 125
11 126
12 127
13 128
14 129
15 130
16 131
17 132
18 133
19 134
20 135
21 136
22 137
23 138
24 138
25 139
26 140
27 140
28 141
29 142
30 142
31 143
32 144
33 144
34 145
35 146
36 147
37 147
38 148
39 148
40 149
41 150
42 150
43 151
44 152
45 152
46 153
47 154
48 154
49 155
50 155
51 156
52 156
53 157
54 157
55 158
56 158
57 158
58 159
59 159
60 160
61 160
62 160
63 161
64 161
65 162
66 162
67 163
68 163
69 164
70 164
71 164
72 165
73 165
74 166
75 166
76 166
77 167
78 167
79 167
80 168
81 168
82 168
83 168
84 169
85 169
86 169
87 170
88 170
89 170
90 171
91 171
92 171
93 172
94 172
95 172
96 173
97 173
98 173
99 173
100 174
101 174
102 175
103 175
104 176
105 176
106 177
107 178
108 179
107 180
106 181
105 181
104 182
103 182
102 182
101 182
100 183
99 183
98 183
97 183
96 184
95 184
94 185
93 185
92 185
91 186
90 186
89 186
88 187
87 187
86 187
85 187
84 188
83 188
82 188
81 188
80 189
79 189
78 189
77 190
76 190
75 190
74 190
73 191
72 191
71 191
70 192
69 192
68 192
67 193
66 193
65 194
64 194
63 195
62 195
61 196
60 196
59 197
58 197
57 198
56 198
55 199
54 199
53 200
52 200
51 201
50 201
49 202
48 202
47 203
46 203
45 204
44 204
43 205
42 205
41 205
40 206
39 207
38 208
37 208
36 209
35 210
34 210
33 211
32 212
31 212
30 213
29 214
28 214
27 215
26 216
25 217
24 217
24 218
23 219
22 220
22 221
21 222
20 223
19 224
18 225
17 225
16 226
15 227
14 228
13 229
12 229
11 230
10 230
9 231
8 232
8 233
9 233
10 234
10 235
11 235
12 236
13 237
14 237
15 238
16 239
17 240
18 240
19 241
20 242
21 243
22 244
23 245
23 246
24 247
25 248
26 249
27 250
28 250
29 251
30 252
31 252
32 252
33 252
34 253
35 253
36 253
37 254
38 254
39 254
40 255
41 255
42 255
43 255
44 256
45 256
46 256
47 256
48 256
49 256
50 256
51 256
52 256
53 257
53 258
53 259
52 260
52 261
51 262
51 263
51 264
50 265
50 266
50 267
49 268
49 269
49 270
48 271
48 272
48 273
48 274
48 275
48 276
48 277
47 278
47 279
47 280
48 281
49 282
50 282
51 282
52 283
53 283
54 283
55 283
56 283
57 283
58 283
59 283
60 283
61 284
62 284
63 284
64 283
65 284
66 284
67 284
68 284
69 284
70 284
71 284
72 284
73 284
74 285
74 286
74 287
74 288
75 288
76 289
77 289
78 289
79 289
80 289
81 288
82 288
83 288
84 288
85 288
86 288
87 288
88 288
89 287
90 287
91 287
92 287
93 286
94 286
95 286
96 286
97 286
98 286
99 286
100 285
101 285
102 285
103 285
104 285
105 285
106 285
107 284
108 284
109 284
110 284
111 284
112 283
113 283
114 283
115 282
116 282
117 282
118 282
119 281
120 281
121 281
122 281
123 280
124 280
125 280
126 280
127 279
128 279
129 279
130 279
131 279
132 279
133 279
134 279
135 279
136 279
137 280
138 280
139 280
140 280
141 280
142 279
143 279
144 280
145 280
146 280
147 280
148 280
149 280
150 280
151 280
152 280
153 280
154 280
155 280
156 280
157 280
158 280
159 280
160 280
161 280
162 280
163 279
164 279
165 279
166 279
167 279
168 279
169 279
170 279
171 279
172 279
173 279
174 279
175 279
176 279
177 278
178 278
179 278
180 278
181 278
182 277
183 277
184 277
185 277
186 277
187 277
188 277
189 277
190 277
191 276
192 276
193 276
194 276
195 276
196 276
197 276
198 276
199 276
200 276
201 275
202 275
203 275
204 275
205 275
206 275
207 275
208 274
209 274
210 274
211 274
212 274
213 273
214 273
215 273
216 273
217 272
218 272
219 272
220 272
221 272
222 272
223 272
224 271
225 271
226 271
227 271
228 271
229 271
230 271
231 270
232 270
233 270
234 270
235 270
236 270
237 270
238 270
239 270
240 271
241 271
242 271
243 271
244 271
245 272
246 272
247 273
248 273
249 274
250 274
251 275
252 276
253 276
254 277
255 278
256 278
257 279
258 280
259 281
260 281
261 282
262 283
263 284
263 285
264 286
264 287
264 288
264 289
263 290
262 291
261 292
260 292
259 293
258 294
257 294
256 295
255 295
254 295
253 296
252 297
251 297
250 297
249 298
248 298
247 298
246 299
245 299
244 300
243 300
242 300
241 300
240 301
239 301
238 301
237 302
236 302
235 302
234 303
233 303
232 304
231 304
230 304
229 305
228 305
227 305
226 306
225 306
224 306
223 307
222 307
221 308
220 308
219 308
218 309
217 309
216 310
215 310
214 310
213 311
212 311
211 311
210 312
209 312
208 313
207 313
206 314
205 314
204 315
203 315
202 315
201 316
200 316
199 317
198 317
197 318
196 318
195 319
194 319
193 320
192 320
191 320
190 321
189 321
188 321
187 321
186 322
185 322
184 323
183 323
182 323
181 324
180 324
179 325
178 325
177 325
176 326
175 326
174 327
173 327
172 327
171 328
170 328
169 329
168 329
167 329
166 330
165 330
164 331
163 331
162 331
161 332
160 332
159 332
158 333
157 333
156 333
155 334
154 334
153 334
152 335
151 335
150 335
149 335
148 336
147 336
146 336
145 337
144 337
143 337
142 338
141 338
140 338
139 339
138 339
137 339
136 340
135 340
134 340
133 341
132 341
131 341
130 341
129 342
128 342
127 342
126 342
125 342
124 343
123 343
122 343
121 344
120 344
119 345
118 345
117 346
116 346
115 347
114 348
114 349
113 350
112 351
111 351
110 351
109 351
108 352
107 352
106 352
105 353
104 353
103 354
102 354
101 355
100 355
99 356
98 356
97 357
96 358
95 358
94 358
93 359
92 360
91 361
91 362
90 363
89 364
88 365
87 365
86 366
85 366
84 367
83 367
82 368
81 369
80 370
79 370
78 371
78 372
77 373
77 374
77 375
78 376
79 377
80 378
80 379
80 380
80 381
79 382
78 383
77 384
76 385
75 386
75 387
74 388
73 389
72 390
71 391
70 392
69 393
68 394
67 395
66 396
66 397
65 398
64 398
65 398
66 399
67 400
68 400
69 401
70 401
71 402
72 403
73 404
74 405
75 406
76 407
77 407
78 408
79 409
80 409
81 410
82 411
83 411
84 412
85 412
86 412
87 412
88 413
89 413
90 413
91 413
92 413
93 413
94 413
95 413
96 413
97 413
98 413
99 413
100 413
101 413
102 413
103 413
104 413
105 413
106 413
107 413
108 413
109 413
110 413
111 413
112 413
113 413
114 413
115 414
114 415
113 416
113 417
112 418
112 419
111 420
111 421
110 422
110 423
109 424
109 425
108 426
108 427
108 428
107 429
107 430
107 431
107 432
107 433
107 434
106 435
107 436
108 436
109 437
110 437
111 437
112 438
113 438
114 438
115 439
116 439
117 440
118 440
119 440
120 440
121 441
122 441
123 441
124 442
125 442
126 442
127 443
128 443
129 443
130 443
131 443
132 443
133 443
134 443
135 443
136 443
137 443
138 443
139 443
140 443
141 443
142 443
143 443
144 443
145 443
146 443
147 442
148 442
149 442
150 442
151 442
152 442
153 442
154 442
155 442
156 442
157 442
158 441
159 441
160 441
161 441
162 440
163 440
164 440
165 439
166 439
167 438
168 438
169 438
170 437
171 437
172 437
173 436
174 436
175 436
176 435
177 435
178 435
179 434
180 434
181 433
182 433
183 433
184 432
185 432
186 432
187 431
188 431
189 430
190 430
191 429
192 429
193 429
194 428
195 428
196 427
197 427
198 427
199 426
200 426
201 426
202 425
203 425
204 425
205 424
206 424
207 423
208 423
209 424
209 425
209 426
209 427
208 428
208 429
208 430
207 431
207 432
207 433
206 434
206 435
205 436
205 437
205 438
204 439
204 440
203 441
203 442
203 443
202 444
202 445
202 446
201 447
201 448
201 449
201 450
200 451
200 452
200 453
200 454
200 455
200 456
200 457
200 458
200 459
200 460
200 461
200 462
200 463
200 464
200 465
200 466
200 467
200 468
201 469
201 470
201 471
201 472
201 473
201 474
202 475
202 476
202 477
203 477
204 478
205 478
206 478
207 478
208 478
209 478
210 478
211 478
212 478
213 478
214 478
215 478
216 478
217 478
218 478
219 478
220 477
221 477
222 477
223 477
224 477
225 477
226 477
227 477
228 477
229 476
230 476
231 476
232 476
233 476
234 475
235 475
236 475
237 474
238 474
239 474
240 473
241 473
242 472
243 472
244 471
245 470
246 469
247 468
248 468
249 467
250 466
251 465
252 466
253 467
253 468
253 469
253 470
254 471
254 472
254 473
254 474
254 475
254 476
254 477
254 478
254 479
255 479
256 479
257 478
258 478
259 478
260 477
261 477
262 477
263 477
264 476
265 476
266 475
267 475
268 474
269 474
270 473
271 473
272 472
273 472
274 471
275 470
276 470
277 469
278 469
279 468
280 468
281 467
282 466
283 466
284 466
285 465
286 464
287 463
288 463
289 462
290 461
291 460
292 459
293 458
294 457
295 457
296 456
297 455
298 454
299 453
300 452
301 451
302 451
303 450
304 449
305 449
306 448
307 447
308 447
309 446
310 446
311 445
312 444
313 443
314 443
315 442
316 442
317 441
318 440
319 439
320 438
321 438
322 437
323 436
324 436
325 435
326 434
327 433
328 432
329 432
330 431
331 430
332 429
333 429
334 428
335 427
336 426
337 425
338 424
339 424
340 423
341 422
342 421
343 420
344 420
345 419
346 418
347 417
348 417
349 416
350 416
351 415
352 415
353 414
354 414
355 413
356 413
357 412
358 411
359 411
360 410
361 410
362 409
363 408
364 408
365 407
366 406
367 406
368 405
369 405
370 404
371 404
372 403
373 403
374 402
375 402
376 401
377 401
378 401
379 400
380 400
381 399
382 399
383 398
384 398
385 397
386 397
387 396
388 396
389 395
390 395
391 395
392 394
393 394
394 393
395 393
396 393
397 392
398 392
399 392
400 391
401 391
402 391
403 390
404 390
405 390
406 389
407 389
408 389
409 388
410 388
411 388
412 387
413 387
414 387
415 387
416 387
417 386
418 386
419 386
420 386
421 386
422 385
423 385
424 385
425 384
426 384
427 384
428 384
429 384
430 383
431 383
432 383
433 382
434 382
435 382
436 382
437 381
438 381
439 381
440 380
441 380
442 380
443 380
444 379
445 379
446 379
447 379
448 378
449 378
450 378
451 378
452 377
453 377
454 377
455 377
456 376
457 376
458 376
459 375
460 375
461 375
462 374
463 374
464 374
465 374
466 374
467 373
468 373
469 373
470 373
471 372
472 372
473 372
474 372
475 371
476 371
477 371
478 371
479 370
480 370
481 370
482 370
483 370
484 370
485 370
486 370
487 370
488 370
489 370
490 370
491 370
492 370
493 370
494 370
495 370
496 371
497 371
498 371
499 371
500 371
501 372
502 372
503 372
504 372
505 373
506 373
507 373
508 373
509 374
510 374
511 374
512 374
513 375
514 375
515 375
516 375
517 376
518 376
519 376
520 376
521 377
522 377
523 377
524 377
525 378
526 378
527 378
528 379
529 379
530 379
531 379
532 380
533 380
534 381
535 381
536 381
537 382
538 382
539 383
540 384
541 384
542 384
543 385
544 385
545 386
546 387
547 387
548 388
549 388
550 388
551 389
552 389
553 390
554 390
555 391
556 391
557 392
558 392
559 393
560 393
561 394
562 394
563 395
564 395
565 396
566 396
567 397
568 397
569 397
570 398
571 399
572 399
573 400
574 400
575 400
576 401
577 401
578 402
579 402
580 403
581 403
582 403
583 404
584 404
585 405
586 405
587 405
588 406
589 406
590 407
591 407
592 407
593 408
594 408
595 409
596 409
597 410
598 410
599 411
600 411
601 412
602 412
603 412
604 413
605 413
606 414
607 414
608 415
609 415
610 416
611 416
612 416
613 417
614 417
615 418
616 418
617 419
618 419
619 420
620 420
621 421
622 421
623 421
624 422
625 422
626 423
627 423
628 423
629 424
630 424
631 425
632 425
633 426
634 426
635 427
636 427
637 428
638 428
639 428
640 429
641 430
642 430
643 431
644 431
645 431
646 432
647 432
648 432
649 433
650 433
651 434
652 434
653 435
654 435
655 436
656 436
657 437
658 437
659 438
660 438
661 438
662 439
663 439
664 440
665 440
666 441
667 441
668 442
669 442
670 443
671 443
672 443
673 444
674 444
675 445
676 445
677 446
678 446
679 447
680 447
681 447
682 448
683 448
684 448
685 449
686 449
687 450
688 450
689 451
690 451
691 452
692 452
693 453
694 453
695 454
696 454
697 454
698 455
699 455
700 456
701 456
702 456
703 457
704 457
705 458
706 458
707 459
708 459
709 460
710 460
711 461
712 461
713 462
714 462
715 463
716 463
717 463
718 464
719 464
720 465
721 465
722 466
723 466
724 467
725 467
726 468
727 468
728 468
729 469
730 469
731 470
732 470
733 471
734 471
735 472
736 472
737 472
738 473
739 473
740 473
741 474
742 474
743 475
744 475
745 476
746 476
747 476
748 477
749 477
750 478
751 478
752 478
753 479
754 480
755 480
756 480
757 481
758 481
759 482
760 482
761 482
762 483
763 483
764 483
765 484
766 484
767 484
768 485
769 485
770 485
771 486
772 486
773 486
774 487
775 487
776 487
777 487
778 488
779 488
780 488
781 489
782 489
783 489
784 490
785 490
786 490
787 490
788 491
789 492
790 492
791 492
792 492
793 492
794 492
795 492
796 492
797 492
798 492
799 492
800 492
800 491
800 490
800 489
800 488
800 487
800 486
800 485
800 484
799 484
798 484
797 483
796 483
795 483
794 482
793 482
792 482
791 482
790 481
789 481
788 481
787 481
786 481
785 481
784 480
783 480
782 480
781 480
780 480
779 480
778 479
777 479
776 479
775 479
774 479
773 478
772 478
771 478
770 478
769 478
768 477
767 477
766 477
765 476
764 476
763 476
762 475
761 475
760 475
759 474
758 474
757 474
756 473
755 473
754 473
753 472
752 472
751 472
750 471
749 471
748 471
747 470
746 470
745 469
744 469
743 469
742 468
741 468
740 467
739 467
738 466
737 466
736 466
735 465
734 465
733 465
732 464
731 464
730 463
729 463
728 462
727 462
726 461
725 461
724 460
723 460
722 460
721 459
720 459
719 458
718 458
717 458
716 457
715 457
714 456
713 456
712 455
711 455
710 454
709 454
708 454
707 453
706 453
705 452
704 452
703 451
702 451
701 450
700 450
699 449
698 449
697 449
696 448
695 448
694 447
693 447
692 446
691 446
690 445
689 445
688 445
687 445
686 444
685 444
684 444
683 444
682 443
681 442
680 442
679 441
678 441
677 440
676 440
675 439
674 439
673 438
672 438
671 438
670 437
669 437
668 436
667 436
666 435
665 434
664 434
663 434
662 433
661 433
660 432
659 432
658 432
657 431
656 430
655 430
654 430
653 429
652 429
651 428
650 428
649 427
648 427
647 426
646 426
645 426
644 425
643 424
642 424
641 423
640 423
639 423
638 422
637 422
636 421
635 421
634 420
633 420
632 420
631 419
630 418
629 418
628 417
627 417
626 417
625 416
624 416
623 415
622 415
621 414
620 414
619 413
618 413
617 412
616 412
615 411
614 411
613 411
612 410
611 410
610 409
609 409
608 408
607 408
606 407
605 407
604 407
603 406
602 406
601 405
600 405
599 404
598 404
597 403
596 403
595 402
594 402
593 402
592 401
591 401
590 400
589 400
588 400
587 399
586 399
585 398
584 398
583 397
582 397
581 396
580 396
579 395
578 395
577 394
576 394
575 393
574 393
573 392
572 391
571 391
570 390
569 390
568 389
567 388
566 388
565 387
564 387
563 386
562 386
561 385
560 385
559 385
558 384
557 384
556 383
555 383
554 382
553 382
552 381
551 381
550 380
549 379
548 379
547 378
546 378
545 377
544 377
543 376
542 376
541 375
540 375
539 374
538 374
537 373
536 373
535 372
534 371
533 370
532 370
531 369
530 368
529 367
528 366
527 365
526 364
525 363
524 362
523 361
522 360
521 359
520 358
519 357
518 356
517 355
516 354
515 353
514 352
513 351
513 350
512 349
511 348
510 347
509 346
508 345
508 344
507 343
507 342
506 341
506 340
505 339
505 338
504 337
504 336
503 335
503 334
503 333
502 332
502 331
502 330
502 329
501 328
501 327
501 326
501 325
501 324
500 323
500 322
500 321
500 320
500 319
500 318
499 317
499 316
499 315
499 314
499 313
499 312
499 311
499 310
499 309
499 308
499 307
499 306
499 305
499 304
499 303
499 302
499 301
499 300
499 299
499 298
499 297
499 296
499 295
499 294
499 293
498 292
498 291
498 290
498 289
498 288
498 287
498 286
498 285
497 284
497 283
497 282
497 281
497 280
497 279
497 278
496 277
496 276
496 275
496 274
496 273
495 272
495 271
495 270
495 269
494 268
494 267
494 266
494 265
494 264
494 263
494 262
494 261
494 260
494 259
494 258
494 257
495 256
495 255
495 254
495 253
495 252
495 251
495 250
495 249
495 248
495 247
496 246
496 245
496 244
496 243
496 242
496 241
496 240
497 239
497 238
497 237
497 236
497 235
497 234
497 233
498 232
498 231
498 230
498 229
499 228
499 227
499 226
499 225
500 224
500 223
500 222
501 221
501 220
501 219
502 218
502 217
502 216
503 215
503 214
504 213
504 212
504 211
504 210
505 209
505 208
505 207
505 206
506 205
506 204
506 203
506 202
507 201
507 200
507 199
508 198
508 197
508 196
508 195
508 194
509 193
509 192
509 191
509 190
509 189
510 188
510 187
510 186
511 185
511 184
511 183
511 182
511 181
511 180
511 179
512 178
512 177
512 176
512 175
512 174
512 173
512 172
512 171
512 170
512 169
512 168
512 167
512 166
512 165
513 164
513 163
513 162
513 161
513 160
513 159
513 158
513 157
513 156
513 155
513 154
513 153
513 152
513 151
513 150
513 149
512 148
512 147
512 146
512 145
512 144
512 143
512 142
512 141
512 140
512 139
512 138
512 137
512 136
511 135
511 134
511 133
511 132
511 131
511 130
511 129
511 128
511 127
510 126
509 125
509 124
509 123
509 122
510 121
510 120
510 119
510 118
510 117
510 116
511 115
511 114
511 113
511 112
511 111
511 110
511 109
511 108
511 107
511 106
511 105
511 104
510 103
510 102
510 101
510 100
510 99
510 98
510 97
510 96
509 95
509 94
509 93
508 92
508 91
508 90
507 89
507 88
506 87
505 88
504 89
503 90
502 91
501 92
500 93
499 94
498 95
497 96
496 96
495 97
494 97
493 97
492 98
491 98
490 99
489 99
488 100
487 100
486 101
485 101
484 102
483 102
482 103
481 104
480 105
479 105
478 106
477 107
476 107
475 108
474 109
473 109
472 110
471 111
470 112
469 113
468 113
467 114
466 115
465 116
464 116
463 117
462 118
461 119
460 120
459 119
459 118
459 117
459 116
459 115
458 114
458 113
458 112
458 111
458 110
458 109
457 108
457 107
457 106
457 105
457 104
457 103
457 102
457 101
456 100
456 99
456 98
456 97
456 96
456 95
456 94
456 93
456 92
456 91
455 90
455 89
455 88
455 87
454 86
454 85
454 84
454 83
453 82
453 81
452 80
452 79
451 78
451 77
451 76
450 75
450 74
449 73
449 72
448 71
448 70
448 69
448 68
447 67
447 66
446 65
446 64
445 63
444 62
444 61
443 60
442 59
442 58
441 57
440 56
440 55
439 54
438 53
437 52
436 51
435 50
434 49
433 49
432 50
431 51
430 52
429 53
429 54
428 55
428 56
427 57
426 58
425 58
424 57
424 56
424 55
424 54
423 53
423 52
423 51
422 50
421 49
421 48
420 47
420 46
419 45
418 44
417 43
416 42
415 41
414 40
413 39
412 38
411 37
410 36
409 35
409 34
408 35
407 36
406 37
405 38
404 38
403 39
402 40
401 41
400 42
399 43
398 43
397 43
396 43
395 43
394 44
393 45
392 46
391 46
391 47
390 48
389 49
388 50
388 51
387 52
386 53
386 54
385 55
385 56
385 57
384 58
384 59
384 60
383 61
383 62
382 63
382 64
382 65
381 66
381 67
381 68
380 69
380 70
380 71
380 72
379 73
379 74
379 75
378 76
378 77
378 78
378 79
378 80
377 81
377 82
377 83
376 84
376 85
376 86
375 87
375 88
374 89
374 90
374 91
374 92
373 93
373 94
373 95
373 96
373 97
373 98
372 99
372 100
371 101
371 102
370 103
370 104
370 105
369 106
369 107
369 108
368 109
368 110
367 111
367 112
366 113
366 114
366 115
365 116
365 117
365 118
365 119
364 120
364 121
364 122
363 123
363 124
363 125
362 126
362 127
363 128
362 129
362 130
362 131
362 132
362 133
362 134
362 135
361 136
362 137
362 138
362 139
362 140
362 141
362 142
362 143
362 144
362 145
361 146
361 147
361 148
361 149
361 150
361 151
361 152
361 153
361 154
362 155
362 156
362 157
362 158
362 159
362 160
362 161
363 162
363 163
363 164
363 165
363 166
363 167
363 168
363 169
363 170
363 171
363 172
363 173
363 174
363 175
364 176
364 177
364 178
364 179
364 180
364 181
364 182
364 183
364 184
364 185
364 186
364 187
365 188
365 189
365 190
365 191
365 192
365 193
365 194
365 195
365 196
365 197
364 198
364 199
364 200
364 201
364 202
363 203
363 204
363 205
363 206
363 207
363 208
362 209
362 210
361 211
360 210
359 209
358 208
357 207
356 206
356 205
355 204
354 203
353 202
352 201
351 200
350 199
349 198
348 197
347 196
347 195
346 194
345 193
344 192
344 191
343 190
342 189
342 188
341 187
340 186
340 185
339 184
339 183
338 182
338 181
337 180
336 179
336 178
335 177
334 176
334 175
333 174
332 173
332 172
332 171
331 170
331 169
330 168
330 167
329 166
329 165
329 164
328 163
328 162
327 161
327 160
326 159
326 158
325 157
325 156
324 155
324 154
324 153
323 152
323 151
322 150
322 149
321 148
321 147
320 146
320 145
320 144
319 143
319 142
319 141
318 140
318 139
317 138
317 137
317 136
317 135
316 134
316 133
316 132
316 131
315 130
315 129
315 128
315 127
314 126
314 125
314 124
314 123
313 122
313 121
313 120
312 119
312 118
312 117
312 116
311 115
311 114
311 113
311 112
311 111
310 110
310 109
310 108
310 107
310 106
310 105
309 104
309 103
309 102
309 101
309 100
308 99
308 98
308 97
308 96
307 95
307 94
307 93
306 92
306 91
305 90
305 89
305 88
305 87
304 86
304 85
304 84
303 83
303 82
303 81
302 80
302 79
302 78
302 77
301 76
301 75
301 74
301 73
300 72
300 71
300 70
300 69
300 68
299 67
299 66
299 65
299 64
298 63
298 62
298 61
297 60
297 59
297 58
296 57
296 56
296 55
296 54
296 53
295 52
295 51
295 50
295 49
294 48
294 47
293 46
293 45
292 44
292 43
291 42
291 41
291 40
290 39
290 38
289 37
288 36
287 36
286 36
285 37
284 36
283 35
283 34
283 33
282 32
282 31
281 30
280 29
280 28
279 27
278 26
277 25
276 24
275 23
274 22
273 21
272 20
271 19
270 18
269 18
268 17
267 16
266 17
266 18
265 19
265 20
264 21
263 22
262 23
262 24
261 25
260 26
260 27
259 28
259 29
258 30
258 31
257 32
257 33
256 34
255 35
254 34
253 33
253 32
252 31
252 30
251 29
250 28
249 27
249 26
248 26
247 25
246 24
245 23
244 22
243 21
242 21
241 20
240 19
239 19
238 18
237 18
236 18
235 17
234 17
233 17
232 16
231 16
230 16
229 15
228 15
227 14
226 14
225 13
224 13
223 12
222 12
221 12
220 11
219 11
218 11
218 12
217 13
217 14
217 15
216 16
216 17
215 18
215 19
214 20
213 21
213 22
212 23
212 24
211 25
210 26
209 27
209 28
208 29
208 30
207 31
207 32
206 33
206 34
205 35
205 36
204 37
204 38
204 39
204 40
203 41
203 42
203 43
203 44
203 45
202 46
202 47
202 48
202 49
202 50
202 51
202 52
202 53
202 54
202 55
202 56
202 57
202 58
202 59
202 60
201 61
201 62
201 63
201 64
201 65
201 66
201 67
201 68
201 69
201 70
201 71
201 72
201 73
201 74
201 75
201 76
201 77
201 78
201 79
201 80
201 81
201 82
202 83
202 84
202 85
202 86
202 87
202 88
202 89
202 90
202 91
202 92
202 93
202 94
202 95
202 96
202 97
202 98
201 99
201 100
201 101
201 102
201 103
201 104
201 105
201 106
201 107
200 108
200 109
200 110
199 111
198 110
197 109
196 108
196 107
195 106
195 105
194 104
194 103
193 102
193 101
192 100
192 99
191 98
191 97
190 96
190 95
189 94
188 93
188 92
187 91
187 90
187 89
186 88
186 87
185 86
184 85
184 84
183 83
183 82
182 81
181 80
181 79
180 78
180 77
179 76
178 75
178 74
177 73
176 72
176 71
175 70
174 69
174 68
173 67
172 66
172 65
171 64
170 63
169 62
168 61
168 60
167 59
166 58
165 57
165 56
164 55
163 54
163 53
162 52
161 51
160 50
160 49
159 48
158 48
157 47
157 46
156 45
155 44
154 43
154 42
153 41
152 40
151 39
151 38
150 38
149 37
149 36
148 35
147 34
146 33
145 32
144 31
144 30
143 29
142 28
141 27
140 26
139 25
138 24
137 23
136 22
135 21
134 20
133 19
132 18
131 17
130 17
129 16
128 15
128 14
127 14
126 13
125 12
124 11
123 11
122 10
121 9
120 8
119 8
118 7
117 7
116 6
115 6
114 6
113 5
112 6
111 6
110 6
109 5
108 5
107 4
106 3
105 3
104 3
103 2
102 2
101 2
100 2
99 1
98 1
97 1
96 1
95 1
94 1
93 1
92 1
91 1
90 1
89 1
88 1
87 1
86 1
85 1
