356 1
356 2
356 3
356 4
356 5
356 6
357 7
357 8
357 9
357 10
358 11
358 12
358 13
359 14
359 15
359 16
359 17
359 18
360 19
360 20
360 21
360 22
360 23
361 24
361 25
361 26
361 27
361 28
361 29
362 30
362 31
362 32
362 33
362 34
362 35
362 36
363 37
363 38
363 39
363 40
363 41
364 42
364 43
364 44
364 45
365 46
365 47
365 48
365 49
366 50
366 51
366 52
366 53
367 54
367 55
367 56
368 57
368 58
368 59
369 60
369 61
370 62
370 63
370 64
371 65
371 66
371 67
371 68
372 69
372 70
372 71
373 72
373 73
373 74
373 75
374 76
374 77
374 78
375 79
375 80
375 81
375 82
375 83
375 84
375 85
376 86
376 87
376 88
376 89
376 90
377 91
377 92
377 93
377 94
377 95
377 96
378 97
378 98
378 99
378 100
378 101
378 102
379 103
379 104
379 105
379 106
380 107
380 108
380 109
381 110
381 111
381 112
382 113
382 114
382 115
382 116
383 117
383 118
383 119
384 120
384 121
384 122
385 123
385 124
385 125
385 126
386 127
386 128
386 129
387 130
387 131
388 132
388 133
389 134
389 135
390 136
390 137
390 138
391 139
391 140
392 141
392 142
393 143
393 144
394 145
394 146
395 147
396 148
396 149
397 150
397 151
397 152
398 153
398 154
399 155
399 156
400 157
400 158
401 159
401 160
402 161
402 162
402 163
403 164
403 165
403 166
404 167
404 168
405 169
405 170
405 171
406 172
406 173
407 174
407 175
407 176
408 177
408 178
408 179
409 180
409 181
409 182
410 183
410 184
410 185
411 186
411 187
411 188
412 189
412 190
413 191
413 192
413 193
414 194
414 195
415 196
415 197
416 198
417 199
417 200
417 201
418 202
419 203
419 204
419 205
420 206
420 207
421 208
421 209
422 210
422 211
423 212
423 213
424 214
425 215
425 216
426 217
426 218
427 219
427 220
428 221
429 222
429 223
430 224
431 225
431 226
432 227
433 228
433 229
434 230
434 231
435 232
435 233
436 234
437 235
437 236
438 237
438 238
439 239
440 240
440 241
441 242
442 243
443 244
444 245
445 246
446 247
447 248
448 249
449 250
450 251
451 252
452 253
453 254
454 255
455 256
456 256
457 257
457 258
458 258
459 259
460 260
461 261
462 262
463 263
464 264
465 265
466 266
467 267
468 268
469 269
470 269
471 270
472 271
473 271
474 271
475 272
476 272
477 272
478 272
479 272
480 273
481 273
482 273
483 273
484 273
485 273
486 273
487 274
488 274
489 274
490 274
491 275
492 275
493 276
494 276
495 276
496 277
497 277
498 277
499 278
500 278
501 279
502 280
503 281
503 282
504 283
504 284
505 285
506 286
506 287
506 288
507 288
508 289
508 290
509 291
509 292
510 293
510 294
511 295
511 296
512 297
512 298
512 299
513 300
513 301
514 302
514 303
513 304
514 304
515 305
515 306
515 307
515 308
515 309
515 310
515 311
516 312
516 313
516 314
516 315
516 316
516 317
515 318
514 319
513 319
512 319
511 319
510 319
509 319
508 318
507 318
506 318
505 317
504 317
503 317
502 316
501 316
500 316
499 315
498 315
497 315
496 314
495 314
494 313
493 313
492 313
491 313
490 312
489 312
488 311
487 311
486 311
485 310
484 310
483 310
482 309
481 309
480 308
479 308
478 308
477 307
476 307
475 306
474 306
473 306
472 305
471 304
470 304
469 303
468 303
467 302
466 301
465 300
464 299
463 298
463 297
462 296
461 295
460 294
459 293
458 292
457 291
457 290
456 290
455 289
454 288
453 287
452 286
451 285
450 284
449 284
448 283
447 282
446 281
445 281
444 280
443 279
442 278
441 278
440 277
440 276
439 275
438 274
437 273
436 272
435 271
434 270
434 269
433 268
433 267
432 266
431 265
430 264
429 263
428 262
427 261
426 260
425 260
424 259
423 258
422 257
421 257
420 256
419 256
418 255
417 255
416 254
415 254
414 253
413 253
412 252
411 251
410 251
409 250
408 249
407 248
406 248
405 247
404 246
403 246
402 245
401 245
400 244
399 244
398 244
397 243
396 243
395 242
394 241
393 241
392 240
391 239
390 238
389 238
388 237
387 237
386 236
385 235
384 235
383 234
382 233
381 233
380 232
379 232
378 231
377 231
376 230
375 229
374 229
373 228
372 227
371 227
370 226
369 226
368 225
367 224
366 224
365 223
364 223
363 222
362 222
361 221
360 220
359 220
358 219
357 219
356 219
355 218
354 218
353 217
352 217
351 217
350 216
349 216
348 216
347 215
346 215
345 215
344 215
343 214
342 214
341 214
340 213
339 213
338 213
337 212
336 212
335 211
334 211
333 210
332 210
331 210
330 210
329 209
328 209
327 209
326 209
325 208
324 208
323 208
322 208
321 207
320 207
319 207
318 206
317 206
316 206
315 205
314 205
313 204
312 204
311 204
310 203
309 203
308 202
307 202
306 202
305 201
304 201
303 200
302 200
301 199
300 199
299 198
298 198
297 197
296 197
295 197
294 196
293 196
292 196
291 195
290 195
289 194
288 194
287 193
286 193
285 192
284 192
283 191
282 191
281 190
280 190
279 190
278 189
277 189
276 188
275 188
274 188
273 187
272 187
271 187
270 186
269 186
268 186
267 185
266 185
265 185
264 184
263 184
262 184
261 183
260 183
259 183
258 182
257 182
256 181
255 181
254 180
253 180
252 179
251 179
250 178
249 178
248 178
247 177
246 177
245 177
244 176
243 176
242 176
241 176
240 175
239 175
238 174
237 174
236 174
235 173
234 173
233 173
232 172
231 172
230 172
229 171
228 171
227 171
226 171
225 170
224 170
223 170
222 170
221 170
220 170
219 169
218 169
217 169
216 169
215 169
214 169
213 168
212 168
211 168
210 168
209 168
208 167
207 167
206 167
205 167
204 166
203 166
202 166
201 166
200 165
199 165
198 165
197 165
196 164
195 164
194 164
193 164
192 163
191 163
190 163
189 162
188 162
187 162
186 162
185 162
184 161
183 161
182 161
181 161
180 161
179 161
178 160
177 160
176 160
175 160
174 160
173 160
172 160
171 159
170 159
169 159
168 159
167 158
166 158
165 158
164 158
163 157
162 157
161 157
160 157
159 156
158 156
157 156
156 156
155 156
154 155
153 155
152 155
151 155
150 154
149 154
148 154
147 154
146 153
145 153
144 153
143 153
142 153
141 153
140 152
139 152
138 152
137 152
136 151
135 151
134 150
133 150
132 150
131 150
130 149
129 149
128 149
127 149
126 148
125 148
124 148
123 148
122 149
121 149
121 150
121 151
122 152
123 153
124 154
125 155
126 156
127 157
128 157
129 158
130 159
131 160
132 161
133 162
134 163
135 164
136 164
137 165
138 166
139 167
140 167
141 168
142 168
143 169
144 170
145 170
146 171
147 172
148 172
149 173
149 174
150 175
151 176
152 176
153 177
153 178
154 179
155 179
156 180
157 181
158 182
159 183
160 184
161 185
162 186
163 187
164 188
165 189
166 190
167 191
168 192
169 193
170 194
171 195
171 196
172 197
173 198
174 199
175 199
176 200
177 201
177 202
178 203
179 204
180 205
181 205
182 206
183 207
184 208
185 209
186 210
187 211
188 211
189 212
190 213
191 213
192 214
193 215
194 215
195 216
196 216
197 217
198 218
199 218
200 219
201 220
202 221
203 222
204 223
205 223
206 224
207 224
208 225
209 226
210 226
211 227
212 227
213 228
214 228
215 228
216 229
217 230
218 231
219 231
220 232
221 232
222 233
223 234
224 234
225 235
226 235
227 236
228 236
229 237
230 237
231 238
232 238
233 239
234 240
235 240
236 241
237 242
238 242
239 243
240 243
241 244
242 245
243 246
244 246
245 247
246 248
247 248
248 249
249 250
250 251
251 251
252 252
253 253
254 254
255 255
256 256
257 257
258 258
259 258
260 259
261 260
262 260
263 261
264 261
265 262
266 262
267 263
268 263
269 264
270 264
271 265
272 265
273 266
274 266
275 266
276 267
277 267
278 267
279 268
280 268
281 269
282 269
283 269
284 270
285 270
286 271
287 271
288 271
289 272
290 272
291 273
292 273
293 274
294 274
295 275
296 275
297 276
298 276
299 277
300 277
301 278
302 278
303 279
304 279
305 280
306 280
307 281
308 282
309 282
310 283
311 284
312 284
313 284
314 285
315 285
316 286
317 286
318 287
319 287
320 287
321 288
322 288
323 289
324 289
325 290
326 290
327 290
328 291
329 291
330 291
331 292
332 292
333 292
334 292
335 293
336 293
337 293
338 293
339 293
340 294
341 294
342 294
343 294
344 294
345 295
346 295
347 295
348 295
349 296
350 296
351 296
352 296
353 296
354 297
355 297
356 298
357 298
358 299
359 299
360 299
361 299
362 300
363 300
364 300
365 300
366 301
367 301
368 301
369 302
370 302
371 302
372 303
373 303
374 303
375 304
376 304
377 305
378 305
379 305
380 306
381 306
382 306
383 307
384 307
385 307
386 307
387 308
388 308
389 308
390 308
391 309
392 309
393 309
394 309
395 309
396 310
397 310
398 310
399 311
400 311
401 311
402 311
403 311
404 311
405 312
406 312
407 312
408 312
409 312
410 312
411 312
412 313
413 313
414 313
415 313
416 313
417 313
418 313
419 313
420 313
421 313
422 313
423 314
424 314
425 314
426 314
427 314
428 315
429 315
430 315
431 315
432 315
433 315
434 315
435 315
436 315
437 315
438 315
439 315
440 315
441 314
442 314
443 314
444 314
445 313
446 313
447 313
448 313
449 313
450 312
451 312
452 312
453 312
454 311
455 311
456 310
457 310
458 310
459 309
460 309
461 309
462 309
463 309
464 308
465 308
466 309
467 309
468 309
469 309
470 309
471 309
472 309
473 310
474 310
475 310
476 311
477 311
478 311
479 312
480 312
481 312
482 312
483 313
484 313
485 313
486 314
487 314
488 315
489 315
490 315
491 316
492 316
493 317
494 317
495 318
496 318
497 318
498 319
499 319
500 320
501 320
502 320
503 321
504 321
505 322
506 322
507 323
508 324
509 325
510 326
510 327
509 328
509 329
509 330
509 331
508 332
507 332
506 333
505 334
504 335
503 335
502 336
501 336
500 336
499 337
498 337
497 337
496 338
495 338
494 339
493 339
492 339
491 340
490 340
489 340
488 341
487 341
486 341
485 342
484 342
483 342
482 343
481 343
480 344
479 344
478 344
477 345
476 345
475 345
474 345
473 346
472 346
471 346
470 347
469 347
468 347
467 347
466 348
465 348
464 348
463 348
462 349
461 349
460 349
459 349
458 349
457 349
456 349
455 348
454 348
453 347
452 347
451 347
450 346
449 346
448 345
447 344
446 344
445 343
444 343
443 342
442 342
441 341
440 341
439 340
438 340
437 339
436 339
435 339
434 338
433 338
432 337
431 337
430 336
429 336
428 336
427 335
426 335
425 335
424 335
423 334
422 334
421 334
420 334
419 334
418 334
417 334
416 334
415 334
414 334
413 334
412 334
411 334
410 334
409 334
408 334
407 334
406 334
405 334
404 334
403 334
402 334
401 334
400 334
399 334
398 334
397 334
396 334
395 333
394 333
393 333
392 333
391 333
390 333
389 333
388 332
387 332
386 332
385 332
384 332
383 332
382 332
381 332
380 332
379 332
378 332
377 331
376 331
375 331
374 331
373 331
372 331
371 331
370 332
369 332
368 332
367 332
366 332
365 332
364 332
363 332
362 332
361 332
360 332
359 333
358 333
357 333
356 333
355 333
354 333
353 333
352 333
351 334
350 334
349 334
348 334
347 334
346 334
345 334
344 334
343 334
342 334
341 334
340 334
339 334
338 334
337 334
336 335
335 335
334 335
333 335
332 335
331 335
330 335
329 335
328 335
327 335
326 335
325 336
324 336
323 336
322 336
321 336
320 336
319 336
318 336
317 336
316 337
315 337
314 337
313 337
312 337
311 337
310 337
309 337
308 337
307 338
306 338
305 338
304 338
303 338
302 338
301 338
300 339
299 339
298 339
297 339
296 339
295 340
294 340
293 340
292 340
291 340
290 341
289 341
288 342
287 342
286 342
285 342
284 342
283 343
282 343
281 343
280 343
279 343
278 343
277 344
276 344
275 344
274 344
273 344
272 345
271 345
270 345
269 346
268 346
267 346
266 346
265 346
264 347
263 347
262 347
261 347
260 347
259 347
258 348
257 348
256 348
255 348
254 348
253 348
252 349
251 349
250 349
249 349
248 349
247 349
246 349
245 350
244 350
243 350
242 350
241 351
240 351
239 351
238 351
237 351
236 351
235 351
234 352
233 352
232 352
231 352
230 352
229 352
228 352
227 353
226 353
225 353
224 353
223 354
222 354
221 354
220 354
219 355
218 355
217 355
216 355
215 356
214 356
213 356
212 356
211 356
210 357
209 357
208 358
207 358
206 358
205 359
204 359
203 359
202 360
201 360
200 361
199 361
198 362
197 362
196 362
195 363
194 363
193 363
192 364
191 364
190 364
189 364
188 365
187 365
186 365
185 365
184 365
183 366
182 366
181 366
180 367
179 367
178 367
177 368
176 368
175 368
174 369
173 369
172 369
171 369
170 370
169 370
168 370
167 370
166 371
165 371
164 371
163 372
162 372
161 372
160 372
159 373
158 373
157 373
156 374
155 374
154 374
153 375
152 375
151 375
150 376
149 376
148 377
147 377
146 378
145 378
144 378
143 378
142 378
141 378
140 378
139 378
138 378
137 378
136 379
135 379
134 379
133 379
132 379
131 379
130 379
129 379
128 379
127 380
126 380
125 380
124 380
123 380
122 380
121 380
120 380
119 381
118 381
117 381
116 381
115 381
114 382
113 382
112 382
111 382
110 382
109 382
108 382
107 383
106 383
105 383
104 383
103 384
102 384
101 384
100 384
99 385
98 385
97 385
96 385
95 385
94 386
93 386
92 386
91 386
90 387
89 387
88 387
87 388
86 388
85 388
84 389
83 389
82 389
81 389
80 390
79 390
78 390
77 391
76 391
75 391
74 392
73 392
72 393
71 393
70 393
69 394
68 394
67 395
66 395
65 396
64 396
63 396
62 397
61 397
60 398
59 398
58 398
57 398
56 398
55 398
54 399
53 399
52 399
51 399
50 400
49 400
48 400
47 401
46 401
45 401
44 401
43 401
42 402
41 402
40 402
39 402
38 402
37 402
36 403
35 403
34 403
33 403
32 403
31 404
30 404
29 404
28 404
27 404
26 404
25 404
24 404
23 404
22 405
21 405
20 405
19 405
18 405
17 406
16 406
15 406
14 406
13 406
12 406
11 407
10 407
9 407
8 407
7 408
6 408
5 408
4 409
3 409
2 410
1 410
1 411
1 412
1 413
1 414
1 415
2 415
3 416
4 416
5 416
6 417
7 417
8 417
9 418
10 418
11 418
12 419
13 419
14 419
15 419
16 420
17 420
18 420
19 420
20 420
21 420
22 421
23 421
24 421
25 421
26 422
27 422
28 422
29 422
30 423
31 423
32 423
33 423
34 423
35 424
36 424
37 424
38 424
39 424
40 424
41 424
42 424
43 424
44 424
45 424
46 424
47 424
48 424
49 425
50 425
51 425
52 425
53 425
54 425
55 425
56 426
57 426
58 426
59 426
60 427
61 427
62 427
63 428
64 428
65 428
66 428
67 428
68 428
69 428
70 429
71 429
72 429
73 429
74 429
75 429
76 429
77 429
78 429
79 429
80 430
81 430
82 430
83 430
84 430
85 431
86 431
87 431
88 431
89 431
90 432
91 432
92 432
93 432
94 432
95 433
96 433
97 433
98 433
99 434
100 434
101 434
102 435
103 435
104 435
105 435
106 436
107 436
108 436
109 437
110 437
111 437
112 437
113 438
114 438
115 438
116 438
117 439
118 439
119 439
120 439
121 440
122 440
123 440
124 440
125 440
126 440
127 440
128 440
129 440
130 440
131 441
132 441
133 441
134 441
135 441
136 441
137 441
138 440
139 440
140 440
141 441
142 441
143 441
144 441
145 441
146 441
147 441
148 441
149 442
150 442
151 442
152 442
153 443
154 443
155 443
156 443
157 443
158 443
159 443
160 443
161 443
162 443
163 443
164 443
165 443
166 443
167 443
168 444
169 444
170 444
171 444
172 444
173 444
174 444
175 444
176 444
177 444
178 444
179 444
180 444
181 444
182 444
183 444
184 444
185 444
186 444
187 444
188 444
189 444
190 444
191 444
192 444
193 443
194 443
195 443
196 443
197 443
198 443
199 443
200 443
201 443
202 442
203 442
204 442
205 442
206 442
207 442
208 441
209 441
210 441
211 441
212 441
213 441
214 441
215 440
216 440
217 440
218 440
219 440
220 440
221 440
222 440
223 440
224 440
225 440
226 440
227 440
228 440
229 440
230 440
231 440
232 440
233 440
234 440
235 440
236 439
237 439
238 439
239 439
240 439
241 438
242 438
243 438
244 438
245 438
246 438
247 438
248 438
249 438
250 438
251 438
252 438
253 438
254 438
255 438
256 438
257 438
258 438
259 438
260 437
261 437
262 437
263 437
264 437
265 437
266 437
267 436
268 436
269 436
270 436
271 435
272 435
273 435
274 435
275 435
276 434
277 434
278 434
279 434
280 434
281 434
282 434
283 433
284 433
285 433
286 433
287 433
288 433
289 432
290 432
291 432
292 432
293 432
294 432
295 432
296 432
297 432
298 432
299 431
300 431
301 431
302 431
303 431
304 431
305 431
306 431
307 431
308 431
309 431
310 431
311 430
312 430
313 430
314 430
315 430
316 430
317 429
318 429
319 429
320 429
321 429
322 428
323 428
324 428
325 428
326 428
327 427
328 427
329 427
330 427
331 427
332 427
333 426
334 426
335 426
336 426
337 426
338 426
339 426
340 426
341 426
342 425
343 425
344 425
345 425
346 424
347 424
348 424
349 423
350 423
351 422
352 422
353 422
354 421
355 421
356 420
357 420
358 420
359 419
360 419
361 419
362 418
363 418
364 418
365 418
366 418
367 417
368 417
369 417
370 417
371 416
372 416
373 416
374 416
375 415
376 415
377 414
378 414
379 414
380 413
381 412
382 412
383 411
384 411
385 410
386 410
387 409
388 409
389 408
390 408
391 407
392 407
393 406
394 406
395 405
396 405
397 404
398 404
399 403
400 403
401 402
402 402
403 401
404 401
405 401
406 400
407 400
408 400
409 400
410 399
411 399
412 398
413 398
414 398
415 397
416 397
417 396
418 396
419 395
420 395
421 394
422 394
423 393
424 393
425 392
426 392
427 391
428 390
429 390
430 389
431 389
432 388
433 388
434 387
435 386
436 386
437 385
438 384
439 384
440 383
441 383
442 382
443 381
444 380
445 379
446 378
447 377
448 376
449 375
450 374
451 373
451 372
452 371
453 370
454 369
455 368
455 367
456 366
457 365
458 364
459 363
459 362
460 361
461 360
462 359
462 358
463 357
464 356
465 355
466 354
467 354
468 353
469 352
470 352
471 352
472 351
473 350
474 350
475 349
476 349
477 349
478 348
479 348
480 348
481 347
482 347
483 346
484 346
485 346
486 345
487 345
488 345
489 344
490 344
491 344
492 344
493 343
494 343
495 343
496 342
497 342
498 342
499 341
500 341
501 341
502 341
503 340
504 340
505 340
506 339
507 339
508 339
509 339
510 339
511 339
512 339
513 340
514 341
514 342
514 343
513 344
513 345
513 346
513 347
512 348
512 349
511 350
511 351
510 352
510 353
509 354
508 355
508 356
507 357
506 358
506 359
505 360
504 361
503 362
502 363
501 364
500 365
500 366
499 367
498 368
497 369
496 370
496 371
495 372
494 373
493 374
492 375
491 376
490 377
489 378
488 379
487 380
486 381
485 381
484 382
483 383
482 383
481 384
480 384
479 384
478 384
477 385
476 385
475 385
474 385
473 385
472 385
471 385
470 385
469 385
468 385
467 385
466 385
465 385
464 385
463 385
462 385
461 386
460 386
459 386
458 387
457 387
456 387
455 387
454 388
453 388
452 388
451 388
450 389
449 389
448 389
447 389
446 389
445 389
444 390
443 390
442 390
441 390
440 390
439 391
438 391
437 391
436 392
435 392
434 392
433 392
432 393
431 393
430 394
429 394
428 395
427 396
426 396
425 397
424 398
423 398
422 399
421 399
420 400
419 400
418 401
417 402
416 402
415 403
414 404
413 404
412 405
411 406
410 407
409 407
408 408
407 408
406 409
405 410
404 410
403 411
402 411
401 412
400 412
399 412
398 413
397 413
396 413
395 414
394 414
393 414
392 415
391 415
390 416
389 416
388 416
387 417
386 417
385 417
384 418
383 418
382 418
381 419
380 419
379 420
378 420
377 421
376 421
375 422
374 422
373 423
372 424
371 425
371 426
370 427
369 427
368 428
367 428
366 429
365 430
364 431
363 432
362 432
361 433
360 434
359 434
358 435
357 436
356 436
355 437
354 437
353 438
352 438
351 439
350 440
349 441
348 442
347 442
346 443
345 444
344 445
343 446
342 447
341 448
340 449
339 449
338 450
337 450
336 451
335 452
334 453
333 454
332 454
331 455
330 456
329 457
328 458
327 459
326 460
325 461
324 461
323 462
322 463
321 464
320 465
319 466
318 467
317 468
316 469
315 470
314 470
313 471
312 472
311 472
310 473
309 474
308 475
307 476
306 476
305 477
304 478
303 479
302 480
301 481
300 481
299 482
298 483
297 484
296 485
295 486
294 487
293 488
292 489
291 490
290 491
289 492
288 493
287 493
286 494
285 495
284 496
283 497
282 497
281 498
280 499
279 500
278 501
277 502
276 503
275 504
274 505
273 506
272 507
271 508
270 509
269 510
268 511
267 512
266 513
266 514
265 515
264 516
263 517
262 518
261 519
260 520
259 521
258 522
257 523
256 524
255 525
254 526
253 527
253 528
252 529
251 530
250 531
249 532
248 532
247 533
246 534
245 535
244 535
243 536
242 537
241 538
240 539
239 540
238 541
237 542
237 543
236 544
235 545
234 546
234 547
233 548
233 549
232 550
231 551
230 552
230 553
229 554
228 555
227 556
226 557
225 558
225 559
224 560
223 561
222 562
221 562
221 563
220 564
219 565
218 566
217 567
216 568
216 569
215 570
214 571
213 572
212 573
211 574
210 575
209 576
208 577
208 578
207 579
206 579
205 580
204 581
203 582
202 582
202 583
201 584
200 585
199 586
199 587
198 588
197 589
196 590
196 591
195 592
194 593
193 594
192 595
191 596
190 597
189 598
188 599
187 600
187 601
186 602
185 603
184 604
183 605
182 606
181 607
180 608
179 609
178 610
177 611
177 612
177 613
176 614
175 615
175 616
175 617
175 618
176 618
177 618
178 618
179 617
180 617
181 617
182 616
183 616
184 615
185 615
186 615
187 614
188 614
189 613
190 613
191 612
192 611
193 611
194 610
195 610
196 609
197 609
198 608
199 608
200 607
201 607
202 606
203 606
204 605
205 605
206 605
207 604
208 604
209 603
210 603
211 602
212 602
213 601
214 601
215 600
216 600
217 599
218 599
219 599
220 598
221 598
222 598
223 598
224 597
225 597
226 597
227 596
228 596
229 596
230 596
231 595
232 595
233 595
234 595
235 594
236 594
237 594
238 593
239 593
240 592
241 591
242 591
243 590
244 590
245 590
246 589
247 589
248 589
249 589
250 588
251 588
252 588
253 587
254 587
255 587
256 587
257 586
258 586
259 585
260 585
261 585
262 584
263 584
264 584
265 583
266 583
267 583
268 583
269 582
270 582
271 582
272 581
273 581
274 581
275 580
276 580
277 580
278 579
279 579
280 578
281 578
282 577
283 577
284 577
285 576
286 575
287 575
288 574
289 574
290 573
291 573
292 572
293 572
294 571
295 571
296 570
297 569
298 569
299 568
300 568
301 568
302 568
303 567
304 566
305 565
306 565
307 564
308 564
309 563
310 563
311 562
312 561
313 561
314 560
315 560
316 559
317 559
318 559
319 558
320 558
321 557
322 557
323 556
324 556
325 555
326 555
327 554
328 554
329 554
330 553
331 553
332 552
333 552
334 551
335 550
336 550
337 549
338 549
339 549
340 548
341 547
342 547
343 546
344 545
345 544
346 543
347 543
348 542
349 541
350 540
351 540
352 539
353 538
354 537
355 537
356 536
357 535
358 535
359 534
360 533
361 532
362 531
363 530
364 529
365 528
366 527
367 526
368 526
369 525
370 524
371 523
372 522
373 522
374 521
375 520
376 519
377 518
378 518
379 517
380 516
381 515
382 515
383 514
384 513
385 513
386 512
387 511
388 511
389 510
390 510
391 509
392 508
393 508
394 507
395 506
396 505
397 504
398 503
399 502
400 502
401 501
402 500
403 500
404 499
405 498
406 497
407 497
408 496
409 496
410 495
411 495
412 494
413 493
414 492
415 491
416 490
417 489
418 488
419 488
420 487
421 486
422 486
423 485
424 484
425 483
426 482
427 482
428 481
429 481
430 480
431 479
432 479
433 478
434 477
435 476
436 476
437 475
438 474
439 473
440 473
441 472
442 471
443 470
444 470
445 469
446 468
447 467
448 466
449 465
450 464
451 464
452 463
452 462
453 461
454 460
455 459
456 458
456 457
457 456
458 455
458 454
459 453
460 452
461 451
462 450
462 449
463 448
464 447
465 446
465 445
466 444
467 443
467 442
468 441
469 440
469 439
470 438
471 437
472 436
472 435
473 434
474 433
474 432
475 431
476 430
476 429
476 428
477 427
477 426
478 425
478 424
479 423
479 422
479 421
480 420
480 419
480 418
481 417
481 416
481 415
482 414
482 413
482 412
482 411
483 410
483 409
483 408
483 407
483 406
484 405
484 404
484 403
484 402
484 401
484 400
484 399
484 398
485 397
485 396
485 395
486 394
486 393
486 392
487 391
487 390
487 389
488 388
488 387
489 386
489 385
490 384
491 383
492 382
493 381
493 380
494 379
495 378
496 377
497 376
497 375
498 374
499 373
500 372
501 371
501 370
502 369
503 368
504 367
505 366
506 365
506 364
507 363
508 362
509 361
510 360
511 359
512 358
512 357
513 356
514 355
515 354
515 353
516 352
517 351
518 350
519 349
520 348
521 348
522 349
523 350
523 351
523 352
523 353
523 354
523 355
523 356
523 357
523 358
523 359
523 360
523 361
523 362
523 363
523 364
523 365
523 366
523 367
523 368
523 369
523 370
523 371
523 372
523 373
523 374
523 375
523 376
523 377
523 378
523 379
522 380
522 381
522 382
522 383
522 384
522 385
522 386
522 387
522 388
522 389
521 390
521 391
521 392
520 393
520 394
520 395
520 396
519 397
519 398
518 399
518 400
517 401
516 401
515 402
514 403
513 404
512 405
511 405
510 406
509 407
508 408
507 409
506 409
505 410
505 411
504 412
503 412
502 413
502 414
501 415
500 416
499 417
498 418
497 418
496 419
496 420
495 421
494 421
493 422
492 423
492 424
491 425
490 426
489 427
488 428
488 429
487 430
487 431
486 432
485 433
485 434
485 435
484 436
484 437
483 438
483 439
482 440
482 441
482 442
481 443
481 444
481 445
480 446
480 447
480 448
479 449
479 450
479 451
478 452
478 453
478 454
478 455
477 456
477 457
476 458
476 459
476 460
476 461
475 462
475 463
475 464
474 465
474 466
473 467
473 468
473 469
473 470
472 471
472 472
471 473
471 474
471 475
471 476
470 477
470 478
470 479
470 480
470 481
470 482
469 483
469 484
469 485
469 486
468 487
468 488
468 489
468 490
467 491
467 492
467 493
467 494
467 495
466 496
466 497
466 498
466 499
466 500
465 501
465 502
465 503
465 504
464 505
464 506
464 507
464 508
463 509
463 510
463 511
462 512
462 513
462 514
462 515
462 516
462 517
462 518
462 519
462 520
462 521
462 522
462 523
462 524
462 525
461 526
461 527
461 528
461 529
461 530
461 531
461 532
461 533
461 534
461 535
461 536
461 537
461 538
460 539
460 540
460 541
460 542
460 543
460 544
459 545
459 546
459 547
459 548
458 549
458 550
458 551
458 552
458 553
458 554
457 555
457 556
457 557
457 558
457 559
457 560
456 561
456 562
456 563
456 564
456 565
456 566
456 567
456 568
455 569
455 570
455 571
455 572
455 573
455 574
455 575
455 576
455 577
455 578
455 579
454 580
454 581
454 582
454 583
454 584
454 585
454 586
454 587
453 588
453 589
453 590
453 591
453 592
453 593
453 594
453 595
453 596
453 597
453 598
453 599
453 600
453 601
453 602
453 603
453 604
453 605
453 606
453 607
453 608
453 609
453 610
453 611
453 612
453 613
453 614
453 615
453 616
453 617
453 618
453 619
453 620
453 621
453 622
453 623
453 624
453 625
453 626
453 627
453 628
453 629
453 630
453 631
453 632
453 633
453 634
453 635
453 636
453 637
453 638
453 639
453 640
453 641
453 642
453 643
453 644
453 645
453 646
453 647
452 648
452 649
452 650
452 651
452 652
453 653
453 654
453 655
453 656
453 657
454 658
454 659
454 660
454 661
455 662
455 663
455 664
455 665
455 666
455 667
455 668
455 669
456 670
456 671
456 672
456 673
456 674
456 675
456 676
455 677
455 678
455 679
455 680
455 681
455 682
455 683
455 684
455 685
455 686
454 687
454 688
454 689
454 690
454 691
454 692
454 693
454 694
454 695
454 696
454 697
454 698
454 699
454 700
454 701
454 702
454 703
454 704
454 705
454 706
454 707
454 708
454 709
455 709
456 709
457 709
458 709
459 708
459 707
460 706
460 705
461 704
461 703
462 702
462 701
463 700
463 699
464 698
465 697
465 696
466 695
466 694
467 693
467 692
468 691
468 690
469 689
469 688
470 687
470 686
471 685
471 684
472 683
472 682
473 681
473 680
474 679
474 678
475 677
476 676
476 675
477 674
478 673
479 672
479 671
480 670
481 669
481 668
482 667
482 666
483 665
484 664
484 663
485 662
485 661
486 660
486 659
487 658
488 657
488 656
488 655
489 654
489 653
490 652
490 651
491 650
491 649
492 648
492 647
492 646
492 645
493 644
493 643
494 642
494 641
495 640
495 639
496 638
497 637
497 636
498 635
498 634
499 633
499 632
500 631
500 630
501 629
501 628
502 627
502 626
503 625
504 624
504 623
505 622
505 621
506 620
506 619
507 618
507 617
508 616
508 615
508 614
509 613
509 612
510 611
510 610
510 609
511 608
511 607
512 606
512 605
512 604
513 603
513 602
513 601
514 600
514 599
514 598
515 597
515 596
515 595
516 594
516 593
516 592
516 591
517 590
517 589
517 588
517 587
517 586
517 585
518 584
518 583
519 582
519 581
519 580
520 579
520 578
520 577
520 576
521 575
521 574
521 573
521 572
522 571
522 570
522 569
522 568
523 567
523 566
523 565
523 564
524 563
524 562
524 561
524 560
525 559
525 558
525 557
525 556
526 555
526 554
526 553
526 552
527 551
527 550
527 549
528 548
528 547
528 546
529 545
530 544
530 543
530 542
531 541
531 540
531 539
532 538
532 537
532 536
533 535
533 534
534 533
534 532
534 531
535 530
535 529
535 528
536 527
536 526
536 525
536 524
537 523
537 522
537 521
537 520
538 519
538 518
538 517
538 516
538 515
539 514
539 513
539 512
539 511
539 510
540 509
540 508
540 507
540 506
540 505
541 504
541 503
541 502
541 501
541 500
542 499
542 498
542 497
543 496
543 495
543 494
543 493
543 492
543 491
544 490
544 489
544 488
544 487
544 486
544 485
544 484
544 483
544 482
544 481
545 480
545 479
545 478
545 477
545 476
545 475
545 474
545 473
545 472
545 471
545 470
545 469
545 468
545 467
545 466
545 465
545 464
545 463
545 462
546 461
546 460
546 459
546 458
546 457
546 456
546 455
546 454
546 453
546 452
546 451
546 450
546 449
546 448
546 447
545 446
545 445
545 444
545 443
545 442
545 441
545 440
545 439
545 438
545 437
545 436
545 435
545 434
545 433
545 432
545 431
544 430
544 429
544 428
544 427
543 426
543 425
543 424
543 423
542 422
542 421
541 420
541 419
541 418
540 417
540 416
539 415
539 414
538 413
538 412
538 411
537 410
537 409
536 408
536 407
535 406
535 405
534 404
534 403
533 402
533 401
532 400
532 399
531 398
531 397
531 396
530 395
530 394
530 393
530 392
529 391
529 390
529 389
529 388
529 387
529 386
528 385
528 384
528 383
528 382
528 381
528 380
528 379
528 378
528 377
528 376
528 375
528 374
528 373
528 372
528 371
528 370
528 369
528 368
528 367
528 366
528 365
529 364
529 363
529 362
529 361
529 360
529 359
529 358
529 357
529 356
530 355
530 354
530 353
530 352
530 351
531 350
531 349
532 348
532 347
533 346
534 347
535 348
536 348
537 349
538 349
539 350
540 351
541 352
542 352
543 353
544 354
545 355
546 356
547 357
548 358
549 358
550 359
551 360
552 361
553 362
554 363
555 364
556 365
556 366
557 367
558 368
559 369
559 370
560 371
561 372
561 373
562 374
562 375
563 376
564 377
564 378
565 379
566 380
566 381
567 382
568 383
568 384
569 385
569 386
570 387
570 388
571 389
572 390
572 391
573 392
574 393
574 394
575 395
576 396
577 397
577 398
578 399
579 400
580 401
581 402
582 403
582 404
583 405
584 406
585 406
586 407
587 408
588 409
589 410
590 411
591 411
592 412
593 413
594 414
595 414
596 415
597 416
598 416
599 417
600 417
601 418
602 418
603 419
604 419
605 420
606 420
607 421
608 422
609 423
610 423
611 424
612 425
613 425
614 426
615 427
616 427
617 428
618 428
619 428
620 429
621 429
622 430
623 430
624 431
625 431
626 431
627 432
628 432
629 432
630 433
631 433
632 433
633 434
634 434
635 434
636 435
637 435
638 435
639 435
640 436
641 436
642 436
643 436
644 437
645 437
646 437
647 438
648 438
649 438
650 438
651 439
652 439
653 439
654 439
655 439
656 440
657 440
658 440
659 440
660 441
661 441
662 441
663 441
664 441
665 442
666 442
667 442
668 442
669 442
670 442
671 442
672 443
673 443
674 443
675 443
676 443
677 443
678 443
679 443
680 444
681 444
682 444
683 444
684 444
685 445
686 445
687 445
688 445
689 445
690 446
691 446
692 446
693 446
694 446
695 446
696 446
697 447
698 447
699 447
700 447
701 447
702 447
703 448
704 448
705 448
706 448
707 448
708 448
709 448
710 448
711 448
712 448
713 448
714 449
715 449
716 449
717 449
718 449
719 449
720 449
721 449
722 449
723 449
724 449
725 449
726 449
727 449
728 449
729 449
730 448
731 448
732 448
733 448
734 448
735 447
736 447
737 447
738 446
739 446
740 446
741 446
742 445
743 445
744 445
745 445
746 445
747 444
748 444
749 444
750 444
751 444
752 443
753 443
754 443
755 443
756 443
757 443
758 442
759 442
760 442
761 442
762 442
763 442
764 441
765 441
766 441
767 440
768 440
769 439
770 439
771 438
772 437
773 436
774 435
775 434
776 433
776 432
776 431
775 432
774 432
773 433
772 433
771 433
770 434
769 434
768 434
767 434
766 435
765 435
764 435
763 436
762 436
761 437
760 437
759 437
758 438
757 438
756 438
755 438
754 438
753 437
752 436
751 436
750 435
749 435
748 434
747 434
746 433
745 433
744 432
743 432
742 431
741 430
740 430
739 430
738 429
737 429
736 428
735 427
734 427
733 426
732 425
731 425
730 424
729 424
728 423
727 423
726 422
725 422
724 421
723 421
722 420
721 420
720 419
719 419
718 418
717 417
716 417
715 416
714 415
713 414
712 413
711 412
710 411
709 411
708 410
707 409
706 409
705 408
704 408
703 407
702 407
701 406
700 406
699 405
698 405
697 404
696 404
695 404
694 403
693 403
692 402
691 402
690 401
689 401
688 400
687 400
686 399
685 399
684 398
683 397
682 397
681 396
680 395
679 395
678 394
677 394
676 393
675 392
674 392
673 391
672 390
671 389
670 388
669 387
668 386
667 385
666 385
665 384
664 383
663 383
662 382
661 381
660 381
659 380
658 379
657 379
656 378
655 378
654 377
653 376
652 376
651 375
650 374
649 374
648 373
647 373
646 372
645 372
644 371
643 371
642 370
641 369
640 368
639 368
638 367
637 366
636 366
635 365
634 364
633 364
632 363
631 362
630 362
629 361
628 361
627 360
626 359
625 359
624 358
623 358
622 358
621 358
620 357
619 357
618 357
617 357
616 356
615 356
614 356
613 356
612 356
611 356
610 356
609 356
608 356
607 355
606 355
605 355
604 355
603 355
602 355
601 355
600 355
599 355
598 355
597 355
596 355
595 355
594 355
593 355
592 355
591 355
590 354
589 354
588 354
587 354
586 354
585 353
584 353
583 353
582 353
581 353
580 353
579 353
578 353
577 353
576 353
575 353
574 353
573 353
572 353
571 353
570 353
569 353
568 353
567 353
566 353
565 353
564 353
563 354
562 354
561 354
560 354
559 353
558 353
557 353
556 353
555 353
554 353
553 352
552 352
551 351
550 350
549 350
548 350
547 349
546 349
545 348
546 347
547 347
548 347
549 348
550 348
550 347
551 346
552 346
553 346
554 346
555 346
556 346
557 346
558 346
559 346
560 346
561 346
562 345
563 345
564 345
565 345
566 345
567 344
568 344
569 344
570 344
571 344
572 343
573 343
574 343
575 343
576 342
577 342
578 342
579 342
580 341
581 341
582 341
583 341
584 340
585 340
586 340
587 340
588 339
589 339
590 338
591 338
592 338
593 337
594 337
595 336
596 336
597 336
598 335
599 334
600 333
601 333
602 332
603 332
604 332
605 332
606 332
607 332
608 332
609 332
610 332
611 332
612 332
613 332
614 332
615 332
616 332
617 332
618 332
619 332
620 332
621 331
622 331
623 331
624 331
625 331
626 331
627 331
628 331
629 331
630 331
631 331
632 331
633 331
634 331
635 331
636 331
637 331
638 331
639 331
640 331
641 330
642 330
643 330
644 330
645 330
646 330
647 330
648 330
649 330
650 330
651 330
652 330
653 330
654 330
655 330
656 330
657 329
658 330
659 329
660 329
661 329
662 329
663 329
664 329
665 329
666 329
667 329
668 329
669 329
670 329
671 329
672 329
673 329
674 329
675 329
676 329
677 329
678 329
679 329
680 328
681 328
682 328
683 328
684 328
685 328
686 328
687 328
688 328
689 328
690 328
691 328
692 328
693 328
694 328
695 328
696 328
697 328
698 327
699 327
700 327
701 327
702 327
703 327
704 327
705 327
706 327
707 327
708 327
709 327
710 327
711 327
712 327
713 327
714 327
715 327
716 326
717 327
718 326
719 326
720 326
721 326
722 326
723 326
724 326
725 326
726 326
727 326
728 326
729 326
730 326
731 325
732 325
733 325
734 325
735 325
736 325
737 325
738 325
739 325
740 325
741 325
742 325
743 324
744 324
745 324
746 324
747 324
748 324
749 324
750 324
751 324
752 324
753 324
754 324
755 324
756 324
757 324
758 324
759 324
760 324
761 324
762 324
763 324
764 324
765 324
766 323
767 323
768 323
769 323
770 323
771 323
772 323
773 323
774 323
775 323
776 322
777 322
778 322
779 322
780 321
781 321
782 321
783 321
784 320
785 320
786 320
787 320
788 320
789 319
790 319
791 319
792 319
793 319
794 319
795 319
796 318
796 317
796 316
796 315
796 314
796 313
795 312
796 311
797 310
797 309
798 308
799 307
800 306
800 305
800 304
800 303
799 302
799 301
800 300
800 299
800 298
800 297
800 296
800 295
799 295
799 296
799 297
798 298
797 299
796 299
795 299
794 299
793 298
792 298
791 299
790 299
789 299
788 300
787 300
786 301
785 302
784 303
783 303
782 304
781 305
780 306
779 306
778 307
777 308
776 308
775 309
774 309
773 310
772 310
771 310
770 310
769 311
768 311
767 312
766 312
765 312
764 312
763 313
762 313
761 313
760 314
759 314
758 314
757 314
756 314
755 314
754 315
753 315
752 315
751 315
750 315
749 315
748 315
747 315
746 316
745 316
744 316
743 316
742 316
741 316
740 316
739 317
738 317
737 317
736 317
735 317
734 317
733 317
732 317
731 317
730 318
729 318
728 318
727 318
726 318
725 318
724 318
723 318
722 318
721 318
720 318
719 318
718 318
717 318
716 318
715 319
714 319
713 319
712 319
711 319
710 319
709 319
708 319
707 319
706 319
705 319
704 320
703 320
702 320
701 320
700 320
699 320
698 320
697 320
696 320
695 320
694 320
693 320
692 320
691 320
690 320
689 320
688 321
687 321
686 321
685 321
684 321
683 321
682 321
681 321
680 321
679 321
678 321
677 321
676 321
675 321
674 321
673 321
672 321
671 321
670 321
669 321
668 321
667 322
666 322
665 322
664 322
663 322
662 322
661 322
660 322
659 322
658 322
657 322
656 322
655 322
654 322
653 323
652 323
651 323
650 323
649 323
648 323
647 323
646 323
645 323
644 323
643 323
642 323
641 323
640 323
639 323
638 323
637 323
636 323
635 323
634 323
633 323
632 323
631 323
630 323
629 323
628 323
627 324
626 324
625 324
624 324
623 324
622 324
621 324
620 324
619 324
618 324
617 324
616 324
615 324
614 324
613 324
612 324
611 324
610 324
609 324
608 323
608 322
607 322
606 322
605 322
604 322
603 322
602 323
601 323
600 323
599 323
598 323
597 324
596 324
595 324
594 324
593 324
592 324
591 324
590 325
589 325
588 325
587 325
586 325
585 325
584 325
583 325
582 325
581 325
580 325
579 325
578 325
577 325
576 325
575 325
574 325
573 325
572 325
571 325
570 325
569 325
568 325
567 325
566 325
565 325
564 324
563 324
562 323
562 322
563 321
564 320
565 319
566 319
567 318
568 317
569 317
570 316
571 315
572 315
573 314
574 313
575 313
576 312
577 311
578 311
579 310
580 309
581 308
582 308
583 307
584 306
585 305
586 304
587 304
587 303
588 302
589 301
590 300
591 299
592 299
592 298
593 297
594 296
595 295
596 294
597 293
598 292
599 292
600 291
601 290
602 289
603 288
604 287
605 286
606 285
607 284
608 283
609 282
609 281
610 280
611 279
612 278
612 277
613 276
612 275
611 276
610 275
609 276
608 276
607 276
606 276
605 276
604 276
603 276
602 276
601 276
600 276
599 276
598 277
597 277
596 277
595 277
594 278
593 278
592 279
591 279
590 279
589 280
588 280
587 280
586 281
585 281
584 282
583 282
582 282
581 282
580 283
579 283
578 284
577 284
576 285
575 285
574 286
573 286
572 287
571 287
570 288
569 289
568 289
567 290
566 291
565 291
564 292
563 293
562 294
561 295
560 295
559 296
558 297
557 298
556 299
555 300
554 301
553 302
552 303
551 304
550 305
549 306
548 307
547 308
546 309
545 310
544 311
544 312
543 313
542 313
542 314
541 315
540 315
540 316
539 317
538 317
537 317
536 317
535 316
535 315
535 314
536 313
536 312
536 311
536 310
537 309
538 308
539 307
539 306
540 305
541 304
541 303
542 302
542 301
543 300
544 299
544 298
545 297
546 296
546 295
547 294
548 293
548 292
549 291
550 290
551 289
552 288
552 287
553 286
554 285
555 284
556 283
556 282
557 281
558 280
559 279
559 278
560 277
560 276
561 275
562 274
562 273
563 272
564 271
564 270
565 269
565 268
565 267
566 266
566 265
567 264
567 263
568 262
569 261
569 260
570 259
570 258
571 257
571 256
572 255
572 254
572 253
572 252
573 251
573 250
573 249
574 248
575 247
576 246
577 245
578 244
579 243
579 242
580 241
581 240
581 239
582 238
582 237
583 236
583 235
583 234
584 233
584 232
584 231
585 230
585 229
585 228
585 227
585 226
586 225
586 224
586 223
586 222
586 221
586 220
586 219
586 218
586 217
586 216
586 215
586 214
586 213
586 212
586 211
586 210
586 209
586 208
586 207
586 206
586 205
586 204
586 203
586 202
586 201
586 200
586 199
586 198
586 197
586 196
586 195
586 194
586 193
586 192
586 191
586 190
586 189
586 188
586 187
586 186
586 185
586 184
587 183
587 182
587 181
587 180
587 179
588 178
588 177
588 176
588 175
588 174
589 173
589 172
589 171
589 170
589 169
589 168
589 167
590 166
590 165
590 164
590 163
590 162
590 161
591 160
591 159
591 158
591 157
591 156
592 155
592 154
592 153
592 152
592 151
592 150
593 149
593 148
593 147
593 146
593 145
594 144
594 143
594 142
594 141
594 140
594 139
594 138
594 137
595 136
595 135
595 134
595 133
595 132
595 131
595 130
595 129
595 128
595 127
595 126
595 125
595 124
595 123
595 122
595 121
594 120
594 119
594 118
594 117
594 116
594 115
594 114
594 113
594 112
594 111
594 110
594 109
594 108
594 107
594 106
594 105
594 104
594 103
594 102
594 101
594 100
594 99
594 98
594 97
594 96
594 95
594 94
593 93
593 92
593 91
593 90
593 89
593 88
593 87
593 86
593 85
593 84
593 83
593 82
593 81
593 80
592 79
592 78
592 77
592 76
592 75
592 74
592 73
591 72
591 71
591 70
591 69
590 68
590 67
590 66
590 65
589 64
589 63
588 62
587 61
587 62
586 63
585 64
585 65
585 66
584 67
584 68
583 69
583 70
583 71
582 72
582 73
582 74
582 75
581 76
581 77
581 78
580 79
580 80
580 81
579 82
579 83
579 84
578 85
578 86
578 87
577 88
577 89
577 90
576 91
576 92
576 93
576 94
575 95
575 96
575 97
575 98
574 99
574 100
574 101
574 102
573 103
573 104
573 105
572 106
572 107
572 108
571 109
571 110
570 111
570 112
569 113
569 114
568 115
567 116
567 117
566 118
565 119
564 120
563 121
563 122
562 123
562 124
561 125
560 126
560 127
559 128
559 129
558 130
557 131
557 132
556 133
556 134
555 135
555 136
554 137
554 138
554 139
553 140
553 141
553 142
552 143
552 144
551 145
551 146
551 147
550 148
550 149
550 150
549 151
549 152
548 153
548 154
547 155
547 156
547 157
546 158
546 159
545 160
545 161
544 162
544 163
543 164
543 165
543 166
542 167
542 168
541 169
541 170
540 171
540 172
540 173
539 174
539 175
539 176
538 177
538 178
537 179
537 180
537 181
536 182
536 183
536 184
535 185
535 186
534 187
534 188
534 189
533 190
533 191
533 192
532 193
532 194
532 195
532 196
532 197
531 198
531 199
531 200
531 201
531 202
531 203
531 204
531 205
531 206
531 207
531 208
531 209
531 210
531 211
531 212
531 213
531 214
531 215
531 216
531 217
531 218
531 219
531 220
531 221
531 222
531 223
531 224
531 225
531 226
531 227
531 228
531 229
531 230
531 231
530 232
530 233
530 234
530 235
530 236
530 237
530 238
530 239
529 240
529 241
529 242
529 243
529 244
529 245
529 246
529 247
528 248
528 249
528 250
528 251
528 252
528 253
528 254
528 255
528 256
528 257
528 258
528 259
528 260
528 261
528 262
528 263
528 264
529 265
529 266
529 267
529 268
530 269
530 270
530 271
531 272
531 273
531 274
532 275
532 276
532 277
533 278
533 279
533 280
533 281
533 282
533 283
534 284
534 285
534 286
534 287
534 288
534 289
534 290
534 291
534 292
534 293
534 294
533 295
533 296
533 297
533 298
533 299
533 300
532 301
532 302
532 303
532 304
531 305
531 306
531 307
530 308
530 309
529 310
529 311
528 312
528 313
527 314
526 315
525 314
525 313
524 312
523 311
522 310
522 309
521 308
521 307
520 306
520 305
519 304
518 303
518 302
518 301
517 300
517 299
516 298
516 297
515 296
515 295
514 294
514 293
514 292
513 291
513 290
513 289
512 288
512 287
511 286
511 285
511 284
510 283
510 282
510 281
510 280
509 279
509 278
509 277
509 276
508 275
508 274
508 273
508 272
508 271
508 270
508 269
508 268
508 267
508 266
508 265
507 264
507 263
507 262
507 261
507 260
506 259
506 258
506 257
505 256
505 255
505 254
505 253
504 252
504 251
503 250
503 249
502 248
502 247
501 246
501 245
500 244
500 243
500 242
499 241
499 240
498 239
498 238
498 237
497 236
497 235
497 234
497 233
496 232
496 231
496 230
495 229
495 228
495 227
494 226
494 225
494 224
493 223
493 222
493 221
493 220
493 219
492 218
492 217
492 216
492 215
491 214
491 213
491 212
491 211
491 210
491 209
491 208
491 207
490 206
490 205
490 204
490 203
490 202
490 201
489 200
489 199
489 198
489 197
488 196
488 195
487 194
487 193
486 192
486 191
485 190
485 189
484 188
484 187
483 186
483 185
482 184
482 183
481 182
481 181
480 180
480 179
479 178
479 177
478 176
478 175
477 174
476 173
476 172
475 171
474 170
474 169
473 168
473 167
473 166
472 165
472 164
471 163
470 162
470 161
469 160
469 159
468 158
468 157
468 156
467 155
467 154
466 153
466 152
465 151
465 150
464 149
464 148
463 147
462 146
462 145
462 144
461 143
461 142
460 141
460 140
459 139
459 138
458 137
458 136
457 135
457 134
456 133
456 132
456 131
455 130
455 129
454 128
454 127
453 126
453 125
453 124
452 123
452 122
451 121
451 120
450 119
450 118
449 117
448 116
448 115
447 114
446 113
445 112
445 111
444 110
443 109
442 108
442 107
441 106
440 105
440 104
439 103
438 102
438 101
437 100
436 99
436 98
435 97
434 96
433 95
432 94
431 93
430 92
429 91
428 90
428 89
427 88
426 87
426 86
425 85
424 84
424 83
423 82
423 81
422 80
421 79
420 78
420 77
419 76
418 75
418 74
417 73
416 72
415 71
414 70
413 69
413 68
412 67
411 66
410 65
409 64
408 63
407 62
407 61
406 60
405 59
405 58
404 57
404 56
403 55
402 54
401 53
400 52
399 51
398 50
398 49
397 48
396 47
395 46
394 45
393 44
392 43
391 42
390 41
390 40
389 39
388 38
388 37
387 36
386 35
385 34
385 33
384 32
383 31
382 30
382 29
381 28
380 27
379 26
378 25
377 24
376 23
375 22
375 21
374 20
373 19
373 18
372 17
372 16
371 15
370 14
369 13
369 12
368 11
367 10
366 9
365 8
364 7
363 6
362 5
362 4
361 3
360 2
359 1
358 1
357 1
356 1
