256 44
256 45
256 46
256 47
255 48
255 49
254 50
254 51
253 52
253 53
252 54
251 53
251 52
250 52
249 51
248 51
247 50
246 50
245 49
244 49
243 48
242 48
241 47
240 46
240 47
239 48
239 49
239 50
238 51
237 50
236 49
235 48
234 48
233 47
232 47
231 48
230 47
229 46
228 46
227 45
226 45
226 46
226 47
226 48
226 49
225 50
225 51
225 52
225 53
224 54
223 53
222 52
221 52
220 52
219 51
218 50
217 50
216 49
216 48
215 48
215 49
215 50
215 51
214 52
213 51
213 50
212 49
211 49
210 49
209 48
208 48
207 47
206 47
205 47
205 48
206 49
205 50
205 51
204 52
204 53
203 54
202 53
201 53
200 52
199 52
198 52
197 51
196 51
195 50
194 50
193 49
192 48
192 49
192 50
192 51
191 52
191 53
191 54
190 55
189 54
188 53
187 53
186 53
185 52
184 51
184 52
184 53
183 54
182 53
181 53
180 52
179 53
178 53
177 52
176 52
175 52
176 53
176 54
177 55
177 56
177 57
178 58
178 59
178 60
179 61
180 62
180 63
179 64
178 65
177 65
176 65
175 65
175 66
176 67
176 68
176 69
177 70
177 71
178 72
178 73
177 74
177 75
177 76
177 77
177 78
178 79
179 80
178 81
177 81
176 80
175 81
174 81
173 80
172 81
171 81
170 80
169 80
170 81
170 82
170 83
170 84
170 85
169 86
168 86
167 85
166 85
165 85
164 85
163 85
162 85
161 85
160 84
159 84
159 85
160 86
160 87
160 88
160 89
160 90
160 91
160 92
159 93
158 92
157 92
156 92
155 91
154 92
153 91
152 91
151 91
151 92
151 93
150 94
149 93
148 92
147 92
146 92
145 92
144 92
143 92
142 92
141 92
140 91
139 91
140 91
141 92
141 93
140 94
139 94
139 95
139 96
139 97
140 98
139 99
138 99
137 99
136 99
135 99
134 99
133 99
132 99
131 99
130 99
129 99
128 99
127 99
126 99
125 99
126 100
126 101
126 102
127 103
127 104
126 105
125 105
124 105
123 105
122 105
121 105
120 106
119 106
118 107
117 107
116 108
115 109
114 110
115 111
116 111
117 112
118 113
119 113
120 114
120 115
120 116
121 116
122 116
123 116
124 117
124 118
125 118
126 119
125 120
124 120
123 120
122 120
122 121
123 121
124 121
125 122
126 123
127 124
127 125
127 126
128 127
129 128
129 129
128 130
127 130
126 130
125 130
124 130
123 130
123 131
123 132
122 133
121 133
120 132
119 131
118 132
117 131
116 131
116 132
117 132
118 133
118 134
117 135
118 136
118 137
118 138
118 139
118 140
119 141
118 142
117 142
116 141
115 142
114 142
113 142
112 142
111 143
110 143
109 143
108 143
107 143
106 143
105 143
104 143
105 144
106 145
106 146
106 147
106 148
106 149
105 150
104 150
103 150
102 151
101 151
100 151
101 152
100 153
99 153
98 152
97 153
96 153
95 154
94 154
93 154
92 154
92 155
93 155
94 156
94 157
95 157
96 158
96 159
97 159
98 160
99 161
100 162
99 163
98 164
97 165
97 166
98 166
99 166
100 166
101 167
102 168
103 169
104 170
105 171
106 172
106 173
105 174
105 175
104 176
103 177
102 177
101 177
101 178
102 178
103 178
104 179
105 180
105 181
105 182
106 182
107 183
107 184
108 185
109 186
108 187
107 187
106 187
105 188
104 188
103 188
102 188
101 188
101 189
102 190
102 191
101 192
100 193
99 192
99 191
98 192
97 192
96 192
95 192
95 193
96 194
96 195
96 196
95 197
94 197
93 197
92 197
91 197
90 198
89 198
88 199
87 199
87 200
88 200
89 201
90 202
91 202
92 203
93 203
94 204
94 205
94 206
93 207
92 207
93 208
94 208
95 209
96 209
97 210
98 211
98 212
99 212
100 213
99 214
98 214
97 215
96 215
95 215
94 215
93 215
92 215
91 216
90 216
89 216
90 217
91 218
91 219
92 220
92 221
91 222
90 222
89 222
88 222
87 222
86 223
85 223
84 223
85 224
84 225
83 225
82 225
81 226
80 226
79 227
78 227
77 228
76 228
77 229
78 229
79 230
80 231
81 232
81 233
82 234
82 235
83 236
82 237
81 237
80 237
79 237
78 238
77 238
76 238
75 238
74 238
73 238
73 239
74 240
75 241
75 242
76 243
75 244
74 244
73 244
72 244
71 245
70 245
69 245
68 245
67 245
66 246
65 245
65 246
66 247
65 248
64 248
63 248
62 248
61 249
60 249
59 250
58 250
57 251
58 252
58 253
59 254
59 255
59 256
60 257
60 258
59 259
58 259
57 260
56 260
55 260
54 261
53 261
52 261
51 261
50 262
51 262
52 263
52 264
51 265
50 265
49 265
48 266
47 267
46 267
45 268
44 268
43 269
42 270
41 270
40 271
40 272
41 273
41 274
42 275
43 276
42 277
41 278
40 278
39 279
38 280
37 280
36 281
35 281
35 282
35 283
34 284
33 284
32 284
31 285
30 286
29 286
28 287
29 288
30 289
31 290
31 291
30 292
29 293
28 294
27 295
26 295
25 296
24 297
24 298
23 299
24 299
25 299
26 300
26 301
25 302
25 303
24 304
25 305
25 306
26 307
27 307
28 306
28 305
29 304
30 304
31 305
32 304
33 303
34 302
35 302
36 302
37 302
38 301
39 302
40 302
41 301
41 300
41 299
42 298
43 297
44 296
45 296
45 295
46 294
47 294
48 294
49 294
50 293
51 294
51 295
52 295
53 294
54 293
54 292
55 291
56 291
57 290
58 289
59 288
60 288
61 288
62 288
63 288
64 287
65 287
66 287
67 287
68 287
69 287
70 287
71 287
72 287
73 287
74 286
75 286
76 285
77 285
78 284
79 284
80 284
81 283
82 283
83 283
84 283
85 284
85 285
86 285
87 285
88 285
89 285
90 285
91 285
92 285
93 286
93 287
93 288
92 289
93 289
94 289
95 289
96 289
97 290
98 290
99 290
100 290
101 291
101 292
100 293
100 294
101 294
102 295
103 296
103 297
103 298
104 299
104 300
104 301
105 302
104 303
103 303
102 304
101 304
100 304
99 305
98 305
99 306
99 307
100 308
100 309
99 310
98 310
97 310
96 311
95 311
94 312
93 312
92 312
91 313
90 313
89 314
88 314
89 314
90 315
91 316
92 317
93 318
94 319
95 319
96 320
97 320
98 321
98 322
97 323
96 324
96 325
97 325
98 325
99 326
100 326
101 327
102 327
103 328
104 329
105 330
105 331
104 332
104 333
103 334
102 335
101 335
101 336
102 336
103 336
104 336
105 337
106 338
105 339
106 339
107 339
108 340
107 341
106 341
105 342
104 343
103 344
102 345
103 345
104 345
105 346
106 347
107 348
107 349
106 350
105 351
104 351
103 352
102 353
101 353
100 354
99 355
98 354
97 354
98 355
99 355
100 356
101 357
100 358
99 358
98 358
97 358
96 358
95 358
94 359
93 360
92 360
91 360
92 361
93 362
94 362
95 363
96 364
97 365
98 366
99 367
100 367
101 368
102 369
103 370
104 371
103 372
102 372
102 373
103 374
104 374
105 374
106 374
107 374
108 375
108 376
108 377
109 377
110 377
111 378
112 378
113 379
114 379
115 380
114 381
114 382
114 383
113 384
112 385
112 386
113 386
114 386
115 386
116 386
117 386
118 386
119 387
118 388
118 389
117 390
118 390
119 390
120 391
121 391
122 392
123 393
123 394
124 394
125 394
126 395
127 396
126 397
125 398
125 399
124 400
123 401
122 402
123 402
124 403
125 403
126 404
126 405
125 406
125 407
124 408
123 409
123 410
122 411
121 412
120 413
121 413
122 413
123 413
124 414
125 414
126 415
127 416
126 417
125 418
125 419
124 420
123 421
122 421
121 422
120 423
120 424
121 424
122 425
123 425
124 426
123 427
123 428
122 429
121 430
121 431
121 432
120 433
120 434
121 435
122 435
123 435
124 435
125 435
126 434
127 435
127 436
128 436
129 436
130 436
131 436
132 436
133 437
134 437
135 436
136 436
137 436
138 436
139 436
140 436
141 437
141 438
142 438
143 438
144 438
145 437
146 438
147 438
148 438
149 438
150 439
150 440
151 439
152 439
153 440
154 440
155 441
156 441
157 441
158 442
158 443
158 444
159 445
159 446
159 447
159 448
160 448
161 447
162 447
163 448
164 448
165 448
166 448
167 447
168 448
169 447
170 447
171 448
171 449
172 449
173 449
174 449
175 449
176 449
177 449
178 449
179 449
180 449
181 449
182 449
183 449
184 449
185 449
186 450
186 451
187 452
188 453
188 454
188 455
188 456
188 457
188 458
189 459
190 458
191 458
192 458
193 458
194 458
195 458
196 458
197 457
198 457
199 457
200 458
201 459
201 460
202 461
202 462
202 463
203 463
204 462
205 463
205 464
206 463
207 463
208 464
209 464
210 464
211 464
212 464
213 465
213 466
213 467
213 468
214 469
214 470
214 471
214 472
215 473
215 474
215 475
215 476
216 476
217 476
218 476
219 477
220 477
221 478
222 479
223 480
223 481
223 482
223 483
223 484
223 485
222 486
222 487
223 487
224 487
225 486
226 487
226 488
226 489
226 490
226 491
226 492
227 493
227 494
227 495
226 496
227 496
228 496
229 495
230 494
231 494
232 493
233 493
234 492
235 491
236 491
237 491
238 490
239 490
240 491
240 490
241 489
242 489
243 488
244 487
245 486
246 485
247 485
248 484
249 484
250 483
251 483
252 483
253 483
254 483
255 484
256 485
256 486
257 487
258 486
259 485
259 484
260 483
261 482
262 481
262 480
263 479
264 480
265 479
266 478
267 478
268 478
269 477
270 477
271 477
272 476
273 476
274 476
275 475
276 476
276 477
277 477
277 476
278 475
279 474
280 474
281 473
282 473
283 472
284 473
285 473
286 474
286 475
287 476
287 477
288 478
288 479
287 480
288 480
289 480
290 480
291 480
292 480
293 480
294 480
295 480
296 480
297 480
298 480
299 480
300 479
301 479
302 479
303 479
304 479
305 479
306 478
307 479
308 479
309 479
310 478
311 478
312 478
313 478
314 478
315 478
316 478
317 477
318 477
319 477
320 476
321 476
322 476
323 476
324 476
325 476
326 477
327 478
328 478
329 479
330 480
330 481
330 482
331 483
332 483
332 482
333 481
334 481
335 481
336 481
337 480
338 480
339 480
340 479
341 478
342 478
343 479
344 478
345 479
346 478
347 479
348 478
349 477
350 476
351 476
352 475
353 475
354 475
355 475
356 474
357 474
358 475
359 475
360 475
361 476
362 477
363 477
364 476
365 476
366 476
367 476
368 476
369 475
370 475
371 475
372 475
373 475
374 476
375 477
375 478
375 479
375 480
376 481
377 480
378 480
379 481
380 482
381 483
382 484
383 485
383 486
383 487
383 488
384 489
385 489
385 488
386 487
387 486
388 486
389 485
390 485
391 485
392 485
393 484
394 484
395 484
396 483
397 483
398 483
399 482
400 483
401 483
402 482
402 481
403 480
404 479
405 479
406 478
407 478
408 477
409 477
410 477
411 477
412 477
413 476
414 477
415 478
416 477
416 476
417 475
418 474
419 473
420 472
421 471
422 472
422 471
423 470
424 471
425 470
425 469
426 468
427 468
428 468
429 467
430 467
431 467
432 467
433 467
434 466
435 467
436 466
437 467
438 468
438 467
439 466
439 465
440 464
441 463
442 462
442 461
443 460
444 459
445 458
446 458
447 459
448 458
448 457
448 456
449 455
450 454
451 453
452 453
453 452
454 452
455 452
456 452
457 452
458 452
459 451
460 451
461 452
462 453
463 453
463 452
463 451
464 450
465 449
465 448
466 447
466 446
467 445
468 446
469 446
469 445
469 444
469 443
470 442
470 441
471 440
472 440
472 439
473 438
474 438
475 439
476 438
476 437
476 436
477 435
478 434
478 433
479 432
480 431
481 430
482 430
483 430
484 429
485 429
486 429
487 429
488 429
489 430
490 431
490 430
490 429
491 428
492 427
492 426
493 425
494 425
494 424
495 423
496 423
497 422
498 423
499 423
499 422
499 421
500 420
500 419
501 418
501 417
502 416
503 415
504 415
505 415
505 414
506 413
507 414
508 415
509 415
509 414
508 413
509 412
509 411
510 410
510 409
511 408
511 407
512 406
513 406
514 405
515 405
516 405
516 404
517 403
518 402
519 401
520 401
521 401
522 401
523 401
524 401
525 401
526 401
527 402
528 403
529 404
529 403
529 402
530 401
531 401
531 400
532 399
533 398
532 397
533 396
534 396
535 397
535 396
536 395
536 394
536 393
537 392
538 391
538 390
539 389
540 389
541 390
542 390
542 389
542 388
542 387
543 386
543 385
543 384
543 383
543 382
544 381
545 380
546 379
547 379
548 379
549 378
550 377
551 377
552 377
553 377
553 376
553 375
554 374
555 374
555 373
556 372
557 372
558 372
559 371
560 372
561 371
562 370
563 371
564 371
565 372
566 371
567 372
567 373
567 374
568 374
569 373
570 372
571 372
572 371
573 371
574 370
574 369
575 368
576 368
577 367
578 366
579 367
580 367
580 366
581 365
581 364
581 363
581 362
582 361
583 360
584 360
585 359
586 358
587 358
588 359
589 358
589 357
589 356
590 355
590 354
590 353
589 352
590 351
591 351
592 351
591 350
592 349
592 348
592 347
592 346
593 345
593 344
594 343
595 343
596 344
597 344
598 344
599 345
600 345
600 344
600 343
601 342
601 341
602 340
602 339
603 338
603 337
603 336
603 335
604 334
605 333
606 333
606 332
606 331
607 330
607 329
607 328
607 327
607 326
608 325
608 324
609 323
610 323
611 323
612 323
613 323
614 323
615 323
616 324
617 324
618 324
617 323
618 322
618 321
618 320
618 319
618 318
619 317
619 316
620 315
621 315
621 314
621 313
621 312
621 311
621 310
620 309
620 308
621 307
622 306
623 306
624 306
625 306
625 305
625 304
624 303
624 302
624 301
624 300
624 299
624 298
624 297
624 296
624 295
624 294
624 293
623 292
623 291
623 290
623 289
624 288
625 288
626 288
627 288
628 288
629 288
630 288
630 287
630 286
630 285
630 284
630 283
630 282
629 281
629 280
629 279
629 278
630 277
631 276
632 276
632 275
631 274
630 273
630 272
630 271
629 270
629 269
629 268
629 267
630 266
631 265
632 265
632 264
631 263
631 262
630 261
630 260
629 259
628 258
628 257
628 256
627 255
626 254
625 253
625 252
624 251
623 250
623 249
622 248
621 247
620 246
619 246
618 245
617 244
616 243
617 242
618 242
619 241
620 241
621 241
622 241
623 240
624 240
625 241
626 240
627 240
628 240
629 239
630 240
631 239
632 239
633 239
634 238
635 238
636 238
637 238
638 238
639 238
640 238
641 237
642 237
643 237
644 237
645 236
646 236
647 236
648 236
649 236
650 236
651 236
652 236
653 235
654 235
655 235
656 235
657 235
658 235
659 235
660 234
661 234
662 234
663 234
664 234
665 234
666 234
667 234
668 234
669 234
670 234
671 234
672 233
673 233
674 233
675 233
676 233
677 233
678 233
679 233
680 233
681 233
682 233
683 233
684 233
685 233
686 233
687 233
688 233
689 234
690 234
691 234
692 234
693 234
694 234
695 234
696 234
697 234
698 233
699 233
700 233
701 233
702 233
703 232
704 232
705 231
706 231
707 230
708 229
709 228
710 228
711 227
711 226
712 225
712 224
712 223
712 222
711 221
711 220
711 219
710 218
710 217
709 216
708 215
707 215
706 215
705 215
704 215
704 216
704 217
704 218
704 219
703 220
703 221
702 222
701 222
700 223
699 224
698 223
697 223
696 223
695 224
694 224
693 223
692 223
691 224
690 224
689 224
688 223
687 224
686 224
685 224
684 224
683 224
682 224
681 224
680 224
679 224
678 225
677 224
676 225
675 225
674 225
673 225
672 225
671 225
670 225
669 225
668 225
667 225
666 225
665 226
664 225
663 225
662 226
661 226
660 226
659 226
658 226
657 226
656 226
655 226
654 227
653 227
652 227
651 227
650 227
649 227
648 228
647 228
646 228
645 228
644 228
643 229
642 229
641 229
640 229
639 230
638 230
637 230
636 230
635 229
634 228
635 227
635 226
636 225
637 225
637 224
638 223
639 223
639 222
640 221
641 220
642 219
643 218
642 218
641 218
640 217
640 216
641 215
642 214
642 213
643 212
643 211
643 210
643 209
643 208
643 207
644 206
644 205
645 204
644 204
643 204
642 203
641 203
640 202
640 201
640 200
640 199
640 198
640 197
640 196
641 195
641 194
641 193
642 192
641 192
640 192
639 192
638 192
637 191
637 190
638 189
638 188
637 187
637 186
637 185
637 184
636 183
636 182
635 181
635 180
634 181
633 182
632 182
631 182
630 182
629 182
628 183
627 183
626 183
625 182
625 181
625 180
624 179
623 178
623 177
622 176
622 175
621 174
621 173
620 172
620 171
619 171
618 172
617 172
616 172
615 172
614 171
614 170
614 169
614 168
614 167
613 166
613 165
613 164
613 163
612 163
611 164
610 164
609 163
610 162
610 161
609 160
608 159
608 158
607 157
607 156
606 157
605 158
604 159
603 159
602 159
601 160
600 160
599 160
598 159
598 158
597 157
597 156
596 155
596 154
595 154
594 154
593 154
592 153
592 152
592 151
591 150
591 149
590 149
589 148
589 147
589 146
588 146
587 147
586 148
585 148
585 149
584 150
583 150
582 149
582 148
582 147
582 146
581 145
580 144
580 143
579 142
579 141
578 141
577 142
576 141
576 140
576 139
575 138
575 137
574 136
574 135
573 134
573 133
572 134
571 135
570 136
569 136
568 136
567 137
566 136
566 135
566 134
565 133
565 132
564 131
563 130
562 129
562 128
562 127
562 126
561 127
560 128
559 128
558 129
557 128
556 127
555 126
554 125
553 124
552 123
551 123
550 122
549 123
549 124
549 125
549 126
548 127
547 127
546 128
546 129
546 130
546 131
545 132
544 132
543 132
542 131
542 130
541 129
540 128
539 127
538 126
537 125
537 124
536 125
535 126
534 126
533 125
533 124
533 123
532 122
531 122
530 121
530 120
529 119
528 118
527 119
526 119
525 120
524 120
524 121
523 122
522 121
521 120
521 119
520 119
519 118
518 117
518 116
517 115
516 114
515 113
515 112
514 111
514 110
513 109
513 108
512 109
511 109
510 110
509 111
508 111
507 110
506 109
506 108
505 107
504 106
503 105
503 104
502 103
502 104
501 105
500 106
499 106
498 105
498 104
497 103
496 102
496 101
495 100
494 99
494 98
493 98
493 99
493 100
492 101
491 102
490 102
490 103
489 104
488 105
488 106
487 107
486 107
485 106
485 105
484 105
483 104
482 104
481 103
480 102
479 102
478 102
477 101
476 100
475 100
474 99
474 98
474 97
473 97
472 98
471 99
470 100
469 100
468 99
468 98
467 97
466 97
465 96
464 95
463 94
463 93
462 92
462 93
462 94
461 95
460 95
459 94
459 93
458 92
457 91
456 90
455 89
454 88
453 88
454 89
453 90
453 91
453 92
453 93
452 94
451 93
450 94
449 95
449 96
448 97
447 96
446 96
445 95
444 95
443 94
442 94
441 94
440 93
439 92
438 92
437 91
436 91
435 90
435 89
434 89
435 90
434 91
434 92
433 93
432 94
431 93
430 92
429 92
428 91
427 91
426 90
425 90
424 89
423 89
422 89
423 90
422 91
421 92
420 91
419 91
418 91
417 91
416 90
415 90
414 90
413 90
412 89
412 90
412 91
412 92
412 93
412 94
412 95
411 96
410 95
410 94
410 93
410 92
409 92
408 91
408 90
408 89
407 88
407 87
407 86
406 85
405 85
404 86
403 86
402 86
401 87
400 86
400 85
400 84
399 83
399 82
399 81
398 80
398 79
398 78
398 77
397 77
396 78
395 79
394 78
394 77
394 76
393 75
393 74
392 73
392 72
391 71
390 70
389 69
389 68
388 67
388 66
388 67
387 68
386 69
385 69
384 70
383 71
382 71
381 70
381 69
381 68
380 67
379 66
378 65
377 66
376 66
375 65
375 64
375 63
375 62
374 62
373 61
373 60
373 59
372 59
371 60
370 61
369 61
368 61
367 62
366 62
365 61
365 60
364 59
363 58
362 57
361 56
360 57
359 58
358 58
357 57
357 56
356 55
355 54
354 53
353 52
352 51
351 52
351 53
351 54
351 55
350 56
350 57
350 58
350 59
349 60
348 59
347 58
347 59
347 60
347 61
346 62
345 63
344 64
344 65
343 66
342 66
341 65
340 64
339 64
338 63
337 63
336 62
335 62
334 61
333 60
332 59
332 58
331 59
330 60
329 60
328 61
327 61
326 62
325 62
324 62
323 61
322 60
321 59
320 58
319 57
318 56
317 55
316 55
316 56
315 57
314 58
313 58
312 57
311 56
310 56
309 55
308 54
308 53
307 53
308 54
308 55
307 56
306 55
305 54
305 53
304 53
303 52
302 51
301 51
300 52
300 53
299 54
298 55
297 56
297 57
296 58
295 59
294 59
293 58
292 57
291 57
290 57
289 56
288 56
287 55
286 55
285 54
284 53
283 52
283 51
282 51
282 52
281 53
280 54
280 55
279 56
278 56
277 55
276 54
275 54
274 54
273 53
273 52
272 52
271 51
270 51
269 50
268 49
268 48
267 48
267 49
266 50
266 51
265 52
264 51
263 50
262 49
261 48
260 47
259 47
258 46
257 45
256 44
