420 32
419 33
418 34
417 35
416 34
415 34
414 34
413 34
412 33
411 33
410 33
409 33
408 33
407 34
406 35
405 35
404 34
403 34
402 34
401 34
400 34
399 33
398 33
398 34
398 35
397 36
396 36
395 37
394 37
393 36
392 36
391 36
390 35
389 35
388 35
387 35
386 36
385 36
384 36
383 35
382 35
381 35
380 35
379 35
378 36
377 37
376 38
375 38
374 38
373 38
372 37
371 37
370 37
369 37
368 38
367 38
366 39
365 38
364 38
363 38
362 38
361 39
360 38
359 39
358 39
357 39
357 40
356 41
355 40
354 40
353 40
352 39
351 39
350 39
349 39
348 39
347 39
346 39
345 39
344 40
343 40
343 41
342 42
342 43
341 44
340 44
339 44
338 44
337 43
336 44
335 44
334 44
333 44
332 45
331 45
330 46
329 46
328 46
327 46
326 45
325 45
324 45
323 45
322 45
321 45
320 45
320 46
319 47
319 48
318 49
317 49
316 49
315 49
314 49
313 49
312 49
311 49
310 49
309 49
308 49
307 50
306 51
306 52
305 53
304 54
303 54
302 54
301 54
300 53
299 54
298 54
297 54
296 54
295 55
295 56
295 57
294 58
294 59
294 60
293 61
292 61
291 61
290 61
289 61
288 61
287 62
286 62
285 62
284 62
283 62
282 62
281 62
280 63
280 64
279 65
279 66
278 67
278 68
277 69
276 69
275 69
274 69
273 70
272 70
271 70
270 70
269 71
268 71
267 71
267 72
266 73
266 74
266 75
265 76
265 77
265 78
264 79
263 79
262 79
261 79
260 79
259 80
258 81
257 80
256 81
255 81
254 82
253 82
252 83
252 84
252 85
251 86
251 87
252 88
251 89
250 89
249 89
248 89
247 89
246 90
245 90
244 90
243 91
242 91
241 92
240 92
239 92
240 93
240 94
239 95
239 96
238 97
237 97
236 97
235 97
234 98
233 97
232 97
231 97
230 97
229 97
228 98
227 98
227 99
226 100
226 101
226 102
226 103
225 104
224 104
223 104
222 104
221 104
220 105
219 106
218 106
217 106
216 107
215 107
215 108
215 109
215 110
215 111
214 112
213 112
212 112
211 112
210 112
209 112
208 112
207 112
206 113
205 113
205 114
205 115
205 116
205 117
205 118
204 119
203 119
202 120
201 121
200 121
199 122
198 123
197 124
197 125
197 126
197 127
196 128
195 128
194 128
193 129
192 129
191 129
190 129
189 130
188 130
187 131
186 131
186 132
186 133
186 134
186 135
186 136
185 137
184 137
183 137
182 137
181 138
180 138
179 138
178 139
177 140
176 140
175 140
175 141
174 142
174 143
174 144
174 145
173 146
172 146
171 147
170 147
169 147
168 148
167 148
166 149
165 150
165 151
165 152
164 153
163 154
162 154
161 154
160 154
159 155
158 155
157 155
156 156
155 157
155 158
154 159
154 160
153 161
152 162
151 162
150 162
149 162
148 163
147 163
146 163
145 164
145 165
145 166
145 167
144 168
144 169
145 170
144 171
143 171
142 171
141 171
140 171
139 172
138 173
137 173
136 173
135 174
134 175
133 176
133 177
133 178
133 179
133 180
133 181
133 182
132 183
131 183
130 183
129 183
128 184
127 184
126 185
125 185
124 186
123 187
122 187
121 188
121 189
120 190
120 191
120 192
119 193
118 193
117 194
116 194
115 195
114 195
113 196
112 197
111 197
110 198
109 199
108 200
107 201
107 202
107 203
106 204
105 204
104 205
103 205
102 206
101 206
100 207
99 207
98 208
97 208
97 209
97 210
96 211
95 212
94 212
93 213
92 213
91 214
90 214
89 215
88 216
87 217
86 217
85 218
84 218
83 218
82 218
82 219
81 220
80 221
79 221
78 221
77 222
76 222
75 223
74 223
73 224
72 224
71 225
70 226
69 226
68 226
67 226
66 227
65 227
64 227
63 227
62 228
61 228
60 229
59 229
58 230
57 230
56 229
55 229
54 229
53 229
52 229
51 230
50 230
49 230
48 230
47 230
46 230
45 230
44 231
43 231
42 231
41 231
40 231
39 232
38 232
38 233
39 233
40 234
41 233
42 233
43 233
44 233
45 233
46 233
47 234
48 234
49 235
50 236
51 236
52 237
53 237
54 237
55 237
56 237
57 237
58 237
59 237
60 238
60 239
61 239
62 240
63 240
64 240
65 241
66 241
67 241
68 241
69 242
70 242
71 243
72 243
73 244
74 245
75 246
76 246
77 247
78 247
79 247
80 247
81 248
82 248
83 249
84 250
85 250
86 251
87 251
88 252
89 252
90 253
90 254
91 255
92 256
93 257
94 258
95 258
96 258
97 259
98 259
99 259
100 260
100 261
100 262
100 263
101 263
102 264
103 265
104 265
105 265
106 265
107 266
108 267
109 268
110 269
111 270
112 271
113 272
114 273
113 274
113 275
114 276
115 277
116 278
117 279
118 279
119 280
120 280
121 281
122 282
123 282
124 282
125 283
125 284
126 285
126 286
126 287
127 287
128 288
129 289
130 289
131 289
132 290
133 290
134 290
135 290
136 291
136 292
136 293
137 294
137 295
138 296
139 297
140 297
141 298
142 299
143 299
144 300
145 301
145 302
145 303
145 304
145 305
146 306
147 307
147 308
148 308
149 309
150 310
151 310
152 311
153 311
154 312
155 313
155 314
154 315
154 316
154 317
155 318
156 319
157 319
158 319
159 320
160 320
161 320
162 321
163 322
164 323
165 324
166 324
167 325
168 325
169 326
170 326
171 327
172 328
172 329
172 330
173 331
173 332
173 333
174 334
175 335
176 335
177 336
178 336
179 337
180 337
181 338
182 339
183 339
184 339
185 340
186 341
186 342
186 343
187 344
188 345
189 346
190 346
191 347
192 347
193 348
194 349
194 350
195 351
195 352
196 353
197 353
198 354
199 355
200 356
201 356
202 357
203 357
204 357
205 358
206 359
207 360
207 361
208 362
208 363
209 364
209 365
210 366
211 366
212 367
213 367
214 367
215 368
216 368
217 369
218 369
219 370
220 370
221 371
222 371
223 371
224 372
224 373
225 374
225 375
225 376
226 377
226 378
227 378
228 379
229 379
230 380
231 380
232 381
233 381
234 381
235 382
236 383
236 384
237 385
237 386
238 386
239 387
240 387
241 388
242 388
243 388
244 389
245 389
246 389
247 390
248 390
249 390
250 390
251 391
252 392
252 393
253 394
253 395
253 396
254 397
255 397
256 397
257 397
258 398
259 398
260 398
261 398
262 398
263 398
264 399
265 400
265 401
266 402
266 403
265 404
266 405
267 405
268 406
269 406
270 407
271 407
272 407
273 407
274 408
275 408
276 408
277 409
278 409
279 409
280 410
280 411
281 412
281 413
282 414
283 414
284 415
285 415
286 415
287 416
288 416
289 417
290 417
291 417
292 418
293 418
294 418
295 418
296 418
297 419
298 420
299 421
299 422
299 423
300 424
301 424
302 425
303 425
304 425
305 425
306 425
307 425
308 426
309 426
310 426
311 426
312 426
313 427
313 428
314 428
315 429
316 429
317 429
318 429
319 429
320 430
321 430
322 430
323 430
324 430
325 430
326 430
327 430
328 430
329 431
330 431
331 431
332 432
333 432
334 432
335 432
336 432
337 432
338 432
339 432
340 432
341 432
342 432
343 432
344 432
345 433
346 433
347 433
348 433
349 433
350 433
351 433
352 433
353 433
354 433
355 433
356 433
357 434
358 434
359 434
360 434
361 434
362 434
363 434
364 434
365 433
366 433
367 433
368 432
369 432
370 433
371 433
372 433
373 433
374 433
375 433
376 433
377 433
378 433
379 432
380 432
381 432
382 432
383 431
384 432
385 432
386 432
387 432
388 432
389 432
390 432
391 432
392 432
393 431
394 431
395 431
396 431
397 431
398 431
399 431
400 431
401 431
402 431
403 431
404 430
405 430
406 430
407 430
408 430
409 430
410 430
411 430
412 429
413 429
414 428
415 428
416 428
417 428
418 428
419 428
420 427
421 427
422 427
423 426
424 426
425 425
426 425
427 425
428 424
429 424
430 424
431 424
432 424
433 424
434 424
435 424
436 423
437 423
438 423
439 423
440 423
441 422
442 422
443 421
444 421
445 421
446 421
447 421
448 420
449 420
450 420
451 420
452 419
453 419
454 418
455 417
456 417
457 416
458 416
459 416
460 416
461 416
462 415
463 415
464 415
465 414
466 414
467 413
468 413
469 412
470 412
471 412
472 412
473 412
474 411
475 411
476 410
477 410
478 410
479 409
480 409
481 408
482 407
483 407
484 406
485 405
486 405
487 405
488 405
489 404
490 403
491 402
492 401
493 400
494 400
495 399
496 398
497 397
498 397
499 396
500 396
501 395
502 395
503 394
504 394
505 393
506 392
507 391
508 390
509 390
510 389
511 389
512 388
513 387
514 386
515 385
516 385
517 384
518 384
519 383
520 383
521 382
522 381
523 380
524 379
525 378
526 378
527 378
528 377
529 376
530 375
531 374
532 374
533 373
533 372
534 371
535 370
536 370
537 369
538 369
539 368
540 367
541 366
542 365
543 364
544 363
545 362
546 362
547 361
548 360
549 359
549 358
550 357
551 356
552 355
553 354
554 353
555 352
556 351
556 350
556 349
557 348
557 347
558 346
558 345
559 344
560 343
561 342
561 341
562 340
562 339
563 338
564 337
564 336
565 335
566 334
567 333
567 332
568 331
568 330
569 329
570 328
571 327
571 326
572 325
573 324
574 323
574 322
575 321
576 320
576 319
577 318
577 317
578 316
579 315
579 314
580 313
580 312
581 311
582 310
582 309
583 308
583 307
584 306
584 305
585 304
586 303
586 302
587 301
587 300
588 299
588 298
589 297
590 296
591 295
591 294
592 293
593 293
593 292
593 291
594 290
594 289
595 288
596 287
596 286
597 285
598 284
598 283
599 282
600 281
600 280
601 279
601 278
602 277
603 276
603 275
604 274
604 273
605 272
605 271
606 270
606 269
606 268
607 267
608 266
608 265
608 264
609 263
609 262
610 261
610 260
611 259
611 258
611 257
611 256
611 255
611 254
612 253
612 252
612 251
613 250
613 249
614 248
614 247
615 246
615 245
616 244
616 243
617 242
618 241
618 240
619 239
619 238
620 237
620 236
621 235
621 234
621 233
622 232
622 231
622 230
622 229
622 228
622 227
622 226
623 225
623 224
622 223
622 222
622 221
622 220
622 219
621 218
621 217
621 216
620 215
620 214
620 213
621 212
622 212
623 212
624 212
625 212
626 212
627 212
628 212
629 212
630 212
631 212
632 212
633 212
634 212
635 212
636 212
637 212
638 212
639 212
640 212
641 212
642 212
643 212
644 212
645 212
646 212
647 212
648 212
649 212
650 212
651 212
652 212
653 212
654 212
655 212
656 212
657 212
658 212
659 212
660 211
661 211
662 211
663 211
664 211
665 211
666 211
667 211
668 211
669 211
670 211
671 210
672 210
673 210
674 210
675 210
676 210
677 210
678 210
679 210
680 209
681 209
682 209
683 209
684 209
685 209
686 209
687 208
688 208
689 208
690 208
691 208
692 207
693 207
694 207
695 207
696 207
697 207
698 207
699 206
700 206
701 206
702 206
703 205
704 205
705 205
706 205
707 205
708 204
709 204
710 204
711 204
712 204
713 203
714 203
715 203
716 203
717 202
718 202
719 202
720 201
721 201
722 201
723 200
724 200
725 200
726 200
727 199
728 199
729 199
730 198
731 198
732 198
733 197
734 197
735 197
736 196
737 196
738 196
739 195
740 195
741 195
742 195
743 194
744 194
745 193
746 193
747 193
748 192
749 192
750 192
751 191
752 191
753 190
754 190
755 189
756 189
757 189
758 188
759 188
760 187
761 187
762 186
763 186
764 185
765 185
766 184
767 184
768 183
769 183
770 182
771 182
772 181
773 181
774 180
775 179
776 179
777 178
778 177
779 176
780 175
781 175
782 174
783 173
784 172
785 171
785 170
786 169
785 168
784 167
783 167
782 167
781 166
780 165
779 165
778 165
777 166
776 167
775 167
774 168
773 169
772 169
771 170
770 170
769 171
768 172
767 172
766 173
765 173
764 174
763 174
762 175
761 175
760 176
759 176
758 176
757 177
756 177
755 178
754 178
753 178
752 179
751 180
750 180
749 180
748 181
747 181
746 181
745 182
744 182
743 182
742 183
741 183
740 184
739 184
738 184
737 185
736 185
735 185
734 186
733 186
732 186
731 187
730 187
729 187
728 188
727 188
726 188
725 189
724 189
723 189
722 189
721 190
720 190
719 190
718 190
717 191
716 191
715 191
714 192
713 192
712 192
711 192
710 193
709 193
708 193
707 193
706 193
705 193
704 194
703 194
702 194
701 194
700 195
699 195
698 195
697 195
696 195
695 196
694 196
693 196
692 196
691 196
690 196
689 197
688 197
687 197
686 197
685 197
684 197
683 197
682 198
681 198
680 198
679 198
678 198
677 198
676 198
675 199
674 199
673 199
672 199
671 199
670 199
669 199
668 200
667 200
666 200
665 200
664 200
663 200
662 200
661 200
660 200
659 200
658 200
657 200
656 200
655 200
654 201
653 201
652 201
651 201
650 201
649 201
648 201
647 201
646 201
645 201
644 201
643 201
642 201
641 201
640 201
639 201
638 201
637 201
636 201
635 201
634 201
633 201
632 201
631 201
630 201
629 201
628 201
627 201
626 201
625 201
624 201
623 201
622 201
621 201
620 201
619 200
618 200
617 200
616 199
616 198
616 197
617 196
617 195
618 194
619 193
619 192
619 191
620 190
620 189
620 188
620 187
620 186
620 185
620 184
621 183
621 182
621 181
621 180
621 179
621 178
621 177
621 176
622 175
622 174
622 173
622 172
622 171
622 170
622 169
622 168
622 167
622 166
622 165
623 164
623 163
623 162
623 161
623 160
623 159
623 158
623 157
623 156
623 155
623 154
623 153
623 152
623 151
622 150
622 149
622 148
622 147
622 146
622 145
621 144
621 143
621 142
621 141
621 140
621 139
621 138
621 137
621 136
620 135
620 134
620 133
619 132
619 131
619 130
618 129
618 128
617 127
617 126
617 125
616 124
616 123
616 122
615 121
615 120
615 119
615 118
614 117
614 116
613 115
612 114
612 113
611 112
611 111
610 110
610 109
609 108
608 107
608 106
607 106
606 105
606 104
605 103
605 102
604 101
603 100
602 99
601 99
600 98
599 97
598 96
597 95
597 94
596 94
595 93
594 92
594 91
593 90
592 90
591 89
591 88
590 87
590 86
589 85
588 84
588 83
587 83
586 82
585 81
585 80
584 79
583 78
583 77
582 76
581 75
580 75
579 75
578 74
578 73
577 72
576 71
575 71
574 70
573 70
572 70
571 69
570 68
569 68
568 68
567 67
566 67
565 67
564 66
563 65
562 64
561 64
560 63
560 62
559 62
558 62
557 61
556 62
555 62
554 61
553 60
552 59
551 58
550 58
549 57
548 57
547 58
546 58
545 57
544 56
543 56
542 55
541 55
540 54
539 54
538 53
537 53
536 52
535 52
534 53
533 53
532 53
531 52
530 51
529 50
528 49
527 49
526 49
525 48
524 47
523 47
522 47
521 46
520 47
519 47
518 47
517 46
516 46
515 45
514 45
513 45
512 45
511 45
510 46
509 46
508 45
507 45
506 44
505 44
504 43
503 43
502 43
501 43
500 43
499 44
498 44
497 44
496 43
495 42
494 42
493 42
492 42
491 41
490 41
489 41
488 40
487 41
486 42
485 42
484 42
483 41
482 41
481 40
480 40
479 40
478 39
477 39
476 39
475 39
474 40
473 40
472 39
471 39
470 39
469 38
468 38
467 38
466 38
465 38
464 39
463 39
462 39
461 39
460 38
459 38
458 37
457 37
456 37
455 37
454 36
453 36
452 36
451 37
450 38
449 37
448 37
447 36
446 36
445 36
444 35
443 35
443 36
442 37
441 37
440 36
439 35
438 35
437 35
436 34
435 34
434 34
433 34
432 34
432 35
431 36
430 36
429 35
428 34
427 34
426 33
425 33
424 33
423 33
422 33
421 33
420 32
