419 49
418 50
417 50
417 51
416 52
415 53
414 53
413 53
412 53
411 53
410 53
409 53
408 53
407 53
406 53
405 53
404 53
403 52
402 52
401 52
400 52
399 53
398 52
397 52
396 52
395 52
394 52
393 53
392 53
391 53
390 53
389 53
388 54
387 54
386 53
385 53
384 54
383 54
382 54
381 54
380 54
379 54
378 54
377 54
376 54
375 54
374 55
373 55
372 55
371 55
370 54
369 54
368 54
367 54
366 53
365 53
364 53
363 53
362 53
361 53
360 53
359 53
358 54
357 54
356 54
355 54
354 54
353 54
352 54
351 54
350 54
349 54
348 54
347 55
346 56
345 57
344 58
343 59
342 59
341 59
340 59
339 60
338 60
337 60
336 60
335 61
334 61
333 61
332 62
331 62
330 63
329 63
328 63
327 64
326 64
325 64
324 65
323 65
322 65
321 65
320 65
319 66
318 66
317 66
316 66
315 66
314 67
313 67
312 67
311 67
310 67
309 67
308 67
307 68
306 68
305 68
304 68
303 68
302 68
301 69
300 69
299 69
298 69
297 69
296 69
295 69
294 69
293 70
292 70
291 70
290 70
289 70
288 70
287 71
286 71
285 71
284 72
283 73
283 74
282 75
281 74
281 75
281 76
280 77
279 78
278 78
277 78
276 78
275 78
274 78
273 78
272 78
271 79
270 79
269 79
268 79
267 80
266 80
265 80
264 80
263 81
262 81
261 82
260 82
259 82
258 82
257 83
256 83
255 83
254 84
253 84
252 84
251 85
250 85
249 86
248 86
247 86
246 86
245 87
244 87
243 87
242 87
241 88
240 89
239 89
238 89
237 89
236 90
235 90
234 91
233 91
232 91
231 92
230 92
229 93
228 93
227 93
226 94
225 94
224 95
223 95
222 96
221 96
220 96
219 97
218 97
217 98
216 98
215 98
214 99
213 100
213 101
212 102
211 102
210 103
210 104
210 105
211 106
211 107
210 108
209 109
208 109
207 110
206 111
205 111
204 112
203 113
202 113
201 114
200 114
199 115
198 116
197 116
196 117
195 117
194 118
193 118
192 119
191 120
190 120
189 121
188 121
187 122
186 123
185 124
184 124
183 125
182 126
181 126
180 127
179 128
178 128
177 129
176 130
175 130
174 131
173 132
172 133
171 133
170 134
169 134
168 135
167 135
166 136
165 136
164 137
163 137
162 138
161 138
160 138
159 139
158 139
157 140
156 140
155 141
154 142
153 142
152 143
151 143
150 144
149 145
148 146
147 147
147 148
146 149
146 150
147 151
147 152
146 153
145 154
144 155
143 155
142 156
141 156
140 157
139 157
138 158
137 159
136 160
135 161
134 162
133 163
132 163
132 164
131 165
130 166
129 167
129 168
128 169
127 170
126 171
126 172
125 173
124 173
123 174
122 175
121 176
120 177
119 178
119 179
118 180
117 181
116 182
115 183
114 184
113 185
113 186
112 187
111 188
110 189
109 190
108 191
107 192
106 193
105 194
104 195
103 196
102 197
101 198
100 199
99 200
98 201
97 201
96 202
95 203
94 204
93 205
92 206
91 207
90 208
89 209
88 210
87 211
87 212
86 213
85 214
84 215
83 216
83 217
82 218
81 219
81 220
81 221
81 222
81 223
80 224
80 225
79 226
78 227
78 228
77 229
77 230
76 231
75 232
75 233
74 234
74 235
74 236
73 237
73 238
72 239
71 240
71 241
70 242
70 243
69 244
68 245
68 246
67 247
67 248
66 249
66 250
65 251
65 252
65 253
64 254
63 254
62 255
61 255
60 255
60 256
61 256
62 257
63 258
64 259
65 259
66 260
67 260
68 260
69 261
70 261
71 261
72 262
73 262
74 262
75 263
76 263
77 263
78 264
79 264
80 265
81 266
82 267
83 268
84 269
85 270
86 271
86 272
87 273
87 274
88 275
88 276
89 277
89 278
90 279
91 280
91 281
92 282
93 283
93 284
94 285
95 286
96 287
96 288
97 289
98 290
99 291
99 292
100 292
101 293
101 294
102 295
103 296
104 297
105 298
106 299
107 300
108 301
109 301
110 302
111 303
112 304
113 305
114 306
115 307
115 308
116 309
117 310
118 311
119 312
120 313
121 314
122 315
123 315
124 316
125 317
126 318
127 318
128 319
129 320
130 320
131 320
132 321
133 322
134 322
135 323
136 323
137 324
138 325
139 325
140 326
141 327
142 328
143 328
144 329
145 330
145 331
146 332
147 333
148 334
149 335
150 335
151 336
152 337
153 338
154 339
155 340
156 341
157 342
158 343
159 344
160 344
161 345
161 346
162 346
163 347
164 348
165 348
166 349
167 350
168 350
169 351
170 352
171 352
172 353
173 354
174 355
174 356
175 357
176 358
177 359
178 360
179 360
180 361
181 361
182 362
183 363
184 363
185 363
186 364
187 365
188 365
189 366
190 366
191 367
192 367
193 368
194 368
195 368
196 369
197 369
198 369
199 369
200 370
201 370
202 370
203 371
204 372
205 373
205 374
206 375
207 376
208 377
209 378
210 379
211 379
212 380
213 381
214 382
215 382
216 382
217 383
218 383
219 384
220 384
221 384
222 385
223 385
224 385
225 386
226 386
227 386
228 387
229 387
230 387
231 388
232 388
233 388
234 389
235 389
236 389
237 389
238 390
239 390
240 390
241 391
242 391
243 392
244 392
245 393
246 393
247 394
248 394
249 395
250 395
251 396
252 396
253 397
254 397
255 397
256 398
257 398
258 399
259 399
260 399
261 400
262 400
263 400
264 400
265 401
266 401
267 402
268 403
269 404
270 405
271 405
272 406
273 406
274 407
275 407
276 408
277 408
278 409
279 409
280 410
281 410
282 410
283 411
284 411
285 411
286 412
287 412
288 412
289 413
290 413
291 413
292 413
293 414
294 414
295 414
296 414
297 415
298 415
299 415
300 415
301 416
302 416
303 416
304 416
305 416
306 416
307 416
308 417
309 417
310 417
311 417
312 417
313 418
314 418
315 419
316 420
317 420
318 420
319 421
320 421
321 421
322 421
323 421
324 421
325 421
326 421
327 421
328 421
329 421
330 421
331 421
332 421
333 421
334 421
335 421
336 421
337 420
338 420
339 420
340 420
341 420
342 420
343 420
344 420
345 420
346 420
347 420
348 420
349 420
350 420
351 419
352 419
353 419
354 419
355 419
356 419
357 419
358 419
359 418
360 418
361 418
362 418
363 418
364 418
365 418
366 418
367 418
368 418
369 418
370 417
371 417
372 417
373 417
374 417
375 417
376 417
377 417
378 417
379 417
380 417
381 417
382 417
383 417
384 417
385 417
386 418
387 418
388 418
389 418
390 417
391 417
392 417
393 416
394 416
395 416
396 415
397 415
398 414
399 414
400 414
401 414
402 413
403 413
404 412
405 412
406 411
407 411
408 410
409 410
410 410
411 409
412 409
413 409
414 409
415 408
416 408
417 407
418 407
419 407
420 407
421 407
422 407
423 406
424 406
425 406
426 406
427 406
428 406
429 405
430 405
431 405
432 405
433 405
434 405
435 404
436 404
437 403
438 403
439 402
440 401
441 401
442 400
443 400
444 399
445 398
446 398
447 397
448 397
449 396
450 395
451 395
452 395
453 394
454 394
455 393
456 393
457 393
458 392
459 392
460 391
461 391
462 391
463 391
464 391
465 390
466 390
467 390
468 390
469 389
470 389
471 389
472 388
473 388
474 388
475 388
476 388
477 387
478 387
479 387
480 387
481 387
482 386
483 386
484 386
485 386
486 386
487 386
488 386
489 385
490 385
491 385
492 385
493 385
494 385
495 385
496 385
497 384
498 384
499 384
500 384
501 384
502 383
503 383
504 383
505 383
506 383
507 382
508 382
509 381
510 380
511 380
512 380
513 379
514 378
515 378
516 377
517 376
518 375
519 374
520 373
521 372
522 371
523 370
524 370
525 369
526 368
527 367
528 366
529 365
530 364
531 364
532 363
533 363
534 362
535 362
536 361
536 360
537 359
538 359
539 358
540 357
541 357
542 356
543 355
544 354
545 353
546 352
547 352
548 351
549 350
550 349
551 348
552 347
553 347
554 346
555 345
556 344
557 344
558 343
559 342
560 342
561 341
562 340
563 340
564 339
565 338
566 337
567 336
568 335
569 334
570 333
571 333
572 332
573 331
574 330
575 329
576 328
577 327
578 326
579 325
580 324
581 323
582 323
582 322
583 321
584 320
585 320
586 319
587 319
588 318
589 317
590 317
591 316
592 316
593 316
594 315
595 314
596 313
597 312
598 311
598 310
599 309
600 308
601 307
602 306
602 305
603 304
604 303
604 302
605 301
606 300
606 299
607 298
608 297
608 296
609 295
609 294
610 293
610 292
611 291
612 290
612 289
613 288
613 287
614 286
614 285
615 284
615 283
616 282
616 281
617 280
617 279
618 278
619 277
619 276
620 275
620 274
621 273
622 272
622 271
623 270
624 269
624 268
625 267
626 266
626 265
627 264
627 263
628 262
628 261
629 260
629 259
630 258
630 257
631 256
632 255
633 254
633 253
634 252
635 251
635 250
636 249
636 248
637 247
638 246
639 245
639 244
640 243
641 242
641 241
642 240
643 239
644 239
644 238
645 237
646 237
647 236
648 235
649 235
650 234
651 234
652 234
653 233
654 233
655 233
656 232
657 232
658 232
659 232
660 232
661 232
662 232
663 232
664 232
665 232
666 231
667 231
668 231
669 231
670 231
671 231
672 231
673 231
674 231
675 231
676 231
677 231
678 231
679 231
680 231
681 231
682 231
683 231
684 231
685 231
686 231
687 231
688 231
689 231
690 231
691 231
692 231
693 231
694 232
695 232
696 232
697 232
698 232
699 232
700 232
701 232
702 232
703 232
704 232
705 232
706 233
707 233
708 233
709 233
710 233
711 233
712 233
713 233
714 233
715 234
716 234
717 234
718 234
719 234
720 234
721 234
722 234
723 234
724 234
725 234
726 235
727 235
728 235
729 235
730 235
731 235
732 235
733 235
734 235
735 235
736 235
737 235
738 235
739 235
740 235
741 235
742 235
743 235
744 235
745 234
746 234
747 233
748 233
749 232
750 231
751 230
752 230
753 229
754 228
755 227
755 226
756 225
756 224
756 223
756 222
756 221
755 220
755 219
755 218
755 217
754 216
754 215
754 214
754 213
754 212
754 211
753 210
752 210
751 210
750 209
749 209
748 209
747 209
746 208
745 208
744 207
743 207
742 207
741 207
740 206
739 206
738 206
737 205
736 205
735 204
734 204
733 204
732 203
731 203
730 202
729 202
729 203
730 203
731 204
732 204
733 204
734 205
734 206
735 207
736 207
737 208
738 209
739 210
739 211
738 212
737 213
736 213
735 213
734 213
733 213
732 213
731 213
730 213
729 213
728 213
727 213
726 213
725 213
724 213
723 213
722 213
721 212
720 212
719 212
718 212
717 212
716 212
715 212
714 212
713 212
712 212
711 212
710 211
709 211
708 211
707 211
706 211
705 211
704 211
703 210
702 210
701 210
700 210
699 210
698 210
697 210
696 210
695 210
694 209
693 209
692 210
691 209
690 209
689 209
688 209
687 208
686 208
685 208
684 208
683 208
682 208
681 208
680 208
679 207
678 207
677 207
676 207
675 207
674 207
673 207
672 207
671 207
670 207
669 207
668 207
667 206
666 207
665 206
664 206
663 206
662 205
661 205
660 205
659 204
658 204
657 204
656 203
655 203
654 202
653 201
652 201
651 200
650 199
649 199
648 198
647 197
646 196
645 195
644 194
643 193
643 192
642 192
641 191
640 190
640 189
639 188
638 187
637 186
636 185
636 184
636 183
635 182
634 181
633 180
632 179
631 178
631 177
630 177
629 176
628 175
627 174
627 173
626 172
625 171
624 170
623 169
622 168
621 167
620 166
619 165
618 164
617 163
616 162
615 161
614 160
613 159
612 158
611 157
610 156
609 155
608 154
607 153
606 152
605 151
604 150
603 149
602 148
601 147
600 146
599 145
598 144
597 143
596 143
595 142
594 141
593 140
592 139
591 138
590 137
589 137
588 136
587 135
586 134
585 134
584 133
583 132
582 132
581 131
580 130
579 129
578 129
577 128
576 127
576 126
575 126
574 125
573 125
572 124
571 123
570 123
569 122
569 121
568 121
567 120
566 119
565 119
564 118
563 117
562 117
561 116
560 115
559 114
558 113
557 112
556 112
555 111
554 110
553 109
552 108
551 108
550 107
549 106
548 105
547 104
546 103
545 102
544 101
543 101
542 100
541 99
540 98
539 98
538 97
537 96
536 95
535 94
534 93
533 93
532 92
531 91
530 90
529 90
528 89
527 88
526 88
525 87
524 87
523 86
522 85
521 85
520 85
519 85
518 84
518 83
517 83
517 84
516 85
515 84
514 84
513 83
512 83
511 83
510 82
509 82
508 82
507 81
506 81
505 80
504 80
503 80
502 79
501 79
500 78
499 78
498 78
497 78
496 77
495 77
494 77
493 76
492 76
491 76
490 75
489 75
488 75
487 75
486 74
485 74
484 74
483 73
482 73
481 72
480 72
479 71
478 71
477 70
476 71
475 70
474 70
473 69
472 69
471 69
470 68
469 67
468 67
467 66
466 66
465 66
464 65
463 65
462 64
461 64
460 63
459 63
458 63
457 62
456 61
455 61
454 61
453 60
452 60
451 59
450 59
449 59
448 58
447 58
446 57
445 57
444 57
443 56
442 56
441 55
440 55
439 54
438 54
437 54
436 53
435 53
434 53
433 52
432 52
431 52
430 51
429 51
428 51
427 51
426 50
425 50
424 50
423 49
422 49
421 49
420 49
419 49
