299 65
299 66
299 67
299 68
298 69
298 70
298 71
298 72
298 73
297 74
296 75
296 76
295 77
295 78
294 79
293 80
292 80
291 80
290 80
289 80
288 80
287 80
286 80
285 80
284 79
283 79
282 78
281 78
280 77
279 76
278 76
277 75
276 75
275 74
274 74
273 73
272 72
271 72
270 72
269 71
268 70
267 70
266 70
265 70
264 69
263 69
262 69
261 69
260 69
259 69
258 68
257 68
256 69
255 68
254 68
253 68
252 68
251 68
250 69
249 69
248 69
247 69
246 69
245 69
244 70
243 70
242 70
241 70
240 70
239 70
238 70
237 70
236 70
235 70
234 70
233 69
232 69
231 69
230 70
230 71
230 72
231 73
231 74
231 75
231 76
232 77
232 78
232 79
233 80
234 81
234 82
235 83
235 84
235 85
235 86
236 87
236 88
236 89
237 90
237 91
237 92
238 93
238 94
238 95
239 96
239 97
239 98
240 99
240 100
240 101
241 102
241 103
242 104
242 105
242 106
243 107
243 108
244 109
244 110
245 111
245 112
246 113
246 114
246 115
247 116
248 117
249 118
250 119
251 120
252 121
253 122
254 123
254 124
255 125
256 126
257 127
258 128
259 129
260 130
261 131
262 132
263 133
263 134
264 135
265 136
265 137
266 138
266 139
266 140
267 141
267 142
267 143
267 144
267 145
267 146
267 147
266 148
265 148
265 149
264 150
263 150
262 150
261 151
260 151
259 151
258 151
257 151
256 151
255 151
254 152
253 152
252 152
251 152
250 152
249 151
248 151
247 151
246 150
245 149
244 149
243 148
242 147
241 146
240 145
239 144
238 143
237 143
236 142
235 141
234 141
233 140
232 140
231 139
230 138
229 137
229 136
228 136
227 135
227 134
226 133
225 133
224 132
223 131
222 130
221 129
220 129
219 128
218 127
217 126
216 125
215 124
214 124
213 123
212 122
211 122
210 121
209 120
208 119
207 119
206 118
205 117
204 117
203 116
202 116
201 115
200 114
199 113
198 113
197 112
196 112
195 111
194 111
193 110
192 109
191 109
190 109
189 108
188 108
187 108
186 107
185 107
184 106
183 106
182 106
181 106
180 105
179 105
178 105
177 105
176 105
175 105
174 104
173 104
172 105
171 105
170 105
169 106
169 107
169 108
170 109
170 110
170 111
171 112
171 113
171 114
170 115
170 116
170 117
170 118
170 119
169 120
169 121
169 122
168 123
168 124
168 125
167 126
167 127
167 128
167 129
167 130
166 131
166 132
165 133
165 134
165 135
164 136
164 137
164 138
164 139
163 140
163 141
163 142
163 143
163 144
162 145
161 146
160 146
159 146
158 146
157 146
156 146
155 146
154 146
153 147
152 147
151 147
150 148
149 148
148 148
147 148
146 149
145 149
144 150
143 150
142 151
142 152
142 153
141 154
141 155
141 156
142 157
142 158
142 159
142 160
142 161
142 162
143 163
143 164
143 165
144 166
144 167
144 168
145 169
145 170
145 171
145 172
145 173
146 174
145 175
145 176
144 177
143 178
142 178
141 179
140 179
139 179
138 179
137 180
136 179
135 179
134 179
133 179
132 178
131 178
130 178
129 177
128 177
127 177
126 177
125 177
124 177
123 177
122 176
121 176
120 176
119 176
118 176
117 176
116 176
115 176
114 176
113 177
112 176
111 176
110 176
109 176
108 176
107 177
106 177
105 177
104 177
103 177
102 177
101 177
100 177
99 178
98 178
97 179
96 180
95 180
94 180
93 181
92 181
91 181
90 182
89 182
88 183
87 183
86 184
85 184
84 184
83 185
82 185
81 185
80 185
79 185
78 186
77 186
76 186
75 186
74 187
73 187
72 187
71 188
70 188
69 189
68 189
67 190
66 190
65 191
64 192
63 192
62 193
61 193
60 194
59 195
58 196
57 196
56 197
56 198
57 199
58 200
59 201
60 202
61 203
62 204
63 205
64 206
65 207
66 208
67 209
67 210
68 211
69 212
70 212
71 213
72 214
73 215
74 216
75 217
76 218
77 218
78 219
79 220
80 221
81 222
82 223
83 224
84 224
85 225
86 226
87 227
86 228
85 229
84 229
83 230
82 230
81 230
80 230
79 230
78 230
77 231
76 231
75 231
74 231
73 231
72 232
71 232
70 232
69 232
68 233
67 233
66 233
65 234
64 234
63 234
62 235
61 235
60 235
59 236
58 237
57 237
56 238
55 238
54 239
53 239
52 240
51 241
50 241
49 242
48 243
47 243
46 244
45 245
44 246
45 247
45 248
46 248
47 249
48 250
49 251
50 252
51 252
52 253
53 254
53 255
54 256
54 257
54 258
54 259
54 260
53 261
52 262
51 263
50 263
49 264
48 265
47 265
46 266
45 267
44 267
44 268
43 269
42 270
41 271
40 272
40 273
40 274
39 275
39 276
39 277
39 278
40 279
41 280
42 281
43 282
44 283
45 283
46 284
46 285
47 286
48 287
49 288
49 289
50 290
51 291
52 292
52 293
52 294
52 295
53 296
53 297
53 298
53 299
53 300
53 301
54 302
55 303
56 304
57 304
58 305
59 305
60 305
61 305
62 305
63 305
64 305
65 305
66 305
67 305
68 305
69 305
70 305
71 305
72 306
73 307
74 308
75 309
76 310
76 311
77 312
76 313
76 314
76 315
75 316
75 317
74 318
74 319
73 320
73 321
73 322
73 323
72 324
71 325
70 326
70 327
69 328
69 329
68 330
67 331
66 332
65 333
65 334
66 335
67 336
68 336
69 337
70 337
71 337
72 338
73 338
74 338
75 339
76 339
77 339
78 339
79 340
80 340
81 340
82 340
83 340
84 340
85 340
86 341
87 341
88 341
89 341
90 341
91 341
92 341
93 341
94 341
95 341
96 341
97 341
98 341
99 341
100 341
101 341
102 342
103 342
104 342
105 342
106 342
107 342
108 341
109 341
110 341
111 341
112 340
113 340
114 340
115 339
116 339
117 339
118 338
119 337
120 337
121 337
122 337
123 336
124 337
125 337
126 338
126 339
126 340
126 341
126 342
125 343
125 344
124 345
123 346
123 347
122 348
121 349
120 350
120 351
119 352
118 353
118 354
117 355
116 356
116 357
115 358
114 359
113 360
112 361
111 362
110 363
109 364
109 365
108 366
108 367
107 368
106 369
105 370
105 371
104 372
103 373
103 374
102 375
102 376
101 377
100 378
100 379
99 380
98 381
98 382
99 383
100 383
101 384
102 385
103 385
104 385
105 385
106 386
107 386
108 386
109 386
110 386
111 386
112 386
113 386
114 386
115 386
116 386
117 386
118 386
119 386
120 386
121 386
122 386
123 386
124 386
125 386
126 386
127 386
128 386
129 386
130 386
131 386
132 386
133 386
134 386
135 386
136 386
137 386
138 387
139 387
140 387
141 388
142 388
143 389
144 389
145 390
146 390
147 391
148 392
149 392
150 393
151 394
152 394
153 394
154 394
155 394
156 394
157 394
158 394
159 394
160 394
161 394
162 393
163 393
164 392
165 392
166 391
167 390
168 390
169 389
170 388
171 387
172 386
173 385
174 384
175 384
176 383
177 382
178 382
179 381
180 380
181 380
182 379
183 379
184 378
185 377
186 377
187 376
188 376
189 375
190 375
191 374
192 374
193 373
194 373
195 372
196 371
197 370
198 370
199 369
200 368
201 368
202 367
203 367
204 366
205 366
206 366
207 366
208 366
209 367
210 368
211 369
210 370
210 371
210 372
209 373
209 374
208 375
207 376
207 377
206 378
205 379
205 380
204 381
203 382
203 383
202 384
201 385
201 386
200 387
199 388
198 389
197 390
196 391
195 392
194 393
194 394
193 395
192 396
192 397
192 398
191 399
191 400
190 401
190 402
189 403
189 404
188 405
188 406
188 407
187 408
187 409
187 410
186 411
186 412
186 413
186 414
185 415
185 416
185 417
185 418
185 419
184 420
184 421
184 422
184 423
184 424
184 425
183 426
183 427
183 428
182 429
182 430
181 431
181 432
180 433
180 434
179 435
179 436
178 437
178 438
178 439
177 440
177 441
176 442
176 443
176 444
175 445
175 446
175 447
174 448
173 449
174 450
174 451
175 451
176 451
177 451
178 452
179 453
179 454
180 454
181 454
182 454
183 454
184 454
185 454
186 454
187 454
188 454
189 454
190 454
191 454
192 453
193 453
194 453
195 452
196 452
197 452
198 451
199 451
200 451
201 451
202 451
203 451
204 451
205 451
206 451
207 451
208 451
209 451
210 451
211 451
212 451
213 451
214 451
215 451
216 450
217 450
218 450
219 450
220 449
221 449
222 448
223 448
224 448
225 447
226 446
227 446
228 446
229 446
230 445
231 446
232 446
233 446
234 446
235 446
236 447
237 447
238 448
239 449
240 450
240 451
240 452
240 453
240 454
241 455
241 456
241 457
241 458
241 459
241 460
241 461
240 462
240 463
240 464
241 464
242 464
243 464
244 464
245 463
246 464
247 463
248 464
249 463
250 462
251 462
252 462
253 461
254 460
255 460
256 459
257 459
258 458
259 457
260 456
261 455
262 455
263 454
264 453
265 452
266 451
267 450
268 449
269 448
270 447
270 446
271 445
272 444
273 443
274 442
275 441
275 440
276 439
277 438
278 437
278 436
279 435
280 434
281 433
282 432
283 431
284 430
284 429
285 428
286 427
287 426
288 425
288 424
288 423
289 422
289 421
290 420
290 419
291 418
291 417
292 416
292 415
293 414
293 413
293 412
294 411
294 410
294 409
295 408
295 407
296 406
296 405
297 404
297 403
298 402
299 401
299 400
300 399
301 398
302 397
302 396
303 395
304 394
305 393
306 392
307 392
308 391
309 390
310 390
311 389
312 389
313 389
314 389
315 389
316 389
317 389
318 389
319 389
320 389
321 390
322 390
323 390
324 391
325 391
326 392
327 393
327 394
327 395
327 396
327 397
327 398
326 399
326 400
326 401
326 402
326 403
326 404
325 405
325 406
325 407
325 408
324 409
324 410
323 411
323 412
322 413
321 414
321 415
320 416
319 417
318 418
317 419
316 420
315 421
314 422
313 423
312 424
311 425
310 425
309 426
308 427
307 428
306 429
305 429
304 430
303 431
302 432
301 433
300 434
299 435
298 436
297 437
296 438
295 439
294 440
293 441
293 442
292 443
291 444
290 445
289 446
288 447
288 448
287 449
286 450
285 451
284 452
284 453
283 454
282 455
282 456
281 457
281 458
280 459
280 460
280 461
279 462
279 463
279 464
279 465
279 466
279 467
279 468
279 469
278 470
278 471
278 472
278 473
279 474
279 475
280 476
280 477
281 478
281 479
282 480
282 481
282 482
282 483
282 484
282 485
282 486
282 487
282 488
281 489
281 490
281 491
281 492
281 493
281 494
280 495
280 496
279 497
279 498
279 499
278 500
278 501
278 502
278 503
277 504
276 505
276 506
276 507
276 508
275 509
275 510
275 511
275 512
274 513
274 514
274 515
274 516
274 517
274 518
274 519
273 520
273 521
273 522
273 523
273 524
273 525
273 526
274 527
275 527
276 528
277 528
278 528
279 528
280 528
281 528
282 528
283 528
284 528
285 527
286 527
287 527
288 527
289 527
290 527
291 526
292 526
293 526
294 526
295 525
296 525
297 525
298 524
299 524
300 524
301 523
302 523
303 523
304 522
305 522
306 521
307 521
308 521
309 520
310 520
311 520
312 519
313 519
314 519
315 519
316 518
317 518
318 518
319 518
320 518
321 518
322 518
323 519
324 519
325 520
326 521
326 522
326 523
326 524
326 525
326 526
325 527
325 528
324 529
325 530
326 530
327 530
328 530
329 530
330 530
331 530
332 530
333 529
334 529
335 529
336 529
337 528
338 528
339 528
340 527
341 527
342 526
343 525
344 525
345 524
346 523
347 523
348 522
349 521
350 520
351 519
352 518
353 518
354 517
355 516
356 515
356 514
357 513
358 512
359 512
359 511
360 510
361 509
361 508
362 507
362 506
363 505
364 504
364 503
365 502
366 501
367 500
368 499
368 498
369 497
370 496
371 496
372 495
373 494
374 493
375 492
376 491
377 490
378 490
379 489
380 489
381 489
382 488
383 488
384 489
385 489
386 489
387 490
388 491
389 492
389 493
390 494
390 495
390 496
391 497
391 498
392 499
392 500
392 501
392 502
393 503
393 504
394 505
394 506
394 507
395 508
395 509
396 509
397 509
398 508
399 507
400 507
401 506
402 505
403 504
404 503
405 502
406 501
406 500
407 499
408 498
409 497
410 496
411 495
411 494
412 493
412 492
413 491
414 490
414 489
415 488
415 487
416 486
416 485
417 484
417 483
418 482
418 481
419 480
419 479
420 478
420 477
421 476
421 475
422 474
422 473
423 472
423 471
423 470
423 469
423 468
423 467
424 466
424 465
424 464
424 463
424 462
424 461
425 460
425 459
425 458
426 457
426 456
426 455
427 454
427 453
427 452
427 451
427 450
428 449
428 448
428 447
428 446
428 445
428 444
428 443
428 442
428 441
428 440
428 439
428 438
428 437
428 436
428 435
429 434
429 433
429 432
429 431
429 430
430 429
430 428
430 427
430 426
430 425
430 424
431 423
431 422
431 421
431 420
432 419
432 418
432 417
432 416
432 415
433 414
433 413
433 412
434 411
434 410
434 409
435 408
435 407
435 406
436 405
436 404
437 403
437 402
438 401
438 400
438 399
439 398
439 397
440 396
440 395
440 394
440 393
441 392
441 391
441 390
441 389
442 388
442 387
442 386
442 385
443 384
443 383
444 382
444 381
444 380
444 379
445 378
445 377
445 376
445 375
446 374
446 373
446 372
447 371
447 370
448 369
448 368
449 367
450 366
451 365
452 364
453 364
454 363
455 363
456 363
457 362
458 362
459 362
460 362
461 362
462 362
463 361
464 361
465 362
466 361
467 362
468 361
469 362
470 362
471 362
472 363
472 364
473 365
473 366
473 367
473 368
472 369
472 370
473 371
473 372
473 373
473 374
473 375
472 376
473 377
472 378
472 379
472 380
472 381
472 382
472 383
472 384
472 385
472 386
472 387
472 388
472 389
472 390
471 391
471 392
471 393
471 394
471 395
471 396
471 397
471 398
471 399
471 400
471 401
471 402
471 403
471 404
471 405
471 406
471 407
471 408
471 409
471 410
471 411
471 412
471 413
471 414
471 415
471 416
471 417
472 418
472 419
472 420
472 421
472 422
472 423
472 424
473 425
473 426
473 427
474 428
474 429
474 430
474 431
475 432
475 433
476 434
476 435
476 436
476 437
477 438
477 439
477 440
477 441
478 442
478 443
478 444
479 445
479 446
479 447
480 448
480 449
480 450
481 450
482 450
483 449
484 448
485 447
486 446
487 445
488 445
489 444
490 444
491 443
492 442
493 442
494 441
495 440
496 439
497 438
498 438
499 437
499 436
500 435
501 434
502 433
503 432
504 431
505 430
506 429
507 428
507 427
508 426
508 425
509 424
510 423
511 422
511 421
512 420
513 419
514 418
514 417
515 416
516 415
517 414
518 413
519 412
520 412
521 411
522 410
523 410
524 409
525 409
526 408
527 407
528 406
529 406
530 405
531 404
532 403
533 402
534 401
535 400
536 399
536 398
537 397
537 396
538 395
539 394
539 393
540 392
540 391
540 390
541 389
541 388
541 387
541 386
541 385
542 384
542 383
542 382
543 381
543 380
543 379
543 378
544 377
544 376
544 375
544 374
544 373
544 372
545 371
545 370
545 369
545 368
545 367
545 366
544 365
544 364
544 363
544 362
544 361
544 360
544 359
544 358
544 357
543 356
544 355
544 354
545 353
545 352
545 351
545 350
545 349
545 348
545 347
545 346
545 345
544 344
544 343
544 342
543 341
543 340
543 339
543 338
543 337
543 336
544 335
545 335
546 335
547 335
548 336
549 336
550 336
551 337
552 337
553 338
554 338
555 339
556 339
557 339
558 340
559 340
560 340
561 341
562 341
563 341
564 341
565 341
566 341
567 341
568 341
569 340
570 340
571 339
572 339
573 338
574 338
575 338
576 337
577 337
578 336
579 336
580 335
581 335
582 334
583 333
584 333
585 332
586 331
587 331
588 331
589 331
590 331
591 331
592 331
593 331
594 331
595 331
596 331
597 331
598 330
599 329
600 328
601 328
602 327
603 326
603 325
604 324
605 323
606 322
607 321
608 320
609 320
609 319
610 318
611 318
612 317
613 317
614 316
615 315
616 314
617 313
618 312
619 311
620 310
621 309
622 308
622 307
623 306
624 305
625 304
626 303
627 303
628 302
629 301
630 300
631 299
632 298
633 297
634 296
634 295
635 294
635 293
636 292
636 291
636 290
637 289
637 288
637 287
637 286
638 285
638 284
638 283
638 282
638 281
638 280
638 279
638 278
638 277
638 276
638 275
638 274
638 273
638 272
638 271
638 270
638 269
638 268
638 267
638 266
638 265
638 264
639 263
640 263
641 262
642 262
643 262
644 261
645 261
646 261
647 261
648 260
649 260
650 260
651 260
652 260
653 260
654 260
655 260
656 260
657 260
658 260
659 260
660 260
661 260
662 260
663 260
664 260
665 260
666 260
667 260
668 260
669 260
670 260
671 260
672 260
673 260
674 260
675 260
676 260
677 260
678 260
679 260
680 259
681 259
682 259
683 259
684 259
685 259
686 258
687 258
688 258
689 258
690 257
691 257
692 256
693 255
693 254
694 253
694 252
694 251
695 250
695 249
694 248
694 247
693 246
693 245
692 245
691 244
690 243
689 244
688 244
687 243
686 243
685 243
684 243
683 242
682 242
681 242
680 242
679 242
678 242
677 242
676 242
675 242
674 241
673 241
672 241
671 241
670 241
669 241
668 242
667 242
666 242
665 242
664 242
663 242
662 242
661 242
660 242
659 243
658 243
657 243
656 243
655 243
654 243
653 243
652 243
651 244
650 244
649 244
648 244
647 244
646 244
645 244
644 245
643 244
642 244
641 244
640 244
639 244
638 244
637 244
636 244
635 244
634 243
633 243
632 242
631 242
630 241
629 240
628 239
628 238
628 237
628 236
628 235
628 234
627 233
627 232
627 231
626 230
626 229
626 228
625 227
625 226
624 225
624 224
623 223
623 222
622 221
621 220
620 219
620 218
619 217
618 217
617 216
616 215
615 214
614 214
613 213
612 213
611 212
610 211
609 211
608 210
607 209
606 209
605 208
604 208
603 207
602 207
601 207
600 206
599 206
598 205
597 205
596 205
595 205
594 205
593 205
592 204
591 204
590 204
589 204
588 203
587 203
586 203
585 203
584 203
583 203
582 203
581 203
580 203
579 202
578 202
577 202
576 202
575 201
574 201
573 201
572 201
571 202
570 202
569 202
568 202
567 202
566 203
565 203
564 203
563 203
562 203
561 203
560 203
559 203
558 203
557 202
556 202
555 202
554 201
553 201
552 200
551 200
550 199
549 198
548 197
548 196
547 195
546 194
545 193
544 192
543 192
542 191
541 191
540 190
539 191
538 190
537 190
536 190
535 189
534 188
533 188
532 187
531 187
530 186
529 186
528 186
527 185
526 185
525 185
524 185
523 184
522 183
521 183
520 182
519 181
518 180
517 180
516 179
515 179
514 178
513 178
512 177
511 177
510 177
509 176
508 176
507 175
506 175
505 174
504 174
503 173
502 172
501 171
501 170
500 169
500 168
499 167
499 166
498 165
498 164
497 163
497 162
496 161
496 160
495 159
494 158
494 157
493 156
493 155
492 154
491 153
491 152
490 151
490 150
489 149
489 148
488 147
488 146
487 145
486 144
486 143
485 142
485 141
484 140
484 139
483 138
483 137
482 136
482 135
481 134
481 133
481 132
480 131
480 130
479 129
479 128
478 127
478 126
477 125
476 124
475 123
475 122
474 121
473 120
473 119
472 118
471 117
470 116
469 116
468 115
467 114
466 113
465 113
464 112
463 112
462 111
461 111
460 111
459 111
458 110
457 110
456 110
455 110
454 110
453 109
452 109
451 108
450 108
449 107
448 106
447 106
446 105
445 104
444 103
443 102
442 101
441 100
440 99
439 98
438 97
437 97
436 96
435 95
434 94
433 93
432 92
431 92
430 91
429 91
428 90
427 90
426 90
425 89
424 89
423 88
422 88
421 88
420 88
419 88
418 87
417 87
416 87
415 87
414 87
413 86
412 86
411 86
410 86
409 86
408 86
407 86
407 87
407 88
407 89
407 90
408 91
408 92
408 93
408 94
408 95
408 96
408 97
408 98
408 99
408 100
408 101
408 102
408 103
408 104
408 105
408 106
408 107
408 108
408 109
408 110
408 111
409 112
408 113
409 114
409 115
409 116
409 117
409 118
409 119
409 120
409 121
410 122
410 123
410 124
410 125
410 126
410 127
411 128
411 129
412 130
412 131
413 132
414 133
414 134
415 135
416 136
417 137
417 138
418 139
418 140
419 141
419 142
420 143
421 144
421 145
422 146
423 147
423 148
424 149
424 150
425 151
426 152
426 153
427 154
427 155
428 156
429 157
429 158
429 159
429 160
430 161
430 162
430 163
430 164
431 165
431 166
431 167
431 168
431 169
431 170
432 171
432 172
432 173
431 174
431 175
430 176
429 177
428 177
427 177
426 177
425 177
424 177
423 177
422 177
421 177
420 176
419 175
418 175
417 175
416 174
415 174
414 173
413 172
412 171
411 171
410 170
409 170
408 169
407 168
406 168
405 167
404 166
403 166
402 165
401 164
400 164
399 163
398 162
397 161
396 160
395 159
394 158
393 158
392 157
391 156
390 156
389 155
388 154
387 153
386 153
385 152
384 151
384 150
383 149
382 148
381 147
380 146
379 145
378 144
377 143
376 142
375 141
374 140
374 139
373 138
372 137
371 136
370 135
370 134
369 133
368 132
367 131
366 130
365 129
364 128
363 127
363 126
362 125
361 124
360 123
359 122
358 122
357 121
356 120
355 119
354 118
353 117
352 116
351 115
350 114
349 113
348 112
347 111
347 110
346 109
345 108
345 107
344 106
344 105
343 104
342 103
341 103
340 102
339 102
338 101
337 100
336 99
336 98
336 97
336 96
336 95
335 94
335 93
335 92
334 91
333 90
332 89
331 88
330 87
330 86
329 85
328 84
327 83
327 82
326 81
325 80
324 79
323 78
322 77
321 76
321 75
320 74
319 73
318 72
317 71
316 71
315 70
314 70
313 69
312 69
311 68
310 68
309 67
308 67
307 67
306 66
305 65
304 65
303 65
302 65
301 65
300 65
299 65
