297 24
296 25
295 25
294 25
293 25
292 25
291 25
290 25
289 25
288 25
287 25
286 25
285 25
284 25
283 25
282 25
281 25
280 26
279 26
278 26
277 26
276 26
275 26
274 26
273 26
272 27
271 27
270 27
269 27
268 27
267 27
266 28
265 28
264 28
263 28
262 28
261 28
260 28
259 28
258 28
257 28
256 28
255 28
254 29
253 29
252 29
251 29
250 29
249 29
248 29
247 29
246 29
245 29
244 29
243 29
242 30
241 29
240 30
239 30
238 30
237 30
236 30
235 31
234 31
233 31
232 31
231 31
230 32
229 31
228 31
227 32
226 32
225 32
224 32
223 32
222 32
221 32
220 32
219 32
218 32
217 32
216 32
215 32
214 32
213 33
212 32
211 32
210 33
209 33
208 33
207 33
206 33
205 33
204 33
203 33
202 33
201 32
200 33
199 33
198 33
197 33
196 33
195 34
194 34
193 34
192 33
191 34
190 33
189 34
188 34
187 34
186 34
185 34
184 34
183 34
182 34
181 34
180 34
179 34
178 35
177 35
176 35
175 36
174 35
173 36
172 36
171 35
170 36
169 36
168 36
167 36
166 36
165 36
164 36
163 36
162 36
161 36
160 37
159 37
158 37
157 37
156 37
155 37
154 38
153 38
152 38
151 38
150 38
149 38
148 38
147 38
146 38
145 39
144 39
143 39
142 40
141 40
140 40
139 40
138 40
137 40
136 40
135 40
134 40
133 40
132 40
131 40
130 41
129 41
128 41
127 41
126 41
125 42
124 42
123 42
122 42
121 43
120 43
119 43
118 43
117 43
116 43
115 44
114 43
113 44
112 44
111 44
110 44
109 45
108 45
107 45
106 45
105 46
104 45
103 46
102 46
101 46
100 46
99 46
98 46
97 47
96 47
95 47
94 47
93 47
92 47
91 47
90 47
89 48
88 48
87 48
86 48
85 49
84 49
83 49
82 49
81 50
80 50
79 50
78 50
77 51
76 51
75 51
74 51
73 51
72 52
71 52
70 52
69 53
68 53
67 53
66 54
65 54
64 54
63 55
62 55
61 55
60 56
59 57
58 57
57 57
56 58
55 59
54 59
53 60
52 60
51 60
50 61
49 62
48 62
47 63
46 63
45 64
44 64
43 65
42 65
41 65
40 66
39 67
38 68
37 68
36 69
36 70
35 71
34 71
34 72
34 73
34 74
35 75
35 76
36 77
36 78
37 79
37 80
38 81
39 82
40 83
40 84
41 85
42 86
43 87
43 88
44 88
45 89
46 90
47 91
48 92
49 92
50 93
51 94
52 95
53 95
54 96
55 97
56 98
57 99
58 99
59 100
60 100
61 101
62 101
63 102
64 102
65 103
66 103
67 104
68 105
69 106
70 106
71 106
72 106
73 107
74 107
75 108
76 108
77 109
78 109
79 110
80 110
81 110
82 111
83 112
84 112
85 112
86 112
87 113
88 113
89 113
90 113
91 114
92 114
93 115
94 115
95 115
96 116
97 116
98 116
99 117
100 117
101 117
102 118
103 118
104 118
105 119
106 119
107 120
108 120
109 120
110 120
111 120
112 121
113 121
114 122
115 123
116 123
117 123
118 124
119 124
120 124
121 124
122 125
123 125
124 125
125 126
126 126
127 127
128 127
129 127
130 127
131 127
132 128
133 128
134 128
135 128
136 128
137 129
138 129
139 129
140 130
141 130
142 130
143 130
144 131
145 131
146 131
147 131
148 132
149 132
150 132
151 132
152 132
153 133
154 133
155 133
156 133
157 134
158 134
159 134
160 134
161 135
162 135
163 135
164 136
165 136
166 136
167 136
168 136
169 137
170 137
171 137
172 138
173 138
174 138
175 139
176 138
177 139
178 139
179 139
180 140
181 140
182 140
183 140
184 140
185 140
186 140
187 141
188 141
189 141
190 142
191 142
192 142
193 143
194 143
195 143
196 143
197 143
198 144
199 144
200 144
201 144
202 144
203 144
204 144
205 144
206 144
207 144
208 144
209 145
210 145
211 145
212 145
213 145
214 145
215 145
216 145
217 145
218 145
219 145
220 145
221 145
222 145
223 146
224 146
225 145
226 145
227 145
228 146
229 146
230 146
231 146
232 145
233 146
234 146
235 146
236 146
237 146
238 146
239 146
240 146
241 147
242 147
243 147
244 146
245 147
246 147
247 147
248 146
249 147
250 147
251 147
252 147
253 147
254 147
255 147
256 147
257 148
258 148
259 148
260 148
261 148
262 148
263 148
264 148
265 148
266 148
267 149
268 149
269 149
270 150
271 150
272 150
273 150
274 150
275 151
276 151
277 151
278 151
279 151
280 151
281 151
282 152
283 152
284 152
285 152
286 152
287 152
288 152
289 152
290 152
291 152
292 153
293 153
294 153
295 153
296 153
297 153
298 153
299 154
300 154
301 153
302 154
303 154
304 154
305 154
306 154
307 154
308 154
309 154
310 154
311 154
312 154
313 154
314 154
315 154
316 155
317 154
318 154
319 154
320 154
321 155
322 155
323 155
324 155
325 155
326 155
327 155
328 155
329 155
330 155
331 155
332 155
333 155
334 155
335 155
336 155
337 155
338 155
339 155
340 155
341 155
342 156
343 155
344 155
345 155
346 155
347 155
348 155
349 155
350 154
351 154
352 154
353 155
354 154
355 154
356 154
357 154
358 154
359 153
360 153
361 153
362 153
363 153
364 153
365 153
366 152
367 152
368 152
369 152
370 151
371 152
372 152
373 152
374 151
375 152
376 152
377 151
378 152
379 151
380 151
381 151
382 151
383 151
384 151
385 151
386 150
387 150
388 150
389 150
390 150
391 150
392 150
393 149
394 150
395 150
396 149
397 149
398 149
399 149
400 149
401 149
402 149
403 149
404 149
405 149
406 149
407 149
408 149
409 149
410 149
411 149
412 149
413 149
414 149
415 149
416 149
417 148
418 149
419 149
420 149
421 149
422 149
423 149
424 149
425 149
426 149
427 149
428 149
429 149
430 149
431 148
432 148
433 148
434 148
435 148
436 148
437 148
438 148
439 148
440 148
441 148
442 147
443 148
444 147
445 147
446 147
447 146
448 146
449 146
450 146
451 146
452 146
453 146
454 145
455 146
456 145
457 145
458 145
459 145
460 145
461 145
462 145
463 145
464 144
465 144
466 144
467 145
468 144
469 144
470 144
471 144
472 144
473 144
474 144
475 144
476 144
477 144
478 144
479 144
480 144
481 143
482 143
483 143
484 143
485 143
486 143
487 143
488 143
489 143
490 143
491 142
492 142
493 143
494 143
495 143
496 142
497 143
498 143
499 142
500 142
501 142
502 142
503 142
504 142
505 142
506 142
507 141
508 141
509 141
510 141
511 141
512 140
513 140
514 140
515 140
516 140
517 140
518 140
519 140
520 139
521 139
522 139
523 139
524 139
525 139
526 139
527 139
528 139
529 138
530 138
531 138
532 138
533 137
534 137
535 137
536 137
537 137
538 137
539 136
540 136
541 136
542 136
543 136
544 136
545 136
546 135
547 135
548 135
549 135
550 135
551 134
552 134
553 134
554 134
555 134
556 133
557 133
558 133
559 133
560 133
561 133
562 132
563 132
564 132
565 132
566 132
567 132
568 132
569 131
570 131
571 131
572 131
573 131
574 131
575 130
576 130
577 131
578 130
579 129
580 130
581 129
582 130
583 129
584 129
585 129
586 129
587 129
588 129
589 129
590 129
591 129
592 128
593 128
594 128
595 128
596 128
597 128
598 128
599 128
600 128
601 128
602 127
603 127
604 127
605 127
606 127
607 127
608 126
609 126
610 126
611 126
612 126
613 125
614 125
615 124
616 124
617 124
618 124
619 124
620 124
621 123
622 123
623 123
624 123
625 123
626 123
627 123
628 123
629 122
630 122
631 122
632 122
633 121
634 121
635 121
636 121
637 121
638 121
639 121
640 121
641 120
642 120
643 119
644 119
645 120
646 119
647 119
648 119
649 119
650 118
651 119
652 118
653 118
654 117
655 117
656 117
657 117
658 117
659 117
660 117
661 116
662 116
663 116
664 116
665 116
666 116
667 116
668 115
669 115
670 115
671 114
672 114
673 114
674 114
675 114
676 114
677 114
678 113
679 113
680 113
681 113
682 112
683 112
684 112
685 111
686 111
687 111
688 111
689 111
690 110
691 110
692 110
693 110
694 109
695 109
696 109
697 108
698 108
699 107
700 107
701 108
701 107
702 106
703 106
704 106
705 106
706 105
707 106
708 105
709 104
710 104
711 104
712 104
713 103
714 104
715 103
716 103
717 102
718 103
719 102
720 102
721 102
722 102
722 101
722 100
723 99
724 100
724 101
724 102
725 102
726 101
727 102
728 102
729 101
730 101
731 100
732 100
733 100
734 99
735 100
736 100
737 99
738 99
739 99
740 99
740 98
740 97
740 96
740 95
739 94
739 95
738 96
739 97
738 98
737 98
736 97
736 96
736 95
735 95
734 95
733 95
732 95
731 95
730 95
729 95
728 95
727 95
726 95
725 95
724 95
723 95
722 95
721 95
720 95
719 95
718 95
717 95
716 95
715 95
714 95
713 95
712 95
711 95
710 95
709 95
708 94
708 93
707 93
706 94
705 93
704 92
704 91
703 92
702 91
702 90
701 90
700 90
699 89
698 88
697 88
696 87
695 87
694 87
693 86
692 86
691 86
690 85
689 84
688 84
687 84
686 83
685 83
684 82
683 82
682 81
681 82
680 81
679 81
678 80
677 80
676 80
675 79
674 79
673 78
672 78
671 78
670 77
669 77
668 77
667 77
666 76
665 75
664 75
663 75
662 75
661 75
660 74
659 74
658 74
657 73
656 74
655 74
654 73
654 72
653 72
652 71
651 71
650 71
649 71
648 70
647 70
646 70
645 70
644 69
643 69
642 69
641 68
640 68
639 68
638 68
637 68
636 67
635 67
634 66
633 66
632 66
631 65
630 66
629 65
628 65
627 65
626 65
625 65
624 64
623 64
622 64
621 64
620 64
619 63
618 63
617 63
616 62
615 62
614 62
613 62
612 61
611 61
610 61
609 61
608 60
607 60
606 60
605 60
604 59
603 60
602 60
601 59
600 59
599 58
598 58
597 58
596 58
595 58
594 58
593 57
592 57
591 56
590 56
589 56
588 56
587 56
586 56
585 56
584 55
583 55
582 55
581 54
580 54
579 54
578 54
577 53
576 53
575 53
574 53
573 52
572 52
571 52
570 52
569 52
568 52
567 52
566 51
565 51
564 51
563 51
562 50
561 50
560 50
559 50
558 49
557 49
556 49
555 49
554 48
553 48
552 48
551 48
550 47
549 47
548 47
547 47
546 47
545 47
544 46
544 45
543 45
542 45
541 45
540 45
539 45
538 44
537 44
536 44
535 44
534 44
533 44
532 44
531 43
530 43
529 43
528 43
527 43
526 42
525 42
524 42
523 42
522 42
521 42
520 41
519 41
518 41
517 41
516 41
515 41
514 41
513 41
512 41
511 40
510 40
509 40
508 40
507 40
506 40
505 39
504 39
503 39
502 39
501 38
500 38
499 39
498 38
497 38
496 38
495 38
494 38
493 38
492 38
491 38
490 38
489 37
488 37
487 37
486 37
485 37
484 37
483 37
482 37
481 37
480 37
479 37
478 36
477 37
476 36
475 37
474 36
473 36
472 36
471 36
470 35
469 35
468 35
467 35
466 35
465 35
464 35
463 34
462 34
461 34
460 34
459 33
458 33
457 33
456 33
455 33
454 33
453 33
452 33
451 33
450 33
449 32
448 32
447 32
446 32
445 32
444 32
443 32
442 31
441 32
440 31
439 31
438 31
437 31
436 31
435 31
434 31
433 30
432 30
431 30
430 30
429 30
428 29
427 29
426 29
425 29
424 29
423 29
422 28
421 28
420 28
419 28
418 28
417 28
416 28
415 28
414 28
413 28
412 28
411 28
410 28
409 28
408 28
407 28
406 28
405 28
404 28
403 28
402 28
401 28
400 28
399 27
398 27
397 27
396 28
395 28
394 28
393 27
392 27
391 28
390 27
389 27
388 27
387 27
386 27
385 27
384 27
383 27
382 27
381 27
380 28
379 27
378 27
377 27
376 27
375 27
374 28
373 28
372 27
371 27
370 27
369 27
368 27
367 26
366 27
365 26
364 27
363 26
362 26
361 26
360 26
359 26
358 26
357 26
356 26
355 26
354 26
353 25
352 25
351 25
350 26
349 25
348 25
347 25
346 25
345 25
344 25
343 25
342 25
341 25
340 25
339 25
338 25
337 25
336 25
335 24
334 24
333 24
332 25
331 24
330 24
329 25
328 24
327 24
326 24
325 24
324 24
323 24
322 24
321 24
320 24
319 24
318 24
317 24
316 24
315 24
314 24
313 24
312 24
311 24
310 24
309 24
308 24
307 24
306 24
305 24
304 24
303 24
302 24
301 24
300 24
299 24
298 24
297 24
