289 24
288 25
287 25
286 25
285 25
284 25
283 25
282 25
281 25
280 26
279 26
278 26
277 26
276 26
275 26
274 27
273 27
272 27
271 27
270 28
269 28
268 28
267 28
266 28
265 29
264 29
263 29
262 29
261 29
260 29
259 29
258 30
257 30
256 30
255 30
254 31
253 31
252 31
251 31
250 31
249 31
248 32
247 32
246 32
245 32
244 33
243 33
242 33
241 33
240 33
239 33
238 34
237 34
236 34
235 34
234 35
233 35
232 36
231 36
230 36
229 37
228 37
227 37
226 38
225 38
224 38
223 39
222 39
221 39
220 39
219 40
218 40
217 41
216 41
215 41
214 42
213 42
212 42
211 43
210 43
209 43
208 44
207 44
206 44
205 44
204 45
203 45
202 45
201 46
200 46
199 46
198 46
197 47
196 47
195 47
194 47
193 47
192 48
191 48
190 49
189 49
188 49
187 49
186 50
185 50
184 50
183 51
182 51
181 51
180 52
179 52
178 53
177 53
176 53
175 54
174 54
173 54
172 55
171 56
170 56
169 57
168 57
167 57
166 58
165 58
164 59
163 59
162 60
161 60
160 61
159 61
158 62
157 62
156 63
155 63
154 64
153 64
152 65
151 65
150 65
149 66
148 66
147 67
146 67
145 68
144 68
143 69
142 69
141 70
140 70
139 70
138 71
137 72
136 72
135 72
134 73
133 74
132 74
131 75
130 75
129 76
128 77
127 78
126 78
125 78
124 79
123 79
122 80
121 81
120 81
119 82
118 82
118 83
117 84
116 84
115 85
114 85
113 86
112 87
111 87
110 88
109 89
108 90
107 90
106 91
105 92
104 93
103 94
102 95
101 96
101 97
100 98
99 98
98 99
97 100
96 101
95 102
94 102
93 103
92 104
91 105
90 105
89 106
88 106
87 107
86 107
85 108
84 109
83 109
82 110
81 110
80 110
79 110
78 111
77 111
76 111
75 112
74 112
73 112
72 113
71 113
70 114
69 114
68 115
67 116
66 117
66 118
65 119
66 120
67 121
68 121
69 122
70 122
71 123
72 124
73 124
74 125
75 125
76 126
77 126
78 126
79 127
78 128
79 128
80 129
81 130
81 131
82 132
83 133
84 134
85 135
85 136
85 137
86 138
87 139
87 140
88 141
89 142
89 143
90 144
91 145
92 146
92 147
93 148
94 149
95 150
96 151
97 152
98 153
99 154
100 155
101 156
102 157
103 158
104 159
105 160
106 161
107 162
108 163
109 164
110 165
111 166
112 167
113 168
114 168
115 169
116 170
117 171
118 172
119 173
120 173
121 174
122 175
123 176
124 177
125 178
126 179
127 179
128 180
129 181
130 182
131 183
132 184
133 185
134 186
135 187
136 188
137 188
138 189
139 190
140 191
141 192
142 193
143 194
144 195
145 196
146 197
147 197
148 198
149 199
150 199
151 200
152 201
153 202
154 202
155 203
156 203
157 204
158 205
159 205
160 206
161 207
162 208
163 208
164 208
165 209
166 210
167 210
168 211
169 212
170 212
171 213
172 214
173 214
174 214
175 215
176 215
177 216
178 217
179 217
180 218
181 218
182 219
183 220
184 220
185 221
186 221
187 222
188 223
189 224
190 224
191 224
192 225
193 225
194 225
195 226
196 226
197 226
198 227
199 227
200 228
201 228
202 228
203 229
204 229
205 229
206 230
207 230
208 230
209 231
210 231
211 231
212 232
213 232
214 232
215 233
216 233
217 233
218 234
219 234
220 234
221 234
222 234
223 235
224 235
225 235
226 235
227 235
228 235
229 235
230 236
231 236
232 236
233 236
234 236
235 236
236 236
237 237
238 237
239 237
240 237
241 237
242 238
243 238
244 238
245 238
246 239
247 239
248 239
249 240
250 240
251 241
252 241
253 242
254 242
255 243
256 243
257 244
258 245
259 245
260 246
261 247
262 247
263 247
264 248
265 248
266 248
267 249
268 249
269 249
270 249
271 249
272 249
273 250
274 250
275 250
276 250
277 250
278 250
279 250
280 250
281 251
282 251
283 251
284 251
285 251
286 251
287 251
288 251
289 251
290 252
291 252
292 252
293 252
294 252
295 252
296 252
297 252
298 252
299 252
300 252
301 252
302 252
303 252
304 252
305 252
306 252
307 252
308 252
309 252
310 252
311 252
312 252
313 252
314 252
315 252
316 252
317 252
318 252
319 252
320 252
321 252
322 252
323 252
324 252
325 252
326 252
327 252
328 253
329 253
330 253
331 253
332 253
333 253
334 253
335 253
336 253
337 253
338 253
339 253
340 254
341 254
342 254
343 254
344 254
345 254
346 254
347 254
348 254
349 254
350 255
351 255
352 255
353 255
354 255
355 255
356 255
357 255
358 255
359 255
360 255
361 255
362 255
363 255
364 255
365 255
366 255
367 255
368 256
369 256
370 256
371 256
372 256
373 255
374 255
375 255
376 255
377 255
378 255
379 255
380 255
381 254
382 254
383 254
384 254
385 254
386 254
387 253
388 253
389 253
390 253
391 253
392 253
393 252
394 252
395 252
396 252
397 251
398 251
399 251
400 251
401 250
402 250
403 250
404 250
405 250
406 249
407 249
408 249
409 249
410 249
411 248
412 248
413 248
414 248
415 248
416 248
417 247
418 247
419 247
420 247
421 247
422 246
423 246
424 246
425 246
426 246
427 246
428 246
429 245
430 245
431 245
432 245
433 245
434 245
435 245
436 245
437 245
438 245
439 245
440 244
441 244
442 244
443 244
444 244
445 244
446 244
447 244
448 244
449 244
450 243
451 243
452 243
453 243
454 243
455 243
456 243
457 243
458 243
459 242
460 242
461 242
462 242
463 242
464 242
465 242
466 242
467 241
468 241
469 241
470 241
471 241
472 241
473 241
474 241
475 240
476 240
477 240
478 240
479 240
480 240
481 240
482 240
483 239
484 239
485 239
486 239
487 239
488 239
489 238
490 238
491 238
492 238
493 238
494 237
495 237
496 237
497 237
498 237
499 237
500 236
501 236
502 236
503 236
504 236
505 235
506 235
507 235
508 235
509 235
510 235
511 234
512 234
513 234
514 234
515 233
516 233
517 233
518 233
519 232
520 232
521 232
522 232
523 231
524 231
525 231
526 231
527 230
528 230
529 230
530 229
531 229
532 229
533 229
534 228
535 228
536 228
537 228
538 227
539 227
540 227
541 226
542 226
543 226
544 226
545 225
546 225
547 224
548 224
549 224
550 223
551 223
552 223
553 222
554 222
555 222
556 221
557 221
558 221
559 220
560 220
561 220
562 219
563 219
564 219
565 218
566 218
567 217
568 217
569 217
570 216
571 216
572 216
573 215
574 215
575 214
576 214
577 213
578 213
579 213
580 212
581 212
582 211
583 211
584 210
585 210
586 209
587 208
588 208
589 208
590 207
591 207
592 206
593 206
594 205
595 205
596 204
597 204
598 203
599 202
600 202
601 201
602 201
603 200
604 200
605 199
606 199
607 198
608 198
609 197
610 196
611 196
612 195
613 195
614 194
615 193
616 193
617 192
618 192
619 191
620 190
621 190
622 189
623 188
624 188
625 187
626 186
627 186
628 185
629 184
630 184
631 183
632 182
633 181
634 181
635 180
636 179
637 178
638 177
639 177
640 176
641 175
642 175
643 174
644 173
645 172
646 171
647 171
648 170
649 169
650 168
651 167
652 167
653 166
654 165
655 164
656 164
657 163
658 162
659 161
660 160
661 159
662 159
663 158
664 157
665 156
666 156
667 155
668 154
669 153
670 152
671 152
672 151
673 151
674 150
675 150
676 149
677 149
678 149
679 148
680 148
681 148
682 148
683 147
684 147
685 147
686 147
687 147
688 147
689 146
690 146
691 146
692 146
693 146
694 146
695 146
696 146
697 146
698 146
699 146
700 146
701 146
702 146
703 146
704 146
705 146
706 146
707 146
708 146
709 146
710 146
711 146
712 146
713 146
714 146
715 146
716 146
717 146
718 146
719 146
720 146
721 146
722 146
723 146
724 146
725 146
726 146
727 146
728 146
729 146
730 146
731 146
732 146
733 147
734 147
735 147
736 147
737 147
738 147
739 147
740 148
741 148
742 148
743 148
744 148
745 148
746 148
747 148
748 148
749 147
750 147
751 147
752 147
753 146
754 146
755 145
755 144
755 143
755 142
754 141
754 140
754 139
754 138
755 137
755 136
755 135
755 134
756 133
756 132
755 131
754 130
753 130
752 130
751 130
750 131
749 131
748 131
747 131
746 131
745 131
744 131
743 131
742 131
741 131
740 131
739 131
738 131
737 131
736 132
735 132
734 132
733 132
732 132
731 132
730 133
729 133
728 133
727 133
726 133
725 133
724 133
723 133
722 133
721 133
720 133
719 133
718 133
717 133
716 133
715 133
714 133
713 133
712 133
711 133
710 133
709 133
708 133
707 133
706 133
705 133
704 133
703 133
702 133
701 133
700 133
699 133
698 133
697 133
696 133
695 133
694 133
693 133
692 133
691 133
690 133
689 133
688 132
687 132
686 132
685 132
684 131
683 131
682 131
681 131
680 131
679 131
678 130
677 130
676 130
675 130
674 129
673 129
672 129
671 128
670 128
669 127
668 127
667 126
666 126
665 125
664 125
663 124
662 124
661 123
660 122
659 122
658 121
657 121
656 120
655 119
654 119
653 118
652 118
651 117
650 116
649 116
648 115
647 114
646 114
645 113
644 112
643 112
642 111
641 110
640 109
639 109
638 108
637 108
636 107
635 106
634 106
633 105
632 104
631 104
630 103
629 102
628 102
627 101
626 101
625 100
624 100
623 99
622 98
621 98
620 97
619 96
618 96
617 95
616 95
615 94
614 94
613 93
612 93
611 92
610 92
609 91
608 90
607 90
606 90
605 89
604 89
603 88
602 88
601 87
600 87
599 86
598 86
597 85
596 85
595 84
594 84
593 83
592 83
591 82
590 82
589 82
588 81
587 81
586 80
585 80
584 79
583 79
582 79
581 78
580 78
579 77
578 77
577 77
576 76
575 76
574 75
573 75
572 75
571 74
570 74
569 73
568 73
567 73
566 72
565 72
564 71
563 71
562 71
561 70
560 70
559 69
558 69
557 69
556 68
555 68
554 68
553 67
552 67
551 66
550 66
549 66
548 65
547 65
546 65
545 64
544 64
543 64
542 63
541 63
540 63
539 62
538 62
537 62
536 61
535 61
534 61
533 60
532 60
531 60
530 59
529 59
528 59
527 58
526 58
525 58
524 57
523 57
522 57
521 56
520 56
519 56
518 55
517 55
516 55
515 54
514 54
513 54
512 53
511 53
510 53
509 52
508 52
507 52
506 51
505 51
504 51
503 50
502 50
501 50
500 49
499 49
498 49
497 49
496 48
495 48
494 48
493 47
492 47
491 47
490 46
489 46
488 46
487 46
486 45
485 45
484 45
483 45
482 44
481 44
480 44
479 44
478 43
477 43
476 43
475 43
474 42
473 42
472 42
471 42
470 41
469 41
468 41
467 41
466 40
465 40
464 40
463 40
462 40
461 39
460 39
459 39
458 39
457 38
456 38
455 38
454 38
453 38
452 37
451 37
450 37
449 37
448 37
447 36
446 36
445 36
444 36
443 36
442 35
441 35
440 35
439 35
438 35
437 34
436 34
435 34
434 34
433 34
432 33
431 33
430 33
429 33
428 33
427 33
426 32
425 32
424 32
423 32
422 32
421 32
420 31
419 31
418 31
417 31
416 31
415 31
414 31
413 30
412 30
411 30
410 30
409 30
408 30
407 30
406 30
405 30
404 30
403 29
402 29
401 29
400 29
399 29
398 29
397 29
396 29
395 29
394 29
393 29
392 29
391 29
390 29
389 29
388 28
387 28
386 28
385 28
384 28
383 28
382 28
381 28
380 28
379 28
378 28
377 28
376 28
375 28
374 28
373 28
372 28
371 28
370 28
369 28
368 27
367 27
366 27
365 27
364 27
363 27
362 27
361 27
360 27
359 27
358 27
357 27
356 27
355 27
354 27
353 27
352 27
351 27
350 27
349 27
348 27
347 27
346 27
345 27
344 27
343 27
342 26
341 26
340 26
339 26
338 26
337 26
336 26
335 26
334 26
333 26
332 26
331 26
330 26
329 26
328 26
327 26
326 26
325 26
324 26
323 25
322 25
321 25
320 25
319 25
318 25
317 25
316 25
315 25
314 25
313 25
312 25
311 25
310 25
309 25
308 25
307 25
306 25
305 24
304 24
303 24
302 24
301 24
300 24
299 24
298 24
297 24
296 24
295 24
294 24
293 24
292 24
291 24
290 24
289 24
