316 22
317 23
317 24
316 25
315 25
314 24
313 25
312 24
311 24
310 24
309 24
308 24
307 24
306 24
305 24
304 23
303 23
302 24
303 24
304 24
305 25
304 26
303 26
302 27
301 26
300 26
299 26
298 26
297 26
296 26
296 27
295 28
294 27
293 27
292 27
291 26
290 26
289 26
288 26
289 27
290 28
289 29
288 29
287 28
286 28
285 28
284 28
283 27
282 27
281 26
280 27
279 26
278 26
277 27
276 27
275 27
274 26
273 26
272 26
271 26
270 25
269 25
268 25
267 25
268 26
267 27
266 27
265 27
264 27
263 27
262 27
261 27
260 26
259 26
258 27
257 27
256 27
255 26
254 26
253 26
252 26
251 26
250 26
250 27
249 28
248 28
247 28
246 28
245 28
244 28
243 27
242 28
241 28
240 28
239 28
238 28
239 29
238 30
237 30
236 30
235 30
234 30
233 30
232 30
231 30
230 30
229 30
228 30
228 31
227 32
226 32
225 32
224 33
223 33
222 32
221 32
220 32
219 32
218 32
217 32
216 33
215 33
216 34
215 35
214 35
213 35
212 35
211 36
210 36
209 36
208 36
207 37
206 38
205 37
204 38
203 38
202 38
201 38
200 38
199 39
200 39
201 40
200 41
199 42
198 42
197 42
196 43
195 43
194 43
193 44
192 44
191 45
190 45
189 46
188 46
188 47
187 48
186 49
185 50
184 51
183 51
182 52
181 52
181 53
181 54
180 55
179 55
178 55
177 55
176 56
175 57
174 57
173 58
172 58
172 59
171 60
170 61
169 61
168 62
167 63
166 63
165 64
164 64
163 64
162 65
161 66
161 67
160 68
159 68
158 68
157 69
156 69
155 69
154 70
153 70
152 71
151 72
151 73
150 74
149 74
148 75
147 75
146 76
145 76
144 77
143 78
143 79
142 80
141 80
140 81
139 82
138 83
137 83
136 84
135 84
134 85
133 85
132 85
131 86
130 86
129 87
129 88
128 89
127 89
126 90
125 90
124 91
124 92
123 93
122 93
121 94
120 95
119 95
118 95
117 96
116 96
115 96
114 97
113 97
113 98
112 99
111 99
110 100
109 101
108 101
107 102
107 103
106 104
105 104
104 104
103 105
102 106
101 107
100 108
99 109
98 109
97 110
96 110
95 111
94 111
94 112
94 113
93 114
92 113
91 113
90 113
89 113
88 113
87 114
86 114
85 115
84 116
83 116
82 116
81 116
80 116
79 117
78 117
77 117
76 118
75 119
74 119
73 119
72 120
71 120
70 121
69 121
69 122
68 123
67 124
66 124
65 125
64 125
63 126
62 127
61 127
60 128
59 129
58 130
57 130
56 131
55 131
54 131
53 132
52 132
51 132
50 132
49 133
48 133
47 134
46 135
45 136
44 137
43 138
42 138
41 138
40 139
39 140
38 140
37 141
36 142
35 143
34 143
33 144
32 145
31 145
30 146
31 146
32 147
33 148
34 148
35 149
36 149
37 149
38 149
39 149
40 149
41 149
42 148
43 148
44 148
45 148
46 148
47 148
48 149
49 149
50 149
51 149
52 149
53 149
54 148
55 148
56 148
57 148
58 148
59 148
60 148
61 148
62 148
63 148
64 148
65 147
66 147
67 147
68 148
69 148
70 148
71 148
72 148
73 148
74 148
75 148
76 148
77 148
78 148
79 148
80 148
81 149
82 149
83 149
84 149
85 149
86 149
87 149
88 149
89 149
90 149
91 149
92 150
93 151
94 151
95 151
96 151
97 151
98 151
99 152
100 153
101 153
102 153
103 153
104 153
105 154
106 155
107 156
108 156
109 157
110 157
111 158
112 157
113 158
114 159
115 159
116 159
117 159
118 159
119 159
120 160
120 161
121 162
122 163
123 163
124 163
125 163
126 163
127 163
128 164
128 165
129 166
130 166
131 167
132 167
133 168
134 168
135 168
136 169
137 170
138 171
139 171
140 172
141 172
142 172
143 173
144 174
145 174
146 175
146 176
147 176
148 177
149 177
150 177
151 178
152 179
153 179
154 179
155 180
156 180
157 180
158 181
158 182
159 182
160 183
161 183
162 184
163 183
164 184
164 185
165 185
166 186
166 187
167 187
168 188
169 188
170 189
171 190
172 191
173 191
174 192
175 192
176 192
177 193
178 194
179 194
180 194
181 195
182 195
183 195
184 196
185 196
186 197
187 197
188 198
189 198
190 198
191 199
192 199
193 200
193 201
194 202
195 203
196 204
197 204
198 203
199 204
199 205
198 206
198 207
199 207
200 208
201 208
202 209
203 209
204 209
205 209
206 209
207 210
206 211
205 211
206 212
207 212
208 212
209 212
210 213
211 214
212 213
213 214
213 215
214 216
215 217
216 217
217 217
218 218
219 218
220 219
221 219
222 220
223 220
224 220
225 220
226 220
227 221
227 222
228 221
229 222
230 222
231 221
232 221
233 222
232 223
231 224
232 224
233 224
234 225
235 225
236 225
237 226
238 226
239 226
240 227
241 226
242 227
242 226
243 225
244 226
244 227
245 227
246 227
247 227
248 228
249 228
250 228
251 228
252 229
253 228
254 229
255 229
256 230
257 230
258 231
259 231
260 232
261 232
262 231
263 232
264 233
265 233
266 233
267 233
268 233
269 234
270 234
271 234
272 234
273 235
274 235
275 235
276 235
277 236
278 236
279 235
280 235
281 235
282 235
283 235
284 235
285 235
286 235
287 236
288 236
289 235
290 235
291 235
292 235
293 235
294 235
295 235
295 234
296 233
297 234
297 235
297 236
298 236
299 236
300 236
301 236
302 236
303 235
304 235
305 234
306 234
307 234
308 234
309 234
310 235
310 236
311 236
312 236
313 236
314 236
315 235
316 235
317 235
318 235
319 236
320 236
321 236
322 235
323 235
324 235
325 235
326 235
327 235
328 235
329 236
330 236
331 236
332 237
333 236
334 236
335 236
336 236
337 236
338 236
339 236
340 236
341 236
342 236
343 236
344 236
345 236
346 236
347 237
348 236
349 236
350 236
351 236
352 236
353 236
354 236
355 236
356 236
357 236
358 236
359 236
360 236
361 236
362 235
363 235
364 234
365 234
366 234
367 233
368 233
369 233
370 233
371 233
372 233
373 234
374 234
375 235
376 235
377 234
378 234
379 234
380 234
381 234
382 234
383 233
384 233
385 233
386 233
387 233
388 234
389 234
390 235
391 235
392 235
393 235
394 235
395 235
396 235
397 235
398 235
399 235
400 235
401 235
402 235
403 235
404 235
405 235
406 235
407 235
408 235
409 234
410 234
411 234
412 234
413 234
414 234
415 234
416 234
417 234
418 233
419 233
420 233
421 233
422 233
423 233
424 233
425 233
426 233
427 233
428 233
429 233
430 233
431 234
432 234
433 234
434 234
435 234
436 234
437 234
438 234
439 234
440 234
441 234
442 233
443 234
444 234
445 233
446 234
447 234
448 233
449 233
450 233
451 232
452 232
453 231
454 230
455 231
456 231
457 231
458 231
459 231
460 232
461 231
462 231
463 231
464 231
465 231
466 230
467 230
468 230
469 230
470 230
471 230
472 230
473 230
474 230
475 230
476 231
477 231
478 230
479 230
480 230
481 230
482 230
483 230
484 229
485 229
486 229
487 229
488 229
489 228
490 228
491 228
492 228
493 228
494 228
495 228
496 227
497 227
498 227
499 227
500 227
501 226
502 226
503 226
504 226
505 225
506 225
507 225
508 225
509 224
510 224
511 224
512 224
513 224
514 223
515 222
516 222
517 222
518 222
519 222
520 221
521 221
522 221
523 221
524 221
525 220
526 220
527 219
528 218
529 218
530 218
531 217
532 216
533 215
534 215
535 214
536 213
537 214
537 213
538 212
539 212
540 212
541 212
542 212
543 212
544 212
545 212
546 212
547 211
548 210
549 209
550 209
551 208
552 208
553 207
554 207
555 207
556 206
557 206
558 206
559 206
560 206
559 205
560 204
561 204
562 204
563 203
564 203
565 202
566 201
567 201
568 200
569 199
570 198
571 198
572 198
573 197
574 196
575 195
576 194
577 193
578 192
579 192
580 192
581 191
582 190
583 190
584 189
585 188
586 188
587 187
588 187
589 187
590 186
591 186
592 185
593 185
594 184
595 184
596 183
597 183
598 183
599 183
600 182
601 182
602 182
603 182
604 181
605 180
606 180
607 179
608 178
609 177
610 177
611 176
612 175
613 174
614 174
614 173
615 172
616 172
617 171
618 170
619 170
620 169
621 168
622 168
623 168
624 167
625 167
626 166
627 167
628 167
629 167
630 167
631 167
632 167
633 167
634 168
635 168
636 168
637 169
638 169
639 169
640 170
641 170
642 171
643 171
644 171
645 172
646 172
647 173
648 173
649 174
650 174
651 175
652 175
653 175
654 176
655 176
656 177
657 177
658 178
659 178
660 178
661 179
662 180
663 180
664 181
665 181
666 182
667 182
668 182
669 183
670 183
671 183
672 184
673 185
674 185
675 186
676 186
677 187
678 188
679 188
680 189
681 189
682 190
683 191
684 191
685 192
686 192
687 193
688 193
689 194
690 195
691 195
692 196
693 197
694 197
695 198
696 198
697 199
698 200
699 201
700 201
701 202
702 202
703 203
704 204
705 204
706 205
707 205
708 206
709 207
710 208
711 208
712 209
713 209
714 210
715 210
716 211
717 211
718 212
719 212
720 213
721 214
722 214
723 215
724 215
725 216
726 216
727 217
728 217
729 218
730 218
731 219
732 219
733 219
734 220
735 220
736 221
737 221
738 221
739 221
740 222
741 222
742 222
743 222
744 222
745 222
746 222
747 222
748 222
749 222
750 221
751 221
752 220
753 220
754 220
755 220
756 220
757 220
758 219
758 218
758 217
758 216
757 215
756 214
756 213
756 212
755 212
754 212
753 212
754 212
755 213
754 214
753 214
752 214
751 214
750 215
749 215
748 215
747 216
746 216
745 216
744 216
743 217
742 216
741 216
740 216
739 216
738 216
737 215
736 216
735 216
734 215
733 215
732 214
731 214
730 214
729 213
728 213
727 212
726 211
725 211
724 210
723 210
722 210
721 209
720 209
719 208
718 208
717 207
716 207
715 206
714 205
713 205
712 204
711 204
710 203
709 202
708 202
707 201
706 201
705 200
704 199
703 199
702 198
701 198
700 197
699 196
698 196
697 195
696 195
695 194
694 194
693 193
692 192
691 191
690 191
689 190
688 190
687 189
686 189
685 188
684 187
683 187
682 186
681 185
680 184
679 184
678 184
677 183
676 183
675 182
674 182
673 181
672 180
671 180
670 180
669 179
668 178
667 178
666 178
665 178
664 177
663 177
662 176
661 175
660 175
659 174
658 174
657 174
656 173
655 172
654 171
653 171
652 171
651 170
652 169
653 169
654 168
655 169
656 169
657 169
658 169
659 170
660 171
661 171
662 172
663 172
664 173
665 173
666 174
667 174
668 174
669 175
670 175
671 176
671 177
672 176
673 177
674 178
675 178
676 178
677 179
676 178
675 177
674 177
673 176
672 175
671 175
670 174
669 173
668 172
667 172
666 171
665 170
664 170
663 169
662 168
661 167
660 166
659 166
658 165
657 164
656 163
655 162
654 161
653 160
652 159
651 158
650 157
649 156
648 155
647 154
646 153
645 152
644 151
643 151
642 150
641 150
640 150
639 150
638 151
637 152
636 152
635 151
636 150
635 149
636 148
636 147
637 146
637 145
637 144
636 144
635 144
634 143
633 142
632 141
631 140
630 139
629 138
628 137
627 136
626 135
625 134
624 133
623 132
622 131
621 130
620 129
619 128
618 127
618 126
617 125
616 124
615 123
614 122
613 121
612 120
612 119
611 118
610 117
609 116
608 115
608 114
607 113
606 112
605 111
604 110
603 109
602 108
601 107
600 106
599 106
598 106
597 107
596 106
595 105
594 104
593 103
592 102
591 101
590 100
589 99
588 98
587 97
586 97
585 96
585 95
584 94
583 93
582 92
581 92
580 92
579 92
578 91
577 90
576 89
575 89
574 88
573 87
572 86
571 85
570 84
569 83
568 83
567 82
566 81
565 81
564 80
563 80
564 81
563 82
562 82
561 81
560 81
559 80
558 80
557 79
556 79
555 78
554 77
553 76
552 75
551 74
550 73
550 74
549 75
548 75
547 74
546 73
545 72
544 72
543 71
542 70
541 70
540 69
539 68
538 67
537 67
536 67
535 66
534 66
535 67
535 68
534 69
533 68
532 67
531 66
530 66
529 65
528 65
527 64
526 63
525 62
524 62
523 61
522 61
521 62
520 61
519 61
518 60
517 60
516 59
515 59
514 58
513 58
512 57
511 57
510 57
511 58
510 59
509 59
508 59
507 58
506 58
505 57
504 56
503 56
502 55
501 55
501 56
500 57
499 56
498 55
497 55
496 54
495 54
494 53
493 53
492 52
491 51
490 51
489 51
488 50
487 50
486 50
485 50
486 51
485 52
484 52
483 51
482 51
481 51
480 50
479 50
478 49
477 48
476 48
475 47
474 46
473 46
472 47
471 46
470 46
469 45
468 45
467 44
466 44
465 44
464 43
464 44
464 45
463 46
462 45
461 45
460 45
459 44
458 43
457 43
456 42
455 42
454 41
453 41
452 40
451 40
450 40
449 39
449 40
450 41
449 42
448 42
447 41
446 41
445 41
444 40
443 40
442 39
441 39
440 39
439 40
438 39
437 39
436 38
435 38
434 37
433 37
432 36
431 36
430 36
429 35
429 36
430 37
429 38
428 38
427 38
426 37
425 37
424 37
423 37
422 36
421 36
420 35
419 35
418 34
417 34
416 34
415 33
414 33
414 34
413 35
412 35
411 35
410 34
409 34
408 33
407 33
406 33
405 32
404 32
403 31
402 31
401 31
400 30
399 30
398 30
397 29
396 29
397 30
398 31
397 32
396 32
395 31
394 31
393 30
392 30
391 29
390 29
389 29
388 29
387 30
386 29
385 29
384 28
383 28
382 27
381 27
380 27
379 27
378 27
377 27
376 27
375 28
374 28
373 28
372 28
371 28
370 28
369 27
368 27
367 27
366 26
365 26
364 26
363 25
362 25
363 26
362 27
361 27
360 27
359 27
358 27
357 27
356 26
355 26
354 26
353 25
352 25
351 25
350 24
349 24
348 24
347 24
348 24
349 25
348 26
347 26
346 26
345 26
344 26
343 26
342 26
341 25
340 25
339 25
338 25
337 24
336 23
335 23
334 23
333 23
332 23
333 24
332 25
331 25
330 24
329 24
328 24
327 24
326 24
325 24
324 23
323 23
322 23
321 23
320 22
319 22
318 22
317 22
316 22
