252 127
251 128
250 128
249 128
248 128
247 128
246 128
245 128
244 128
243 128
242 128
241 128
240 128
239 128
238 128
237 128
236 128
235 128
234 128
233 128
232 129
231 129
230 129
229 130
229 131
229 132
230 133
231 134
232 134
233 135
234 136
235 136
236 137
237 137
238 138
239 138
240 139
241 140
242 140
243 140
244 141
245 141
246 141
247 142
248 142
249 142
250 143
251 143
252 144
253 144
254 145
255 145
256 146
257 146
258 147
259 147
260 148
261 148
262 149
263 149
264 149
265 150
266 150
267 150
268 151
269 151
270 151
271 151
272 152
273 153
274 153
275 154
276 155
277 156
278 157
279 158
280 159
281 159
282 159
283 159
284 160
285 160
286 161
287 161
288 162
289 163
290 163
291 164
292 165
293 165
294 166
295 166
296 167
297 167
298 168
299 168
300 169
301 169
302 170
303 171
304 171
305 172
306 173
307 173
308 174
309 175
310 175
311 176
312 176
313 177
314 177
315 177
316 178
317 179
318 179
319 180
320 181
321 182
322 183
323 184
323 185
324 186
325 187
326 188
327 189
328 190
329 191
330 191
331 192
332 193
333 194
334 195
335 196
336 197
337 198
338 199
339 200
340 201
341 202
342 203
343 203
344 204
345 205
346 206
347 207
348 208
349 209
350 209
351 210
352 211
353 212
354 213
355 214
356 214
357 215
358 216
359 216
360 217
361 217
362 218
363 219
364 219
365 220
366 220
367 221
368 222
369 223
370 224
371 225
372 225
373 226
374 227
375 228
376 229
377 230
378 230
379 231
379 232
380 233
381 234
382 235
383 236
384 237
384 238
385 239
386 240
387 241
388 242
389 243
390 244
391 245
392 246
393 247
394 248
395 249
396 250
397 251
398 252
399 253
400 253
401 254
401 255
402 255
403 256
404 257
405 258
406 258
407 259
408 260
409 261
410 261
411 262
412 263
413 264
414 264
415 265
416 266
417 267
418 268
419 269
420 270
421 271
422 272
423 272
424 273
424 274
425 274
426 275
427 276
428 277
429 278
430 278
431 279
432 280
433 281
434 282
435 282
436 283
437 283
438 284
439 285
438 286
437 286
436 286
435 285
434 285
433 285
432 285
431 285
430 285
429 284
428 284
427 284
426 284
425 284
424 284
423 284
422 284
421 284
420 283
419 283
418 283
417 283
416 283
415 283
414 283
413 283
412 283
411 283
410 282
409 282
408 282
407 282
406 282
405 282
404 282
403 282
402 282
401 282
400 282
399 282
398 282
397 282
396 282
395 282
394 282
393 282
392 282
391 282
390 282
389 282
388 282
387 282
386 282
385 282
384 282
383 282
382 282
381 282
380 283
379 283
378 283
377 283
376 283
375 283
374 283
373 283
372 283
371 284
370 284
369 284
368 284
367 284
366 284
365 284
364 284
363 284
362 284
361 284
360 285
359 285
358 285
357 285
356 285
355 285
354 285
353 285
352 285
351 286
350 286
349 286
348 286
347 287
346 287
345 287
344 287
343 288
342 288
341 288
340 288
339 288
338 289
337 289
336 289
335 289
334 290
333 290
332 290
331 290
330 290
329 290
328 290
327 289
326 289
325 289
324 289
323 289
322 289
321 289
320 289
319 289
318 289
317 289
316 289
315 289
314 289
313 289
312 289
311 289
310 288
309 289
308 288
307 288
306 288
305 288
304 288
303 288
302 288
301 288
300 288
299 288
298 288
297 288
296 288
295 288
294 288
293 288
292 288
291 288
290 288
289 288
288 288
287 288
286 288
285 288
284 288
283 288
282 288
281 288
280 289
279 289
278 289
277 289
276 289
275 289
274 289
273 289
272 289
271 289
270 289
269 289
268 289
267 289
266 289
265 289
264 289
263 290
262 290
261 290
260 290
259 290
258 290
257 291
256 291
255 291
254 291
253 291
252 292
251 292
250 292
249 292
248 292
247 293
246 293
245 293
244 293
243 293
242 293
241 293
240 293
239 294
238 294
237 294
236 294
235 294
234 294
233 295
232 295
231 295
230 295
229 296
228 296
227 296
226 296
225 296
224 296
223 296
222 297
221 297
220 297
219 297
218 298
217 298
216 298
215 298
214 299
213 299
212 299
211 300
210 300
209 300
208 301
207 301
206 302
205 302
204 302
203 302
202 302
201 302
200 303
199 303
198 303
197 303
196 303
195 303
194 303
193 303
192 303
191 303
190 303
189 304
188 304
187 304
186 304
185 304
184 305
183 305
182 305
181 306
180 306
179 306
178 306
177 306
176 307
175 307
174 307
173 307
172 307
171 307
170 307
169 307
168 307
167 307
166 308
165 308
164 308
163 308
162 308
161 308
160 309
159 309
158 309
157 309
156 309
155 310
154 310
153 310
152 310
151 311
150 311
149 311
148 311
147 311
146 312
145 312
144 312
143 312
142 312
141 313
140 313
139 313
138 313
137 313
136 313
135 313
134 314
133 314
132 314
131 314
130 314
129 314
128 314
127 314
126 314
125 314
124 314
123 314
122 315
121 315
120 315
119 315
118 315
117 316
116 316
115 316
114 316
113 317
112 317
111 317
110 318
109 318
108 318
107 318
106 319
105 319
104 320
103 320
102 320
101 321
100 321
99 322
98 322
97 322
96 323
95 323
94 324
93 325
92 325
91 326
90 326
89 327
88 327
87 327
86 328
85 328
84 328
83 329
82 330
81 330
80 331
79 331
78 331
77 332
76 332
75 332
74 333
73 333
72 333
71 334
70 334
69 335
68 335
67 335
66 336
65 336
64 337
63 337
62 337
61 338
60 339
59 340
58 340
58 341
58 342
58 343
59 343
60 344
61 344
62 344
63 345
64 345
65 345
66 345
67 345
68 345
69 345
70 345
71 345
72 345
73 346
74 346
75 346
76 346
77 346
78 346
79 346
80 346
81 346
82 346
83 345
84 345
85 346
86 346
87 346
88 346
89 346
90 346
91 347
92 347
93 347
94 347
95 347
96 347
97 347
98 348
99 348
100 348
101 348
102 348
103 349
104 349
105 349
106 349
107 349
108 349
109 350
110 350
111 350
112 350
113 350
114 350
115 350
116 350
117 351
118 351
119 351
120 351
121 351
122 351
123 351
124 352
125 352
126 352
127 352
128 352
129 352
130 352
131 352
132 353
133 353
134 353
135 353
136 353
137 353
138 353
139 354
140 354
141 354
142 354
143 354
144 354
145 354
146 354
147 355
148 355
149 355
150 355
151 355
152 355
153 356
154 356
155 356
156 356
157 356
158 356
159 357
160 357
161 357
162 357
163 357
164 357
165 357
166 358
167 358
168 358
169 358
170 358
171 358
172 358
173 358
174 358
175 358
176 358
177 358
178 357
179 357
180 357
181 357
182 357
183 356
184 356
185 356
186 356
187 356
188 356
189 356
190 356
191 356
192 356
193 356
194 356
195 356
196 356
197 357
198 357
199 357
200 357
201 358
202 358
203 358
204 358
205 358
206 359
207 359
208 359
209 359
210 359
211 360
212 360
213 360
214 360
215 360
216 360
217 360
218 360
219 361
220 361
221 361
222 361
223 361
224 361
225 361
226 361
227 362
228 362
229 362
230 363
231 363
232 363
233 363
234 363
235 364
236 364
237 364
238 364
239 364
240 364
241 365
242 365
243 365
244 365
245 366
246 366
247 366
248 366
249 367
250 367
251 367
252 367
253 368
254 368
255 368
256 368
257 368
258 368
259 368
260 368
261 368
262 368
263 368
264 368
265 369
266 369
267 369
268 369
269 369
270 370
271 370
272 370
273 370
274 371
275 371
276 371
277 371
278 372
279 372
280 372
281 372
282 373
283 373
284 373
285 373
286 373
287 373
288 373
289 373
290 373
291 373
292 373
293 373
294 373
295 373
296 373
297 373
298 373
299 373
300 373
301 373
302 373
303 373
304 373
305 373
306 373
307 373
308 373
309 373
310 373
311 373
312 373
313 373
314 373
315 373
316 373
317 373
318 374
319 374
320 374
321 374
322 374
323 374
324 374
325 374
326 374
327 374
328 374
329 374
330 374
331 374
332 375
333 375
334 375
335 375
336 375
337 375
338 375
339 375
340 375
341 375
342 375
343 376
344 376
345 376
346 376
347 376
348 376
349 376
350 376
351 376
352 376
353 377
354 377
355 377
356 377
357 377
358 377
359 377
360 377
361 377
362 377
363 377
364 377
365 377
366 377
367 377
368 377
369 377
370 377
371 377
372 377
373 377
374 377
375 377
376 377
377 377
378 377
379 377
380 376
381 376
382 376
383 376
384 376
385 376
386 376
387 376
388 376
389 376
390 376
391 376
392 376
393 376
394 376
395 376
396 376
397 376
398 376
399 376
400 376
401 376
402 376
403 376
404 376
405 375
406 375
407 375
408 375
409 375
410 375
411 375
412 375
413 374
414 374
415 374
416 374
417 374
418 374
419 373
420 373
421 373
422 373
423 373
424 373
425 373
426 373
427 373
428 373
429 373
430 372
431 372
432 372
433 372
434 372
435 372
436 372
437 372
438 372
439 372
440 373
439 374
438 375
437 376
436 377
435 378
434 378
433 379
432 380
431 381
430 382
429 382
428 383
427 384
426 385
425 385
424 386
423 387
422 388
421 388
420 389
419 390
418 391
417 391
416 392
415 393
414 394
413 394
412 395
411 395
410 396
409 397
408 397
407 398
406 399
405 399
404 400
403 401
402 402
401 403
400 403
399 404
398 405
397 405
396 406
395 407
394 408
393 408
392 409
391 410
390 410
389 411
388 412
387 413
386 413
385 414
384 415
383 416
382 416
381 417
380 418
379 419
378 420
377 420
376 421
375 422
374 423
373 423
372 424
371 425
370 426
369 427
368 428
367 429
366 430
365 431
364 432
363 433
362 433
361 434
361 435
360 436
359 437
358 438
357 439
356 440
355 441
354 442
353 442
352 443
351 444
350 444
349 445
348 446
347 446
346 447
345 448
344 449
343 449
342 450
341 451
340 451
339 452
338 453
337 453
336 454
335 455
335 456
334 457
333 458
333 459
332 460
331 461
330 462
329 463
328 464
327 465
326 466
325 467
324 468
323 469
322 470
321 471
320 472
319 473
318 474
317 475
316 476
315 477
314 478
314 479
313 480
312 481
311 482
310 483
309 484
308 485
307 486
306 486
305 487
304 488
303 489
302 490
301 491
300 492
299 493
298 494
297 495
296 496
295 497
294 498
293 499
293 500
292 501
291 502
290 503
289 504
288 505
287 506
287 507
286 508
285 509
284 510
283 511
282 512
281 513
280 514
280 515
279 516
278 517
277 518
276 519
275 520
274 521
274 522
273 523
272 524
272 525
271 526
271 527
270 528
270 529
269 530
268 531
267 532
266 533
265 533
264 534
263 535
263 536
262 537
261 538
261 539
260 540
259 541
258 542
257 543
256 544
256 545
255 546
254 547
253 548
252 549
252 550
251 551
250 552
249 553
249 554
248 555
247 556
246 557
245 558
244 559
244 560
243 561
242 562
242 563
241 564
241 565
240 566
239 567
238 568
238 569
237 570
236 571
235 572
234 573
233 574
233 575
232 576
231 577
230 578
230 579
229 580
228 581
227 582
226 583
226 584
225 585
224 586
224 587
223 588
222 589
221 590
220 591
220 592
219 593
218 594
218 595
217 596
217 597
216 598
215 599
215 600
214 601
214 602
214 603
213 604
213 605
212 606
212 607
212 608
211 609
211 610
210 611
210 612
210 613
210 614
209 615
209 616
209 617
209 618
209 619
209 620
208 621
208 622
207 623
207 624
207 625
207 626
207 627
207 628
207 629
207 630
208 631
208 632
209 633
210 633
211 633
212 632
213 631
213 630
213 629
213 628
213 627
213 626
213 625
213 624
213 623
214 622
215 622
216 621
217 621
218 621
219 620
220 620
221 619
222 618
223 618
224 617
225 616
226 615
227 615
228 614
229 613
230 613
231 612
232 611
233 610
234 609
235 609
236 608
237 607
238 606
239 605
240 604
241 603
242 603
243 602
244 601
245 600
246 600
247 599
248 598
249 598
250 597
251 596
252 596
253 595
254 595
255 594
256 594
257 593
258 593
259 592
260 592
261 591
262 590
263 590
264 589
265 588
266 588
267 587
268 587
269 586
270 586
271 585
272 584
273 584
274 583
275 582
276 582
277 581
278 581
279 580
280 580
281 579
282 579
283 578
284 578
285 577
286 577
287 576
288 576
289 575
290 575
291 574
292 574
293 573
294 572
295 572
296 571
297 571
298 570
299 569
300 569
301 568
302 567
303 567
304 566
305 565
306 564
307 564
308 563
309 563
310 562
311 562
312 561
313 561
314 560
315 560
316 559
317 559
318 558
319 558
320 558
321 557
322 556
323 556
324 555
325 554
326 554
327 553
328 553
329 552
330 552
331 551
332 551
333 550
334 549
335 549
336 548
337 548
338 547
339 546
340 546
341 545
342 545
343 544
344 544
345 543
346 543
347 542
348 541
349 540
350 540
351 539
352 538
353 538
354 537
355 537
356 536
357 536
358 535
359 534
360 534
361 533
362 533
363 532
364 532
365 531
366 531
367 531
368 530
369 529
370 529
371 528
372 528
373 527
374 527
375 526
376 526
377 525
378 524
379 523
380 522
381 522
382 521
383 520
384 520
385 519
386 518
387 518
388 517
389 516
390 516
391 516
392 515
393 515
394 514
395 514
396 513
397 513
398 512
399 512
400 511
401 510
402 509
403 509
404 508
405 507
406 506
407 506
408 505
409 504
410 503
411 502
412 502
413 501
414 500
415 499
416 498
417 497
418 497
419 496
420 496
421 495
422 495
423 494
424 493
425 492
426 491
427 491
428 490
429 489
430 489
431 488
432 488
433 487
434 487
435 486
436 485
437 485
438 484
439 483
440 482
441 481
442 481
443 480
444 479
445 478
446 478
447 477
448 476
449 475
450 474
451 474
452 473
453 472
454 471
455 471
456 470
457 469
458 468
459 468
460 467
461 466
462 465
463 465
464 464
465 463
466 463
467 462
468 461
469 461
470 460
471 460
472 459
473 458
474 458
475 457
476 456
477 455
478 454
478 453
479 452
480 451
481 450
482 449
483 448
484 448
485 447
486 446
487 445
488 444
489 443
490 443
491 442
491 441
492 440
493 439
494 438
495 437
496 436
496 435
497 434
498 433
499 434
499 435
499 436
499 437
498 438
498 439
498 440
497 441
497 442
497 443
496 444
496 445
496 446
495 447
495 448
494 449
494 450
494 451
493 452
493 453
493 454
492 455
492 456
492 457
491 458
491 459
491 460
491 461
490 462
490 463
490 464
490 465
489 466
489 467
489 468
489 469
488 470
488 471
488 472
487 473
487 474
487 475
487 476
486 477
486 478
486 479
486 480
486 481
486 482
486 483
486 484
485 485
485 486
485 487
485 488
485 489
485 490
485 491
484 492
484 493
484 494
484 495
484 496
484 497
484 498
484 499
484 500
484 501
484 502
483 503
483 504
483 505
483 506
483 507
483 508
483 509
483 510
483 511
483 512
483 513
483 514
483 515
483 516
483 517
483 518
483 519
483 520
483 521
483 522
483 523
483 524
484 525
484 526
484 527
484 528
484 529
484 530
484 531
484 532
484 533
484 534
484 535
484 536
484 537
484 538
484 539
484 540
484 541
484 542
484 543
484 544
484 545
484 546
484 547
484 548
484 549
484 550
484 551
484 552
485 553
485 554
485 555
485 556
485 557
486 558
486 559
486 560
486 561
486 562
486 563
486 564
486 565
486 566
486 567
486 568
487 569
487 570
487 571
487 572
487 573
487 574
487 575
487 576
487 577
488 578
488 579
488 580
488 581
489 582
489 583
490 584
490 585
491 586
491 587
491 588
491 589
491 590
491 591
491 592
491 593
491 594
491 595
491 596
491 597
492 598
492 599
492 600
492 601
492 602
492 603
493 604
493 605
493 606
493 607
493 608
494 609
494 610
494 611
494 612
494 613
494 614
494 615
495 616
495 617
495 618
495 619
495 620
496 621
496 622
497 623
497 624
498 625
498 626
498 627
499 628
499 629
499 630
499 631
500 632
501 633
502 634
503 633
504 632
504 631
505 630
505 629
505 628
505 627
505 626
505 625
505 624
505 623
505 622
504 621
504 620
505 619
505 618
505 617
505 616
506 615
506 614
506 613
506 612
507 611
507 610
507 609
508 608
508 607
508 606
509 605
509 604
510 603
510 602
510 601
511 600
511 599
512 598
512 597
512 596
513 595
513 594
514 593
514 592
515 591
515 590
516 589
516 588
517 587
517 586
518 585
518 584
519 583
519 582
520 581
520 580
520 579
521 578
522 577
522 576
523 575
523 574
524 573
524 572
524 571
525 570
526 569
526 568
527 567
527 566
527 565
528 564
528 563
529 562
529 561
530 560
530 559
531 558
531 557
532 556
532 555
533 554
533 553
534 552
534 551
535 550
535 549
535 548
536 547
536 546
537 545
537 544
538 543
539 542
539 541
540 540
540 539
541 538
541 537
542 536
542 535
543 534
543 533
544 532
544 531
545 530
545 529
546 528
547 527
547 526
548 525
548 524
548 523
549 522
550 521
550 520
551 519
551 518
552 517
552 516
552 515
553 514
554 513
554 512
555 511
555 510
556 509
556 508
557 507
558 506
558 505
559 504
560 503
560 502
561 501
561 500
562 499
563 498
563 497
564 496
564 495
564 494
565 493
566 492
566 491
567 490
567 489
568 488
568 487
569 486
570 485
570 484
571 483
571 482
571 481
572 480
572 479
573 478
573 477
573 476
574 475
574 474
574 473
575 472
575 471
575 470
575 469
576 468
576 467
576 466
576 465
576 464
576 463
577 462
577 461
577 460
577 459
577 458
577 457
577 456
577 455
577 454
577 453
577 452
577 451
577 450
578 449
578 448
578 447
578 446
578 445
578 444
578 443
578 442
578 441
578 440
578 439
578 438
578 437
577 436
577 435
577 434
577 433
577 432
577 431
577 430
577 429
577 428
577 427
577 426
577 425
577 424
577 423
577 422
577 421
577 420
577 419
577 418
577 417
577 416
577 415
577 414
576 413
576 412
576 411
576 410
576 409
576 408
576 407
576 406
576 405
575 404
575 403
575 402
575 401
575 400
575 399
574 398
574 397
574 396
574 395
573 394
573 393
573 392
573 391
572 390
572 389
572 388
572 387
572 386
571 385
571 384
571 383
571 382
571 381
571 380
571 379
571 378
570 377
570 376
570 375
570 374
570 373
570 372
570 371
570 370
570 369
570 368
570 367
570 366
570 365
570 364
570 363
570 362
571 361
571 360
571 359
571 358
572 357
573 357
573 356
573 355
574 354
575 355
576 356
577 356
578 357
577 358
578 358
579 359
579 360
579 361
579 362
580 363
580 364
580 365
581 366
581 367
581 368
580 369
580 370
580 371
580 372
580 373
580 374
580 375
581 376
581 377
581 378
582 379
582 380
583 381
583 382
583 383
584 384
584 385
584 386
584 387
585 388
586 389
586 390
587 391
587 392
588 393
589 394
590 395
590 396
591 397
591 398
592 399
593 400
594 401
594 402
595 403
595 404
596 405
597 406
597 407
598 408
598 409
599 410
599 411
600 412
601 413
602 414
602 415
603 416
604 417
604 418
605 419
606 419
607 420
607 421
608 421
609 422
609 423
609 424
610 425
611 425
612 426
613 427
613 428
614 429
615 430
615 431
616 432
617 433
617 434
618 435
618 436
619 437
619 438
620 439
620 440
620 441
621 442
621 443
622 444
623 443
623 442
624 441
624 440
624 439
624 438
624 437
625 436
625 435
625 434
625 433
625 432
624 431
624 430
624 429
624 428
624 427
624 426
624 425
624 424
624 423
624 422
624 421
624 420
624 419
624 418
624 417
624 416
623 415
623 414
623 413
623 412
623 411
623 410
622 409
622 408
622 407
622 406
622 405
622 404
621 403
621 402
621 401
621 400
621 399
621 398
620 397
620 396
620 395
620 394
619 393
619 392
619 391
618 390
618 389
618 388
617 387
617 386
616 385
616 384
616 383
615 382
615 381
615 380
614 379
614 378
614 377
613 376
613 375
613 374
612 373
612 372
611 371
611 370
611 369
610 368
610 367
609 366
609 365
609 364
608 363
608 362
607 361
606 360
606 359
605 358
604 357
604 356
603 355
602 354
602 353
601 352
600 351
599 350
599 349
598 348
597 347
596 346
595 345
594 345
593 344
592 343
591 342
590 342
589 341
588 340
587 339
586 339
585 338
584 337
585 336
586 335
587 335
588 335
589 334
590 334
591 334
592 333
593 333
594 333
595 333
596 332
597 332
598 332
599 332
600 331
601 331
602 331
603 330
604 330
605 330
606 330
607 329
608 329
609 329
610 329
611 328
612 328
613 328
614 328
615 327
616 327
617 327
618 326
619 326
620 326
621 326
622 325
623 325
624 325
625 324
626 324
627 324
628 324
629 323
630 323
631 323
632 323
633 322
634 322
635 322
636 322
637 321
638 321
639 321
640 320
641 320
642 320
643 320
644 319
645 319
646 319
647 318
648 318
649 318
650 318
651 317
652 317
653 317
654 317
655 316
656 316
657 316
658 315
659 315
660 315
661 315
662 314
663 314
664 314
665 313
666 313
667 313
668 312
669 312
670 312
671 312
672 311
673 311
674 311
675 310
676 310
677 310
678 310
679 310
680 309
681 309
682 309
683 309
684 308
685 308
686 308
687 308
688 307
689 307
690 307
691 307
692 306
693 306
694 306
695 305
696 305
697 305
698 305
699 305
700 304
701 304
702 304
703 304
704 303
705 303
706 303
707 303
708 303
709 302
710 302
711 302
712 301
713 301
714 301
715 301
716 301
717 300
718 300
719 300
720 300
721 300
722 300
723 299
724 299
725 298
726 298
726 297
727 296
727 295
728 294
728 293
728 292
727 291
728 290
728 289
728 288
728 287
728 286
728 285
727 284
727 283
726 284
725 284
724 284
723 284
722 284
721 285
720 285
719 285
718 285
717 286
716 286
715 286
714 286
713 286
712 287
711 287
710 287
709 288
708 288
707 288
706 288
705 289
704 289
703 289
702 290
701 290
700 290
699 290
698 291
697 291
696 292
695 292
694 292
693 293
692 293
691 293
690 293
689 294
688 294
687 294
686 295
685 295
684 295
683 296
682 296
681 296
680 297
679 297
678 297
677 297
676 298
675 298
674 298
673 299
672 299
671 299
670 300
669 300
668 300
667 300
666 301
665 301
664 301
663 301
662 302
661 302
660 302
659 303
658 303
657 303
656 304
655 304
654 304
653 304
652 305
651 305
650 305
649 305
648 306
647 306
646 306
645 307
644 307
643 307
642 308
641 308
640 308
639 309
638 309
637 309
636 309
635 310
634 310
633 310
632 311
631 311
630 311
629 311
628 311
627 312
626 312
625 312
624 312
623 313
622 313
621 313
620 313
619 314
618 314
617 314
616 315
615 315
614 315
613 315
612 315
611 316
610 316
609 316
608 317
607 317
606 317
605 317
604 317
603 318
602 318
601 318
600 318
599 319
598 319
597 319
596 319
595 319
594 320
593 320
592 320
591 320
590 320
589 321
588 321
587 321
586 321
585 321
584 321
583 321
582 321
581 321
580 321
579 321
578 320
578 319
579 318
580 317
581 316
582 316
582 315
583 314
584 313
584 312
585 311
585 310
586 309
587 309
587 308
587 307
588 306
589 305
589 304
590 303
591 302
591 301
592 300
592 299
593 298
594 297
594 296
595 295
595 294
596 293
596 292
597 291
598 290
598 289
599 288
599 287
600 286
600 285
601 284
602 283
603 282
604 281
605 280
605 279
606 278
607 277
608 276
608 275
609 274
610 273
611 272
612 271
612 270
613 269
613 268
614 267
614 266
614 265
615 264
615 263
616 262
616 261
617 260
617 259
618 258
618 257
619 256
619 255
620 254
620 253
621 252
621 251
622 250
622 249
622 248
623 247
623 246
623 245
624 244
624 243
624 242
624 241
625 240
626 239
626 238
627 237
627 236
628 235
628 234
628 233
629 232
629 231
630 230
630 229
630 228
630 227
631 226
631 225
631 224
631 223
631 222
631 221
631 220
632 219
632 218
632 217
632 216
633 215
633 214
633 213
633 212
633 211
633 210
633 209
633 208
633 207
633 206
633 205
633 204
633 203
633 202
633 201
633 200
633 199
633 198
633 197
633 196
633 195
633 194
633 193
633 192
633 191
633 190
633 189
633 188
633 187
633 186
633 185
633 184
633 183
633 182
633 181
633 180
633 179
633 178
633 177
633 176
633 175
633 174
633 173
633 172
633 171
633 170
633 169
633 168
633 167
633 166
633 165
633 164
633 163
633 162
633 161
633 160
633 159
633 158
633 157
633 156
633 155
633 154
633 153
633 152
633 151
633 150
633 149
633 148
633 147
633 146
632 145
632 144
632 143
632 142
632 141
632 140
632 139
632 138
632 137
632 136
632 135
632 134
632 133
632 132
631 131
631 130
631 129
630 128
629 128
628 128
627 129
627 130
626 131
626 132
625 133
625 134
625 135
624 136
624 137
623 138
623 139
622 140
622 141
621 142
621 143
620 144
619 145
619 146
618 147
618 148
617 149
617 150
617 151
616 152
616 153
615 154
614 155
613 155
612 156
612 157
611 158
610 159
609 160
609 161
608 162
607 163
606 164
606 165
605 166
605 167
604 168
604 169
603 170
603 171
602 172
601 173
600 174
600 175
599 176
598 177
598 178
597 179
597 180
596 181
595 182
595 183
594 184
593 185
593 186
592 187
592 188
591 189
590 190
590 191
589 192
589 193
589 194
588 195
588 196
587 197
587 198
587 199
586 200
586 201
585 202
585 203
585 204
584 205
584 206
583 207
583 208
582 209
581 210
581 211
581 212
580 213
580 214
579 215
579 216
578 217
578 218
577 219
577 220
576 221
576 222
575 223
574 224
574 225
573 226
572 227
572 228
571 229
571 230
570 231
570 232
569 233
569 234
569 235
568 236
568 237
567 238
567 239
567 240
567 241
566 242
566 243
566 244
566 245
565 246
565 247
565 248
565 249
565 250
564 251
564 252
564 253
564 254
564 255
564 256
564 257
564 258
563 259
563 260
563 261
563 262
563 263
563 264
562 265
562 266
562 267
562 268
562 269
562 270
562 271
562 272
562 273
562 274
562 275
562 276
562 277
562 278
562 279
562 280
562 281
562 282
562 283
562 284
563 285
563 286
563 287
563 288
564 289
564 290
564 291
564 292
564 293
564 294
564 295
564 296
565 297
565 298
565 299
565 300
566 301
566 302
566 303
566 304
566 305
566 306
567 307
567 308
567 309
567 310
567 311
567 312
567 313
567 314
567 315
567 316
566 317
565 318
564 317
563 317
562 317
561 316
560 315
559 315
558 314
557 314
556 313
555 313
554 312
553 311
552 310
552 309
551 308
550 307
549 306
548 305
547 304
547 303
546 302
545 301
544 300
544 299
543 298
543 297
542 296
542 295
541 294
541 293
540 292
540 291
539 290
539 289
538 288
538 287
537 286
537 285
537 284
536 283
536 282
535 281
535 280
534 279
534 278
533 277
533 276
533 275
532 274
532 273
531 272
531 271
530 270
530 269
529 268
529 267
528 266
528 265
527 264
527 263
526 262
526 261
525 260
525 259
524 258
523 257
523 256
522 255
522 254
521 253
520 252
520 251
519 250
518 249
517 248
516 247
515 246
514 245
513 244
512 243
511 242
510 241
509 240
508 239
507 238
506 237
505 236
504 235
503 235
502 234
501 233
500 232
499 231
498 230
497 229
496 228
495 227
494 226
493 225
492 224
491 223
490 222
489 222
488 221
487 220
486 219
485 218
484 218
483 217
482 216
481 216
480 215
479 214
478 213
477 212
476 212
475 211
475 210
474 209
473 209
472 208
471 207
470 206
469 205
468 205
467 204
466 203
465 203
464 202
463 201
462 200
461 200
460 199
459 198
458 198
457 197
456 196
455 195
454 194
453 194
452 193
451 192
450 192
449 192
448 191
447 190
446 190
445 189
444 189
443 188
442 188
441 187
440 186
439 186
438 185
437 184
436 184
435 183
434 183
433 182
432 181
431 181
430 180
429 180
428 179
427 178
426 177
425 177
424 176
423 175
422 175
421 174
420 174
419 173
418 173
417 172
416 172
415 172
414 171
413 171
412 170
411 170
410 169
409 168
408 168
407 167
406 166
405 166
404 166
403 165
402 165
401 165
400 165
399 164
398 164
397 164
396 163
395 163
394 163
393 162
392 162
391 162
390 162
389 161
388 161
387 161
386 160
385 160
384 160
383 159
382 159
381 158
380 158
379 158
378 157
377 157
376 156
375 156
374 156
373 155
372 155
371 155
370 155
369 154
368 154
367 154
366 153
365 153
364 153
363 153
362 152
361 152
360 151
359 151
358 150
357 150
356 149
355 149
354 149
353 148
352 148
351 148
350 147
349 147
348 147
347 147
346 147
345 146
344 146
343 146
342 145
341 145
340 145
339 145
338 144
337 144
336 144
335 143
334 143
333 143
332 143
331 143
330 142
329 142
328 141
327 141
326 141
325 141
324 140
323 140
322 140
321 139
320 139
319 138
318 138
317 138
316 138
315 137
314 137
313 137
312 136
311 136
310 136
309 136
308 136
307 136
306 136
305 136
304 135
303 135
302 135
301 135
300 134
299 134
298 134
297 133
296 133
295 133
294 133
293 132
292 132
291 132
290 131
289 131
288 131
287 131
286 131
285 131
284 130
283 130
282 130
281 130
280 129
279 129
278 129
277 129
276 129
275 129
274 129
273 128
272 128
271 128
270 128
269 128
268 128
267 128
266 128
265 128
264 127
263 127
262 127
261 127
260 127
259 127
258 127
257 127
256 127
255 127
254 127
253 127
252 127
