296 40
296 41
297 42
297 43
298 44
299 45
300 46
300 47
301 48
301 49
302 50
302 51
303 52
303 53
304 54
305 55
305 56
306 57
306 58
307 59
307 60
308 61
308 62
309 63
309 64
310 65
310 66
311 67
311 68
312 69
312 70
312 71
312 72
312 73
312 74
313 75
313 76
314 77
314 78
315 79
315 80
315 81
316 82
316 83
316 84
316 85
317 86
317 87
317 88
317 89
318 90
318 91
318 92
318 93
318 94
318 95
318 96
318 97
318 98
318 99
318 100
318 101
318 102
317 103
317 104
318 105
318 106
318 107
318 108
318 109
318 110
318 111
318 112
318 113
318 114
318 115
318 116
318 117
318 118
318 119
318 120
318 121
318 122
318 123
318 124
318 125
318 126
318 127
318 128
319 129
319 130
319 131
319 132
319 133
319 134
319 135
319 136
319 137
319 138
318 139
318 140
318 141
318 142
318 143
318 144
318 145
318 146
319 147
319 148
319 149
319 150
319 151
320 152
320 153
320 154
320 155
320 156
321 157
321 158
321 159
321 160
322 161
322 162
322 163
323 164
323 165
323 166
324 167
324 168
324 169
325 170
325 171
325 172
324 173
323 172
322 173
322 174
322 175
322 176
323 177
323 178
323 179
324 180
324 181
324 182
325 183
325 184
325 185
325 186
326 187
326 188
326 189
327 190
327 191
327 192
328 193
328 194
328 195
329 196
329 197
330 198
330 199
330 200
331 201
332 202
332 203
331 204
331 205
331 206
331 207
331 208
331 209
332 210
332 211
333 212
333 213
334 214
334 215
335 216
336 217
336 218
337 219
337 220
338 221
338 222
338 223
339 224
339 225
339 226
340 227
340 228
340 229
341 230
341 231
341 232
342 233
342 234
343 235
343 236
344 237
344 238
345 239
345 240
346 241
347 242
347 243
346 244
346 245
346 246
346 247
347 248
348 249
348 250
349 251
350 252
350 253
351 254
352 255
353 256
353 257
354 258
355 259
356 260
357 261
358 262
358 263
359 264
359 265
360 266
360 267
361 268
362 269
363 270
363 271
364 272
364 273
365 274
366 275
366 276
367 277
368 278
368 279
369 280
369 281
370 282
371 283
372 284
373 285
373 286
374 287
375 288
376 288
377 289
378 290
379 291
380 292
381 293
382 294
383 294
384 295
385 296
386 297
387 297
388 298
389 299
390 300
391 301
392 302
393 303
394 304
395 304
396 305
397 306
398 307
399 308
400 309
401 310
402 310
403 311
404 312
405 313
406 314
407 315
408 316
409 317
410 317
411 318
411 319
412 319
413 320
414 321
415 322
416 323
417 324
418 325
419 326
420 326
421 327
422 328
423 328
424 329
425 329
426 330
427 330
428 331
429 332
430 332
431 333
432 333
433 333
434 334
435 334
436 335
437 335
438 335
439 336
440 336
441 336
442 337
443 337
444 337
445 338
446 338
447 339
448 339
449 339
450 340
451 340
452 340
453 340
454 341
455 341
456 341
457 341
458 342
459 342
460 342
461 343
462 343
463 343
464 343
465 344
466 344
467 344
468 344
469 344
470 344
471 344
472 345
473 345
474 345
475 345
476 345
477 345
478 346
479 346
480 346
481 346
482 346
483 346
484 345
485 345
486 345
487 345
488 345
489 345
490 345
491 345
492 345
493 344
494 344
495 344
496 344
497 343
498 343
499 343
500 343
501 342
502 342
503 342
504 342
505 342
506 343
507 343
508 343
509 344
510 345
511 346
512 347
513 348
513 349
513 350
512 351
511 352
510 352
509 352
508 353
507 353
506 353
505 353
504 353
503 353
502 354
501 354
500 354
499 354
498 354
497 354
496 355
495 355
494 355
493 355
492 355
491 356
490 356
489 356
488 356
487 356
486 356
485 357
484 357
483 357
482 357
481 357
480 358
479 358
478 358
477 358
476 358
475 358
474 358
473 359
472 359
471 359
470 359
469 359
468 359
467 359
466 360
465 360
464 360
463 360
462 360
461 360
460 361
459 361
458 361
457 361
456 361
455 361
454 361
453 362
452 362
451 362
450 362
449 362
448 362
447 362
446 362
445 363
444 363
443 363
442 363
441 363
440 363
439 363
438 363
437 363
436 363
435 363
434 363
433 364
432 364
431 364
430 364
429 364
428 364
427 364
426 364
425 364
424 364
423 364
422 364
421 364
420 363
419 363
418 362
417 362
416 361
416 360
416 359
416 358
416 357
416 356
415 355
415 354
415 353
415 352
415 351
415 350
415 349
415 348
415 347
414 346
414 345
414 344
414 343
413 342
413 341
413 340
412 339
412 338
412 337
411 336
411 335
410 334
410 333
409 332
409 331
408 330
408 329
407 328
407 327
406 326
406 325
405 324
404 323
404 322
403 321
402 320
401 319
400 318
399 317
398 316
397 315
396 314
395 313
394 312
393 311
392 310
391 309
390 308
389 307
388 306
387 306
386 305
385 304
384 303
383 302
382 301
381 300
380 299
380 298
379 297
378 296
377 295
377 294
376 294
375 293
374 292
373 291
372 290
371 289
370 289
369 288
368 287
367 286
366 285
365 285
364 284
363 283
362 282
361 282
360 281
359 280
358 279
357 278
356 278
355 277
354 277
353 276
352 275
351 275
350 274
349 274
348 273
347 273
346 272
345 272
344 271
343 270
342 270
341 269
340 268
339 268
338 267
337 267
336 266
335 265
334 265
333 265
332 264
331 264
330 263
329 263
328 262
327 262
326 261
325 260
324 260
323 259
322 259
321 259
320 258
319 258
318 257
317 257
316 257
315 256
314 256
313 256
312 255
311 255
310 255
309 254
308 254
307 254
306 254
305 254
304 254
303 254
302 253
301 253
300 253
299 253
298 253
297 253
296 252
295 252
294 252
293 251
292 251
291 251
290 251
289 251
288 250
287 250
286 250
285 250
284 250
283 250
282 250
281 250
280 249
279 250
278 250
277 250
276 250
275 250
274 250
273 250
272 250
271 251
270 251
269 251
268 251
267 251
266 251
266 252
265 253
264 253
263 252
262 252
261 252
260 252
259 252
258 252
257 252
256 252
255 252
254 252
253 252
252 252
251 252
250 252
249 252
248 252
247 252
246 253
245 253
244 253
243 254
242 254
241 254
240 254
239 254
238 254
237 254
236 254
235 254
234 254
233 254
232 254
231 254
230 254
229 254
228 254
228 255
229 256
229 257
229 258
229 259
229 260
229 261
229 262
229 263
229 264
229 265
229 266
229 267
229 268
229 269
229 270
230 271
230 272
230 273
230 274
230 275
230 276
230 277
231 278
231 279
231 280
231 281
232 282
232 283
232 284
232 285
233 286
233 287
233 288
234 289
234 290
234 291
235 292
235 293
234 294
233 294
232 294
231 294
230 294
229 294
228 294
227 294
226 294
225 294
224 294
223 294
222 295
221 295
220 295
219 295
218 296
217 296
216 296
215 296
214 296
213 297
212 297
211 297
210 297
209 297
208 298
207 298
206 298
205 299
204 299
203 299
202 299
201 300
200 300
199 300
198 300
197 300
196 300
195 300
194 301
193 301
192 301
191 301
190 302
189 302
188 302
187 303
186 303
185 304
184 304
183 304
182 304
181 305
180 305
179 305
178 306
177 306
176 306
175 307
174 307
173 308
172 308
171 309
170 310
169 311
168 311
167 311
166 311
165 312
164 312
163 312
162 312
161 312
160 313
159 313
158 313
157 314
156 314
155 315
154 315
153 316
152 317
151 317
150 318
149 319
148 319
147 320
146 320
145 321
144 322
143 322
142 323
141 324
140 325
140 326
140 327
141 328
141 329
142 330
142 331
142 332
142 333
141 334
140 335
139 335
138 335
137 335
136 336
135 336
134 336
133 337
132 337
131 338
130 338
129 339
128 340
127 340
126 341
125 341
124 342
123 343
122 343
121 343
120 344
119 345
118 345
117 346
116 347
115 347
114 348
113 348
112 349
111 349
110 350
109 350
108 351
107 351
106 352
105 353
104 354
103 355
102 356
101 356
101 357
101 358
100 359
99 359
98 360
97 360
96 361
95 361
94 361
93 362
92 362
91 362
90 363
89 363
88 364
87 364
86 364
85 365
84 365
83 365
82 366
81 366
80 367
79 367
78 367
77 368
76 368
75 368
74 368
73 368
72 368
71 369
70 369
69 369
68 370
67 370
66 370
65 371
64 371
63 371
62 371
61 372
60 372
59 372
58 372
57 372
56 372
55 372
54 372
53 372
52 372
51 372
50 373
49 373
48 373
47 373
46 373
45 373
44 373
43 373
42 373
41 373
40 374
39 374
38 374
37 374
36 374
35 374
34 374
33 374
32 374
31 374
30 374
29 374
28 374
27 375
26 375
25 375
24 376
23 376
22 377
21 377
22 378
23 378
24 378
25 378
26 379
27 379
28 379
29 379
30 379
31 380
32 380
33 380
34 380
35 381
36 381
37 381
38 381
39 381
40 382
41 382
42 383
43 383
44 383
45 384
46 384
47 384
48 384
49 384
50 385
51 385
52 386
53 386
54 387
55 387
56 388
57 388
58 388
59 388
60 388
61 388
62 388
63 389
64 389
65 389
66 390
67 390
68 390
69 391
70 391
71 392
72 392
73 392
74 392
75 393
76 393
77 393
78 394
79 394
80 395
81 395
82 396
83 396
84 397
85 397
86 398
87 398
88 398
89 399
90 399
91 400
92 400
93 401
94 401
95 402
96 402
97 403
98 403
99 404
100 404
101 405
102 405
103 406
104 406
105 407
106 407
107 408
108 408
109 409
110 409
111 410
112 411
113 411
114 412
115 412
116 412
117 413
118 413
119 414
120 414
121 415
122 415
123 416
124 416
125 417
126 417
127 418
128 418
129 419
130 419
131 419
132 420
133 420
134 421
135 422
136 422
137 423
138 423
139 424
140 424
141 425
142 425
143 426
144 426
145 427
146 427
147 427
148 427
149 427
150 428
150 429
150 430
150 431
150 432
150 433
150 434
149 435
150 435
151 436
152 436
153 437
154 438
155 438
156 439
157 439
158 440
159 440
160 440
161 441
162 441
163 441
164 441
165 441
166 441
167 442
168 443
169 444
170 444
171 445
172 445
173 445
174 445
175 445
176 446
177 446
178 446
179 446
180 446
181 446
182 446
183 446
184 446
185 446
186 446
187 446
188 446
189 446
190 446
191 446
192 446
193 446
194 446
195 447
196 447
197 447
198 447
199 447
200 447
201 448
202 448
203 448
204 448
205 448
206 448
207 448
208 448
209 448
210 448
211 448
212 447
213 447
214 447
215 447
216 447
217 447
218 447
219 447
220 447
221 447
222 447
223 447
224 448
225 448
226 448
227 448
228 448
229 448
230 448
231 448
232 448
233 448
234 448
235 448
236 448
237 448
238 448
239 448
240 448
241 448
242 448
243 448
244 448
245 448
246 448
247 448
248 448
249 448
250 448
251 448
252 448
253 448
254 447
255 447
256 447
257 447
258 448
258 449
257 450
257 451
257 452
256 453
256 454
256 455
255 456
255 457
255 458
255 459
254 460
254 461
254 462
254 463
253 464
253 465
253 466
253 467
253 468
253 469
252 470
252 471
252 472
252 473
252 474
251 475
251 476
251 477
251 478
251 479
251 480
250 481
250 482
250 483
250 484
250 485
249 486
249 487
249 488
248 489
248 490
249 490
250 490
251 490
252 490
253 490
254 490
255 490
256 490
257 490
258 490
259 490
260 490
261 490
262 490
263 490
264 490
265 491
266 491
267 491
268 491
269 492
270 492
271 492
272 491
273 491
274 491
275 491
276 491
277 491
278 491
279 490
280 490
281 490
282 491
282 492
283 492
284 492
285 492
286 492
287 492
288 492
289 492
290 492
291 492
292 492
293 492
294 492
295 491
296 491
297 491
298 491
299 490
300 490
301 490
302 490
303 489
304 489
305 488
306 488
307 488
308 488
309 487
310 487
311 487
312 486
313 486
314 486
315 485
316 485
317 485
318 484
319 484
320 483
321 483
322 482
323 482
324 481
325 481
326 480
327 480
328 480
329 479
330 479
331 478
332 477
333 477
334 477
335 476
336 476
337 476
338 475
339 475
340 474
341 474
342 473
343 473
344 473
345 472
346 471
347 471
348 470
349 469
350 469
351 468
352 468
353 467
354 467
355 466
356 466
357 465
358 464
359 464
360 463
361 463
362 462
363 461
364 461
365 460
366 459
367 459
368 458
369 457
370 456
371 456
372 455
373 454
374 453
375 452
376 451
377 450
378 449
378 448
379 447
380 446
381 445
382 444
383 443
384 442
385 441
386 440
387 439
388 438
389 437
390 438
390 439
390 440
389 441
389 442
388 443
388 444
387 445
387 446
386 447
386 448
385 449
385 450
384 451
383 452
383 453
382 454
382 455
382 456
381 457
381 458
381 459
381 460
380 461
380 462
380 463
380 464
380 465
380 466
380 467
380 468
380 469
380 470
380 471
380 472
380 473
380 474
380 475
380 476
379 477
379 478
378 479
378 480
377 481
377 482
376 483
376 484
376 485
375 486
375 487
375 488
375 489
374 490
374 491
374 492
374 493
374 494
374 495
374 496
373 497
373 498
373 499
373 500
373 501
373 502
373 503
373 504
373 505
373 506
374 507
374 508
374 509
375 510
375 511
374 512
374 513
374 514
374 515
374 516
374 517
373 518
373 519
373 520
373 521
373 522
373 523
373 524
373 525
373 526
373 527
373 528
374 529
374 530
374 531
374 532
374 533
374 534
374 535
374 536
374 537
374 538
374 539
374 540
373 541
373 542
373 543
373 544
373 545
373 546
373 547
373 548
373 549
373 550
373 551
373 552
373 553
373 554
374 555
374 556
374 557
374 558
374 559
374 560
374 561
374 562
375 563
375 564
375 565
375 566
375 567
375 568
375 569
375 570
375 571
375 572
375 573
375 574
375 575
375 576
375 577
375 578
376 579
376 580
376 581
377 582
377 583
377 584
377 585
377 586
377 587
378 588
378 589
378 590
378 591
378 592
378 593
378 594
378 595
379 596
379 597
379 598
379 599
379 600
380 601
380 602
380 603
381 604
381 605
381 606
382 607
382 608
383 609
383 610
383 611
384 612
384 613
384 614
384 615
384 616
384 617
384 618
385 619
385 620
385 621
385 622
385 623
386 624
386 625
386 626
386 627
386 628
386 629
386 630
386 631
386 632
387 633
387 634
387 635
387 636
387 637
387 638
387 639
387 640
387 641
387 642
387 643
387 644
387 645
387 646
387 647
387 648
387 649
387 650
387 651
387 652
387 653
387 654
388 655
388 656
388 657
388 658
388 659
389 660
389 661
390 661
390 660
391 659
391 658
392 657
392 656
392 655
392 654
392 653
393 652
393 651
393 650
393 649
394 648
394 647
395 646
395 645
395 644
396 643
396 642
396 641
396 640
397 639
397 638
397 637
398 636
398 635
398 634
399 633
399 632
400 631
401 630
401 629
402 628
403 627
403 626
404 625
405 624
405 623
406 622
406 621
407 620
408 619
409 618
409 617
410 616
411 615
411 614
412 613
413 612
414 611
415 610
416 609
417 609
418 608
419 607
420 606
420 605
421 604
422 603
423 602
424 602
425 602
426 601
427 601
428 600
429 599
430 599
431 598
432 597
433 597
434 596
435 595
436 595
437 594
438 593
439 592
440 592
441 591
442 590
443 589
444 588
444 587
445 586
446 585
446 584
447 583
447 582
447 581
448 580
449 581
450 582
451 583
451 584
452 584
453 584
454 583
455 583
456 582
457 582
458 581
459 581
460 580
461 579
462 579
463 578
464 577
465 576
466 575
466 574
467 573
468 572
469 571
470 570
471 569
472 569
473 569
474 568
475 567
476 566
477 565
478 564
479 563
479 562
480 561
481 560
481 559
482 558
483 557
484 556
485 555
486 554
487 553
488 552
489 551
489 550
490 549
491 548
492 547
492 546
493 545
494 544
495 543
495 542
496 541
497 540
497 539
498 538
499 537
499 536
500 535
500 534
500 533
501 532
501 531
501 530
501 529
502 528
503 527
504 528
505 528
506 529
507 530
508 530
509 531
510 531
511 532
512 532
513 533
514 533
515 534
516 535
517 536
517 537
518 536
518 535
519 534
520 533
521 532
522 531
523 530
524 529
524 528
525 527
526 526
526 525
527 524
527 523
528 522
529 521
529 520
530 519
530 518
530 517
531 516
531 515
532 514
533 513
534 513
535 512
536 511
536 510
537 509
538 508
538 507
539 506
539 505
540 504
540 503
541 502
541 501
542 500
542 499
542 498
543 497
543 496
543 495
544 494
544 493
544 492
545 491
545 490
545 489
546 488
546 487
547 486
547 485
548 484
548 483
548 482
548 481
548 480
548 479
548 478
549 477
549 476
549 475
549 474
549 473
549 472
549 471
549 470
549 469
549 468
549 467
549 466
550 465
550 464
550 463
550 462
550 461
550 460
550 459
550 458
550 457
550 456
550 455
550 454
550 453
550 452
550 451
550 450
550 449
549 448
549 447
549 446
549 445
549 444
549 443
549 442
549 441
549 440
549 439
549 438
549 437
549 436
549 435
549 434
548 433
548 432
548 431
548 430
548 429
547 428
547 427
547 426
547 425
546 424
546 423
545 422
545 421
544 420
544 419
543 418
543 417
543 416
542 415
542 414
541 413
541 412
540 411
540 410
539 409
538 408
538 407
537 406
537 405
536 404
536 403
535 402
535 401
534 400
533 399
532 398
531 397
530 396
530 395
529 394
528 393
527 392
526 391
525 390
524 390
523 389
522 388
521 387
520 387
519 386
518 385
517 385
516 384
515 384
514 383
513 383
512 383
511 382
510 382
509 382
508 382
507 381
506 381
505 381
504 380
504 379
504 378
505 377
505 376
506 375
507 374
507 373
508 372
509 371
510 370
510 369
511 368
512 367
513 366
514 365
515 364
516 363
517 363
518 362
519 362
520 361
521 360
522 359
523 358
524 358
525 358
526 358
527 358
528 358
529 358
530 358
531 358
532 358
533 358
534 359
535 359
536 359
537 359
538 359
539 359
540 359
541 360
542 360
543 360
544 360
545 360
546 360
547 361
548 361
549 361
550 361
551 361
552 361
553 362
554 362
555 362
556 362
557 362
558 362
559 363
560 363
561 363
562 363
563 363
564 363
565 363
566 364
567 364
568 364
569 364
570 364
571 364
572 365
573 365
574 365
575 365
576 365
577 365
578 366
579 366
580 366
581 366
582 366
583 366
584 366
585 367
586 367
587 367
588 367
589 367
590 368
591 368
592 368
593 368
594 368
595 368
596 369
597 369
598 369
599 369
600 369
601 370
602 370
603 370
604 370
605 370
606 370
607 371
608 371
609 371
610 371
611 371
612 371
613 372
614 372
615 372
616 372
617 372
618 373
619 373
620 373
621 373
622 373
623 373
624 374
625 374
626 374
627 374
628 374
629 375
630 375
631 375
632 375
633 375
634 375
635 376
636 376
637 376
638 376
639 376
640 376
641 377
642 377
643 377
644 377
645 378
646 378
647 378
648 378
649 378
650 378
651 379
652 379
653 379
654 379
655 379
656 380
657 380
658 380
659 380
660 380
661 381
662 381
663 381
664 381
665 381
666 382
667 382
668 382
669 382
670 382
671 383
672 383
673 383
674 383
675 384
676 384
677 384
678 384
679 384
680 384
681 385
682 385
683 385
684 385
685 386
686 386
687 386
688 386
689 387
690 387
691 387
692 387
693 387
694 388
695 388
696 388
697 389
698 389
699 389
700 389
701 390
702 390
703 390
704 390
705 391
706 391
707 391
708 391
709 392
710 392
711 392
712 392
713 393
714 393
715 393
716 394
717 394
718 394
719 394
720 395
721 395
722 395
723 396
724 396
725 396
726 396
727 397
728 397
729 397
730 398
731 398
732 398
733 399
734 399
735 399
736 400
737 400
738 400
739 401
740 401
741 401
742 402
743 402
744 402
745 402
745 401
746 400
746 399
746 398
747 397
747 396
747 395
747 394
746 394
745 393
744 393
743 393
742 392
741 392
740 392
739 392
738 392
737 392
736 391
735 391
734 391
733 391
732 391
731 391
730 391
729 391
728 390
727 390
726 390
725 390
724 390
723 390
722 390
721 389
720 389
719 389
718 389
717 389
716 388
715 388
714 388
713 388
712 388
711 387
710 387
709 387
708 387
707 387
706 386
705 386
704 386
703 386
702 385
701 385
700 385
699 385
698 385
697 384
696 384
695 384
694 384
693 383
692 383
691 383
690 383
689 383
688 382
687 382
686 382
685 382
684 382
683 381
682 381
681 381
680 381
679 380
678 380
677 380
676 380
675 380
674 379
673 379
672 379
671 379
670 379
669 378
668 378
667 378
666 378
665 378
664 377
663 377
662 377
661 377
660 377
659 376
658 376
657 376
656 376
655 376
654 375
653 375
652 375
651 375
650 375
649 375
648 374
647 374
646 374
645 374
644 374
643 373
642 373
641 373
640 373
639 373
638 372
637 372
636 372
635 372
634 372
633 372
632 371
631 371
630 371
629 371
628 371
627 370
626 370
625 370
624 370
623 370
622 370
621 369
620 369
619 369
618 369
617 369
616 368
615 368
614 368
613 368
612 368
611 368
610 367
609 367
608 367
607 367
606 367
605 366
604 366
603 366
602 366
601 366
600 366
599 365
598 365
597 365
596 365
595 365
594 365
593 364
592 364
591 364
590 364
589 364
588 363
587 363
586 363
585 363
584 363
583 362
582 362
581 362
580 362
579 362
578 362
577 361
576 361
575 361
574 361
573 361
572 361
571 360
570 360
569 360
568 360
567 360
566 360
565 359
564 359
563 359
562 359
561 359
560 358
559 358
558 358
557 358
556 358
555 358
554 357
553 357
552 357
551 357
550 357
549 356
548 356
547 356
546 356
545 356
544 356
543 355
542 355
541 355
540 355
539 355
538 354
537 354
536 354
535 354
534 353
533 353
532 353
531 353
530 353
529 352
528 352
527 352
526 351
525 351
524 351
523 350
522 349
521 348
520 347
519 347
518 346
517 345
516 345
515 344
514 343
513 343
512 342
511 341
510 340
509 339
508 338
507 338
506 337
505 336
504 335
503 334
502 333
501 332
500 331
500 330
500 329
501 328
501 327
502 326
503 325
504 324
505 323
506 322
507 321
508 320
509 319
510 318
511 317
511 316
512 315
513 314
513 313
514 312
514 311
515 310
515 309
516 308
516 307
517 306
517 305
517 304
518 303
518 302
518 301
519 300
519 299
519 298
520 297
520 296
520 295
521 294
521 293
521 292
522 291
522 290
522 289
522 288
522 287
522 286
523 285
523 284
523 283
523 282
523 281
523 280
523 279
523 278
524 277
524 276
524 275
524 274
525 273
525 272
525 271
525 270
525 269
526 268
526 267
526 266
526 265
526 264
526 263
526 262
526 261
526 260
526 259
526 258
526 257
526 256
526 255
526 254
526 253
526 252
526 251
526 250
526 249
526 248
526 247
526 246
526 245
526 244
525 243
525 242
525 241
524 240
524 239
524 238
524 237
523 236
523 235
523 234
523 233
522 232
522 231
522 230
522 229
521 228
521 227
520 226
520 225
519 224
519 223
518 222
518 221
517 220
517 219
516 218
516 217
515 216
515 215
515 214
514 213
514 212
514 211
513 210
513 209
512 208
512 207
511 206
511 205
511 204
510 203
510 202
510 201
509 200
509 199
509 198
508 197
508 196
508 195
507 194
507 193
507 192
506 191
506 190
505 189
505 188
504 187
504 186
503 185
502 184
501 183
500 182
499 181
498 180
497 179
496 179
495 179
494 178
493 177
493 176
492 175
492 174
491 173
490 172
490 171
489 170
489 169
488 168
487 167
486 167
485 166
484 166
483 166
482 165
481 164
480 163
479 162
478 161
477 160
476 159
475 159
474 159
473 160
472 161
471 161
470 162
469 162
468 163
467 163
466 164
465 165
464 165
463 164
462 163
462 162
462 161
461 160
461 159
460 158
459 157
459 156
458 155
457 154
457 153
456 152
456 151
455 150
454 149
453 148
453 147
452 146
451 145
450 145
449 144
448 143
447 142
446 141
445 140
444 139
443 138
442 138
441 137
440 136
439 135
438 134
437 134
436 133
435 133
434 132
433 131
432 130
431 129
430 128
429 128
428 127
428 126
427 125
426 124
425 123
425 122
424 121
423 120
422 119
421 118
420 118
419 117
418 117
417 117
416 118
415 117
414 116
413 115
412 114
411 113
410 113
409 112
408 112
407 111
406 111
405 110
404 110
403 109
402 109
401 108
400 108
399 108
398 107
397 107
396 107
395 106
394 106
393 107
393 108
392 109
391 110
390 111
389 110
388 109
387 108
386 107
385 106
384 105
383 104
382 103
381 103
380 102
379 101
378 101
377 100
376 100
375 99
374 98
373 98
372 97
371 96
370 95
369 95
368 94
367 93
366 93
365 92
364 92
363 92
362 92
361 92
360 92
359 91
358 90
357 89
356 88
355 88
354 87
353 86
352 85
351 84
350 84
349 83
348 83
347 82
346 81
345 80
344 80
343 79
342 78
341 77
340 76
339 75
338 74
337 73
336 72
335 72
334 71
333 70
332 69
331 68
330 68
329 67
328 66
328 65
327 64
326 63
325 62
324 61
323 60
322 59
321 58
320 57
319 56
318 55
317 55
316 54
315 53
314 52
313 51
312 50
312 49
311 49
310 48
309 47
308 46
307 45
306 45
305 44
304 43
303 43
302 42
301 42
300 41
299 41
298 41
297 40
296 40
