313 1
312 2
311 2
310 2
309 3
308 3
307 3
306 3
305 4
304 4
303 4
302 5
301 5
300 5
299 5
298 6
297 6
296 7
295 7
294 7
293 7
292 8
291 8
290 9
289 9
288 10
287 10
286 10
285 10
284 10
283 11
282 11
281 11
280 12
279 12
278 12
277 13
276 13
275 13
274 13
273 14
272 14
271 14
270 14
269 15
268 15
267 16
266 16
265 16
264 17
263 17
262 17
261 17
260 18
259 18
258 18
257 18
256 19
255 20
254 20
253 20
252 20
251 20
250 21
249 21
248 22
247 22
246 22
245 23
244 23
243 23
242 24
241 24
240 25
239 26
239 27
238 28
237 29
236 30
235 31
234 31
233 32
232 32
231 33
230 33
229 33
228 34
227 34
226 35
225 36
224 37
223 37
222 38
221 38
220 39
219 40
218 40
217 41
216 42
215 42
214 43
213 43
212 44
211 44
210 45
209 45
208 46
207 46
206 46
205 47
204 46
203 46
202 45
201 46
200 47
199 47
198 47
197 48
196 48
195 49
194 49
193 50
192 51
191 51
190 52
189 53
188 53
187 54
186 54
185 55
184 56
183 56
182 57
181 57
180 58
179 58
178 58
177 58
176 59
175 60
174 60
173 60
172 61
171 61
170 61
169 62
168 62
167 62
166 63
165 63
164 63
163 64
162 64
161 65
160 65
159 65
158 66
157 66
156 67
155 68
154 68
153 68
152 69
151 70
150 70
149 71
148 71
147 72
146 73
145 73
144 74
143 75
142 76
141 77
140 78
139 78
138 79
137 80
136 81
135 81
134 82
133 83
133 84
132 85
131 85
130 86
129 87
128 88
127 89
126 89
125 90
124 91
123 92
122 93
121 94
120 95
119 95
118 96
117 97
116 97
115 98
114 99
114 100
113 101
112 102
111 103
110 103
109 104
108 105
107 106
106 107
105 108
104 108
103 109
102 110
101 111
101 112
100 113
99 113
98 114
98 115
97 116
96 117
95 118
94 119
93 119
93 120
92 121
91 122
90 123
89 124
88 124
87 125
86 126
85 127
84 128
83 129
82 129
81 130
80 131
79 132
78 133
77 134
76 134
76 135
75 136
74 137
73 138
72 139
71 140
70 141
69 142
68 143
68 144
67 145
66 145
65 146
65 147
64 148
63 149
62 150
61 151
61 152
60 153
60 154
59 155
58 156
58 157
57 158
56 159
56 160
55 161
55 162
54 163
54 164
53 165
53 166
52 167
52 168
51 169
51 170
51 171
50 172
50 173
49 174
49 175
48 176
48 177
48 178
47 179
47 180
47 181
46 182
46 183
46 184
46 185
45 186
45 187
45 188
44 189
44 190
44 191
44 192
43 193
43 194
43 195
43 196
43 197
43 198
42 199
42 200
42 201
42 202
42 203
42 204
42 205
42 206
42 207
42 208
42 209
42 210
42 211
42 212
43 213
43 214
43 215
43 216
43 217
43 218
43 219
43 220
43 221
43 222
43 223
42 224
41 225
40 225
39 226
38 227
37 228
36 229
35 229
34 230
33 231
33 232
32 233
31 233
30 234
29 235
29 236
28 237
27 238
27 239
26 240
26 241
25 242
24 243
24 244
23 245
23 246
22 247
22 248
21 249
21 250
20 251
20 252
19 253
19 254
18 255
18 256
17 257
17 258
17 259
16 260
16 261
15 262
15 263
15 264
14 265
14 266
14 267
13 268
13 269
13 270
13 271
12 272
12 273
12 274
12 275
11 276
11 277
11 278
11 279
11 280
10 281
10 282
10 283
10 284
9 285
9 286
9 287
9 288
9 289
8 290
8 291
8 292
8 293
8 294
7 295
7 296
7 297
7 298
6 299
6 300
6 301
6 302
6 303
6 304
5 305
5 306
5 307
5 308
4 309
4 310
4 311
4 312
4 313
4 314
4 315
4 316
3 317
3 318
3 319
3 320
3 321
3 322
3 323
3 324
3 325
3 326
3 327
3 328
3 329
3 330
3 331
3 332
3 333
3 334
3 335
3 336
3 337
3 338
3 339
3 340
4 341
4 342
4 343
4 344
5 345
5 346
5 347
5 348
5 349
6 350
6 351
6 352
6 353
6 354
6 355
6 356
6 357
6 358
6 359
6 360
6 361
6 362
6 363
6 364
6 365
6 366
6 367
7 368
7 369
7 370
7 371
7 372
7 373
7 374
7 375
7 376
7 377
8 378
8 379
8 380
8 381
8 382
8 383
8 384
8 385
8 386
9 387
9 388
9 389
9 390
9 391
9 392
9 393
9 394
9 395
9 396
10 397
10 398
10 399
10 400
10 401
11 402
11 403
11 404
11 405
11 406
11 407
12 408
12 409
12 410
11 411
11 412
11 413
11 414
11 415
11 416
10 417
10 418
10 419
10 420
9 421
9 422
9 423
9 424
9 425
9 426
9 427
9 428
9 429
9 430
9 431
9 432
9 433
9 434
9 435
9 436
9 437
9 438
10 439
10 440
10 441
10 442
10 443
11 444
11 445
11 446
12 447
12 448
13 449
13 450
13 451
14 452
14 453
14 454
15 455
15 456
15 457
15 458
15 459
15 460
16 461
16 462
16 463
16 464
16 465
16 466
16 467
17 468
17 469
17 470
17 471
17 472
17 473
17 474
17 475
18 476
18 477
18 478
18 479
18 480
19 481
19 482
19 483
19 484
19 485
20 486
20 487
20 488
20 489
21 490
21 491
21 492
22 493
22 494
22 495
23 496
23 497
24 498
24 499
24 500
25 501
25 502
26 503
26 504
27 505
27 506
27 507
27 508
28 509
28 510
29 511
29 512
29 513
30 514
30 515
31 516
31 517
32 518
33 519
33 520
34 521
35 522
36 523
36 524
37 525
37 526
38 527
39 528
39 529
40 530
41 531
41 532
42 533
43 534
44 535
45 536
46 537
46 538
47 539
48 540
48 541
49 542
49 543
50 544
50 545
51 546
51 547
52 548
52 549
53 550
54 551
54 552
55 553
55 554
55 555
55 556
55 557
56 558
56 559
56 560
56 561
56 562
56 563
56 564
56 565
56 566
56 567
56 568
57 569
57 570
57 571
58 572
58 573
58 574
58 575
59 576
59 577
60 578
60 579
60 580
61 581
61 582
61 583
62 584
62 585
63 586
63 587
64 588
64 589
64 590
65 591
65 592
66 593
66 594
67 595
67 596
67 597
68 598
68 599
69 600
69 601
69 602
70 603
70 604
71 605
71 606
72 607
72 608
73 609
73 610
74 611
74 612
75 613
75 614
75 615
76 616
77 617
77 618
78 619
78 620
79 621
80 622
80 623
81 624
81 625
81 626
82 627
82 628
83 629
84 630
85 631
85 632
86 633
86 634
87 635
88 636
89 637
89 638
90 639
91 640
92 641
92 642
93 643
94 644
94 645
95 646
96 647
96 648
97 649
98 650
99 651
100 652
101 653
102 654
102 655
103 656
103 657
104 658
104 659
105 660
105 661
106 662
107 663
108 664
108 665
109 666
109 667
110 668
111 669
112 670
113 671
113 672
114 673
115 674
116 675
116 676
117 677
118 678
118 679
119 680
120 681
120 682
121 682
122 683
122 684
123 685
123 686
124 687
125 688
126 689
127 690
128 691
128 692
129 693
130 694
130 695
131 695
132 695
133 696
134 697
135 697
136 696
137 696
138 695
139 695
140 695
141 695
142 696
143 696
144 697
145 698
146 698
147 699
148 700
149 700
150 701
151 702
152 703
153 704
154 704
155 705
156 706
157 707
158 707
159 708
160 709
161 709
162 710
163 710
164 711
165 711
166 712
167 712
168 712
169 713
170 713
171 714
172 714
173 715
174 715
175 715
176 716
177 716
178 717
179 717
180 717
181 718
182 718
183 719
184 719
185 719
186 720
187 720
188 720
189 720
190 721
191 721
192 721
193 722
194 722
195 722
196 722
197 722
198 723
199 723
200 723
201 724
202 724
203 724
204 725
205 725
206 725
207 726
208 726
209 727
210 727
211 728
212 728
213 729
214 729
215 730
216 731
217 731
218 732
219 732
220 733
221 734
222 735
223 735
224 736
225 736
226 737
227 738
228 739
229 740
230 740
231 741
232 741
233 742
234 742
235 742
236 742
237 743
238 743
239 744
240 744
241 745
242 746
243 746
244 747
245 747
246 747
247 748
248 748
249 749
250 749
251 750
252 750
253 751
254 752
255 752
256 752
257 753
258 753
259 754
260 755
261 756
262 757
263 757
264 758
265 759
266 759
267 760
268 761
269 761
270 762
271 762
272 763
273 763
274 764
275 764
276 764
277 765
278 765
279 766
280 766
281 767
282 767
283 768
284 768
285 768
286 769
287 769
288 770
289 770
290 770
291 771
292 771
293 771
294 771
295 772
296 772
297 772
298 773
299 773
300 774
301 774
302 775
303 775
304 775
305 776
306 776
307 776
308 776
309 777
310 777
311 777
312 777
313 778
314 778
315 778
316 778
317 779
318 779
319 779
320 779
321 779
322 779
323 779
324 779
325 779
326 779
327 779
328 779
329 779
330 779
331 779
332 779
333 779
334 779
335 779
336 779
337 779
338 779
339 779
340 779
341 779
342 779
343 779
344 779
345 779
346 779
347 779
348 779
349 779
350 779
351 779
352 779
353 779
354 779
355 779
356 779
357 779
358 779
359 779
360 779
361 779
362 779
363 779
364 779
365 779
366 779
367 779
368 779
369 779
370 779
371 779
372 779
373 779
374 779
375 779
376 779
377 779
378 779
379 779
380 779
381 779
382 779
383 779
384 779
385 779
386 779
387 779
388 779
389 779
390 779
391 779
392 779
393 779
394 779
395 779
396 779
397 779
398 779
399 779
400 779
401 779
402 779
403 779
404 779
405 779
406 779
407 779
408 778
409 778
410 778
411 778
412 778
413 777
414 777
415 777
416 777
417 776
418 776
419 776
420 776
421 776
422 775
423 775
424 775
425 775
426 775
427 774
428 774
429 774
430 774
431 774
432 774
433 774
434 773
435 773
436 773
437 773
438 772
439 772
440 772
441 772
442 772
443 772
444 771
445 771
446 771
447 771
448 771
449 771
450 771
451 771
452 771
453 771
454 771
455 771
456 771
457 771
458 771
459 771
460 771
461 771
462 771
463 771
464 771
465 771
466 770
467 770
468 770
469 770
470 770
471 769
472 769
473 769
474 769
475 769
476 768
477 768
478 768
479 768
480 767
481 767
482 767
483 766
484 766
485 765
486 765
487 764
488 764
489 763
490 763
491 762
492 761
493 760
494 760
495 759
496 759
497 758
498 758
499 757
500 757
501 756
502 756
503 755
504 755
505 754
506 754
507 753
508 753
509 752
510 752
511 751
512 750
513 750
514 749
515 749
516 748
517 748
518 747
519 747
520 746
521 746
522 745
523 745
524 744
525 744
526 743
527 743
528 742
529 742
530 741
531 741
532 740
533 739
534 739
535 738
536 737
537 736
538 736
539 735
540 735
541 734
542 733
543 733
544 732
545 731
546 730
547 730
548 729
549 728
550 728
551 727
552 726
553 726
554 725
555 725
556 724
557 723
558 723
559 722
560 722
561 721
562 721
563 720
564 719
565 719
566 718
567 717
568 716
569 716
570 715
571 714
572 713
573 712
574 711
575 710
576 710
577 709
578 708
579 707
580 706
581 705
582 704
583 704
583 703
584 702
585 702
586 701
587 700
588 699
589 698
590 697
591 697
592 696
593 695
594 694
595 694
596 693
597 692
598 692
599 691
600 690
601 690
602 689
603 689
604 689
605 690
606 691
607 692
608 692
609 693
610 694
611 694
612 695
613 695
614 695
615 695
616 694
617 694
618 694
619 694
620 694
621 693
622 693
623 693
624 693
625 692
626 692
627 692
628 691
629 691
630 691
631 691
632 691
633 691
634 691
635 691
636 691
637 691
638 691
639 691
640 691
641 691
642 691
643 691
644 691
645 690
646 690
647 690
648 690
649 690
650 690
651 689
652 689
653 689
654 689
655 688
656 688
657 688
658 687
659 687
660 686
661 686
662 685
663 685
664 684
665 684
666 683
667 683
668 682
669 682
670 681
671 681
672 680
673 679
674 679
675 678
676 678
677 677
678 676
679 676
680 675
681 674
682 674
683 673
684 672
685 671
686 670
687 669
688 669
689 668
690 667
691 666
692 665
693 665
694 664
695 663
696 662
697 661
698 660
699 659
700 658
701 657
702 656
702 655
703 654
704 653
704 652
705 651
706 650
706 649
707 648
708 647
709 646
709 645
710 644
711 643
711 642
712 641
713 640
713 639
713 638
714 637
714 636
715 635
715 634
716 633
716 632
717 631
717 630
717 629
717 628
718 627
718 626
718 625
719 624
719 623
719 622
719 621
720 620
720 619
720 618
720 617
721 616
721 615
721 614
722 613
722 612
722 611
722 610
722 609
723 608
723 607
723 606
723 605
723 604
724 603
724 602
724 601
724 600
724 599
724 598
724 597
724 596
724 595
724 594
724 593
725 592
725 591
725 590
725 589
725 588
725 587
725 586
725 585
725 584
725 583
725 582
724 581
725 580
724 579
724 578
724 577
724 576
724 575
724 574
723 573
723 572
723 571
723 570
722 569
722 568
722 567
721 566
721 565
721 564
721 563
720 562
720 561
720 560
720 559
719 558
719 557
719 556
718 555
718 554
717 553
717 552
717 551
716 550
716 549
715 548
715 547
714 546
714 545
713 544
712 543
712 542
711 541
711 540
710 539
710 538
709 537
708 536
708 535
707 534
706 533
705 532
705 531
704 530
703 529
702 528
701 527
701 526
700 525
699 524
698 523
697 522
696 521
695 520
694 519
694 518
693 518
692 517
692 516
691 515
690 514
689 513
688 512
687 511
686 510
685 509
684 508
683 507
682 506
681 505
680 504
679 503
678 502
677 501
677 500
676 500
675 499
675 498
674 497
673 497
672 496
671 495
671 494
670 494
669 493
668 492
667 491
666 490
665 489
664 489
663 488
662 487
661 486
660 486
659 485
658 484
657 484
656 483
655 482
654 481
653 481
652 480
651 480
650 479
649 478
648 478
647 477
646 477
645 476
644 475
643 475
642 474
641 474
640 473
639 472
638 472
637 471
636 471
635 471
634 470
633 470
632 469
631 469
630 468
629 468
628 467
627 467
626 466
625 466
624 466
623 465
622 465
621 464
620 464
619 464
618 463
617 462
616 462
615 462
614 461
613 461
612 460
611 460
610 460
609 460
608 459
607 459
606 459
605 458
604 458
603 458
602 457
601 457
600 457
599 456
598 456
597 456
596 455
595 455
594 455
593 454
592 453
591 453
590 453
589 453
588 452
587 452
586 452
585 451
584 451
583 450
584 449
583 449
582 448
581 447
581 446
582 445
583 445
584 446
584 445
584 444
585 443
586 443
587 442
588 442
589 442
590 442
591 442
592 442
593 441
594 441
595 441
596 441
597 441
598 441
599 441
600 441
601 441
602 442
603 442
604 442
605 442
606 442
607 442
608 442
609 442
610 442
611 442
612 442
613 442
614 442
615 442
616 442
617 442
618 442
619 442
620 442
621 441
622 441
623 441
624 441
625 442
626 442
627 442
628 442
629 442
630 442
631 442
632 442
633 442
634 442
635 442
636 442
637 442
638 442
639 442
640 442
641 442
642 441
643 441
644 441
645 441
646 441
647 441
648 441
649 441
650 441
651 441
652 441
653 441
654 441
655 441
656 441
657 441
658 441
659 441
660 440
661 440
662 440
663 440
664 440
665 440
666 440
667 440
668 440
669 439
670 439
671 439
672 438
673 438
674 438
675 437
676 437
677 437
678 436
679 436
680 436
681 435
682 435
683 434
684 434
685 433
686 433
687 432
688 432
689 431
690 430
691 430
692 429
693 428
694 428
695 427
696 426
697 425
698 424
699 424
700 423
701 422
702 421
703 420
704 419
705 418
706 417
707 416
708 416
708 415
709 414
710 414
710 413
711 412
712 412
713 411
714 410
714 409
715 408
716 408
716 407
717 406
718 405
719 404
720 403
720 402
721 401
722 400
722 399
723 398
723 397
724 396
724 395
725 394
725 393
726 392
726 391
727 390
727 389
728 388
728 387
729 386
729 385
730 384
730 383
730 382
731 381
731 380
731 379
732 378
732 377
733 376
734 376
735 375
736 375
737 374
738 374
739 374
740 373
741 373
742 373
743 372
744 372
745 371
746 371
747 371
748 370
749 370
750 370
751 369
752 369
753 368
754 368
755 368
756 367
757 367
758 367
759 366
760 366
761 366
762 366
763 365
764 365
765 365
766 365
767 364
768 364
769 364
770 364
771 364
772 364
773 363
774 363
775 363
776 363
777 362
778 362
779 362
780 362
781 362
782 361
783 361
784 362
785 362
786 362
787 362
788 363
789 363
790 363
791 363
792 363
793 363
794 362
795 361
796 361
797 361
798 361
799 360
800 360
800 359
800 358
800 357
800 356
800 355
800 354
800 353
800 352
800 351
800 350
800 349
800 348
799 347
798 347
797 346
796 345
796 344
795 343
795 342
794 341
794 340
793 340
792 340
791 340
790 340
789 340
788 341
787 341
786 341
785 341
784 340
784 339
783 339
782 339
781 339
780 338
779 338
778 338
777 338
776 338
775 338
774 338
773 338
772 339
771 340
770 341
769 341
768 341
767 342
766 342
765 343
764 343
763 344
762 344
761 345
760 345
759 346
758 347
757 348
756 349
755 350
754 351
753 352
752 353
751 353
750 354
749 354
748 355
747 355
746 356
745 356
744 357
743 357
742 358
741 358
740 358
739 359
738 359
737 360
736 360
735 360
734 359
734 358
734 357
734 356
734 355
734 354
734 353
733 352
733 351
733 350
733 349
733 348
733 347
733 346
733 345
733 344
733 343
733 342
733 341
733 340
733 339
733 338
733 337
733 336
733 335
733 334
733 333
732 332
732 331
732 330
732 329
732 328
732 327
732 326
732 325
732 324
732 323
731 322
731 321
731 320
731 319
731 318
730 317
730 316
730 315
730 314
729 313
729 312
729 311
728 310
728 309
728 308
727 307
727 306
726 305
726 304
725 303
725 302
724 301
724 300
724 299
723 298
723 297
722 296
722 295
722 294
721 293
721 292
720 291
720 290
719 289
719 288
719 287
719 286
718 285
718 284
718 283
717 282
717 281
717 280
717 279
716 278
716 277
716 276
715 275
715 274
715 273
714 272
714 271
714 270
713 269
713 268
713 267
713 266
712 265
712 264
712 263
711 262
711 261
711 260
710 259
710 258
710 257
709 256
709 255
709 254
708 253
708 252
708 251
707 250
707 249
706 248
706 247
705 246
705 245
704 244
704 243
703 242
703 241
702 241
701 240
701 239
700 238
699 237
699 236
698 235
697 234
696 233
695 232
694 231
693 230
692 229
692 228
691 228
690 227
689 226
688 225
688 224
687 224
686 223
685 222
684 221
683 220
682 219
681 218
680 217
679 217
678 216
677 215
676 214
675 213
674 213
673 212
672 211
671 210
670 209
669 209
668 208
667 207
666 206
665 206
664 205
663 204
662 204
661 203
660 202
659 201
658 201
657 200
656 200
655 199
654 198
653 198
652 197
651 196
650 195
649 194
648 193
647 192
646 192
645 191
645 190
644 189
643 189
642 188
641 187
640 186
639 185
638 184
637 183
636 182
635 182
634 181
633 180
632 179
631 178
630 177
629 177
628 176
627 176
626 175
625 174
624 173
623 172
622 172
621 171
620 170
619 169
618 169
617 168
616 167
615 166
614 166
613 165
612 164
611 163
610 163
609 162
608 161
607 161
606 160
605 159
604 158
603 157
602 157
601 156
600 155
599 155
598 154
597 153
596 152
595 151
594 150
593 150
592 149
591 148
590 147
589 146
588 145
587 145
586 144
585 143
585 142
584 141
585 140
585 139
585 138
585 137
585 136
585 135
586 134
586 133
586 132
585 131
584 130
583 129
582 129
581 128
580 128
579 127
578 127
577 126
576 125
575 124
575 123
575 122
575 121
576 120
576 119
576 118
576 117
576 116
576 115
576 114
576 113
576 112
576 111
576 110
576 109
576 108
575 107
574 106
573 105
573 104
572 103
572 102
572 101
572 100
572 99
572 98
572 97
572 96
572 95
572 94
572 93
572 92
571 91
570 90
570 89
569 88
569 87
568 86
567 85
566 84
566 83
565 82
564 81
563 81
562 80
561 79
561 78
560 77
559 76
558 75
557 74
556 73
555 72
554 71
553 70
552 69
551 68
550 67
549 66
548 65
547 64
546 64
545 63
544 62
544 61
543 61
542 60
541 59
540 58
539 57
538 56
537 55
536 55
535 54
534 53
533 52
532 51
531 50
530 49
529 49
528 48
527 47
526 47
525 46
524 45
523 45
522 44
521 43
520 42
519 42
518 41
517 41
516 40
515 40
514 39
513 39
512 38
511 37
510 37
509 36
508 36
507 36
506 35
505 35
504 34
503 34
502 33
501 33
500 33
499 33
498 32
497 32
496 32
495 31
494 31
493 30
492 30
491 30
490 30
489 29
488 29
487 28
486 28
485 28
484 27
483 27
482 27
481 26
480 26
479 26
478 25
477 25
476 25
475 24
474 24
473 23
472 23
471 23
470 22
469 22
468 21
467 21
466 21
465 20
464 20
463 20
462 19
461 19
460 18
459 18
458 17
457 17
456 16
455 16
454 16
453 15
452 15
451 15
450 14
449 14
448 14
447 14
446 14
445 13
444 13
443 13
442 13
441 13
440 12
439 12
438 12
437 12
436 11
435 11
434 11
433 11
432 11
431 10
430 10
429 10
428 10
427 10
426 9
425 9
424 8
424 7
424 6
423 5
423 4
423 3
422 2
422 1
421 1
420 1
419 1
418 1
417 1
416 1
415 1
414 1
413 1
412 1
411 1
410 1
409 1
408 1
407 1
406 1
405 1
404 1
403 1
402 1
401 1
400 1
399 1
398 1
397 1
396 1
395 1
394 1
393 1
392 1
391 1
390 1
389 1
388 1
387 1
386 1
385 1
384 1
383 1
382 1
381 1
380 1
379 1
378 1
377 1
376 1
375 1
374 1
373 1
372 1
371 1
370 1
369 1
368 1
367 1
366 1
365 1
364 1
363 1
362 1
361 1
360 1
359 1
358 1
357 1
356 1
355 1
354 1
353 1
352 1
351 1
350 1
349 1
348 1
347 1
346 1
345 1
344 1
343 1
342 1
341 1
340 1
339 1
338 1
337 1
336 1
335 1
334 1
333 1
332 1
331 1
330 1
329 1
328 1
327 1
326 1
325 1
324 1
323 1
322 1
321 1
320 1
319 1
318 1
317 1
316 1
315 1
314 1
313 1
