303 47
302 48
301 48
300 48
299 49
298 49
297 50
298 51
299 52
300 53
300 54
301 55
301 56
302 57
303 58
303 59
304 59
305 60
306 61
305 62
304 63
303 64
302 64
301 65
300 66
299 66
298 67
297 68
297 69
296 70
296 71
295 72
294 73
293 73
292 73
291 72
290 72
289 73
288 73
287 74
286 75
285 75
284 75
283 74
282 73
281 72
280 71
279 70
278 69
278 68
277 67
277 66
277 65
277 64
276 63
277 62
277 61
277 60
277 59
276 59
275 58
274 58
273 58
272 57
271 57
270 56
269 56
268 56
267 55
266 55
265 55
264 55
263 54
262 54
261 54
260 54
259 55
258 55
257 55
256 55
255 55
254 55
253 55
252 55
251 56
250 56
249 56
248 55
247 56
246 56
245 56
244 56
243 55
242 55
241 55
240 55
239 55
238 55
237 55
236 55
235 55
234 55
233 55
232 55
231 56
230 56
229 56
228 56
227 56
226 56
225 56
224 56
223 56
222 56
221 56
220 56
219 56
218 56
217 57
216 57
215 57
214 58
213 58
212 59
211 59
210 60
209 61
208 60
207 61
206 61
205 61
204 61
203 61
202 62
201 63
201 64
200 65
200 66
200 67
200 68
199 69
199 70
199 71
199 72
199 73
199 74
199 75
199 76
199 77
199 78
199 79
199 80
200 81
200 82
200 83
200 84
201 85
201 86
201 87
202 88
202 89
202 90
203 91
203 92
203 93
204 94
204 95
205 96
206 97
206 98
207 99
208 100
209 101
210 102
210 103
211 104
211 105
212 106
212 107
213 108
214 109
214 110
215 111
215 112
216 113
216 114
217 115
218 116
219 117
219 118
220 119
221 120
222 121
223 122
224 122
225 123
225 124
226 124
227 125
228 126
229 127
230 128
231 129
232 130
233 131
234 132
235 133
236 134
236 135
237 136
237 137
238 138
238 139
238 140
239 141
239 142
239 143
238 144
237 145
236 146
235 146
234 146
233 146
232 146
231 146
230 145
229 145
228 145
227 145
226 145
225 144
224 144
223 144
222 144
221 143
220 143
219 142
218 141
217 141
216 140
215 139
214 139
213 138
212 137
211 136
210 135
209 134
208 133
207 133
206 133
205 132
204 132
203 132
202 132
201 132
200 132
199 132
198 131
197 130
196 130
195 130
194 129
193 129
192 129
191 128
190 127
189 127
188 127
187 126
186 126
185 126
184 125
183 125
182 125
181 125
180 125
179 125
178 125
177 125
176 124
175 124
174 123
173 123
172 122
171 122
170 122
169 122
168 122
167 122
166 122
165 123
164 124
163 124
162 124
161 125
160 125
159 126
158 126
157 126
156 126
155 126
154 127
153 127
152 128
151 128
150 128
149 128
148 128
147 128
146 128
145 128
144 128
143 128
142 129
141 129
140 130
139 130
138 131
137 131
136 131
135 131
134 131
133 132
132 132
131 133
130 133
129 134
128 135
127 135
126 135
125 136
124 136
123 136
122 136
121 136
120 135
119 135
118 134
117 134
116 133
115 133
114 134
113 134
112 135
111 135
110 136
109 136
108 137
107 137
106 138
105 139
104 139
103 140
102 141
101 141
101 142
101 143
101 144
101 145
100 146
100 147
100 148
99 149
99 150
99 151
99 152
99 153
100 154
100 155
100 156
101 157
101 158
101 159
101 160
102 161
102 162
102 163
103 164
103 165
104 166
104 167
105 168
106 169
106 170
107 171
108 172
108 173
109 174
110 175
110 176
111 176
112 177
113 178
114 179
115 180
116 180
117 181
118 182
118 183
118 184
118 185
117 186
116 187
116 188
115 189
114 190
113 190
112 191
111 192
110 192
109 193
108 193
107 193
106 194
105 194
104 195
103 195
102 196
101 196
100 195
99 195
98 196
97 196
96 196
95 196
94 196
93 196
92 197
91 197
90 197
89 197
88 197
87 197
86 197
85 197
84 197
83 197
82 198
81 198
80 199
79 199
78 200
77 200
76 201
75 201
74 202
73 203
72 203
71 204
70 205
69 206
68 207
67 208
66 209
65 210
64 211
63 212
62 213
62 214
61 215
60 216
59 217
58 218
57 219
56 220
55 221
55 222
54 223
54 224
53 225
53 226
53 227
53 228
53 229
52 230
52 231
52 232
51 233
51 234
51 235
51 236
50 237
50 238
50 239
50 240
49 241
49 242
49 243
49 244
49 245
49 246
49 247
49 248
50 249
50 250
51 251
51 252
52 253
52 254
53 255
53 256
53 257
54 258
54 259
55 260
55 261
56 262
57 263
57 264
57 265
58 266
58 267
58 268
59 269
59 270
59 271
60 272
61 273
61 274
62 275
62 276
63 277
64 278
65 279
65 280
66 281
67 282
67 283
68 284
69 285
70 286
71 287
71 288
72 288
73 289
74 290
75 291
76 292
77 293
78 294
79 295
80 295
81 296
82 297
83 298
84 298
85 299
86 299
87 300
88 300
89 300
90 300
91 300
92 299
93 299
94 300
95 300
96 300
97 301
98 301
99 302
100 302
101 302
102 303
103 303
104 303
105 304
106 304
107 305
108 305
109 306
110 306
111 307
112 307
113 307
114 307
115 307
116 307
117 307
118 307
119 307
120 307
121 307
122 307
123 308
124 308
125 308
126 309
127 309
128 309
129 310
129 311
129 312
128 313
128 314
127 315
126 316
125 317
124 318
124 319
123 320
122 321
121 322
121 323
120 324
119 325
118 326
117 327
117 328
116 329
116 330
115 331
115 332
115 333
115 334
115 335
115 336
115 337
114 338
114 339
114 340
114 341
113 342
113 343
113 344
113 345
113 346
113 347
113 348
113 349
114 350
115 351
115 352
116 353
117 354
118 354
119 355
120 356
121 356
122 357
123 357
124 358
125 358
126 359
127 360
128 360
129 361
130 362
131 362
132 363
133 363
134 364
135 365
136 365
137 366
138 367
139 368
140 368
141 369
142 369
143 370
144 371
145 372
146 372
147 373
148 373
149 374
150 374
151 374
152 375
153 375
154 375
155 375
156 375
157 376
158 376
159 376
160 376
161 376
162 376
163 376
164 377
165 377
166 377
167 377
168 377
169 377
170 378
171 378
172 378
173 378
174 378
175 378
176 378
177 379
178 379
179 379
180 379
181 379
182 379
183 379
184 379
185 379
186 378
187 378
188 378
189 377
190 377
191 376
192 376
193 375
193 374
194 373
195 372
196 372
197 371
198 370
199 369
200 368
201 367
202 366
203 366
204 365
205 365
206 364
207 364
208 364
209 364
210 363
211 363
212 363
213 363
214 363
215 363
216 363
217 363
218 363
219 363
220 363
221 363
222 363
223 363
224 363
225 363
226 364
227 364
228 364
229 364
230 364
231 364
232 364
233 365
234 365
235 365
236 366
237 366
238 366
239 367
240 367
241 367
242 368
243 369
244 370
244 371
243 372
243 373
242 374
242 375
241 376
240 376
239 377
238 378
238 379
237 380
236 380
236 381
235 382
234 383
234 384
233 385
233 386
232 387
231 388
230 389
229 390
229 391
229 392
228 393
227 394
227 395
227 396
227 397
226 398
226 399
225 400
225 401
224 402
224 403
223 404
223 405
223 406
222 407
222 408
222 409
221 410
221 411
221 412
220 413
220 414
220 415
219 416
219 417
219 418
219 419
219 420
218 421
218 422
218 423
218 424
218 425
218 426
218 427
218 428
218 429
218 430
218 431
219 432
219 433
219 434
219 435
219 436
219 437
220 438
220 439
220 440
220 441
221 442
221 443
221 444
222 445
222 446
222 447
222 448
222 449
222 450
223 451
223 452
223 453
224 454
224 455
225 456
225 457
226 458
226 459
227 460
228 460
229 461
230 462
231 462
232 463
233 463
234 464
235 464
236 464
237 465
238 465
239 465
240 466
241 466
242 466
243 467
244 467
245 467
246 467
247 468
248 468
249 468
250 468
251 469
252 469
253 469
254 469
255 469
256 469
257 469
258 469
259 469
260 469
261 469
262 469
263 469
264 469
265 469
266 469
267 469
268 469
269 469
270 469
271 469
272 469
273 469
274 469
275 469
276 469
277 469
278 469
279 469
280 469
281 468
282 468
283 468
284 468
285 468
286 468
287 467
288 467
289 467
290 466
291 466
292 465
293 464
294 463
294 462
295 461
296 460
297 459
298 458
298 457
299 456
300 455
301 454
302 454
303 453
304 453
305 452
306 452
307 452
308 451
309 451
310 450
311 450
312 450
313 449
314 449
315 448
316 448
317 447
318 447
319 447
320 447
321 447
322 447
323 447
324 448
325 448
326 449
327 449
328 450
329 450
330 451
331 451
332 451
333 452
334 452
335 453
336 453
337 453
338 453
339 454
340 454
341 454
342 454
343 455
344 455
345 454
346 454
347 455
348 455
349 455
350 454
351 454
352 454
353 453
354 453
355 452
356 452
357 451
358 451
359 450
360 449
361 449
362 448
363 447
364 446
365 446
366 445
367 444
368 444
369 443
370 442
371 441
372 441
373 440
374 439
375 439
376 438
377 438
378 437
379 437
380 436
381 436
382 436
383 435
384 435
385 434
386 434
387 433
388 433
389 432
390 432
391 432
392 431
393 431
394 430
395 430
396 430
397 429
398 429
399 428
400 428
401 427
402 427
403 427
404 426
405 426
406 426
407 425
408 424
409 424
410 424
411 423
412 422
413 422
414 421
415 421
416 421
417 420
418 420
419 419
420 418
421 418
422 417
423 416
424 415
425 415
425 414
426 413
427 412
428 412
428 411
429 410
430 409
430 408
431 407
432 406
432 405
433 404
434 403
434 402
434 401
435 400
436 399
436 398
437 397
438 396
439 395
440 394
441 393
442 393
443 392
444 392
445 391
446 391
447 391
448 391
449 391
450 391
451 391
452 391
453 391
454 390
455 390
456 390
457 391
458 390
459 390
460 390
461 390
462 390
463 390
464 390
465 390
466 389
467 388
468 388
469 388
469 387
470 386
471 385
472 385
472 384
473 383
474 382
475 381
476 381
477 380
478 379
479 378
480 377
481 376
482 375
483 374
484 373
485 372
486 371
486 370
487 369
488 369
489 368
490 367
491 366
492 365
493 365
494 364
495 363
496 363
497 362
498 362
499 362
500 361
501 361
502 361
503 360
504 360
505 360
506 360
507 360
508 360
509 360
510 359
511 359
512 359
513 359
514 360
515 360
516 360
517 361
518 361
519 362
520 363
520 364
521 365
521 366
521 367
521 368
521 369
521 370
521 371
521 372
521 373
522 374
522 375
522 376
523 377
524 378
524 379
525 380
526 381
527 382
528 383
529 384
530 385
531 386
531 387
531 388
532 388
533 389
533 390
534 390
535 390
536 391
537 391
538 391
539 391
540 391
541 392
542 391
543 391
544 391
545 391
546 390
547 390
548 389
549 389
550 388
551 388
552 387
553 386
554 386
554 385
555 384
556 383
557 382
557 381
558 380
559 379
559 378
560 377
560 376
561 375
562 375
563 374
563 373
564 372
565 371
566 370
566 369
567 368
568 367
568 366
569 365
569 364
570 363
570 362
571 361
571 360
572 359
572 358
573 357
574 356
574 355
575 354
576 353
577 352
578 351
579 350
579 349
580 348
581 347
582 346
583 345
584 344
585 343
586 343
587 342
588 342
589 341
590 341
591 341
592 340
593 340
594 340
595 339
596 339
597 338
598 337
599 336
600 336
601 335
602 334
602 333
603 332
604 331
604 330
605 329
605 328
606 327
607 328
607 327
608 326
608 325
609 324
610 323
610 322
611 321
612 320
613 320
612 319
613 318
614 317
615 316
616 315
616 314
617 313
617 312
618 311
619 310
620 309
620 308
620 307
621 306
622 305
622 304
623 303
624 303
624 302
625 301
626 301
627 300
628 300
629 299
630 299
631 298
632 298
633 297
634 297
635 297
636 297
637 296
638 296
639 296
640 296
641 296
642 296
643 296
644 296
645 296
646 296
647 296
648 296
649 296
650 296
651 296
652 296
653 297
654 297
655 297
656 297
657 297
658 297
659 297
660 297
661 296
662 296
663 296
664 295
665 296
666 295
667 294
668 293
669 292
670 291
671 290
672 289
673 288
674 288
675 287
676 287
677 286
678 286
679 286
680 285
681 285
682 285
683 284
684 284
685 284
686 284
687 284
688 283
689 283
690 283
691 283
692 283
693 283
694 283
695 283
696 283
697 283
698 283
699 283
700 283
701 283
702 283
703 283
704 283
705 283
706 283
707 283
708 283
709 283
710 283
711 283
712 283
713 283
714 283
715 283
716 283
717 283
718 283
719 283
720 283
721 284
722 284
723 284
724 284
725 284
726 284
727 284
728 284
729 284
730 284
731 284
732 284
733 284
734 285
735 285
736 285
737 285
738 285
739 285
740 285
741 285
742 285
743 285
744 285
745 285
746 286
747 286
748 286
749 286
750 286
751 286
752 286
753 286
754 286
755 286
756 286
757 286
758 286
759 286
760 285
761 285
762 285
763 284
764 284
765 283
766 283
767 282
768 281
769 280
769 279
770 278
771 278
772 277
772 276
773 275
773 274
773 273
773 272
773 271
773 270
772 269
772 268
771 267
770 267
769 266
768 265
767 265
766 265
765 265
764 265
763 265
762 265
761 264
760 265
759 265
758 265
757 265
756 265
755 265
754 266
753 266
752 266
751 266
750 266
749 266
748 266
747 266
746 266
745 267
744 266
743 267
742 267
741 267
740 267
739 267
738 267
737 267
736 267
735 267
734 267
733 267
732 267
731 267
730 267
729 267
728 267
727 267
726 267
725 267
724 267
723 267
722 267
721 267
720 267
719 267
718 267
717 267
716 267
715 267
714 267
713 267
712 267
711 267
710 267
709 267
708 266
707 266
706 266
705 266
704 266
703 266
702 266
701 266
700 266
699 266
698 266
697 266
696 266
695 266
694 266
693 266
692 266
691 266
690 266
689 266
688 266
687 266
686 265
685 265
684 265
683 265
682 265
681 265
680 265
679 265
678 265
677 265
676 265
675 265
674 265
673 265
672 264
671 264
670 264
669 264
668 264
667 265
666 264
665 264
664 264
663 264
662 263
661 263
660 263
659 263
658 263
657 262
656 262
655 261
654 261
653 260
652 260
651 259
650 258
649 257
648 256
647 255
646 255
645 254
645 253
644 252
643 251
642 250
642 249
641 249
640 248
640 247
639 246
639 245
638 244
637 243
636 242
636 241
635 240
635 239
634 238
633 237
632 236
631 235
630 235
629 234
628 233
627 232
626 231
625 231
624 230
623 229
622 228
621 227
620 226
620 225
619 225
618 224
617 223
616 222
615 221
614 221
613 221
612 221
611 221
610 221
609 221
608 221
607 221
606 221
605 221
604 221
603 221
602 221
601 221
600 220
599 220
598 219
597 219
596 218
595 218
594 217
593 216
593 215
593 214
592 213
592 212
591 211
591 210
591 209
590 208
590 207
590 206
589 205
589 204
589 203
588 202
588 201
587 200
587 199
587 198
586 197
586 196
585 195
584 194
583 193
582 193
581 192
581 191
580 190
579 189
579 188
578 187
577 186
576 186
575 185
574 185
573 184
572 183
571 183
570 182
569 182
568 181
567 181
566 181
565 180
564 179
563 178
562 177
561 177
560 176
560 175
560 174
560 173
559 172
559 171
559 170
558 169
558 168
557 167
557 166
556 165
556 164
555 163
554 162
553 161
552 160
551 159
551 158
550 157
549 157
548 156
547 155
546 154
545 153
544 152
543 151
543 150
542 150
541 149
540 148
539 147
538 146
537 145
536 144
535 143
535 142
534 141
533 140
532 139
531 138
530 138
529 137
528 136
527 135
526 134
525 134
524 133
523 132
522 131
521 130
520 129
519 128
518 127
517 126
516 125
515 124
514 124
513 123
512 122
511 121
510 121
509 120
508 119
507 119
506 118
505 118
504 117
503 117
502 117
501 117
500 117
499 117
498 117
497 117
496 117
495 117
494 117
493 116
492 116
491 116
490 115
489 115
488 114
487 113
486 112
485 111
484 110
483 109
482 108
481 107
480 106
479 105
478 104
477 103
476 103
475 102
474 101
473 101
472 100
471 99
470 98
469 97
468 96
467 96
466 97
465 98
464 99
463 100
462 101
462 102
461 103
460 104
460 105
459 106
458 107
458 108
457 109
456 110
455 111
454 111
453 112
452 112
451 112
450 113
449 113
448 113
447 113
446 113
445 113
444 114
443 113
442 113
441 113
440 113
439 113
438 113
437 113
436 113
435 113
434 113
433 113
432 112
431 112
430 112
429 112
428 111
427 111
426 110
425 110
424 109
423 109
422 108
421 108
420 107
419 107
418 106
417 105
416 104
415 103
414 103
413 102
412 102
411 102
410 101
409 100
408 99
407 98
406 97
405 96
404 95
403 94
402 93
401 92
400 91
399 90
398 89
397 88
396 87
396 86
395 86
394 85
394 84
393 84
392 83
391 83
390 82
389 82
388 81
387 81
386 80
385 79
384 78
383 77
382 77
381 76
380 75
379 75
378 74
377 74
376 73
376 72
375 72
374 71
373 71
372 71
371 70
370 70
369 70
368 69
367 68
366 68
365 67
364 66
363 66
362 65
361 65
360 65
359 64
358 63
357 63
356 62
355 62
354 61
353 60
352 60
351 59
350 59
349 58
348 57
347 57
346 56
345 56
344 55
343 55
342 55
341 54
340 54
339 54
338 54
337 53
336 53
335 53
334 52
333 52
332 51
331 51
330 51
329 50
328 50
327 50
326 50
325 49
324 49
323 49
322 49
321 48
320 48
319 48
318 49
317 49
316 48
315 48
314 48
313 48
312 47
311 47
310 47
309 47
308 47
307 47
306 47
305 47
304 47
303 47
