121 1
121 2
121 3
121 4
121 5
122 6
123 7
124 8
124 9
125 10
125 11
125 12
125 13
125 14
125 15
126 16
127 17
127 18
128 19
128 20
127 21
127 22
126 23
126 24
125 25
125 26
125 27
125 28
125 29
124 30
124 31
124 32
123 33
122 34
121 35
121 36
121 37
121 38
121 39
121 40
121 41
121 42
120 43
120 44
120 45
120 46
120 47
119 48
119 49
118 50
118 51
118 52
118 53
118 54
118 55
118 56
117 57
117 58
117 59
117 60
117 61
117 62
117 63
117 64
117 65
116 66
116 67
116 68
116 69
116 70
116 71
116 72
116 73
117 74
117 75
117 76
117 77
117 78
117 79
117 80
117 81
117 82
117 83
117 84
117 85
117 86
117 87
117 88
117 89
117 90
117 91
117 92
118 93
117 94
117 95
117 96
117 97
117 98
117 99
117 100
117 101
118 102
118 103
118 104
118 105
118 106
119 107
119 108
119 109
119 110
119 111
119 112
119 113
120 114
120 115
120 116
120 117
121 118
121 119
121 120
122 121
122 122
122 123
123 124
123 125
123 126
123 127
123 128
123 129
124 130
124 131
124 132
124 133
124 134
125 135
125 136
126 137
126 138
126 139
127 140
127 141
127 142
127 143
128 144
128 145
128 146
128 147
129 148
129 149
129 150
129 151
129 152
130 153
130 154
131 155
132 156
132 157
133 158
133 159
134 160
134 161
135 162
135 163
136 164
137 165
137 166
138 167
138 168
139 169
139 170
140 171
140 172
141 173
141 174
141 175
142 176
143 176
144 177
144 178
144 179
145 180
145 181
145 182
145 183
146 184
147 185
148 186
149 187
150 188
150 189
151 190
151 191
152 192
153 192
154 193
155 194
156 195
156 196
157 197
158 197
159 198
160 199
161 200
161 201
161 202
162 203
163 204
164 205
165 206
165 207
166 208
167 209
168 210
168 211
169 212
170 213
171 214
172 214
173 215
174 216
175 216
176 217
177 218
178 219
179 220
180 221
181 222
182 223
183 224
184 224
185 224
186 225
187 226
188 227
189 228
190 229
191 229
192 230
193 231
194 231
195 231
196 232
197 232
198 232
199 233
200 234
201 234
202 235
203 235
204 236
205 236
206 237
207 237
208 238
209 239
209 240
210 241
211 241
212 242
213 243
214 244
215 244
216 245
217 246
218 247
219 248
219 249
220 250
220 251
219 252
218 252
217 252
216 253
215 253
214 254
213 254
212 254
211 255
210 255
209 256
208 257
207 257
206 257
205 257
204 258
203 258
202 258
201 258
200 258
199 258
198 258
197 258
196 258
195 258
194 258
193 259
192 260
191 260
190 259
189 259
188 259
187 259
186 260
185 260
184 261
183 261
182 261
181 261
180 261
179 260
178 260
177 260
176 259
175 259
174 258
173 258
172 257
171 257
170 257
169 257
168 257
167 257
166 257
165 256
164 256
163 256
162 256
161 256
160 255
159 254
158 254
157 254
156 254
155 254
154 254
153 254
152 254
151 254
150 254
149 254
148 254
147 254
146 254
145 253
144 253
143 253
142 253
141 253
140 253
139 253
138 254
137 254
136 254
135 254
134 254
133 255
132 255
131 255
130 255
129 256
128 256
127 257
126 257
125 257
124 257
123 257
122 257
121 257
120 258
119 258
118 259
117 259
116 259
115 260
114 260
113 260
112 261
111 261
110 262
109 262
108 262
107 263
106 264
105 265
104 265
103 266
102 266
101 267
100 267
99 268
98 268
97 268
96 269
95 270
94 271
93 271
92 272
91 272
90 273
89 273
88 273
87 274
87 275
86 276
85 277
84 278
83 278
82 279
81 280
80 281
79 282
78 283
77 284
76 284
76 285
75 286
74 287
73 288
72 289
71 289
70 290
70 291
69 292
68 293
67 294
66 295
65 295
65 296
64 297
63 297
62 297
61 297
60 298
59 297
58 297
57 297
56 298
56 299
56 300
57 301
57 302
57 303
56 304
55 305
54 305
54 306
53 307
53 308
52 309
51 310
50 311
49 312
49 313
48 314
48 315
47 316
46 317
45 317
45 318
45 319
45 320
44 321
44 322
44 323
44 324
43 325
43 326
42 327
42 328
42 329
41 330
40 331
40 332
39 333
39 334
38 335
38 336
37 337
36 338
36 339
35 340
35 341
35 342
34 343
34 344
34 345
33 346
33 347
33 348
33 349
33 350
33 351
32 352
32 353
32 354
32 355
32 356
32 357
31 358
31 359
30 360
30 361
29 362
29 363
29 364
29 365
29 366
29 367
28 368
28 369
28 370
28 371
28 372
28 373
28 374
28 375
28 376
28 377
28 378
28 379
28 380
28 381
28 382
27 383
27 384
27 385
26 386
26 387
26 388
25 389
25 390
25 391
25 392
24 393
24 394
23 395
23 396
22 397
22 398
22 399
21 400
21 401
20 402
20 403
20 404
21 405
21 406
21 407
21 408
21 409
21 410
22 411
22 412
22 413
22 414
22 415
22 416
22 417
22 418
22 419
22 420
23 421
23 422
24 423
24 424
25 425
25 426
26 427
26 428
27 429
28 430
28 431
28 432
29 433
29 434
29 435
28 436
27 437
27 438
26 439
26 440
26 441
25 442
25 443
25 444
25 445
25 446
26 447
27 448
28 448
29 448
30 448
31 448
32 448
33 449
34 449
35 449
36 449
37 448
38 448
39 447
39 446
39 445
39 444
39 443
39 442
40 441
41 440
42 440
43 441
43 442
44 443
44 444
45 445
45 446
46 447
47 448
48 448
49 449
50 450
51 450
52 451
53 451
54 452
55 453
56 454
57 455
58 456
59 457
60 458
61 458
62 459
63 460
64 460
65 461
65 462
65 463
66 464
67 464
68 464
69 465
70 466
70 467
71 468
72 469
73 469
74 470
75 471
76 472
77 473
77 474
78 475
79 475
80 475
81 476
82 476
83 476
84 477
85 477
86 478
87 479
88 479
89 480
90 480
91 480
92 480
93 481
94 481
95 481
96 482
97 483
97 484
98 484
99 484
100 485
101 485
102 485
103 485
104 486
105 486
106 486
107 487
108 487
109 488
110 488
111 488
112 488
113 488
114 488
115 488
116 488
117 488
118 488
119 487
120 487
121 487
122 487
123 487
124 487
125 487
126 487
127 487
128 487
129 486
130 486
131 486
132 486
133 485
134 485
135 485
136 485
137 484
138 484
139 484
140 483
141 483
142 483
143 483
144 482
145 481
146 481
147 481
148 481
149 481
150 480
151 480
152 480
153 480
154 480
155 480
156 480
157 479
158 479
159 479
159 478
160 477
161 477
162 477
163 476
164 476
165 476
166 476
167 475
168 475
169 475
170 475
171 475
172 475
173 476
174 476
175 475
176 475
177 476
178 476
179 475
180 475
181 475
182 475
183 475
184 475
185 474
186 474
187 474
188 474
189 474
190 474
191 474
192 473
192 472
193 471
194 470
195 470
196 470
197 469
198 468
199 468
200 468
201 467
202 466
203 465
204 464
205 464
206 463
207 463
208 462
209 461
210 460
211 460
212 459
213 458
214 457
215 456
216 455
217 455
218 454
219 453
220 452
221 451
222 450
223 449
224 448
225 448
226 447
226 446
227 445
227 444
227 443
228 442
228 441
229 440
229 439
230 438
231 437
231 436
231 435
232 434
233 433
234 432
235 431
234 430
234 429
234 428
234 427
233 426
233 425
234 424
235 423
235 422
236 421
237 421
238 420
239 419
240 418
240 417
241 416
242 416
242 415
243 414
243 413
244 412
245 411
246 410
247 411
248 412
248 413
248 414
249 415
249 416
248 417
248 418
248 419
248 420
249 421
249 422
249 423
249 424
250 425
250 426
250 427
251 428
251 429
251 430
251 431
252 432
252 433
252 434
252 435
252 436
252 437
252 438
252 439
252 440
252 441
252 442
252 443
252 444
253 445
252 446
253 447
252 448
253 449
252 450
252 451
252 452
253 453
253 454
253 455
253 456
253 457
254 458
254 459
254 460
255 461
255 462
255 463
255 464
256 464
257 465
257 466
257 467
257 468
257 469
257 470
257 471
258 472
258 473
258 474
258 475
258 476
258 477
259 478
259 479
259 480
260 481
260 482
261 483
261 484
261 485
262 486
262 487
263 488
263 489
263 490
263 491
263 492
263 493
264 494
264 495
265 496
266 497
267 498
267 499
267 500
268 501
268 502
268 503
269 504
269 505
270 506
271 507
272 508
272 509
273 510
273 511
273 512
274 512
275 512
276 513
277 514
277 515
278 516
279 517
279 518
280 519
281 520
282 521
283 522
284 522
285 523
286 524
287 524
288 525
289 526
289 527
290 528
291 528
292 528
293 528
294 528
295 529
296 530
296 531
297 532
298 532
299 533
299 534
300 534
301 534
302 534
303 534
304 535
305 536
305 537
306 538
307 538
308 538
309 539
310 540
311 540
312 541
313 542
313 543
314 544
315 544
316 544
317 544
318 545
319 545
320 546
321 547
322 548
323 549
324 550
325 550
326 551
327 552
328 552
329 553
330 554
331 554
332 555
333 555
334 556
335 556
336 556
337 556
338 556
339 557
340 557
341 557
342 558
343 558
344 559
345 560
346 560
347 560
348 560
349 560
350 560
351 560
352 560
353 561
353 562
353 563
354 564
355 564
356 564
357 564
358 565
359 565
360 566
361 567
361 568
362 569
363 570
364 571
365 572
366 573
366 574
367 574
368 575
368 576
368 577
369 578
369 579
369 580
369 581
370 582
371 583
372 584
372 585
372 586
373 586
374 586
375 586
375 585
376 584
376 583
377 582
378 581
378 580
378 579
379 578
379 577
378 576
378 575
378 574
377 573
377 572
376 571
376 570
376 569
375 568
375 567
374 566
374 565
374 564
374 563
374 562
373 561
373 560
372 559
372 558
372 557
372 556
372 555
372 554
372 553
373 552
374 551
375 550
376 550
377 550
378 549
379 549
380 548
381 548
382 547
383 546
383 545
384 544
385 544
386 543
387 543
388 542
389 541
390 540
391 539
392 538
393 537
393 536
394 535
395 534
396 533
397 533
398 533
399 532
400 532
400 531
400 530
401 529
402 528
403 528
404 528
405 527
405 526
406 525
407 524
408 524
409 524
410 524
411 523
412 522
413 521
413 520
414 519
415 519
415 518
416 517
417 516
417 515
417 514
418 513
419 512
420 512
420 511
420 510
421 509
421 508
422 507
423 506
424 505
424 504
425 503
426 502
426 501
427 500
427 499
427 498
427 497
428 496
428 495
429 494
430 493
430 492
430 491
431 490
431 489
432 488
432 487
432 486
432 485
432 484
432 483
432 482
432 481
433 480
434 479
434 478
434 477
435 476
435 475
435 474
436 473
436 472
436 471
437 470
437 469
437 468
437 467
438 466
438 465
439 464
440 464
440 463
441 462
441 461
442 460
441 459
442 458
442 457
442 456
442 455
443 454
443 453
443 452
443 451
444 450
444 449
445 448
445 447
445 446
445 445
445 444
446 443
446 442
446 441
446 440
446 439
447 438
447 437
447 436
447 435
447 434
447 433
448 432
448 431
448 430
448 429
448 428
448 427
448 426
448 425
448 424
448 423
448 422
448 421
448 420
448 419
448 418
448 417
449 416
449 415
449 414
449 413
449 412
449 411
449 410
449 409
449 408
449 407
449 406
449 405
449 404
448 403
449 402
449 401
448 400
448 399
448 398
448 397
448 396
448 395
448 394
448 393
448 392
448 391
448 390
448 389
448 388
448 387
448 386
448 385
449 384
449 383
449 382
449 381
449 380
449 379
448 378
448 377
448 376
448 375
448 374
448 373
448 372
448 371
448 370
448 369
448 368
448 367
448 366
448 365
448 364
448 363
448 362
448 361
448 360
448 359
448 358
448 357
447 356
448 355
448 354
449 353
450 354
451 355
451 356
451 357
451 358
451 359
452 360
452 361
453 362
453 363
454 364
454 365
454 366
454 367
455 367
456 368
457 369
458 370
459 371
459 372
459 373
459 374
460 375
460 376
460 377
460 378
460 379
461 380
461 381
461 382
462 383
462 384
463 384
464 385
464 386
464 387
464 388
465 389
465 390
465 391
465 392
465 393
466 394
467 395
468 396
468 397
468 398
469 399
469 400
470 401
471 402
471 403
472 403
473 404
474 405
475 406
476 407
477 408
478 409
479 409
480 410
480 411
481 412
481 413
481 414
482 415
483 415
484 416
485 416
486 417
486 418
487 419
488 420
488 421
489 421
490 422
491 423
492 423
493 424
494 424
495 425
496 426
497 426
498 427
499 427
500 427
501 428
502 428
503 428
504 429
505 430
506 430
507 431
508 431
509 431
510 431
511 432
512 432
513 432
514 433
515 433
516 433
517 434
518 434
519 435
520 435
521 435
522 436
523 436
524 437
525 437
526 437
527 438
528 438
529 438
530 439
531 439
532 440
533 440
534 440
535 441
536 442
537 442
538 443
539 443
540 443
541 444
542 444
543 444
544 445
545 445
546 446
547 447
548 447
549 448
550 448
551 448
552 449
553 449
554 450
555 451
556 451
557 452
558 452
559 452
560 452
561 453
562 453
563 453
564 453
565 454
566 454
567 454
568 454
569 455
570 456
571 456
572 457
573 457
574 457
575 457
576 458
577 459
577 460
578 461
579 462
580 463
580 464
581 464
582 464
583 464
584 464
585 464
585 463
585 462
585 461
585 460
585 459
585 458
585 457
585 456
585 455
585 454
585 453
585 452
585 451
586 450
586 449
587 448
588 448
589 448
590 448
591 448
591 447
591 446
591 445
591 444
591 443
592 442
592 441
593 440
593 439
594 438
594 437
595 436
595 435
596 434
596 433
596 432
597 431
598 430
598 429
599 428
600 427
601 426
601 425
602 424
603 423
603 422
603 421
604 420
604 419
604 418
604 417
604 416
604 415
604 414
604 413
605 412
605 411
606 410
606 409
607 408
607 407
607 406
608 405
608 404
608 403
608 402
608 401
609 400
610 400
611 399
611 398
611 397
611 396
611 395
612 394
612 393
612 392
612 391
612 390
612 389
613 388
613 387
613 386
613 385
613 384
613 383
613 382
613 381
614 380
614 379
615 378
615 377
615 376
616 375
617 374
618 373
618 372
618 371
619 370
619 369
618 368
619 367
619 366
619 365
619 364
619 363
619 362
619 361
619 360
619 359
619 358
619 357
619 356
619 355
619 354
619 353
619 352
618 351
619 350
618 349
618 348
617 347
616 346
615 345
615 344
614 343
614 342
614 341
614 340
613 339
613 338
612 337
611 337
610 337
609 336
608 335
608 334
608 333
608 332
608 331
608 330
608 329
608 328
607 327
606 326
605 325
604 324
604 323
604 322
604 321
603 320
602 319
602 318
602 317
602 316
602 315
601 314
601 313
601 312
601 311
600 310
600 309
600 308
600 307
600 306
600 305
599 305
598 304
598 303
598 302
598 301
597 300
597 299
596 298
596 297
595 297
594 296
593 295
592 294
592 293
592 292
592 291
592 290
592 289
591 289
590 288
589 287
589 286
589 285
588 284
588 283
587 282
586 281
586 280
585 279
584 278
583 277
582 276
581 275
581 274
580 273
579 273
578 273
577 272
576 271
576 270
576 269
575 268
575 267
574 267
573 266
572 266
571 265
571 264
570 264
569 263
569 262
568 262
567 261
567 260
566 259
566 258
566 257
566 256
565 255
565 254
564 253
564 252
564 251
564 250
563 249
562 248
562 247
561 246
561 245
560 244
560 243
560 242
559 241
558 241
557 240
556 239
557 238
556 237
557 236
556 235
556 234
555 233
555 232
554 231
554 230
553 230
552 229
552 228
552 227
551 226
551 225
550 225
549 224
549 223
549 222
549 221
548 220
547 219
547 218
546 217
545 216
544 215
544 214
543 213
542 212
541 212
540 211
540 210
539 209
538 208
537 208
536 207
536 206
535 206
534 205
533 205
532 204
531 204
530 204
529 203
528 203
527 202
526 202
525 202
524 202
523 201
522 200
522 199
522 198
523 197
524 197
525 196
526 196
527 196
528 195
529 194
530 193
531 193
532 193
533 192
534 192
535 192
536 191
537 191
538 190
539 189
540 189
541 188
542 188
543 187
544 187
544 186
545 185
546 185
547 185
548 185
549 185
550 184
551 184
552 184
553 183
554 182
555 181
556 181
557 180
558 180
559 179
560 179
560 178
561 177
562 176
563 176
564 176
565 176
566 176
567 176
568 175
569 175
570 174
571 173
572 173
573 172
574 172
575 172
576 171
577 170
578 170
579 170
580 169
581 169
582 168
583 167
584 167
585 166
586 166
587 165
588 165
589 164
590 164
591 163
592 162
593 161
594 160
595 160
596 160
597 160
598 160
599 159
600 159
601 158
602 158
603 157
604 157
605 156
606 156
607 156
608 156
608 155
609 154
610 154
611 153
612 153
613 152
614 152
615 151
616 150
617 150
618 149
619 149
620 148
621 148
622 147
623 147
624 146
625 145
626 145
627 145
628 144
629 144
630 144
631 144
632 144
633 143
634 143
635 142
636 142
637 142
638 142
639 142
640 141
641 140
642 140
643 139
644 139
645 139
646 139
647 138
648 138
649 137
650 136
651 135
652 134
653 134
654 134
655 134
656 133
657 133
658 132
659 132
660 132
661 131
662 130
663 129
664 128
665 128
666 128
667 127
668 126
669 126
670 126
671 125
672 125
673 125
674 124
675 124
676 124
677 123
678 122
679 122
680 121
681 120
682 120
683 119
684 119
685 118
686 118
687 118
688 117
689 117
690 116
691 116
692 116
693 115
694 115
695 115
696 114
697 113
698 112
699 112
700 112
701 111
702 110
703 109
704 108
705 107
706 107
707 106
708 106
709 106
710 106
711 105
712 104
713 104
714 104
715 104
716 103
717 103
718 102
719 102
720 102
721 102
722 102
723 102
724 102
725 102
726 101
727 101
728 100
729 100
730 99
731 99
732 98
733 98
734 98
735 97
736 97
737 96
738 96
739 96
740 96
741 95
741 94
742 93
742 92
743 91
744 90
745 89
745 88
745 87
745 86
745 85
745 84
745 83
745 82
744 81
743 80
742 79
742 78
742 77
742 76
742 75
742 74
741 73
741 72
740 71
740 70
739 69
739 68
739 67
739 66
738 66
737 66
736 65
735 66
734 66
733 65
732 65
731 65
730 65
729 65
728 66
727 67
727 68
726 69
725 70
724 70
723 71
722 71
721 72
720 73
719 74
718 74
717 75
716 75
715 76
714 77
713 77
713 78
712 79
712 80
711 81
710 81
709 82
708 83
707 84
706 84
705 85
705 86
705 87
704 88
703 89
702 89
701 89
700 90
699 90
698 90
697 91
696 91
695 92
694 92
693 93
692 93
691 93
690 94
689 95
689 96
689 97
688 98
688 99
687 100
686 100
685 100
684 100
683 100
682 101
681 101
680 102
679 102
678 103
677 104
676 104
675 105
674 105
673 106
672 107
671 107
670 107
669 108
668 108
667 109
666 109
665 109
664 110
664 111
663 112
662 113
661 113
660 114
659 114
658 115
657 115
656 116
655 116
654 116
653 117
652 117
651 117
650 118
649 118
648 119
647 119
646 120
645 120
644 120
643 121
642 121
641 121
640 122
639 123
638 123
637 123
636 123
635 123
635 124
634 125
633 125
632 126
632 127
631 128
630 128
629 129
628 129
627 129
626 129
625 129
624 130
623 131
622 131
621 132
620 132
619 133
618 133
617 134
616 134
615 135
614 135
613 135
612 136
611 136
610 137
609 137
609 138
608 139
607 139
606 139
605 139
604 140
603 140
602 141
601 141
600 142
600 143
599 144
598 144
597 145
596 145
595 145
594 145
593 145
592 146
591 147
590 147
589 148
588 148
587 149
586 150
585 150
584 151
583 151
582 151
581 152
580 152
579 152
578 153
577 153
577 154
576 155
575 155
574 156
573 156
572 156
571 156
570 157
569 158
568 159
567 160
566 161
565 162
564 163
563 164
562 164
561 164
560 164
559 165
558 165
557 165
556 166
555 166
554 167
553 167
552 168
551 169
550 169
549 170
548 170
547 171
546 171
545 171
544 172
543 172
542 173
541 173
540 173
539 174
538 175
537 175
536 176
535 176
534 177
533 177
532 177
531 178
530 179
529 179
528 179
527 180
526 180
525 180
524 181
523 181
522 182
521 182
520 182
519 182
518 182
517 182
516 182
515 182
514 182
513 181
513 180
513 179
514 178
515 177
516 176
517 176
518 176
519 175
519 174
520 173
520 172
521 171
522 170
522 169
522 168
522 167
523 166
523 165
524 164
524 163
523 162
523 161
524 160
524 159
524 158
524 157
524 156
524 155
524 154
523 153
523 152
522 151
522 150
522 149
523 148
524 148
524 147
524 146
524 145
525 144
525 143
525 142
525 141
525 140
525 139
524 138
524 137
524 136
524 135
524 134
523 133
523 132
523 131
523 130
524 129
524 128
524 127
525 126
525 125
525 124
525 123
525 122
525 121
525 120
525 119
525 118
525 117
525 116
525 115
525 114
525 113
525 112
524 111
524 110
524 109
524 108
524 107
524 106
524 105
524 104
524 103
523 102
524 101
524 100
524 99
524 98
523 97
523 96
522 95
522 94
522 93
522 92
521 91
520 90
519 89
519 88
518 87
518 86
518 85
517 84
517 83
517 82
516 81
515 80
515 79
515 78
514 77
514 76
514 75
514 74
513 73
513 72
512 71
512 70
512 69
512 68
512 67
511 66
511 65
511 64
511 63
511 62
511 61
510 60
511 59
511 58
510 58
509 57
508 56
508 55
507 54
506 53
506 52
505 51
505 50
504 49
503 49
502 48
502 47
501 46
501 45
500 44
499 43
498 43
497 42
496 41
496 40
495 39
494 38
493 38
492 37
491 36
491 35
491 34
490 33
489 33
488 32
487 31
487 30
486 29
486 28
485 27
484 26
483 25
482 24
481 23
480 22
480 21
479 21
478 20
477 19
476 19
475 18
474 17
473 17
472 16
472 15
471 14
470 13
469 12
468 11
467 11
466 10
465 9
464 8
464 7
464 6
463 5
462 5
461 5
460 5
459 5
458 4
457 4
456 4
455 4
454 4
453 4
452 3
451 3
450 3
449 3
448 2
448 1
447 1
446 1
445 1
444 1
443 1
442 1
441 1
440 1
439 1
438 1
437 1
436 1
435 1
434 1
433 1
432 1
432 2
431 3
430 2
430 1
429 2
428 2
427 3
426 3
425 3
424 4
423 5
422 6
421 6
420 7
419 8
418 9
417 10
417 11
417 12
416 13
415 14
414 15
413 16
412 17
411 18
410 18
410 19
409 20
409 21
408 22
407 23
406 24
405 24
404 25
403 25
402 26
401 27
400 28
400 29
399 30
398 31
397 32
396 33
395 33
395 34
394 35
394 36
393 37
392 38
392 39
391 40
391 41
390 42
389 43
389 44
388 45
388 46
387 47
387 48
387 49
387 50
387 51
387 52
386 53
386 54
386 55
386 56
386 57
386 58
385 59
385 60
385 61
385 62
385 63
385 64
384 65
384 66
384 67
383 68
383 69
382 70
382 71
382 72
381 73
381 74
381 75
381 76
381 77
380 78
380 79
380 80
379 81
379 82
379 83
379 84
379 85
378 86
378 87
378 88
378 89
377 90
377 91
377 92
377 93
377 94
377 95
376 96
376 97
375 98
375 99
375 100
375 101
374 102
374 103
374 104
374 105
374 106
374 107
374 108
374 109
374 110
374 111
374 112
374 113
375 114
375 115
375 116
375 117
375 118
375 119
376 120
376 121
376 122
377 123
377 124
377 125
377 126
378 127
378 128
378 129
379 130
379 131
379 132
379 133
380 134
380 135
380 136
381 137
381 138
381 139
382 140
382 141
383 142
383 143
384 144
384 145
385 146
385 147
385 148
385 149
385 150
386 151
386 152
387 153
388 154
388 155
388 156
389 157
389 158
389 159
390 160
391 160
392 161
393 162
393 163
393 164
394 165
394 166
395 167
395 168
396 169
397 170
398 170
399 170
400 171
401 172
401 173
401 174
402 175
403 176
404 177
405 177
406 178
407 179
407 180
408 180
409 181
410 182
410 183
411 183
412 184
413 184
414 185
415 185
416 186
417 187
418 187
419 188
420 189
421 190
422 191
422 192
423 192
424 192
425 193
426 193
427 193
428 194
428 195
429 195
430 196
431 196
432 197
433 197
434 198
435 198
436 198
437 198
438 198
439 198
440 198
441 198
442 199
443 199
444 199
445 199
446 200
447 200
448 200
449 201
450 201
451 202
452 202
453 202
454 202
455 202
456 202
457 202
458 202
459 202
460 202
461 202
462 202
463 202
464 202
465 201
466 201
467 201
468 201
469 200
470 200
471 200
472 200
473 200
474 200
475 199
476 199
477 199
478 200
479 200
480 201
479 202
478 203
477 203
476 203
475 204
474 204
473 204
472 204
471 205
470 205
469 206
468 207
467 207
466 208
465 208
464 209
463 209
462 209
461 210
460 210
459 211
458 211
457 212
456 212
455 213
454 214
453 214
452 215
451 215
450 215
449 216
448 216
447 216
446 216
445 216
444 216
443 216
442 217
441 217
440 218
439 219
438 219
437 220
436 220
435 221
434 221
433 221
432 221
431 221
430 221
429 222
428 222
427 223
426 224
425 224
424 225
423 225
422 226
421 226
420 227
419 227
418 227
417 228
416 228
415 228
414 229
413 229
412 230
411 230
410 230
409 231
408 231
407 231
406 232
405 232
404 233
403 233
402 233
401 233
400 234
399 235
398 235
397 235
396 235
395 236
394 236
393 236
392 237
391 237
390 237
389 238
388 238
387 239
386 239
385 240
384 240
383 240
382 240
381 239
382 238
382 237
383 236
384 235
385 234
386 233
387 233
388 232
389 232
390 231
390 230
390 229
391 228
391 227
390 226
391 225
392 224
392 223
392 222
392 221
392 220
392 219
392 218
392 217
392 216
392 215
392 214
392 213
392 212
392 211
392 210
392 209
392 208
392 207
392 206
392 205
392 204
392 203
392 202
392 201
392 200
391 199
391 198
391 197
391 196
391 195
391 194
391 193
390 192
390 191
390 190
390 189
390 188
389 187
389 186
389 185
388 184
387 183
386 182
385 181
384 180
384 179
384 178
384 177
383 176
382 175
382 174
381 173
380 172
380 171
379 170
379 169
378 168
378 167
377 166
377 165
377 164
376 163
376 162
375 161
374 160
374 159
374 158
373 157
373 156
372 155
372 154
372 153
371 152
371 151
370 150
370 149
369 148
369 147
369 146
368 145
367 144
366 143
366 142
365 141
364 140
364 139
363 138
362 137
362 136
361 135
361 134
360 133
360 132
359 131
359 130
358 129
358 128
357 127
356 126
356 125
355 124
355 123
354 122
353 121
353 120
353 119
352 118
352 117
352 116
352 115
352 114
352 113
351 113
350 113
349 112
348 111
348 110
347 109
346 108
346 107
345 106
344 105
343 104
342 103
341 102
340 101
339 100
338 99
338 98
337 97
336 96
335 95
334 94
333 93
332 92
331 91
330 90
329 89
328 88
328 87
327 86
326 85
325 84
324 83
324 82
323 82
322 81
321 81
320 80
320 79
320 78
319 77
318 77
317 76
316 75
315 74
314 73
314 72
313 71
312 71
311 70
310 69
309 68
308 67
307 66
306 65
305 65
304 64
304 63
303 62
302 61
301 61
300 60
299 59
298 58
297 57
296 57
295 56
294 55
293 55
292 55
291 54
290 54
289 53
288 52
287 51
286 51
285 50
284 50
283 49
282 48
281 47
280 46
279 45
278 44
277 44
276 43
275 43
274 42
273 41
272 40
271 39
270 38
269 37
268 36
267 35
266 34
265 33
264 33
263 32
262 32
261 31
261 30
260 29
259 29
258 28
257 28
256 27
255 27
254 26
253 25
252 24
251 23
250 23
249 22
248 22
247 21
246 21
245 20
244 19
243 19
242 18
241 17
240 17
239 17
238 16
237 16
236 15
235 15
234 14
233 14
232 13
231 12
230 12
229 12
228 11
227 11
226 10
225 10
224 9
223 8
222 8
221 8
220 7
219 7
218 7
217 6
216 5
215 5
214 5
213 5
212 4
211 4
210 4
209 4
208 3
207 3
206 3
205 2
204 2
203 2
202 2
201 1
200 1
199 1
198 1
197 1
196 1
195 1
194 1
193 1
192 1
191 1
190 1
189 1
188 1
187 1
186 1
185 1
184 1
183 1
182 1
181 1
180 1
179 1
178 1
177 1
176 1
175 1
174 1
173 2
172 2
171 2
170 2
169 2
168 2
167 2
166 2
165 2
164 2
163 1
162 2
161 2
160 3
159 3
158 3
157 4
156 4
155 5
154 5
153 5
152 6
151 6
150 6
149 7
148 7
147 7
146 8
145 8
144 9
143 9
142 9
141 9
140 9
139 9
138 9
137 9
136 9
135 8
134 8
133 8
132 7
131 6
130 5
129 4
129 3
129 2
129 1
128 1
127 1
126 1
125 1
124 1
123 1
122 1
121 1
