380 37
381 38
380 39
380 40
380 41
379 42
378 42
377 41
376 41
375 40
374 39
373 39
372 38
371 38
370 38
371 39
372 40
371 41
370 41
369 40
368 40
367 39
366 39
365 39
364 39
363 38
362 38
361 38
360 39
359 39
358 39
357 39
356 39
355 39
354 39
353 39
352 39
351 39
352 39
353 40
353 41
353 42
352 43
352 44
352 45
352 46
352 47
352 48
352 49
352 50
352 51
352 52
351 53
350 52
349 51
348 50
347 50
346 50
345 50
344 50
343 50
342 51
341 50
340 50
339 49
338 49
337 48
336 47
336 48
336 49
336 50
336 51
336 52
335 53
335 54
335 55
334 56
333 55
332 54
331 53
330 52
329 51
328 51
327 50
326 49
325 48
324 47
323 46
322 46
323 47
323 48
323 49
322 50
323 51
322 52
321 53
320 52
320 51
319 50
318 50
317 49
316 49
315 48
314 48
313 48
312 47
311 47
310 46
309 46
309 47
310 47
311 48
311 49
311 50
310 51
309 50
308 50
307 50
306 50
305 50
304 50
303 50
302 50
301 50
300 50
299 50
298 50
297 50
296 50
295 51
296 51
297 52
297 53
297 54
296 55
295 56
294 57
293 57
292 56
292 57
293 58
293 59
294 58
295 59
295 60
294 61
293 61
294 62
294 63
293 64
292 63
291 63
290 62
289 62
290 62
291 63
290 64
289 65
288 64
287 63
287 62
287 63
288 64
287 65
286 65
285 64
284 63
283 63
282 63
281 63
280 62
279 62
278 62
277 61
276 61
276 62
276 63
277 64
277 65
277 66
276 67
276 68
276 69
276 70
277 71
276 72
275 72
274 72
273 71
272 71
271 70
270 70
269 70
268 69
267 69
266 68
265 68
264 67
263 66
263 67
264 68
264 69
264 70
264 71
264 72
263 73
262 73
261 72
260 71
259 71
258 71
257 70
256 70
255 70
254 70
253 69
252 69
253 70
254 71
254 72
254 73
253 74
252 73
251 72
250 71
249 71
250 72
250 73
249 74
248 74
247 73
247 72
247 71
246 71
245 72
244 72
243 72
242 72
241 73
240 73
239 73
238 73
237 74
236 74
235 74
235 75
236 75
237 74
238 74
239 74
240 75
239 76
238 76
238 77
239 78
238 79
237 80
238 81
237 82
236 82
235 81
234 81
235 82
236 83
237 84
237 85
237 86
238 87
239 88
238 89
237 89
236 88
235 88
234 88
233 88
232 87
231 86
231 87
231 88
231 89
231 90
230 91
229 91
228 90
227 91
226 90
225 90
224 90
223 89
222 89
221 89
220 89
219 89
218 89
217 89
218 89
219 90
219 91
219 92
219 93
219 94
219 95
219 96
219 97
218 98
217 98
216 97
215 97
214 97
213 97
212 97
211 97
210 97
209 97
208 97
207 96
206 96
206 97
207 97
208 98
208 99
207 100
206 100
205 100
204 99
203 99
202 98
201 98
200 98
199 98
200 99
201 98
202 98
203 99
204 100
203 101
202 101
201 102
200 102
199 101
198 101
197 102
196 102
195 103
194 103
193 103
192 103
192 104
193 104
194 105
195 106
196 107
196 108
195 109
194 109
193 110
192 110
191 110
192 111
193 112
193 113
194 114
194 115
195 116
195 117
194 118
193 118
192 118
191 118
190 118
189 118
188 118
187 117
186 117
185 117
186 118
187 119
187 120
187 121
186 122
185 122
184 121
183 121
182 121
181 121
180 121
179 121
178 122
177 122
176 122
175 122
174 122
173 122
174 123
175 124
176 125
176 126
177 127
177 128
177 129
177 130
176 131
175 130
174 130
173 130
172 130
171 130
170 130
169 130
168 130
167 130
166 131
165 130
164 130
165 131
166 132
167 133
168 134
167 135
166 135
165 134
164 134
163 134
162 134
161 135
160 135
159 136
158 136
157 137
156 137
155 138
154 138
153 138
152 138
151 138
152 138
153 139
154 139
155 140
155 141
156 142
157 143
157 144
157 145
156 146
155 146
154 147
153 147
153 148
154 148
155 149
156 150
157 151
157 152
158 153
158 154
159 155
158 156
157 156
156 156
155 156
154 157
153 157
153 158
153 159
152 160
151 160
150 160
149 160
148 161
147 161
146 161
145 161
146 161
147 161
148 162
148 163
149 164
149 165
150 166
150 167
151 168
151 169
150 170
149 170
148 169
147 169
146 168
145 168
144 168
143 168
144 169
144 170
144 171
143 172
142 172
141 172
140 171
139 171
138 171
137 171
136 171
135 171
136 172
136 173
135 174
134 174
133 173
132 173
131 172
130 172
129 172
128 171
127 170
126 170
127 171
127 172
128 173
129 174
129 175
129 176
130 177
129 178
129 179
128 180
127 179
127 178
126 177
126 178
127 179
127 180
128 180
129 181
128 182
127 182
127 183
128 184
128 185
127 186
126 185
125 185
124 185
123 184
122 185
121 184
120 184
119 184
118 184
117 183
116 183
115 182
115 183
116 184
117 185
117 186
117 187
116 188
115 188
114 187
113 187
112 187
111 187
110 187
109 187
108 187
107 187
106 186
105 186
104 186
103 185
102 185
103 186
104 187
104 188
105 188
106 189
106 190
107 191
108 192
107 193
106 194
105 194
105 195
106 195
107 196
107 197
107 198
108 199
109 200
108 201
107 201
106 201
105 202
104 201
103 201
102 201
101 202
100 201
99 201
98 201
98 202
99 203
99 204
99 205
98 206
97 205
96 205
95 205
94 205
93 205
92 205
91 205
90 205
89 205
88 205
87 205
86 205
87 206
88 207
89 208
89 209
89 210
89 211
89 212
90 213
90 214
89 215
88 214
87 214
86 214
85 213
84 213
83 212
82 212
81 211
81 212
81 213
80 214
79 214
78 214
77 213
76 213
75 214
74 214
73 213
72 213
71 213
70 213
69 213
68 213
67 213
66 213
65 213
64 212
64 213
65 214
66 215
66 216
66 217
67 218
67 219
66 220
65 220
64 219
63 219
62 219
61 219
62 220
61 221
60 221
59 221
58 222
57 222
56 222
55 222
54 223
53 223
52 223
51 224
50 224
51 225
52 226
53 226
54 227
55 228
56 229
57 230
58 230
59 231
60 232
59 233
58 234
57 234
57 235
58 235
59 236
60 236
61 237
62 237
63 237
64 238
65 238
66 238
67 239
68 239
69 239
70 239
71 239
72 239
73 240
72 241
72 242
71 243
70 244
69 244
69 245
70 245
71 245
72 245
73 245
74 245
75 246
76 246
77 246
78 246
79 246
80 246
81 246
82 247
83 248
82 249
83 249
84 249
85 249
86 249
87 249
88 249
89 249
90 250
90 251
89 252
90 253
89 254
89 255
88 256
87 257
86 258
86 259
87 259
88 259
89 259
90 260
91 260
92 261
93 261
94 261
95 261
96 261
97 262
98 262
99 262
100 262
101 263
101 264
100 265
101 265
102 265
103 265
104 265
105 265
106 265
107 266
108 266
109 266
110 267
110 268
109 269
109 270
109 271
108 272
108 273
108 274
107 275
106 276
105 277
104 277
104 278
105 278
106 278
107 278
108 279
109 279
110 279
111 279
112 280
113 281
114 281
115 281
116 282
117 282
118 283
119 283
120 284
120 285
120 286
119 287
118 287
118 288
119 287
120 287
121 287
122 287
123 287
124 287
125 288
126 288
127 288
128 289
129 290
129 291
129 292
129 293
128 294
128 295
127 296
126 296
127 296
128 296
129 297
130 298
131 299
131 300
130 301
130 302
129 303
128 304
127 305
128 305
129 304
130 304
131 305
132 305
133 304
134 305
135 304
136 304
137 304
138 304
139 305
138 306
137 307
138 307
139 306
140 305
141 304
142 305
142 306
143 307
144 308
144 309
144 310
145 310
146 310
147 309
148 310
149 310
150 310
151 310
152 310
153 310
154 310
155 310
156 311
155 312
155 313
155 314
155 315
154 316
153 316
154 316
155 317
156 318
157 319
156 320
157 321
158 322
158 323
158 324
158 325
159 325
160 325
161 325
162 325
163 325
164 326
165 326
166 326
167 326
168 326
169 327
170 328
169 329
170 329
171 329
172 328
173 328
174 328
175 328
176 327
177 327
178 328
179 329
179 330
180 331
179 332
179 333
179 334
178 335
179 335
180 334
181 334
182 333
183 333
184 334
185 335
186 336
187 336
188 336
189 336
190 337
191 336
192 337
192 338
192 339
192 340
192 341
191 342
190 343
191 343
192 343
193 344
194 345
194 346
193 347
193 348
192 349
192 350
191 351
190 352
190 353
191 353
192 352
193 352
194 352
195 353
196 353
197 353
198 353
199 353
200 354
200 355
200 356
201 357
202 357
203 357
204 357
205 357
206 357
207 358
208 358
209 358
210 357
211 357
212 358
213 358
214 358
215 358
216 358
217 358
218 358
219 358
220 357
221 358
222 358
223 358
224 359
224 360
224 361
224 362
223 363
224 363
225 363
226 362
227 361
228 361
229 361
230 361
231 361
232 362
231 363
232 364
233 364
234 364
235 363
236 363
237 364
238 365
238 366
239 367
240 368
239 369
239 370
240 369
241 369
242 370
243 371
243 372
243 373
243 374
243 375
242 376
242 377
243 377
244 376
245 375
246 374
247 374
248 374
249 375
250 374
251 374
252 375
253 375
254 374
255 374
256 374
257 373
258 372
259 373
260 374
261 373
262 373
263 372
264 372
265 371
266 371
267 371
268 370
269 370
270 370
271 369
272 369
273 369
274 368
275 369
276 369
277 370
278 371
278 372
278 373
279 372
280 371
281 370
282 370
283 370
284 370
285 369
286 370
287 369
288 369
289 369
290 369
291 369
292 370
293 370
294 370
295 370
296 371
296 372
296 373
295 374
295 375
296 375
297 374
298 373
299 373
300 372
301 372
301 371
302 370
302 369
302 368
302 367
302 366
302 365
303 364
303 363
303 362
304 361
305 360
306 360
307 360
308 360
309 360
310 361
310 362
309 363
310 364
310 365
309 366
309 367
308 368
309 367
310 367
311 366
312 366
313 366
314 365
315 366
315 367
315 368
316 368
317 369
316 370
317 371
317 372
317 373
316 374
315 375
314 376
314 377
315 377
316 377
317 377
318 377
319 377
320 378
321 378
322 379
323 379
324 379
325 380
324 381
323 381
324 381
325 382
325 383
326 383
327 383
328 384
329 384
330 384
331 384
332 384
333 384
334 384
335 384
336 384
337 385
338 385
339 385
340 385
341 385
342 385
343 385
344 386
345 386
346 386
347 385
348 385
349 386
350 386
351 387
352 387
353 386
354 386
355 387
356 386
357 386
358 386
359 387
359 388
359 389
358 390
358 391
359 391
360 390
361 389
362 388
363 388
364 389
365 390
366 390
367 391
368 391
369 390
370 391
370 392
371 392
372 393
372 394
372 395
372 396
371 397
370 398
371 398
372 398
373 398
374 398
375 398
376 398
377 398
378 398
379 399
380 399
381 399
382 399
383 399
384 399
385 399
386 399
387 399
388 399
389 399
390 399
391 399
392 398
393 398
394 398
395 397
396 396
397 396
398 396
399 397
399 398
400 398
401 397
402 396
403 396
404 396
405 395
406 394
407 394
408 394
409 393
410 393
411 393
412 393
413 393
414 394
414 395
414 396
415 396
415 395
416 394
417 393
418 393
419 392
420 392
421 392
422 392
423 392
424 392
425 392
426 392
427 392
428 392
429 393
430 393
431 394
431 395
431 396
431 397
432 396
433 395
434 394
435 394
436 394
437 394
438 393
439 393
440 393
441 393
442 392
443 392
444 392
445 392
446 392
447 392
448 393
449 393
450 394
450 395
450 396
450 397
451 397
452 396
453 395
454 394
455 394
456 393
457 393
458 392
459 392
460 391
461 391
462 390
463 390
464 390
464 389
465 388
466 388
467 388
467 387
468 386
469 386
470 385
471 385
472 385
473 385
474 384
475 384
476 383
477 383
478 382
479 381
480 382
481 382
482 381
483 380
484 379
485 378
486 379
487 379
488 379
489 378
490 377
491 377
492 376
493 377
493 378
493 379
494 379
494 378
495 377
496 376
497 376
498 376
499 376
500 375
501 375
502 374
503 374
504 374
505 374
506 374
507 373
508 374
508 375
508 376
509 375
510 374
511 373
512 372
513 371
514 371
515 370
516 369
517 369
518 369
519 369
520 368
521 368
522 368
523 367
524 367
525 368
526 367
527 367
528 366
529 365
530 366
530 367
531 367
532 367
532 366
533 365
534 364
535 363
536 362
537 361
538 360
539 359
540 358
541 357
541 356
542 355
543 355
544 354
545 353
546 352
547 351
548 351
549 351
550 350
551 349
552 348
552 347
553 346
553 345
554 344
555 345
555 344
555 343
556 342
557 343
557 344
558 345
557 346
557 347
558 347
558 346
559 345
559 344
560 343
561 342
561 341
561 340
562 339
562 338
563 337
564 337
565 336
566 336
567 336
568 337
569 337
570 336
571 336
572 336
573 337
574 337
575 338
574 339
574 340
575 340
576 339
577 338
578 338
579 337
580 336
581 335
582 335
583 335
584 334
585 334
586 334
587 334
588 333
589 333
590 332
591 332
592 333
592 334
592 335
593 335
593 334
594 333
595 332
596 331
597 330
597 329
598 328
599 327
600 326
601 325
602 324
602 323
603 322
604 323
605 322
605 321
606 320
607 319
608 319
609 318
610 318
611 317
612 317
613 318
612 319
613 320
614 319
615 318
616 317
617 316
618 315
618 314
619 313
620 312
621 311
622 311
623 310
624 310
625 310
626 309
627 308
628 308
629 308
630 308
630 307
631 306
631 305
632 304
633 303
633 302
634 301
635 300
636 299
637 298
638 298
639 297
639 296
640 295
641 294
642 293
643 292
644 292
645 292
645 291
646 290
646 289
647 288
648 288
648 287
648 286
648 285
649 284
649 283
650 282
650 281
651 280
651 279
652 278
653 277
653 276
654 275
655 274
655 273
656 272
656 271
657 270
658 269
658 268
659 267
659 266
660 265
661 264
661 263
662 262
663 261
664 260
664 259
665 258
665 257
666 256
667 255
667 254
668 253
668 252
669 251
669 250
670 249
670 248
671 247
671 246
671 245
672 244
672 243
672 242
673 241
673 240
673 239
673 238
673 237
673 236
673 235
674 234
675 235
676 234
677 234
678 234
679 234
680 233
681 233
682 233
683 233
684 233
685 233
686 233
687 233
688 233
689 233
690 232
691 232
692 232
693 232
694 232
695 232
696 232
697 232
698 232
699 232
700 232
701 232
702 232
703 232
704 231
705 232
706 231
707 231
708 231
709 231
710 231
711 231
712 231
713 231
714 231
715 231
716 230
717 230
718 230
719 230
720 231
721 231
722 231
723 231
724 231
725 231
726 231
727 231
728 231
729 231
730 231
731 231
732 231
733 231
734 232
735 232
736 232
737 232
738 232
739 232
740 232
741 231
742 231
743 231
744 230
745 230
745 229
744 228
744 227
743 226
743 225
742 225
741 224
740 224
739 224
738 224
737 225
736 224
736 223
735 223
734 223
733 223
732 223
731 222
730 222
729 221
728 221
727 221
726 222
725 222
724 222
723 222
722 222
721 222
720 222
719 222
718 222
717 222
716 222
715 222
714 222
713 222
712 222
711 222
710 222
709 223
708 223
707 223
706 223
705 223
704 223
703 223
702 223
701 223
700 223
699 223
698 223
697 223
696 223
695 223
694 223
693 223
692 223
691 223
690 224
689 224
688 224
687 223
686 223
685 223
684 223
683 224
682 224
681 224
680 224
679 223
678 223
677 223
676 223
675 223
674 223
673 223
672 222
671 221
672 220
672 219
671 218
671 217
672 216
672 215
672 214
671 213
671 212
671 211
671 210
671 209
670 208
669 207
669 206
669 205
668 204
667 203
667 202
666 201
665 200
664 199
664 198
663 197
662 196
661 195
660 194
660 193
659 192
658 191
657 190
656 189
656 188
655 187
654 186
653 185
652 184
651 183
651 182
650 181
649 180
648 179
648 178
647 177
646 176
645 175
646 174
646 173
646 172
645 171
645 170
645 169
644 168
644 167
643 166
643 165
642 164
642 163
641 162
640 161
639 160
638 160
639 161
639 162
638 163
637 162
636 161
636 160
635 159
635 158
635 157
635 156
634 155
634 154
633 153
632 152
631 152
630 153
629 153
628 152
628 151
628 150
628 149
627 148
627 147
626 146
626 145
625 144
624 144
623 145
622 144
621 143
621 142
620 141
620 140
620 139
619 138
618 137
618 138
617 139
616 138
616 137
615 136
615 135
615 134
614 133
614 132
613 131
613 132
612 133
611 133
610 132
610 131
610 130
609 129
608 128
608 127
607 128
606 127
605 126
605 125
604 125
603 124
602 123
601 122
600 121
599 120
599 119
598 118
597 117
597 116
597 117
597 118
596 119
596 120
595 121
594 122
594 123
593 124
592 123
592 122
592 121
591 120
590 119
589 118
588 117
588 116
587 115
586 114
585 115
584 114
584 113
583 112
583 111
582 110
582 109
581 108
580 107
580 106
579 105
578 104
578 103
577 102
577 101
577 102
577 103
577 104
576 105
575 106
574 107
574 108
573 109
572 109
571 108
571 107
570 106
570 105
569 104
569 103
568 102
568 101
567 101
566 101
565 100
565 99
564 98
563 97
562 96
561 95
561 94
560 94
560 95
560 96
560 97
560 98
559 99
558 100
557 99
557 98
557 97
556 96
555 95
554 94
554 93
553 92
553 91
552 90
551 89
551 88
550 87
550 86
550 87
550 88
550 89
549 90
548 91
547 92
546 91
545 90
544 89
544 88
544 87
543 86
542 85
541 84
541 83
540 82
540 81
539 82
538 83
537 84
536 84
535 83
535 82
534 81
533 80
533 79
532 78
531 77
530 77
529 78
528 77
527 76
526 75
526 74
525 73
524 72
523 71
522 70
522 71
523 72
522 73
521 73
520 72
519 71
518 70
517 70
516 69
515 68
514 68
513 67
512 66
511 66
510 65
509 65
508 64
508 63
507 63
508 64
508 65
508 66
508 67
507 68
506 69
506 70
505 71
505 72
505 73
505 74
504 75
503 74
503 73
502 72
501 72
500 71
499 70
498 69
497 68
497 69
497 70
496 71
495 70
494 69
493 68
492 67
491 66
490 65
489 64
488 63
487 62
487 61
486 61
486 62
486 63
486 64
485 65
485 66
484 67
484 68
483 69
482 68
481 67
481 66
480 65
480 64
479 63
478 64
477 64
476 63
476 62
475 61
474 60
473 60
472 59
472 58
471 58
470 57
469 56
468 55
467 55
466 54
466 55
466 56
466 57
466 58
466 59
466 60
465 61
464 60
464 59
463 58
462 57
462 56
461 55
461 54
460 53
459 53
458 52
458 51
457 50
456 50
455 49
454 48
453 47
453 48
453 49
453 50
454 51
453 52
452 53
451 53
450 52
451 51
450 50
449 49
448 48
447 47
446 46
445 45
444 44
444 45
444 46
444 47
444 48
443 49
442 48
442 47
442 46
441 45
440 44
439 43
438 42
437 42
436 41
435 40
434 39
434 40
435 41
434 42
433 43
432 42
431 41
430 41
429 40
428 40
427 40
426 40
425 41
424 41
423 42
422 42
421 42
420 43
419 43
418 44
417 45
417 46
417 47
416 48
415 48
414 47
413 47
412 46
411 45
410 45
409 44
409 43
408 43
407 44
406 44
405 44
404 43
404 42
403 42
402 42
401 41
400 41
399 40
398 39
398 40
399 41
398 42
398 43
397 44
396 45
395 46
394 46
393 46
392 45
391 45
390 44
389 43
388 43
387 42
386 41
385 40
384 39
383 39
382 38
381 38
380 37
