376 52
376 53
375 54
375 55
375 56
375 57
376 58
376 59
376 60
376 61
376 62
376 63
377 64
376 65
377 66
377 67
377 68
378 69
378 70
379 71
379 72
380 73
380 74
380 75
380 76
381 77
381 78
381 79
381 80
381 81
381 82
381 83
382 84
382 85
383 86
383 87
384 88
384 89
385 90
385 91
385 92
385 93
385 94
386 95
386 96
386 97
385 98
385 99
385 100
386 101
386 102
386 103
387 104
387 105
387 106
388 107
388 108
389 109
389 110
389 111
389 112
390 113
390 114
391 115
391 116
391 117
391 118
391 119
391 120
391 121
391 122
391 123
391 124
392 125
392 126
391 127
391 128
391 129
391 130
392 131
393 132
394 133
394 134
395 135
395 136
396 137
396 138
396 139
396 140
396 141
396 142
396 143
396 144
395 145
396 146
396 147
396 148
397 149
397 150
397 151
397 152
398 153
398 154
398 155
399 156
399 157
399 158
399 159
399 160
400 161
399 162
398 163
398 164
398 165
399 166
399 167
399 168
400 169
400 170
401 171
401 172
402 173
402 174
403 175
403 176
404 177
404 178
404 179
404 180
404 181
404 182
405 183
406 184
406 185
407 186
407 187
408 188
408 189
409 190
409 191
410 192
410 193
411 194
411 195
412 196
413 197
413 198
414 199
415 200
416 201
416 202
417 203
418 204
419 205
420 206
421 207
422 208
423 209
424 210
425 211
425 212
426 213
427 214
428 215
429 216
430 217
431 218
432 219
433 220
434 221
435 222
436 222
437 223
437 224
438 225
439 226
440 226
441 227
442 228
443 229
444 230
445 231
446 231
447 232
448 233
449 234
450 235
451 236
452 237
453 238
454 238
455 239
456 240
457 241
458 241
459 242
460 242
461 242
462 243
463 244
464 244
465 245
465 246
464 247
463 248
462 249
461 249
460 249
459 250
458 250
457 250
456 251
455 251
454 251
453 252
452 252
451 252
450 252
449 252
448 253
447 253
446 253
445 253
444 253
443 254
442 254
441 254
440 254
439 254
438 254
437 255
436 255
435 255
434 255
433 255
432 256
431 256
430 256
429 256
428 256
427 256
426 256
425 256
424 257
423 257
422 257
421 257
420 257
419 257
418 257
417 257
416 258
415 258
414 258
413 258
412 258
411 258
410 258
409 258
408 259
407 259
406 259
405 259
404 259
403 259
402 259
401 259
400 259
399 259
398 260
397 260
396 260
395 260
394 260
393 260
392 260
391 259
390 259
389 259
388 260
387 260
386 260
385 260
384 260
383 260
382 259
381 259
380 259
379 259
378 259
377 259
376 259
375 259
374 259
373 258
372 258
371 258
370 258
369 257
368 256
368 255
368 254
368 253
368 252
368 251
368 250
368 249
367 248
367 247
367 246
367 245
367 244
367 243
367 242
366 241
366 240
366 239
366 238
365 237
365 236
365 235
365 234
364 233
364 232
364 231
364 230
363 229
363 228
363 227
363 226
362 225
362 224
362 223
362 222
361 221
361 220
360 219
360 218
360 217
359 216
359 215
358 214
358 213
358 212
357 211
357 210
356 209
356 208
355 207
355 206
354 205
354 204
353 203
352 202
352 201
351 200
351 199
350 198
349 197
349 196
348 195
347 194
347 193
346 192
345 191
344 190
344 189
343 188
342 187
342 186
341 185
340 184
339 183
339 182
338 181
337 180
337 179
336 179
335 178
334 177
333 176
332 175
331 174
331 173
330 172
329 171
328 170
328 169
327 168
326 167
326 166
325 165
324 164
323 163
323 162
322 161
321 162
320 161
319 161
318 160
317 159
317 158
316 158
315 157
315 156
314 155
313 154
313 153
312 152
311 151
310 150
309 149
309 148
308 147
307 146
306 145
305 145
304 145
303 144
302 143
301 143
300 142
299 141
298 140
297 139
296 138
295 137
294 136
293 135
292 134
291 133
290 133
289 133
288 132
287 131
286 131
285 130
284 129
283 128
282 127
281 126
280 125
280 124
279 123
278 122
277 121
276 120
275 121
274 122
273 121
272 121
271 121
270 120
269 120
268 119
267 118
266 118
265 117
265 116
264 115
263 114
262 113
261 113
260 113
259 113
258 112
257 112
256 111
255 110
254 109
253 108
252 107
251 106
250 105
249 104
248 104
247 104
246 105
245 104
244 103
243 103
242 102
241 101
240 100
239 99
238 98
237 97
236 96
236 95
235 94
234 93
233 92
232 91
231 92
230 91
229 90
228 89
227 89
226 88
226 87
225 87
224 87
223 86
222 85
221 84
220 83
219 82
219 81
218 80
217 80
216 81
215 80
214 79
213 79
212 78
211 77
210 76
209 76
208 76
208 77
208 78
209 79
209 80
209 81
210 82
210 83
210 84
210 85
210 86
211 87
211 88
212 89
212 90
212 91
213 92
213 93
214 94
215 95
215 96
216 97
216 98
216 99
215 100
215 101
216 102
217 103
218 104
219 105
219 106
220 107
220 108
221 109
221 110
222 111
222 112
223 113
223 114
224 115
225 116
225 117
226 118
226 119
226 120
227 121
228 122
229 123
230 124
231 125
232 126
232 127
232 128
232 129
233 130
233 131
232 132
231 132
231 133
232 134
233 135
234 136
234 137
235 138
235 139
236 140
236 141
236 142
236 143
236 144
237 145
237 146
238 147
239 148
239 149
240 150
241 151
242 152
242 153
243 154
243 155
244 156
245 157
246 158
247 159
247 160
248 161
249 162
249 163
250 164
250 165
251 166
252 167
252 168
253 169
253 170
254 171
254 172
255 173
254 174
254 175
254 176
255 177
256 178
257 178
258 179
259 180
260 181
260 182
261 183
262 184
263 185
264 186
265 187
265 188
266 189
266 190
267 191
266 192
265 193
265 194
265 195
266 196
267 197
268 198
269 198
270 199
271 200
271 201
272 202
273 202
274 203
275 204
275 205
276 206
277 207
276 208
276 209
277 210
277 211
278 212
279 213
280 214
281 214
282 215
283 216
284 217
285 218
286 219
286 220
287 221
288 222
289 222
290 223
291 223
292 224
293 224
294 225
295 226
296 227
297 227
298 228
299 229
300 230
301 231
302 231
303 232
304 233
304 234
305 235
306 235
307 236
308 237
309 237
310 238
311 238
312 239
313 239
314 240
315 240
316 240
317 241
318 241
319 241
320 242
321 242
322 243
323 243
324 244
325 244
326 244
327 245
328 245
329 246
330 246
331 246
332 247
333 247
334 248
335 248
336 248
337 249
338 249
339 250
340 250
341 250
342 251
343 251
344 251
345 252
346 252
347 253
348 253
349 253
350 253
351 254
352 254
353 254
354 255
355 255
356 255
357 255
358 256
359 256
360 256
361 257
362 257
363 257
364 258
364 259
363 260
362 260
361 260
360 260
359 260
358 261
357 261
356 261
355 261
354 261
353 261
352 262
351 262
350 262
349 262
348 262
347 262
346 262
345 263
344 263
343 263
342 263
341 263
340 263
339 263
338 264
337 264
336 264
335 264
334 264
333 264
332 264
331 264
330 265
329 265
328 265
327 265
326 265
325 265
324 265
323 265
322 266
321 266
320 266
319 266
318 266
317 266
316 267
315 267
314 267
313 267
312 267
311 267
310 268
309 268
308 268
307 268
306 268
305 268
304 269
303 269
302 269
301 269
300 269
299 269
298 269
297 269
296 269
295 269
294 269
293 269
292 269
291 268
290 268
289 267
289 266
289 265
289 264
289 263
289 262
288 261
288 260
288 259
288 258
287 257
287 256
287 255
287 254
286 253
286 252
286 251
285 250
285 249
284 248
284 247
284 246
284 245
283 244
283 243
282 242
282 241
282 240
281 239
281 238
281 237
280 236
280 235
279 234
279 233
279 232
278 231
278 230
277 229
277 228
277 227
276 226
276 225
275 224
275 223
274 222
274 221
273 220
273 219
272 218
272 217
271 216
271 215
270 214
270 213
269 212
269 211
268 210
267 209
267 208
266 207
265 206
265 205
264 204
264 203
263 202
263 201
262 200
262 199
261 198
260 197
260 196
259 195
259 194
258 193
257 192
257 191
256 190
256 189
255 188
254 187
254 186
253 185
253 184
252 183
252 182
251 181
251 180
250 179
250 178
249 177
248 176
248 175
247 175
246 174
245 173
244 172
243 171
242 170
241 169
240 168
239 167
238 166
237 165
237 164
236 163
236 162
235 161
234 161
233 161
232 160
231 159
231 158
230 158
229 157
229 156
228 155
227 154
226 153
225 152
224 152
223 152
222 151
221 150
220 149
219 149
218 148
217 147
216 146
215 145
214 145
213 144
212 143
211 142
210 141
209 140
208 139
207 138
206 139
205 138
204 137
203 136
202 135
201 134
200 133
199 132
198 131
197 130
196 129
195 128
194 127
193 128
192 128
191 127
190 127
189 126
188 126
187 125
186 124
185 123
184 122
184 121
183 120
182 119
181 120
180 120
179 119
178 118
177 118
176 117
175 116
175 115
174 114
173 113
172 112
171 111
171 110
170 109
169 108
168 107
168 106
167 105
166 104
165 105
164 105
163 104
162 103
161 102
160 101
159 100
158 99
157 98
156 97
155 96
155 95
154 94
153 93
152 94
151 94
150 94
149 93
148 92
147 92
146 91
145 90
144 89
143 88
142 87
141 86
140 86
139 86
138 86
137 85
136 84
135 84
134 83
133 82
133 81
132 80
131 80
130 80
129 79
128 78
127 77
126 76
125 75
124 75
123 74
122 74
121 74
121 75
121 76
120 77
121 78
121 79
121 80
121 81
122 82
122 83
122 84
122 85
123 86
124 87
124 88
125 89
125 90
126 91
126 92
127 93
127 94
128 95
128 96
128 97
129 98
129 99
129 100
129 101
128 102
129 103
130 104
131 105
132 106
133 107
133 108
134 109
134 110
134 111
135 112
135 113
136 114
135 115
134 116
135 117
136 118
137 119
138 120
139 121
140 122
141 123
141 124
142 125
142 126
142 127
143 128
143 129
143 130
142 131
142 132
143 133
144 134
144 135
145 136
145 137
146 138
146 139
146 140
146 141
147 142
148 143
149 144
150 145
151 146
152 147
153 148
154 149
154 150
155 151
155 152
154 153
153 154
154 155
155 156
156 157
157 158
158 159
159 160
160 161
160 162
161 163
162 164
162 165
163 166
163 167
164 168
165 169
165 170
166 171
167 172
167 173
168 174
168 175
169 176
169 177
168 178
169 179
170 180
171 181
172 182
173 183
173 184
174 185
175 186
176 187
177 188
177 189
178 190
178 191
179 192
180 193
181 194
182 195
183 196
183 197
183 198
183 199
184 199
185 200
186 201
187 202
188 203
189 203
190 204
191 205
192 206
193 207
194 207
195 208
196 209
197 210
198 211
199 212
200 213
201 214
202 215
203 216
204 217
205 218
206 219
207 220
208 221
208 222
209 223
210 224
211 225
212 226
213 226
214 227
215 228
216 228
217 229
218 230
219 230
220 231
221 232
222 233
223 233
224 234
225 235
226 236
227 236
228 237
229 238
230 239
231 240
232 240
233 241
234 242
235 243
236 244
237 244
238 245
239 246
240 247
241 248
242 248
243 249
244 249
245 250
246 250
247 251
248 252
249 253
250 253
251 254
252 254
253 255
254 255
255 256
256 256
257 256
258 257
259 257
260 258
261 258
262 259
263 259
264 260
265 260
266 261
267 261
268 262
269 262
270 262
271 263
272 264
273 264
274 264
275 265
276 265
277 266
278 266
279 267
280 268
281 269
281 270
280 271
279 271
278 271
277 272
276 272
275 272
274 272
273 272
272 273
271 273
270 273
269 273
268 273
267 273
266 273
265 273
264 273
263 273
262 273
261 273
260 273
259 273
258 273
257 273
256 274
255 274
254 274
253 274
252 274
251 274
250 274
249 274
248 274
247 274
246 275
245 275
244 275
243 275
242 275
241 275
240 275
239 275
238 275
237 275
236 275
235 275
234 275
233 275
232 275
231 275
230 275
229 275
228 275
227 276
226 276
225 276
224 276
223 276
222 276
221 276
220 276
219 276
218 277
217 277
216 277
215 277
214 277
213 277
212 277
211 277
210 278
209 278
208 278
207 278
206 278
205 278
204 279
203 279
202 279
201 279
200 280
199 280
198 280
197 281
196 281
195 281
194 281
193 281
192 282
191 282
190 282
189 283
188 283
187 283
186 283
185 283
184 284
183 284
182 284
181 284
180 284
179 285
178 285
177 285
176 285
175 285
174 286
173 286
172 286
171 286
170 287
169 287
168 287
167 287
166 288
165 288
164 288
163 289
162 289
161 289
160 289
159 289
158 290
157 290
156 290
155 290
154 291
153 291
152 291
151 291
150 291
149 291
148 291
147 291
146 291
145 291
144 292
143 292
142 292
141 292
140 292
139 292
138 293
137 293
136 293
135 293
134 293
133 293
132 293
131 294
130 294
129 295
128 295
127 295
126 296
125 296
124 296
123 296
122 296
121 296
120 296
119 296
118 295
118 296
118 297
117 298
116 298
115 299
114 299
113 300
112 300
111 300
110 300
109 300
109 301
109 302
109 303
108 304
107 304
106 305
105 305
104 306
103 307
102 307
101 308
100 309
99 309
98 309
98 310
97 311
96 312
95 312
94 313
93 313
92 313
91 314
90 314
89 315
88 315
88 316
89 317
89 318
89 319
88 320
87 320
86 321
85 322
84 323
83 323
82 323
81 324
80 324
79 325
78 325
77 326
76 326
75 326
74 327
73 327
73 328
73 329
73 330
72 331
71 332
70 333
69 334
68 334
67 335
66 335
65 336
66 337
66 338
65 339
64 340
63 340
62 341
61 341
60 342
59 343
58 343
57 344
56 344
56 345
56 346
56 347
55 348
54 348
53 349
52 350
51 351
51 352
51 353
50 354
50 355
49 356
48 356
47 357
46 358
45 358
44 358
44 359
45 360
45 361
45 362
44 363
43 364
42 365
41 366
40 367
39 368
38 369
37 370
36 371
36 372
37 373
37 374
36 375
36 376
36 377
36 378
37 378
38 378
39 377
40 377
41 376
42 377
43 377
44 376
45 375
46 375
47 375
48 375
49 375
50 374
51 374
52 373
53 373
54 373
55 372
56 372
57 372
58 372
59 373
60 373
61 372
62 372
63 372
64 372
65 372
66 371
67 371
68 372
69 372
70 372
71 372
72 372
73 372
74 371
75 371
76 371
77 372
78 372
79 372
80 372
81 372
82 372
83 371
84 372
85 372
86 372
87 372
88 372
89 372
90 372
91 372
92 373
93 373
94 373
95 372
96 372
97 372
98 372
99 371
100 371
101 371
102 372
103 372
104 372
105 372
106 371
107 371
108 371
109 371
110 370
111 370
112 370
113 371
114 372
115 371
116 371
117 371
118 370
119 370
120 369
121 369
122 369
123 368
124 368
125 368
126 368
127 368
128 369
129 369
130 368
131 368
132 368
133 368
134 367
135 367
136 367
137 366
138 366
139 365
140 365
141 364
142 364
143 364
144 363
145 363
146 363
147 363
148 364
149 364
150 363
151 362
152 362
153 361
154 361
155 361
156 360
157 360
158 360
159 359
160 359
161 359
162 358
163 358
164 358
165 357
166 357
167 357
168 356
169 356
170 356
171 356
172 357
173 357
174 356
175 356
176 355
177 354
178 353
179 353
180 352
181 352
182 351
183 351
184 350
185 350
186 350
187 350
188 349
188 348
189 347
190 347
191 346
192 345
193 344
194 344
195 343
196 343
197 342
198 342
199 341
200 340
201 340
202 339
203 339
204 338
205 337
206 337
207 336
208 336
209 335
210 334
211 334
212 333
213 332
214 331
215 331
216 330
217 329
218 329
219 328
220 327
221 326
222 326
223 325
224 324
225 324
226 323
227 322
228 321
229 320
230 320
231 319
232 318
233 318
234 317
235 316
236 315
237 314
238 314
239 313
240 312
241 311
242 310
243 310
244 309
245 309
246 308
247 307
248 306
249 306
250 305
251 304
252 304
253 305
252 306
252 307
251 308
250 309
249 310
248 311
248 312
247 313
246 314
245 315
245 316
244 317
243 318
242 319
242 320
241 321
241 322
240 323
239 324
238 325
238 326
237 327
236 328
235 329
234 330
234 331
233 332
232 333
232 334
232 335
231 336
231 337
230 338
229 339
228 340
227 341
227 342
226 343
225 344
225 345
224 346
224 347
223 348
223 349
222 350
221 351
220 352
219 353
218 354
218 355
218 356
218 357
218 358
217 359
217 360
216 361
216 362
215 363
215 364
214 365
214 366
214 367
213 368
213 369
214 370
213 371
213 372
213 373
213 374
212 375
212 376
211 377
211 378
210 379
210 380
209 381
208 382
208 383
207 384
207 385
206 386
206 387
205 388
205 389
204 390
204 391
203 392
203 393
202 394
202 395
202 396
202 397
202 398
202 399
202 400
201 401
201 402
201 403
200 404
200 405
201 406
202 407
201 408
201 409
201 410
200 411
200 412
199 413
199 414
199 415
198 416
198 417
198 418
197 419
197 420
197 421
196 422
196 423
197 424
198 425
198 426
198 427
198 428
198 429
198 430
198 431
198 432
197 433
197 434
196 435
196 436
196 437
195 438
195 439
194 440
193 441
193 442
193 443
194 443
195 444
195 445
195 446
195 447
195 448
195 449
195 450
194 451
194 452
194 453
194 454
193 455
193 456
193 457
193 458
192 459
192 460
192 461
193 461
194 462
194 463
194 464
194 465
194 466
194 467
194 468
193 469
193 470
193 471
192 472
192 473
192 474
191 475
191 476
190 477
191 478
192 478
193 479
194 480
194 481
194 482
193 483
193 484
193 485
193 486
192 487
192 488
191 489
191 490
191 491
191 492
190 493
189 494
189 495
188 496
189 496
190 497
190 498
190 499
190 500
190 501
190 502
189 503
189 504
189 505
188 506
189 507
189 508
189 509
189 510
190 511
191 511
192 511
193 510
194 511
195 510
196 509
197 508
197 507
198 506
199 505
200 504
201 503
202 503
202 502
203 501
204 500
204 499
205 498
205 497
206 496
207 496
208 495
209 495
209 494
210 493
210 492
211 491
211 490
212 489
212 488
213 487
214 486
214 485
215 484
216 483
217 483
218 482
219 482
220 482
221 482
222 481
223 480
223 479
224 478
224 477
224 476
225 475
225 474
226 473
227 472
228 471
229 470
230 469
231 469
232 468
233 468
233 467
234 466
234 465
235 464
235 463
236 462
236 461
237 460
238 459
239 458
240 458
241 457
242 457
243 456
243 455
243 454
244 453
244 452
244 451
245 450
245 449
245 448
246 447
246 446
247 445
247 444
248 443
248 442
248 441
249 440
250 439
250 438
251 437
252 436
252 435
253 434
254 433
255 432
256 432
257 432
258 431
258 430
259 429
260 428
260 427
261 426
261 425
262 424
262 423
263 422
264 421
264 420
265 419
265 418
266 417
267 416
268 415
269 414
270 414
270 413
271 412
271 411
271 410
271 409
272 408
272 407
272 406
273 405
273 404
273 403
274 402
275 401
275 400
276 399
276 398
276 397
277 396
277 395
277 394
278 393
279 392
280 391
281 390
282 389
282 388
282 387
282 386
282 385
283 384
283 383
283 382
283 381
283 380
283 379
283 378
283 377
284 376
284 375
284 374
285 373
285 372
286 371
285 370
285 369
285 368
285 367
285 366
285 365
285 364
286 363
286 362
286 361
286 360
286 359
286 358
287 357
287 356
287 355
287 354
287 353
287 352
287 351
287 350
288 349
288 348
288 347
288 346
288 345
288 344
288 343
288 342
288 341
289 340
289 339
289 338
289 337
289 336
290 335
290 334
290 333
290 332
290 331
290 330
290 329
290 328
290 327
290 326
290 325
290 324
290 323
291 322
291 321
291 320
291 319
291 318
291 317
291 316
291 315
291 314
292 313
292 312
292 311
292 310
292 309
292 308
292 307
292 306
292 305
292 304
293 303
293 302
292 301
292 300
292 299
292 298
292 297
292 296
292 295
292 294
292 293
292 292
292 291
292 290
292 289
292 288
292 287
292 286
292 285
292 284
292 283
292 282
292 281
292 280
292 279
291 278
291 277
291 276
292 275
293 274
294 274
295 274
296 273
297 273
298 273
299 273
300 273
301 273
302 273
303 273
304 272
305 272
306 272
307 272
308 272
309 272
310 272
311 272
312 271
313 271
314 271
315 271
316 271
317 271
318 270
319 270
320 270
321 270
322 270
323 270
324 270
325 270
326 269
327 269
328 269
329 269
330 269
331 269
332 269
333 269
334 269
335 268
336 268
337 268
338 268
339 268
340 268
341 268
342 268
343 267
344 267
345 267
346 267
347 267
348 267
349 267
350 266
351 266
352 266
353 266
354 266
355 266
356 266
357 266
358 266
359 265
360 265
361 265
362 265
363 265
364 265
365 265
366 265
367 264
368 264
369 264
370 264
371 264
372 264
373 264
374 264
375 264
376 264
377 264
378 264
379 264
380 264
381 264
382 264
383 264
384 264
385 264
386 264
387 264
388 264
389 265
390 266
390 267
389 268
388 269
387 270
386 270
385 271
384 271
383 272
382 273
381 273
380 274
379 274
378 275
377 275
376 276
375 276
374 277
373 278
372 278
371 279
370 280
369 280
368 281
367 282
366 282
365 283
364 284
363 285
362 285
361 286
360 287
359 288
358 289
357 289
356 290
356 291
355 292
354 293
353 293
352 294
352 295
351 296
350 296
350 297
349 298
348 299
347 300
346 301
345 302
344 303
343 304
342 305
341 306
340 307
339 308
338 309
337 310
336 311
336 312
335 313
334 313
334 314
334 315
334 316
333 317
333 318
332 319
332 320
331 321
330 322
329 323
329 324
328 325
327 326
327 327
327 328
327 329
326 330
326 331
326 332
325 333
325 334
324 335
324 336
323 337
323 338
322 339
322 340
322 341
321 342
321 343
320 344
320 345
321 345
322 346
322 347
322 348
322 349
322 350
322 351
322 352
321 353
321 354
320 355
320 356
320 357
319 358
319 359
318 360
318 361
317 362
317 363
317 364
316 365
316 366
315 367
315 368
314 369
314 370
315 371
315 372
315 373
315 374
314 375
314 376
314 377
314 378
313 379
313 380
312 381
312 382
312 383
311 384
312 385
313 385
314 386
314 387
314 388
314 389
314 390
314 391
313 392
313 393
313 394
312 395
312 396
312 397
311 398
311 399
310 400
310 401
309 402
308 403
308 404
308 405
309 406
309 407
309 408
309 409
308 410
308 411
308 412
308 413
308 414
308 415
307 416
307 417
306 418
306 419
306 420
307 421
307 422
307 423
307 424
307 425
307 426
307 427
306 428
306 429
306 430
305 431
305 432
306 433
307 434
307 435
307 436
307 437
307 438
306 439
306 440
306 441
306 442
306 443
305 444
305 445
305 446
305 447
305 448
305 449
304 450
304 451
304 452
303 453
303 454
303 455
304 456
305 457
305 458
305 459
305 460
305 461
305 462
305 463
305 464
304 465
304 466
304 467
304 468
304 469
303 470
303 471
303 472
303 473
303 474
303 475
303 476
304 477
303 478
303 479
303 480
304 481
304 482
304 483
304 484
305 484
306 484
306 483
307 482
307 481
308 480
308 479
309 478
310 477
311 476
311 475
311 474
312 473
312 472
313 471
314 470
314 469
315 468
316 467
316 466
316 465
317 464
317 463
317 462
318 461
319 460
319 459
320 458
321 457
322 456
323 455
324 454
325 454
326 454
327 454
328 454
329 453
329 452
330 451
330 450
331 449
332 448
332 447
332 446
333 445
334 444
334 443
335 442
335 441
336 440
337 439
338 438
339 438
340 438
341 438
342 437
342 436
342 435
343 434
343 433
344 432
344 431
345 430
346 429
346 428
347 427
347 426
348 425
348 424
349 423
349 422
350 421
350 420
351 419
352 419
353 418
354 417
355 417
356 416
357 415
358 414
359 413
360 412
360 411
361 410
362 409
363 408
364 407
364 406
365 405
365 404
366 403
366 402
366 401
366 400
367 399
367 398
367 397
368 396
368 395
368 394
369 393
369 392
370 391
371 390
372 389
373 388
373 387
373 386
373 385
374 384
374 383
374 382
375 381
375 380
375 379
375 378
375 377
376 376
376 375
377 374
377 373
378 372
378 371
379 370
379 369
379 368
380 367
380 366
380 365
380 364
381 363
381 362
381 361
382 360
382 359
382 358
383 357
383 356
384 355
384 354
385 353
385 352
385 351
386 350
386 349
386 348
387 347
387 346
388 345
388 344
389 343
389 342
390 341
390 340
390 339
391 338
391 337
392 336
392 335
393 334
393 333
394 332
395 331
396 332
397 331
398 331
399 332
399 333
399 334
399 335
399 336
398 337
398 338
398 339
397 340
397 341
396 342
396 343
396 344
396 345
396 346
396 347
396 348
396 349
396 350
395 351
395 352
396 353
397 354
397 355
397 356
397 357
397 358
397 359
397 360
396 361
396 362
395 363
395 364
395 365
395 366
396 366
397 367
397 368
397 369
397 370
397 371
397 372
396 373
396 374
396 375
396 376
395 377
395 378
395 379
394 380
394 381
394 382
393 383
393 384
392 385
392 386
392 387
393 388
393 389
393 390
393 391
392 392
392 393
392 394
392 395
392 396
391 397
391 398
391 399
391 400
390 401
391 401
392 402
392 403
392 404
392 405
392 406
392 407
391 408
391 409
391 410
390 411
390 412
389 413
389 414
389 415
388 416
389 417
389 418
389 419
388 420
388 421
388 422
388 423
388 424
388 425
387 426
387 427
387 428
387 429
387 430
387 431
386 432
386 433
387 434
388 435
387 436
387 437
387 438
387 439
387 440
386 441
386 442
386 443
386 444
385 445
385 446
385 447
385 448
385 449
386 449
387 448
388 447
389 446
389 445
390 444
391 443
392 442
393 441
394 441
395 440
396 439
397 438
397 437
398 436
399 435
400 434
401 434
402 433
402 432
403 431
403 430
403 429
404 428
405 428
406 427
407 426
407 425
408 424
408 423
409 422
410 421
411 420
412 420
413 420
414 419
414 418
415 417
415 416
416 415
416 414
417 413
418 412
418 411
419 410
419 409
420 408
421 407
422 406
423 406
423 405
424 404
424 403
425 402
426 401
427 400
428 399
429 398
430 398
431 397
431 396
432 395
433 394
433 393
434 392
435 391
436 390
436 389
437 388
438 387
439 386
440 386
441 385
442 385
443 384
444 384
444 383
445 382
445 381
446 380
446 379
447 378
447 377
448 376
448 375
448 374
449 373
449 372
450 371
450 370
451 369
451 368
452 367
453 366
454 365
455 364
456 363
457 362
458 362
459 361
459 360
460 359
461 358
462 357
462 356
462 355
463 354
463 353
464 352
465 351
465 350
466 349
467 348
467 347
467 346
467 345
468 344
468 343
468 342
468 341
468 340
469 339
469 338
469 337
469 336
470 335
470 334
470 333
471 332
471 331
472 330
472 329
473 328
473 327
473 326
473 325
474 324
474 323
474 322
474 321
474 320
475 319
475 318
475 317
475 316
476 315
476 314
476 313
476 312
477 311
477 310
477 309
477 308
477 307
477 306
477 305
478 304
478 303
478 302
478 301
478 300
478 299
478 298
478 297
478 296
478 295
478 294
478 293
478 292
478 291
478 290
478 289
478 288
478 287
477 286
477 285
477 284
477 283
477 282
477 281
476 280
476 279
476 278
476 277
476 276
475 275
475 274
475 273
475 272
475 271
474 270
474 269
474 268
474 267
473 266
473 265
473 264
473 263
472 262
472 261
472 260
472 259
472 258
472 257
472 256
473 255
474 255
475 254
476 254
477 254
478 254
479 254
480 254
481 254
482 254
483 254
484 254
485 254
486 254
487 254
488 254
489 254
490 254
491 254
492 254
493 254
494 254
495 254
496 254
497 254
498 254
499 254
500 254
501 254
502 253
503 253
504 253
505 253
506 253
507 253
508 253
509 253
510 253
511 253
512 253
513 253
514 253
515 253
516 253
517 253
518 253
519 253
520 253
521 253
522 253
523 253
524 253
525 253
526 253
527 253
528 253
529 253
530 253
531 253
532 253
533 253
534 253
535 253
536 253
537 253
538 254
539 255
539 256
539 257
539 258
538 259
538 260
537 261
537 262
537 263
537 264
536 265
536 266
536 267
536 268
535 269
535 270
535 271
535 272
535 273
535 274
535 275
535 276
535 277
535 278
534 279
534 280
533 281
533 282
532 283
531 284
530 285
529 286
529 287
528 288
527 289
526 289
525 290
524 291
523 292
522 293
521 294
520 295
519 296
518 297
517 298
516 299
515 300
514 301
513 302
512 303
512 304
511 305
510 306
510 307
509 308
510 309
510 310
509 311
509 312
508 313
508 314
507 315
507 316
506 317
506 318
505 319
505 320
506 321
505 322
505 323
505 324
505 325
504 326
504 327
504 328
504 329
504 330
504 331
503 332
503 333
504 334
504 335
504 336
504 337
504 338
504 339
503 340
503 341
503 342
503 343
503 344
503 345
503 346
503 347
504 347
505 348
506 349
506 350
507 351
507 352
507 353
507 354
507 355
507 356
507 357
507 358
507 359
507 360
506 361
506 362
506 363
506 364
506 365
505 366
505 367
505 368
506 368
507 369
508 370
508 371
509 372
509 373
509 374
509 375
509 376
509 377
509 378
509 379
509 380
508 381
508 382
508 383
508 384
509 384
510 385
511 386
512 387
512 388
512 389
512 390
512 391
512 392
512 393
512 394
512 395
512 396
512 397
512 398
512 399
512 400
512 401
513 401
514 402
515 403
516 404
516 405
516 406
516 407
517 408
517 409
517 410
517 411
517 412
517 413
517 414
517 415
517 416
517 417
518 418
519 419
519 420
519 421
519 422
519 423
520 424
520 425
520 426
520 427
520 428
520 429
520 430
521 431
521 432
522 433
522 434
522 435
523 436
523 437
523 438
523 439
523 440
523 441
524 442
524 443
525 444
525 445
525 446
525 447
526 448
526 449
526 450
526 451
527 452
528 453
529 454
530 455
530 454
531 453
531 452
531 451
531 450
531 449
531 448
532 447
533 446
533 445
533 444
533 443
533 442
533 441
534 440
534 439
534 438
534 437
534 436
533 436
532 436
531 436
530 435
530 434
529 433
529 432
529 431
529 430
529 429
529 428
529 427
529 426
529 425
529 424
529 423
529 422
529 421
530 420
530 419
530 418
530 417
531 416
531 415
531 414
531 413
531 412
532 411
533 411
534 410
535 410
536 410
537 410
538 410
539 410
540 410
541 410
542 410
543 409
544 409
545 408
546 407
547 406
547 405
547 404
548 403
548 402
548 401
549 400
549 399
549 398
550 397
550 396
550 395
550 394
550 393
551 392
552 391
553 390
554 389
554 388
555 387
555 386
555 385
555 384
555 383
555 382
555 381
556 380
556 379
556 378
556 377
556 376
556 375
556 374
557 373
558 372
559 371
560 372
560 373
560 374
561 375
562 376
562 377
562 378
562 379
562 380
561 381
561 382
561 383
561 384
560 385
560 386
560 387
561 388
561 389
561 390
561 391
561 392
561 393
561 394
560 395
561 396
561 397
561 398
561 399
561 400
561 401
560 402
560 403
560 404
560 405
560 406
561 406
562 405
563 404
564 403
564 402
565 401
566 400
567 399
568 399
569 398
570 397
571 396
571 395
572 394
573 393
573 392
574 391
575 390
576 389
576 388
577 387
577 386
578 385
579 384
579 383
580 382
580 381
581 380
582 379
583 379
584 378
585 378
585 377
586 376
587 375
588 374
588 373
589 372
590 371
591 370
592 369
593 368
594 368
595 367
595 366
596 365
596 364
597 363
597 362
598 361
599 360
600 359
601 358
601 357
602 356
603 356
603 355
604 354
605 353
606 352
606 351
607 350
607 349
608 348
609 348
609 347
609 346
609 345
610 344
610 343
611 342
612 341
613 340
613 339
614 338
615 337
616 336
617 335
617 334
618 333
618 332
619 331
619 330
620 329
620 328
621 327
621 326
622 325
622 324
623 323
624 322
625 321
625 320
625 319
625 318
625 317
625 316
625 315
626 314
626 313
626 312
626 311
626 310
626 309
625 308
625 307
625 306
625 305
625 304
625 303
625 302
625 301
625 300
625 299
625 298
625 297
625 296
625 295
625 294
625 293
625 292
625 291
624 290
624 289
624 288
624 287
623 286
623 285
623 284
623 283
622 282
622 281
622 280
621 279
621 278
621 277
620 276
620 275
620 274
620 273
619 272
619 271
619 270
618 269
618 268
617 267
617 266
617 265
616 264
616 263
615 262
615 261
615 260
615 259
615 258
614 257
614 256
614 255
614 254
614 253
614 252
614 251
615 250
616 249
617 248
618 248
619 247
620 247
621 247
622 247
623 247
624 247
625 246
626 246
627 246
628 246
629 246
630 246
631 246
632 245
633 245
634 245
635 245
636 245
637 245
638 245
639 244
640 244
641 244
642 244
643 244
644 244
645 244
646 244
647 243
648 243
649 243
650 243
651 243
652 243
653 243
654 242
655 242
656 242
657 242
658 242
659 242
660 242
661 241
662 241
663 241
664 241
665 241
666 241
667 241
668 241
669 240
670 240
671 240
672 240
673 240
674 240
675 240
676 240
677 240
678 239
679 239
680 239
681 239
682 239
683 239
684 238
685 238
686 238
687 238
688 238
689 238
690 238
691 238
692 237
693 237
694 237
695 237
696 237
697 237
698 237
699 237
700 236
701 236
702 236
703 236
704 236
705 236
706 235
707 235
708 235
709 235
710 235
711 235
712 235
713 234
714 234
715 234
716 234
717 234
718 234
719 233
720 233
721 233
722 233
723 233
724 233
725 232
726 232
727 232
728 232
729 232
730 232
731 231
732 231
733 231
734 231
735 231
736 231
737 230
738 230
739 230
740 230
741 230
742 230
743 230
744 230
745 230
746 230
747 230
748 230
749 230
750 230
751 230
752 230
753 230
754 230
755 231
756 231
757 231
758 231
759 231
760 231
761 231
762 231
763 231
764 231
765 230
766 229
766 228
766 227
767 226
767 225
767 224
767 223
767 222
767 221
766 220
765 220
764 220
763 220
762 219
761 219
760 219
759 219
758 219
757 219
756 219
755 219
754 219
753 219
752 219
751 219
750 219
749 219
748 220
747 220
746 220
745 220
744 220
743 221
742 221
741 221
740 221
739 222
738 222
737 222
736 223
735 223
734 223
733 223
732 223
731 224
730 224
729 224
728 224
727 225
726 225
725 225
724 225
723 225
722 225
721 226
720 226
719 226
718 226
717 227
716 227
715 227
714 227
713 227
712 227
711 228
710 228
709 228
708 228
707 228
706 229
705 229
704 229
703 229
702 229
701 229
700 229
699 230
698 230
697 230
696 230
695 230
694 230
693 231
692 231
691 231
690 231
689 231
688 232
687 232
686 232
685 232
684 232
683 232
682 233
681 233
680 233
679 233
678 233
677 233
676 233
675 233
674 234
673 234
672 234
671 234
670 234
669 235
668 235
667 235
666 235
665 235
664 235
663 235
662 235
661 236
660 236
659 236
658 236
657 236
656 236
655 237
654 237
653 237
652 237
651 237
650 237
649 237
648 237
647 238
646 238
645 238
644 238
643 238
642 238
641 238
640 238
639 239
638 239
637 239
636 239
635 239
634 239
633 239
632 239
631 240
630 240
629 240
628 240
627 240
626 240
625 240
624 241
623 241
622 241
621 241
620 241
619 241
618 241
617 241
616 242
615 242
614 242
613 242
612 241
611 241
610 241
609 240
608 239
608 238
608 237
608 236
608 235
608 234
608 233
608 232
609 231
609 230
609 229
610 228
610 227
610 226
611 225
611 224
611 223
612 222
612 221
612 220
613 219
613 218
613 217
614 216
614 215
614 214
615 213
615 212
615 211
615 210
616 209
616 208
616 207
616 206
617 205
617 204
618 203
618 202
618 201
619 200
619 199
619 198
619 197
619 196
619 195
620 194
620 193
620 192
620 191
620 190
620 189
619 188
619 187
619 186
619 185
619 184
619 183
619 182
618 181
618 180
618 179
618 178
618 177
618 176
618 175
617 174
617 173
617 172
617 171
617 170
617 169
617 168
617 167
617 166
617 165
617 164
617 163
616 163
615 162
614 161
614 160
613 159
613 158
613 157
612 156
612 155
612 154
611 153
611 152
611 151
611 150
610 149
610 148
609 148
608 147
607 146
607 145
606 144
606 143
605 142
604 142
603 141
603 140
602 139
602 138
601 137
600 136
600 135
600 134
599 133
598 132
598 131
598 130
597 130
596 129
595 128
595 127
594 126
593 125
592 124
592 123
591 122
590 121
590 120
589 119
589 118
588 117
587 118
586 117
586 116
585 115
584 114
584 113
583 112
583 111
583 110
582 110
581 110
580 109
580 108
579 107
579 106
578 105
578 104
577 103
577 102
576 101
575 100
575 99
574 98
573 97
573 96
573 95
572 94
571 95
570 94
570 93
569 92
569 91
568 90
567 89
566 88
566 89
566 90
565 91
565 92
565 93
566 94
566 95
566 96
566 97
566 98
565 99
564 100
564 101
564 102
564 103
564 104
564 105
565 106
565 107
565 108
565 109
565 110
565 111
565 112
565 113
564 114
563 113
562 113
562 114
562 115
561 116
561 117
561 118
561 119
561 120
561 121
561 122
561 123
561 124
561 125
561 126
561 127
561 128
561 129
560 130
559 129
559 130
559 131
559 132
559 133
559 134
559 135
559 136
559 137
559 138
559 139
559 140
559 141
559 142
559 143
559 144
559 145
558 146
558 147
558 148
558 149
559 150
559 151
559 152
559 153
559 154
559 155
560 156
560 157
560 158
560 159
560 160
560 161
561 162
561 163
561 164
560 165
560 166
560 167
560 168
560 169
561 170
561 171
561 172
561 173
561 174
562 175
562 176
562 177
562 178
562 179
561 180
562 181
562 182
563 183
563 184
564 185
564 186
565 187
566 188
566 189
567 190
567 191
567 192
567 193
568 194
568 195
569 196
569 197
570 198
570 199
571 200
571 201
572 202
572 203
573 204
573 205
573 206
573 207
574 208
575 209
575 210
576 211
576 212
577 213
578 214
578 215
579 216
579 217
580 218
580 219
581 220
582 221
582 222
583 223
583 224
584 224
585 224
586 225
586 226
587 227
588 228
589 228
590 229
591 230
592 231
593 232
594 232
595 233
596 233
597 234
598 235
599 236
600 236
601 237
602 238
603 239
604 240
605 241
604 242
603 243
602 243
601 243
600 244
599 244
598 244
597 244
596 244
595 244
594 244
593 244
592 245
591 245
590 245
589 245
588 245
587 245
586 245
585 245
584 245
583 245
582 245
581 245
580 246
579 246
578 246
577 246
576 246
575 246
574 246
573 246
572 246
571 246
570 246
569 246
568 246
567 246
566 246
565 246
564 246
563 246
562 246
561 246
560 246
559 246
558 246
557 246
556 247
555 247
554 247
553 247
552 247
551 247
550 247
549 246
548 246
547 246
546 246
545 246
544 246
543 246
542 246
541 246
540 245
539 244
538 243
538 242
539 241
539 240
539 239
539 238
540 237
540 236
540 235
540 234
540 233
540 232
540 231
541 230
541 229
541 228
542 227
542 226
542 225
542 224
543 223
543 222
543 221
543 220
543 219
544 218
544 217
544 216
544 215
544 214
544 213
544 212
544 211
544 210
545 209
545 208
545 207
545 206
545 205
545 204
545 203
545 202
545 201
545 200
545 199
545 198
545 197
545 196
545 195
545 194
545 193
545 192
545 191
545 190
545 189
545 188
545 187
545 186
545 185
544 184
544 183
544 182
544 181
544 180
544 179
544 178
544 177
543 176
543 175
543 174
543 173
543 172
543 171
543 170
543 169
543 168
542 167
542 166
542 165
542 164
541 163
541 162
541 161
541 160
541 159
540 158
540 157
539 157
538 156
538 155
538 154
538 153
538 152
538 151
537 150
537 149
537 148
537 147
536 146
535 145
534 144
534 143
533 142
533 141
532 140
532 139
532 138
532 137
531 136
531 135
531 134
531 133
530 132
530 131
529 131
528 132
527 131
527 130
526 129
526 128
525 127
525 126
524 125
524 124
523 123
523 122
522 121
521 120
521 119
520 118
520 117
520 116
519 115
518 116
517 116
516 115
515 114
514 113
513 112
513 111
512 110
512 109
511 108
511 107
510 106
509 105
509 104
508 103
508 102
507 101
507 100
506 99
506 98
505 97
504 96
503 95
503 94
502 95
501 95
500 94
499 93
499 92
498 91
498 90
497 89
497 88
496 87
496 86
496 85
495 84
495 83
494 82
494 81
494 80
493 81
492 81
491 80
491 79
490 78
489 77
489 76
488 75
487 74
487 73
486 72
486 71
485 70
484 70
483 71
482 71
481 71
480 70
479 70
478 70
477 69
476 69
475 69
475 70
475 71
475 72
475 73
475 74
475 75
475 76
475 77
475 78
475 79
474 80
475 81
475 82
475 83
475 84
475 85
475 86
475 87
475 88
476 89
475 90
476 91
476 92
475 93
474 93
474 94
475 95
475 96
475 97
475 98
476 99
476 100
476 101
476 102
477 103
477 104
477 105
477 106
476 107
476 108
476 109
475 110
476 111
476 112
476 113
476 114
477 115
477 116
477 117
477 118
478 119
478 120
478 121
478 122
478 123
479 124
479 125
479 126
479 127
479 128
479 129
478 130
477 131
477 132
478 133
478 134
478 135
478 136
479 137
479 138
479 139
479 140
479 141
479 142
478 143
478 144
478 145
479 146
479 147
479 148
479 149
479 150
479 151
479 152
479 153
480 154
480 155
480 156
480 157
480 158
480 159
479 160
478 160
478 161
478 162
479 163
479 164
479 165
480 166
480 167
481 168
481 169
481 170
482 171
481 172
481 173
481 174
481 175
481 176
481 177
480 178
480 179
480 180
480 181
480 182
480 183
481 184
482 185
482 186
483 186
484 187
484 188
485 189
485 190
485 191
485 192
485 193
485 194
485 195
486 196
487 197
487 198
488 199
489 200
490 201
491 202
492 203
492 204
493 205
494 206
494 207
495 208
495 209
496 210
497 211
497 212
498 212
499 213
500 214
501 215
501 216
502 217
503 218
504 219
505 220
506 220
507 221
507 222
508 223
509 224
510 225
511 226
512 227
513 228
514 229
515 230
516 230
517 231
517 232
518 233
519 233
520 234
521 234
522 235
521 236
522 235
523 236
524 237
525 238
526 239
527 240
528 240
529 241
530 241
531 242
532 243
533 244
533 245
532 246
531 246
530 247
529 247
528 247
527 247
526 247
525 247
524 247
523 247
522 247
521 247
520 247
519 248
518 248
517 248
516 248
515 248
514 248
513 248
512 248
511 248
510 248
509 248
508 248
507 248
506 248
505 248
504 248
503 248
502 248
501 248
500 248
499 248
498 248
497 248
496 248
495 248
494 248
493 248
492 248
491 248
490 248
489 248
488 248
487 248
486 248
485 248
484 248
483 248
482 248
481 248
480 248
479 248
478 248
477 248
476 247
475 247
474 247
473 247
472 247
471 246
470 245
469 244
470 243
470 242
470 241
470 240
471 239
471 238
471 237
472 236
472 235
473 234
473 233
474 232
474 231
474 230
475 229
475 228
475 227
476 226
476 225
476 224
476 223
476 222
477 221
477 220
477 219
477 218
477 217
477 216
477 215
477 214
477 213
477 212
477 211
477 210
477 209
478 208
478 207
478 206
478 205
478 204
478 203
478 202
478 201
478 200
478 199
478 198
478 197
478 196
478 195
478 194
478 193
478 192
478 191
478 190
478 189
478 188
478 187
478 186
478 185
478 184
478 183
478 182
477 181
477 180
477 179
477 178
476 177
476 176
476 175
476 174
476 173
476 172
475 171
475 170
475 169
475 168
474 167
474 166
473 165
473 164
473 163
472 162
472 161
472 160
471 159
471 158
471 157
471 156
470 155
469 155
468 154
468 153
467 152
466 151
465 150
465 149
464 148
464 147
463 146
463 145
462 144
462 143
462 142
461 141
461 140
460 139
459 138
459 137
458 136
457 135
456 134
456 133
455 132
455 131
454 130
454 129
453 128
453 127
452 126
452 125
451 124
450 123
449 122
448 123
447 123
446 122
445 122
444 121
443 120
442 119
441 118
440 117
439 116
439 115
438 114
437 113
436 112
436 111
435 111
434 112
433 111
432 110
431 109
430 108
429 107
428 106
427 105
426 104
426 103
425 102
424 101
423 100
422 99
421 98
421 97
420 96
419 96
418 95
417 94
416 93
415 92
414 91
414 90
413 89
412 88
411 87
411 86
410 86
409 85
408 84
407 83
406 82
405 81
404 80
404 79
403 78
402 77
402 76
401 75
400 75
399 74
399 73
398 72
397 71
396 70
395 69
394 68
393 67
392 66
391 65
390 64
389 63
388 63
387 62
386 61
385 60
384 59
383 58
382 58
381 57
380 56
379 55
378 54
377 53
376 52
