194 44
193 45
192 45
191 45
190 45
189 45
188 45
187 45
186 45
185 45
184 45
183 45
182 45
181 45
180 46
179 46
178 46
177 46
176 46
175 46
174 46
173 46
172 46
171 46
170 46
169 47
168 47
167 47
166 47
165 47
164 48
163 48
162 48
161 48
160 48
159 48
158 48
157 48
156 48
155 49
154 49
153 49
152 50
151 50
150 49
149 50
148 49
147 50
146 50
145 50
144 50
143 51
142 51
141 51
140 51
139 51
138 52
137 52
136 53
135 53
134 53
133 53
132 54
131 54
130 55
129 55
128 55
127 56
126 57
125 57
124 57
123 57
122 57
121 58
120 58
119 58
118 59
117 59
116 59
116 60
115 61
114 61
113 61
112 61
111 62
110 62
109 62
108 63
107 63
106 64
105 64
104 65
103 66
102 66
101 67
100 67
100 68
99 69
98 68
97 69
96 69
95 70
94 70
93 71
92 72
91 72
90 73
89 74
88 74
87 75
86 76
85 76
84 77
83 78
82 78
81 79
80 80
79 81
78 82
77 83
77 84
76 85
75 86
74 86
73 87
72 87
71 88
70 89
69 90
68 91
67 91
66 92
65 93
64 94
64 95
63 96
62 97
61 98
60 98
60 99
59 100
59 101
58 102
57 103
57 104
56 105
55 106
55 107
55 108
54 109
53 110
53 111
52 112
52 113
51 114
50 115
50 116
49 117
49 118
49 119
48 120
48 121
48 122
47 123
47 124
47 125
47 126
47 127
47 128
47 129
47 130
47 131
47 132
47 133
46 134
46 135
46 136
46 137
46 138
46 139
46 140
46 141
46 142
46 143
46 144
46 145
46 146
46 147
46 148
46 149
46 150
46 151
46 152
46 153
47 154
47 155
47 156
47 157
47 158
48 159
48 160
48 161
48 162
48 163
49 164
49 165
49 166
49 167
50 168
50 169
50 170
51 171
51 172
52 173
52 174
52 175
53 176
54 177
54 178
54 179
54 180
54 181
54 182
54 183
55 184
56 185
56 186
56 187
56 188
56 189
56 190
57 191
57 192
57 193
57 194
58 195
59 196
59 197
59 198
59 199
60 200
60 201
61 202
62 203
62 204
62 205
63 206
63 207
63 208
64 209
65 210
65 211
66 212
66 213
67 214
68 215
68 216
68 217
69 218
70 219
70 220
71 221
71 222
72 223
73 224
74 225
74 226
75 227
75 228
76 229
76 230
77 231
78 232
79 233
80 234
81 235
81 236
82 237
82 238
83 239
84 240
85 241
85 242
86 243
87 244
88 245
89 246
89 247
90 248
91 249
92 250
93 251
94 252
95 253
96 254
96 255
97 256
98 257
99 257
100 258
100 259
101 259
102 260
102 261
103 262
104 262
105 263
105 264
106 264
107 265
108 266
109 267
110 268
111 268
112 269
112 270
113 271
114 272
115 272
116 273
117 274
118 274
119 275
120 276
121 277
122 278
123 278
124 279
125 280
126 281
127 281
128 282
129 282
130 283
131 284
132 284
133 284
134 285
135 286
136 286
137 287
138 287
139 288
140 289
141 289
142 290
143 290
144 291
145 291
146 292
147 292
148 292
149 292
150 293
151 293
152 294
153 295
154 295
155 296
156 296
157 296
158 297
159 297
160 297
161 298
162 298
163 299
164 299
165 299
166 299
167 300
168 300
169 300
170 301
171 301
172 301
173 301
174 302
175 302
176 302
177 302
178 302
179 303
180 303
181 303
182 304
183 304
184 305
185 305
186 305
187 305
188 305
189 306
190 306
191 306
192 306
193 307
194 307
195 307
196 307
197 307
198 307
199 308
200 308
201 308
202 308
203 308
204 309
205 309
206 309
207 309
208 309
209 310
210 310
211 310
212 310
213 310
214 310
215 310
216 311
217 311
218 311
219 311
220 311
221 311
222 311
223 312
224 312
225 312
226 312
227 312
228 312
229 312
230 312
231 312
232 312
233 312
234 312
235 312
236 312
237 312
238 312
239 313
240 313
241 313
242 313
243 313
244 313
245 313
246 313
247 313
248 313
249 313
250 313
251 313
252 313
253 313
254 313
255 313
256 313
257 313
258 313
259 313
260 313
261 313
262 313
263 313
264 313
265 314
266 314
267 314
268 314
269 314
270 314
271 314
272 314
273 314
274 314
275 314
276 314
277 314
278 314
279 314
280 314
281 314
282 314
283 314
284 315
285 315
286 315
287 315
288 315
289 315
290 315
291 315
292 315
293 315
294 315
295 315
296 315
297 315
298 315
299 315
300 315
301 315
302 315
303 315
304 315
305 315
306 315
307 315
308 315
309 315
310 315
311 315
312 315
313 315
314 314
315 314
316 314
317 314
318 314
319 314
320 314
321 314
322 314
323 314
324 314
325 314
326 313
327 313
328 313
329 313
330 313
331 312
332 312
333 312
334 312
335 311
336 311
337 311
338 311
339 311
340 311
341 311
342 310
343 310
344 310
345 310
346 310
347 310
348 309
349 309
350 309
351 309
352 308
353 308
354 308
355 307
356 307
357 307
358 306
359 306
360 306
361 306
362 305
363 305
364 305
365 304
366 304
367 304
368 304
369 304
370 303
371 303
372 303
373 303
374 302
375 302
376 302
377 302
378 302
379 302
380 302
381 302
382 301
383 301
384 301
385 301
386 301
387 301
388 301
389 301
390 300
391 300
392 301
393 300
394 300
395 300
396 300
397 300
398 300
399 300
400 300
401 300
402 300
403 300
404 300
405 300
406 300
407 299
408 299
409 299
410 299
411 299
412 299
413 299
414 299
415 298
416 299
417 299
418 299
419 299
420 298
421 298
422 298
423 298
424 298
425 298
426 298
427 298
428 298
429 298
430 298
431 297
432 297
433 297
434 297
435 297
436 297
437 297
438 297
439 296
440 296
441 296
442 296
443 296
444 295
445 295
446 295
447 294
448 294
449 294
450 294
451 293
452 293
453 293
454 293
455 292
456 292
457 292
458 291
459 291
460 291
461 290
462 290
463 290
464 289
465 289
466 289
467 288
468 288
469 288
470 287
471 287
472 286
473 286
474 286
475 285
476 285
477 284
478 284
479 284
480 283
481 283
482 283
483 282
484 282
485 281
486 281
487 280
488 280
489 279
490 279
491 278
492 278
493 278
494 277
495 277
496 277
497 276
498 275
499 275
500 274
501 274
502 274
503 273
504 273
505 272
506 272
507 271
508 271
509 271
510 270
511 269
512 268
513 268
514 268
515 267
516 267
517 267
518 266
519 266
520 266
521 265
522 265
523 264
524 264
525 264
526 263
527 263
528 262
529 262
530 261
531 261
532 260
533 260
534 260
535 259
536 259
537 259
538 258
539 258
540 257
541 257
542 257
543 256
544 256
545 256
546 255
547 255
548 255
549 254
550 254
551 253
552 253
553 253
554 252
555 251
556 251
557 251
558 251
559 250
560 250
561 249
562 249
563 249
564 248
565 248
566 248
567 247
568 247
569 246
570 246
571 246
572 245
573 245
574 245
575 244
576 244
577 244
578 243
579 243
580 243
581 242
582 242
583 241
584 241
585 241
586 240
587 240
588 240
589 239
590 238
591 238
592 237
593 237
594 236
595 236
596 236
597 235
598 235
599 234
600 234
601 233
602 233
603 232
604 232
605 231
606 231
607 231
608 230
609 230
610 229
611 229
612 228
613 228
614 227
615 227
616 227
617 226
618 226
619 225
620 225
621 224
622 224
623 223
624 223
625 223
626 222
627 222
628 221
629 221
630 221
631 220
632 220
633 219
634 219
635 218
636 218
637 217
638 217
639 217
640 216
641 216
642 215
643 214
644 214
645 214
646 213
647 213
648 213
649 212
650 212
651 212
652 212
653 211
654 211
655 211
656 210
657 210
658 209
659 209
660 209
661 208
662 208
663 208
664 208
664 207
665 206
666 206
667 206
668 206
669 206
670 206
671 205
672 205
673 205
674 205
675 204
676 204
677 204
678 204
679 204
680 203
681 203
682 203
683 203
684 203
685 203
686 202
687 202
688 202
689 202
690 202
691 201
692 201
693 201
694 201
695 201
696 200
697 200
698 200
699 200
700 200
701 200
702 199
703 199
704 199
705 199
706 198
707 198
708 198
709 198
710 198
711 197
712 197
713 197
714 197
715 197
716 196
717 196
718 196
719 195
720 195
721 195
722 194
723 194
724 194
725 194
726 193
727 193
728 193
729 192
730 192
731 192
732 192
733 191
734 191
735 191
736 190
737 190
738 189
739 189
740 189
741 188
742 188
743 187
744 187
745 186
746 186
747 185
748 185
749 185
750 184
751 184
752 184
752 183
753 182
753 181
753 180
753 179
752 178
753 177
754 176
755 177
755 176
754 176
753 175
752 175
751 174
750 173
749 172
749 171
748 171
747 171
746 170
746 169
745 168
744 168
743 168
742 169
741 169
740 170
739 170
738 171
737 171
736 172
735 173
734 173
733 174
732 175
731 175
730 175
729 176
728 176
727 176
726 177
725 177
724 178
723 178
722 178
721 178
720 179
719 179
718 179
717 180
716 180
715 180
714 180
713 180
712 181
711 181
710 181
709 181
708 181
707 182
706 182
705 182
704 182
703 183
702 183
701 183
700 183
699 184
698 184
697 184
696 184
695 184
694 184
693 184
692 185
691 185
690 185
689 185
688 185
687 185
686 185
685 186
684 186
683 186
682 186
681 186
680 186
679 186
678 186
677 186
676 186
675 186
674 187
673 186
672 187
671 187
670 187
669 186
668 186
667 186
666 186
665 186
664 186
663 186
662 186
661 186
660 186
659 186
658 185
657 185
656 184
655 184
654 184
653 183
652 183
651 183
650 182
649 182
648 182
647 182
646 181
645 180
645 181
644 182
643 181
642 180
641 180
640 180
639 179
638 179
637 179
636 178
635 178
634 178
633 177
632 178
631 177
630 177
629 176
628 176
627 176
626 175
625 175
624 175
623 175
622 175
621 174
620 174
619 173
618 173
617 172
616 172
615 172
614 171
613 171
612 171
611 170
610 170
609 170
608 170
607 170
606 169
605 169
604 169
603 169
602 169
601 169
600 169
599 168
598 167
597 167
596 167
595 166
594 166
593 166
592 165
591 165
590 165
589 165
588 164
587 164
586 164
585 164
584 163
583 163
582 163
581 163
580 163
579 163
578 162
577 161
576 161
575 161
574 160
573 160
572 160
571 159
570 159
569 159
568 159
567 158
566 158
565 158
564 157
563 157
562 157
561 156
560 156
559 156
558 155
557 155
556 155
555 155
554 154
553 154
552 154
551 154
550 154
549 153
548 152
549 151
548 151
547 152
546 151
545 150
544 150
543 150
542 150
541 149
540 149
539 149
538 149
537 149
536 148
535 148
534 148
533 148
532 147
531 147
530 147
529 147
528 146
527 146
526 145
525 145
524 145
523 144
522 144
521 143
520 143
519 143
518 142
517 142
516 141
515 141
514 140
513 140
512 139
511 139
510 139
509 138
508 138
507 138
506 138
505 137
504 137
503 138
502 137
501 137
500 137
499 136
499 135
498 135
497 136
496 135
495 134
494 135
494 136
493 137
492 136
492 135
492 134
491 133
490 132
489 132
488 131
489 130
488 131
487 130
486 130
485 130
484 129
483 128
482 128
481 128
480 127
479 127
478 127
477 126
476 126
475 126
474 126
473 125
473 124
472 124
471 123
470 122
469 123
468 122
467 122
466 121
465 121
464 121
463 120
462 120
461 119
460 119
459 119
458 119
457 118
456 118
455 119
454 118
453 117
452 117
451 116
450 116
449 115
448 115
447 115
446 114
445 114
444 114
443 114
442 113
441 113
440 112
439 112
438 112
437 112
436 111
435 111
434 110
433 110
432 110
431 109
430 108
429 108
428 108
427 108
426 107
425 107
424 106
423 105
422 104
421 104
420 103
419 103
418 102
417 102
416 102
415 102
414 102
413 101
412 100
412 99
411 99
410 99
409 98
408 98
407 98
406 97
405 97
404 96
403 97
402 96
401 95
400 95
399 94
398 94
397 93
396 93
395 92
394 92
393 92
392 91
391 91
390 91
389 90
388 90
387 89
386 89
385 88
384 88
383 88
382 87
381 87
380 87
379 87
378 86
377 86
376 85
375 85
374 84
373 84
372 83
371 83
370 83
369 82
368 82
367 82
366 82
365 81
364 81
363 81
362 80
361 80
360 79
359 79
358 78
357 78
356 77
355 76
354 77
353 77
352 77
351 76
351 75
350 75
349 75
348 74
347 74
346 75
345 74
344 74
343 74
342 73
341 72
340 72
339 72
338 72
337 71
336 71
335 71
334 71
333 70
332 70
331 70
330 70
329 70
328 70
327 69
326 68
325 68
324 67
323 67
322 67
321 66
320 66
319 66
318 66
317 65
316 65
315 64
314 64
313 64
312 64
311 64
310 63
309 63
308 62
307 62
306 62
305 62
304 61
303 61
302 60
301 60
300 60
299 60
298 59
297 59
296 59
295 59
294 58
293 58
292 58
291 57
290 57
289 56
288 56
287 56
286 55
285 55
284 55
283 55
282 55
281 55
280 54
279 53
278 53
277 53
276 53
275 52
274 52
273 52
272 52
271 52
270 52
269 52
268 52
267 51
266 51
265 51
264 51
263 50
262 50
261 50
260 50
259 49
258 49
257 49
256 49
255 49
254 48
253 48
252 48
251 48
250 47
249 47
248 47
247 47
246 47
245 47
244 46
243 46
242 46
241 46
240 46
239 46
238 46
237 46
236 46
235 46
234 45
233 45
232 45
231 45
230 45
229 44
228 44
227 45
226 44
225 44
224 44
223 44
222 44
221 44
220 45
219 45
218 44
217 44
216 44
215 44
214 44
213 44
212 44
211 44
210 44
209 44
208 44
207 44
206 44
205 44
204 44
203 44
202 44
201 44
200 45
199 45
198 44
197 44
196 44
195 44
194 44
