37 235
37 236
37 237
37 238
37 239
37 240
37 241
37 242
37 243
37 244
37 245
37 246
37 247
37 248
37 249
37 250
37 251
37 252
37 253
38 254
38 255
38 256
39 257
40 258
41 259
42 260
43 261
44 261
45 262
46 262
47 262
48 262
49 263
50 263
51 263
52 263
53 263
54 263
55 263
56 263
56 262
56 261
56 260
55 260
54 260
53 259
52 259
51 258
50 258
49 257
48 256
47 255
46 254
46 253
45 252
45 251
44 250
44 249
43 248
43 247
44 246
44 245
45 244
45 243
46 242
46 241
47 240
48 239
49 238
50 237
51 236
52 235
53 235
54 234
55 234
56 233
57 233
58 232
59 232
60 231
61 231
62 230
63 230
64 229
65 229
66 228
67 228
68 228
69 228
70 228
71 227
72 227
73 227
74 227
75 227
76 227
77 227
78 226
79 226
80 226
81 226
82 226
83 226
84 225
85 225
86 225
87 225
88 225
89 226
90 226
91 227
92 227
93 228
94 228
95 228
96 228
97 228
98 228
99 228
100 228
101 228
102 228
103 228
104 228
105 228
106 228
107 228
108 228
109 228
110 228
111 228
112 228
113 228
114 228
115 228
116 228
117 229
118 229
119 229
120 229
121 229
122 229
123 229
124 230
125 230
126 230
127 230
128 230
129 230
130 231
131 231
132 231
133 231
134 231
135 232
136 232
137 232
138 232
139 232
140 232
141 233
142 233
143 234
144 234
145 235
146 236
146 237
147 238
148 239
149 240
150 240
151 241
152 241
153 242
154 243
155 244
156 245
157 245
158 245
159 246
160 246
161 246
162 247
163 247
164 248
165 248
166 249
166 250
167 251
168 251
169 252
170 252
171 253
172 253
173 254
174 255
174 256
175 257
175 258
176 259
176 260
176 261
177 261
178 262
179 262
180 262
181 263
182 263
183 264
184 264
185 265
185 266
186 267
187 268
188 269
189 269
190 269
191 270
192 270
193 271
194 271
195 272
196 273
196 274
197 275
197 276
197 277
197 278
197 279
198 280
199 280
200 281
201 281
202 282
203 282
204 282
205 283
206 283
207 284
208 284
209 285
210 286
211 287
211 288
212 289
212 290
212 291
212 292
212 293
213 293
214 293
215 294
216 294
217 294
218 295
219 295
220 295
221 296
222 296
223 297
224 297
225 297
226 298
227 298
228 298
229 298
230 299
231 299
232 300
233 301
234 302
234 303
234 304
234 305
234 306
234 307
234 308
234 309
234 310
234 311
235 311
236 311
237 312
238 312
239 312
240 312
241 313
242 313
243 313
244 314
245 314
246 314
247 314
248 314
249 314
250 315
251 315
252 316
253 316
254 317
254 318
255 319
256 320
257 321
257 322
258 323
258 324
258 325
258 326
258 327
259 328
260 328
261 328
262 328
263 329
264 329
265 330
266 330
267 331
267 332
268 333
269 334
270 334
271 334
272 334
273 334
274 334
275 335
276 335
277 335
278 335
279 336
280 336
281 337
282 338
283 339
283 340
283 341
283 342
283 343
283 344
283 345
283 346
283 347
284 347
285 347
286 347
287 347
288 347
289 347
290 347
291 347
292 348
293 348
294 349
295 349
296 350
297 351
297 352
298 352
299 352
300 352
301 352
302 352
303 352
304 352
305 353
306 353
307 354
308 355
309 356
309 357
310 358
310 359
310 360
310 361
310 362
310 363
310 364
311 364
312 365
313 365
314 366
315 366
316 366
317 366
318 366
319 366
320 366
321 366
322 366
323 366
324 366
325 367
326 368
327 369
327 370
326 371
326 372
326 373
326 374
326 375
326 376
327 376
328 376
329 376
330 376
331 376
332 376
333 376
334 376
335 376
336 376
337 376
338 376
339 376
340 376
341 376
342 376
343 376
344 377
345 377
346 378
347 378
348 379
348 380
349 381
349 382
350 383
351 383
352 384
353 384
354 385
355 385
356 386
356 387
357 388
357 389
358 390
358 391
358 392
358 393
359 393
360 393
361 393
362 393
363 393
364 393
365 393
366 393
367 393
368 393
369 393
370 393
371 392
372 393
373 393
374 393
375 393
376 393
377 393
378 394
379 394
380 395
381 395
382 396
382 397
383 398
383 399
384 400
385 400
386 400
387 400
388 400
389 400
390 400
391 400
392 400
393 400
394 400
395 400
396 400
397 400
398 399
399 399
400 398
401 398
402 398
403 398
404 398
405 398
406 398
407 398
408 398
409 398
410 397
411 397
412 397
413 397
414 397
415 398
416 398
417 398
418 398
419 398
420 398
421 398
422 398
423 398
424 398
425 398
426 398
427 398
428 398
429 398
430 397
431 397
432 397
433 396
434 396
435 395
436 395
437 394
438 394
439 393
440 393
441 392
442 392
443 392
444 391
445 391
446 391
447 391
448 390
449 390
450 391
451 391
452 392
452 393
453 393
454 393
455 393
456 393
457 393
458 393
459 393
460 393
461 393
462 392
463 392
464 392
465 391
466 391
467 391
468 391
469 391
470 390
471 390
472 389
473 389
474 388
475 388
476 387
477 387
478 387
479 387
480 386
481 386
482 386
483 386
484 386
485 386
486 385
487 385
488 385
489 385
490 384
491 384
492 384
493 384
494 384
495 384
496 383
497 383
498 383
499 383
500 383
501 383
502 382
503 382
504 382
505 382
506 382
507 382
508 381
509 381
510 381
511 381
512 380
513 380
514 380
515 380
516 379
517 379
518 379
519 379
520 378
521 378
522 378
523 378
524 377
525 377
526 377
527 376
528 376
529 376
530 375
531 375
532 375
533 374
534 374
535 373
536 373
537 372
538 372
539 372
540 372
541 371
542 371
543 371
544 370
545 370
546 370
547 369
548 369
549 369
550 368
551 368
552 368
553 367
554 367
555 366
556 366
557 366
558 365
559 365
560 365
561 364
562 364
563 363
564 363
565 362
566 362
567 362
568 361
569 361
570 361
571 360
572 360
573 360
574 359
575 359
576 358
577 358
578 358
579 358
580 357
581 357
582 356
583 356
584 355
585 355
586 354
587 354
588 353
589 353
590 352
591 352
592 351
593 351
594 351
595 350
596 350
597 349
598 349
599 348
600 348
601 347
602 347
603 347
604 346
605 346
606 346
607 345
608 345
609 344
610 344
611 344
612 344
613 343
614 343
615 343
616 343
617 343
618 343
619 343
620 344
621 344
622 344
623 344
624 344
625 344
626 344
627 344
628 345
629 345
630 345
631 345
632 345
633 345
634 345
635 345
636 345
637 345
638 345
639 345
640 345
641 345
642 345
643 345
644 345
645 345
646 345
647 345
648 345
649 345
650 345
651 345
652 345
653 345
654 345
655 345
656 344
657 344
658 344
659 344
660 344
661 344
662 344
663 344
664 344
665 343
666 343
667 343
668 343
669 343
670 343
671 342
672 342
673 342
674 342
675 342
676 342
677 341
678 341
679 341
680 341
681 340
682 340
683 340
684 340
685 340
686 339
687 339
688 339
689 339
690 338
691 338
692 338
693 338
694 337
695 337
696 337
697 336
698 336
699 336
700 336
701 336
702 335
703 335
704 335
705 334
706 334
707 334
708 333
709 333
710 333
711 333
712 332
713 332
714 332
715 331
716 331
717 330
718 330
719 330
720 329
721 329
722 329
723 328
724 328
725 328
725 327
725 326
725 325
725 324
725 323
725 322
725 321
725 320
724 320
723 320
722 320
721 320
720 320
719 320
718 320
717 320
716 320
715 320
714 320
713 320
712 320
711 320
710 320
709 320
708 320
707 320
706 320
705 320
704 320
703 321
702 321
701 321
700 322
699 322
698 322
697 323
696 323
695 323
694 324
693 324
692 324
691 325
690 325
689 325
688 326
687 326
686 326
685 326
684 327
683 327
682 327
681 328
680 328
679 328
678 328
677 329
676 329
675 329
674 330
673 330
672 330
671 330
670 331
669 331
668 331
667 331
666 331
665 332
664 332
663 332
662 332
661 332
660 333
659 333
658 333
657 333
656 333
655 333
654 333
653 333
652 334
651 334
650 334
649 334
648 334
647 334
646 334
645 334
644 333
643 333
642 333
641 332
640 332
639 331
638 331
637 330
637 329
636 328
636 327
635 326
635 325
635 324
635 323
635 322
635 321
635 320
635 319
635 318
635 317
635 316
635 315
635 314
635 313
635 312
636 311
636 310
636 309
636 308
636 307
636 306
636 305
636 304
636 303
636 302
637 301
637 300
637 299
637 298
638 297
638 296
638 295
638 294
638 293
638 292
638 291
638 290
638 289
639 288
639 287
639 286
639 285
639 284
639 283
639 282
639 281
639 280
639 279
639 278
639 277
639 276
639 275
639 274
639 273
639 272
639 271
639 270
639 269
639 268
639 267
639 266
639 265
639 264
639 263
639 262
638 261
638 260
638 259
638 258
638 257
638 256
638 255
638 254
638 253
638 252
638 251
638 250
638 249
638 248
638 247
637 246
637 245
637 244
637 243
637 242
637 241
637 240
637 239
637 238
637 237
637 236
637 235
637 234
637 233
637 232
636 231
636 230
636 229
636 228
636 227
635 227
634 227
633 227
632 226
631 226
630 225
629 224
628 223
628 222
627 221
627 220
627 219
627 218
626 217
626 216
626 215
626 214
626 213
626 212
625 211
624 211
623 210
622 210
621 209
621 208
620 207
620 206
619 205
619 204
619 203
619 202
619 201
619 200
619 199
618 199
617 199
616 199
615 198
614 198
613 197
612 197
611 196
611 195
610 194
610 193
609 192
609 191
609 190
608 189
608 188
608 187
608 186
607 185
606 184
606 183
605 182
605 181
604 180
604 179
603 178
603 177
603 176
602 175
602 174
601 173
601 172
600 171
600 170
599 170
598 170
597 170
596 170
595 170
594 170
593 171
592 170
591 169
590 168
590 167
589 166
588 166
587 165
587 164
586 163
586 162
585 161
585 160
585 159
584 158
583 157
582 156
582 155
581 155
580 155
579 155
578 155
577 155
576 155
575 155
574 155
573 156
572 156
571 155
570 154
569 153
568 152
568 151
567 150
567 149
566 148
565 147
565 146
564 145
563 144
563 143
562 142
561 141
560 141
559 141
558 141
557 140
556 140
555 139
554 139
553 138
552 137
552 136
551 135
550 134
550 133
549 132
548 131
547 130
546 129
546 128
545 127
544 126
543 125
542 125
541 124
540 123
539 122
538 122
537 122
536 122
535 122
534 122
533 122
533 123
533 124
532 125
532 126
531 127
530 128
529 129
528 128
527 128
526 127
525 126
524 125
523 124
522 124
521 124
520 124
519 124
518 124
517 123
516 123
515 122
514 122
513 121
512 121
511 120
510 119
509 118
508 117
507 116
506 115
505 115
504 114
503 114
502 114
501 114
500 114
499 114
498 114
497 114
496 114
495 115
495 116
494 117
494 118
493 119
492 119
491 120
490 120
489 120
488 119
487 119
486 118
485 117
484 116
483 115
482 114
481 113
480 112
479 112
478 111
477 110
476 110
475 110
474 110
473 110
472 110
471 110
470 110
470 111
470 112
470 113
469 114
469 115
468 116
467 117
466 118
465 118
464 118
463 117
462 117
461 116
460 116
459 116
458 116
457 116
456 116
455 116
454 116
453 116
452 117
451 118
450 119
449 119
448 119
447 118
446 118
445 118
444 118
443 118
442 118
441 118
440 118
440 119
439 120
439 121
438 122
437 123
436 124
435 124
434 123
433 123
432 122
431 121
430 120
429 119
428 119
427 118
426 118
425 117
424 117
423 116
422 116
421 116
420 116
419 116
418 116
417 116
416 116
415 116
415 117
414 118
413 119
412 120
411 120
410 119
409 119
408 118
407 117
406 117
405 117
404 117
403 117
402 117
401 117
400 117
399 117
398 117
397 117
397 118
396 119
396 120
395 121
394 122
393 123
392 123
391 122
390 122
389 122
388 122
387 122
386 122
385 122
384 122
383 122
382 122
381 122
380 122
379 122
378 122
377 122
376 122
375 122
374 122
373 122
372 122
371 122
370 122
370 123
370 124
369 125
369 126
368 127
367 128
366 129
365 129
364 129
363 129
362 129
361 129
360 128
359 128
358 128
357 128
356 127
355 127
354 127
353 127
352 127
351 127
350 127
349 127
348 127
347 127
346 127
346 128
346 129
345 130
345 131
344 132
344 133
343 134
342 134
341 135
340 135
339 135
338 135
337 134
336 134
335 134
334 134
333 134
332 134
331 134
330 134
329 134
328 134
327 134
326 134
325 134
324 134
324 135
324 136
323 137
323 138
322 139
321 140
320 141
319 141
318 142
317 142
316 142
315 142
314 142
313 142
312 142
311 142
310 142
309 142
308 142
308 143
307 144
307 145
306 146
305 146
304 147
303 147
302 148
301 148
300 148
299 148
298 148
297 148
296 148
295 148
294 148
293 148
292 148
291 148
290 148
289 148
288 148
287 148
286 148
285 148
284 148
284 149
284 150
284 151
283 152
283 153
282 154
282 155
281 156
280 157
279 157
278 158
277 158
276 159
275 159
274 159
273 159
272 159
271 159
270 159
269 159
268 159
267 159
266 159
265 159
264 159
263 159
262 160
261 160
260 160
259 160
258 160
258 161
258 162
258 163
257 164
257 165
256 166
255 167
254 168
253 168
252 168
251 168
250 168
249 167
248 167
247 167
246 167
245 167
244 167
243 167
242 167
241 167
240 167
239 167
238 167
238 168
237 169
236 169
235 170
234 170
233 171
232 171
231 171
230 171
229 171
228 171
227 171
226 171
225 171
224 171
223 171
222 171
221 171
220 171
219 172
219 173
218 174
218 175
217 176
216 176
215 177
214 177
213 178
212 178
211 178
210 178
209 178
208 178
207 178
206 178
205 178
204 178
203 178
202 178
201 178
200 178
200 179
199 180
199 181
198 182
197 182
196 183
195 183
194 184
193 184
192 184
191 184
190 184
189 184
188 184
187 184
186 184
185 184
184 184
183 184
182 184
181 184
180 185
179 185
178 185
177 185
176 185
175 185
174 185
173 186
172 186
171 186
170 186
169 186
168 186
167 186
166 186
165 186
165 187
164 188
164 189
163 190
162 191
161 191
160 192
159 192
158 193
157 193
156 193
155 193
154 193
153 194
152 194
151 194
150 194
149 194
148 195
147 195
146 195
145 196
144 196
143 196
142 196
141 196
140 196
139 196
138 196
137 196
137 197
136 198
136 199
135 200
134 200
133 201
132 201
131 202
130 202
129 202
128 202
127 202
126 202
125 202
124 202
123 202
122 202
121 202
120 202
119 202
118 202
117 202
116 202
115 202
114 202
113 202
112 202
111 202
110 202
109 202
108 202
107 202
106 203
105 203
104 203
103 203
102 203
101 203
100 204
99 204
98 204
97 205
96 206
95 206
94 207
93 207
92 208
91 208
90 208
89 208
88 209
87 209
86 209
85 209
84 210
83 210
82 210
81 210
80 210
79 210
78 211
77 211
76 211
75 211
74 211
73 211
72 211
71 211
70 212
69 212
68 212
67 212
66 213
65 213
64 213
63 214
62 214
61 214
60 215
59 215
58 215
57 216
56 216
55 217
54 217
53 217
52 218
51 218
50 218
49 219
48 220
47 221
46 222
45 222
44 223
43 224
42 225
41 226
40 227
40 228
39 229
38 230
38 231
38 232
38 233
38 234
37 235
