60 276
60 277
60 278
60 279
60 280
61 280
62 280
63 280
64 281
65 281
66 281
67 281
68 281
69 281
70 281
71 281
72 281
73 281
74 282
75 282
76 282
77 282
78 282
79 283
80 283
81 283
82 283
83 283
84 284
85 284
86 284
87 284
88 285
89 285
90 285
91 285
92 285
93 286
94 286
95 287
96 287
97 287
98 288
99 288
100 289
101 289
102 290
103 290
104 290
105 291
106 291
107 291
108 292
109 292
110 293
111 293
112 294
113 294
114 295
115 295
116 296
117 296
118 297
119 297
120 298
120 299
121 300
121 301
122 302
123 302
124 303
125 303
126 303
127 303
128 304
129 304
130 304
131 304
132 305
133 305
134 306
135 306
136 307
137 307
138 308
139 309
140 309
141 310
142 310
143 311
144 311
145 312
145 313
146 314
147 314
148 315
149 315
150 315
151 315
152 316
153 316
154 316
155 317
156 317
157 317
158 318
159 318
160 318
161 319
162 319
163 320
164 320
165 320
166 320
167 320
168 321
169 321
170 321
171 321
172 321
173 322
174 322
175 322
176 322
177 323
178 323
179 324
180 324
181 325
182 325
183 325
184 325
185 325
186 325
187 325
188 325
189 325
190 325
191 325
192 325
193 325
194 325
195 325
196 325
197 325
198 325
199 325
200 325
201 325
202 325
203 325
204 325
205 325
206 325
207 325
208 325
209 325
210 325
211 325
212 325
213 325
214 325
215 325
216 325
217 325
218 325
219 325
220 325
221 325
222 324
223 324
224 324
225 324
226 323
227 323
228 323
229 322
230 322
231 322
232 322
233 321
234 321
235 321
236 320
237 320
238 320
239 319
240 319
241 319
242 318
243 318
244 318
245 317
246 317
247 316
248 316
249 315
250 315
251 314
252 314
253 314
254 313
255 313
256 312
257 312
258 312
259 311
260 311
261 310
262 310
263 309
264 309
265 308
266 308
267 308
268 309
268 310
267 311
267 312
266 313
266 314
265 315
264 315
263 316
262 317
261 318
260 319
259 320
258 321
257 322
257 323
256 324
255 325
254 326
253 327
252 328
252 329
251 330
250 331
249 332
248 333
247 334
246 335
245 336
244 337
244 338
243 339
242 340
242 341
241 342
241 343
240 344
240 345
239 346
238 347
237 348
237 349
236 350
236 351
235 352
234 353
233 354
233 355
232 356
232 357
231 358
231 359
230 360
230 361
229 362
229 363
228 364
227 365
227 366
226 367
226 368
225 369
225 370
224 371
224 372
223 373
223 374
222 375
222 376
222 377
221 378
221 379
221 380
220 381
220 382
220 383
219 384
219 385
219 386
219 387
218 388
218 389
217 390
217 391
216 392
216 393
215 394
215 395
215 396
215 397
215 398
215 399
215 400
215 401
215 402
215 403
216 403
217 404
218 404
219 404
220 404
221 404
222 404
223 404
224 404
225 404
226 404
227 403
228 403
229 403
230 403
231 402
232 402
233 401
234 401
235 400
236 400
237 399
238 399
239 398
240 398
241 398
242 398
243 397
244 397
245 396
246 395
247 395
248 394
249 393
250 393
251 392
252 391
253 390
254 390
255 389
256 388
257 387
258 386
259 385
260 385
261 384
262 383
263 382
264 382
265 381
266 380
267 380
268 379
269 379
270 378
271 378
272 377
273 377
274 377
275 376
276 376
277 375
278 375
279 374
280 374
281 373
282 373
283 372
284 372
285 371
286 370
287 370
288 369
289 368
290 367
291 366
292 365
293 365
294 364
295 363
296 362
297 361
298 360
299 359
300 359
301 358
302 357
303 356
304 355
305 354
306 353
307 352
308 351
309 350
310 349
311 348
312 347
313 346
314 345
315 344
316 343
317 342
317 341
318 340
319 339
320 338
321 337
322 336
322 335
323 334
324 333
325 332
325 331
326 330
326 329
327 328
328 327
328 326
329 325
330 324
330 323
330 322
331 321
331 320
332 319
332 318
333 317
333 316
334 315
334 314
334 313
335 312
335 311
335 310
335 309
335 308
336 307
336 306
336 305
336 304
336 303
336 302
336 301
336 300
336 299
336 298
336 297
336 296
336 295
336 294
336 293
336 292
336 291
336 290
336 289
336 288
336 287
336 286
336 285
337 284
337 283
338 282
339 282
340 281
341 281
342 280
343 280
344 280
345 280
346 280
347 280
348 280
349 280
350 280
351 280
352 280
353 280
354 279
355 279
356 279
357 279
358 279
359 279
360 279
361 279
362 279
363 279
364 279
365 279
366 278
367 278
368 278
369 278
370 278
371 278
372 278
373 278
374 278
375 278
376 278
377 278
378 278
379 278
380 278
381 278
382 278
383 278
384 278
385 278
386 278
387 278
388 278
389 278
390 278
391 278
392 278
393 278
394 278
395 278
396 278
397 278
398 278
399 278
400 278
401 278
402 279
403 280
404 281
403 282
402 283
401 284
400 284
399 285
398 285
397 285
396 286
395 286
394 287
393 287
392 288
391 288
390 289
389 290
388 291
387 292
386 293
385 294
384 295
383 296
382 297
381 298
380 299
379 299
378 300
377 301
376 302
375 303
374 303
373 304
372 305
371 306
370 306
369 307
368 308
367 309
366 310
365 311
364 312
363 313
363 314
362 315
361 316
360 316
359 317
358 318
357 319
356 320
355 321
354 322
354 323
353 324
353 325
352 326
352 327
351 328
350 329
349 330
349 331
348 332
347 333
346 334
346 335
346 336
345 337
345 338
344 339
344 340
343 341
343 342
342 343
341 344
341 345
340 346
339 347
339 348
338 349
337 350
337 351
336 352
336 353
335 354
334 355
334 356
333 357
333 358
332 359
332 360
331 361
331 362
331 363
331 364
330 365
330 366
329 367
329 368
328 369
328 370
327 371
327 372
326 373
326 374
325 375
324 376
323 377
323 378
322 379
321 380
320 381
320 382
319 383
318 384
317 385
317 386
316 387
315 388
314 389
313 389
312 390
312 391
312 392
312 393
312 394
312 395
312 396
313 396
314 396
315 396
316 396
317 396
318 396
319 396
320 396
321 396
322 396
323 395
324 394
325 394
326 393
327 393
328 392
329 392
330 391
331 391
332 391
333 391
334 391
335 390
336 390
337 390
338 389
339 389
340 388
341 388
342 387
343 387
344 387
345 386
346 386
347 386
348 385
349 385
350 384
351 384
352 384
353 383
354 383
355 383
356 383
357 383
358 383
359 382
360 382
361 382
362 381
363 381
364 380
365 380
366 380
367 379
368 379
369 379
370 378
371 378
372 377
373 377
374 377
375 377
376 376
377 376
378 376
379 375
380 375
381 374
382 374
383 374
384 373
385 373
386 372
387 372
388 371
389 371
390 370
391 370
392 369
393 369
394 368
395 368
396 367
397 367
398 366
399 366
400 366
401 366
402 366
403 366
404 365
405 365
406 364
407 364
408 363
409 362
410 361
411 361
412 360
413 360
414 359
415 358
416 357
417 357
418 356
419 355
420 354
421 354
422 353
423 353
424 352
425 352
426 351
427 351
428 351
429 351
430 351
431 351
432 350
433 349
434 348
434 347
435 346
436 345
437 344
437 343
438 342
439 341
440 340
441 339
441 338
441 337
441 336
442 335
442 334
443 333
443 332
444 331
444 330
445 329
445 328
446 327
447 326
447 325
448 324
448 323
449 322
449 321
449 320
449 319
450 318
450 317
450 316
450 315
451 314
451 313
451 312
451 311
451 310
451 309
451 308
452 307
452 306
452 305
452 304
452 303
452 302
453 301
453 300
453 299
453 298
453 297
453 296
453 295
453 294
453 293
453 292
453 291
453 290
453 289
454 288
454 287
454 286
454 285
454 284
454 283
454 282
455 281
455 280
456 279
456 278
457 277
458 277
459 276
460 276
461 275
462 275
463 275
464 276
465 276
466 276
467 276
468 277
469 277
470 277
471 277
472 277
473 277
474 277
475 278
476 278
477 278
478 278
479 278
480 278
481 278
482 279
483 279
484 279
485 279
486 279
487 279
488 279
489 279
490 279
491 280
492 280
493 280
494 280
495 280
496 280
497 280
498 281
499 281
500 281
501 281
502 281
503 281
504 282
505 282
506 282
507 282
508 282
509 282
510 283
511 283
512 283
513 283
514 283
515 283
516 283
517 284
518 284
519 284
520 284
521 284
522 285
523 285
524 285
525 285
526 285
527 285
528 285
529 285
530 285
531 285
532 285
533 285
534 285
535 285
536 286
537 286
538 287
539 287
540 287
541 287
542 287
543 287
544 287
545 287
546 287
547 287
548 287
549 287
550 287
551 287
552 287
553 288
554 288
555 289
556 289
557 289
558 289
559 289
560 290
561 290
562 290
563 290
564 290
565 291
566 291
567 291
568 291
569 291
570 291
571 291
572 291
573 291
574 292
575 292
576 292
577 292
578 292
579 292
580 292
581 292
582 292
583 292
584 292
585 292
586 292
587 292
588 293
589 293
590 293
591 294
592 294
593 294
594 294
595 294
596 294
597 294
598 294
599 294
600 294
601 295
602 295
603 295
604 295
605 295
606 295
607 296
608 296
609 296
610 296
611 296
612 296
613 296
614 296
615 297
616 297
617 297
618 297
619 297
620 297
621 297
622 298
623 298
624 298
625 298
626 298
627 298
628 298
629 298
630 299
631 299
632 299
633 299
634 299
635 299
636 299
637 300
638 300
639 300
640 300
641 300
642 300
643 300
644 300
645 300
646 301
647 301
648 301
649 301
650 301
651 301
652 301
653 302
654 302
655 302
656 302
657 302
658 302
659 303
660 303
661 303
662 303
663 303
664 303
665 304
666 304
667 304
668 304
669 304
670 304
671 305
672 305
673 305
674 305
675 305
676 305
677 305
678 306
679 306
680 306
681 306
682 306
683 306
684 307
685 307
686 307
687 307
688 307
689 307
690 308
691 308
692 308
693 308
694 308
695 309
696 309
697 309
698 309
699 309
700 309
701 310
702 310
703 310
704 310
705 310
706 310
707 310
708 310
709 310
710 310
711 310
712 310
713 310
714 310
715 310
716 310
717 310
717 309
717 308
717 307
717 306
717 305
717 304
717 303
716 303
715 303
714 303
713 303
712 303
711 303
710 303
709 303
708 303
707 303
706 303
705 303
704 303
703 303
702 303
701 303
700 303
699 303
698 303
697 303
696 303
695 303
694 303
693 303
692 303
691 303
690 303
689 303
688 302
687 302
686 302
685 302
684 302
683 302
682 302
681 301
680 301
679 301
678 301
677 301
676 301
675 301
674 300
673 300
672 300
671 300
670 300
669 300
668 300
667 300
666 300
665 299
664 299
663 299
662 299
661 299
660 298
659 298
658 298
657 298
656 298
655 298
654 298
653 298
652 298
651 297
650 297
649 297
648 297
647 297
646 297
645 297
644 296
643 296
642 296
641 296
640 296
639 296
638 296
637 295
636 295
635 295
634 295
633 295
632 295
631 295
630 295
629 294
628 294
627 294
626 294
625 294
624 294
623 294
622 294
621 293
620 293
619 293
618 293
617 293
616 293
615 293
614 293
613 292
612 292
611 292
610 292
609 292
608 292
607 292
606 292
605 292
604 292
603 291
602 291
601 291
600 291
599 291
598 291
597 291
596 291
595 290
594 290
593 290
592 290
591 290
590 290
589 290
588 290
587 290
586 290
585 289
584 289
583 289
582 289
581 289
580 289
579 289
578 288
577 288
576 288
575 288
574 288
573 288
572 288
571 288
570 288
569 288
568 288
567 288
566 287
565 287
564 287
563 287
562 286
561 286
560 286
559 286
558 286
557 286
556 286
555 286
554 285
553 285
552 285
551 285
550 285
549 285
548 284
547 284
546 284
545 284
544 284
543 284
542 283
541 283
540 283
539 283
538 283
537 283
536 283
535 283
534 282
533 282
532 282
531 282
530 282
529 282
528 282
527 281
526 281
525 281
524 281
523 281
522 281
521 280
520 280
519 280
518 280
517 279
516 279
515 279
514 279
513 279
512 279
511 278
510 278
509 278
508 278
507 278
506 278
505 278
504 277
503 277
502 277
501 277
500 277
499 276
498 276
497 276
496 276
495 276
494 276
493 276
492 276
491 276
490 275
489 275
488 275
487 275
486 275
485 275
484 274
483 274
482 274
481 274
480 274
479 274
478 274
477 273
476 273
475 273
474 273
473 273
472 273
471 273
470 273
469 272
468 272
467 272
466 272
465 272
464 272
463 272
462 271
461 271
460 270
459 270
458 269
457 269
456 268
456 267
455 266
455 265
454 264
454 263
454 262
454 261
453 260
453 259
453 258
453 257
452 256
452 255
452 254
451 253
451 252
451 251
451 250
451 249
451 248
452 247
452 246
453 245
453 244
454 243
454 242
454 241
454 240
454 239
455 238
455 237
455 236
455 235
455 234
455 233
455 232
455 231
455 230
455 229
455 228
455 227
455 226
455 225
455 224
455 223
455 222
455 221
455 220
455 219
455 218
455 217
455 216
454 215
454 214
454 213
454 212
454 211
454 210
453 209
453 208
453 207
452 206
452 205
452 204
451 203
451 202
451 201
450 200
450 199
450 198
450 197
450 196
449 195
449 194
449 193
448 192
448 191
448 190
447 189
447 188
446 187
446 186
445 185
445 184
444 183
444 182
443 181
442 180
442 179
441 178
440 177
440 176
439 175
439 174
438 173
438 172
437 171
437 170
436 169
436 168
435 167
435 166
434 166
433 166
432 166
431 166
430 166
429 166
428 166
427 167
426 167
425 168
424 168
423 168
422 167
421 167
420 166
419 165
418 165
417 164
416 163
415 162
414 161
414 160
413 159
412 158
411 157
410 156
409 155
408 154
407 153
406 152
405 152
404 152
403 152
402 152
401 152
400 151
399 151
398 150
397 150
396 149
395 148
394 147
393 147
392 146
391 145
390 145
389 144
388 144
387 143
386 142
385 142
384 141
383 140
382 139
381 138
380 138
379 137
378 137
377 136
376 136
375 135
374 135
373 134
372 134
371 133
370 132
369 131
368 130
367 130
366 129
365 128
364 128
363 127
362 126
361 126
360 125
359 124
358 123
357 123
356 122
355 121
354 120
353 120
352 119
351 118
350 117
349 117
348 116
347 116
346 115
345 114
344 113
343 112
342 112
341 111
340 111
339 111
338 111
337 111
336 111
335 111
334 111
334 112
334 113
334 114
334 115
335 116
335 117
336 118
337 119
338 120
339 121
340 122
341 123
341 124
342 125
342 126
343 127
344 128
344 129
345 130
345 131
346 132
346 133
347 134
347 135
348 136
348 137
348 138
349 139
349 140
349 141
349 142
349 143
349 144
350 145
350 146
350 147
350 148
350 149
351 150
351 151
351 152
351 153
351 154
351 155
351 156
351 157
352 158
352 159
352 160
352 161
352 162
352 163
352 164
352 165
352 166
353 167
353 168
353 169
353 170
353 171
353 172
353 173
353 174
354 175
354 176
355 177
355 178
355 179
356 180
356 181
356 182
357 183
357 184
357 185
357 186
357 187
357 188
357 189
357 190
357 191
357 192
357 193
358 194
358 195
359 196
359 197
360 198
360 199
361 200
362 201
362 202
363 203
363 204
364 205
364 206
365 207
365 208
366 209
366 210
367 211
367 212
368 213
369 214
369 215
370 216
371 217
372 218
372 219
373 220
374 221
374 222
375 223
375 224
376 225
376 226
377 227
377 228
377 229
378 230
379 231
380 232
381 233
382 234
383 235
384 236
385 237
386 238
387 239
388 240
389 241
390 242
391 243
392 244
393 245
394 246
395 246
396 247
397 248
398 249
399 250
400 251
401 251
402 251
403 251
404 251
405 251
406 251
407 251
408 251
409 251
410 251
411 252
412 252
413 253
414 253
415 254
416 254
417 255
417 256
418 257
418 258
419 259
420 259
421 260
422 260
423 260
424 260
425 261
426 261
427 261
428 261
429 261
430 261
431 261
432 261
433 261
434 261
435 261
436 261
437 261
438 261
439 261
440 261
441 260
442 260
443 260
444 260
445 260
446 260
447 261
448 261
449 262
449 263
450 264
450 265
450 266
450 267
449 268
449 269
448 270
447 270
446 271
445 271
444 272
443 272
442 272
441 273
440 273
439 273
438 273
437 274
436 274
435 274
434 274
433 274
432 274
431 274
430 274
429 274
428 274
427 274
426 275
425 275
424 275
423 275
422 275
421 275
420 275
419 275
418 275
417 275
416 275
415 275
414 275
413 275
412 275
411 275
410 275
409 275
408 275
407 275
406 275
405 276
404 276
403 276
402 276
401 276
400 276
399 276
398 276
397 276
396 276
395 276
394 276
393 276
392 276
391 276
390 276
389 276
388 276
387 276
386 276
385 276
384 276
383 276
382 276
381 277
380 277
379 277
378 277
377 277
376 277
375 277
374 277
373 277
372 277
371 277
370 277
369 277
368 277
367 277
366 277
365 278
364 278
363 278
362 278
361 278
360 278
359 278
358 278
357 278
356 278
355 278
354 278
353 278
352 278
351 278
350 278
349 278
348 278
347 278
346 278
345 278
344 278
343 278
342 278
341 278
340 278
339 277
338 277
337 276
336 276
335 275
335 274
334 273
334 272
333 271
333 270
333 269
333 268
333 267
333 266
333 265
333 264
333 263
332 262
332 261
332 260
332 259
332 258
331 257
331 256
331 255
330 254
330 253
330 252
329 251
329 250
328 249
328 248
327 247
327 246
326 245
326 244
325 243
324 242
323 241
322 240
321 239
321 238
320 237
320 236
319 235
319 234
318 233
318 232
317 231
317 230
317 229
316 228
316 227
315 226
314 225
314 224
313 223
312 222
311 221
310 220
309 219
308 218
308 217
307 216
306 215
306 214
305 213
305 212
304 211
303 210
302 209
302 208
301 207
300 206
299 205
298 204
297 203
296 202
295 201
294 201
293 200
292 199
291 199
290 198
289 197
288 197
287 196
286 195
285 194
284 194
283 193
282 193
281 192
280 192
279 191
278 191
277 190
276 190
275 189
274 189
273 188
272 188
271 187
270 186
269 186
268 185
267 185
266 184
265 184
264 183
263 183
262 182
261 182
260 181
259 181
258 180
257 180
256 179
255 178
254 178
253 177
252 177
251 176
250 176
249 175
248 175
247 175
246 174
245 174
244 173
243 173
242 173
241 172
240 172
239 171
238 171
237 170
236 170
235 169
234 169
233 168
232 168
231 168
230 167
229 167
228 167
227 167
226 167
225 167
224 167
223 167
222 167
221 167
220 167
219 167
218 167
218 168
218 169
218 170
218 171
218 172
219 172
220 173
221 173
222 174
223 174
224 175
225 176
225 177
226 178
227 179
227 180
228 181
228 182
229 183
229 184
230 185
231 186
231 187
232 188
232 189
233 190
233 191
234 192
234 193
234 194
235 195
235 196
236 197
236 198
236 199
237 200
237 201
238 202
238 203
239 204
239 205
240 206
240 207
241 208
241 209
242 210
242 211
243 212
243 213
244 214
244 215
245 216
246 217
246 218
247 219
247 220
248 221
249 222
249 223
250 224
250 225
251 226
251 227
252 228
253 229
254 230
255 231
256 232
256 233
257 234
258 235
258 236
259 237
260 238
261 239
262 240
263 241
264 242
265 243
266 243
267 244
268 245
269 246
270 247
271 248
272 249
273 250
274 251
275 252
276 253
277 254
278 254
279 255
280 256
281 257
282 257
283 258
284 259
285 259
286 259
287 260
288 260
289 261
290 261
291 262
292 263
293 264
293 265
294 266
293 267
293 268
292 269
291 269
290 269
289 268
288 268
287 267
286 266
285 266
284 265
283 264
282 264
281 263
280 263
279 262
278 261
277 260
276 260
275 259
274 259
273 258
272 258
271 257
270 257
269 256
268 256
267 255
266 254
265 254
264 253
263 253
262 252
261 251
260 251
259 250
258 250
257 249
256 249
255 249
254 249
253 249
252 249
251 249
250 249
249 249
248 249
247 249
246 249
245 249
244 248
243 247
242 246
242 245
241 244
241 243
241 242
240 241
239 241
238 241
237 241
236 240
235 240
234 240
233 240
232 239
231 239
230 239
229 238
228 238
227 237
226 237
225 237
224 236
223 236
222 236
221 236
220 236
219 236
218 236
217 236
216 235
215 235
214 235
213 235
212 235
211 234
210 234
209 234
208 234
207 234
206 234
205 234
204 234
203 234
202 234
201 234
200 234
199 234
198 234
197 234
196 234
195 234
194 234
193 234
192 234
191 234
190 234
189 234
188 234
187 234
186 234
185 234
184 234
183 234
182 234
181 234
180 234
179 234
178 234
177 234
176 235
175 235
174 235
173 235
172 235
171 235
170 235
169 235
168 235
167 235
166 235
165 236
164 236
163 236
162 236
161 236
160 236
159 236
158 237
158 238
157 239
157 240
156 241
155 241
154 242
153 242
152 243
151 243
150 243
149 243
148 243
147 244
146 244
145 245
144 245
143 246
142 246
141 247
140 247
139 248
138 248
137 248
136 248
135 249
134 249
133 250
132 250
131 251
130 252
129 253
128 254
127 255
126 255
125 256
124 256
123 257
122 257
121 258
120 258
119 259
118 259
117 260
116 260
115 261
114 261
113 262
112 263
111 264
110 265
109 266
108 266
107 267
106 267
105 268
104 268
103 268
102 269
101 269
100 269
99 270
98 270
97 271
96 271
95 271
94 272
93 272
92 272
91 273
90 273
89 274
88 274
87 274
86 274
85 274
84 274
83 274
82 274
81 274
80 275
79 275
78 275
77 275
76 275
75 275
74 275
73 275
72 275
71 275
70 276
69 276
68 276
67 276
66 276
65 276
64 276
63 276
62 276
61 276
60 276
