275 59
274 60
273 60
272 60
271 60
270 60
269 60
268 61
267 61
266 61
265 61
264 62
263 62
262 62
261 63
260 63
259 63
258 63
257 63
256 63
255 63
254 63
253 63
252 63
251 63
250 63
249 63
248 63
247 62
246 62
245 62
244 62
243 62
242 61
241 61
240 61
239 61
238 61
237 61
236 61
235 61
234 61
233 61
232 62
231 62
230 63
229 64
228 64
227 65
226 65
225 65
224 66
223 66
222 66
221 66
220 66
219 67
218 67
217 67
216 67
215 68
214 69
213 69
212 69
211 70
210 70
209 71
208 71
207 72
206 73
205 74
204 74
203 75
202 76
201 77
201 78
200 79
199 80
199 81
198 82
198 83
197 84
197 85
196 86
196 87
196 88
196 89
197 90
197 91
196 92
196 93
195 94
194 95
193 96
192 97
191 97
190 97
189 97
188 97
187 97
186 97
185 97
184 97
183 96
182 96
181 96
180 96
179 96
178 96
177 96
176 96
175 96
174 96
173 96
172 96
171 96
170 97
169 97
168 97
167 98
166 98
165 99
164 99
163 100
162 101
161 101
161 102
160 103
159 104
158 105
157 106
156 107
155 108
154 109
153 109
152 110
151 111
150 112
149 113
148 113
148 114
147 115
146 116
145 117
145 118
145 119
144 120
144 121
143 122
143 123
143 124
143 125
143 126
143 127
143 128
143 129
144 130
144 131
144 132
145 133
145 134
145 135
145 136
144 137
144 138
143 139
143 140
142 141
141 142
140 143
140 144
139 145
138 146
138 147
137 148
137 149
136 150
135 151
134 152
134 153
133 154
133 155
133 156
132 157
132 158
131 159
131 160
130 161
130 162
129 163
128 163
127 164
126 165
125 166
124 167
123 168
123 169
122 170
122 171
121 172
121 173
120 174
120 175
120 176
120 177
119 178
119 179
119 180
118 181
118 182
117 183
117 184
117 185
117 186
116 187
116 188
116 189
115 190
114 191
114 192
113 193
113 194
112 195
111 196
110 197
109 198
108 199
107 200
107 201
106 202
105 203
105 204
105 205
105 206
105 207
105 208
106 209
107 210
107 211
108 212
109 213
109 214
110 215
111 216
111 217
112 218
112 219
112 220
113 221
113 222
113 223
113 224
112 225
112 226
111 227
111 228
111 229
110 230
110 231
110 232
109 233
109 234
109 235
109 236
109 237
109 238
110 239
110 240
110 241
109 242
109 243
109 244
109 245
110 246
110 247
110 248
109 249
108 250
107 251
106 251
105 251
104 251
103 251
102 252
101 252
100 252
99 252
98 253
97 253
97 254
96 255
96 256
96 257
95 258
94 259
93 260
93 261
92 262
92 263
92 264
91 265
91 266
90 267
90 268
89 269
89 270
88 271
87 272
86 273
86 274
85 275
85 276
85 277
85 278
85 279
85 280
85 281
85 282
85 283
85 284
85 285
85 286
85 287
85 288
85 289
84 290
84 291
85 292
85 293
85 294
85 295
84 296
84 297
83 298
82 299
81 299
80 300
79 300
78 301
77 301
76 301
75 302
74 302
73 303
72 303
71 304
70 305
69 306
69 307
69 308
68 309
68 310
68 311
68 312
67 313
67 314
67 315
67 316
67 317
68 318
68 319
68 320
68 321
69 322
69 323
69 324
69 325
69 326
68 327
68 328
67 329
67 330
66 331
66 332
65 333
65 334
65 335
65 336
65 337
65 338
65 339
65 340
65 341
65 342
65 343
66 344
66 345
66 346
66 347
66 348
66 349
66 350
66 351
67 352
67 353
67 354
68 355
68 356
69 357
70 358
70 359
71 360
72 361
73 362
73 363
74 364
75 365
76 365
77 366
78 367
79 367
80 368
81 369
82 370
83 371
84 372
85 373
85 374
85 375
85 376
85 377
85 378
85 379
84 380
84 381
84 382
84 383
84 384
84 385
84 386
84 387
84 388
84 389
84 390
85 391
85 392
85 393
86 394
86 395
86 396
87 397
87 398
87 399
88 400
88 401
88 402
89 403
89 404
89 405
89 406
90 407
90 408
91 409
91 410
92 411
92 412
92 413
92 414
92 415
91 416
91 417
91 418
91 419
91 420
92 421
92 422
92 423
93 424
93 425
93 426
94 427
94 428
95 429
95 430
96 431
96 432
97 433
98 434
98 435
99 436
100 437
101 438
102 439
103 440
103 441
103 442
103 443
103 444
103 445
103 446
103 447
103 448
102 449
102 450
102 451
102 452
102 453
102 454
102 455
101 456
101 457
101 458
101 459
101 460
100 461
100 462
100 463
100 464
100 465
100 466
101 467
101 468
102 469
103 470
104 470
105 471
105 472
106 473
107 473
108 474
109 475
110 476
110 477
111 478
111 479
112 480
113 481
114 481
115 482
116 483
117 484
118 485
119 486
120 486
121 486
122 487
123 488
124 489
124 490
125 491
126 492
127 493
127 494
128 495
129 496
130 496
131 497
132 498
133 499
134 500
135 501
135 502
136 503
137 504
138 505
139 505
140 505
141 506
142 506
143 506
144 507
145 508
146 508
147 509
148 510
149 511
150 512
151 513
152 514
151 515
151 516
151 517
151 518
151 519
150 520
150 521
149 522
149 523
149 524
149 525
148 526
148 527
149 528
149 529
149 530
149 531
149 532
150 533
150 534
150 535
151 536
152 537
153 538
153 539
154 540
155 541
156 542
157 543
158 543
159 544
160 544
161 544
162 545
163 545
164 546
165 546
166 546
167 546
168 547
169 548
170 549
171 550
171 551
171 552
172 553
173 554
174 554
175 555
176 556
177 556
178 557
178 558
179 559
180 560
181 561
182 561
183 562
184 563
185 563
186 564
187 564
188 564
189 565
190 565
191 565
192 566
193 566
194 566
195 567
196 567
197 567
198 567
199 568
200 569
201 569
202 569
203 570
204 570
205 570
206 570
207 570
208 571
209 571
210 571
211 572
212 572
213 573
214 573
215 574
216 575
217 576
218 577
219 578
220 579
221 580
221 581
222 581
223 582
224 583
225 583
226 584
227 584
228 584
229 585
230 586
231 586
232 587
233 587
234 588
235 589
236 589
237 590
238 590
239 590
240 591
241 591
242 591
243 592
244 592
245 592
246 591
247 591
248 591
249 591
250 590
251 589
252 589
253 588
254 587
254 586
255 585
256 584
256 583
256 582
257 581
258 580
258 579
259 578
259 577
260 576
260 575
261 574
261 573
262 572
262 571
263 570
264 569
264 568
264 567
265 566
265 565
266 564
266 563
266 562
267 561
267 560
267 559
267 558
268 557
268 556
268 555
268 554
269 553
269 552
269 551
269 550
269 549
270 548
270 547
270 546
271 545
271 544
271 543
272 542
272 541
272 540
272 539
273 538
273 537
273 536
274 535
274 534
274 533
274 532
275 531
275 530
275 529
276 528
276 527
276 526
277 525
277 524
277 523
278 522
278 521
278 520
279 519
279 518
279 517
279 516
280 515
280 514
280 513
281 512
281 511
281 510
281 509
282 508
282 507
282 506
283 505
283 504
283 503
284 502
284 501
284 500
285 499
285 498
285 497
285 496
286 495
286 494
286 493
287 492
287 491
287 490
287 489
288 488
288 487
288 486
288 485
288 484
288 483
289 482
289 481
289 480
290 479
290 478
290 477
291 476
291 475
291 474
292 473
292 472
292 471
293 470
293 469
293 468
293 467
294 466
294 465
294 464
294 463
295 462
295 461
295 460
296 459
296 458
296 457
297 456
297 455
297 454
298 453
298 452
298 451
298 450
299 449
299 448
300 447
300 446
300 445
301 444
301 443
302 442
302 441
302 440
303 439
303 438
304 437
304 436
304 435
305 434
305 433
306 432
307 431
307 430
308 429
308 428
309 427
310 426
310 425
311 424
311 423
312 422
312 421
313 420
313 419
314 418
314 417
315 416
315 415
316 414
317 413
318 412
318 411
319 410
320 409
321 408
322 407
322 406
323 405
324 404
325 403
326 402
326 401
327 400
328 399
328 398
329 397
330 397
331 396
331 395
332 394
333 393
334 393
335 392
336 391
336 390
337 389
338 388
339 388
340 387
340 386
341 385
342 384
342 383
343 382
344 382
345 381
346 380
347 379
348 379
349 378
349 377
350 376
351 375
352 374
353 374
354 373
355 372
356 372
357 371
358 370
359 369
360 368
361 368
362 367
363 366
364 366
365 365
366 364
367 364
368 363
369 362
370 362
371 361
372 361
373 360
374 359
375 359
376 358
377 358
378 357
379 356
380 355
381 355
382 354
383 353
384 353
385 352
386 351
387 351
388 350
389 350
390 349
391 348
392 348
393 347
394 347
395 346
396 345
397 345
398 344
399 344
400 343
401 342
402 342
403 342
404 341
405 340
406 340
407 340
408 339
409 339
410 338
411 338
412 337
413 336
414 336
415 336
416 335
417 334
418 333
419 333
420 333
421 332
422 332
423 331
424 331
425 330
426 329
427 328
428 327
429 327
430 326
431 326
432 326
432 325
433 324
434 325
435 325
436 324
437 325
438 325
439 324
440 324
441 324
442 324
443 324
444 324
445 323
446 323
447 323
448 323
449 322
450 322
451 322
452 322
453 322
454 322
455 322
456 322
457 321
458 321
459 321
460 321
461 321
462 321
463 321
464 321
465 321
466 321
467 321
468 320
469 320
470 320
471 320
472 319
473 320
474 319
475 319
476 320
477 320
478 320
479 320
480 320
481 319
482 319
483 319
484 319
485 319
486 319
487 319
488 319
489 319
490 319
491 319
492 318
493 319
494 319
495 318
496 318
497 318
498 318
499 318
500 318
501 318
502 318
503 318
504 318
505 318
506 318
507 318
508 318
509 318
510 318
511 317
512 317
513 317
514 317
515 317
516 317
517 317
518 317
519 316
520 316
521 317
522 317
523 317
524 316
525 316
526 316
527 316
528 316
529 316
530 316
531 316
532 315
533 315
534 315
535 315
536 315
537 315
538 315
539 315
540 315
541 315
542 315
543 315
544 315
545 315
546 315
547 315
548 315
549 315
550 315
551 314
552 314
553 314
554 314
555 314
556 314
557 314
558 314
559 314
560 314
561 314
562 313
563 313
564 313
565 313
566 313
567 313
568 313
569 313
570 313
571 313
572 313
573 312
574 312
575 312
576 312
577 312
578 312
579 312
580 312
581 312
582 312
583 312
584 312
585 312
586 312
587 311
588 311
589 312
590 312
591 312
592 311
593 311
594 311
595 311
596 311
597 311
598 311
599 311
600 311
601 311
602 311
603 311
604 311
605 311
606 311
607 311
608 311
609 311
610 311
611 311
612 311
613 311
614 311
615 311
616 311
617 311
618 311
619 311
620 311
621 311
622 311
623 311
624 311
625 310
626 310
627 310
628 310
629 311
630 311
631 311
632 311
633 310
634 310
635 310
636 310
637 310
638 310
639 310
640 310
641 310
642 310
643 310
644 310
645 310
646 310
647 310
648 310
649 310
650 310
651 310
652 310
653 310
654 310
655 310
656 310
657 311
657 310
658 309
659 309
660 309
661 310
662 310
663 310
664 309
665 310
666 310
667 310
668 310
669 310
670 310
671 310
672 310
673 310
674 310
675 310
676 310
677 310
678 310
679 310
680 310
681 310
682 310
683 310
684 310
685 310
686 311
687 311
688 311
689 310
690 311
691 311
692 311
693 311
694 311
695 311
696 311
697 311
698 311
699 311
700 311
701 311
702 311
703 311
704 311
705 311
706 311
707 311
708 311
709 311
710 311
711 311
712 311
713 311
714 311
715 311
716 311
717 311
718 311
719 311
720 311
721 311
722 311
723 311
724 311
725 312
726 311
726 310
727 309
727 308
726 308
725 307
726 306
727 305
728 305
728 304
727 304
726 304
725 304
724 304
723 303
722 304
721 304
720 303
719 303
718 303
717 303
716 303
715 303
714 303
713 303
712 303
711 303
710 303
709 303
708 303
707 303
706 303
705 303
704 303
703 303
702 303
701 303
700 303
699 303
698 303
697 303
696 303
695 303
694 304
693 303
692 303
691 303
690 303
689 304
688 303
687 304
686 304
685 304
684 304
683 304
682 303
681 303
680 304
679 304
678 304
677 304
676 304
675 304
674 304
673 304
672 304
671 304
670 304
669 304
668 304
667 304
666 304
665 304
664 304
663 304
662 304
661 304
660 304
659 304
658 304
657 304
656 304
655 304
654 304
653 304
652 304
651 304
650 304
649 304
648 304
647 304
646 304
645 304
644 304
643 304
642 304
641 304
640 304
639 304
638 304
637 304
636 304
635 304
634 305
633 305
632 305
631 305
630 305
629 305
628 305
627 305
626 305
625 305
624 305
623 305
622 305
621 305
620 305
619 305
618 305
617 305
616 305
615 305
614 305
613 305
612 305
611 305
610 305
609 305
608 305
607 305
606 305
605 305
604 305
603 305
602 305
601 305
600 305
599 305
598 305
597 305
596 305
595 305
594 305
593 305
592 305
591 306
590 306
589 306
588 306
587 305
586 305
585 306
584 306
583 306
582 306
581 306
580 306
579 306
578 306
577 306
576 306
575 306
574 306
573 306
572 306
571 306
570 306
569 306
568 307
567 307
566 307
565 307
564 307
563 307
562 307
561 307
560 307
559 307
558 307
557 307
556 307
555 307
554 308
553 308
552 307
551 307
550 308
549 308
548 308
547 308
546 308
545 308
544 308
543 309
542 309
541 309
540 309
539 309
538 309
537 309
536 309
535 309
534 309
533 309
532 309
531 309
530 309
529 310
528 309
527 309
526 310
525 310
524 310
523 310
522 310
521 310
520 310
519 310
518 310
517 310
516 310
515 310
514 310
513 310
512 310
511 310
510 310
509 310
508 310
507 310
506 310
505 311
504 311
503 311
502 311
501 311
500 311
499 311
498 311
497 311
496 312
495 312
494 312
493 312
492 312
491 312
490 312
489 312
488 312
487 313
486 313
485 313
484 313
483 313
482 313
481 313
480 313
479 313
478 313
477 314
476 313
475 313
474 314
473 314
472 314
471 315
470 315
469 315
468 315
467 315
466 315
465 315
464 315
463 315
462 315
461 315
460 316
459 316
458 316
457 316
456 316
455 316
454 316
453 317
452 317
451 317
450 317
449 317
448 317
447 317
446 317
445 317
444 317
443 317
442 317
441 317
440 318
439 318
438 318
437 318
436 318
435 318
434 318
433 319
432 319
431 319
430 319
429 319
428 319
427 319
426 319
425 319
424 319
423 318
422 318
421 318
420 317
419 316
418 316
417 315
416 315
415 314
414 314
413 313
412 313
411 313
410 312
409 312
408 311
407 311
406 310
405 310
404 309
403 309
402 308
401 308
400 307
399 306
398 306
397 305
396 305
395 304
394 304
393 303
392 302
391 302
390 301
389 300
388 300
387 299
386 299
385 298
384 297
383 296
382 295
381 295
380 294
379 293
378 293
377 292
376 291
375 291
374 290
374 289
373 289
372 288
371 288
370 287
369 286
368 285
367 284
366 283
365 283
364 282
363 281
362 280
361 279
360 278
359 277
358 276
357 275
356 274
355 273
355 272
354 272
353 271
353 270
353 269
352 268
351 267
351 266
350 265
349 264
349 263
348 262
347 261
346 260
346 259
345 258
345 257
344 256
344 255
343 254
342 253
342 252
341 251
340 250
340 249
339 248
338 247
338 246
337 245
336 244
336 243
335 242
335 241
334 240
334 239
333 238
332 237
332 236
331 235
331 234
330 233
330 232
329 231
328 230
328 229
327 228
327 227
326 226
326 225
325 224
325 223
324 222
324 221
323 220
323 219
322 218
322 217
321 216
321 215
321 214
320 213
320 212
320 211
319 210
319 209
319 208
318 207
318 206
318 205
318 204
317 203
317 202
317 201
316 200
316 199
316 198
316 197
315 196
315 195
315 194
315 193
314 192
314 191
314 190
314 189
313 188
313 187
313 186
313 185
312 184
312 183
312 182
312 181
312 180
311 179
311 178
311 177
311 176
311 175
311 174
310 173
310 172
310 171
310 170
310 169
309 168
309 167
309 166
309 165
309 164
309 163
308 162
308 161
308 160
308 159
308 158
307 157
307 156
307 155
307 154
307 153
307 152
307 151
307 150
307 149
306 148
306 147
306 146
306 145
306 144
305 143
305 142
305 141
305 140
305 139
304 138
304 137
304 136
304 135
304 134
304 133
304 132
304 131
304 130
303 129
303 128
303 127
303 126
303 125
302 124
302 123
302 122
302 121
302 120
302 119
302 118
301 117
301 116
301 115
301 114
301 113
300 112
300 111
300 110
300 109
299 108
299 107
299 106
298 105
298 104
298 103
298 102
298 101
298 100
297 99
297 98
297 97
297 96
296 95
296 94
296 93
295 92
295 91
295 90
295 89
294 88
294 87
294 86
294 85
294 84
294 83
294 82
293 81
293 80
293 79
293 78
293 77
293 76
292 75
292 74
292 73
292 72
291 71
291 70
291 69
290 68
290 67
290 66
289 65
288 64
288 63
287 62
287 61
286 61
285 60
284 60
283 60
282 59
281 59
280 59
279 59
278 59
277 59
276 59
275 59
