332 47
332 48
332 49
332 50
332 51
332 52
332 53
332 54
332 55
332 56
332 57
332 58
332 59
332 60
332 61
331 62
330 62
330 63
331 64
331 65
331 66
332 67
332 68
332 69
332 70
332 71
332 72
332 73
332 74
332 75
332 76
333 77
333 78
333 79
333 80
333 81
333 82
333 83
333 84
333 85
333 86
332 87
332 88
332 89
332 90
333 91
333 92
333 93
333 94
333 95
333 96
334 97
334 98
334 99
334 100
334 101
334 102
334 103
335 104
335 105
335 106
335 107
335 108
335 109
335 110
335 111
335 112
335 113
335 114
335 115
334 116
333 116
333 117
333 118
334 119
334 120
334 121
334 122
334 123
334 124
333 125
333 126
334 127
334 128
335 129
335 130
335 131
335 132
336 133
336 134
336 135
336 136
336 137
337 138
336 139
335 139
334 139
334 140
335 141
335 142
335 143
336 144
337 145
337 146
337 147
338 148
338 149
338 150
338 151
339 152
339 153
339 154
340 155
340 156
340 157
340 158
340 159
340 160
339 161
338 161
338 162
339 163
339 164
339 165
340 166
340 167
341 168
341 169
341 170
342 171
342 172
343 173
343 174
343 175
344 176
344 177
343 178
342 178
342 179
343 180
343 181
343 182
344 183
344 184
345 185
345 186
345 187
346 188
346 189
346 190
347 191
347 192
347 193
348 194
348 195
348 196
348 197
348 198
348 199
349 200
349 201
350 202
350 203
351 204
351 205
352 206
353 207
353 208
353 209
354 210
355 211
355 212
356 213
356 214
357 215
357 216
357 217
358 218
358 219
359 220
359 221
360 222
360 223
361 224
362 225
362 226
363 227
364 228
364 229
365 230
366 231
366 232
367 233
368 234
369 235
370 236
370 237
371 238
372 239
373 240
374 241
374 242
375 243
376 244
377 245
378 246
379 247
380 248
381 249
381 250
382 251
383 252
384 253
385 254
386 255
387 255
388 256
389 257
390 258
391 259
392 260
393 260
394 261
395 262
396 263
396 264
395 265
394 266
393 266
392 266
391 266
390 266
389 266
388 266
387 266
386 266
385 266
384 265
383 265
382 265
381 265
380 265
379 265
378 265
377 265
376 265
375 265
374 265
373 265
372 265
371 265
370 265
369 265
368 264
367 264
366 264
365 264
364 264
363 264
362 264
361 264
360 264
359 264
358 264
357 264
356 264
355 264
354 264
353 264
352 265
351 265
350 265
349 265
348 265
347 265
346 265
345 265
344 265
343 265
342 265
341 265
340 265
339 265
338 265
337 265
336 265
335 265
334 266
333 266
332 266
331 266
330 266
329 266
328 266
327 266
326 266
325 266
324 266
323 266
322 266
321 266
320 266
319 266
318 266
317 266
316 266
315 266
314 266
313 266
312 265
311 264
310 263
310 262
310 261
310 260
310 259
310 258
310 257
310 256
310 255
310 254
310 253
309 252
309 251
309 250
309 249
308 248
308 247
308 246
307 245
307 244
307 243
306 242
306 241
306 240
305 239
305 238
305 237
304 236
304 235
304 234
303 233
302 232
302 231
301 230
301 229
300 228
300 227
299 226
299 225
298 224
298 223
297 222
297 221
296 220
295 219
295 218
294 217
293 216
293 215
292 214
291 213
290 212
289 211
288 210
288 209
287 208
287 207
286 206
285 205
284 204
284 203
283 202
282 201
281 200
281 199
280 198
279 197
278 196
277 195
276 194
275 193
274 192
273 191
272 190
271 189
271 188
270 187
269 186
268 185
267 184
267 183
266 182
265 181
264 180
263 180
262 179
261 178
260 177
259 176
258 175
257 174
256 173
255 172
254 171
253 170
252 169
251 168
250 167
249 166
248 165
247 164
246 163
245 162
244 161
243 161
242 160
241 159
240 158
239 157
238 156
237 155
237 154
236 153
235 152
235 151
234 150
233 150
232 150
231 149
230 148
229 148
228 147
227 146
226 145
225 144
224 143
223 142
222 141
221 140
220 139
219 138
218 137
217 137
216 137
215 137
214 136
213 136
212 135
211 134
210 134
209 133
208 132
207 131
206 131
205 130
204 129
203 129
202 129
201 128
200 127
199 127
198 126
197 125
196 124
195 123
194 122
193 121
192 122
191 122
190 121
189 121
188 120
187 120
186 119
185 118
184 117
183 116
182 115
181 114
180 113
180 112
179 112
178 113
177 113
176 113
175 113
174 112
173 112
172 111
171 111
170 110
169 109
168 108
167 108
166 107
165 107
164 106
163 105
162 104
161 104
160 103
159 102
158 101
157 100
156 100
155 100
154 100
153 99
152 98
151 98
150 97
149 97
148 96
147 95
146 94
145 93
144 93
144 94
144 95
144 96
144 97
144 98
145 99
145 100
146 101
146 102
146 103
147 104
147 105
148 106
149 107
149 108
149 109
149 110
149 111
149 112
150 113
150 114
151 115
151 116
152 117
153 118
153 119
154 120
155 121
155 122
156 123
156 124
156 125
157 126
157 127
157 128
157 129
156 130
157 131
158 132
159 133
160 134
161 135
161 136
162 137
162 138
163 139
163 140
163 141
164 142
165 143
166 144
167 145
168 146
169 147
170 148
171 149
172 150
173 151
173 152
174 153
174 154
173 155
172 156
172 157
173 158
174 159
175 160
176 161
177 162
177 163
178 164
178 165
179 166
180 167
181 168
182 169
182 170
183 171
183 172
183 173
184 174
185 175
185 176
184 177
185 178
186 179
187 180
188 181
189 181
190 182
190 183
191 183
192 184
193 185
193 186
194 187
195 188
196 189
196 190
197 191
198 192
199 193
200 194
201 194
202 195
202 196
203 197
204 198
204 199
205 199
206 200
207 201
208 202
209 202
210 203
210 204
211 205
212 206
212 207
213 208
214 209
215 210
216 211
217 212
218 213
219 214
220 215
221 215
222 216
223 217
224 218
225 219
226 220
227 221
228 222
229 223
230 224
231 225
232 226
233 227
234 228
235 229
236 229
237 230
238 231
239 231
240 232
241 233
242 233
243 234
244 235
244 236
245 236
246 237
247 238
248 239
249 240
250 240
251 241
252 241
253 242
254 243
255 244
256 244
257 245
258 246
259 246
260 247
261 247
262 248
263 249
264 249
265 250
266 251
267 251
268 252
269 253
270 253
271 254
272 254
273 255
274 255
275 256
276 256
277 257
278 257
279 258
280 258
281 259
282 259
283 260
284 260
285 260
286 261
287 261
288 261
289 262
290 262
291 262
292 263
293 263
294 263
295 264
296 264
297 264
298 265
299 265
300 265
301 266
301 267
300 268
299 268
298 268
297 268
296 268
295 268
294 268
293 268
292 268
291 268
290 268
289 268
288 268
287 267
286 267
285 267
284 267
283 267
282 267
281 267
280 266
279 266
278 266
277 266
276 266
275 265
274 265
273 265
272 265
271 264
270 264
269 264
268 264
267 263
266 263
265 263
264 263
263 263
262 263
261 262
260 262
259 262
258 262
257 261
256 261
255 261
254 261
253 261
252 261
251 261
250 261
249 261
248 260
247 260
246 260
245 260
244 260
243 259
242 259
241 259
240 259
239 259
238 258
237 258
236 258
235 258
234 258
233 257
232 257
231 257
230 257
229 257
228 257
227 257
226 257
225 257
224 256
223 256
222 256
221 256
220 256
219 255
218 255
217 255
216 255
215 255
214 255
213 255
212 255
211 255
210 254
209 254
208 254
207 254
206 254
205 254
204 254
203 253
202 253
201 253
200 253
199 253
198 253
197 253
196 253
195 253
194 253
193 253
192 253
191 253
190 253
189 253
188 253
187 253
186 253
185 252
184 252
183 252
182 252
181 252
180 252
179 251
178 251
177 251
176 251
175 251
174 251
173 251
172 250
171 250
170 251
169 252
168 252
167 252
166 252
165 252
164 252
163 252
162 252
161 252
160 252
159 252
158 252
157 253
156 254
155 254
154 255
153 255
152 255
151 256
150 256
149 256
148 256
147 257
146 257
145 257
144 257
143 257
142 258
141 258
140 258
139 258
138 259
137 259
136 259
135 259
134 259
133 260
132 260
131 260
130 260
129 260
128 261
127 261
126 262
125 263
124 263
123 264
122 264
121 264
120 265
119 265
118 265
117 265
116 265
115 266
114 266
113 266
112 267
111 267
110 267
109 267
108 267
109 268
108 269
107 269
106 270
105 270
104 271
103 271
102 271
101 272
100 272
99 272
98 272
97 272
96 272
95 273
94 273
93 273
92 273
91 273
90 274
89 274
88 275
87 276
86 276
85 277
84 278
83 278
82 279
81 279
80 279
79 279
78 280
77 280
76 280
75 280
74 281
73 282
72 283
71 284
70 284
69 284
68 285
67 285
66 285
65 286
64 286
64 287
63 288
62 289
61 289
60 290
59 290
58 291
57 291
56 291
55 291
54 291
53 292
52 292
51 292
50 292
49 292
48 292
47 292
46 293
46 294
45 295
44 296
43 297
42 297
41 298
40 298
39 299
38 299
37 300
36 301
36 302
37 303
38 303
39 304
40 304
41 305
42 304
43 304
44 304
45 304
46 305
47 305
48 305
49 306
50 306
51 307
52 306
53 306
54 306
55 306
56 306
57 307
58 307
59 307
60 308
61 309
61 310
62 310
63 309
64 309
65 309
66 309
67 309
68 309
69 309
70 310
71 310
72 310
73 310
74 311
75 311
76 312
77 312
78 312
79 312
80 312
81 312
82 312
83 312
84 312
85 312
86 313
87 313
88 313
89 314
90 314
91 315
92 316
93 316
94 316
95 316
96 316
97 316
98 316
99 316
100 316
101 316
102 317
103 317
104 317
105 318
106 318
107 318
108 318
109 318
110 318
111 318
112 318
113 318
114 319
115 319
116 320
117 319
118 319
119 319
120 319
121 319
122 319
123 319
124 318
125 318
126 318
127 318
128 318
129 318
130 318
131 318
132 319
133 319
134 319
135 320
136 320
137 320
138 320
139 320
140 320
141 320
142 320
143 320
144 320
145 320
146 320
147 320
148 320
149 320
150 321
151 321
152 321
153 320
154 320
155 320
156 320
157 320
158 320
159 320
160 320
161 320
162 320
163 320
164 321
165 321
166 321
167 320
168 320
169 320
170 320
171 320
172 320
173 320
174 320
175 320
176 320
177 320
178 320
179 320
180 320
181 319
182 319
183 319
184 319
185 319
186 319
187 318
188 318
189 318
190 318
191 318
192 318
193 318
194 317
195 317
196 317
197 317
198 316
199 316
200 316
201 316
202 315
203 315
204 315
205 315
206 315
207 314
208 314
209 314
210 313
211 313
212 313
213 312
214 312
215 312
216 311
217 311
218 310
219 310
220 309
221 309
222 308
223 308
224 308
225 307
226 307
227 307
228 306
229 306
230 306
231 306
232 305
233 305
234 305
235 304
236 304
237 304
238 303
239 303
240 303
241 302
242 302
243 301
244 301
245 300
246 300
247 300
248 299
249 299
250 298
251 298
252 298
253 297
254 297
255 297
256 296
257 296
258 296
259 295
260 295
261 294
262 294
263 293
264 293
265 292
266 292
267 291
268 290
269 290
270 289
271 288
272 288
273 287
274 287
275 286
276 286
277 285
278 285
279 284
280 284
281 284
282 283
283 283
284 282
285 282
286 281
287 281
288 282
287 283
286 284
285 285
284 286
283 287
282 288
281 289
280 290
279 290
278 291
278 292
277 293
276 294
275 295
274 296
273 297
272 298
271 299
270 300
269 301
268 302
267 303
266 304
265 305
265 306
264 307
263 308
262 309
261 310
260 311
259 312
258 313
257 314
257 315
256 316
255 317
254 318
254 319
253 320
252 321
252 322
251 323
250 324
249 325
249 326
248 327
247 328
246 329
245 330
245 331
244 332
243 333
242 334
242 335
242 336
241 337
241 338
240 339
240 340
239 341
239 342
238 343
237 344
237 345
236 346
235 347
235 348
235 349
235 350
235 351
234 352
234 353
233 354
233 355
232 356
232 357
231 358
230 359
229 360
228 361
227 362
228 363
229 364
229 365
229 366
229 367
228 368
228 369
227 370
227 371
226 372
226 373
225 374
225 375
224 376
225 377
224 378
224 379
224 380
223 381
223 382
222 383
222 384
221 385
220 386
219 387
219 388
218 389
217 390
217 391
217 392
218 393
218 394
217 395
217 396
217 397
217 398
216 399
216 400
216 401
215 402
215 403
214 404
214 405
213 406
213 407
213 408
213 409
213 410
213 411
212 412
212 413
212 414
211 415
211 416
210 417
210 418
210 419
209 420
209 421
209 422
208 423
208 424
208 425
207 426
207 427
206 428
205 429
204 430
204 431
205 431
206 432
205 433
205 434
205 435
205 436
205 437
204 438
204 439
203 440
203 441
203 442
202 443
202 444
201 445
201 446
200 447
200 448
199 449
199 450
198 451
198 452
199 453
199 454
199 455
199 456
199 457
199 458
198 459
198 460
198 461
198 462
197 463
197 464
197 465
197 466
196 467
196 468
195 469
196 470
197 471
197 472
197 473
197 474
197 475
197 476
197 477
197 478
197 479
197 480
196 481
196 482
196 483
196 484
196 485
196 486
196 487
196 488
197 488
198 488
199 488
200 487
201 486
202 485
202 484
203 483
204 482
205 481
205 480
206 479
207 478
208 477
209 477
210 477
211 477
212 476
213 476
214 475
215 474
215 473
216 472
217 471
217 470
218 469
219 468
220 467
221 466
222 465
223 464
224 464
225 464
226 463
227 462
228 461
228 460
229 459
230 458
230 457
231 456
232 455
233 454
233 453
234 452
235 451
236 450
237 449
238 448
239 448
240 447
241 446
241 445
242 444
243 443
244 442
245 441
246 440
247 440
247 439
248 438
249 438
249 437
250 436
251 435
251 434
252 433
252 432
253 431
254 430
255 429
256 428
257 427
258 427
259 426
259 425
260 424
260 423
261 422
262 421
262 420
263 419
264 418
264 417
265 416
266 415
267 414
268 414
269 413
269 412
270 411
270 410
271 409
271 408
272 407
272 406
273 405
273 404
274 403
275 402
275 401
276 400
277 399
277 398
278 397
278 396
279 395
279 394
279 393
280 392
280 391
281 390
281 389
281 388
282 387
282 386
283 385
284 384
285 383
285 382
285 381
286 380
286 379
286 378
286 377
287 376
287 375
288 374
288 373
289 372
289 371
290 370
290 369
290 368
291 367
291 366
292 365
292 364
292 363
293 362
293 361
294 360
294 359
295 358
295 357
296 356
296 355
297 354
297 353
298 352
298 351
299 350
299 349
299 348
300 347
300 346
301 345
301 344
302 343
302 342
303 341
303 340
303 339
304 338
304 337
305 336
305 335
305 334
306 333
306 332
306 331
306 330
307 329
307 328
307 327
307 326
307 325
308 324
308 323
308 322
308 321
308 320
309 319
309 318
309 317
309 316
310 315
310 314
310 313
310 312
310 311
310 310
310 309
310 308
310 307
310 306
311 305
311 304
311 303
311 302
311 301
311 300
311 299
311 298
311 297
311 296
311 295
312 294
312 293
312 292
312 291
312 290
312 289
312 288
312 287
312 286
312 285
312 284
312 283
312 282
312 281
312 280
312 279
312 278
311 277
311 276
311 275
311 274
311 273
312 272
313 272
314 271
315 271
316 271
317 271
318 271
319 271
320 271
321 271
322 271
323 271
324 271
325 271
326 271
327 271
328 271
329 270
330 270
331 270
332 270
333 270
334 270
335 270
336 270
337 270
338 270
339 270
340 270
341 270
342 270
343 270
344 270
345 270
346 270
347 270
348 270
349 270
350 270
351 270
352 270
353 270
354 270
355 270
356 270
357 270
358 270
359 270
360 270
361 270
362 270
363 270
364 270
365 270
366 270
367 270
368 270
369 270
370 270
371 270
372 270
373 270
374 270
375 270
376 270
377 270
378 271
379 271
380 271
381 271
382 271
383 271
384 271
385 271
386 271
387 271
388 271
389 271
390 271
391 272
392 272
393 272
394 272
395 272
396 273
396 274
395 275
394 276
393 276
392 277
391 278
390 278
389 279
388 279
387 280
386 280
385 281
384 282
383 282
382 283
381 283
380 284
379 285
378 285
377 286
376 286
375 287
374 288
373 288
372 289
371 290
370 290
369 291
368 292
367 293
366 293
365 294
364 295
363 296
362 297
361 298
360 299
359 300
358 301
357 301
356 302
355 303
354 304
353 305
352 306
351 307
350 308
349 309
348 310
348 311
347 312
346 313
345 314
344 315
343 316
342 317
341 318
340 319
339 320
338 321
337 322
337 323
336 324
335 325
335 326
335 327
335 328
334 329
334 330
333 331
333 332
332 333
332 334
331 335
330 336
330 337
329 338
329 339
328 340
328 341
327 342
327 343
326 344
325 345
325 346
325 347
325 348
324 349
324 350
324 351
324 352
323 353
323 354
322 355
322 356
322 357
322 358
322 359
322 360
322 361
321 362
321 363
321 364
320 365
320 366
320 367
319 368
318 369
318 370
318 371
319 372
319 373
318 374
318 375
318 376
318 377
317 378
317 379
317 380
316 381
316 382
316 383
315 384
315 385
314 386
314 387
313 388
313 389
313 390
312 391
312 392
311 393
311 394
310 395
310 396
309 397
309 398
309 399
308 400
308 401
309 401
310 402
310 403
310 404
310 405
310 406
309 407
309 408
309 409
309 410
308 411
308 412
308 413
307 414
307 415
307 416
306 417
306 418
306 419
306 420
305 421
305 422
305 423
305 424
305 425
304 426
304 427
304 428
304 429
303 430
303 431
302 432
303 432
304 433
304 434
304 435
304 436
304 437
304 438
304 439
304 440
304 441
304 442
303 443
303 444
303 445
303 446
303 447
303 448
303 449
302 450
302 451
302 452
302 453
302 454
301 455
301 456
301 457
301 458
300 459
300 460
300 461
300 462
300 463
301 464
301 465
301 466
301 467
301 468
301 469
301 470
301 471
301 472
301 473
301 474
301 475
301 476
301 477
302 478
302 479
302 480
302 481
302 482
302 483
302 484
302 485
302 486
302 487
302 488
303 489
303 490
303 491
303 492
303 493
303 494
303 495
304 495
305 494
306 493
306 492
307 491
307 490
308 489
308 488
309 487
310 486
310 485
311 484
312 484
313 483
313 482
313 481
314 480
314 479
315 478
315 477
316 476
316 475
317 474
318 473
319 472
320 471
321 471
321 470
321 469
321 468
322 467
322 466
322 465
323 464
324 463
324 462
325 461
325 460
326 459
327 458
328 457
329 456
330 455
330 454
330 453
331 452
331 451
332 450
332 449
333 448
333 447
334 446
335 445
336 444
337 444
338 443
339 442
339 441
340 440
340 439
341 438
342 437
342 436
343 435
344 434
345 433
346 432
347 431
348 430
349 429
350 429
351 429
351 428
352 427
352 426
353 425
353 424
353 423
354 422
354 421
355 420
355 419
356 418
356 417
357 416
357 415
358 414
358 413
359 412
360 411
361 410
362 410
363 410
364 409
365 408
365 407
366 406
366 405
367 404
368 403
368 402
369 401
369 400
370 399
371 398
371 397
372 396
373 395
373 394
374 393
375 392
375 391
376 390
377 389
377 388
378 387
379 386
380 385
381 384
381 383
382 382
382 381
383 380
383 379
384 378
384 377
385 376
385 375
386 374
387 373
387 372
388 371
389 371
389 370
389 369
390 368
390 367
391 366
391 365
391 364
392 363
393 362
393 361
393 360
394 359
394 358
395 357
395 356
395 355
396 354
396 353
396 352
397 351
397 350
398 349
398 348
398 347
399 346
399 345
399 344
400 343
400 342
401 341
401 340
401 339
402 338
402 337
402 336
403 335
403 334
403 333
404 332
404 331
404 330
404 329
405 328
405 327
405 326
405 325
405 324
405 323
406 322
406 321
406 320
406 319
406 318
407 317
407 316
407 315
407 314
407 313
407 312
407 311
407 310
407 309
408 308
408 307
408 306
408 305
408 304
407 303
407 302
407 301
407 300
407 299
407 298
407 297
407 296
407 295
406 294
406 293
406 292
406 291
406 290
405 289
405 288
405 287
405 286
404 285
404 284
404 283
403 282
403 281
403 280
402 279
402 278
402 277
402 276
401 275
401 274
402 273
403 273
404 272
405 272
406 272
407 272
408 272
409 272
410 272
411 272
412 272
413 272
414 272
415 272
416 272
417 272
418 272
419 272
420 272
421 272
422 273
423 273
424 273
425 273
426 273
427 273
428 273
429 273
430 273
431 273
432 274
433 274
434 274
435 274
436 274
437 274
438 274
439 274
440 274
441 275
442 275
443 275
444 275
445 275
446 275
447 275
448 275
449 275
450 275
451 275
452 276
453 276
454 276
455 276
456 276
457 276
458 276
459 277
460 277
461 277
462 277
463 277
464 277
465 277
466 277
467 278
468 278
469 278
470 278
471 278
472 278
473 279
474 279
475 279
476 279
477 279
478 279
479 279
480 280
481 280
482 280
483 281
482 282
482 283
481 284
480 285
479 286
478 287
477 288
476 289
475 289
474 290
473 291
472 292
471 293
470 293
469 294
468 295
467 295
466 296
465 296
464 297
463 298
462 299
461 299
460 300
459 301
458 302
457 303
456 304
455 305
454 306
453 306
453 307
452 308
451 309
450 309
449 310
449 311
448 312
447 313
446 314
445 315
445 316
444 317
443 318
443 319
442 320
441 321
441 322
440 323
440 324
439 325
439 326
438 327
437 328
437 329
436 330
436 331
435 332
434 333
434 334
433 335
434 336
433 337
433 338
433 339
432 340
432 341
432 342
431 343
431 344
430 345
430 346
429 347
429 348
428 349
428 350
428 351
428 352
429 353
429 354
428 355
428 356
428 357
428 358
427 359
427 360
426 361
426 362
426 363
426 364
425 365
425 366
425 367
425 368
424 369
424 370
425 371
426 371
427 372
426 373
427 374
427 375
427 376
426 377
426 378
426 379
426 380
425 381
425 382
425 383
424 384
424 385
423 386
423 387
423 388
423 389
424 390
423 391
423 392
423 393
423 394
423 395
423 396
423 397
422 398
422 399
422 400
422 401
422 402
422 403
421 404
421 405
422 405
423 406
423 407
423 408
423 409
423 410
423 411
423 412
423 413
422 414
422 415
422 416
422 417
421 418
421 419
421 420
421 421
421 422
422 423
422 424
422 425
422 426
422 427
421 428
421 429
421 430
421 431
420 432
419 433
419 434
419 435
420 436
420 437
420 438
420 439
420 440
419 441
419 442
419 443
418 444
418 445
418 446
417 447
417 448
416 449
416 450
416 451
417 452
416 453
416 454
416 455
416 456
416 457
415 458
415 459
414 460
414 461
414 462
414 463
414 464
414 465
414 466
414 467
414 468
414 469
414 470
414 471
414 472
414 473
414 474
414 475
415 475
416 475
417 474
418 473
419 473
420 472
421 472
422 471
423 470
424 469
425 468
425 467
426 466
427 465
427 464
428 463
429 462
430 461
431 460
432 459
433 459
434 460
435 460
435 459
435 458
436 457
436 456
437 455
438 454
439 453
440 452
441 451
442 450
443 449
444 448
445 448
446 448
446 447
447 446
447 445
448 444
448 443
449 442
449 441
449 440
450 439
450 438
451 437
451 436
452 435
452 434
453 433
454 432
455 431
456 431
457 430
458 430
459 429
459 428
460 427
461 426
461 425
462 424
463 423
463 422
464 421
464 420
465 419
466 418
466 417
467 416
468 415
468 414
469 413
470 413
470 412
471 411
471 410
471 409
472 408
473 407
473 406
474 405
475 404
475 403
476 402
477 401
478 400
479 399
479 398
480 397
480 396
480 395
481 394
481 393
481 392
482 391
482 390
483 389
483 388
483 387
484 386
485 385
485 384
485 383
485 382
485 381
486 380
486 379
486 378
486 377
486 376
487 375
487 374
488 373
488 372
488 371
489 370
489 369
490 368
490 367
491 366
492 365
492 364
492 363
493 362
494 361
494 360
494 359
494 358
494 357
494 356
494 355
494 354
494 353
493 352
494 351
494 350
494 349
494 348
494 347
494 346
494 345
494 344
494 343
494 342
494 341
494 340
494 339
494 338
494 337
494 336
495 335
495 334
495 333
495 332
495 331
495 330
495 329
495 328
495 327
495 326
495 325
495 324
495 323
495 322
495 321
495 320
495 319
494 318
494 317
494 316
494 315
494 314
494 313
493 312
493 311
493 310
492 309
492 308
492 307
491 306
491 305
491 304
491 303
490 302
490 301
490 300
489 299
489 298
489 297
489 296
488 295
488 294
488 293
488 292
488 291
488 290
488 289
488 288
488 287
487 286
487 285
487 284
488 283
489 283
490 282
491 282
492 282
493 282
494 282
495 282
496 282
497 282
498 282
499 282
500 282
501 283
502 283
503 283
504 283
505 283
506 283
507 283
508 283
509 283
510 284
511 284
512 284
513 284
514 284
515 284
516 284
517 284
518 284
519 285
520 285
521 285
522 285
523 285
524 285
525 285
526 285
527 285
528 286
529 286
530 286
531 286
532 286
533 286
534 286
535 286
536 286
537 286
538 286
539 286
540 286
541 286
542 286
543 286
544 286
545 286
546 286
547 286
548 286
549 286
550 286
551 287
552 287
553 287
554 287
555 287
556 287
557 287
558 287
559 287
560 287
561 287
562 287
563 287
564 287
565 287
566 287
567 287
568 287
569 287
570 287
571 287
572 287
573 288
574 289
573 290
572 291
572 292
571 293
570 294
569 295
568 296
567 297
566 297
565 298
564 299
563 300
562 301
561 302
560 303
559 304
558 304
557 305
556 306
555 307
554 308
553 309
552 310
551 311
550 312
549 313
548 314
547 315
547 316
546 317
545 318
544 319
543 320
542 321
542 322
541 323
540 324
540 325
539 326
538 327
538 328
537 329
537 330
536 331
536 332
535 333
535 334
534 335
534 336
533 337
533 338
533 339
533 340
532 341
532 342
531 343
531 344
531 345
531 346
532 347
531 348
531 349
531 350
531 351
530 352
530 353
530 354
529 355
529 356
530 357
530 358
530 359
530 360
530 361
529 362
529 363
529 364
529 365
529 366
528 367
528 368
528 369
529 370
529 371
528 372
528 373
528 374
528 375
528 376
528 377
528 378
528 379
528 380
528 381
528 382
528 383
528 384
527 385
527 386
527 387
527 388
527 389
528 389
529 390
530 391
530 392
530 393
530 394
530 395
529 396
529 397
529 398
529 399
529 400
528 401
528 402
528 403
529 404
529 405
529 406
529 407
529 408
529 409
529 410
529 411
529 412
529 413
530 414
531 415
531 416
531 417
531 418
531 419
531 420
531 421
531 422
531 423
531 424
531 425
531 426
531 427
531 428
532 428
533 429
533 430
533 431
534 432
534 433
534 434
534 435
534 436
534 437
534 438
535 438
536 438
537 437
538 437
539 436
539 435
540 434
540 433
541 432
541 431
542 430
542 429
543 428
544 427
545 426
546 426
546 425
547 424
547 423
548 422
548 421
548 420
549 419
550 418
551 417
552 417
552 416
552 415
553 414
553 413
553 412
554 411
555 410
555 409
556 408
556 407
557 406
557 405
558 404
558 403
559 402
560 401
561 400
562 399
563 398
564 397
564 396
565 395
566 394
567 393
568 392
569 391
569 390
570 389
570 388
571 387
571 386
572 385
573 384
573 383
574 382
575 381
576 380
577 379
577 378
577 377
578 376
579 375
579 374
580 373
580 372
581 371
582 370
583 369
584 369
584 368
584 367
584 366
585 365
585 364
585 363
586 362
586 361
587 360
588 359
589 358
589 357
589 356
589 355
589 354
589 353
589 352
589 351
589 350
589 349
590 348
590 347
590 346
590 345
590 344
590 343
590 342
590 341
590 340
590 339
590 338
590 337
590 336
589 335
589 334
589 333
589 332
589 331
588 330
588 329
588 328
588 327
588 326
587 325
587 324
587 323
587 322
586 321
586 320
586 319
585 318
585 317
585 316
585 315
584 314
584 313
584 312
583 311
583 310
583 309
582 308
582 307
581 306
581 305
580 304
580 303
580 302
579 301
579 300
579 299
578 298
578 297
577 296
577 295
577 294
577 293
577 292
577 291
578 290
579 289
580 289
581 288
582 288
583 288
584 288
585 288
586 288
587 288
588 287
589 287
590 287
591 287
592 287
593 287
594 287
595 287
596 287
597 286
598 286
599 286
600 286
601 286
602 286
603 286
604 286
605 286
606 286
607 286
608 286
609 286
610 286
611 286
612 286
613 286
614 286
615 286
616 286
617 286
618 286
619 286
620 285
621 285
622 285
623 285
624 285
625 285
626 285
627 285
628 285
629 285
630 285
631 285
632 285
633 285
634 285
635 285
636 285
637 285
638 285
639 285
640 285
641 285
642 285
643 285
644 285
645 285
646 285
647 284
648 284
649 284
650 284
651 284
652 284
653 284
654 284
655 284
656 284
657 284
658 284
659 284
660 284
661 284
662 283
663 283
664 283
665 283
666 283
667 283
668 283
669 283
670 283
671 283
672 283
673 283
674 283
675 283
676 283
677 282
678 282
679 282
680 282
681 282
682 282
683 282
684 282
685 282
686 281
687 281
688 281
689 281
690 281
691 281
692 281
693 281
694 281
695 281
696 281
697 280
698 280
699 280
700 280
701 280
702 280
703 280
704 280
705 279
706 279
707 279
708 279
709 279
710 279
711 279
712 279
713 278
714 278
715 278
716 278
717 278
718 278
719 278
720 278
721 277
722 277
723 277
724 277
725 277
726 277
727 277
728 276
729 276
730 276
731 276
732 276
733 276
734 276
735 276
736 276
737 275
738 275
739 275
740 275
741 275
742 275
743 275
744 275
745 275
746 274
747 273
748 272
749 271
750 270
750 269
750 268
750 267
750 266
749 265
748 264
747 264
746 264
745 264
744 264
743 264
742 264
741 264
740 264
739 264
738 264
737 264
736 265
735 265
734 265
733 265
732 265
731 266
730 266
729 266
728 267
727 267
726 268
725 268
724 268
723 269
722 269
721 269
720 270
719 270
718 270
717 270
716 270
715 270
714 271
713 271
712 271
711 271
710 271
709 271
708 271
707 272
706 272
705 272
704 272
703 272
702 272
701 272
700 272
699 273
698 273
697 273
696 273
695 273
694 273
693 273
692 273
691 273
690 274
689 274
688 274
687 274
686 274
685 274
684 274
683 274
682 275
681 275
680 275
679 275
678 275
677 275
676 275
675 275
674 275
673 275
672 276
671 276
670 276
669 276
668 276
667 276
666 276
665 276
664 276
663 276
662 276
661 277
660 277
659 277
658 277
657 277
656 277
655 277
654 277
653 277
652 277
651 277
650 277
649 277
648 277
647 277
646 278
645 278
644 278
643 278
642 278
641 278
640 278
639 278
638 278
637 278
636 278
635 278
634 278
633 278
632 278
631 278
630 278
629 279
628 279
627 279
626 279
625 279
624 279
623 279
622 279
621 279
620 279
619 279
618 279
617 279
616 279
615 279
614 279
613 279
612 279
611 279
610 279
609 280
608 280
607 280
606 280
605 280
604 280
603 280
602 280
601 280
600 280
599 280
598 280
597 280
596 280
595 280
594 279
593 278
592 277
591 276
590 275
590 274
590 273
590 272
590 271
590 270
590 269
590 268
591 267
591 266
591 265
591 264
592 263
592 262
592 261
592 260
592 259
593 258
593 257
593 256
593 255
593 254
594 253
594 252
594 251
594 250
594 249
594 248
594 247
594 246
595 245
595 244
595 243
595 242
595 241
595 240
595 239
595 238
595 237
595 236
595 235
595 234
596 233
596 232
596 231
596 230
596 229
596 228
596 227
596 226
596 225
596 224
596 223
596 222
596 221
596 220
595 219
595 218
595 217
595 216
595 215
595 214
595 213
595 212
595 211
595 210
595 209
594 209
593 208
593 207
592 206
592 205
592 204
592 203
591 202
591 201
591 200
590 199
590 198
589 197
588 196
588 195
588 194
587 193
587 192
586 191
586 190
586 189
585 188
585 187
584 186
583 187
582 186
581 185
581 184
580 183
580 182
579 181
578 180
578 179
577 178
577 177
576 176
576 175
575 174
574 173
573 172
572 171
571 170
570 169
570 168
569 167
569 166
569 165
568 164
567 165
566 166
565 165
564 164
563 163
562 162
561 161
560 160
559 160
558 159
557 158
556 158
555 157
554 157
553 158
553 159
552 160
551 159
550 159
549 158
548 158
547 157
546 156
545 155
544 154
543 154
542 153
541 152
540 151
540 150
539 149
538 148
537 148
536 149
536 150
536 151
536 152
536 153
536 154
536 155
536 156
536 157
536 158
536 159
536 160
536 161
536 162
536 163
536 164
537 165
536 166
535 166
534 167
535 168
535 169
535 170
535 171
535 172
535 173
535 174
534 175
534 176
534 177
534 178
534 179
533 180
532 180
532 181
532 182
532 183
532 184
532 185
532 186
532 187
532 188
532 189
532 190
532 191
532 192
532 193
532 194
532 195
532 196
532 197
531 198
530 197
529 198
529 199
530 200
530 201
530 202
530 203
530 204
530 205
530 206
531 207
531 208
532 209
532 210
532 211
533 212
533 213
533 214
534 215
534 216
535 217
535 218
534 219
533 220
532 220
532 221
533 222
533 223
533 224
534 225
534 226
534 227
534 228
534 229
534 230
534 231
534 232
535 233
535 234
535 235
536 236
537 237
537 238
538 239
537 240
537 241
538 242
539 243
539 244
540 245
541 246
541 247
542 248
543 248
544 249
544 250
545 250
546 251
547 252
548 253
549 253
550 254
551 255
552 255
553 256
554 257
555 258
556 258
557 259
558 260
559 261
560 262
561 262
562 263
563 264
564 265
565 265
566 266
567 266
568 267
569 268
570 269
571 269
572 270
573 271
574 271
575 271
576 272
577 272
578 272
579 272
580 273
581 274
582 274
583 275
584 275
585 276
586 277
587 278
588 279
587 280
586 281
585 281
584 281
583 281
582 281
581 281
580 281
579 281
578 281
577 281
576 281
575 281
574 282
573 282
572 282
571 282
570 282
569 282
568 282
567 282
566 282
565 281
564 281
563 281
562 281
561 281
560 281
559 281
558 281
557 281
556 281
555 281
554 281
553 281
552 281
551 281
550 281
549 281
548 281
547 281
546 281
545 281
544 281
543 281
542 281
541 281
540 281
539 281
538 281
537 281
536 281
535 281
534 281
533 281
532 281
531 281
530 281
529 281
528 280
527 280
526 280
525 280
524 280
523 280
522 280
521 280
520 280
519 280
518 279
517 279
516 279
515 279
514 279
513 279
512 279
511 279
510 278
509 278
508 278
507 278
506 278
505 278
504 277
503 277
502 277
501 277
500 277
499 277
498 276
497 276
496 276
495 276
494 276
493 276
492 275
491 275
490 274
490 273
489 272
488 271
489 270
489 269
489 268
490 267
490 266
490 265
490 264
491 263
491 262
491 261
492 260
492 259
493 258
493 257
493 256
494 255
495 255
494 254
495 253
496 252
496 251
497 250
497 249
498 248
498 247
498 246
499 245
499 244
500 243
500 242
500 241
501 240
501 239
501 238
502 237
502 236
502 235
503 234
503 233
503 232
503 231
504 230
504 229
504 228
504 227
504 226
504 225
504 224
505 223
505 222
505 221
505 220
506 219
506 218
506 217
506 216
506 215
507 214
507 213
507 212
507 211
508 210
508 209
508 208
508 207
508 206
508 205
508 204
507 203
507 202
507 201
507 200
507 199
507 198
507 197
507 196
507 195
507 194
507 193
507 192
507 191
507 190
507 189
507 188
507 187
506 187
505 186
505 185
505 184
505 183
504 182
504 181
504 180
504 179
504 178
504 177
504 176
504 175
504 174
504 173
504 172
504 171
503 171
502 170
502 169
501 168
501 167
501 166
501 165
500 164
500 163
500 162
499 163
498 162
498 161
497 160
497 159
496 158
496 157
495 156
495 155
494 154
494 153
493 152
493 151
492 150
492 149
491 149
490 150
489 149
488 148
487 147
486 146
486 145
485 144
484 143
483 142
483 141
482 140
481 139
480 138
480 137
479 136
478 137
477 137
476 136
475 135
474 134
474 133
473 132
473 131
473 130
472 129
472 128
471 127
471 126
471 125
470 125
469 124
468 123
468 122
467 121
467 120
467 119
466 118
466 117
465 116
465 115
464 114
464 113
463 112
463 111
462 110
462 109
461 110
460 111
459 110
458 109
458 108
457 107
456 106
456 105
455 104
455 103
454 102
454 101
453 100
452 99
452 98
451 97
451 96
450 95
450 94
449 93
448 92
448 91
448 90
447 89
447 88
446 87
445 88
444 89
444 90
444 91
443 92
443 93
443 94
443 95
443 96
442 97
442 98
442 99
442 100
442 101
442 102
442 103
441 104
441 105
441 106
441 107
441 108
441 109
440 110
439 110
439 111
439 112
439 113
439 114
439 115
439 116
439 117
439 118
439 119
439 120
439 121
439 122
439 123
439 124
439 125
439 126
439 127
439 128
438 129
438 130
438 131
438 132
438 133
437 134
436 135
435 135
435 136
435 137
435 138
435 139
435 140
435 141
435 142
435 143
435 144
435 145
435 146
435 147
435 148
435 149
435 150
435 151
435 152
435 153
435 154
434 155
433 155
432 156
432 157
432 158
433 159
432 160
432 161
432 162
432 163
432 164
432 165
432 166
432 167
432 168
433 169
432 170
431 171
431 172
432 173
432 174
432 175
432 176
432 177
433 178
433 179
433 180
433 181
433 182
432 183
431 184
432 185
432 186
432 187
433 188
433 189
434 190
434 191
434 192
435 193
435 194
435 195
435 196
435 197
435 198
435 199
435 200
435 201
434 202
433 202
433 203
434 204
434 205
435 206
435 207
436 208
436 209
436 210
437 211
437 212
437 213
438 214
437 215
437 216
438 217
439 218
439 219
440 220
441 221
441 222
441 223
442 224
443 225
443 226
444 227
444 228
445 229
445 230
446 231
446 232
447 233
447 234
448 235
449 236
450 237
450 238
451 239
452 240
453 241
454 242
455 243
455 244
456 244
457 245
458 246
458 247
459 248
460 248
461 249
461 250
462 251
463 252
464 253
465 254
465 255
466 255
467 256
468 257
469 258
470 259
471 260
472 261
473 262
474 263
475 264
476 265
477 266
478 267
479 268
480 268
481 269
482 270
483 271
483 272
483 273
482 274
481 274
480 274
479 274
478 274
477 274
476 274
475 274
474 274
473 273
472 273
471 273
470 273
469 273
468 273
467 273
466 273
465 273
464 272
463 272
462 272
461 272
460 272
459 272
458 272
457 272
456 271
455 271
454 271
453 271
452 271
451 271
450 271
449 271
448 270
447 270
446 270
445 270
444 270
443 270
442 270
441 270
440 270
439 270
438 269
437 269
436 269
435 269
434 269
433 269
432 269
431 269
430 269
429 269
428 268
427 268
426 268
425 268
424 268
423 268
422 268
421 268
420 267
419 267
418 267
417 267
416 267
415 267
414 267
413 267
412 267
411 267
410 267
409 267
408 266
407 266
406 266
405 266
404 266
403 265
402 264
402 263
402 262
403 261
403 260
403 259
403 258
404 257
404 256
405 255
405 254
405 253
406 252
406 251
407 250
407 249
407 248
408 247
408 246
409 245
409 244
409 243
410 242
410 241
410 240
411 239
411 238
411 237
411 236
411 235
412 234
412 233
412 232
412 231
412 230
412 229
413 228
413 227
413 226
413 225
413 224
413 223
413 222
414 221
414 220
413 219
414 218
414 217
414 216
414 215
414 214
414 213
414 212
414 211
414 210
414 209
414 208
414 207
414 206
414 205
414 204
414 203
414 202
414 201
413 200
413 199
413 198
413 197
413 196
413 195
413 194
413 193
413 192
412 191
412 190
412 189
412 188
412 187
412 186
412 185
412 184
411 183
411 182
411 181
411 180
411 179
411 178
411 177
411 176
411 175
411 174
411 173
411 172
411 171
411 170
411 169
411 168
410 167
409 166
409 165
409 164
408 163
408 162
408 161
407 160
407 159
407 158
407 157
407 156
407 155
407 154
406 153
406 152
405 151
404 150
404 149
403 148
402 147
402 146
402 145
401 144
401 143
400 142
400 141
400 140
400 139
400 138
399 138
398 137
397 136
397 135
396 134
396 133
395 132
395 131
394 130
394 129
393 128
393 127
392 126
392 125
392 124
391 123
391 122
391 121
390 120
390 119
389 118
389 117
389 116
388 115
388 114
388 113
387 113
386 114
385 113
384 112
383 111
383 110
382 109
382 108
381 107
380 106
379 105
378 104
378 103
377 102
376 101
376 100
375 99
375 98
374 97
374 96
374 95
373 95
372 95
371 94
371 93
370 92
369 91
369 90
368 89
368 88
367 87
366 86
366 85
365 84
364 83
363 84
362 83
362 82
361 81
360 80
360 79
359 78
359 77
358 76
358 75
357 74
356 73
356 72
355 71
354 70
353 69
352 68
352 67
351 66
351 65
350 64
350 63
349 62
348 63
347 62
347 61
346 60
345 59
344 58
344 57
343 56
342 55
341 54
340 53
339 52
339 51
338 50
337 49
336 48
335 48
334 47
333 47
332 47
