452 67
451 68
450 68
449 68
448 68
447 68
446 68
445 68
444 68
443 68
442 68
441 68
440 68
439 68
438 68
437 68
436 68
435 68
434 68
433 68
432 68
431 68
430 68
429 69
428 69
427 69
426 69
425 69
424 69
423 69
422 69
421 69
420 69
419 69
418 69
417 69
416 69
415 69
414 69
413 69
412 69
411 69
410 69
409 69
408 69
407 69
406 69
405 69
404 69
403 69
402 69
401 69
400 69
399 69
398 69
397 69
396 69
395 69
394 69
393 68
392 69
391 69
390 69
389 69
388 69
387 69
386 69
385 68
384 69
383 69
382 69
381 69
380 69
379 69
378 69
377 69
376 69
375 69
374 69
373 69
372 70
371 70
370 70
369 69
368 69
367 69
366 69
365 69
364 69
363 70
362 70
361 70
360 70
359 70
358 70
357 70
356 71
355 71
354 71
353 71
352 71
351 71
350 71
349 71
348 71
347 71
346 70
345 70
344 70
343 70
342 70
341 70
340 70
339 70
338 70
337 70
336 70
335 70
334 70
333 70
332 71
331 71
330 71
329 71
328 71
327 71
326 71
325 71
324 71
323 71
322 71
321 71
320 71
319 71
318 71
317 71
316 72
315 72
314 72
313 72
312 72
311 72
310 72
309 72
308 72
307 72
306 72
305 72
304 72
303 72
302 72
301 72
300 73
299 73
298 73
297 73
296 73
295 73
294 73
293 73
292 73
291 73
290 73
289 73
288 73
287 73
286 74
285 74
284 74
283 74
282 74
281 74
280 74
279 74
278 74
277 75
276 75
275 75
274 75
273 75
272 75
271 75
270 75
269 75
268 75
267 75
266 76
265 76
264 76
263 76
262 76
261 76
260 76
259 76
258 76
257 76
256 77
255 77
254 77
253 77
252 77
251 77
250 77
249 77
248 77
247 77
246 77
245 77
244 77
243 77
242 77
241 77
240 77
239 77
238 77
237 77
236 77
235 77
234 77
233 77
232 77
231 78
230 78
229 78
228 78
227 78
226 78
225 78
224 78
223 78
222 78
221 79
220 79
219 79
218 79
217 79
216 79
215 79
214 80
213 80
212 80
211 80
210 81
209 81
208 82
207 82
206 82
205 82
204 82
203 83
202 83
201 83
200 84
199 84
198 84
197 85
196 85
195 85
194 86
193 86
192 87
191 87
190 87
189 88
188 88
187 89
186 89
185 89
184 89
183 90
182 90
181 90
180 91
179 91
178 91
177 92
176 92
175 92
174 93
173 93
172 93
171 94
170 94
169 95
168 95
167 95
166 96
165 96
164 97
163 97
162 97
161 98
160 98
159 99
158 100
157 100
156 100
155 100
154 101
153 102
152 102
151 103
150 103
149 103
148 104
147 104
146 105
145 106
144 107
143 107
142 108
141 108
140 109
139 110
138 110
137 111
136 112
135 112
134 113
133 113
132 114
131 115
130 115
129 116
128 117
127 118
126 118
125 119
124 120
123 120
122 121
121 122
120 123
119 124
118 125
117 126
116 127
115 128
114 129
113 130
113 131
112 132
111 133
110 134
110 135
109 136
108 137
108 138
107 139
106 140
105 141
105 142
104 143
103 144
103 145
103 146
104 147
104 148
105 149
106 150
107 150
108 151
109 152
110 152
111 153
112 154
113 154
114 155
115 155
116 155
117 156
118 156
119 157
120 157
121 158
122 158
123 159
124 159
125 159
126 160
127 160
128 161
129 161
130 161
131 162
132 162
133 162
134 163
135 164
136 164
137 164
138 165
139 165
140 165
141 166
142 166
143 166
144 167
145 167
146 168
147 168
148 169
149 169
150 170
151 170
152 170
153 171
154 171
155 171
156 172
157 172
158 172
159 173
160 173
161 173
162 174
163 174
164 174
165 175
166 175
167 175
168 176
169 176
170 176
171 177
172 177
173 177
174 177
175 177
176 178
177 178
178 178
179 179
180 179
181 179
182 179
183 180
184 180
185 180
186 180
187 180
188 180
189 181
190 181
191 181
192 181
193 181
194 182
195 182
196 182
197 182
198 182
199 182
200 182
201 182
202 182
203 182
204 183
205 183
206 183
207 183
208 183
209 183
210 183
211 183
212 183
213 184
214 184
215 184
216 184
217 184
218 184
219 184
220 184
221 184
222 184
223 185
224 185
225 185
226 185
227 185
228 185
229 185
230 185
231 185
232 186
233 186
234 186
235 186
236 186
237 186
238 186
239 186
240 186
241 186
242 186
243 186
244 186
245 186
246 186
247 186
248 186
249 186
250 187
251 187
252 187
253 187
254 187
255 187
256 187
257 187
258 187
259 187
260 187
261 187
262 187
263 187
264 187
265 188
266 188
267 188
268 188
269 188
270 188
271 188
272 188
273 188
274 188
275 188
276 188
277 188
278 188
279 188
280 188
281 188
282 188
283 188
284 188
285 188
286 188
287 188
288 188
289 188
290 188
291 188
292 188
293 188
294 188
295 188
296 188
297 188
298 188
299 188
300 188
301 188
302 188
303 188
304 188
305 187
306 187
307 187
308 187
309 187
310 187
311 187
312 187
313 187
314 187
315 187
316 187
317 187
318 187
319 187
320 187
321 187
322 187
323 187
324 187
325 186
326 186
327 186
328 186
329 186
330 186
331 186
332 186
333 186
334 185
335 185
336 185
337 185
338 185
339 185
340 185
341 185
342 185
343 185
344 185
345 184
346 184
347 184
348 184
349 184
350 184
351 184
352 184
353 184
354 183
355 183
356 183
357 183
358 183
359 183
360 183
361 183
362 182
363 182
364 182
365 182
366 182
367 182
368 182
369 182
370 182
371 182
372 182
373 182
374 182
375 182
376 182
377 182
378 182
379 182
380 182
381 182
382 182
383 182
384 182
385 182
386 181
387 181
388 181
389 181
390 181
391 181
392 181
393 181
394 181
395 181
396 181
397 181
398 181
399 181
400 181
401 181
402 180
403 180
404 180
405 180
406 180
407 180
408 180
409 180
410 180
411 180
412 180
413 180
414 180
415 180
416 179
417 179
418 179
419 179
420 179
421 179
422 179
423 179
424 179
425 179
426 179
427 178
428 178
429 178
430 178
431 178
432 178
433 178
434 178
435 177
436 177
437 177
438 177
439 177
440 177
441 177
442 177
443 177
444 176
445 176
446 176
447 176
448 176
449 176
450 176
451 176
452 176
453 175
454 175
455 175
456 175
457 175
458 175
459 175
460 175
461 174
462 174
463 174
464 174
465 174
466 174
467 174
468 174
469 173
470 173
471 173
472 173
473 173
474 172
475 172
476 172
477 172
478 172
479 171
480 171
481 171
482 171
483 171
484 170
485 170
486 170
487 170
488 170
489 170
490 170
491 169
492 169
493 169
494 169
495 169
496 168
497 168
498 168
499 168
500 168
501 168
502 168
503 168
504 167
505 167
506 167
507 167
508 167
509 167
510 166
511 166
512 166
513 166
514 166
515 166
516 166
517 166
518 165
519 165
520 165
521 165
522 165
523 165
524 164
525 164
526 164
527 164
528 164
529 164
530 163
531 163
532 163
533 163
534 162
535 162
536 162
537 162
538 162
539 162
540 162
541 162
542 161
543 161
544 161
545 160
546 160
547 160
548 160
549 160
550 160
551 159
552 159
553 159
554 159
555 159
556 158
557 158
558 158
559 158
560 158
561 157
562 157
563 157
564 157
565 156
566 156
567 156
568 156
569 156
570 155
571 155
572 155
573 155
574 154
575 154
576 154
577 153
578 153
579 153
580 153
581 152
582 152
583 152
584 152
585 152
586 151
587 151
588 151
589 150
590 150
591 150
592 150
593 150
594 149
595 149
596 149
597 149
598 148
599 148
600 148
601 147
602 147
603 147
604 146
605 146
606 146
607 146
608 145
609 145
610 145
611 144
612 144
613 143
614 144
615 143
616 143
617 143
618 142
619 142
620 141
621 141
622 141
623 141
624 140
625 140
626 140
627 140
628 140
629 139
630 139
631 139
632 138
633 138
634 138
635 138
636 138
637 137
638 137
639 137
640 137
641 137
642 136
643 136
644 136
645 136
646 136
647 136
648 135
649 135
650 135
651 135
652 135
653 135
654 134
655 134
656 134
657 134
658 134
659 134
660 134
661 134
662 133
663 133
664 133
665 133
666 133
667 133
668 133
669 133
670 133
671 133
672 132
673 132
674 132
675 132
676 132
677 132
678 132
679 131
680 131
681 131
682 131
683 131
684 130
685 130
686 130
687 129
688 128
689 128
690 127
691 127
692 126
693 125
694 124
694 123
695 122
696 121
696 120
696 119
696 118
695 117
695 116
694 116
693 116
692 115
691 115
690 115
689 114
688 114
687 114
686 114
685 114
684 113
683 114
682 114
681 113
680 113
679 113
678 114
677 113
676 113
675 113
674 113
673 113
672 112
671 112
670 112
669 112
668 112
667 113
666 112
665 112
664 111
663 111
662 110
661 110
660 109
659 108
658 108
657 107
656 107
655 106
654 106
653 105
652 105
651 104
650 104
649 103
648 103
647 103
646 102
645 102
644 101
643 101
642 101
641 100
640 100
639 100
638 100
637 99
636 99
635 99
634 98
633 98
632 98
631 98
630 97
629 97
628 97
627 97
626 96
625 96
624 95
623 95
622 95
621 95
620 95
619 94
618 94
617 94
616 94
615 94
614 93
613 93
612 93
611 93
610 92
609 92
608 92
607 92
606 91
605 91
604 91
603 91
602 90
601 90
600 89
599 89
598 89
597 89
596 88
595 88
594 88
593 87
592 87
591 86
590 86
589 87
588 87
587 86
586 86
585 86
584 86
583 86
582 86
581 85
580 85
579 85
578 85
577 84
576 84
575 84
574 84
573 84
572 83
571 83
570 83
569 83
568 83
567 82
566 82
565 82
564 82
563 82
562 82
561 81
560 81
559 81
558 81
557 81
556 81
555 80
554 80
553 80
552 80
551 80
550 79
549 79
548 79
547 79
546 78
545 78
544 78
543 78
542 78
541 78
540 77
539 77
538 77
537 77
536 77
535 76
534 76
533 76
532 76
531 76
530 76
529 76
528 75
527 75
526 75
525 75
524 75
523 75
522 75
521 75
520 74
519 74
518 74
517 74
516 73
515 73
514 73
513 73
512 73
511 73
510 73
509 73
508 72
507 72
506 72
505 72
504 72
503 72
502 72
501 72
500 72
499 72
498 71
497 71
496 71
495 71
494 71
493 70
492 70
491 70
490 70
489 70
488 70
487 70
486 70
485 70
484 69
483 69
482 69
481 69
480 69
479 69
478 69
477 69
476 69
475 69
474 69
473 69
472 69
471 69
470 69
469 69
468 69
467 68
466 68
465 68
464 68
463 68
462 68
461 68
460 68
459 68
458 68
457 68
456 68
455 67
454 67
453 67
452 67
