309 53
308 54
307 54
306 54
305 54
304 55
303 55
302 56
301 56
300 57
299 58
298 59
297 60
296 61
295 62
294 63
293 64
293 65
292 66
291 67
290 68
289 69
288 70
287 71
286 72
285 73
285 74
284 75
283 76
283 77
282 78
281 79
281 80
280 81
280 82
279 83
279 84
278 85
278 86
277 87
277 88
277 89
276 90
276 91
276 92
275 93
275 94
274 95
274 96
273 97
273 98
272 99
271 100
271 101
270 102
270 103
269 104
269 105
268 106
268 107
267 108
267 109
266 110
266 111
265 112
265 113
264 114
264 115
263 116
263 117
263 118
262 119
262 120
262 121
262 122
262 123
261 124
261 125
261 126
260 127
260 128
260 129
260 130
260 131
259 132
259 133
259 134
259 135
259 136
258 137
258 138
258 139
257 140
257 141
257 142
256 143
256 144
256 145
255 146
255 147
255 148
254 149
254 150
253 151
253 152
253 153
253 154
253 155
253 156
253 157
253 158
253 159
252 160
252 161
252 162
251 163
251 164
251 165
251 166
251 167
250 168
251 169
251 170
251 171
251 172
251 173
251 174
251 175
251 176
252 177
252 178
252 179
253 180
253 181
253 182
253 183
253 184
253 185
253 186
253 187
253 188
253 189
253 190
253 191
253 192
253 193
253 194
253 195
253 196
253 197
253 198
253 199
253 200
253 201
253 202
253 203
253 204
253 205
253 206
254 207
254 208
254 209
254 210
254 211
254 212
254 213
254 214
254 215
254 216
255 217
255 218
255 219
255 220
255 221
255 222
256 223
256 224
256 225
256 226
256 227
256 228
256 229
257 230
257 231
257 232
257 233
257 234
257 235
258 236
258 237
258 238
258 239
258 240
259 241
259 242
259 243
259 244
259 245
259 246
259 247
259 248
259 249
259 250
259 251
259 252
260 253
260 254
260 255
260 256
259 257
258 257
257 257
256 257
255 258
254 258
253 258
252 259
251 259
250 259
249 259
248 259
247 260
246 260
245 260
244 260
243 260
242 260
241 260
240 260
239 260
238 260
237 261
236 261
235 261
234 261
233 261
232 261
231 261
230 261
229 261
228 261
227 261
226 261
225 262
224 262
223 262
222 262
221 262
220 262
219 262
218 262
217 262
216 261
215 261
214 261
213 260
212 260
211 259
210 259
209 258
208 258
207 258
206 258
205 257
204 257
203 257
202 257
201 257
200 257
199 257
198 256
197 256
196 256
195 256
194 256
193 256
192 256
191 256
190 255
189 255
188 255
187 255
186 254
185 254
184 254
183 254
182 254
181 254
180 254
179 253
178 253
177 253
176 253
175 252
174 252
173 252
172 252
171 252
170 252
169 252
168 252
167 252
166 252
165 252
164 252
163 252
162 252
161 252
160 253
159 253
158 254
157 255
156 256
155 256
154 256
153 256
152 256
151 256
150 257
149 257
148 258
147 258
146 259
145 259
144 260
143 260
142 260
141 261
140 262
139 262
138 263
137 263
136 263
135 264
134 264
133 264
132 264
131 265
130 265
129 265
128 265
127 265
126 265
125 265
124 265
123 265
122 265
121 265
120 265
119 266
118 266
117 266
116 266
115 266
114 267
113 267
112 268
111 268
110 269
109 269
108 270
107 270
106 271
105 271
104 272
103 272
102 272
101 273
100 273
99 273
98 273
97 274
96 274
95 275
94 275
93 276
92 277
91 277
90 278
89 278
88 279
87 279
86 280
85 280
84 281
83 281
82 281
81 282
80 282
79 282
78 283
77 283
76 284
75 284
74 284
73 285
72 285
71 286
70 287
69 287
68 288
67 289
66 290
66 291
65 292
64 293
63 294
62 295
61 296
60 296
59 297
58 298
57 298
56 299
55 300
54 301
53 302
52 302
52 303
51 304
50 305
49 306
48 307
47 308
46 309
45 310
44 311
44 312
43 313
43 314
42 315
42 316
42 317
41 318
41 319
41 320
41 321
40 322
40 323
40 324
40 325
40 326
40 327
40 328
41 329
41 330
41 331
42 332
42 333
42 334
43 335
44 336
44 337
45 338
46 339
46 340
47 341
48 342
49 343
49 344
50 345
51 346
51 347
52 348
53 349
54 350
55 351
56 352
57 353
58 354
59 355
60 356
61 356
62 357
63 358
64 359
65 360
66 361
67 361
68 362
69 363
70 364
71 365
72 366
72 367
73 368
73 369
73 370
74 371
75 372
75 373
76 374
77 375
78 376
79 376
80 377
81 378
82 379
83 379
84 380
85 380
86 381
87 381
88 381
89 381
90 381
91 381
92 381
93 381
94 381
95 381
96 381
97 382
98 382
99 382
100 383
101 384
102 385
103 385
104 386
105 387
106 387
107 388
108 388
109 389
110 390
111 390
112 390
113 391
114 391
115 391
116 392
117 392
118 392
119 392
120 393
121 393
122 393
123 393
124 394
125 394
126 394
127 394
128 394
129 394
130 394
131 394
132 394
133 394
134 394
135 394
136 394
137 394
138 394
139 394
140 394
141 394
142 395
143 395
144 396
144 397
145 398
145 399
146 400
147 401
148 402
149 403
150 403
151 404
152 404
153 405
154 405
155 406
156 406
157 407
158 407
159 408
160 408
161 409
162 409
163 409
164 410
165 410
166 410
167 410
168 410
169 410
170 410
171 410
172 410
173 410
174 410
175 410
176 410
177 410
178 410
179 410
180 409
181 409
182 409
183 408
184 408
185 408
186 408
187 408
188 408
189 408
190 408
191 408
192 408
193 408
194 408
195 408
196 408
197 409
198 409
199 409
200 410
201 411
202 412
203 413
204 413
205 413
206 414
207 414
208 414
209 415
210 416
211 416
212 416
213 417
214 417
215 418
216 418
217 419
218 420
219 420
220 421
221 421
222 422
223 422
224 423
225 423
226 424
227 424
228 424
229 425
230 426
231 426
232 427
233 427
234 428
235 429
236 430
237 430
238 431
239 432
240 432
241 433
242 433
243 434
243 435
243 436
243 437
242 438
242 439
242 440
242 441
241 442
241 443
241 444
241 445
241 446
240 447
240 448
240 449
240 450
240 451
240 452
239 453
239 454
239 455
239 456
239 457
238 458
238 459
238 460
238 461
238 462
238 463
238 464
238 465
238 466
237 467
237 468
237 469
236 470
236 471
236 472
235 473
235 474
234 475
234 476
233 477
233 478
232 479
232 480
231 481
231 482
230 483
230 484
229 485
229 486
229 487
229 488
230 489
230 490
230 491
230 492
231 493
231 494
231 495
231 496
231 497
230 498
230 499
229 500
229 501
228 502
227 503
226 504
225 504
224 505
223 505
222 505
221 505
220 505
219 505
218 505
217 506
216 507
215 507
215 508
214 509
214 510
213 511
213 512
212 513
212 514
211 515
210 516
210 517
209 518
208 519
208 520
207 521
206 522
206 523
206 524
206 525
205 526
205 527
205 528
204 529
204 530
204 531
204 532
204 533
204 534
204 535
204 536
204 537
204 538
204 539
204 540
204 541
204 542
205 543
205 544
205 545
205 546
205 547
205 548
205 549
205 550
204 551
204 552
204 553
204 554
203 555
203 556
203 557
203 558
203 559
203 560
203 561
203 562
203 563
203 564
203 565
203 566
203 567
203 568
202 569
202 570
202 571
202 572
202 573
203 574
203 575
203 576
203 577
203 578
203 579
203 580
203 581
203 582
203 583
203 584
203 585
203 586
203 587
203 588
202 589
202 590
202 591
202 592
202 593
203 594
203 595
203 596
204 597
204 598
204 599
204 600
204 601
204 602
204 603
204 604
204 605
204 606
204 607
204 608
204 609
205 610
205 611
205 612
205 613
205 614
206 615
206 616
206 617
206 618
207 619
207 620
207 621
208 622
208 623
209 624
209 625
209 626
210 627
210 628
210 629
211 630
212 631
212 632
213 633
214 634
215 635
216 636
216 637
216 638
217 639
217 640
218 641
218 642
219 643
219 644
220 645
220 646
221 647
221 648
221 649
222 650
222 651
223 652
223 653
224 654
224 655
225 656
225 657
225 658
226 659
226 660
227 661
228 662
228 663
229 664
230 665
230 666
231 666
232 667
233 668
234 668
235 669
236 670
237 670
238 671
239 671
240 671
241 671
242 671
243 671
244 671
245 671
246 671
247 670
248 670
249 670
250 670
251 670
252 670
253 670
254 669
255 669
256 669
257 669
258 669
259 668
260 668
261 668
262 668
263 668
264 667
265 667
266 667
267 667
268 667
269 667
270 666
271 666
272 666
273 665
274 664
275 664
276 663
277 662
278 661
279 660
280 659
280 658
281 657
282 657
283 657
284 656
285 656
286 656
287 656
288 656
289 656
290 655
291 655
292 655
293 655
294 655
295 655
296 654
297 654
298 654
299 653
300 652
301 651
302 650
303 650
304 649
305 648
306 647
307 646
308 645
309 645
309 644
310 643
311 642
312 641
313 640
314 640
314 639
315 638
316 637
317 636
318 635
319 634
320 633
321 632
321 631
322 630
323 629
324 629
325 628
325 627
326 626
327 625
328 624
329 623
330 622
330 621
331 620
332 619
333 618
333 617
334 616
335 615
336 614
336 613
337 612
338 611
339 610
339 609
340 608
341 607
342 606
342 605
343 604
343 603
344 602
344 601
345 600
345 599
346 598
347 597
348 596
349 595
350 594
351 593
352 592
353 591
354 590
355 590
356 589
357 589
358 588
359 588
360 587
361 587
362 587
363 586
364 586
365 585
366 585
367 584
368 583
369 582
369 581
370 580
370 579
371 578
371 577
372 576
372 575
372 574
373 573
373 572
373 571
373 570
374 569
374 568
374 567
374 566
375 565
375 564
375 563
375 562
375 561
376 560
376 559
376 558
377 557
377 556
377 555
378 554
378 553
378 552
378 551
379 550
379 549
379 548
380 547
380 546
380 545
381 544
381 543
381 542
381 541
381 540
381 539
382 538
382 537
382 536
382 535
383 534
383 533
383 532
384 531
384 530
384 529
384 528
385 527
385 526
386 525
386 524
386 523
387 522
387 521
387 520
388 519
388 518
388 517
388 516
389 515
389 514
389 513
390 512
390 511
390 510
390 509
390 508
391 507
391 506
391 505
391 504
391 503
391 502
391 501
391 500
391 499
392 498
392 497
392 496
392 495
392 494
392 493
392 492
392 491
392 490
392 489
392 488
392 487
392 486
392 485
393 484
393 483
393 482
393 481
394 480
394 479
394 478
394 477
394 476
395 475
395 474
395 473
396 472
396 471
396 470
396 469
396 468
397 467
397 466
397 465
398 464
398 463
398 462
398 461
399 460
399 459
399 458
399 457
399 456
400 455
400 454
400 453
400 452
400 451
400 450
400 449
401 448
401 447
401 446
401 445
402 444
402 443
402 442
403 441
403 440
403 439
403 438
403 437
404 436
404 435
404 434
404 433
404 432
404 431
405 430
405 429
405 428
405 427
405 426
405 425
405 424
405 423
405 422
405 421
405 420
405 419
406 418
406 417
405 416
405 415
405 414
405 413
405 412
405 411
405 410
405 409
404 408
404 407
404 406
404 405
403 404
403 403
403 402
402 401
402 400
402 399
402 398
402 397
401 396
401 395
401 394
401 393
400 392
400 391
400 390
400 389
400 388
400 387
400 386
399 385
399 384
398 383
398 382
398 381
397 380
397 379
396 378
396 377
395 376
394 375
394 374
393 373
392 372
391 371
391 370
390 369
390 368
391 367
392 367
393 367
394 367
395 366
396 366
397 366
398 366
399 366
400 366
401 366
402 366
403 366
404 366
405 366
406 366
407 366
408 366
409 365
410 365
411 365
412 365
413 365
414 365
415 365
416 365
417 365
418 365
419 364
420 364
421 364
422 364
423 364
424 364
425 364
426 364
427 363
428 363
429 363
430 363
431 363
432 363
433 363
434 362
435 362
436 362
437 362
438 362
439 362
440 362
441 361
442 361
443 361
444 361
445 361
446 360
447 360
448 360
449 360
450 360
451 359
452 359
453 359
454 359
455 359
456 358
457 358
458 358
459 358
460 357
461 357
462 357
463 357
464 356
465 356
466 356
467 356
468 355
469 355
470 355
471 354
472 354
473 354
474 353
475 353
476 353
477 352
478 352
479 352
480 352
481 351
482 351
483 350
484 350
485 350
486 349
487 349
488 349
489 348
490 348
491 348
492 347
493 347
494 347
495 346
496 346
497 346
498 345
499 345
500 345
501 344
502 344
503 344
504 343
505 343
506 343
507 342
508 342
509 342
510 341
511 341
512 340
513 340
514 340
515 339
516 339
517 339
518 338
519 338
520 337
521 337
522 336
523 336
524 336
525 335
526 334
527 334
528 334
529 333
530 333
531 333
532 332
533 332
534 332
535 331
536 331
537 330
538 330
539 330
540 329
541 329
542 328
543 328
544 327
545 327
546 326
547 326
548 326
549 325
550 325
551 324
552 324
553 324
554 323
555 322
556 322
557 322
558 321
559 320
560 320
561 320
562 319
563 319
564 318
565 318
566 318
567 317
568 317
569 316
570 316
571 315
572 315
573 314
574 314
575 313
576 313
577 312
578 312
579 311
580 311
581 310
582 310
583 310
584 309
585 309
586 308
587 308
588 308
589 307
590 306
591 306
592 305
592 304
593 303
594 304
595 304
596 303
597 302
598 302
599 301
600 301
601 301
602 300
603 300
604 299
605 299
606 298
607 298
608 297
609 297
610 296
611 295
612 295
613 295
614 294
615 294
616 293
617 293
618 292
619 292
620 292
621 291
622 290
623 290
624 289
625 288
626 288
627 288
628 288
629 287
630 287
631 286
632 285
633 285
634 284
635 284
636 284
637 284
638 283
639 283
640 282
641 281
642 281
643 280
644 280
645 279
646 279
647 279
648 278
649 278
650 278
651 277
652 277
653 276
654 276
655 276
656 275
657 274
658 274
659 273
660 273
661 273
662 273
663 272
664 272
665 271
666 271
667 270
668 270
669 270
670 269
671 269
672 269
673 268
674 268
675 267
676 267
677 267
678 266
679 266
680 265
681 265
682 264
683 264
684 264
685 263
686 263
687 262
688 262
689 262
690 262
691 261
692 261
693 261
694 260
695 260
696 260
697 259
698 259
699 258
700 258
701 258
702 258
703 257
704 257
705 257
706 256
707 256
708 256
709 256
710 256
711 255
712 255
713 255
714 255
715 255
716 255
717 254
718 254
719 254
720 254
721 254
722 254
723 254
724 254
725 254
726 254
727 254
728 254
729 255
730 254
731 254
732 254
733 254
734 254
735 254
736 254
737 254
738 254
739 254
740 254
741 253
742 252
742 251
743 250
744 249
745 249
746 248
747 248
746 247
745 246
744 246
743 245
742 244
741 243
740 242
740 241
739 240
739 239
738 238
738 237
737 236
737 235
737 234
736 233
736 232
735 231
735 230
734 229
734 228
733 227
732 226
732 225
731 224
730 223
730 222
730 221
729 220
729 219
729 218
729 217
729 216
729 215
728 214
728 213
729 212
728 212
727 213
726 214
725 215
724 216
723 217
722 218
722 219
721 220
720 221
719 222
719 223
718 224
717 225
716 226
715 226
715 227
714 228
713 229
713 230
712 231
711 232
710 233
709 234
708 235
707 235
706 236
705 237
704 237
703 238
702 238
701 239
700 239
699 240
698 241
697 241
696 242
695 242
694 243
693 243
692 244
691 244
690 245
689 245
688 246
687 246
686 247
685 247
684 247
683 248
682 248
681 249
680 249
679 250
678 250
677 251
676 251
675 252
674 252
673 253
672 253
671 254
670 254
669 255
668 255
667 256
666 256
665 257
664 257
663 257
662 258
661 258
660 259
659 259
658 260
657 260
656 261
655 261
654 262
653 262
652 263
651 263
650 264
649 264
648 265
647 265
646 266
645 266
644 267
643 267
642 268
641 268
640 269
639 269
638 270
637 270
636 270
635 271
634 271
633 272
632 273
631 273
630 273
629 274
628 274
627 275
626 275
625 276
624 276
623 277
622 277
621 278
620 278
619 279
618 279
617 280
616 280
615 281
614 281
613 282
612 282
611 283
610 283
609 284
608 284
607 285
606 285
605 286
604 286
603 287
602 287
601 288
600 288
599 289
598 289
597 290
596 290
595 291
594 291
593 291
592 292
591 293
590 293
589 293
588 294
587 294
586 295
585 295
584 296
583 296
582 297
581 297
580 298
579 298
578 299
577 299
576 300
575 300
574 301
573 301
572 302
571 302
570 303
569 303
568 304
567 304
566 304
565 305
564 305
563 306
562 306
561 307
560 307
559 308
558 308
557 308
556 309
555 309
554 310
553 310
552 311
551 311
550 312
549 312
548 312
547 313
546 313
545 314
544 314
543 315
542 315
541 315
540 316
539 316
538 317
537 317
536 317
535 318
534 318
533 319
532 319
531 320
530 320
529 320
528 321
527 321
526 322
525 322
524 322
523 323
522 323
521 323
520 324
519 324
518 325
517 325
516 325
515 326
514 326
513 326
512 327
511 327
510 328
509 328
508 328
507 329
506 329
505 330
504 330
503 330
502 331
501 331
500 331
499 332
498 332
497 332
496 333
495 333
494 334
493 334
492 334
491 335
490 335
489 335
488 336
487 336
486 336
485 337
484 337
483 337
482 338
481 338
480 338
479 339
478 339
477 339
476 340
475 340
474 340
473 341
472 341
471 341
470 342
469 342
468 342
467 342
466 343
465 343
464 343
463 343
462 344
461 344
460 345
459 345
458 345
457 345
456 346
455 346
454 346
453 346
452 347
451 347
450 347
449 347
448 348
447 348
446 348
445 348
444 349
443 349
442 349
441 349
440 350
439 350
438 350
437 350
436 350
435 350
434 351
433 351
432 351
431 351
430 351
429 352
428 352
427 352
426 352
425 352
424 352
423 353
422 353
421 353
420 353
419 353
418 353
417 353
416 353
415 353
414 353
413 353
412 354
411 354
410 354
409 354
408 354
407 354
406 354
405 354
404 354
403 354
402 354
401 353
400 353
399 352
399 351
400 350
401 349
401 348
402 347
403 346
403 345
404 344
405 343
405 342
405 341
406 340
405 339
406 338
407 337
408 336
408 335
408 334
408 333
409 332
409 331
410 330
410 329
410 328
411 327
412 327
412 326
413 325
414 324
414 323
415 322
416 322
416 321
417 320
417 319
417 318
418 317
418 316
419 315
419 314
420 313
420 312
420 311
421 310
421 309
422 308
422 307
422 306
423 305
423 304
423 303
423 302
423 301
423 300
423 299
423 298
423 297
423 296
423 295
423 294
423 293
423 292
423 291
423 290
423 289
422 288
422 287
422 286
422 285
422 284
422 283
422 282
421 281
421 280
421 279
421 278
421 277
421 276
421 275
420 274
420 273
420 272
420 271
419 270
419 269
419 268
419 267
419 266
419 265
419 264
419 263
419 262
419 261
419 260
418 259
418 258
418 257
418 256
418 255
418 254
418 253
418 252
417 251
417 250
417 249
417 248
417 247
417 246
417 245
417 244
417 243
417 242
417 241
417 240
417 239
417 238
417 237
417 236
417 235
417 234
417 233
417 232
417 231
417 230
417 229
417 228
417 227
417 226
417 225
416 224
416 223
415 222
415 221
415 220
415 219
415 218
415 217
415 216
415 215
415 214
415 213
415 212
415 211
415 210
415 209
415 208
415 207
414 206
414 205
414 204
414 203
414 202
414 201
413 200
413 199
413 198
412 197
412 196
412 195
412 194
412 193
412 192
412 191
412 190
412 189
412 188
412 187
412 186
412 185
412 184
412 183
412 182
412 181
412 180
412 179
412 178
411 177
411 176
411 175
411 174
410 173
410 172
410 171
409 170
409 169
409 168
409 167
408 166
408 165
408 164
408 163
408 162
408 161
407 160
407 159
407 158
407 157
407 156
407 155
407 154
407 153
406 152
406 151
406 150
406 149
406 148
406 147
405 146
405 145
405 144
405 143
404 142
404 141
404 140
403 139
403 138
402 137
401 136
401 135
400 134
399 133
398 133
397 132
396 132
395 131
394 130
393 129
393 128
393 127
392 126
391 125
391 124
390 123
389 122
388 121
387 120
387 119
386 118
385 117
384 116
384 115
383 114
383 113
382 112
381 111
381 110
380 109
380 108
379 107
379 106
378 105
378 104
377 103
376 102
375 101
375 100
374 99
373 98
372 97
371 96
370 95
369 94
368 93
367 92
366 91
365 90
365 89
364 88
363 87
363 86
362 85
361 84
361 83
360 82
360 81
359 80
358 79
357 78
356 77
355 76
354 75
353 74
352 74
351 73
350 72
349 72
348 72
347 71
346 71
345 71
344 70
343 70
342 69
341 68
340 67
339 66
338 66
337 65
336 64
335 63
334 62
333 62
332 61
331 60
330 60
329 59
328 58
327 58
326 57
325 57
324 57
323 56
322 56
321 56
320 55
319 55
318 54
317 54
316 53
315 53
314 53
313 53
312 53
311 53
310 53
309 53
