426 105
426 106
427 107
426 108
426 109
425 110
424 111
423 112
422 113
423 113
424 113
425 113
426 114
425 115
424 115
423 115
422 115
421 115
420 115
419 114
419 113
418 112
417 112
416 112
415 112
414 112
413 112
412 111
411 111
410 111
409 111
408 112
407 113
406 114
405 114
404 113
403 113
402 112
401 112
400 112
399 112
398 112
397 112
396 112
395 112
394 112
393 111
392 111
391 112
391 113
392 114
392 115
392 116
392 117
392 118
392 119
392 120
392 121
392 122
392 123
392 124
392 125
391 126
391 127
391 128
391 129
390 130
391 131
390 132
389 132
388 132
387 132
386 132
385 131
384 131
383 131
382 130
381 130
380 130
379 130
378 130
377 130
376 130
375 130
374 131
373 131
372 130
371 130
370 130
369 130
368 130
367 130
368 131
368 132
367 133
367 134
367 135
367 136
366 137
366 138
366 139
366 140
366 141
367 142
366 143
365 143
364 142
363 142
362 141
361 141
360 140
359 140
358 140
357 140
356 140
355 140
354 140
353 140
352 140
351 139
350 139
349 139
348 139
347 139
346 139
345 139
346 139
347 140
346 141
346 142
345 143
345 144
346 145
345 146
344 147
343 147
342 147
341 146
340 146
339 146
338 145
337 145
336 145
335 145
334 145
333 144
332 144
331 144
330 144
329 143
329 144
328 145
327 146
327 147
328 148
327 149
328 150
327 151
326 152
325 152
324 151
323 151
322 151
321 151
320 151
319 152
318 152
317 152
316 152
315 152
314 151
313 151
312 151
311 151
310 151
309 150
308 150
307 149
306 149
305 149
304 148
303 148
302 148
301 147
300 148
301 148
302 148
303 149
304 149
305 150
304 151
305 152
306 153
307 154
308 155
308 156
309 157
310 157
311 158
312 159
311 160
310 160
309 160
310 161
310 162
309 163
309 164
310 165
311 166
311 167
310 168
309 168
308 168
307 169
307 170
307 171
308 172
308 173
308 174
308 175
308 176
308 177
307 178
307 179
307 180
307 181
307 182
308 182
309 183
309 184
308 185
307 186
308 187
309 188
308 189
307 189
306 188
305 188
304 189
303 190
302 189
302 188
301 187
300 187
299 188
298 188
297 188
296 188
295 188
294 189
293 190
292 191
291 190
291 189
290 189
289 189
289 190
290 191
289 192
288 193
287 194
287 195
286 196
286 197
286 198
286 199
285 200
286 201
286 200
287 199
288 200
288 201
288 202
287 203
287 204
286 205
285 204
284 203
283 203
282 203
281 203
280 203
279 203
278 203
277 204
276 204
275 204
274 204
273 204
272 204
271 204
270 204
269 204
268 204
267 204
266 205
265 206
264 206
263 206
262 206
261 206
260 206
259 206
259 207
258 208
257 208
256 208
255 207
255 208
256 209
257 210
257 211
258 212
258 213
259 213
260 214
261 215
260 216
259 216
258 217
257 216
256 215
255 215
254 215
253 214
252 215
251 215
250 215
249 216
248 216
247 216
246 216
245 216
244 216
245 217
244 218
243 218
242 217
241 217
240 217
239 217
238 217
237 217
236 216
235 217
234 216
233 216
232 215
231 216
230 216
229 215
228 216
227 215
226 215
227 215
228 216
229 217
228 218
227 218
226 218
226 219
227 219
228 219
229 219
230 220
231 221
232 222
233 223
233 224
234 225
234 226
234 227
235 228
235 229
235 230
236 230
237 231
237 232
236 233
235 233
234 232
233 232
232 232
231 233
230 233
229 234
229 235
230 236
230 237
230 238
231 239
232 240
233 241
233 242
232 243
231 244
230 244
229 243
228 244
227 244
226 244
225 245
224 245
223 245
222 246
221 247
220 247
219 248
218 249
217 249
218 249
219 250
220 251
220 252
221 252
222 252
223 253
222 254
222 255
223 256
222 257
221 258
220 258
219 257
218 257
217 258
216 259
215 260
214 261
213 262
212 263
211 263
212 263
213 264
212 265
211 265
210 265
209 264
208 264
207 263
206 263
205 263
204 263
203 263
202 262
201 262
200 262
199 262
198 262
197 262
198 262
199 262
200 262
201 262
202 263
203 263
204 264
203 265
202 266
203 266
204 267
205 267
206 267
207 268
206 269
205 269
204 270
204 271
204 272
205 273
204 274
205 275
206 276
206 277
207 278
206 279
205 279
204 279
203 279
202 279
201 279
200 279
199 279
198 279
197 280
196 280
195 280
196 281
195 282
194 282
193 281
192 280
191 280
190 280
189 280
189 281
190 282
190 283
191 284
192 285
191 286
190 287
189 287
188 287
187 286
186 286
185 287
184 287
183 287
182 288
181 289
180 289
179 289
178 289
177 289
176 290
175 290
174 290
173 290
172 289
171 289
170 289
169 289
168 289
167 289
168 289
169 290
168 291
167 292
166 292
167 293
167 294
167 295
167 296
167 297
167 298
167 299
168 299
169 300
169 301
168 302
167 303
166 303
165 303
164 303
163 303
162 303
161 302
160 302
159 302
158 302
157 302
156 302
156 303
156 304
155 305
154 304
153 304
152 305
151 304
150 304
149 304
148 305
147 305
146 305
145 304
144 304
143 303
142 303
141 303
140 302
140 301
139 300
138 300
137 300
137 301
138 302
138 303
138 304
137 305
137 306
137 307
138 308
137 309
136 310
135 310
134 309
133 309
132 309
131 309
130 309
130 310
129 311
128 310
128 309
127 309
128 310
127 311
126 311
125 310
125 309
125 308
124 308
123 309
122 308
121 308
120 307
119 307
118 306
117 306
116 307
115 306
115 305
114 305
114 306
115 307
115 308
115 309
116 310
117 311
117 312
116 313
115 312
114 312
113 311
112 310
111 310
110 310
109 310
108 310
107 310
106 311
105 311
104 310
103 309
102 309
101 308
100 308
99 307
98 307
97 306
96 306
95 305
94 305
95 306
95 307
96 308
95 309
94 309
93 308
93 309
94 310
95 309
96 308
97 309
98 310
99 310
100 311
101 311
102 312
103 313
102 314
101 314
100 313
99 313
98 313
97 312
96 311
95 312
95 313
96 314
97 315
98 316
99 317
99 318
100 318
101 319
102 319
103 320
104 321
105 321
106 321
107 322
106 323
107 323
108 323
109 324
109 325
108 326
107 326
106 326
106 327
107 328
108 328
109 328
110 328
111 329
112 330
113 330
114 331
115 331
116 332
117 332
118 333
119 334
120 334
121 335
120 336
119 337
118 336
119 337
120 336
121 336
122 337
122 338
121 339
120 340
119 340
118 340
118 341
119 341
120 341
121 342
122 342
123 343
124 343
125 344
126 344
127 344
128 345
129 346
130 346
131 346
132 347
132 348
131 349
132 349
133 348
134 349
134 350
135 350
136 351
137 351
138 352
139 351
140 352
140 353
141 352
142 353
143 354
143 355
144 355
145 356
146 356
147 356
148 357
148 358
147 359
146 360
145 360
144 361
143 361
142 360
141 361
142 362
143 362
144 362
145 363
145 364
146 365
146 366
147 367
148 367
149 368
150 368
151 369
152 369
153 370
154 370
155 371
154 372
153 372
153 373
154 373
155 374
156 374
157 375
157 376
158 375
159 374
160 375
161 376
161 377
162 376
163 375
164 376
164 377
163 378
163 379
163 380
164 381
165 381
166 381
167 381
168 382
169 382
170 382
171 383
172 383
173 384
174 384
175 385
176 386
177 387
177 388
177 389
178 388
179 389
179 390
179 391
179 392
178 393
177 394
176 395
175 396
174 396
173 396
172 396
172 397
173 396
174 396
175 396
176 396
177 397
178 397
179 398
178 399
177 399
178 399
179 400
180 400
181 400
182 401
183 401
184 401
185 402
186 402
187 403
188 403
189 403
190 404
191 405
190 406
189 406
188 405
187 405
186 405
186 406
186 407
187 407
188 407
189 408
190 409
191 409
192 409
193 410
194 411
195 411
196 411
197 412
198 412
199 412
200 413
201 413
202 414
203 414
204 414
205 415
206 416
205 417
206 418
206 419
207 418
208 419
209 420
208 421
209 422
210 422
211 422
212 422
213 423
214 422
215 423
216 423
217 424
218 424
219 425
219 426
218 427
218 428
219 428
219 427
220 426
221 427
221 428
221 429
221 430
220 431
220 432
219 433
220 434
220 435
221 435
222 435
223 436
224 437
223 438
223 439
223 440
223 441
222 442
223 443
222 444
221 444
220 445
220 446
219 447
218 447
217 448
216 448
215 448
214 448
213 448
212 448
212 449
211 450
210 450
211 450
212 449
213 449
214 449
215 450
216 450
217 449
218 450
219 450
220 451
220 452
221 452
222 453
223 453
224 454
225 454
226 454
227 454
228 455
229 455
230 456
229 457
228 458
227 458
226 457
225 457
226 457
227 458
228 458
229 458
230 459
231 460
232 461
233 461
234 462
235 462
236 462
237 463
236 464
237 463
238 464
239 464
240 463
241 464
241 465
242 466
243 466
244 467
244 468
245 468
246 468
247 469
248 468
249 468
250 468
251 468
252 468
253 469
252 470
251 470
250 470
251 470
252 470
253 470
254 470
255 471
255 472
256 473
257 473
258 473
259 474
260 474
261 474
262 474
263 474
264 474
265 474
266 475
266 476
265 477
265 478
266 479
267 479
268 479
269 480
270 480
271 480
272 480
273 481
274 482
275 483
275 484
276 485
275 486
275 487
276 488
276 489
276 490
276 491
275 492
274 493
274 494
275 495
276 495
277 495
278 495
279 495
280 496
281 496
282 496
283 497
283 498
282 499
282 500
282 501
282 502
282 503
281 504
281 505
281 506
281 507
281 508
281 509
280 510
280 511
279 512
279 513
278 514
278 515
278 516
277 517
276 518
275 518
275 519
275 520
274 521
274 522
273 523
272 524
273 524
274 523
275 523
276 524
277 524
277 523
278 522
279 522
280 523
279 524
280 523
281 523
282 523
283 522
284 522
285 522
286 521
287 521
288 520
289 521
290 521
291 521
292 522
291 523
290 523
289 523
289 524
288 525
287 524
288 525
287 526
286 526
287 526
288 527
289 526
290 526
291 526
292 526
293 526
294 526
295 526
296 526
297 526
298 527
299 527
300 526
301 527
302 526
302 525
302 524
302 523
303 522
304 522
305 523
305 524
305 525
305 526
306 526
306 525
307 524
308 524
309 525
309 526
308 527
307 528
306 529
305 529
306 529
307 530
308 529
309 529
310 530
311 530
312 530
313 531
314 530
315 530
316 531
317 531
318 531
319 531
320 531
321 531
322 531
323 531
323 530
324 529
325 530
325 531
326 532
325 533
324 533
323 533
323 534
324 534
325 534
326 534
327 534
328 534
329 533
330 534
330 535
331 536
332 536
333 537
334 537
335 537
336 537
337 538
338 537
339 538
340 538
341 538
342 538
343 538
344 539
344 540
345 539
346 540
346 541
347 540
348 540
349 541
349 542
349 543
349 544
348 545
349 545
350 545
351 545
352 544
353 544
354 545
355 545
356 546
356 547
357 547
358 547
359 547
360 547
361 547
362 547
363 547
364 547
365 548
366 548
367 548
368 548
369 549
369 550
369 551
369 552
370 553
370 554
370 555
370 556
370 557
370 558
371 559
371 560
371 561
371 562
371 563
371 564
371 565
370 566
370 567
371 568
370 569
370 570
370 571
369 572
369 573
368 574
367 575
368 576
369 577
368 576
368 575
369 574
370 573
371 574
371 575
372 575
373 574
374 574
375 573
376 572
377 572
378 571
379 571
380 570
381 571
382 572
381 573
380 573
381 574
382 574
383 573
384 574
385 574
386 574
387 574
388 574
389 574
390 574
391 574
392 573
393 574
394 574
395 574
396 574
397 574
398 574
399 574
400 574
401 573
402 574
403 574
404 573
405 574
406 574
407 574
408 573
409 574
409 575
409 574
410 573
411 573
412 572
413 572
414 573
414 574
414 573
415 572
416 572
417 572
418 572
419 572
420 571
421 571
422 570
423 570
424 570
425 570
426 570
427 570
428 570
429 569
430 569
431 569
432 569
433 569
434 570
433 571
434 571
435 571
436 571
437 570
437 569
438 568
439 567
440 568
441 569
440 570
441 569
442 569
442 568
443 567
444 567
445 567
446 566
447 565
448 565
449 564
450 565
451 564
452 563
453 563
454 562
455 562
456 561
457 560
458 560
459 560
460 559
461 559
462 558
463 558
464 558
464 557
465 556
466 555
467 555
468 555
469 555
470 555
471 555
472 554
473 553
474 554
475 555
476 555
477 555
478 555
479 555
480 554
481 553
481 552
482 551
483 550
484 549
485 549
486 549
487 548
487 547
488 546
489 545
489 544
490 543
491 543
492 542
493 542
494 542
495 541
495 540
496 539
497 540
498 539
499 539
499 538
498 537
499 536
500 536
501 536
502 536
503 535
504 535
505 534
506 534
507 533
508 533
509 533
510 532
511 532
512 532
513 531
514 530
515 531
516 531
515 530
516 529
517 529
518 530
518 531
519 531
520 532
520 531
519 530
518 529
519 528
520 527
521 528
521 527
522 526
522 525
523 524
524 523
523 522
522 523
521 522
521 521
521 520
522 519
523 520
524 520
525 520
526 521
527 520
527 519
528 518
529 517
530 516
531 515
532 514
532 513
533 512
534 511
535 510
536 509
537 509
537 508
537 507
538 506
539 506
540 505
541 506
541 507
540 508
541 508
542 508
542 507
543 506
544 505
544 504
543 503
543 502
544 501
545 500
545 499
545 498
545 497
546 496
546 495
546 494
546 493
547 492
547 491
548 490
548 489
548 488
549 487
550 486
550 485
550 484
551 483
551 482
552 481
553 482
553 483
554 483
555 483
555 482
555 481
555 480
555 479
555 478
555 477
554 476
554 475
555 474
555 473
555 472
555 471
556 470
556 469
556 468
556 467
556 466
556 465
556 464
557 463
557 462
557 461
557 460
557 459
557 458
557 457
558 456
558 455
559 454
559 453
559 452
559 451
559 450
559 449
560 448
560 447
561 446
561 445
561 444
562 443
562 442
562 441
562 440
563 439
563 438
563 437
564 436
564 435
564 434
564 433
564 432
565 431
565 430
565 429
566 428
566 427
566 426
566 425
567 424
568 423
567 422
568 421
568 420
569 419
569 418
569 417
569 416
569 415
569 414
570 413
570 412
571 411
570 410
571 409
572 409
572 408
572 407
573 406
573 405
573 404
573 403
573 402
573 401
573 400
574 399
574 398
575 397
575 396
574 395
575 394
575 393
576 392
575 391
576 390
576 389
576 388
577 387
577 386
578 385
578 384
578 383
578 382
579 381
579 380
579 379
580 378
580 377
580 376
580 375
581 374
581 373
581 372
581 371
582 370
582 369
582 368
582 367
583 366
583 365
583 364
583 363
584 362
584 361
584 360
584 359
584 358
584 357
584 356
584 355
584 354
584 353
584 352
585 351
584 350
584 349
585 348
585 347
585 346
584 345
585 344
584 343
585 342
585 341
586 340
587 340
588 340
589 339
590 338
591 338
592 338
593 337
594 337
595 336
596 336
597 335
598 336
599 336
600 335
601 335
602 335
603 334
604 334
605 333
606 334
607 333
608 333
609 333
610 332
611 332
612 332
613 332
614 331
615 331
616 330
617 330
618 330
619 329
620 329
621 329
622 329
623 328
624 327
625 327
626 327
627 327
628 326
629 326
630 325
631 325
632 325
633 325
634 324
635 324
636 323
637 323
638 323
639 323
640 323
641 322
642 321
643 321
644 321
645 321
646 321
647 321
648 320
649 320
650 319
651 319
652 318
653 318
654 318
655 318
656 318
657 317
658 317
659 317
660 317
661 316
662 316
663 315
664 314
665 314
666 314
667 314
668 313
669 313
670 313
671 312
671 311
672 310
673 310
674 309
675 309
676 309
677 308
678 308
678 307
679 306
680 306
681 306
682 305
683 304
684 304
685 303
686 303
686 302
687 301
688 301
688 300
689 299
690 299
691 298
692 297
693 296
694 295
694 294
695 293
696 292
696 291
695 290
696 289
695 288
696 287
697 287
698 287
698 286
698 285
698 284
697 284
696 283
695 282
696 281
697 280
698 281
699 280
699 279
699 278
700 277
699 276
699 275
699 274
699 273
700 272
700 271
700 270
700 269
700 268
700 267
701 266
701 265
700 264
700 263
700 262
700 261
699 260
699 259
700 258
701 259
702 258
702 257
703 256
704 255
703 254
703 253
703 252
702 251
701 251
700 250
699 249
698 249
697 248
696 248
695 248
694 248
693 249
692 250
692 251
692 252
692 253
691 254
691 255
690 256
690 257
691 258
690 259
690 260
690 261
690 262
690 263
690 264
690 265
690 266
690 267
690 268
690 269
690 270
691 271
691 272
692 273
691 274
690 274
690 275
691 275
692 275
693 276
692 277
691 277
690 277
689 278
689 279
689 280
688 281
688 282
687 283
686 282
685 282
686 283
687 284
688 285
688 286
687 287
686 287
685 287
684 287
685 288
684 289
683 289
683 290
682 291
681 292
680 293
679 294
678 295
677 295
676 296
675 296
674 296
673 296
672 296
672 297
671 298
670 299
669 299
670 300
670 301
671 301
672 302
672 303
671 304
670 305
669 304
669 303
668 302
668 301
667 301
666 300
665 301
664 301
664 302
665 302
666 303
665 304
664 305
663 305
662 305
662 306
662 307
661 308
660 308
660 309
659 310
658 310
657 310
656 310
655 309
656 308
657 307
658 306
659 306
660 306
659 305
659 304
659 303
658 303
657 304
656 304
655 304
654 304
653 304
652 303
651 303
652 303
653 304
652 305
651 306
650 306
649 305
649 304
649 305
649 306
650 306
651 306
652 305
653 306
653 307
652 308
651 309
650 309
649 309
648 309
647 310
646 310
645 310
644 309
643 308
642 308
642 309
642 310
641 311
640 311
639 312
640 312
641 313
641 314
640 315
639 315
638 314
637 314
636 314
636 315
635 316
634 316
633 316
633 317
632 318
631 318
630 317
631 316
630 317
629 317
629 318
628 319
627 319
626 318
626 317
625 317
624 318
625 319
624 320
623 320
622 319
622 318
621 319
622 320
623 321
622 322
621 322
620 321
619 321
618 321
617 322
616 321
615 322
614 323
613 323
612 322
613 321
613 320
614 319
613 318
612 317
611 317
610 318
609 318
608 318
607 318
606 319
605 320
604 321
603 320
603 319
602 319
601 319
601 320
600 321
599 320
598 320
597 320
596 319
597 320
596 321
595 321
594 320
593 320
592 320
591 320
590 320
589 319
588 318
587 317
586 316
585 316
584 316
583 315
584 314
585 314
586 314
585 313
585 312
585 311
584 310
584 309
584 308
583 307
583 306
582 305
582 304
581 303
581 302
581 301
581 300
580 300
579 300
578 299
579 298
580 298
581 298
580 297
580 296
579 295
578 295
577 294
576 293
577 292
578 292
577 291
577 290
577 289
576 288
575 287
574 286
574 285
573 284
573 283
573 282
573 281
572 280
571 279
570 278
570 277
569 276
569 275
569 274
569 273
568 272
568 271
567 270
566 269
566 268
566 267
565 266
565 265
564 264
564 263
563 262
563 261
562 260
561 259
561 258
560 257
560 256
560 255
559 254
559 253
558 252
557 251
557 250
557 249
556 248
556 247
555 246
555 245
554 244
554 243
553 242
553 241
552 240
552 239
552 238
551 237
551 236
550 235
550 234
550 233
549 232
549 231
548 230
548 229
548 228
547 227
547 226
547 225
546 224
546 223
545 222
545 221
544 220
544 219
543 218
543 217
542 216
542 215
541 214
541 213
541 212
540 211
540 210
539 209
539 208
538 207
538 206
538 205
537 204
537 203
537 202
536 201
535 200
535 199
535 198
535 197
534 196
534 195
534 194
533 193
533 192
533 191
532 190
532 189
531 188
531 187
531 186
530 185
529 184
530 183
529 182
529 181
529 180
528 179
528 178
528 177
527 176
527 175
527 174
526 173
526 172
526 171
525 170
525 169
525 168
524 167
524 166
523 165
523 164
522 163
522 162
521 161
521 160
521 159
520 158
520 157
519 156
518 155
518 154
517 153
517 152
517 151
517 150
516 149
515 148
515 147
514 146
514 145
513 144
512 144
511 144
510 145
509 146
508 147
508 148
508 149
507 150
506 150
505 149
505 148
504 147
504 146
504 145
503 144
502 143
501 142
500 141
500 140
499 139
498 138
497 137
496 136
495 135
494 134
493 133
492 132
491 131
490 130
489 129
488 128
487 128
486 127
486 126
485 125
484 124
483 123
482 123
481 122
480 121
479 122
478 122
478 123
478 124
479 125
478 126
477 126
477 127
477 128
476 129
476 130
477 130
478 131
478 132
477 133
476 132
475 132
474 131
473 130
473 129
472 128
471 127
470 126
469 127
468 126
468 125
467 124
466 123
465 122
464 121
463 120
462 119
461 118
460 117
459 116
458 116
457 116
456 116
455 115
456 114
455 114
454 113
453 113
452 112
451 111
450 110
450 111
449 112
448 112
447 113
447 114
447 115
446 116
445 117
445 118
446 119
445 120
444 120
443 120
442 119
442 118
442 117
442 116
441 116
440 115
439 114
438 114
437 113
436 112
435 112
434 111
433 110
432 110
431 109
430 108
429 107
428 107
427 106
426 105
