368 103
368 104
369 105
370 106
371 107
372 108
373 109
374 110
375 111
376 112
377 113
376 114
375 115
374 115
373 116
372 117
371 117
370 118
369 118
368 119
367 119
366 120
365 120
364 120
363 121
362 121
361 122
361 123
361 124
362 125
363 125
364 125
365 125
366 125
367 125
368 126
367 127
366 128
365 129
364 128
363 128
362 129
361 130
361 131
360 132
359 131
359 130
359 129
360 128
360 127
360 126
359 125
359 124
358 124
357 124
356 125
355 126
355 127
354 128
353 129
352 128
352 127
353 126
353 125
353 124
353 123
353 122
353 121
353 120
352 119
351 120
350 121
349 122
348 123
347 124
347 125
346 126
345 127
344 126
344 125
345 124
345 123
345 122
346 121
346 120
346 119
346 118
346 117
345 116
344 115
344 114
343 115
342 116
342 117
341 118
341 119
340 120
340 121
339 122
338 123
338 124
337 125
336 126
335 127
335 128
334 129
333 129
332 128
331 127
330 126
329 125
328 124
328 123
329 122
330 121
331 120
332 119
333 118
333 117
334 116
334 115
335 114
335 113
335 112
335 111
335 110
335 109
334 108
334 107
333 106
332 106
331 107
331 108
330 109
330 110
329 111
329 112
328 113
328 114
327 115
326 116
325 117
325 118
324 119
323 120
322 119
321 118
320 117
319 116
318 115
317 114
316 114
315 113
315 112
314 112
313 111
314 112
315 113
316 114
317 115
318 116
319 117
320 118
321 119
322 120
321 121
320 122
319 122
318 123
317 123
316 124
315 124
314 124
313 125
312 125
311 125
310 126
309 126
308 126
307 126
307 127
307 128
308 129
309 129
310 130
311 130
312 130
313 130
314 130
315 129
316 129
317 129
318 129
319 128
320 128
321 128
322 127
323 126
324 126
325 125
326 124
327 125
328 125
329 126
330 127
331 128
332 129
332 130
331 131
330 132
329 133
328 134
327 134
326 135
325 136
324 137
323 137
322 138
321 138
320 139
319 139
318 140
317 141
317 142
318 143
319 143
320 143
321 143
322 143
323 143
324 143
325 142
326 142
327 141
328 141
329 140
330 139
331 139
332 138
333 137
334 136
335 135
336 134
337 134
338 135
339 136
340 136
341 137
342 138
343 139
344 140
345 141
346 142
347 143
348 144
349 145
350 146
351 147
352 148
352 149
351 150
350 150
350 151
349 152
348 152
347 153
346 154
345 154
344 155
343 156
342 156
341 157
340 158
339 157
338 157
337 156
336 156
335 157
334 158
334 159
334 160
334 161
334 162
333 163
333 164
333 165
333 166
332 167
332 168
332 169
332 170
331 171
331 172
330 173
329 174
328 173
327 172
326 171
325 170
324 169
323 169
322 168
321 167
321 166
320 165
319 165
318 164
317 163
316 162
316 161
315 161
314 160
313 159
312 158
311 157
310 156
309 156
308 155
307 154
306 153
305 152
304 151
303 151
302 150
301 149
300 148
299 147
298 146
297 146
296 145
295 144
294 143
293 142
292 142
291 141
290 140
289 139
288 138
287 138
286 137
285 136
284 135
283 134
282 134
281 133
280 132
279 131
278 130
277 129
276 129
275 128
274 127
273 126
272 125
271 125
270 124
269 123
268 122
267 121
266 121
265 120
264 119
263 118
262 118
263 119
264 120
265 120
266 121
267 122
268 123
269 124
270 125
271 126
270 127
269 128
268 128
267 129
266 129
265 129
264 129
263 130
262 130
261 130
260 130
259 130
258 131
257 131
256 132
257 133
258 134
259 134
260 134
261 134
262 135
263 135
264 134
265 134
266 134
267 134
268 134
269 133
270 133
271 132
272 132
273 131
274 130
275 129
276 129
277 130
278 131
279 132
280 133
281 134
282 135
281 136
280 137
279 138
278 139
277 140
276 141
275 142
274 142
273 143
272 144
271 144
270 145
269 146
268 147
269 148
270 148
271 149
272 150
273 151
274 151
275 151
276 151
277 151
278 151
279 151
280 150
281 150
282 149
283 149
284 148
285 148
286 149
285 150
284 151
283 151
282 152
281 152
280 153
279 154
278 154
277 155
277 156
276 157
275 158
274 159
274 160
273 161
272 160
272 159
272 158
272 157
272 156
272 155
272 154
272 153
271 152
270 151
269 150
269 151
268 152
267 152
267 153
266 154
265 153
265 152
265 151
265 150
264 149
264 148
263 147
262 146
261 147
260 148
259 147
258 146
258 145
257 144
256 143
255 142
255 143
254 144
253 143
253 142
252 141
251 140
250 140
249 141
248 141
248 142
248 143
247 144
246 143
245 142
245 141
245 140
244 139
244 138
243 137
242 137
241 136
240 136
239 135
239 134
238 133
237 132
236 132
235 133
234 133
233 132
233 131
232 130
231 130
230 130
229 131
229 132
229 133
228 134
228 135
228 136
227 137
227 138
227 139
226 140
226 141
226 142
225 143
225 144
224 145
223 146
222 145
221 145
220 144
219 143
218 143
217 142
216 141
215 141
214 140
213 139
212 139
211 138
210 137
209 136
208 136
209 137
210 138
211 138
212 139
211 140
210 140
209 141
208 141
207 142
206 142
205 142
204 142
203 142
202 143
201 143
200 143
199 143
198 143
197 143
196 144
197 145
197 146
198 146
199 147
200 147
201 147
202 147
203 147
204 147
205 147
206 147
207 147
208 146
209 146
210 146
211 145
212 145
213 144
214 143
215 142
216 142
217 143
217 144
216 145
215 145
214 146
213 147
212 147
211 148
210 148
209 148
208 149
207 149
206 149
205 150
204 150
203 150
202 151
202 152
203 153
204 153
205 154
206 154
207 154
208 154
209 154
210 153
211 153
212 153
213 153
214 152
215 152
216 151
217 151
218 152
217 153
216 154
215 154
214 155
213 156
212 156
211 157
210 157
209 158
208 159
208 160
207 161
206 162
205 163
205 164
204 165
204 166
204 167
203 168
202 168
201 167
202 166
202 165
202 164
202 163
202 162
202 161
201 160
201 159
200 158
199 157
198 157
197 158
196 157
195 156
195 155
194 154
193 153
192 153
191 154
190 153
189 152
188 152
187 151
187 152
186 153
186 154
185 155
184 155
183 154
183 153
183 152
182 151
182 150
181 150
180 149
179 149
178 149
177 149
176 148
175 147
174 147
173 146
172 147
171 148
170 147
169 146
168 145
167 145
166 145
165 145
164 146
165 147
165 148
164 149
163 148
162 147
162 146
161 146
160 145
159 145
158 145
157 145
156 146
156 147
156 148
157 149
158 150
158 151
158 152
159 153
159 154
160 155
161 156
162 157
163 158
164 159
163 160
162 160
161 161
160 161
159 162
158 162
157 163
156 163
155 164
154 164
153 164
152 165
152 166
153 166
154 167
155 167
156 168
157 169
157 170
158 171
159 171
160 172
161 172
162 172
163 172
164 172
165 171
166 171
167 171
168 171
169 172
168 173
167 173
166 174
165 175
164 176
163 177
163 178
164 178
165 179
166 179
167 180
167 181
167 182
168 182
169 182
170 182
171 183
171 184
170 185
169 185
168 184
167 185
166 184
165 184
164 183
163 182
162 182
162 183
161 184
160 183
159 182
158 181
157 181
156 182
156 183
155 184
154 183
154 182
153 181
152 180
151 179
150 179
149 179
149 180
148 181
147 180
146 179
146 178
145 177
144 176
143 176
142 176
141 176
140 175
139 175
138 174
137 174
136 175
135 176
134 175
133 174
132 173
131 173
130 173
130 174
129 175
128 174
127 173
127 172
126 172
125 171
124 171
123 171
123 172
122 173
121 172
120 172
119 171
118 171
117 171
116 172
116 173
117 174
117 175
117 176
116 177
115 176
115 175
114 174
113 173
112 173
111 172
110 172
109 172
108 173
107 173
107 174
107 175
107 176
108 177
109 178
109 179
110 180
111 181
112 182
112 183
111 184
110 184
109 184
108 185
107 185
106 185
105 185
104 185
103 185
102 186
102 187
102 188
102 189
103 189
104 190
105 190
106 190
107 190
108 191
107 192
106 193
107 194
108 195
109 196
110 196
111 197
111 198
112 199
113 199
114 199
115 200
116 200
117 201
117 202
117 203
118 203
119 204
120 204
121 204
122 203
123 203
124 203
125 202
126 203
126 204
125 205
125 206
124 207
125 208
126 208
127 208
128 208
129 208
130 208
131 209
130 210
131 211
132 211
133 211
134 212
135 213
136 213
137 213
138 213
139 213
140 214
140 215
139 216
138 217
137 217
136 216
135 215
134 215
133 214
132 215
131 215
130 215
129 214
128 214
127 214
126 214
125 215
124 215
123 214
122 214
121 213
120 213
119 214
118 213
117 212
116 212
115 213
114 214
113 214
112 213
112 212
111 211
110 211
109 210
108 210
107 211
106 211
105 211
104 210
103 210
102 210
101 210
100 211
99 211
98 210
97 210
96 210
95 209
94 210
93 211
92 210
91 209
90 209
89 209
88 210
87 210
86 210
85 209
84 208
83 208
82 208
81 208
81 209
80 210
79 209
78 209
77 209
76 209
75 209
74 209
74 210
74 211
74 212
74 213
75 214
75 215
76 216
76 217
77 218
77 219
78 220
77 221
76 222
75 222
74 222
73 222
72 222
71 222
70 222
69 222
68 223
67 223
67 224
67 225
67 226
68 227
69 227
70 228
71 228
72 228
73 229
74 228
75 229
76 230
75 231
74 231
74 232
75 233
76 234
77 234
78 234
79 234
80 234
81 235
81 236
80 237
80 238
81 238
82 239
83 239
84 238
85 238
86 239
87 239
88 240
89 239
90 239
91 239
92 240
92 241
91 242
91 243
92 243
93 244
94 244
95 244
96 244
97 243
98 243
99 242
100 241
101 240
102 239
103 239
104 240
103 241
103 242
102 243
102 244
101 245
101 246
100 247
101 247
102 248
103 248
104 248
105 249
106 249
107 249
108 249
109 249
110 248
111 248
112 248
113 248
114 248
115 248
116 247
117 248
117 249
117 250
117 251
117 252
118 252
119 252
120 252
121 251
122 251
123 250
124 250
125 249
126 250
126 251
126 252
126 253
126 254
126 255
126 256
125 257
124 257
123 257
122 258
122 259
122 260
121 261
120 260
119 259
118 258
117 258
116 258
115 258
115 259
114 260
113 259
112 259
111 258
110 258
109 258
108 259
107 258
106 258
105 258
104 258
103 257
103 258
102 259
101 259
100 259
99 258
98 258
97 258
96 258
97 259
96 260
97 261
97 262
97 263
98 264
98 265
97 266
96 265
95 264
94 263
94 262
93 262
92 261
91 261
90 260
89 260
88 261
88 262
88 263
88 264
89 265
90 266
91 267
91 268
92 269
92 270
93 271
93 272
93 273
94 274
93 275
92 275
91 275
90 275
89 275
88 274
88 273
88 272
87 271
87 270
87 269
87 268
86 267
85 266
85 265
84 264
83 263
82 262
81 262
80 261
79 261
78 261
77 261
77 262
77 263
78 264
79 265
79 266
78 267
77 266
76 266
75 265
74 265
73 265
72 265
71 265
70 265
69 266
68 267
69 268
69 269
70 270
71 270
72 270
73 271
74 271
75 272
76 273
77 274
76 275
75 276
74 277
73 277
72 278
71 278
70 279
69 279
69 280
68 281
68 282
69 283
70 283
71 283
72 284
73 284
74 284
75 283
76 284
76 285
75 286
76 287
77 287
78 288
79 288
80 287
81 287
82 288
82 289
83 289
84 289
85 289
86 289
87 290
87 291
88 292
89 292
90 292
91 292
92 291
93 290
94 290
95 291
96 291
97 291
98 291
99 291
100 291
101 290
102 291
102 292
102 293
102 294
103 294
104 294
105 294
106 293
107 293
108 292
109 293
109 294
110 294
111 294
112 294
113 293
114 292
115 292
116 293
116 294
116 295
116 296
117 296
118 295
119 295
120 296
121 296
122 296
123 296
124 295
125 295
126 294
127 293
128 294
128 295
127 296
127 297
127 298
126 299
125 299
124 300
123 300
123 301
122 302
121 302
120 302
119 302
118 303
117 303
117 304
116 305
115 305
114 305
113 305
112 305
111 306
111 307
110 308
109 307
108 307
107 308
106 308
106 309
106 310
107 311
108 312
107 313
106 313
105 313
104 313
103 313
102 313
101 313
100 314
99 314
99 315
99 316
100 317
101 318
102 318
103 318
104 318
105 318
106 319
107 320
107 321
108 322
107 323
106 324
105 325
104 326
103 327
102 328
102 329
103 330
104 331
105 331
106 331
107 331
108 330
109 330
110 329
111 328
112 327
113 327
114 328
115 328
116 328
117 328
118 327
119 327
120 328
120 329
120 330
120 331
120 332
120 333
120 334
121 334
122 334
123 333
124 332
125 332
126 332
127 333
128 333
129 333
130 332
131 332
132 332
133 332
134 332
135 331
136 332
137 333
137 334
137 335
138 336
139 336
140 335
141 335
142 335
143 335
144 335
145 336
144 337
143 338
142 339
142 340
141 341
141 342
142 343
143 344
144 344
145 344
146 344
147 344
148 343
149 344
149 345
150 345
151 345
152 345
153 345
154 344
155 344
156 344
157 344
158 344
159 343
160 343
161 344
161 345
162 345
163 345
164 345
165 345
166 345
167 345
168 345
169 345
170 345
171 345
172 344
173 345
174 346
175 346
176 346
177 346
178 346
179 346
180 346
181 346
182 345
183 345
184 344
185 344
186 345
187 345
188 345
189 346
189 347
190 347
191 346
192 346
193 347
194 348
193 349
193 350
192 351
191 352
191 353
191 354
191 355
192 355
193 356
194 356
195 356
196 356
197 355
198 356
199 356
200 356
201 357
202 357
203 356
204 356
205 356
206 356
207 356
208 356
209 355
210 354
211 354
212 354
213 355
214 355
215 355
216 354
217 353
218 353
219 352
220 352
221 351
221 350
222 349
222 348
223 347
224 346
225 347
225 348
226 349
227 350
228 350
229 350
230 349
231 349
232 349
233 348
234 348
235 347
236 346
236 345
237 344
238 344
239 345
239 346
240 347
240 348
241 347
242 346
243 346
244 345
245 345
246 346
246 347
246 348
247 349
248 350
247 351
246 351
245 350
244 350
243 350
242 351
241 351
240 351
239 352
239 353
239 354
239 355
240 356
241 356
242 356
243 356
244 356
245 357
246 357
247 357
248 358
247 359
246 359
247 359
248 359
249 360
248 361
248 362
247 363
246 364
245 365
244 366
243 367
243 368
243 369
244 370
245 371
246 371
247 371
248 370
249 370
250 369
251 369
252 368
253 369
253 370
254 370
255 370
256 370
257 369
258 368
259 368
260 369
260 370
261 371
262 371
263 371
264 370
265 369
266 368
267 367
268 368
268 369
269 370
270 370
271 369
272 369
273 368
274 367
274 366
275 365
276 366
276 367
277 368
278 368
279 368
280 367
280 366
281 365
282 364
283 365
284 366
285 367
285 368
286 369
287 370
286 371
285 371
284 372
283 373
282 374
282 375
282 376
283 377
284 377
285 377
286 377
287 376
288 376
289 376
290 377
290 378
291 379
291 380
290 381
290 382
289 383
289 384
288 385
288 386
289 387
290 387
291 387
292 387
293 387
294 386
295 385
296 384
297 383
298 384
298 385
298 386
298 387
299 388
300 388
301 388
302 387
303 387
304 386
305 387
306 387
307 387
308 386
309 385
310 384
310 383
311 382
311 381
312 380
313 381
313 382
313 383
314 383
315 384
316 384
317 384
318 383
319 382
319 381
319 380
319 379
319 378
320 377
321 377
322 378
322 379
323 380
324 381
325 381
326 380
327 380
328 379
329 378
330 378
331 377
331 376
331 375
332 374
332 373
332 372
333 371
334 372
334 373
335 374
336 375
337 374
338 373
339 372
340 371
341 372
341 373
342 372
343 371
344 370
345 369
346 370
347 370
348 371
347 372
348 373
349 373
350 374
351 374
352 375
352 376
351 377
350 377
349 376
348 377
347 378
346 378
345 379
344 380
344 381
344 382
345 383
346 383
347 383
348 383
349 383
350 382
351 382
352 382
353 383
354 383
355 384
354 385
354 386
354 387
353 388
353 389
353 390
352 391
352 392
353 393
353 394
354 394
355 394
356 394
357 394
358 393
359 392
360 391
360 390
360 389
361 388
362 389
362 390
362 391
362 392
363 392
364 393
364 394
365 393
366 393
367 392
368 391
369 390
370 390
371 391
371 392
372 391
373 391
374 390
375 389
376 388
377 387
378 388
379 388
380 388
381 387
382 386
382 385
382 384
382 383
382 382
382 381
382 380
382 379
382 378
382 377
383 376
384 377
384 378
384 379
385 380
385 381
385 382
386 383
387 384
388 384
389 383
390 382
391 381
392 382
393 382
394 381
395 380
395 379
396 378
397 377
398 378
399 379
399 378
400 377
401 376
401 375
401 374
401 373
401 372
401 371
401 370
401 369
402 368
403 369
403 370
404 371
404 372
405 373
406 374
407 374
408 373
408 372
409 371
409 370
410 369
411 370
412 371
412 370
413 369
414 368
414 367
414 366
414 365
415 364
416 365
416 366
417 367
418 367
419 366
420 365
420 364
420 363
420 362
420 361
421 360
422 361
423 362
424 363
425 363
426 362
427 361
428 361
429 361
430 361
430 360
431 359
431 358
432 357
433 358
433 359
434 360
434 361
433 362
432 362
431 363
430 363
429 364
428 363
429 364
430 365
429 366
428 367
427 368
426 368
425 369
424 370
424 371
425 372
425 373
424 374
423 375
422 375
421 376
420 377
420 378
420 379
421 380
422 380
423 380
424 380
425 380
426 380
427 380
428 380
429 381
430 381
431 382
431 383
430 384
430 385
430 386
430 387
429 388
429 389
429 390
430 390
431 391
432 391
433 391
434 390
435 389
436 388
436 387
436 386
436 385
437 384
438 384
439 385
439 386
439 387
439 388
439 389
440 390
440 391
441 391
442 390
443 390
444 389
444 388
444 387
444 386
445 385
446 385
447 386
448 387
449 386
450 385
450 384
451 383
451 382
452 381
453 382
454 383
455 383
456 382
457 381
457 380
458 379
459 380
460 381
461 380
461 379
461 378
462 377
463 376
464 377
465 377
466 376
466 375
466 374
467 373
466 372
466 371
466 370
466 369
466 368
465 367
465 366
466 365
467 366
468 367
469 368
470 369
470 370
471 371
472 372
473 372
474 371
474 370
475 369
475 368
475 367
475 366
476 365
477 366
477 367
478 366
479 365
480 364
481 363
482 364
483 365
484 364
485 364
485 363
486 362
487 361
487 360
488 359
488 358
488 357
488 356
489 355
490 356
491 356
492 357
493 358
494 359
495 360
495 361
496 362
496 363
495 364
494 364
493 365
494 365
495 364
496 364
497 363
498 363
499 362
500 362
501 361
502 360
503 360
504 359
505 359
506 358
507 357
508 357
509 356
510 355
511 355
512 354
513 353
514 352
515 352
516 351
517 350
518 350
519 349
520 348
521 348
522 347
523 348
524 349
525 350
525 351
526 352
527 353
527 354
528 355
528 356
529 357
529 358
529 359
530 360
531 361
532 362
532 361
533 360
534 359
535 358
535 357
536 356
536 355
536 354
536 353
536 352
535 351
535 350
535 349
535 348
534 347
534 346
534 345
533 344
533 343
532 342
531 341
531 340
532 339
533 338
534 337
535 336
536 337
537 338
537 339
538 340
538 341
539 342
539 343
539 344
540 345
540 346
540 347
540 348
541 349
541 350
542 351
542 352
543 352
544 351
544 350
545 349
545 348
545 347
545 346
544 345
544 344
544 343
544 342
544 341
544 340
543 339
543 338
543 337
542 336
542 335
543 334
544 335
545 336
546 337
547 338
548 339
548 340
549 341
550 342
550 343
551 343
552 344
553 344
553 343
554 342
554 341
554 340
555 339
556 339
557 340
558 340
559 341
559 342
559 343
558 344
558 345
557 346
557 347
557 348
558 349
557 350
556 351
555 352
555 353
555 354
556 354
557 355
558 355
559 354
560 354
561 354
562 354
563 354
564 354
565 355
565 356
565 357
564 358
564 359
563 360
563 361
562 362
562 363
562 364
563 364
564 365
565 364
566 364
567 364
567 363
568 362
569 361
569 360
570 359
570 358
570 357
570 356
570 355
570 354
569 353
569 352
570 351
571 352
572 353
572 354
573 355
573 356
574 357
574 358
574 359
574 360
574 361
574 362
575 363
575 364
576 364
577 363
577 362
578 361
578 360
578 359
578 358
578 357
578 356
578 355
579 354
580 355
580 356
580 357
580 358
581 359
581 360
582 360
583 359
584 359
584 358
585 357
586 356
587 356
588 355
589 354
589 353
589 352
590 351
591 352
592 353
593 352
594 351
594 350
594 349
594 348
594 347
594 346
594 345
594 344
593 343
593 342
592 341
592 340
591 339
591 338
592 337
593 338
594 339
595 340
596 341
596 342
597 343
598 344
599 345
600 346
601 345
601 344
601 343
601 342
601 341
601 340
600 339
600 338
601 337
602 338
603 339
603 340
604 340
605 341
606 340
606 339
606 338
607 337
608 338
609 337
609 336
609 335
609 334
609 333
610 332
611 333
612 333
612 332
613 331
613 330
614 329
614 328
614 327
614 326
614 325
614 324
613 323
613 322
613 321
613 320
612 319
612 318
611 317
611 316
610 315
610 314
611 313
612 314
613 315
614 316
614 317
615 318
615 319
616 320
616 321
617 322
618 323
619 324
620 324
620 323
620 322
620 321
620 320
620 319
620 318
620 317
621 316
622 317
623 318
624 319
625 318
625 317
625 316
625 315
625 314
626 313
627 313
628 312
628 311
628 310
628 309
628 308
627 307
627 306
627 305
626 304
626 303
625 302
624 301
623 300
622 299
621 298
620 297
619 297
618 296
618 295
619 294
620 293
620 292
621 291
622 291
623 291
624 291
625 292
626 293
627 293
628 294
629 294
630 295
631 296
632 297
633 298
634 299
635 300
636 301
637 300
637 299
637 298
637 297
637 296
636 295
636 294
635 293
635 292
636 291
637 291
638 292
639 293
640 292
640 291
640 290
640 289
639 288
638 287
638 286
639 285
640 284
640 283
640 282
640 281
639 281
638 282
637 283
636 284
635 284
634 284
633 284
632 284
631 284
630 283
629 283
628 282
628 281
629 280
629 279
630 278
630 277
631 276
632 275
633 274
634 274
635 274
636 274
637 274
638 273
639 273
640 273
641 273
642 273
643 273
644 273
645 273
646 273
647 273
648 273
649 273
650 273
651 273
652 273
653 273
654 273
655 273
656 273
657 273
658 273
659 273
660 273
661 273
662 273
663 273
664 273
665 273
666 273
667 273
668 273
669 273
670 273
671 273
672 273
673 272
674 272
675 272
676 272
677 272
678 272
679 272
680 272
681 272
682 272
683 272
684 272
685 272
686 272
687 272
688 272
689 272
690 272
691 271
692 271
693 271
694 271
695 271
696 271
697 271
698 271
699 271
700 271
701 271
702 271
703 271
704 271
705 270
706 270
707 270
708 270
709 270
710 270
711 270
712 270
713 270
714 270
715 270
716 269
717 269
718 269
719 269
720 269
721 269
722 269
723 269
724 269
725 269
726 268
727 268
728 268
729 268
730 268
731 268
732 268
733 268
734 268
735 268
736 267
737 267
738 267
739 267
740 267
741 267
742 267
743 267
744 267
745 266
746 266
747 266
748 266
749 266
750 266
751 266
752 266
753 266
754 266
755 266
756 265
757 265
758 265
759 265
760 265
761 265
762 265
763 265
764 265
765 265
766 265
767 264
768 264
769 265
770 265
771 265
772 265
773 265
774 265
775 265
776 265
777 265
778 265
779 265
780 266
781 266
782 266
783 266
784 265
785 264
785 263
785 262
785 261
784 260
784 259
783 258
782 257
781 257
780 256
779 256
778 256
777 256
776 256
775 256
774 256
773 256
772 256
771 257
770 257
769 257
768 258
767 258
766 259
765 259
764 259
763 259
762 259
761 260
760 260
759 260
758 260
757 260
756 261
755 261
754 261
753 261
752 261
751 261
750 261
749 261
748 262
747 262
746 262
745 262
744 262
743 262
742 262
741 262
740 263
739 263
738 263
737 263
736 263
735 263
734 263
733 263
732 263
731 264
730 264
729 264
728 264
727 264
726 264
725 264
724 264
723 265
722 265
721 265
720 265
719 265
718 265
717 265
716 265
715 265
714 266
713 266
712 266
711 266
710 266
709 266
708 266
707 266
706 266
705 266
704 267
703 267
702 267
701 267
700 267
699 267
698 267
697 267
696 267
695 267
694 267
693 267
692 268
691 268
690 268
689 268
688 268
687 268
686 268
685 268
684 268
683 268
682 268
681 268
680 268
679 268
678 269
677 269
676 269
675 269
674 269
673 269
672 269
671 269
670 269
669 269
668 269
667 269
666 269
665 269
664 269
663 269
662 269
661 269
660 269
659 269
658 269
657 269
656 269
655 269
654 270
653 270
652 270
651 270
650 270
649 270
648 270
647 270
646 270
645 270
644 270
643 270
642 270
641 270
640 270
639 270
638 270
637 270
636 269
635 269
634 269
633 269
632 269
631 268
631 267
630 266
630 265
629 264
629 263
628 262
628 261
629 260
630 260
631 259
632 259
633 259
634 259
635 258
636 258
637 257
638 257
639 256
639 255
640 254
640 253
641 252
641 251
640 252
639 252
638 252
637 251
638 250
638 249
639 248
639 247
639 246
639 245
638 245
637 245
636 246
635 246
634 245
634 244
635 243
636 242
636 241
637 240
637 239
637 238
636 238
635 238
634 238
633 237
634 236
634 235
634 234
634 233
635 232
634 232
633 233
632 233
631 233
630 234
629 233
629 232
630 231
631 230
631 229
632 228
632 227
632 226
632 225
631 226
630 226
629 226
628 227
627 227
626 228
625 228
624 227
625 226
626 225
627 224
628 223
628 222
628 221
629 220
629 219
629 218
629 217
628 218
627 218
626 219
625 219
624 220
623 220
622 221
621 221
620 222
619 222
618 221
619 220
620 219
621 218
622 217
622 216
623 215
623 214
623 213
623 212
624 211
624 210
624 209
623 210
622 210
621 209
621 208
621 207
621 206
621 205
621 204
620 204
619 205
618 205
617 206
616 207
615 207
614 206
615 205
616 204
616 203
617 202
617 201
618 200
618 199
618 198
617 197
616 198
615 198
614 198
613 199
612 198
612 197
613 196
613 195
614 194
614 193
614 192
613 191
612 191
611 192
610 192
609 193
608 192
608 191
609 190
609 189
610 188
610 187
610 186
610 185
609 185
608 185
607 186
606 187
605 186
605 185
605 184
606 183
606 182
606 181
606 180
605 179
605 178
604 179
603 178
603 177
603 176
603 175
603 174
602 174
601 174
600 175
599 175
598 176
597 177
596 178
595 179
594 179
593 178
594 177
595 176
596 175
597 174
597 173
597 172
598 171
598 170
598 169
598 168
597 167
597 166
596 166
595 167
594 168
593 169
592 170
592 171
591 172
590 173
589 173
588 172
588 171
589 170
589 169
590 168
590 167
590 166
590 165
590 164
590 163
589 162
588 161
587 161
586 160
585 161
585 162
585 163
585 164
584 165
584 166
584 167
583 168
583 169
582 170
581 170
582 171
582 172
582 173
582 174
583 175
583 176
582 177
581 177
580 177
579 177
578 177
577 177
576 177
575 177
574 176
573 176
572 176
571 176
570 176
569 175
568 176
568 177
569 178
569 179
570 180
571 181
570 182
569 182
568 182
567 183
566 183
565 184
564 184
563 183
564 182
565 181
565 180
566 179
566 178
566 177
565 178
564 178
563 178
562 178
561 179
560 180
559 180
558 180
557 181
556 181
555 180
555 179
556 178
557 177
558 176
559 175
560 174
560 173
560 172
561 171
561 170
561 169
560 168
559 169
558 169
557 168
558 167
558 166
557 165
557 164
556 165
555 165
554 166
553 167
552 167
551 168
550 168
549 169
548 169
547 168
548 167
549 166
550 165
551 164
552 163
552 162
552 161
553 160
553 159
552 158
552 157
551 158
550 158
549 159
548 160
547 161
546 160
546 159
547 158
547 157
548 156
548 155
548 154
548 153
548 152
547 152
546 152
545 153
544 154
543 155
542 154
542 153
543 152
544 151
544 150
544 149
544 148
544 147
544 146
544 145
543 145
542 146
541 146
541 147
540 148
539 147
539 146
539 145
540 144
540 143
540 142
540 141
540 140
539 139
538 139
537 140
536 141
536 142
535 143
534 144
533 143
533 142
534 141
534 140
535 139
535 138
535 137
535 136
535 135
535 134
534 133
533 133
532 134
531 135
531 136
530 137
529 138
529 139
528 140
527 141
526 140
526 139
527 138
527 137
527 136
527 135
528 134
528 133
527 132
527 131
527 130
526 129
525 128
524 128
523 128
522 129
522 130
522 131
522 132
522 133
522 134
522 135
522 136
521 137
520 138
519 138
518 138
517 137
516 136
515 135
514 134
513 133
512 133
511 133
511 134
510 135
510 136
511 137
511 138
512 139
513 140
514 141
515 141
516 142
517 142
518 143
517 144
516 144
515 144
514 144
513 144
512 144
511 144
510 144
509 144
509 145
509 146
510 147
511 148
512 148
513 148
514 149
515 149
516 149
517 149
518 149
519 150
518 151
517 151
516 151
515 151
514 151
513 151
512 152
511 152
511 153
511 154
512 155
512 156
511 157
511 158
510 159
509 160
508 160
507 161
506 161
505 160
506 159
507 158
507 157
508 156
508 155
509 154
509 153
509 152
509 151
509 150
508 150
507 150
506 151
505 152
504 151
504 150
505 149
505 148
505 147
505 146
505 145
504 144
503 145
502 146
501 146
500 145
500 144
501 143
501 142
501 141
501 140
501 139
501 138
500 139
499 139
498 140
497 141
496 141
495 142
494 143
493 144
492 144
491 143
492 142
493 141
493 140
494 139
494 138
495 137
496 136
496 135
496 134
496 133
496 132
495 131
494 131
493 132
492 131
492 130
492 129
492 128
491 128
490 128
489 129
488 129
487 130
486 131
485 132
484 133
483 133
482 134
481 135
480 135
479 134
480 133
481 132
482 131
482 130
483 129
483 128
484 127
484 126
485 125
485 124
485 123
485 122
485 121
484 120
484 119
483 119
482 120
481 119
481 118
481 117
481 116
480 116
479 117
478 118
477 119
476 120
475 121
474 122
473 123
472 124
471 124
470 125
469 125
468 126
467 127
466 128
465 127
464 126
463 125
462 124
461 123
460 122
459 121
458 120
457 119
457 118
456 117
455 117
454 116
453 115
453 114
452 114
453 115
454 116
455 117
456 118
457 119
458 120
459 121
459 122
460 123
459 124
458 125
457 125
456 126
455 127
454 127
453 128
452 128
451 129
450 129
449 130
448 130
447 131
446 131
445 132
445 133
446 134
447 134
448 135
449 136
449 137
449 138
450 139
451 139
452 139
453 139
454 139
455 139
456 139
457 139
458 139
459 138
460 138
461 138
462 139
461 140
460 141
459 142
458 143
457 143
456 144
456 145
455 146
456 146
457 147
458 148
459 149
458 150
459 151
460 151
461 152
462 152
463 153
462 154
462 155
462 156
463 157
464 157
465 157
466 157
467 157
468 157
469 157
470 156
471 156
472 156
473 157
473 158
472 159
471 159
470 160
469 161
468 162
468 163
468 164
468 165
469 166
468 167
469 168
470 168
471 169
472 169
473 169
474 169
475 169
476 168
477 168
478 169
477 170
476 171
475 172
474 172
474 173
473 174
473 175
474 176
475 177
475 178
475 179
474 180
473 179
473 178
472 179
471 178
471 177
471 176
471 175
470 174
470 173
469 174
468 174
467 175
466 176
465 177
464 178
463 179
462 180
461 181
460 181
459 180
459 179
460 178
461 177
462 176
462 175
463 174
463 173
464 172
464 171
464 170
464 169
464 168
464 167
463 166
463 165
462 166
461 165
461 164
461 163
461 162
460 162
459 162
458 163
457 164
456 165
455 166
454 167
453 167
452 168
451 169
450 169
449 168
450 167
451 166
451 165
452 164
452 163
453 162
453 161
454 160
454 159
454 158
454 157
454 156
454 155
454 154
453 153
452 152
451 153
450 152
450 151
450 150
449 149
449 148
448 148
447 149
446 149
445 148
445 147
445 146
445 145
445 144
444 143
443 144
442 145
441 146
440 147
439 148
438 149
437 149
436 150
435 149
435 148
436 147
436 146
437 145
438 144
438 143
438 142
438 141
438 140
438 139
438 138
437 137
437 136
436 137
435 137
435 138
434 139
433 140
432 141
432 142
431 143
430 144
429 143
429 142
430 141
430 140
431 139
431 138
432 137
432 136
432 135
432 134
432 133
432 132
431 131
431 130
430 130
429 131
429 132
428 133
427 132
427 131
427 130
427 129
427 128
427 127
426 126
425 126
424 127
423 128
422 129
421 130
420 129
420 128
420 127
420 126
420 125
420 124
420 123
420 122
419 121
418 121
417 121
417 122
416 123
415 122
415 121
414 120
414 119
414 118
413 117
412 117
411 118
411 119
410 120
409 121
408 122
408 123
407 124
406 125
405 126
404 127
403 128
402 129
401 130
400 131
399 131
398 131
397 130
396 129
395 128
394 127
393 126
392 125
391 124
390 123
389 123
388 122
387 121
386 120
385 119
384 118
383 117
382 117
381 116
380 115
380 114
379 113
378 113
377 112
376 111
375 110
374 109
373 108
372 107
371 106
370 105
369 104
368 103
