306 24
306 25
305 26
305 27
304 28
303 28
303 29
303 30
302 31
301 31
300 30
299 30
298 30
297 31
296 32
295 32
294 31
293 31
292 31
291 31
290 31
289 31
288 32
287 33
286 33
285 33
285 34
284 35
284 36
284 37
283 38
282 38
281 39
280 39
279 40
278 40
277 41
276 41
275 41
274 40
273 40
272 40
271 40
270 40
269 40
268 40
267 41
267 42
266 43
267 44
267 45
266 46
265 46
264 47
263 48
262 48
261 48
260 48
259 48
258 48
257 48
256 48
255 48
254 49
253 50
254 51
253 52
252 53
251 54
250 54
249 54
248 53
247 53
246 53
245 53
244 53
243 53
242 53
241 53
240 53
239 53
238 53
237 53
236 53
235 53
234 54
233 55
233 56
233 57
233 58
233 59
232 60
231 60
230 61
229 61
229 62
228 63
227 63
227 64
226 65
225 65
224 64
223 64
222 64
221 63
220 64
219 64
218 64
217 65
216 65
216 66
215 67
215 68
214 69
213 70
213 71
213 72
213 73
213 74
212 75
212 76
211 77
210 78
209 78
208 79
207 80
206 80
205 81
204 81
203 81
202 82
201 82
200 82
199 82
198 83
197 83
196 84
195 85
195 86
195 87
195 88
196 89
196 90
195 91
195 92
194 93
193 94
192 95
191 96
190 96
189 97
189 98
188 99
188 100
187 101
188 102
188 103
187 104
187 105
187 106
186 107
185 107
184 107
183 107
182 108
182 109
181 110
181 111
180 112
179 112
178 113
177 113
176 114
175 114
174 115
173 115
172 116
171 116
170 117
170 118
170 119
170 120
170 121
170 122
170 123
171 124
171 125
171 126
172 127
172 128
172 129
171 130
170 131
170 132
169 133
168 134
167 135
166 135
165 135
164 135
163 135
162 136
161 137
160 137
159 138
158 139
158 140
158 141
159 142
158 143
157 144
157 145
158 146
157 147
156 147
155 148
154 148
154 149
153 150
152 151
151 151
150 151
149 152
148 153
147 153
146 154
145 155
145 156
145 157
145 158
145 159
145 160
145 161
144 162
143 162
142 163
141 163
140 164
140 165
140 166
139 167
138 168
137 168
136 169
135 169
134 169
133 169
132 170
131 170
130 171
129 172
128 173
128 174
129 175
129 176
128 177
128 178
128 179
127 180
126 180
125 180
125 181
124 182
123 182
123 183
122 184
122 185
121 186
120 186
119 187
118 187
117 187
116 188
115 188
114 188
113 188
112 189
111 190
110 191
109 191
109 192
109 193
108 194
108 195
108 196
107 197
106 197
105 198
105 199
104 200
103 200
103 201
103 202
102 203
101 202
100 202
99 202
98 203
97 203
96 203
96 204
95 205
94 205
93 206
92 207
91 207
90 207
89 207
88 207
87 207
86 208
85 208
84 208
83 208
82 209
81 209
80 210
79 210
78 210
77 211
76 211
75 211
74 212
73 212
72 212
71 213
70 213
69 214
68 214
67 215
66 215
65 215
64 215
63 215
62 216
61 216
60 217
59 217
58 217
57 218
56 218
55 219
54 219
53 220
52 221
52 222
51 223
51 224
51 225
50 226
51 227
50 228
50 229
51 230
51 231
51 232
52 233
52 234
53 235
54 236
55 237
56 238
57 238
58 239
58 240
59 240
60 241
61 241
62 242
62 243
63 243
64 243
65 243
66 244
67 245
68 245
69 246
70 246
71 247
72 247
73 247
74 248
75 249
76 249
77 250
78 250
79 251
80 252
81 251
82 252
82 253
83 253
84 254
85 255
86 256
87 256
88 257
89 258
90 259
91 260
92 261
93 261
94 261
95 262
96 263
96 264
97 265
98 264
99 265
99 266
98 267
99 268
100 269
101 270
102 270
103 270
104 270
105 271
106 272
107 272
108 271
109 272
109 273
108 274
109 274
110 275
111 275
112 276
113 277
114 278
115 279
115 280
115 281
114 282
115 283
115 284
116 285
117 286
118 286
119 287
120 288
121 288
122 289
123 290
124 290
125 291
124 292
125 291
126 291
127 292
127 293
128 293
129 294
128 295
129 296
129 297
129 298
129 299
130 300
131 301
132 301
133 302
134 303
135 303
136 303
137 304
138 305
139 305
140 305
141 306
141 307
140 308
140 309
140 310
139 311
140 312
141 313
141 314
142 315
143 315
144 316
145 316
146 317
147 318
147 319
148 320
149 321
149 322
149 323
150 324
150 325
149 326
148 327
148 328
148 329
149 330
149 331
150 332
151 333
152 334
153 334
154 335
155 335
156 335
157 336
158 336
159 337
160 337
161 338
161 339
161 340
161 341
161 342
161 343
162 344
162 345
163 346
164 346
165 347
166 347
167 348
167 349
166 350
167 351
167 352
166 353
166 354
166 355
167 356
167 357
168 358
168 359
169 359
170 360
171 360
172 360
173 361
174 361
175 361
176 361
177 361
178 361
179 362
180 361
181 362
182 363
181 364
181 365
180 366
180 367
180 368
180 369
181 370
181 371
181 372
181 373
181 374
181 375
182 376
183 377
184 378
185 378
186 378
187 379
188 379
189 379
190 380
189 381
188 381
189 382
190 381
191 381
192 382
192 383
193 383
194 383
195 384
196 385
197 385
198 386
199 386
200 386
201 387
202 387
203 388
204 389
203 390
202 390
203 391
203 390
204 389
205 390
205 391
205 392
205 393
204 394
204 395
205 396
205 397
206 397
207 398
208 399
209 399
210 400
211 400
212 400
213 400
214 400
215 401
214 402
213 402
214 403
215 403
216 404
216 405
217 404
218 405
219 405
220 406
220 407
221 407
222 406
223 407
223 408
224 409
224 410
225 411
225 412
226 413
225 414
226 415
226 416
227 417
228 418
229 418
230 419
231 419
232 420
233 420
234 420
235 421
236 421
237 421
238 421
239 421
240 420
241 421
241 422
241 423
242 424
243 425
244 425
245 426
246 426
247 427
248 427
249 428
250 429
250 430
251 431
251 432
251 433
251 434
252 435
253 436
254 436
255 437
256 437
257 438
258 437
259 438
259 439
260 439
261 439
262 439
263 439
264 439
265 439
266 439
267 439
268 439
269 439
270 440
271 441
272 442
273 443
274 443
275 443
276 444
277 444
278 444
279 444
280 445
279 446
280 445
281 446
282 445
283 446
284 446
285 447
286 447
285 446
286 445
287 445
288 446
288 447
289 448
289 449
290 450
291 451
292 451
293 451
294 452
295 452
296 452
297 451
298 451
299 451
300 451
301 450
302 450
303 450
304 450
305 450
306 450
307 450
308 451
309 451
310 451
311 451
312 451
313 451
314 451
315 451
316 451
317 451
318 452
319 453
320 454
321 455
322 456
323 456
324 456
325 456
326 456
327 455
328 455
329 454
330 454
331 454
332 453
333 453
334 453
335 454
335 455
336 455
337 455
338 455
339 455
340 455
341 455
342 456
343 456
344 456
345 457
346 458
347 459
348 459
349 460
350 460
351 459
352 459
353 459
354 458
355 458
356 457
357 457
358 457
359 457
360 457
361 457
362 457
363 456
364 456
365 456
366 456
367 456
368 456
369 456
370 456
371 456
372 456
373 456
374 456
375 455
376 456
376 455
377 454
378 455
379 455
380 455
381 454
382 454
383 454
384 454
385 454
386 454
387 453
388 453
389 453
390 453
391 454
391 453
392 452
393 452
394 452
395 451
396 451
397 451
398 450
399 449
400 448
401 448
402 448
403 447
404 448
405 447
406 446
407 446
408 446
409 446
410 445
411 445
412 445
413 444
414 443
415 443
416 442
417 441
418 441
419 441
420 440
421 439
422 440
423 439
424 439
425 438
426 438
427 438
428 438
429 437
430 438
431 437
432 437
433 437
434 437
435 436
436 436
437 435
438 434
439 433
440 432
441 431
441 430
442 429
442 428
443 427
444 426
445 425
446 424
447 424
448 424
449 424
450 424
451 423
452 423
453 423
454 422
455 422
456 421
457 421
458 420
459 419
460 419
461 418
462 418
463 417
464 417
465 418
464 419
465 418
466 418
467 418
468 418
469 417
470 417
471 416
472 416
472 415
473 414
473 413
474 412
474 411
475 410
475 409
476 408
477 407
478 406
479 405
480 405
480 404
481 403
482 403
482 402
483 401
484 400
485 400
486 400
487 399
488 399
488 398
487 397
488 396
489 396
489 395
489 394
490 393
490 392
491 391
492 390
493 390
494 389
495 389
495 388
495 387
496 386
497 387
498 386
498 385
499 384
500 383
501 383
502 383
503 382
504 381
504 380
505 379
505 378
505 377
505 376
506 375
507 375
508 374
509 374
509 373
510 372
511 372
512 371
513 371
514 370
515 370
515 369
516 368
517 367
518 367
519 367
520 366
521 365
521 364
522 363
522 362
522 361
523 360
524 360
525 359
526 359
526 358
527 357
527 356
527 355
528 354
529 354
530 354
530 353
531 352
532 352
533 352
534 351
535 350
536 349
536 348
536 347
537 346
537 345
537 344
538 343
538 342
538 341
538 340
539 339
538 338
538 337
539 336
540 336
541 337
540 336
540 335
541 334
542 334
543 333
543 332
544 331
544 330
544 329
545 328
545 327
545 326
545 325
546 324
546 323
546 322
547 321
548 321
549 321
550 320
551 320
552 320
552 319
553 318
554 317
554 316
554 315
554 314
554 313
555 312
555 311
554 310
554 309
554 308
555 307
555 306
555 305
555 304
555 303
555 302
555 301
555 300
555 299
555 298
554 297
554 296
554 295
554 294
555 293
556 293
556 292
557 291
557 290
557 289
557 288
557 287
557 286
557 285
557 284
557 283
557 282
557 281
557 280
556 279
556 278
556 277
557 276
558 277
559 276
559 275
560 274
559 273
559 272
559 271
559 270
558 269
558 268
558 267
558 266
557 265
557 264
556 263
556 262
556 261
556 260
555 259
555 258
555 257
555 256
555 255
555 254
555 253
555 252
555 251
555 250
555 249
556 248
557 248
558 248
559 247
560 247
561 247
562 246
563 246
564 245
565 245
566 245
567 245
568 244
569 244
570 244
571 244
572 244
573 244
574 244
575 244
576 244
577 244
578 244
579 244
580 244
581 244
582 244
583 244
584 244
585 245
586 244
587 245
588 245
589 244
590 245
591 245
592 245
593 245
594 245
595 245
596 245
597 245
598 245
599 245
600 245
601 245
602 245
603 245
604 245
605 245
606 245
607 245
608 246
609 246
610 246
611 246
612 246
613 246
614 246
615 246
616 246
617 247
618 247
619 247
620 247
621 247
622 247
623 247
624 247
625 247
626 247
627 247
628 248
629 248
630 247
631 248
632 248
633 247
634 248
635 248
636 248
637 248
638 248
639 248
640 248
641 248
642 248
643 249
644 249
645 249
646 249
647 249
648 249
649 249
650 250
651 250
652 250
653 250
654 250
655 250
656 250
657 251
658 251
659 251
660 251
661 251
662 251
663 252
664 252
665 252
666 253
667 253
668 254
669 254
670 254
671 254
672 254
673 254
674 255
675 255
676 255
677 256
678 256
679 256
680 257
681 257
682 258
683 258
684 259
685 259
686 259
687 260
688 260
689 261
690 261
691 261
692 262
693 262
694 263
695 263
696 264
697 264
698 265
699 265
700 266
701 266
702 267
703 267
704 267
705 268
706 269
707 269
708 269
709 270
710 270
711 270
712 271
713 271
714 272
715 272
716 273
717 273
718 274
719 274
720 275
721 275
722 276
723 276
724 276
725 277
726 277
727 278
728 278
729 279
730 279
731 279
732 280
733 280
734 281
735 281
736 282
737 282
738 282
739 283
740 283
741 283
742 284
743 284
744 285
745 285
746 286
747 286
748 287
749 287
750 287
751 286
752 287
752 288
753 288
754 287
755 288
755 289
756 289
757 289
758 289
759 289
760 289
760 288
759 287
760 286
760 285
760 284
760 283
761 282
761 281
762 280
762 279
761 279
760 278
759 278
759 279
758 280
757 281
756 281
755 281
754 280
753 281
752 281
751 280
750 280
749 279
748 279
747 280
746 279
745 279
744 278
743 278
742 278
741 277
740 276
739 275
738 275
737 275
736 275
735 274
736 273
735 272
735 271
735 272
734 273
733 272
732 272
731 272
730 271
729 271
728 271
727 270
727 269
726 269
725 268
724 268
723 268
722 267
721 266
720 267
719 266
719 265
720 264
719 265
718 264
718 263
717 264
716 264
715 263
716 262
715 263
714 263
713 263
712 262
711 262
710 261
709 261
708 260
709 259
708 258
707 258
706 258
705 257
704 258
703 257
703 256
702 256
702 257
701 258
700 258
699 258
698 257
698 256
697 257
696 256
695 255
695 254
696 253
697 254
698 254
697 254
696 253
695 253
695 254
694 255
693 254
692 253
691 254
690 253
689 253
688 252
687 252
686 251
685 251
684 250
684 249
683 250
682 250
681 250
680 249
680 248
680 247
679 247
678 247
677 246
677 247
676 248
675 248
674 247
673 247
672 246
673 245
672 245
671 244
672 245
671 246
670 246
669 246
668 245
669 244
668 243
669 244
668 245
667 245
666 245
665 245
664 244
664 243
665 242
666 243
666 242
665 242
664 242
663 241
662 241
661 241
660 241
659 241
658 241
659 241
660 241
661 242
660 243
659 243
658 243
657 243
656 242
655 242
654 241
655 240
656 240
655 239
654 239
653 239
653 240
652 241
651 241
650 241
649 240
648 239
649 238
650 238
651 238
650 238
649 238
648 239
647 239
646 240
645 239
644 239
643 238
644 237
645 237
644 237
643 238
642 239
641 239
640 238
639 237
638 237
637 237
638 237
639 238
638 239
637 239
636 239
635 239
634 238
634 237
635 236
634 236
634 237
634 238
633 239
632 239
631 238
630 238
629 238
628 238
627 238
626 237
625 237
624 237
623 237
622 236
623 235
624 235
625 235
626 235
625 235
624 235
623 235
622 235
621 235
620 235
619 235
618 235
617 235
616 235
615 235
614 235
613 235
612 236
611 236
610 237
609 236
609 235
610 234
611 234
610 234
609 235
608 236
607 235
607 234
607 235
606 236
605 236
604 236
603 235
602 235
601 235
600 235
599 235
598 234
598 235
597 236
596 235
596 234
595 235
594 235
593 235
592 234
593 233
592 233
592 234
591 235
590 235
589 234
588 234
587 233
586 233
585 233
584 234
583 234
582 234
581 234
580 233
579 233
578 233
578 234
577 235
576 235
575 234
575 233
574 234
573 235
572 235
571 234
572 233
571 233
570 234
569 234
568 234
567 234
566 233
567 232
566 232
565 231
564 231
563 231
562 231
561 230
560 229
560 230
559 231
558 230
558 229
558 228
557 227
556 228
555 228
554 228
553 227
553 226
552 225
552 224
551 223
551 222
551 221
551 220
551 219
552 218
552 217
552 216
552 215
552 214
553 213
553 212
553 211
553 210
554 209
554 208
554 207
555 206
555 205
556 204
556 203
556 202
556 201
557 200
557 199
558 198
558 197
558 196
559 195
558 194
559 193
559 192
559 191
559 190
559 189
559 188
558 187
558 186
557 185
556 185
555 184
555 183
556 182
556 181
556 180
556 179
556 178
556 177
556 176
557 175
557 174
556 173
556 172
556 171
556 170
555 169
555 168
554 167
554 166
553 166
552 165
552 164
552 163
553 162
553 161
553 160
552 159
552 158
552 157
552 156
552 155
552 154
552 153
552 152
552 151
552 150
552 149
551 148
551 147
551 146
550 145
550 144
549 144
548 144
547 143
546 142
545 142
544 143
543 142
542 141
542 140
542 139
542 138
541 137
540 137
539 136
539 135
539 134
539 133
538 132
538 131
538 130
537 129
536 128
535 128
534 127
533 127
532 126
531 126
530 125
530 124
530 123
529 122
530 121
529 120
529 119
529 118
528 117
528 116
527 116
526 115
525 114
524 113
523 113
522 112
521 111
521 110
521 109
521 108
520 107
519 106
518 105
517 104
516 104
515 104
514 105
513 105
512 105
511 105
510 104
509 103
509 102
509 101
508 100
508 99
507 98
507 97
506 96
505 96
504 95
503 95
502 94
502 95
501 96
500 95
500 94
499 93
499 92
498 91
497 91
496 91
495 90
495 89
495 88
494 87
494 86
494 85
493 84
492 83
492 82
491 81
490 81
489 80
488 80
487 80
486 79
485 80
484 79
483 80
482 80
481 79
481 78
481 77
481 76
480 75
480 74
479 73
479 72
478 71
477 70
476 69
475 70
474 69
473 68
472 68
471 69
470 68
470 67
470 66
470 65
469 64
468 63
468 62
467 61
466 61
465 60
464 59
463 59
462 59
461 59
460 60
459 60
458 60
457 60
456 61
455 60
455 59
454 58
453 57
452 57
451 56
450 55
449 54
448 53
447 52
446 52
445 51
444 51
443 51
442 51
441 52
440 52
439 52
438 52
437 52
436 51
436 50
435 49
434 48
433 47
432 47
431 47
430 46
430 45
429 44
428 43
427 42
426 42
425 42
424 42
423 42
422 42
421 43
420 43
419 43
420 44
419 45
418 45
417 44
417 43
416 42
415 42
414 42
413 41
412 40
411 40
410 41
409 41
408 40
407 41
406 41
405 40
405 39
405 38
404 38
403 37
403 36
402 35
401 35
400 34
399 33
398 33
397 33
396 33
395 34
394 35
393 35
392 36
391 36
390 35
389 35
388 34
387 33
386 33
385 32
384 32
383 32
382 31
381 32
380 31
379 31
378 30
377 29
376 28
375 27
374 27
373 26
372 26
371 26
370 25
369 25
368 26
367 26
366 27
365 28
364 28
363 29
362 29
361 29
360 29
359 28
358 28
357 27
356 27
355 28
354 28
353 28
352 28
351 28
350 28
349 28
348 27
347 26
346 26
345 25
344 25
343 24
342 24
341 24
340 24
339 24
338 24
338 25
337 26
336 27
335 27
334 27
333 28
332 28
331 27
330 27
329 27
328 27
327 26
326 26
325 26
324 27
323 27
322 27
321 27
320 28
319 28
318 27
317 27
316 26
315 26
314 25
313 25
312 24
311 24
310 24
309 24
308 24
307 24
306 24
