401 58
400 59
399 59
398 59
397 59
396 59
395 60
394 60
393 60
392 61
391 61
390 61
389 62
388 62
387 62
386 62
385 63
384 62
383 62
382 62
381 62
380 62
379 62
378 62
377 62
376 62
375 62
374 62
373 62
372 62
371 61
370 61
369 61
368 61
367 61
366 61
365 60
364 60
363 60
362 60
361 60
360 60
359 60
358 59
357 59
356 59
355 59
354 59
353 59
352 59
351 59
350 59
349 59
348 59
347 59
346 59
345 59
344 59
343 59
342 59
341 59
340 59
339 59
338 60
337 60
336 60
335 60
334 60
333 60
332 60
331 60
330 60
329 60
328 60
327 60
326 60
325 60
324 61
323 61
322 61
321 61
320 61
319 61
318 61
317 62
316 62
315 62
314 63
313 63
312 63
311 64
310 65
309 65
308 65
307 66
306 66
305 66
304 67
303 67
302 67
301 67
300 67
299 67
298 67
297 67
296 67
295 67
294 67
293 67
292 66
291 66
290 66
289 66
288 66
287 66
286 66
285 66
284 66
283 66
282 66
281 66
280 66
279 67
278 67
277 67
276 67
275 67
274 67
273 68
272 68
271 68
270 68
269 69
268 69
267 70
266 70
265 70
264 71
263 71
262 71
261 71
260 71
259 72
258 72
257 72
256 72
255 72
254 73
253 73
252 73
251 73
250 73
249 73
248 73
247 74
246 74
245 74
244 74
243 74
242 75
241 75
240 75
239 76
238 76
237 76
236 77
235 77
234 77
233 78
232 78
231 78
230 79
229 80
228 80
227 81
226 81
225 81
224 81
223 82
222 82
221 82
220 82
219 83
218 83
217 83
216 83
215 83
214 83
213 83
212 83
211 83
210 83
209 83
208 83
207 83
206 83
205 83
204 83
203 83
202 84
201 84
200 84
199 84
198 85
197 85
196 85
195 85
194 86
193 86
192 86
191 86
190 87
189 87
188 87
187 87
186 88
185 88
184 89
183 89
182 90
181 90
180 91
179 91
178 92
177 92
176 93
175 94
174 94
173 94
172 94
171 94
170 95
169 95
168 95
167 96
166 97
165 97
164 98
163 98
162 98
161 99
160 99
159 100
158 100
157 100
156 101
155 101
154 102
153 102
152 102
151 103
150 103
149 104
148 104
147 104
146 105
145 105
144 106
143 107
142 108
141 108
140 109
139 109
138 109
137 110
136 110
135 111
134 112
133 112
132 112
131 112
130 112
129 112
128 113
127 113
126 113
125 114
124 114
123 114
122 114
121 115
120 115
119 116
118 116
117 116
116 117
115 117
114 117
113 118
112 119
111 119
110 119
109 120
108 120
107 121
106 121
105 122
104 123
103 123
102 124
101 124
100 125
99 126
98 126
97 127
96 127
95 128
94 128
93 129
92 129
91 129
90 130
89 130
88 131
87 131
86 132
85 133
84 133
83 134
82 134
81 135
80 136
79 136
78 137
77 137
76 137
75 138
74 138
73 138
72 139
71 139
70 139
69 139
68 140
67 140
66 141
65 141
64 142
63 142
62 143
61 143
60 144
59 144
58 145
57 146
57 147
58 148
59 148
60 149
61 150
62 150
63 151
64 152
65 152
66 153
67 154
68 155
69 156
70 157
71 158
72 159
73 159
74 160
75 161
76 162
77 163
78 164
79 165
80 165
81 166
82 167
83 167
84 168
85 168
86 169
87 170
88 171
89 171
90 172
91 172
92 172
93 173
94 174
95 174
96 175
97 176
98 176
99 176
100 177
101 177
102 177
103 178
104 178
105 179
106 179
107 180
108 181
109 181
110 182
111 182
112 183
113 184
114 184
115 184
116 184
117 185
118 185
119 186
120 186
121 187
122 187
123 188
124 188
125 189
126 189
127 190
128 191
129 192
129 193
130 194
131 195
131 196
132 197
133 198
134 199
135 200
135 201
136 202
137 203
138 204
139 204
140 205
141 205
142 206
143 206
144 207
145 207
146 208
147 208
148 209
149 209
150 209
151 210
152 210
153 210
154 211
155 211
156 211
157 212
158 212
159 213
160 213
161 214
162 214
163 214
164 215
165 215
166 216
167 217
167 218
168 218
169 219
170 220
171 220
172 221
173 222
174 223
175 223
176 224
177 224
178 225
179 225
180 226
181 226
182 226
183 226
184 226
185 227
186 227
187 227
188 227
189 227
190 227
191 227
192 227
193 227
194 228
195 228
196 228
197 228
198 229
199 229
200 229
201 229
202 230
203 230
204 231
205 231
206 231
207 232
208 233
209 234
210 234
211 235
212 236
213 236
214 237
215 237
216 238
217 238
218 239
219 239
220 239
221 239
222 240
223 240
224 240
225 241
226 241
227 241
228 241
229 241
230 242
231 242
232 242
233 242
234 242
235 242
236 242
237 242
238 242
239 242
240 242
241 243
242 243
243 243
244 243
245 243
246 243
247 244
248 244
249 244
250 244
251 244
252 244
253 244
254 244
255 244
256 244
257 244
258 245
259 245
260 245
261 245
262 245
263 245
264 245
265 245
266 245
267 245
268 246
269 246
270 246
271 246
272 247
273 248
274 248
275 248
276 249
277 249
278 249
279 249
280 250
281 250
282 250
283 251
284 251
285 251
286 251
287 251
288 251
289 251
290 251
291 251
292 251
293 251
294 251
295 250
296 250
297 250
298 250
299 250
300 250
301 250
302 250
303 250
304 250
305 250
306 250
307 250
308 250
309 250
310 250
311 250
312 250
313 250
314 250
315 250
316 251
317 251
318 251
319 251
320 251
321 251
322 251
323 252
324 252
325 252
326 252
327 253
328 253
329 253
330 253
331 253
332 253
333 254
334 254
335 255
336 255
337 256
338 256
339 256
340 257
341 257
342 257
343 257
344 257
345 258
346 258
347 258
348 258
349 258
350 259
351 259
352 259
353 259
354 259
355 259
356 259
357 259
358 259
359 259
360 259
361 259
362 259
363 259
364 259
365 259
366 259
367 259
368 259
369 259
370 259
371 259
372 259
373 259
374 259
375 258
376 258
377 258
378 259
379 259
380 260
381 260
382 261
383 261
384 261
385 261
386 261
387 261
388 261
389 261
390 262
391 262
392 262
393 262
394 262
395 262
396 262
397 262
398 262
399 262
400 262
401 262
402 262
403 262
404 262
405 262
406 262
407 262
408 262
409 262
410 261
411 261
412 261
413 261
414 261
415 261
416 261
417 261
418 261
419 261
420 261
421 261
422 261
423 260
424 260
425 260
426 260
427 260
428 260
429 260
430 260
431 260
432 260
433 260
434 260
435 260
436 260
437 260
438 260
439 260
440 260
441 259
442 259
443 259
444 258
445 258
446 258
447 259
448 259
449 259
450 259
451 259
452 259
453 259
454 259
455 258
456 258
457 258
458 258
459 258
460 257
461 257
462 257
463 256
464 256
465 256
466 255
467 255
468 254
469 253
470 253
471 252
472 252
473 252
474 251
475 251
476 251
477 251
478 250
479 250
480 250
481 250
482 249
483 249
484 249
485 249
486 248
487 248
488 248
489 248
490 248
491 247
492 247
493 247
494 247
495 247
496 247
497 247
498 246
499 246
500 246
501 246
502 246
503 245
504 245
505 245
506 245
507 244
508 244
509 243
510 243
511 243
512 243
513 242
514 242
515 241
516 241
517 241
518 240
519 240
520 239
521 239
522 239
523 238
524 238
525 238
526 238
527 237
528 237
529 237
530 236
531 236
532 236
533 236
534 235
535 235
536 235
537 235
538 235
539 234
540 234
541 233
542 233
543 233
544 233
545 232
546 232
547 232
548 231
549 231
550 231
551 231
552 231
553 230
554 230
555 229
556 229
557 229
558 228
559 228
560 228
561 227
562 227
563 227
564 227
565 226
566 226
567 226
568 226
569 226
570 226
571 226
572 225
573 225
574 225
575 224
576 224
577 224
578 224
579 224
580 223
581 223
582 223
583 223
584 223
585 222
586 222
587 222
588 222
589 222
590 221
591 221
592 221
593 221
594 221
595 220
596 220
597 220
598 220
599 219
600 219
601 219
602 219
603 218
604 218
605 218
606 217
607 217
608 217
609 216
610 216
611 216
612 215
613 215
614 215
615 214
616 214
617 214
618 213
619 213
620 212
621 212
622 212
623 211
624 211
625 210
626 210
627 209
628 209
629 209
630 208
631 208
632 208
633 207
634 207
635 207
636 206
637 206
638 206
639 205
640 205
641 204
642 204
643 204
644 204
645 203
646 203
647 203
648 202
649 202
650 202
651 201
652 201
653 201
654 200
655 200
656 200
657 199
658 199
659 198
660 198
661 198
662 198
663 197
664 197
665 197
666 196
667 196
668 196
669 195
670 195
671 195
672 194
673 194
674 194
675 193
676 193
677 193
678 192
679 192
680 192
681 192
682 192
683 191
684 191
685 191
686 191
687 190
688 190
689 190
690 189
691 189
692 189
693 188
694 188
695 188
696 188
697 187
698 187
699 187
700 187
701 186
702 186
703 186
704 185
705 185
706 185
707 184
708 184
709 184
710 183
711 183
712 182
713 182
714 181
715 181
716 181
717 180
718 180
719 180
720 179
721 178
722 178
723 178
724 178
725 178
726 178
727 178
728 178
729 178
730 178
731 178
732 178
733 178
734 178
735 178
736 178
737 178
738 178
739 178
740 178
741 178
742 177
741 176
741 175
742 174
743 173
743 172
743 171
743 170
743 169
743 168
743 167
742 166
742 165
741 164
740 163
739 163
738 163
737 163
736 163
735 163
734 164
733 164
732 164
731 164
730 165
729 165
728 165
727 165
726 166
725 165
724 164
723 163
722 162
721 162
720 161
719 160
718 159
717 158
716 157
715 156
714 155
713 155
712 154
711 153
710 153
709 152
708 152
707 151
706 150
705 150
704 150
703 149
702 149
701 148
700 147
699 147
698 146
697 146
696 145
695 144
694 143
693 143
692 142
691 141
690 140
689 140
688 139
687 138
686 138
685 137
684 137
683 137
682 136
681 136
680 135
679 135
678 134
677 134
676 133
675 133
674 132
673 132
672 131
671 130
670 130
669 130
668 129
667 129
666 128
665 128
664 127
663 127
662 126
661 125
660 125
659 125
658 124
657 124
656 123
655 123
654 122
653 122
652 121
651 121
650 120
649 120
648 119
647 119
646 118
645 118
644 117
643 117
642 116
641 116
640 115
639 115
638 115
637 114
636 114
635 113
634 113
633 112
632 112
631 111
630 111
629 110
628 110
627 110
626 109
625 109
624 108
623 108
622 107
621 107
620 106
619 106
618 105
617 105
616 104
615 104
614 104
613 103
612 103
611 102
610 102
609 101
608 101
607 101
606 100
605 100
604 99
603 99
602 98
601 98
600 97
599 97
598 97
597 96
596 96
595 96
594 96
593 95
592 95
591 94
590 94
589 93
588 93
587 92
586 92
585 91
584 91
583 91
582 90
581 90
580 89
579 89
578 88
577 88
576 88
575 88
574 87
573 87
572 87
571 87
570 86
569 86
568 86
567 85
566 85
565 84
564 84
563 84
562 83
561 83
560 82
559 82
558 82
557 81
556 81
555 80
554 80
553 80
552 79
551 79
550 78
549 78
548 78
547 77
546 77
545 77
544 76
543 76
542 76
541 76
540 75
539 75
538 75
537 75
536 74
535 74
534 73
533 73
532 73
531 72
530 72
529 72
528 72
527 71
526 71
525 71
524 71
523 70
522 70
521 70
520 70
519 69
518 69
517 69
516 69
515 68
514 68
513 68
512 67
511 67
510 67
509 66
508 66
507 66
506 66
505 65
504 65
503 65
502 65
501 65
500 64
499 64
498 64
497 63
496 63
495 63
494 63
493 62
492 62
491 62
490 62
489 62
488 62
487 62
486 61
485 61
484 61
483 61
482 61
481 61
480 61
479 61
478 61
477 61
476 61
475 61
474 61
473 61
472 61
471 61
470 61
469 61
468 61
467 61
466 61
465 61
464 61
463 61
462 61
461 61
460 61
459 61
458 61
457 60
456 60
455 60
454 60
453 60
452 60
451 60
450 60
449 60
448 59
447 59
446 59
445 59
444 59
443 59
442 59
441 59
440 59
439 58
438 58
437 58
436 59
435 59
434 59
433 59
432 59
431 59
430 59
429 59
428 59
427 59
426 59
425 59
424 59
423 59
422 58
421 58
420 58
419 58
418 58
417 58
416 58
415 58
414 58
413 58
412 58
411 58
410 58
409 58
408 58
407 58
406 58
405 58
404 58
403 58
402 58
401 58
