436 1
435 2
434 2
433 2
432 2
431 2
430 2
429 2
428 2
427 3
426 3
425 3
424 3
423 3
422 3
421 3
420 3
419 4
418 4
417 4
416 4
415 4
414 4
413 4
412 4
411 4
410 4
409 4
408 5
407 5
406 5
405 5
404 5
403 5
402 5
401 5
400 6
399 6
398 6
397 6
396 6
395 7
394 7
393 7
392 7
391 7
390 7
389 7
388 8
387 8
386 8
385 8
384 8
383 8
382 8
381 8
380 8
379 9
378 9
377 9
376 9
375 9
374 10
373 10
372 10
371 11
370 11
369 11
368 10
367 9
366 9
365 9
364 9
363 9
362 9
361 9
360 8
359 8
358 8
357 8
356 8
355 8
354 8
353 8
352 8
351 8
350 8
349 8
348 8
347 9
346 9
345 9
344 9
343 9
342 9
341 9
340 9
339 9
338 10
337 10
336 10
335 10
334 10
333 11
332 11
331 11
330 12
329 12
328 12
327 13
326 13
325 13
324 13
323 14
322 14
321 14
320 14
319 14
318 15
317 15
316 15
315 15
314 15
313 16
312 16
311 16
310 16
309 17
308 17
307 17
306 17
305 17
304 17
303 17
302 17
301 17
300 18
299 18
298 18
297 19
296 19
295 19
294 20
293 20
292 20
291 21
290 21
289 21
288 22
287 22
286 22
285 22
284 23
283 23
282 24
281 24
280 25
279 25
278 26
277 26
276 27
275 27
274 27
273 28
272 28
271 28
270 28
269 29
268 29
267 30
266 30
265 31
264 31
263 32
262 33
261 33
260 33
259 34
258 34
257 35
256 36
255 37
254 37
253 38
252 38
251 39
250 39
249 40
248 41
247 41
246 42
245 42
244 43
243 43
242 44
241 44
240 44
239 45
238 45
237 46
236 46
235 47
234 47
233 48
232 48
231 48
230 49
229 49
228 49
227 50
226 50
225 51
224 52
223 52
222 52
221 53
220 53
219 54
218 54
217 54
216 55
215 55
214 56
213 56
212 56
211 57
210 57
209 58
208 58
207 59
206 60
205 60
204 61
203 61
202 62
201 63
200 63
199 64
198 65
197 65
196 66
195 67
194 67
194 68
193 69
192 69
191 70
190 71
189 71
188 72
187 73
186 73
185 74
184 75
183 76
182 77
181 77
180 78
179 79
178 79
178 80
177 81
176 81
175 82
174 83
173 83
173 84
172 85
171 86
170 87
169 88
168 89
167 90
166 91
165 92
164 93
163 93
162 94
161 95
161 96
160 97
159 97
158 98
157 99
156 100
155 100
154 101
153 102
152 103
151 104
150 105
149 106
148 107
147 108
146 109
145 110
144 111
143 112
142 113
141 114
140 115
139 116
138 117
137 118
136 119
135 120
134 121
133 122
132 123
131 124
130 125
130 126
129 127
128 128
127 129
126 130
125 131
125 132
124 133
123 134
123 135
122 136
121 137
120 138
119 139
118 140
118 141
117 142
116 143
115 144
114 145
113 146
112 147
112 148
111 149
111 150
110 151
109 152
109 153
108 154
107 155
107 156
106 157
105 158
104 159
103 160
102 161
101 162
100 163
99 164
98 165
98 166
97 167
96 168
95 169
94 170
93 171
92 172
92 173
91 174
90 175
89 176
88 177
87 178
86 179
85 180
84 181
83 182
82 183
82 184
81 185
80 185
80 186
79 187
78 188
77 188
77 189
76 190
75 191
75 192
74 193
73 194
72 195
71 196
71 197
70 198
69 199
69 200
68 201
67 202
66 203
65 203
65 204
65 205
64 206
64 207
63 208
62 209
61 209
60 210
60 211
59 212
58 212
58 213
58 214
57 215
56 216
55 217
55 218
54 219
53 219
53 220
53 221
52 222
52 223
51 224
51 225
50 226
50 227
49 228
49 229
49 230
49 231
48 232
48 233
48 234
47 235
47 236
47 237
46 238
45 239
45 240
44 241
44 242
43 243
43 244
42 245
42 246
41 247
41 248
40 249
40 250
39 251
39 252
39 253
38 254
38 255
37 256
37 257
37 258
37 259
36 260
36 261
35 262
35 263
35 264
34 265
34 266
33 267
33 268
32 269
32 270
32 271
31 272
31 273
30 274
30 275
29 276
29 277
29 278
28 279
28 280
27 281
27 282
26 283
26 284
25 285
25 286
24 287
23 288
22 289
22 290
21 291
21 292
20 293
19 294
18 295
18 296
17 297
16 298
16 299
15 300
14 301
14 302
13 303
13 304
12 305
12 306
12 307
11 308
11 309
11 310
10 311
10 312
9 313
9 314
9 315
9 316
9 317
8 318
8 319
8 320
8 321
7 322
7 323
7 324
7 325
7 326
6 327
6 328
6 329
6 330
5 331
5 332
5 333
4 334
4 335
4 336
4 337
3 338
3 339
3 340
3 341
3 342
2 343
2 344
2 345
2 346
2 347
2 348
2 349
1 350
1 351
1 352
1 353
1 354
1 355
1 356
1 357
1 358
1 359
1 360
1 361
1 362
1 363
1 364
1 365
1 366
1 367
1 368
1 369
1 370
1 371
1 372
1 373
2 374
2 375
2 376
2 377
3 378
3 379
3 380
3 381
3 382
4 383
4 384
4 385
5 386
5 387
5 388
6 389
6 390
7 391
7 392
8 393
8 394
9 395
9 396
10 397
11 398
11 399
12 400
13 401
13 402
14 403
15 404
16 405
17 406
18 407
19 408
20 409
21 409
22 410
23 411
24 412
24 413
25 414
24 415
24 416
23 417
22 418
21 419
20 420
19 420
19 421
18 422
17 423
16 424
16 425
15 426
15 427
14 428
13 429
13 430
12 431
12 432
11 433
11 434
11 435
11 436
10 437
10 438
10 439
9 440
9 441
9 442
8 443
8 444
8 445
7 446
7 447
7 448
7 449
6 450
6 451
6 452
6 453
6 454
6 455
6 456
6 457
6 458
6 459
5 460
5 461
5 462
5 463
5 464
6 465
6 466
6 467
6 468
6 469
6 470
6 471
6 472
6 473
6 474
6 475
6 476
7 477
7 478
7 479
7 480
7 481
7 482
8 483
8 484
8 485
9 486
9 487
9 488
10 489
10 490
11 491
11 492
11 493
12 494
12 495
13 496
13 497
13 498
14 499
14 500
14 501
15 502
15 503
16 504
16 505
17 506
17 507
17 508
18 509
18 510
19 511
19 512
20 513
20 514
21 515
21 516
21 517
22 518
23 519
23 520
24 521
24 522
25 523
25 524
26 525
27 526
27 527
28 528
29 529
29 530
30 531
31 532
32 533
33 534
33 535
34 536
35 537
36 538
37 539
37 540
38 541
39 542
39 543
40 544
41 545
41 546
42 547
42 548
43 549
43 550
43 551
44 552
44 553
45 554
45 555
45 556
45 557
46 558
46 559
46 560
47 561
47 562
47 563
48 564
48 565
48 566
49 567
49 568
49 569
49 570
50 571
50 572
50 573
51 574
51 575
51 576
52 577
53 578
54 579
55 580
55 581
56 582
56 583
57 584
57 585
58 586
59 587
60 588
60 589
61 590
62 591
62 592
63 592
64 593
64 594
65 595
66 596
66 597
67 598
68 599
69 600
70 601
70 602
71 603
72 604
73 605
73 606
74 607
75 608
76 609
77 610
78 611
79 612
80 613
81 614
82 615
83 616
84 616
85 617
85 618
86 618
87 619
87 620
88 621
89 622
90 622
91 623
91 624
92 625
93 626
94 627
95 628
96 629
97 630
98 631
99 632
100 633
101 634
102 634
103 635
103 636
104 637
105 638
106 639
107 640
108 641
109 642
110 643
111 644
112 645
113 646
114 646
115 647
116 648
117 649
118 650
119 651
120 651
121 652
122 653
123 653
124 654
125 655
126 656
127 656
128 657
129 658
130 659
131 659
132 660
133 661
134 661
135 662
136 663
137 664
138 664
139 665
140 666
141 667
142 668
143 668
144 669
145 670
146 671
147 672
148 672
149 673
150 674
151 675
152 676
153 677
154 678
155 679
156 680
157 681
157 682
158 683
159 684
160 685
161 686
161 687
162 687
163 688
164 689
165 690
165 691
166 691
167 692
168 693
169 694
170 695
171 696
172 697
173 698
174 698
175 699
176 700
177 701
178 701
179 702
180 702
181 703
182 704
183 705
184 705
185 706
186 707
187 708
188 708
189 709
190 709
191 710
192 711
193 712
194 712
195 713
196 713
197 714
198 715
199 715
200 716
201 717
202 717
203 718
204 718
205 719
206 720
207 720
208 720
209 721
210 722
211 723
212 723
213 724
214 724
215 725
216 726
217 726
218 727
219 728
220 728
221 729
222 729
223 730
224 731
225 731
226 732
227 732
228 733
229 733
230 734
231 734
232 735
233 735
234 735
235 736
236 736
237 737
238 738
239 738
240 739
241 739
242 740
243 740
244 741
245 741
246 742
247 742
248 743
249 744
250 744
251 745
252 746
253 747
254 747
255 748
256 748
257 749
258 749
259 750
260 750
261 751
262 751
263 752
264 752
265 753
266 753
267 754
268 754
269 755
270 755
271 756
272 756
273 757
274 757
275 757
276 758
277 758
278 759
279 759
280 760
281 760
282 760
283 761
284 761
285 761
286 761
287 762
288 762
289 763
290 763
291 763
292 764
293 764
294 764
295 765
296 765
297 766
298 766
299 766
300 767
301 767
302 767
303 768
304 768
305 768
306 768
307 769
308 769
309 770
310 770
311 770
312 771
313 771
314 771
315 771
316 771
317 772
318 772
319 772
320 773
321 773
322 774
323 774
324 774
325 775
326 775
327 775
328 776
329 776
330 776
331 777
332 777
333 777
334 778
335 778
336 778
337 779
338 779
339 779
340 780
341 780
342 780
343 781
344 781
345 781
346 781
347 782
348 782
349 782
350 782
351 783
352 783
353 783
354 783
355 783
356 784
357 784
358 784
359 784
360 784
361 784
362 784
363 784
364 785
365 785
366 785
367 785
368 785
369 785
370 786
371 786
372 786
373 786
374 786
375 786
376 786
377 787
378 787
379 787
380 787
381 787
382 787
383 787
384 787
385 788
386 788
387 788
388 788
389 788
390 788
391 788
392 788
393 788
394 788
395 788
396 789
397 789
398 789
399 789
400 789
401 789
402 789
403 789
404 789
405 789
406 789
407 789
408 789
409 789
410 789
411 789
412 789
413 789
414 789
415 788
416 788
417 788
418 788
419 788
420 788
421 788
422 787
423 787
424 787
425 787
426 787
427 787
428 787
429 787
430 787
431 786
432 786
433 786
434 786
435 786
436 786
437 786
438 786
439 785
440 785
441 785
442 785
443 785
444 785
445 785
446 785
447 785
448 785
449 785
450 785
451 785
452 785
453 785
454 785
455 784
456 784
457 784
458 784
459 784
460 784
461 784
462 784
463 783
464 783
465 783
466 783
467 783
468 783
469 783
470 782
471 782
472 782
473 782
474 782
475 781
476 781
477 781
478 781
479 781
480 780
481 780
482 780
483 780
484 779
485 779
486 779
487 778
488 778
489 778
490 778
491 778
492 777
493 777
494 777
495 776
496 776
497 776
498 776
499 775
500 775
501 775
502 775
503 775
504 775
505 774
506 774
507 774
508 773
509 773
510 773
511 773
512 772
513 772
514 772
515 771
516 771
517 771
518 771
519 770
520 770
521 770
522 770
523 770
524 769
525 769
526 769
527 769
528 768
529 768
530 768
531 768
532 767
533 767
534 767
535 766
536 766
537 766
538 766
539 766
540 766
541 765
542 765
543 765
544 765
545 765
546 764
547 764
548 764
549 764
550 764
551 764
552 764
553 763
554 763
555 763
556 763
557 762
558 762
559 762
560 761
561 761
562 761
563 761
564 760
565 760
566 760
567 759
568 759
569 758
570 758
571 757
572 757
573 757
574 756
575 756
576 755
577 755
578 755
579 754
580 754
581 753
582 753
583 752
584 752
585 751
586 751
587 750
588 749
589 749
590 748
591 748
592 747
593 746
594 746
595 745
596 745
597 744
598 744
599 743
600 742
601 742
602 741
603 740
604 740
605 739
606 738
607 738
608 737
609 736
610 735
611 735
612 734
613 733
614 732
615 731
616 730
617 729
618 728
619 727
620 726
621 725
622 724
623 723
624 722
625 721
626 720
627 719
628 719
629 718
630 717
631 716
632 716
633 715
634 714
635 714
636 713
637 712
638 712
639 711
640 710
641 709
642 709
643 708
644 708
645 707
646 707
647 706
648 705
649 704
650 703
651 703
652 702
653 701
654 700
655 699
656 698
657 698
658 697
659 696
660 695
661 695
662 694
663 693
664 692
665 691
666 690
667 689
668 688
669 687
670 686
671 685
672 684
673 683
674 682
674 681
675 680
676 679
676 678
677 677
678 676
679 675
679 674
680 673
681 672
682 671
683 670
683 669
684 668
685 667
686 666
687 665
687 664
688 663
688 662
689 661
689 660
690 659
690 658
691 657
691 656
692 655
693 654
693 653
694 652
695 651
695 650
696 649
696 648
697 647
698 646
698 645
699 644
700 643
700 642
701 641
702 640
703 639
704 638
705 637
706 636
707 635
708 634
709 633
709 632
710 631
711 630
712 629
713 628
714 627
715 626
716 625
717 624
717 623
718 622
719 621
719 620
720 619
720 618
721 617
722 616
722 615
723 614
723 613
724 612
725 611
725 610
726 609
726 608
727 607
728 606
728 605
728 604
729 603
730 602
730 601
731 600
731 599
731 598
732 597
732 596
733 595
733 594
734 593
734 592
735 591
735 590
736 589
736 588
736 587
737 586
737 585
738 584
738 583
739 582
739 581
740 580
740 579
740 578
741 577
741 576
741 575
742 574
742 573
742 572
742 571
743 570
743 569
743 568
743 567
743 566
743 565
744 564
744 563
744 562
744 561
745 560
745 559
745 558
745 557
746 556
746 555
746 554
746 553
747 552
747 551
747 550
747 549
748 548
748 547
748 546
748 545
748 544
749 543
749 542
749 541
749 540
749 539
750 538
750 537
750 536
750 535
750 534
750 533
751 532
751 531
751 530
752 529
753 530
754 530
755 531
756 532
757 533
758 534
759 535
760 536
761 537
762 538
763 539
764 540
765 541
765 542
766 543
767 544
768 545
769 546
770 547
771 548
772 549
773 550
774 550
775 551
776 552
777 552
778 553
779 553
780 554
781 554
782 554
783 555
784 556
785 556
786 557
787 557
788 558
789 558
790 558
791 558
792 558
793 558
794 558
795 557
796 556
797 555
798 555
799 554
799 553
799 552
799 551
799 550
799 549
799 548
799 547
799 546
799 545
800 544
800 543
800 542
800 541
800 540
800 539
800 538
800 537
799 538
798 538
797 538
796 537
795 537
794 537
793 537
792 537
791 536
790 536
789 535
788 535
787 534
786 534
785 533
784 533
783 532
782 532
781 531
780 530
779 530
778 529
777 529
776 528
775 528
774 527
773 527
772 527
771 526
770 526
769 526
768 525
767 524
766 523
765 523
764 522
763 521
762 521
761 520
760 519
759 519
758 518
757 517
756 517
755 516
754 515
753 514
753 513
753 512
753 511
753 510
753 509
753 508
753 507
753 506
753 505
753 504
753 503
753 502
753 501
752 500
752 499
752 498
752 497
752 496
752 495
752 494
752 493
751 492
751 491
751 490
751 489
750 488
750 487
750 486
750 485
750 484
749 483
749 482
749 481
749 480
749 479
749 478
749 477
748 476
748 475
748 474
748 473
748 472
747 471
747 470
747 469
747 468
747 467
746 466
746 465
746 464
746 463
745 462
745 461
745 460
744 459
744 458
743 457
743 456
742 455
742 454
741 453
741 452
740 451
740 450
739 449
739 448
739 447
738 446
737 445
737 444
736 443
736 442
735 441
734 440
734 439
733 438
732 437
732 436
731 435
730 434
729 433
729 432
728 431
727 430
726 429
726 428
725 427
724 426
723 425
722 424
721 423
721 422
720 421
719 420
718 419
717 418
716 417
715 416
714 415
713 414
712 413
711 413
710 412
709 411
708 410
707 410
706 409
705 408
704 408
703 407
702 406
701 406
700 405
699 404
698 403
698 402
697 401
697 400
697 399
698 398
699 398
700 397
701 397
702 396
703 396
704 395
705 395
706 395
707 394
708 394
709 393
710 392
711 392
712 391
713 391
714 390
715 390
716 389
717 389
718 388
719 388
720 388
721 387
722 386
723 386
724 385
725 384
726 384
727 383
728 383
729 382
730 381
731 380
732 380
733 379
734 378
735 377
736 376
737 375
738 374
739 373
740 372
741 371
742 371
742 370
743 369
744 368
745 368
745 367
746 366
747 365
748 364
748 363
749 362
750 361
751 360
751 359
752 358
753 357
753 356
754 355
755 354
755 353
756 352
756 351
757 350
758 349
758 348
759 347
759 346
760 345
760 344
761 343
761 342
762 341
762 340
762 339
763 338
763 337
764 336
764 335
765 334
765 333
765 332
766 331
766 330
766 329
767 328
767 327
767 326
767 325
767 324
768 323
768 322
768 321
768 320
768 319
768 318
769 317
769 316
769 315
769 314
769 313
769 312
769 311
770 310
770 309
770 308
770 307
770 306
770 305
770 304
770 303
770 302
770 301
770 300
770 299
770 298
771 297
771 296
771 295
771 294
771 293
771 292
771 291
771 290
771 289
771 288
771 287
771 286
771 285
771 284
771 283
771 282
771 281
770 280
770 279
770 278
770 277
770 276
769 275
769 274
769 273
769 272
769 271
769 270
768 269
768 268
768 267
768 266
768 265
768 264
768 263
768 262
767 261
767 260
767 259
767 258
767 257
766 256
766 255
766 254
765 253
765 252
765 251
765 250
764 249
764 248
764 247
763 246
763 245
762 244
762 243
762 242
761 241
761 240
761 239
760 238
760 237
760 236
759 235
759 234
759 233
758 232
758 231
758 230
757 229
757 228
756 227
756 226
756 225
755 224
754 223
754 222
754 221
753 220
753 219
752 218
752 217
751 216
750 215
750 214
749 213
748 212
748 211
747 210
746 209
745 208
745 207
744 206
744 205
743 204
742 203
742 202
741 201
740 200
740 199
739 198
739 197
738 196
737 195
737 194
736 193
736 192
735 191
734 190
733 189
732 188
732 187
731 186
730 185
729 184
729 183
728 182
727 181
726 180
725 179
725 178
724 177
723 177
722 176
721 175
720 174
720 173
719 172
718 171
717 170
716 169
715 168
714 167
713 166
712 165
711 164
710 163
709 162
709 161
708 160
707 159
707 158
706 157
705 156
705 155
704 154
703 153
702 152
701 151
700 150
699 149
698 148
698 147
697 146
697 145
696 144
695 143
695 142
694 141
693 140
693 139
692 138
691 137
691 136
690 135
689 134
688 133
688 132
687 131
687 130
686 129
685 128
684 127
684 126
683 125
682 124
682 123
681 122
680 121
679 120
678 119
677 118
677 117
676 116
675 115
674 114
674 113
673 112
672 111
672 110
671 109
671 108
670 107
669 106
669 105
668 104
668 103
667 102
666 101
666 100
665 99
665 98
664 97
663 96
662 95
662 94
661 93
660 92
659 91
659 90
658 89
657 88
656 87
656 86
655 85
654 84
653 83
652 82
651 81
650 80
649 80
648 79
648 78
647 77
646 76
645 75
644 74
643 73
642 72
641 71
640 70
639 69
639 68
638 67
637 66
636 65
635 64
634 63
633 62
632 61
631 60
630 60
629 59
628 58
627 57
626 56
625 56
624 55
623 54
622 53
621 53
620 52
619 51
618 50
617 50
616 49
615 48
614 48
613 47
612 46
611 45
610 45
609 44
608 43
607 43
606 42
605 41
604 41
603 40
602 40
601 39
600 39
599 38
598 38
597 37
596 37
595 36
594 35
593 35
592 34
591 34
590 33
589 33
588 32
587 31
586 31
585 30
584 29
583 29
582 28
581 28
580 27
579 26
578 25
577 25
576 24
575 23
574 23
573 22
572 22
571 21
570 20
569 20
568 19
567 18
566 18
565 17
564 17
563 16
562 16
561 15
560 14
559 14
558 14
557 13
556 13
555 13
554 13
553 13
552 12
551 12
550 12
549 12
548 12
547 12
546 11
545 11
544 11
543 10
542 10
541 10
540 9
539 9
538 9
537 9
536 9
535 9
534 8
533 8
532 8
531 8
530 8
529 8
528 7
527 7
526 7
525 7
524 7
523 7
522 6
521 6
520 6
519 6
518 6
517 6
516 6
515 5
514 5
513 5
512 5
511 5
510 5
509 5
508 5
507 5
506 4
505 4
504 4
503 4
502 4
501 4
500 4
499 3
498 4
497 3
496 3
495 3
494 3
493 3
492 3
491 3
490 3
489 2
488 2
487 2
486 2
485 2
484 2
483 2
482 1
481 1
480 1
479 1
478 1
477 1
476 1
475 1
474 1
473 1
472 1
471 1
470 1
469 1
468 1
467 1
466 1
465 1
464 1
463 2
462 2
461 2
460 1
459 1
458 1
457 1
456 1
455 1
454 1
453 1
452 1
451 1
450 1
449 1
448 1
447 1
446 1
445 1
444 1
443 1
442 1
441 1
440 1
439 1
438 2
437 1
436 1
