228 108
227 109
226 109
225 109
224 109
223 109
222 109
221 109
220 109
219 109
218 110
217 110
216 111
215 110
214 110
213 110
212 110
211 110
210 110
209 110
208 110
207 110
206 110
205 110
204 111
203 111
202 111
201 111
200 111
199 112
198 112
197 112
196 112
195 112
194 112
193 113
192 113
191 113
190 113
189 113
188 114
187 114
186 114
185 114
184 115
183 115
182 115
181 115
180 115
179 116
178 116
177 117
176 117
175 117
174 118
173 118
172 118
171 118
170 118
169 119
168 119
167 119
166 119
165 120
164 120
163 121
162 121
161 121
160 122
159 122
158 123
157 123
156 124
155 124
154 125
153 126
152 126
151 126
150 126
149 127
148 127
147 127
146 128
145 129
144 129
143 130
142 131
141 131
140 132
139 132
138 133
137 133
136 134
135 135
134 135
133 136
132 137
131 137
130 138
129 139
128 140
127 141
126 142
125 143
124 144
123 145
122 145
122 146
121 147
120 147
119 148
118 149
117 150
116 151
115 151
114 152
113 153
113 154
112 155
111 156
110 157
109 158
109 159
108 160
107 161
106 162
105 163
104 164
104 165
103 166
102 167
101 168
100 169
100 170
99 171
98 172
98 173
97 174
97 175
96 176
96 177
95 178
95 179
95 180
94 181
94 182
93 183
93 184
92 185
92 186
92 187
92 188
91 189
91 190
91 191
91 192
90 193
90 194
90 195
89 196
89 197
88 198
88 199
87 200
87 201
87 202
87 203
86 204
86 205
86 206
86 207
86 208
85 209
85 210
85 211
85 212
84 213
84 214
84 215
84 216
84 217
83 218
83 219
83 220
83 221
83 222
82 223
82 224
82 225
82 226
82 227
82 228
82 229
82 230
82 231
82 232
82 233
82 234
82 235
82 236
82 237
82 238
82 239
82 240
82 241
82 242
82 243
82 244
82 245
82 246
82 247
82 248
82 249
82 250
81 251
82 252
81 253
81 254
81 255
81 256
80 257
80 258
80 259
80 260
80 261
80 262
80 263
80 264
80 265
80 266
79 267
79 268
79 269
79 270
79 271
79 272
79 273
79 274
79 275
78 276
78 277
78 278
79 279
78 280
79 281
79 282
79 283
79 284
79 285
79 286
79 287
79 288
80 289
80 290
80 291
80 292
80 293
81 294
81 295
81 296
81 297
81 298
81 299
81 300
82 301
82 302
82 303
83 304
83 305
84 306
84 307
84 308
85 309
85 310
85 311
86 312
86 313
86 314
87 315
87 316
87 317
88 318
88 319
88 320
89 321
89 322
90 323
90 324
91 325
91 326
91 327
92 328
92 329
93 330
93 331
94 332
94 333
95 334
95 335
96 336
97 337
97 338
98 339
98 340
98 341
99 342
100 343
101 344
102 345
102 346
103 347
104 348
105 349
106 350
107 351
108 352
108 353
109 354
110 355
111 356
112 357
113 358
114 359
115 360
116 361
117 362
118 362
119 363
120 364
121 365
122 365
123 366
124 367
125 368
126 368
127 369
128 369
129 370
130 371
131 372
132 373
133 373
134 374
135 375
136 376
137 376
138 377
139 377
140 378
141 379
142 379
143 380
144 381
145 381
146 382
147 382
148 383
149 383
150 384
151 384
152 385
153 385
154 386
155 386
156 387
157 388
158 388
159 388
160 389
161 389
162 389
163 390
164 390
165 391
166 391
167 392
168 392
169 393
170 393
171 394
172 394
173 394
174 395
175 395
176 395
177 396
178 396
179 397
180 397
181 397
182 397
183 398
184 398
185 398
186 399
187 399
188 399
189 400
190 400
191 401
192 401
193 401
194 401
195 402
196 402
197 402
198 403
199 403
200 403
201 403
202 404
203 404
204 404
205 404
206 405
207 405
208 405
209 405
210 405
211 405
212 406
213 406
214 406
215 406
216 407
217 407
218 407
219 408
220 408
221 408
222 408
223 409
224 409
225 409
226 409
227 409
228 410
229 410
230 410
231 410
232 410
233 410
234 411
235 411
236 411
237 411
238 411
239 411
240 412
241 412
242 412
243 412
244 412
245 412
246 412
247 412
248 412
249 413
250 413
251 413
252 413
253 413
254 413
255 413
256 413
257 414
258 414
259 414
260 414
261 414
262 414
263 414
264 414
265 414
266 415
267 415
268 415
269 415
270 415
271 415
272 415
273 415
274 415
275 415
276 415
277 415
278 415
279 416
280 416
281 416
282 416
283 416
284 416
285 416
286 416
287 416
288 416
289 416
290 416
291 416
292 416
293 416
294 416
295 416
296 416
297 416
298 416
299 416
300 416
301 416
302 416
303 416
304 416
305 416
306 416
307 416
308 416
309 416
310 416
311 416
312 416
313 416
314 415
315 415
316 415
317 415
318 415
319 415
320 415
321 415
322 415
323 415
324 415
325 414
326 414
327 414
328 414
329 414
330 414
331 414
332 414
333 413
334 413
335 413
336 413
337 413
338 413
339 413
340 413
341 412
342 412
343 412
344 412
345 412
346 412
347 412
348 412
349 412
350 411
351 411
352 411
353 411
354 411
355 411
356 410
357 410
358 410
359 410
360 410
361 410
362 410
363 409
364 409
365 409
366 409
367 409
368 408
369 408
370 408
371 408
372 408
373 408
374 407
375 407
376 407
377 406
378 406
379 406
380 406
381 406
382 405
383 405
384 405
385 404
386 404
387 404
388 404
389 404
390 403
391 403
392 403
393 402
394 402
395 402
396 401
397 401
398 401
399 401
400 400
401 400
402 400
403 399
404 399
405 398
406 398
407 398
408 398
409 397
410 397
411 397
412 396
413 395
414 395
415 395
416 394
417 394
418 393
419 393
420 393
421 393
422 392
423 392
424 392
425 391
426 391
427 391
428 390
429 390
430 390
431 389
432 389
433 388
434 388
435 388
436 387
437 387
438 387
439 386
440 386
441 386
442 385
443 385
444 384
445 384
446 384
447 383
448 383
449 382
450 382
451 382
452 381
453 381
454 380
455 380
456 380
457 380
458 379
459 378
460 378
461 378
462 377
463 377
464 377
465 376
466 376
467 376
468 375
469 375
470 374
471 374
472 373
473 373
474 372
475 372
476 371
477 371
478 371
479 370
480 370
481 369
482 369
483 368
484 368
485 368
486 367
487 366
488 366
489 365
490 365
491 364
492 363
493 362
494 362
495 361
496 361
497 360
498 360
499 359
500 359
501 358
502 358
503 357
504 357
505 356
506 356
507 355
508 354
509 353
510 352
511 352
512 351
513 350
514 350
515 350
516 349
517 348
518 347
519 346
520 345
521 344
522 344
523 343
524 342
525 341
526 340
527 340
528 339
529 338
530 337
531 336
532 336
533 336
534 335
535 334
536 334
536 333
537 332
538 332
539 331
540 330
541 330
542 329
543 328
544 328
545 327
546 326
547 325
548 324
549 324
550 323
551 322
552 321
553 320
554 320
555 319
556 318
557 317
558 317
559 316
560 316
561 315
562 314
563 313
564 312
565 312
565 311
566 310
567 310
568 309
569 309
570 308
571 307
572 306
573 305
574 304
575 304
576 303
576 302
577 301
578 301
579 300
580 299
581 299
581 298
582 297
583 296
584 295
585 294
586 293
587 293
588 292
588 291
589 290
590 290
591 289
592 288
593 287
594 286
595 286
596 286
596 285
597 284
598 283
599 283
600 282
601 281
602 281
602 280
603 279
604 279
605 278
606 277
607 277
607 276
608 275
609 275
610 274
611 273
612 273
613 272
614 271
615 271
616 270
617 270
618 269
619 268
620 268
621 267
622 267
623 266
624 266
625 266
626 265
627 265
628 265
629 265
630 264
631 264
632 264
633 264
634 263
635 263
636 263
637 262
638 262
639 262
640 262
641 262
642 262
643 262
644 261
645 261
646 261
647 261
648 261
649 261
650 261
651 261
652 260
653 260
654 260
655 260
656 260
657 260
658 260
659 260
660 260
661 260
662 260
663 260
664 260
665 260
666 260
667 259
668 259
669 259
670 259
671 260
672 260
673 259
674 259
675 259
676 259
677 259
678 259
679 259
680 259
681 260
682 260
683 260
684 260
685 260
686 260
687 260
688 260
689 259
690 259
691 259
692 259
693 259
694 259
695 259
696 259
697 260
698 259
699 259
700 259
701 259
702 259
703 260
704 260
705 260
706 260
707 260
708 260
709 260
710 260
711 260
712 260
713 260
714 260
715 260
716 260
717 260
718 260
719 260
720 260
721 260
722 260
723 260
724 259
725 259
726 259
727 259
728 259
729 259
730 259
731 259
732 259
733 258
734 258
735 258
736 258
737 257
738 257
739 257
740 257
741 257
741 256
742 255
743 254
744 253
745 252
746 251
747 250
748 250
749 249
750 248
751 248
752 248
753 248
754 247
755 246
755 245
756 244
756 243
757 242
757 241
757 240
758 239
758 238
758 237
759 236
760 235
760 234
760 233
760 232
759 231
758 230
757 230
756 229
755 229
754 228
753 228
752 227
751 227
750 227
749 227
748 227
747 227
746 227
745 227
744 228
743 227
742 227
741 228
740 228
739 228
738 228
737 227
736 228
735 228
734 228
733 228
732 228
731 228
730 228
729 228
728 227
727 228
726 228
725 227
724 227
723 227
722 228
721 228
720 228
719 228
718 228
717 227
716 228
715 228
714 228
713 228
712 228
711 227
710 227
709 227
708 227
707 227
706 228
705 228
704 228
703 228
702 228
701 228
700 228
699 228
698 228
697 228
696 228
695 228
694 228
693 228
692 228
691 228
690 228
689 228
688 228
687 228
686 228
685 228
684 227
683 227
682 227
681 227
680 228
679 228
678 228
677 228
676 228
675 228
674 228
673 228
672 228
671 228
670 228
669 228
668 228
667 228
666 228
665 228
664 228
663 228
662 228
661 229
660 229
659 229
658 229
657 229
656 229
655 229
654 229
653 228
652 228
651 228
650 228
649 228
648 229
647 228
646 228
645 228
644 228
643 228
642 228
641 227
640 227
639 227
638 227
637 227
636 226
635 226
634 226
633 226
632 226
631 226
630 225
629 225
628 225
627 225
626 225
625 224
624 224
623 224
622 223
621 223
620 223
619 222
618 222
617 221
616 221
615 220
614 220
613 219
612 219
611 218
610 218
609 217
608 217
607 216
606 215
605 215
604 215
603 215
602 214
601 213
600 213
599 212
598 211
597 211
596 210
595 210
594 209
593 208
592 208
591 207
590 206
589 206
588 205
587 204
586 204
585 204
584 203
583 202
582 201
581 201
580 200
579 200
578 199
577 198
576 198
575 198
574 197
573 196
572 196
571 195
570 195
569 194
568 194
567 193
566 194
565 194
564 193
563 192
562 191
561 190
560 190
559 189
558 188
557 187
556 187
555 186
554 186
553 186
552 185
553 184
552 185
551 184
550 183
549 182
548 182
547 182
546 181
545 181
544 180
543 180
542 179
541 179
540 179
539 179
538 178
537 177
536 176
535 176
534 175
533 175
532 174
531 174
530 173
529 173
528 173
527 173
526 172
525 172
524 171
523 171
522 170
521 170
520 170
519 169
518 169
517 168
516 168
515 168
514 168
513 167
512 167
511 166
510 166
509 166
508 165
507 165
506 165
505 165
504 164
504 163
503 163
502 162
501 162
500 162
499 161
498 161
497 161
496 160
495 161
494 161
493 160
493 159
492 159
491 158
490 158
489 158
488 157
487 157
486 156
485 156
484 155
483 155
482 155
481 155
480 154
479 154
478 154
477 154
476 153
475 153
474 153
473 154
472 153
472 152
471 151
470 151
469 151
468 150
467 150
466 150
465 149
464 149
463 149
462 148
461 148
460 147
459 147
458 146
457 146
456 146
455 146
454 146
453 145
452 145
451 144
450 144
449 144
448 143
447 143
446 143
445 142
444 142
443 142
442 142
441 142
440 141
439 140
438 140
437 140
436 139
435 139
434 139
433 139
432 138
431 138
430 138
429 138
428 138
427 138
426 137
425 136
424 136
423 136
422 135
421 135
420 135
419 134
418 134
417 134
416 134
415 134
414 133
413 133
412 133
411 133
410 132
409 133
408 132
407 132
406 132
405 132
404 131
403 131
402 131
401 131
400 130
399 130
398 130
397 130
396 130
395 130
394 129
393 129
392 129
391 130
390 130
389 130
388 130
387 129
386 129
385 129
384 128
383 127
382 127
381 126
380 126
379 126
378 126
377 126
376 125
375 125
374 125
373 125
372 125
371 125
370 125
369 124
368 124
367 124
366 124
365 124
364 123
363 124
362 124
361 124
360 123
359 123
358 123
357 124
356 124
355 124
354 124
353 123
352 122
351 122
350 122
349 121
348 121
347 121
346 121
345 121
344 121
343 120
342 120
341 120
340 120
339 120
338 120
337 119
336 119
335 118
334 118
333 118
332 118
331 118
330 118
329 118
328 118
327 118
326 118
325 118
324 117
323 117
322 117
321 117
320 117
319 117
318 117
317 117
316 117
315 117
314 116
313 116
312 116
311 116
310 116
309 116
308 116
307 116
306 115
305 115
304 115
303 114
302 114
301 114
300 114
299 114
298 114
297 114
296 114
295 113
294 113
293 113
292 113
291 113
290 113
289 113
288 113
287 113
286 114
285 114
284 113
283 113
282 112
281 112
280 112
279 112
278 112
277 112
276 112
275 112
274 111
273 111
272 111
271 111
270 111
269 111
268 111
267 110
266 110
265 110
264 111
263 112
262 111
261 111
260 110
259 110
258 110
257 110
256 110
255 110
254 109
253 109
252 109
251 109
250 109
249 109
248 110
247 110
246 110
245 109
244 109
243 109
242 109
241 108
240 108
239 109
238 109
237 108
236 108
235 109
234 109
233 109
232 108
231 108
230 108
229 108
228 108
