367 82
368 83
368 84
369 85
370 86
370 87
370 88
370 89
370 90
370 91
370 92
369 93
369 94
370 95
370 96
370 97
369 98
368 98
367 99
366 99
366 100
365 101
365 102
365 103
365 104
364 105
364 106
364 107
364 108
365 109
364 110
364 111
363 112
362 112
361 112
360 112
359 111
358 111
357 111
356 110
355 109
354 109
353 108
352 107
351 107
350 107
350 108
350 109
350 110
349 111
348 111
347 111
346 110
345 110
344 109
343 109
342 109
341 109
340 109
339 109
338 109
337 108
336 107
335 107
334 107
333 106
332 106
331 106
331 107
332 108
333 109
334 109
335 110
334 111
333 111
332 112
331 112
331 113
330 114
329 115
328 115
327 114
326 114
325 114
324 113
323 113
322 113
321 112
320 112
319 112
318 111
317 111
316 111
315 110
314 110
313 110
312 109
311 109
310 108
309 108
308 107
308 106
307 105
306 105
306 106
307 107
307 108
307 109
307 110
307 111
307 112
306 113
306 114
306 115
305 116
304 117
303 117
302 117
301 116
300 116
299 116
298 117
299 118
299 119
299 120
299 121
299 122
299 123
298 124
297 125
297 126
298 127
299 127
300 128
299 129
298 130
297 130
296 131
295 131
294 130
293 130
292 129
291 129
290 129
289 128
288 128
287 128
286 127
285 127
284 127
283 127
282 127
281 127
280 127
279 127
278 127
277 127
276 126
275 126
274 126
273 125
272 125
271 124
270 124
269 123
268 123
268 124
268 125
268 126
269 127
269 128
269 129
269 130
269 131
268 132
268 133
268 134
268 135
268 136
268 137
268 138
268 139
269 140
269 141
268 142
267 142
266 142
265 142
264 142
263 142
262 142
261 142
260 142
259 142
258 142
257 141
256 141
255 141
254 141
253 141
252 141
251 141
250 141
249 141
248 141
247 140
246 140
245 140
244 139
243 139
242 138
242 139
243 140
244 140
245 141
245 142
245 143
246 144
246 145
245 146
244 147
243 147
242 147
241 147
240 147
239 147
238 147
237 147
236 147
235 147
234 147
233 147
232 147
231 147
230 148
229 148
228 148
227 148
226 148
225 148
224 148
223 147
222 147
221 147
220 146
219 146
218 146
217 145
216 145
216 146
217 147
218 147
219 148
220 149
221 150
222 150
223 151
223 152
224 153
225 154
225 155
224 156
223 156
222 157
222 158
223 159
224 160
225 161
226 162
227 163
228 164
228 165
227 166
226 165
225 165
224 164
223 164
222 165
221 164
220 164
219 163
218 163
217 163
216 163
215 163
214 164
213 164
212 164
211 164
210 164
209 164
208 163
207 163
206 163
205 162
204 161
203 161
203 162
204 163
204 164
204 165
205 166
205 167
205 168
205 169
205 170
205 171
205 172
205 173
206 174
206 175
206 176
205 177
206 178
206 179
206 180
207 181
207 182
206 183
205 183
204 183
203 182
203 181
202 180
201 179
201 178
200 177
199 176
198 175
197 174
196 173
195 172
195 173
196 174
196 175
197 176
197 177
196 178
195 178
194 178
193 178
192 178
191 177
190 177
189 177
188 177
187 177
186 177
185 177
184 177
183 177
182 177
181 177
180 176
179 176
178 176
177 175
176 175
176 176
176 177
177 178
176 179
176 180
175 181
175 182
175 183
174 184
173 185
173 186
173 187
172 188
172 189
173 190
172 191
171 191
170 191
169 191
168 191
167 190
166 190
165 189
164 189
163 189
162 189
161 188
160 188
159 188
158 188
157 189
156 189
155 189
154 188
153 188
152 188
151 187
150 187
149 187
148 186
147 185
146 185
146 186
147 187
147 188
147 189
148 190
148 191
149 192
148 193
148 194
149 195
149 196
148 197
148 198
148 199
148 200
148 201
148 202
148 203
148 204
148 205
149 206
149 207
148 208
147 208
146 207
145 206
144 206
143 205
142 205
141 205
140 205
139 205
138 204
137 204
136 204
135 204
134 203
133 203
132 203
131 203
130 202
129 202
128 202
128 203
129 204
130 205
130 206
131 207
131 208
132 209
132 210
131 211
130 211
129 210
128 209
128 208
127 208
126 208
125 208
124 208
123 208
122 207
121 207
120 207
119 206
118 206
117 207
116 206
115 206
114 205
113 205
112 205
111 205
111 206
112 207
113 208
114 209
115 210
115 211
115 212
115 213
116 214
116 215
116 216
115 217
114 217
113 217
112 217
111 217
110 217
109 217
110 218
110 219
111 220
111 221
111 222
112 223
112 224
112 225
112 226
112 227
112 228
113 228
114 229
114 230
114 231
113 232
112 232
111 232
110 232
109 231
108 232
107 231
106 231
105 231
104 232
103 232
102 232
101 232
100 232
99 233
98 233
97 232
96 232
95 232
94 232
93 231
92 231
91 230
90 231
91 232
91 233
92 234
92 235
92 236
93 237
94 238
94 239
94 240
94 241
95 242
94 243
93 244
92 244
91 243
90 243
89 244
88 244
87 244
86 244
85 244
84 244
83 244
82 244
81 245
80 245
79 245
78 245
77 245
76 245
75 245
74 244
73 244
72 244
71 244
70 244
69 244
69 245
70 246
71 247
72 248
73 249
73 250
74 251
74 252
75 253
74 254
73 254
72 254
71 254
70 254
69 255
70 256
71 257
71 258
72 259
72 260
72 261
73 262
73 263
73 264
73 265
74 266
75 267
75 268
76 269
77 270
77 271
76 272
75 272
74 272
73 272
72 272
71 272
70 273
69 273
68 274
67 274
66 274
65 275
64 275
63 275
62 275
61 275
60 275
59 276
59 277
60 277
61 278
61 279
62 280
63 281
63 282
62 283
61 283
60 284
59 284
58 284
57 284
56 284
55 284
54 285
53 285
52 285
51 286
52 287
53 288
54 288
55 289
56 290
56 291
57 292
57 293
58 294
58 295
59 296
60 297
61 298
62 299
63 300
62 301
61 301
60 302
59 302
58 303
57 304
56 305
55 306
54 307
53 308
52 309
51 310
50 311
49 311
48 312
47 313
46 313
45 313
44 313
43 313
42 313
41 313
40 313
39 313
40 314
41 314
42 315
42 316
42 317
43 318
44 319
45 320
46 321
46 322
47 323
48 324
49 325
50 326
50 327
51 327
52 328
52 329
52 330
53 331
53 332
54 332
55 332
56 333
57 334
57 335
56 336
55 337
54 338
54 339
53 340
52 341
51 342
50 343
49 343
48 343
47 343
46 343
46 344
47 345
48 345
49 345
50 345
51 346
52 346
53 346
54 346
55 346
56 347
57 347
58 348
59 348
60 349
61 349
62 350
63 351
64 352
63 353
63 354
64 355
65 355
66 356
67 356
68 357
69 357
70 357
71 358
72 358
73 359
74 360
74 361
73 362
73 363
72 364
72 365
71 366
71 367
70 368
70 369
70 370
69 371
68 372
67 372
66 373
65 374
66 375
67 375
68 375
69 375
70 375
71 375
72 375
73 376
73 377
72 378
71 379
71 380
70 381
70 382
69 383
69 384
68 385
67 386
66 387
65 387
65 388
66 388
67 388
68 388
69 388
70 388
71 388
72 389
73 389
74 388
75 389
76 389
77 390
78 390
79 390
80 391
81 391
82 391
83 391
84 392
85 392
86 392
87 392
88 393
88 394
89 395
89 396
88 397
88 398
88 399
88 400
87 401
86 401
86 402
85 403
85 404
84 405
83 405
83 406
84 406
85 406
86 406
87 406
88 406
89 406
90 406
91 406
92 406
93 406
94 406
95 407
96 407
97 407
98 407
99 408
100 408
101 408
102 408
103 408
104 408
105 408
106 408
107 408
108 408
109 408
110 409
110 410
110 411
109 412
109 413
108 414
108 415
108 416
108 417
108 418
108 419
107 420
107 421
107 422
107 423
107 424
108 425
108 426
109 427
109 428
109 429
109 430
109 431
109 432
110 432
111 432
111 431
111 430
112 429
113 428
114 428
115 428
116 429
115 430
115 431
115 432
115 433
115 434
116 435
117 435
118 435
119 435
120 436
121 436
122 436
123 436
124 436
125 437
124 438
124 439
125 439
126 439
127 439
128 438
129 438
130 438
131 438
132 438
133 437
134 437
135 437
136 437
137 438
136 439
137 439
138 439
139 439
140 440
141 440
142 440
143 440
144 441
145 442
145 443
145 444
145 445
145 446
144 447
144 448
144 449
143 450
142 451
142 452
142 453
143 453
144 452
145 452
146 452
147 452
148 452
149 453
148 454
148 455
148 456
148 457
147 458
147 459
148 460
148 461
147 462
147 463
147 464
147 465
148 465
149 464
149 463
150 462
151 461
152 460
153 460
154 459
155 459
156 460
156 461
157 462
158 462
159 462
160 462
161 463
160 464
159 465
160 466
161 466
162 466
163 466
164 466
165 467
165 468
166 469
167 469
168 469
169 469
170 470
171 470
172 471
173 472
174 471
175 470
176 470
177 471
178 472
178 473
177 474
176 475
175 476
175 477
176 477
177 477
178 477
179 476
180 476
181 477
182 477
183 476
184 477
185 477
186 477
187 477
188 477
189 478
190 478
191 478
192 478
193 478
194 478
195 479
196 479
197 480
197 481
197 482
198 482
199 482
200 483
200 484
200 485
199 486
199 487
200 488
201 488
202 489
203 489
204 489
205 490
205 491
205 492
206 492
207 493
206 494
207 495
207 496
207 497
206 498
206 499
206 500
205 501
206 502
207 501
207 500
208 499
209 499
210 498
211 497
212 497
213 497
214 497
215 497
216 497
217 497
218 497
219 497
220 497
221 498
222 498
223 498
224 498
225 498
226 498
227 498
228 498
229 498
230 497
231 497
232 497
233 498
234 498
235 499
236 500
235 501
234 502
233 503
233 504
234 504
235 503
236 503
237 503
238 502
239 502
240 501
241 501
242 500
243 500
244 500
245 499
246 499
247 498
248 498
249 497
250 497
251 497
252 496
253 496
254 496
255 496
256 496
257 496
258 497
257 498
257 499
257 500
257 501
258 502
258 503
257 504
257 505
258 506
259 506
260 506
261 506
262 506
263 507
263 508
262 509
262 510
263 511
264 511
265 511
266 512
267 512
268 513
269 513
270 513
271 514
272 514
273 515
274 514
275 515
276 515
277 515
278 516
278 517
279 518
280 519
281 520
282 521
283 522
284 523
285 523
286 524
287 525
288 526
289 527
289 528
289 529
289 530
289 531
289 532
289 533
290 533
291 532
292 531
293 530
294 529
295 528
296 527
297 528
298 527
299 527
300 528
299 529
300 529
301 529
302 530
303 531
304 531
305 531
306 530
307 530
308 530
309 529
310 528
311 528
312 528
313 527
314 527
315 527
316 526
317 526
318 526
319 525
320 525
321 524
322 524
323 524
324 523
325 523
326 523
327 523
328 523
329 523
330 524
330 525
330 526
330 527
330 528
331 529
331 530
332 531
332 532
332 533
332 534
332 535
333 536
333 537
333 538
333 539
333 540
332 541
333 542
334 541
335 540
336 540
337 539
338 538
339 538
340 538
341 538
342 539
342 540
343 540
344 541
345 541
346 541
347 540
348 540
349 539
350 539
351 539
352 540
353 540
354 540
355 540
356 540
357 540
358 540
359 539
360 539
361 539
362 538
363 539
364 539
365 540
366 541
366 542
366 543
367 544
368 545
368 546
368 547
369 548
370 549
371 550
372 550
373 551
373 552
374 553
374 554
374 555
375 556
374 557
374 558
374 559
375 559
376 559
377 559
377 558
378 557
379 556
380 555
381 555
382 556
383 556
384 557
385 556
386 556
387 557
388 556
389 556
389 555
390 554
391 555
392 555
393 554
394 555
395 555
396 554
397 554
398 554
399 553
400 553
401 554
401 555
401 556
402 556
403 556
404 556
404 555
405 554
406 553
407 553
408 552
409 552
410 552
411 552
412 552
413 552
414 553
414 552
415 551
416 550
417 550
418 550
419 551
420 551
421 552
422 551
423 550
424 551
425 550
426 550
427 551
427 552
427 553
427 554
427 555
427 556
427 557
427 558
427 559
428 559
429 558
430 557
431 556
432 555
433 554
434 554
435 553
436 552
437 552
438 551
439 551
440 550
441 551
441 552
440 553
441 554
442 554
443 554
443 553
444 552
445 551
446 551
447 552
447 553
447 554
448 553
449 552
450 552
451 551
452 552
453 553
454 553
455 552
456 552
457 553
458 553
459 553
460 554
461 554
462 555
462 556
463 557
463 558
464 559
464 560
465 561
465 562
466 563
466 564
466 565
467 565
468 565
469 564
470 563
471 562
472 562
473 563
473 564
474 564
475 565
475 566
476 566
477 567
477 568
478 569
478 570
478 571
479 572
479 573
479 574
479 575
479 576
480 576
480 575
481 574
482 573
482 572
482 571
483 570
484 569
485 568
486 568
487 567
488 566
489 566
490 565
491 564
492 564
493 563
493 562
494 561
495 561
496 560
497 559
497 558
498 557
499 557
500 556
501 556
502 556
503 556
504 557
505 558
506 559
506 560
506 561
506 562
506 563
507 564
507 565
508 565
508 564
508 563
509 562
510 561
510 560
511 559
512 558
512 557
513 556
514 556
515 555
516 554
517 553
518 553
519 553
520 553
521 553
522 553
523 552
524 552
525 552
526 551
527 551
528 552
529 553
530 554
529 555
529 556
530 557
531 558
532 558
532 557
532 556
532 555
533 554
533 553
534 552
534 551
535 550
536 549
537 548
538 549
539 549
540 548
541 548
540 547
541 546
542 546
543 546
544 545
545 545
546 545
547 544
548 544
549 543
550 543
551 543
552 542
553 542
554 542
554 541
555 540
556 540
557 540
558 540
559 539
559 538
558 537
559 536
560 536
561 537
562 538
563 539
564 540
565 541
565 542
566 543
567 542
567 541
567 540
567 539
568 538
568 537
568 536
569 535
569 534
570 533
570 532
571 531
572 530
573 529
573 528
574 527
575 526
576 525
577 524
578 523
578 522
579 521
579 520
580 519
581 518
582 519
582 520
583 521
583 522
584 523
585 524
585 525
586 525
586 524
586 523
585 522
585 521
584 520
584 519
583 518
584 517
585 516
585 515
586 514
587 514
588 514
589 513
590 513
591 514
592 514
593 515
593 516
594 516
595 517
596 518
597 519
598 519
599 519
600 519
601 519
602 519
603 519
604 520
605 520
606 521
607 522
608 522
609 523
609 522
609 521
609 520
609 519
609 518
609 517
609 516
610 515
610 514
611 513
611 512
612 511
613 510
614 509
615 508
616 507
617 506
618 506
619 505
620 504
620 503
621 502
621 501
622 500
622 499
622 498
622 497
622 496
623 495
624 494
625 493
626 492
627 492
628 492
629 492
630 493
631 494
631 495
632 496
633 495
634 494
634 493
634 492
634 491
634 490
634 489
635 488
635 487
636 486
636 485
636 484
637 483
638 482
637 481
637 480
638 479
639 479
640 479
641 478
642 478
643 479
644 480
644 481
645 482
645 483
646 484
647 484
647 483
647 482
647 481
647 480
647 479
648 478
648 477
648 476
648 475
649 474
649 473
649 472
649 471
650 470
650 469
650 468
651 467
652 467
653 466
653 465
653 464
653 463
654 462
654 461
654 460
654 459
655 458
656 457
657 457
657 456
658 455
659 455
660 456
661 456
662 456
663 456
664 457
665 457
666 457
667 457
668 458
669 458
670 458
671 458
672 459
673 460
674 460
675 461
676 460
675 459
674 458
674 457
674 456
674 455
674 454
674 453
674 452
674 451
674 450
674 449
674 448
673 447
674 446
674 445
675 444
676 444
677 444
678 444
679 444
680 444
679 443
678 442
679 441
679 440
679 439
680 438
680 437
680 436
680 435
680 434
681 433
681 432
681 431
682 430
683 430
684 429
685 428
686 427
687 427
688 428
687 427
686 426
687 425
688 425
689 425
690 426
691 426
692 426
693 426
694 426
695 427
696 427
697 428
698 428
699 429
700 429
701 429
701 428
700 427
699 426
699 425
699 424
699 423
698 422
698 421
699 420
699 419
699 418
699 417
699 416
699 415
699 414
699 413
700 412
700 411
699 410
699 409
699 408
698 407
698 406
698 405
699 404
700 404
701 405
702 405
703 405
703 404
702 403
701 402
701 401
701 400
700 399
700 398
699 397
699 396
699 395
699 394
699 393
698 392
698 391
697 390
697 389
698 388
699 388
700 388
701 388
702 388
703 388
704 388
704 387
703 386
703 385
702 384
702 383
701 382
700 381
700 380
700 379
699 378
698 377
697 376
697 375
696 374
696 373
695 373
694 372
694 371
694 370
693 369
693 368
693 367
693 366
693 365
693 364
692 364
691 363
691 362
692 361
693 361
694 361
695 361
696 361
697 361
698 361
699 361
700 361
700 360
699 359
698 358
698 357
697 356
697 355
697 354
697 353
696 352
696 351
695 350
694 349
694 348
693 347
693 346
692 345
692 344
692 343
691 342
691 341
691 340
690 339
689 338
689 337
688 336
688 335
687 334
686 333
685 332
684 331
683 331
682 330
681 330
680 329
681 328
682 327
683 327
684 327
685 327
686 327
687 327
688 326
689 326
688 325
688 324
687 323
686 322
686 321
685 320
685 319
684 318
684 317
683 316
682 315
681 314
681 313
680 312
679 311
678 311
677 310
676 309
675 308
674 307
673 306
672 305
671 304
670 303
669 302
668 302
667 301
666 300
665 299
664 299
663 298
662 298
661 297
660 296
659 295
658 294
657 294
656 293
655 292
654 292
653 291
652 291
651 290
650 290
649 289
648 289
647 289
646 288
645 288
644 287
643 287
642 287
641 287
640 287
639 287
638 287
637 287
636 287
635 287
634 287
633 287
632 287
631 287
630 288
629 288
628 288
627 289
626 289
625 290
624 291
623 292
622 292
621 293
620 293
619 293
618 293
617 293
616 293
615 293
614 292
615 291
616 290
617 290
617 289
618 288
619 287
619 286
620 285
621 284
622 284
622 283
623 282
623 281
624 280
625 280
626 280
627 279
628 278
629 277
630 277
631 276
632 276
632 275
633 274
634 274
635 273
636 273
637 273
638 272
639 271
640 270
641 271
642 271
643 270
644 270
645 269
646 269
647 268
648 268
649 268
650 267
649 266
648 265
649 264
650 264
651 264
652 265
653 265
654 264
655 264
656 263
657 263
658 262
659 262
660 262
661 261
662 261
663 260
664 259
665 258
666 258
666 257
667 256
668 256
668 255
669 254
670 253
671 252
672 252
672 251
673 250
673 249
674 248
675 247
674 246
673 246
672 245
672 244
673 243
674 243
675 243
675 242
675 241
674 241
673 240
672 239
672 238
671 238
670 237
669 236
668 237
667 238
666 238
665 239
664 239
663 240
663 241
663 242
664 243
665 244
664 245
663 245
662 245
661 245
660 246
659 247
658 247
657 248
656 249
655 249
654 250
653 250
652 251
651 251
650 252
649 252
648 253
647 253
646 253
645 254
644 254
643 254
642 255
641 255
640 255
639 256
638 256
637 255
637 254
637 253
637 252
637 251
638 250
638 249
637 248
637 247
637 246
637 245
637 244
637 243
637 242
638 241
638 240
638 239
638 238
638 237
638 236
637 235
637 234
637 233
637 232
637 231
636 230
635 229
635 228
634 227
634 226
634 225
634 224
634 223
634 222
635 221
635 220
634 219
635 218
635 217
635 216
635 215
635 214
635 213
635 212
635 211
635 210
636 209
636 208
636 207
635 207
634 207
633 207
632 208
631 208
630 207
631 206
632 205
632 204
632 203
632 202
633 201
632 200
632 199
632 198
632 197
632 196
633 195
633 194
633 193
633 192
632 191
631 192
630 193
629 193
628 194
627 194
626 193
626 192
626 191
627 190
627 189
627 188
627 187
627 186
626 185
626 184
626 183
625 182
625 181
625 180
624 179
624 178
624 177
624 176
623 175
623 174
623 173
623 172
622 171
621 170
621 169
621 168
621 167
621 166
621 165
621 164
621 163
621 162
620 162
620 163
619 164
618 165
617 166
616 167
615 167
614 168
613 168
612 169
611 170
610 171
609 171
610 172
610 173
609 174
608 173
607 172
606 171
606 170
606 169
606 168
606 167
606 166
606 165
606 164
605 163
605 162
605 161
605 160
604 159
604 158
604 157
603 156
603 155
603 154
602 154
601 154
600 155
599 154
599 153
598 152
598 151
598 150
597 149
597 148
598 147
597 146
597 145
597 144
597 143
598 142
598 141
598 140
598 139
597 139
596 140
595 141
594 142
593 143
592 144
591 144
590 145
589 145
588 145
587 146
586 147
586 148
585 149
584 150
583 151
582 150
582 149
582 148
582 147
582 146
581 145
581 144
581 143
580 142
580 141
579 140
579 139
578 138
578 137
578 136
577 135
577 134
576 133
576 132
575 131
575 130
575 129
574 128
574 127
574 126
574 125
574 124
574 123
573 123
572 123
572 124
572 125
571 126
571 127
571 128
570 129
569 129
568 130
567 130
566 131
565 132
564 133
563 134
562 134
561 133
561 132
560 131
559 130
559 129
559 128
558 127
558 126
557 125
557 124
556 123
555 122
554 121
554 120
553 119
553 118
552 117
552 116
551 115
550 114
550 115
549 116
549 117
549 118
548 119
547 119
546 119
545 119
544 119
543 118
543 117
543 116
543 115
542 114
541 113
541 112
540 111
540 110
539 110
538 109
537 108
537 107
536 106
536 105
536 104
536 103
535 103
534 103
534 104
534 105
534 106
534 107
534 108
533 109
532 109
531 109
530 110
529 109
529 108
528 107
528 106
527 105
526 104
525 103
524 103
523 102
522 101
521 100
520 99
519 98
518 97
517 97
516 96
515 95
514 94
514 93
513 92
512 91
512 92
512 93
512 94
512 95
512 96
512 97
512 98
511 99
511 100
510 101
509 102
509 103
508 104
507 105
507 106
506 107
506 108
505 109
505 110
505 111
505 112
505 113
504 114
503 113
502 113
501 112
500 111
500 110
499 109
498 108
497 108
496 107
495 107
494 106
493 106
492 105
491 104
490 104
489 103
488 102
487 102
486 101
486 100
486 99
486 98
486 97
486 96
486 95
485 95
485 96
484 97
484 98
484 99
483 100
483 101
482 102
481 103
480 104
480 105
480 106
479 107
478 108
477 107
477 106
476 105
476 104
476 103
476 102
475 101
474 100
473 99
472 98
471 97
470 96
469 95
468 94
467 94
466 93
465 92
464 91
464 90
463 89
462 88
462 87
461 86
461 85
460 85
460 86
460 87
460 88
460 89
460 90
460 91
460 92
460 93
459 94
458 95
457 96
457 97
456 98
456 99
455 100
454 101
454 102
454 103
453 104
453 105
454 106
455 107
455 108
454 109
453 109
452 109
451 108
450 107
450 106
449 105
448 104
447 103
446 102
446 101
445 100
444 100
443 99
442 98
441 97
440 97
439 96
438 95
438 94
437 93
436 92
435 91
435 90
434 89
434 88
433 88
433 89
433 90
433 91
432 92
432 93
431 94
430 95
430 96
429 97
428 98
428 99
427 100
427 101
427 102
427 103
428 104
427 105
426 105
425 104
424 103
423 103
422 103
421 102
421 101
420 100
419 99
418 98
417 97
416 96
415 95
414 94
413 93
412 92
411 91
410 91
409 91
408 90
408 89
408 88
407 88
406 87
406 86
406 87
406 88
406 89
405 90
405 91
404 92
403 93
402 94
401 94
400 94
399 93
398 93
397 92
396 91
395 90
394 90
393 89
392 89
391 88
390 88
389 87
388 86
387 86
387 87
386 88
385 88
384 89
383 89
382 88
381 88
380 88
379 87
378 86
377 86
376 86
375 87
374 86
373 86
372 85
371 84
370 84
369 83
368 83
367 82
