364 43
363 44
364 45
364 46
363 47
362 47
361 46
360 46
359 46
358 46
357 46
356 46
355 46
354 46
353 46
352 46
351 46
350 46
349 46
348 46
347 46
346 46
345 46
346 46
347 47
347 48
346 49
345 49
344 49
343 49
342 49
341 49
340 49
339 48
338 48
337 48
336 48
335 47
334 47
333 47
332 47
331 47
331 48
332 49
331 50
330 50
329 50
328 49
327 49
326 49
325 49
324 49
323 49
322 49
321 48
320 48
319 48
318 48
317 48
316 48
315 49
314 49
315 49
316 49
317 50
316 51
315 52
314 52
313 52
312 52
311 52
310 52
309 52
308 52
307 52
306 51
305 51
304 51
303 51
302 51
303 52
303 53
302 54
301 54
300 53
299 53
298 52
297 52
296 52
295 52
294 52
293 52
292 52
291 53
290 53
291 53
292 53
293 54
292 55
291 55
290 56
289 56
288 55
287 55
286 55
285 55
284 55
283 54
282 54
281 54
280 54
279 54
280 55
281 56
280 57
279 57
278 56
277 56
276 56
275 56
274 55
273 55
272 55
271 55
270 55
269 55
268 55
267 55
266 55
265 55
266 55
267 56
267 57
266 58
265 58
264 57
263 57
262 57
261 57
260 57
260 58
259 59
258 58
257 58
256 57
255 57
254 57
253 57
252 57
251 57
250 57
249 58
248 58
247 58
248 59
249 59
250 59
251 59
252 60
251 61
250 61
249 61
248 62
247 61
246 61
245 61
244 61
243 61
242 61
241 61
240 61
239 61
238 61
237 61
236 61
235 62
234 62
233 62
232 62
233 62
234 63
234 64
233 65
232 65
231 65
230 65
229 65
228 66
227 66
226 66
225 66
224 66
223 66
222 67
221 67
221 68
220 69
219 69
218 69
217 69
216 69
215 69
214 69
213 69
213 70
212 71
211 71
210 71
209 71
208 71
207 71
206 71
205 71
204 71
203 71
202 71
201 71
201 72
202 73
201 74
200 74
199 74
198 74
197 75
196 75
195 75
194 75
193 75
192 75
192 76
193 77
192 78
191 78
190 78
189 78
188 78
187 78
186 78
185 78
184 78
183 79
182 79
181 79
181 80
182 81
181 82
180 82
179 82
178 83
177 83
176 83
175 84
174 84
173 84
172 84
171 85
170 85
169 85
168 85
167 85
166 86
167 87
167 88
166 89
165 88
164 88
163 89
162 89
161 89
160 90
159 90
160 91
160 92
159 93
158 92
157 92
156 92
155 92
154 92
153 92
152 93
151 93
151 94
152 94
153 95
152 96
151 96
150 96
149 96
148 97
147 97
146 98
145 98
145 99
144 100
143 101
142 101
141 102
141 103
140 104
140 105
139 106
138 105
137 106
136 106
135 107
134 107
133 107
132 108
131 108
130 109
131 110
131 111
130 112
129 112
128 112
127 113
126 113
125 113
124 113
123 114
122 114
123 114
124 115
124 116
123 117
122 117
121 118
120 118
119 119
118 119
117 119
116 120
115 120
114 121
113 122
114 122
115 123
114 124
113 125
112 125
111 126
110 126
109 127
108 127
107 128
106 128
105 129
105 130
106 130
107 131
106 132
105 132
104 133
103 133
102 133
101 134
100 135
99 135
100 136
100 137
99 138
98 138
97 138
96 138
95 138
94 138
93 138
92 139
93 139
94 140
94 141
93 142
92 141
91 142
90 142
89 143
88 143
87 143
86 143
85 143
84 143
83 144
82 144
81 144
80 144
79 144
78 144
77 144
76 144
75 144
74 145
73 146
72 146
71 147
70 147
69 148
68 147
67 148
66 147
65 147
64 147
63 147
62 148
61 148
60 148
59 148
58 148
57 148
56 148
55 148
54 148
53 149
52 149
51 149
50 149
49 149
48 149
47 149
46 150
45 151
44 151
43 151
42 151
41 152
40 153
39 153
38 153
37 154
36 155
37 154
38 155
39 156
39 157
38 158
37 158
37 159
38 159
39 160
40 160
41 161
42 161
43 162
44 162
45 163
46 163
47 164
48 164
49 165
50 165
51 165
52 166
53 166
54 166
55 167
56 168
57 168
58 168
59 169
60 169
61 169
62 169
63 170
64 170
65 171
66 172
67 173
68 173
69 174
69 175
70 176
71 177
72 177
73 178
73 179
74 180
75 181
76 182
77 182
78 183
79 183
80 184
81 184
82 185
83 185
84 186
85 186
86 186
87 187
86 188
85 188
86 188
87 189
88 189
89 190
90 191
90 192
91 193
92 194
93 194
94 195
95 195
96 195
97 196
98 196
99 197
100 197
101 197
102 198
101 199
100 199
101 200
102 201
103 202
104 203
105 203
106 204
107 204
108 204
109 205
108 206
107 206
108 207
109 208
110 209
111 209
112 210
113 210
114 211
115 212
115 213
114 214
115 215
116 216
117 216
118 217
119 217
120 218
119 219
120 219
121 220
122 220
123 221
124 222
125 222
126 223
125 224
125 225
126 226
127 226
128 227
129 227
130 228
131 228
132 228
133 229
134 229
135 230
136 231
137 232
138 232
139 233
140 233
141 234
142 234
143 234
144 235
144 236
143 237
142 236
143 237
144 238
145 239
146 240
147 240
148 240
149 240
150 241
151 241
152 241
153 241
154 242
155 242
156 242
157 243
158 243
159 243
160 244
159 245
158 246
159 246
160 247
161 247
162 247
163 247
164 247
165 248
166 248
167 248
168 248
169 249
170 249
171 249
172 249
173 249
174 250
175 251
174 252
174 253
175 254
176 254
177 255
178 255
179 256
180 256
181 257
182 257
183 258
184 258
185 259
186 259
187 259
188 260
189 261
190 261
191 261
192 261
193 261
194 261
195 262
194 263
193 263
194 264
195 264
196 265
197 265
198 265
199 265
200 266
200 267
201 267
202 267
203 267
204 267
205 267
206 268
207 267
208 267
209 268
208 269
209 270
210 270
211 270
212 270
213 271
214 271
215 271
216 271
217 271
218 271
219 271
220 272
221 272
222 272
223 272
224 273
225 274
224 275
223 275
224 276
225 276
226 277
227 277
228 277
229 277
230 277
231 277
232 277
233 277
234 277
235 277
236 277
237 277
238 277
239 278
238 279
239 280
240 280
241 280
242 280
243 280
244 280
245 280
246 280
247 280
248 280
249 280
250 281
251 280
252 280
253 280
254 281
253 282
252 282
252 283
253 283
254 283
255 284
256 284
257 284
258 284
259 284
260 284
261 284
262 284
263 284
264 284
265 285
266 286
267 286
268 287
269 287
270 287
271 288
272 288
273 288
274 288
275 288
276 288
277 289
278 289
279 289
280 289
281 289
282 289
283 290
284 291
285 291
286 292
287 292
288 292
289 292
290 292
291 292
292 292
293 292
294 292
295 292
296 292
297 292
298 292
299 291
300 291
301 292
300 293
301 294
302 293
303 294
304 294
305 294
306 294
307 293
308 294
309 294
310 294
311 294
312 294
313 294
314 294
315 294
316 294
317 294
318 294
319 294
320 294
321 293
322 293
323 294
322 295
321 296
322 296
323 296
324 296
325 296
326 296
327 296
328 296
329 296
330 296
331 296
332 296
333 296
334 296
335 296
336 296
337 296
338 295
339 295
340 296
339 297
340 297
341 297
342 297
343 298
344 298
345 298
346 298
347 298
348 298
349 298
350 298
351 298
352 298
353 297
354 297
355 297
356 297
357 298
358 298
359 298
360 298
361 298
362 298
363 298
364 298
365 298
366 298
367 297
368 297
369 297
370 297
371 297
372 297
373 297
374 297
375 297
376 297
377 297
378 296
379 296
380 296
381 295
382 295
383 295
384 295
385 294
386 294
387 294
388 293
389 293
390 293
391 293
392 292
393 292
394 292
395 292
396 293
397 293
398 293
399 293
400 292
401 292
402 292
403 292
404 292
405 291
406 291
407 291
408 290
409 290
410 290
411 290
412 289
413 289
414 289
415 289
416 289
417 288
418 288
419 288
420 287
421 287
422 286
423 286
424 285
425 286
426 285
427 285
428 285
429 285
430 285
431 285
432 285
433 285
434 286
435 286
436 286
437 286
438 285
439 285
440 285
441 285
442 285
443 284
444 284
445 284
446 284
447 283
448 283
449 283
450 283
451 282
452 282
453 283
453 284
454 283
455 283
456 283
457 283
458 282
459 282
460 282
461 282
462 282
463 281
464 281
465 281
466 280
467 280
468 280
469 280
470 279
471 279
472 279
473 279
474 278
475 278
476 279
477 278
478 278
479 278
480 277
481 277
482 276
483 276
484 276
485 276
486 275
487 275
488 274
489 274
490 274
491 273
492 273
493 273
494 272
495 272
496 272
497 272
498 272
499 271
500 271
501 271
502 271
502 270
503 269
504 270
504 269
505 268
506 268
507 267
508 267
509 267
510 266
511 266
512 266
513 265
514 265
515 265
516 265
517 264
518 264
519 264
520 264
521 264
522 263
523 263
524 262
525 262
526 261
527 261
528 260
529 259
530 259
531 258
532 258
533 257
534 257
535 256
536 256
537 256
538 255
539 255
540 255
541 255
542 255
543 254
544 254
544 253
545 252
546 252
547 252
547 251
547 250
548 249
549 250
549 249
550 248
551 248
552 247
553 246
553 245
552 244
553 243
554 243
555 244
556 244
555 243
554 243
553 242
552 242
551 241
550 241
549 240
548 239
547 239
546 238
546 237
546 236
546 235
547 234
548 234
549 234
550 234
551 234
552 234
553 234
554 235
555 234
556 235
556 236
557 237
558 238
559 239
559 240
560 241
561 242
561 243
562 243
563 243
564 242
565 241
566 241
567 240
568 239
569 238
570 237
571 236
572 236
573 235
574 234
575 233
576 232
577 232
578 232
579 231
580 231
581 231
582 230
583 229
584 228
585 227
586 226
587 225
588 224
589 223
590 223
591 222
592 221
593 221
594 220
595 220
596 220
597 220
598 219
599 218
600 218
601 217
602 216
603 215
604 214
605 213
606 212
607 211
608 210
608 209
609 208
610 208
610 207
611 206
612 206
613 205
614 204
615 203
616 202
616 201
617 200
618 200
619 199
620 198
621 197
622 196
623 195
623 194
624 193
625 192
626 191
627 190
628 189
629 188
630 187
631 186
632 185
633 185
633 184
634 183
635 183
636 183
637 184
638 183
638 182
639 181
640 181
641 180
642 179
643 178
644 177
645 176
645 175
646 174
647 173
648 172
649 171
650 170
651 169
652 168
653 167
654 166
655 165
656 165
657 164
658 163
659 163
660 162
661 161
662 161
663 160
664 160
665 160
666 159
667 159
668 159
669 159
670 159
671 158
672 158
673 158
674 157
675 157
676 157
677 157
678 157
679 156
680 156
681 156
682 156
683 155
684 155
685 155
686 155
687 155
688 154
689 154
690 154
691 153
692 153
693 153
694 152
695 152
696 152
697 152
698 151
699 151
700 151
701 151
702 150
703 150
704 150
705 150
706 149
707 149
708 149
709 148
710 148
711 148
712 148
713 148
714 147
715 147
716 147
717 147
718 147
719 146
720 146
721 146
722 146
723 146
724 146
725 145
726 145
727 145
728 145
729 145
730 145
731 145
732 145
733 145
734 145
735 145
736 145
737 145
738 145
739 145
740 145
741 145
742 145
743 145
744 145
745 145
746 146
747 147
748 147
749 148
750 149
751 150
752 151
753 151
754 152
755 153
756 153
757 153
758 154
759 153
760 154
760 155
761 154
762 154
763 154
764 153
765 153
765 152
764 151
764 150
764 149
764 148
765 147
765 146
764 145
764 144
763 143
762 143
761 143
760 142
759 142
758 142
757 143
756 142
755 142
754 141
753 141
752 141
751 140
750 139
749 140
748 140
747 139
746 140
745 139
744 139
743 139
742 139
741 139
740 138
739 138
738 138
737 138
736 138
735 138
734 138
733 138
732 138
731 138
730 138
729 138
728 139
727 139
726 139
725 139
724 139
723 139
722 139
721 140
720 140
719 140
718 140
717 141
716 141
715 141
714 142
713 142
712 141
711 142
710 143
709 143
708 143
707 143
706 143
705 144
704 144
703 144
702 144
701 145
700 145
699 145
698 146
697 146
696 146
695 147
694 147
693 147
692 147
691 148
690 148
689 148
688 148
687 148
686 149
685 149
684 149
683 150
682 150
681 151
680 150
679 151
678 151
677 151
676 152
675 152
674 152
673 152
672 152
671 152
670 153
669 153
668 154
667 154
666 154
665 154
664 154
663 155
662 155
661 155
660 155
659 155
658 156
657 155
656 155
655 156
654 156
653 156
652 156
651 156
651 157
650 158
649 158
648 157
647 157
646 156
645 156
644 155
643 154
642 154
641 153
640 152
639 152
638 151
637 150
636 150
635 149
634 148
633 147
632 147
631 146
631 145
630 145
629 144
628 143
627 142
626 142
625 141
625 140
624 140
623 139
622 138
621 137
620 136
619 135
618 134
617 133
616 132
615 132
614 131
613 130
612 130
611 130
610 130
609 129
608 128
607 128
606 127
605 126
604 125
603 124
602 123
601 122
600 121
599 122
598 122
597 122
596 121
595 120
594 119
593 118
592 117
591 116
590 116
589 115
588 114
587 114
586 113
585 112
584 111
583 111
582 110
581 109
580 108
579 107
578 106
577 105
577 104
576 103
575 102
574 101
573 101
572 100
571 100
571 101
570 102
569 102
568 101
567 100
566 100
565 99
564 98
563 98
562 97
561 96
560 95
559 95
558 94
557 93
556 93
555 92
554 91
553 91
554 92
553 93
552 93
551 92
550 91
549 90
548 90
547 89
546 89
545 88
544 87
543 86
542 86
541 85
540 84
539 84
540 85
539 86
538 87
537 86
536 86
535 85
534 84
533 84
532 83
531 82
530 81
529 80
528 79
527 79
526 78
527 79
527 80
526 81
525 80
524 79
523 78
522 77
521 77
520 76
519 75
518 75
517 74
516 73
515 73
514 72
513 72
512 71
511 71
510 70
511 71
511 72
510 73
509 73
508 72
507 71
506 71
505 70
504 70
503 69
502 69
501 69
500 69
499 69
498 68
497 68
496 67
495 66
494 66
493 65
492 65
491 65
490 64
489 64
488 64
489 65
488 66
487 66
486 65
485 64
484 64
483 64
482 63
481 63
480 62
479 61
478 61
477 60
476 59
475 59
474 58
473 58
472 58
471 58
470 59
469 59
468 58
467 57
466 57
465 56
464 56
463 57
462 56
461 55
460 55
459 55
458 54
457 54
456 54
455 54
454 54
453 53
454 54
455 55
454 56
453 56
452 56
451 55
450 55
449 54
448 54
447 53
446 53
445 53
444 52
443 52
442 52
441 51
440 51
441 52
440 53
439 53
438 52
437 52
436 51
435 51
434 51
433 51
432 51
431 50
430 50
429 50
429 51
428 52
427 52
426 52
425 52
424 51
423 51
422 51
421 50
420 50
419 49
418 49
417 48
416 49
415 48
414 48
413 48
414 49
415 50
414 51
413 51
412 50
411 50
410 50
409 49
408 50
407 49
406 49
405 49
404 48
403 48
402 47
401 47
400 48
399 47
398 47
397 47
398 47
399 48
398 49
397 49
396 49
395 49
394 48
393 48
392 48
391 47
390 47
389 46
388 46
387 45
386 45
385 44
384 44
383 44
382 44
381 44
382 44
383 45
382 46
381 46
380 46
379 46
378 46
377 46
376 45
375 46
374 45
373 45
372 45
371 45
370 44
369 44
368 44
367 44
366 43
365 44
364 43
