89 270
89 271
89 272
89 273
89 274
89 275
89 276
89 277
89 278
89 279
90 280
91 281
92 282
93 283
94 284
95 285
96 286
97 286
98 287
99 287
100 287
101 288
102 288
103 289
104 289
105 290
106 290
107 290
108 291
109 291
110 292
111 292
112 292
113 293
114 293
115 294
116 294
117 295
118 295
119 296
120 297
121 297
122 298
123 298
124 299
125 300
126 300
127 301
128 302
129 302
130 303
131 304
132 305
133 306
134 307
135 308
136 309
136 310
137 311
138 312
139 313
140 313
141 314
141 315
142 316
142 317
143 318
144 319
144 320
145 321
146 322
147 323
148 324
149 325
150 326
151 327
152 328
153 329
154 329
155 330
156 331
157 332
158 332
159 333
160 334
161 335
162 336
163 337
164 338
165 338
166 339
166 340
167 341
168 342
168 343
169 344
169 345
170 346
171 347
172 348
173 349
174 350
175 351
176 352
177 353
178 354
179 354
180 355
181 356
181 357
182 358
183 359
184 360
185 360
186 361
187 362
188 363
189 364
190 364
191 365
192 366
193 367
194 368
195 368
196 369
197 369
198 370
199 370
200 371
201 371
202 372
203 372
204 373
205 373
206 374
207 374
208 375
209 375
210 376
211 376
212 377
213 378
214 379
215 379
216 380
217 381
218 382
219 382
220 383
221 383
222 384
223 385
224 386
225 387
226 388
227 389
228 390
229 391
230 391
231 392
232 393
233 393
234 394
235 395
236 396
237 397
238 398
239 399
240 400
241 401
242 402
243 402
244 403
245 404
246 405
247 406
248 407
249 407
250 408
251 408
252 408
253 409
254 409
255 409
256 410
257 410
258 410
259 411
260 411
261 411
262 412
263 412
264 412
265 413
266 413
267 414
268 414
269 414
270 414
271 414
272 415
273 415
274 415
275 416
276 416
277 416
278 416
279 416
280 417
281 417
282 418
283 418
284 418
285 418
286 418
287 418
288 418
289 418
290 418
291 418
292 418
293 418
294 419
295 419
296 420
297 420
298 421
299 421
300 422
301 423
302 423
303 424
304 425
305 425
306 426
307 427
308 428
309 429
310 430
311 431
312 432
313 433
314 434
315 434
316 434
317 434
318 434
319 434
320 435
321 435
322 435
323 435
324 435
325 435
326 435
327 436
328 436
329 436
330 437
331 437
332 437
333 438
334 438
335 438
336 439
337 439
338 440
339 440
340 441
341 441
342 442
343 442
344 443
345 443
346 444
347 444
348 445
349 445
350 446
351 446
352 447
353 447
354 447
355 447
356 447
357 447
358 447
359 447
360 447
361 447
362 447
363 447
364 447
365 447
366 447
367 448
368 448
369 449
370 449
371 449
372 450
373 450
374 451
375 451
376 452
377 452
378 453
379 453
380 454
381 454
382 455
383 455
384 456
385 456
386 456
387 457
388 457
389 457
390 457
391 457
392 457
393 457
394 457
395 457
396 457
397 457
398 457
399 457
400 457
401 457
402 457
403 457
404 457
405 457
406 457
407 457
408 457
409 457
410 457
411 457
412 457
413 457
414 456
415 456
416 457
417 457
418 457
419 457
420 457
421 457
422 457
423 457
424 457
425 457
426 457
427 457
428 457
429 458
430 458
431 458
432 458
433 458
434 458
435 458
436 458
437 458
438 458
439 458
440 458
441 458
442 458
443 458
444 457
445 457
446 457
447 457
448 457
449 457
450 457
451 457
452 457
453 456
454 456
455 456
456 456
457 455
458 455
459 455
460 455
461 455
462 455
463 455
464 454
465 454
466 454
467 454
468 454
469 454
470 454
471 454
472 454
473 454
474 454
475 454
476 454
477 454
478 453
479 453
480 453
481 453
482 453
483 453
484 453
485 452
486 452
487 452
488 452
489 452
490 451
491 451
492 451
493 450
494 450
495 449
496 449
497 449
498 448
499 448
500 447
501 447
502 446
503 446
504 445
505 445
506 444
507 444
508 443
509 443
510 442
511 442
512 441
513 441
514 440
515 440
516 439
517 439
518 438
519 438
520 438
521 437
522 437
523 437
524 436
525 436
526 436
527 436
528 435
529 435
530 435
531 435
532 435
533 435
534 434
535 434
536 433
537 433
538 433
539 432
540 432
541 431
542 431
543 431
544 430
545 430
546 429
547 429
548 429
549 428
550 428
551 428
552 427
553 427
554 427
555 427
556 427
557 427
558 427
559 427
560 427
561 427
562 427
563 426
564 426
565 426
566 426
567 426
568 426
569 426
570 425
571 425
572 424
573 424
574 423
575 423
576 422
577 422
578 421
579 421
580 420
581 419
582 418
583 418
584 417
585 416
586 415
587 415
588 414
589 414
590 413
591 412
592 412
593 411
594 411
595 410
596 410
597 409
598 409
599 408
600 408
601 407
602 407
603 406
604 406
605 406
606 405
607 405
608 404
609 403
610 403
611 402
612 402
613 401
614 401
615 400
616 400
617 400
618 399
619 399
620 399
621 398
622 398
623 397
624 397
625 396
626 396
627 395
628 395
629 394
630 394
631 393
632 393
633 392
634 391
635 390
636 389
637 388
638 387
639 386
640 385
641 384
642 383
642 382
643 381
644 380
644 379
645 378
646 377
647 376
647 375
648 374
648 373
649 372
650 371
650 370
651 369
651 368
652 367
653 366
653 365
654 364
654 363
655 362
655 361
656 360
656 359
657 358
657 357
658 356
658 355
659 354
659 353
660 352
660 351
661 350
662 349
663 348
664 347
664 346
665 345
666 344
667 343
667 342
668 341
669 340
670 339
671 338
671 337
672 336
673 335
673 334
674 333
675 332
676 331
677 330
677 329
677 328
677 327
678 326
678 325
678 324
679 323
679 322
679 321
680 320
680 319
681 318
681 317
682 316
682 315
682 314
683 313
683 312
684 311
684 310
685 309
685 308
686 307
686 306
687 305
688 304
688 303
689 302
689 301
690 300
691 299
691 298
692 297
692 296
693 295
693 294
694 293
694 292
695 291
695 290
696 289
696 288
696 287
697 286
697 285
697 284
697 283
697 282
697 281
698 280
698 279
698 278
698 277
699 276
699 275
700 274
700 273
701 272
701 271
702 270
703 269
704 268
705 268
706 267
707 267
708 266
709 265
710 265
711 264
712 263
713 262
714 262
715 261
716 260
717 259
718 258
719 257
720 256
721 255
721 254
722 253
723 252
724 251
724 250
725 249
725 248
726 247
726 246
727 245
727 244
727 243
728 242
728 241
729 240
729 239
729 238
730 237
730 236
731 235
731 234
732 233
732 232
733 231
734 230
734 229
735 228
736 228
736 227
736 226
736 225
736 224
736 223
736 222
736 221
736 220
736 219
736 218
735 217
735 216
735 215
734 214
734 213
733 213
732 213
731 213
730 213
729 213
728 213
727 214
727 215
726 216
725 217
724 218
723 219
723 220
722 221
721 222
721 223
720 224
719 225
719 226
718 227
717 228
717 229
716 230
716 231
715 232
714 233
714 234
713 235
712 236
711 237
710 238
709 238
708 239
707 240
706 240
705 241
704 241
703 242
702 242
701 243
700 243
699 244
698 244
697 245
696 245
695 246
694 246
693 247
692 247
691 248
690 247
689 247
688 246
687 246
686 245
685 244
684 243
683 242
682 242
681 241
680 240
679 239
679 238
678 237
678 236
677 235
677 234
676 233
676 232
675 231
675 230
674 229
673 228
672 227
671 226
670 226
669 225
669 224
668 223
668 222
667 221
666 220
666 219
665 218
665 217
664 216
664 215
663 214
663 213
662 212
662 211
661 210
661 209
660 208
660 207
659 206
659 205
658 204
658 203
657 202
657 201
656 200
656 199
655 198
655 197
655 196
654 195
654 194
653 193
652 192
651 191
651 190
650 189
649 188
648 187
647 186
646 185
645 184
644 183
643 182
642 181
641 181
640 180
639 179
638 178
637 177
636 176
635 176
634 175
633 174
632 174
631 173
630 172
629 171
628 171
627 170
626 169
625 168
624 168
623 167
622 166
621 165
620 164
619 163
618 162
617 161
616 160
615 159
614 158
613 157
612 156
611 155
610 154
609 154
608 153
607 152
606 151
605 150
604 149
603 148
602 147
601 146
600 145
599 144
598 144
597 144
596 143
595 143
594 143
593 143
592 143
591 142
590 142
589 142
588 141
587 141
586 140
585 140
584 140
583 139
582 139
581 139
580 138
579 138
578 138
577 137
576 137
575 137
574 136
573 136
572 136
571 135
570 135
569 135
568 134
567 134
566 134
565 134
564 133
563 133
562 132
561 132
560 131
559 131
558 130
557 130
556 129
555 129
554 128
553 128
552 127
551 127
550 126
549 126
548 125
547 125
546 124
545 124
544 123
543 123
542 122
541 122
540 121
539 121
538 121
537 120
536 120
535 119
534 119
533 119
532 118
531 118
530 117
529 117
528 116
527 116
526 116
525 115
524 115
523 114
522 114
521 113
520 113
519 112
518 112
517 112
516 111
515 111
514 111
513 111
512 111
511 111
510 111
509 111
508 111
507 111
506 111
505 111
504 111
503 111
502 111
501 111
500 111
499 112
498 112
497 112
496 112
495 111
494 111
493 111
492 111
491 111
490 111
489 110
488 110
487 110
486 109
485 109
484 109
483 108
482 108
481 108
480 107
479 107
478 107
477 106
476 106
475 105
474 105
473 104
472 104
471 103
470 103
469 103
468 103
467 102
466 102
465 102
464 101
463 101
462 101
461 100
460 100
459 99
458 99
457 98
456 98
455 97
454 97
453 96
452 96
451 96
450 95
449 95
448 95
447 95
446 94
445 94
444 94
443 93
442 93
441 93
440 93
439 93
438 93
437 93
436 93
435 92
434 92
433 92
432 92
431 91
430 91
429 90
428 90
427 90
426 90
425 90
424 90
423 90
422 90
421 89
420 89
419 89
418 89
417 89
416 89
415 89
414 89
413 89
412 89
411 89
410 89
409 89
408 90
407 90
406 90
405 90
404 90
403 90
402 90
401 91
400 92
399 93
398 94
397 94
396 95
395 95
394 96
393 96
392 97
391 97
390 98
389 98
388 99
387 99
386 99
385 100
384 100
383 100
382 101
381 101
380 101
379 101
378 101
377 100
376 100
375 100
374 99
373 99
372 99
371 98
370 98
369 98
368 97
367 97
366 97
365 96
364 96
363 96
362 96
361 96
360 95
359 95
358 95
357 95
356 95
355 95
354 95
353 95
352 95
351 95
350 95
349 95
348 95
347 95
346 95
345 95
344 95
343 95
342 95
341 95
340 95
339 95
338 95
337 95
336 95
335 96
334 96
333 96
332 96
331 96
330 97
329 97
328 97
327 98
326 98
325 99
324 100
323 101
322 101
321 102
320 102
319 103
318 103
317 104
316 104
315 104
314 105
313 105
312 105
311 106
310 106
309 106
308 106
307 106
306 106
305 107
304 107
303 107
302 107
301 107
300 107
299 108
298 108
297 108
296 108
295 108
294 108
293 108
292 108
291 109
290 109
289 109
288 109
287 109
286 109
285 109
284 109
283 110
282 110
281 111
280 111
279 112
278 113
277 114
276 114
275 115
274 116
273 117
272 118
271 119
270 120
269 121
268 122
267 123
266 123
265 124
264 124
263 125
262 125
261 126
260 126
259 126
258 127
257 127
256 127
255 128
254 129
253 130
252 131
251 131
250 132
249 132
248 133
247 133
246 134
245 134
244 134
243 135
242 135
241 136
240 136
239 137
238 137
237 138
236 138
235 139
234 139
233 139
232 139
231 140
230 140
229 140
228 141
227 141
226 141
225 141
224 142
223 143
222 144
221 144
220 145
219 146
218 147
217 148
216 149
215 150
214 151
213 152
213 153
212 154
212 155
211 156
210 157
209 158
208 159
207 160
206 161
205 161
204 162
203 162
202 163
201 163
200 164
199 165
198 166
197 167
197 168
196 169
195 170
194 171
193 171
192 172
191 173
190 174
189 175
189 176
188 177
187 178
186 179
185 180
184 181
183 182
182 182
181 183
180 183
179 184
178 185
177 185
176 186
175 187
174 188
173 189
172 190
171 191
170 192
169 193
168 194
168 195
167 196
166 197
165 198
164 199
164 200
163 201
162 202
162 203
161 204
160 205
159 206
159 207
158 208
157 209
156 210
155 211
154 211
153 212
152 213
151 214
151 215
150 216
150 217
149 218
149 219
148 220
148 221
147 222
147 223
146 224
145 225
145 226
144 227
143 228
142 229
141 230
141 231
140 232
139 233
138 234
137 235
136 236
135 237
134 238
133 239
132 240
131 241
130 242
129 243
128 244
127 245
126 246
125 247
124 248
123 249
122 250
121 251
120 251
119 252
118 253
117 254
116 254
115 255
114 256
113 256
112 257
111 257
110 258
109 258
108 259
107 260
106 260
105 261
104 261
103 262
102 262
101 263
100 263
99 264
98 264
97 265
96 265
95 265
94 266
93 266
92 267
91 267
90 268
90 269
89 270
