362 57
361 58
360 58
359 58
358 58
357 59
356 59
355 59
354 59
353 59
352 59
351 59
350 59
349 59
348 60
347 60
346 60
345 60
344 60
343 60
342 60
341 60
340 61
339 61
338 61
337 61
336 62
335 62
334 62
333 62
332 62
331 62
330 62
329 62
328 63
327 63
326 63
325 63
324 63
323 63
322 63
321 63
320 63
319 63
318 64
317 64
316 64
315 64
314 65
313 65
312 65
311 65
310 65
309 65
308 66
307 66
306 66
305 66
304 67
303 67
302 67
301 67
300 67
299 67
298 67
297 67
296 68
295 68
294 68
293 68
292 68
291 69
290 69
289 69
288 70
287 70
286 70
285 70
284 71
283 71
282 71
281 72
280 72
279 72
278 72
277 73
276 73
275 73
274 74
273 74
272 74
271 74
270 75
269 75
268 75
267 76
266 76
265 77
264 77
263 77
262 78
261 78
260 78
259 79
258 79
257 79
256 80
255 80
254 80
253 81
252 81
251 81
250 81
249 81
248 82
247 82
246 82
245 83
244 83
243 83
242 83
241 84
240 84
239 85
238 85
237 86
236 86
235 86
234 87
233 87
232 87
231 88
230 88
229 89
228 89
227 90
226 90
225 90
224 91
223 91
222 92
221 92
220 92
219 93
218 93
217 94
216 94
215 94
214 95
213 96
212 96
211 97
210 97
209 97
208 98
207 99
206 99
205 100
204 100
203 101
202 101
201 102
200 102
199 102
198 103
197 103
196 104
195 104
194 105
193 105
192 106
191 106
190 107
189 107
188 107
187 108
186 108
185 108
184 109
183 110
182 111
181 111
180 111
179 111
178 111
177 112
176 112
175 113
174 113
173 114
172 114
171 114
170 115
169 115
168 116
167 117
166 117
165 117
164 118
163 118
162 119
161 119
160 119
159 120
158 120
157 121
156 121
155 122
154 122
153 123
152 123
151 124
150 124
149 125
148 125
147 126
146 127
145 128
144 128
143 128
142 129
141 129
140 130
139 130
138 131
137 131
136 132
135 133
134 134
133 134
132 134
131 135
130 135
129 136
128 136
127 137
126 137
125 138
124 138
123 139
122 139
121 140
120 141
119 141
118 142
117 143
116 144
115 144
114 145
113 146
112 147
111 148
110 149
110 150
109 151
108 151
107 152
106 153
105 154
104 155
103 156
102 157
101 158
100 159
99 160
98 161
97 162
97 163
96 164
95 165
94 166
93 167
92 168
91 169
90 170
89 170
88 171
87 172
86 173
85 174
85 175
84 176
83 176
83 177
82 178
81 179
80 180
80 181
79 182
78 183
78 184
77 185
77 186
76 187
75 188
75 189
75 190
74 191
74 192
73 193
72 194
72 195
71 196
70 197
70 198
69 199
69 200
68 201
67 202
67 203
67 204
66 205
66 206
66 207
65 208
65 209
65 210
65 211
65 212
65 213
64 214
64 215
64 216
64 217
63 218
63 219
63 220
63 221
63 222
63 223
63 224
63 225
63 226
63 227
63 228
63 229
63 230
63 231
64 232
64 233
64 234
64 235
65 236
65 237
65 238
66 239
66 240
67 241
67 242
68 243
69 244
69 245
70 246
71 247
71 248
72 249
73 250
74 251
75 252
76 253
77 254
78 255
79 256
80 257
81 258
81 259
82 259
83 260
84 261
85 262
86 263
87 264
88 265
89 266
90 266
91 267
92 268
93 269
94 270
95 270
96 271
97 271
98 272
99 272
100 273
101 273
102 274
103 275
104 275
105 275
106 276
107 277
108 278
109 278
110 279
111 280
112 280
113 281
114 281
115 282
116 282
117 282
118 283
119 283
120 283
121 284
122 284
123 285
124 285
125 286
126 286
127 287
128 287
129 288
130 288
131 288
132 289
133 289
134 290
135 290
136 290
137 291
138 291
139 292
140 292
141 292
142 293
143 293
144 293
145 293
146 294
147 294
148 294
149 294
150 294
151 295
152 295
153 295
154 295
155 296
156 296
157 296
158 296
159 296
160 296
161 296
162 296
163 296
164 297
165 297
166 297
167 297
168 297
169 297
170 297
171 298
172 298
173 298
174 298
175 299
176 299
177 299
178 300
179 300
180 300
181 301
182 301
183 301
184 302
185 302
186 302
187 302
188 303
189 303
190 303
191 303
192 303
193 303
194 304
195 304
196 304
197 304
198 304
199 304
200 305
201 305
202 305
203 306
204 306
205 306
206 307
207 307
208 307
209 307
210 307
211 308
212 308
213 308
214 308
215 308
216 308
217 309
218 309
219 309
220 309
221 310
222 310
223 310
224 310
225 310
226 310
227 311
228 311
229 311
230 311
231 311
232 311
233 311
234 311
235 311
236 311
237 311
238 311
239 312
240 312
241 312
242 312
243 312
244 312
245 313
246 313
247 313
248 313
249 313
250 314
251 314
252 314
253 314
254 315
255 315
256 315
257 315
258 315
259 315
260 316
261 316
262 316
263 316
264 316
265 317
266 317
267 317
268 317
269 318
270 318
271 318
272 318
273 318
274 319
275 319
276 319
277 319
278 319
279 320
280 320
281 320
282 320
283 320
284 320
285 321
286 321
287 321
288 322
289 322
290 322
291 322
292 323
293 323
294 323
295 323
296 323
297 323
298 323
299 324
300 324
301 324
302 324
303 324
304 324
305 324
306 324
307 324
308 325
309 325
310 325
311 325
312 325
313 325
314 325
315 325
316 325
317 325
318 325
319 325
320 326
321 326
322 326
323 326
324 326
325 326
326 326
327 326
328 326
329 327
330 327
331 327
332 327
333 327
334 327
335 327
336 327
337 327
338 327
339 327
340 327
341 327
342 327
343 327
344 327
345 327
346 327
347 327
348 327
349 327
350 327
351 328
352 328
353 328
354 328
355 328
356 328
357 328
358 328
359 328
360 329
361 329
362 329
363 328
364 328
365 328
366 328
367 328
368 328
369 328
370 327
371 327
372 327
373 327
374 327
375 327
376 327
377 327
378 327
379 327
380 327
381 327
382 327
383 327
384 328
385 328
386 328
387 328
388 328
389 328
390 328
391 328
392 329
393 329
394 328
395 328
396 328
397 328
398 328
399 328
400 328
401 328
402 328
403 328
404 328
405 328
406 327
407 327
408 327
409 327
410 327
411 326
412 326
413 326
414 326
415 326
416 325
417 325
418 325
419 325
420 324
421 324
422 324
423 324
424 324
425 323
426 323
427 323
428 323
429 323
430 322
431 322
432 321
433 321
434 321
435 320
436 320
437 320
438 320
439 319
440 319
441 319
442 319
443 319
444 318
445 318
446 318
447 318
448 318
449 317
450 317
451 317
452 317
453 317
454 316
455 316
456 316
457 315
458 315
459 315
460 314
461 314
462 314
463 313
464 313
465 313
466 312
467 312
468 312
469 311
470 311
471 311
472 310
473 309
474 309
475 308
476 308
477 308
478 307
479 307
480 307
481 307
482 306
483 306
484 306
485 306
486 306
487 306
488 306
489 305
490 305
491 305
492 305
493 305
494 305
495 305
496 304
497 304
498 304
499 304
500 304
501 303
502 303
503 303
504 302
505 302
506 302
507 301
508 301
509 301
510 300
511 300
512 300
513 299
514 299
515 298
516 297
517 297
518 297
519 296
520 296
521 295
522 295
523 295
524 294
525 294
526 294
527 294
528 294
529 293
530 293
531 293
532 293
533 292
534 292
535 291
536 291
537 290
538 290
539 289
540 289
541 289
542 288
543 288
544 288
545 287
546 286
547 286
548 285
549 285
550 284
551 284
552 283
553 283
554 282
555 282
556 281
557 280
558 280
559 279
560 279
561 278
562 277
563 277
564 276
565 276
566 275
567 275
568 274
569 274
570 273
571 273
572 272
573 271
574 271
575 270
576 270
577 269
578 268
579 268
580 267
581 267
582 266
583 266
584 265
585 265
586 264
587 264
588 263
589 262
590 262
591 261
592 261
593 260
594 260
595 259
596 258
597 258
598 257
599 256
600 256
601 255
602 255
603 254
604 253
605 252
606 252
607 251
608 251
609 250
610 249
611 249
612 248
613 247
614 246
615 246
616 245
617 244
618 244
619 243
620 242
621 241
622 241
623 240
624 239
625 239
626 238
627 237
628 236
629 235
630 235
631 234
632 233
633 232
634 232
635 231
636 230
637 229
638 228
639 228
640 227
641 226
642 225
643 224
644 223
645 222
646 222
646 221
647 220
648 220
649 219
650 218
651 217
651 216
652 215
653 215
654 214
655 213
656 213
657 212
658 211
659 210
660 209
661 209
662 208
663 207
664 207
665 206
666 205
667 205
668 204
669 203
670 203
671 202
672 202
673 201
674 200
675 199
676 199
677 198
678 198
679 197
680 197
681 196
682 196
683 195
684 195
685 195
686 194
687 194
688 194
689 194
690 194
691 194
692 194
693 194
694 194
695 194
696 194
697 194
698 194
699 194
700 194
701 194
702 195
703 195
704 195
705 196
706 196
707 197
708 197
709 197
710 198
711 198
712 199
713 199
714 200
715 200
716 201
717 201
718 202
719 202
720 203
721 203
722 204
723 204
724 205
725 206
726 206
727 207
728 207
729 208
730 208
731 209
732 210
733 210
734 211
735 211
736 212
737 212
738 213
739 213
740 214
741 214
742 215
743 216
743 217
743 218
743 219
743 220
742 221
741 222
741 223
740 224
739 225
738 226
737 227
736 228
735 229
734 230
733 231
732 232
731 232
731 233
732 234
733 234
734 234
735 233
736 232
736 231
737 230
738 230
739 229
740 228
741 227
742 226
743 225
744 224
744 223
745 222
745 221
746 220
747 219
747 218
747 217
748 216
748 215
747 214
747 213
747 212
747 211
746 210
746 209
746 208
746 207
745 206
745 205
745 204
745 203
745 202
746 201
746 200
745 199
745 198
745 197
744 196
744 195
743 194
742 193
741 194
740 193
739 193
738 193
737 193
736 193
735 193
734 193
733 193
732 193
731 193
730 192
729 192
728 191
727 190
726 190
725 189
724 189
723 188
722 188
721 187
720 186
719 186
718 185
717 185
716 184
715 184
714 183
713 183
712 182
711 182
710 181
709 181
708 180
707 180
706 180
705 179
704 179
703 178
702 178
701 178
700 177
699 177
698 177
697 176
696 176
695 175
694 174
693 174
692 173
691 172
690 172
689 171
688 170
687 169
686 168
685 167
684 166
683 165
682 164
681 163
680 162
679 161
678 161
677 160
676 159
675 158
674 157
673 156
672 155
671 154
670 153
669 153
668 152
667 151
666 150
665 149
664 148
663 148
662 147
661 146
660 145
659 144
658 144
657 143
656 142
655 141
654 141
653 140
652 139
651 138
650 137
649 137
648 136
647 135
646 134
645 134
644 133
643 132
642 131
641 131
640 130
639 129
638 129
637 128
636 127
635 126
634 126
633 125
632 124
631 124
630 123
629 122
628 122
627 121
626 120
625 120
624 119
623 118
622 118
621 117
620 116
619 116
618 115
617 114
616 113
615 113
614 112
613 112
612 111
611 110
610 110
609 109
608 108
607 108
606 107
605 107
604 106
603 106
602 105
601 105
600 104
599 104
598 103
597 103
596 102
595 102
594 101
593 101
592 100
591 100
590 99
589 99
588 98
587 98
586 97
585 97
584 96
583 96
582 96
581 95
580 95
579 95
578 94
577 94
576 94
575 93
574 93
573 93
572 92
571 92
570 91
569 91
568 90
567 90
566 89
565 89
564 88
563 88
562 88
561 87
560 87
559 87
558 86
557 86
556 86
555 85
554 85
553 85
552 84
551 84
550 84
549 83
548 83
547 83
546 83
545 83
544 82
543 82
542 82
541 81
540 81
539 81
538 80
537 80
536 80
535 79
534 79
533 79
532 78
531 78
530 78
529 78
528 78
527 77
526 77
525 77
524 77
523 76
522 76
521 76
520 76
519 76
518 76
517 76
516 75
515 75
514 75
513 75
512 74
511 74
510 74
509 74
508 74
507 74
506 73
505 73
504 73
503 73
502 73
501 73
500 73
499 73
498 73
497 72
496 72
495 72
494 72
493 72
492 72
491 72
490 72
489 72
488 72
487 72
486 72
485 72
484 72
483 71
482 71
481 71
480 71
479 71
478 71
477 71
476 70
475 70
474 70
473 70
472 70
471 70
470 70
469 70
468 69
467 69
466 69
465 69
464 69
463 69
462 68
461 68
460 68
459 68
458 67
457 67
456 67
455 67
454 67
453 66
452 66
451 66
450 66
449 66
448 66
447 66
446 66
445 65
444 65
443 65
442 65
441 65
440 65
439 65
438 65
437 64
436 64
435 64
434 64
433 63
432 63
431 63
430 63
429 63
428 62
427 62
426 62
425 62
424 62
423 62
422 61
421 61
420 61
419 61
418 61
417 61
416 60
415 60
414 60
413 60
412 60
411 60
410 60
409 60
408 60
407 60
406 60
405 60
404 60
403 60
402 59
401 59
400 59
399 59
398 59
397 59
396 59
395 59
394 59
393 59
392 59
391 59
390 59
389 59
388 59
387 59
386 59
385 59
384 58
383 58
382 58
381 58
380 57
379 57
378 57
377 58
376 57
375 57
374 57
373 57
372 57
371 57
370 57
369 57
368 57
367 57
366 57
365 57
364 57
363 57
362 57
