440 51
440 52
440 53
440 54
440 55
440 56
441 57
441 58
442 59
442 60
443 61
442 62
441 62
440 62
439 62
439 63
439 64
440 65
440 66
440 67
441 68
442 69
442 70
443 71
444 72
443 73
442 73
441 73
440 73
441 74
441 75
441 76
442 77
443 78
443 79
444 80
443 81
443 82
443 83
444 84
444 85
444 86
445 87
446 88
447 89
448 89
449 90
450 90
451 91
452 91
453 91
454 92
453 93
452 93
451 94
450 94
449 94
448 94
447 94
446 95
445 94
445 95
446 96
446 97
446 98
447 99
447 100
448 100
449 101
450 102
451 103
452 103
453 103
454 104
453 105
452 106
451 106
450 106
449 106
449 107
450 108
451 109
452 110
452 111
453 112
454 113
455 114
456 115
457 116
458 117
459 117
460 118
461 119
460 120
459 120
458 120
457 121
456 121
455 121
454 120
453 120
452 119
452 118
451 117
451 116
451 115
450 114
449 113
449 112
448 113
448 114
447 115
447 116
446 117
446 118
445 119
445 120
444 121
444 122
443 123
443 124
442 125
442 126
441 127
441 128
440 129
439 130
439 131
438 132
437 133
437 134
436 135
435 136
434 137
433 138
433 139
432 140
431 139
430 138
429 137
429 136
428 135
428 134
427 133
427 132
428 131
429 130
430 129
431 128
432 127
433 126
434 125
435 124
435 123
436 122
436 121
437 120
438 119
438 118
438 117
439 116
439 115
439 114
439 113
439 112
440 111
440 110
440 109
440 108
440 107
440 106
440 105
440 104
440 103
440 102
439 101
439 100
439 99
438 98
438 97
437 96
436 95
435 94
435 95
434 96
434 97
433 98
433 99
433 100
432 101
432 102
431 103
431 104
431 105
430 106
430 107
429 108
429 109
429 110
428 111
428 112
427 113
426 114
426 115
425 116
425 117
424 118
423 119
422 120
422 121
421 122
420 121
419 120
418 119
417 118
417 117
417 116
416 115
417 114
418 113
419 113
420 112
421 111
422 110
423 109
424 108
424 107
425 106
426 105
426 104
427 103
427 102
428 101
428 100
428 99
429 98
429 97
429 96
429 95
429 94
430 93
430 92
429 91
429 90
429 89
429 88
429 87
429 86
428 85
428 84
427 83
426 82
426 81
426 82
425 83
425 84
424 85
424 86
423 87
423 88
422 89
422 90
421 91
421 92
420 93
420 94
419 95
418 96
418 97
417 98
416 99
415 100
414 101
414 102
413 103
412 104
411 105
410 106
409 105
409 104
408 103
407 102
407 101
406 100
406 99
406 98
407 97
407 96
408 95
409 94
410 93
410 92
411 91
412 90
412 89
413 88
414 87
414 86
414 85
414 84
415 83
415 82
415 81
415 80
415 79
416 78
416 77
416 76
416 75
416 74
415 73
415 72
415 71
415 70
414 69
414 68
413 67
412 66
411 65
410 65
410 66
410 67
410 68
409 69
409 70
409 71
408 72
408 73
408 74
407 75
407 76
406 77
406 78
406 79
405 80
405 81
404 82
404 83
403 84
402 85
401 86
401 87
400 88
399 88
398 87
397 86
396 85
395 84
395 83
395 82
396 81
396 80
397 79
398 78
399 77
400 76
400 75
401 74
401 73
402 72
402 71
402 70
403 69
403 68
403 67
403 66
403 65
403 64
403 63
403 62
403 61
402 60
402 59
401 58
401 57
400 56
399 56
398 55
397 55
396 55
396 56
396 57
396 58
395 59
395 60
395 61
395 62
394 63
394 64
393 65
392 64
392 63
391 62
391 61
391 60
390 59
390 58
389 57
389 56
388 55
387 55
386 54
385 54
384 53
383 53
382 53
381 53
380 54
379 54
379 55
379 56
380 57
380 58
380 59
381 60
381 61
381 62
382 63
382 64
382 65
383 66
382 67
381 67
380 66
379 65
378 65
377 64
376 63
375 63
374 62
373 62
372 61
371 61
370 61
369 62
369 63
369 64
368 65
369 66
369 67
369 68
369 69
370 70
370 71
371 72
372 73
372 74
373 74
374 75
375 76
376 76
377 77
378 77
379 77
380 77
381 77
382 77
383 77
384 77
385 77
386 77
387 78
388 78
389 79
390 80
391 81
392 82
391 83
390 83
389 83
388 84
387 84
386 85
385 85
384 85
383 86
382 86
381 86
380 87
379 87
378 87
377 88
376 88
375 88
374 88
373 88
372 89
371 89
370 89
369 88
368 87
368 86
368 87
367 88
366 89
366 90
366 91
365 92
365 93
364 94
364 95
364 96
363 97
363 98
362 99
362 100
362 101
361 102
360 103
360 104
359 105
359 106
358 107
357 108
356 109
356 110
355 111
354 112
353 111
352 110
351 109
350 108
350 107
349 106
348 105
347 104
347 103
346 102
345 101
345 100
344 99
344 98
343 98
342 97
342 96
341 95
341 94
340 93
339 92
339 91
339 90
340 89
340 88
341 87
342 86
343 85
343 84
344 83
345 82
345 81
346 80
346 79
346 78
347 77
347 76
347 75
347 74
347 73
346 72
346 71
346 70
346 69
345 68
345 67
344 66
343 65
342 65
341 65
340 64
340 65
340 66
339 67
339 68
339 69
338 70
338 71
338 72
337 73
336 72
335 71
335 70
335 69
335 68
334 67
334 66
333 65
332 64
331 63
330 62
329 62
328 62
327 62
326 63
326 64
326 65
326 66
326 67
326 68
327 69
327 70
327 71
328 72
327 73
326 73
325 72
324 73
323 73
322 72
321 71
320 70
319 69
318 68
317 69
316 69
316 70
315 71
315 72
315 73
315 74
315 75
315 76
316 77
316 78
317 79
316 80
315 80
314 80
313 80
312 80
311 80
311 81
311 82
311 83
311 84
310 85
309 86
308 87
307 88
306 89
305 89
304 90
303 91
302 92
301 93
300 93
299 94
298 95
297 95
296 96
295 96
294 97
293 97
292 98
291 99
290 99
289 98
288 97
288 96
288 95
287 94
287 93
287 92
287 91
288 90
289 89
290 88
291 87
292 86
293 86
294 85
294 84
295 83
296 82
296 81
297 80
298 79
298 78
298 77
299 76
299 75
299 74
299 73
299 72
299 71
298 70
298 69
298 68
297 67
296 66
295 65
294 64
294 65
293 66
293 67
292 68
292 69
291 70
291 71
290 72
289 73
288 72
288 71
288 70
288 69
287 68
287 67
287 66
287 65
286 64
285 63
285 62
284 61
283 61
282 60
281 60
280 60
279 60
278 60
277 60
278 61
278 62
278 63
278 64
278 65
278 66
278 67
278 68
279 69
279 70
279 71
279 72
279 73
279 74
278 75
277 74
276 73
275 72
274 71
273 70
272 69
271 68
271 67
270 66
269 66
268 65
267 65
266 66
265 67
265 68
265 69
265 70
265 71
264 72
263 71
262 71
262 72
262 73
262 74
262 75
262 76
262 77
262 78
263 79
263 80
264 81
264 82
265 83
266 84
267 85
267 86
268 87
269 87
270 88
271 89
272 89
273 90
274 90
275 91
276 91
277 91
278 91
279 92
280 92
281 92
282 92
283 92
284 92
285 93
286 94
286 95
287 96
287 97
287 98
288 99
287 100
286 100
285 100
284 100
283 101
282 101
281 101
280 101
279 101
278 102
277 102
276 102
275 102
274 102
273 102
272 102
271 102
270 102
269 102
268 102
267 102
266 102
265 102
264 102
263 102
262 102
261 102
260 102
259 101
260 102
260 103
260 104
261 105
261 106
262 107
262 108
263 109
262 110
261 110
261 111
262 112
262 113
263 114
263 115
264 116
265 117
266 118
267 119
268 120
269 120
270 121
271 121
272 121
273 122
274 122
275 122
276 123
275 124
274 125
273 125
272 125
271 125
270 126
269 126
268 126
267 127
266 127
265 127
264 128
265 129
266 130
266 131
266 132
266 133
267 134
267 135
268 136
269 137
270 138
271 138
272 139
271 140
270 140
269 141
268 141
269 142
270 143
270 144
271 145
272 146
272 147
273 148
272 149
271 149
270 148
269 147
268 146
267 146
266 145
265 145
264 144
263 144
262 143
261 142
260 141
259 141
259 142
258 143
258 144
257 145
256 144
256 143
255 142
254 141
253 141
252 140
251 140
250 139
250 140
250 141
250 142
250 143
250 144
249 145
249 146
249 147
249 148
249 149
248 150
247 149
247 148
246 147
246 146
245 145
244 144
243 143
243 142
242 141
241 141
240 140
239 140
238 139
237 139
236 139
235 140
234 140
235 141
235 142
235 143
236 144
236 145
236 146
235 147
234 146
233 145
232 144
231 143
230 143
229 142
228 142
227 142
226 142
225 142
224 142
223 142
222 143
221 144
221 145
222 146
222 147
223 148
224 149
225 150
225 151
226 152
227 153
227 154
228 154
229 155
228 156
227 156
226 156
225 156
224 155
223 155
222 155
221 154
220 154
219 154
218 154
217 153
216 153
215 153
214 153
213 153
212 153
212 154
212 155
211 156
210 156
209 155
208 154
207 153
206 153
205 152
204 151
203 151
202 150
202 151
201 152
200 151
200 150
199 149
199 148
198 147
197 146
196 145
195 145
194 144
193 144
192 144
191 143
190 143
189 142
188 141
187 141
186 141
185 140
184 140
185 141
185 142
185 143
184 144
183 143
182 142
181 142
180 141
179 140
178 140
177 140
176 140
175 140
174 140
175 141
175 142
175 143
176 144
176 145
175 146
174 145
173 144
172 144
171 143
170 143
169 143
168 143
167 143
166 143
165 144
164 144
164 145
164 146
165 147
166 148
166 149
167 150
167 151
168 152
168 153
169 154
168 155
167 155
166 154
165 153
164 152
163 151
162 150
161 150
160 149
159 148
159 149
158 150
158 151
157 152
157 153
157 154
157 155
157 156
158 157
158 158
159 159
159 160
160 161
161 162
160 163
159 163
158 163
157 162
156 162
155 162
154 161
154 162
154 163
154 164
154 165
154 166
155 167
155 168
156 169
157 170
158 171
159 171
160 172
161 172
162 173
161 174
160 174
159 174
158 174
157 174
156 175
155 174
155 175
156 176
156 177
156 178
155 179
155 180
155 181
154 182
153 183
153 184
153 185
152 186
152 187
151 188
151 189
150 190
150 191
149 192
148 191
148 190
148 189
148 188
148 187
149 186
149 185
149 184
149 183
149 182
149 181
149 180
149 179
149 178
148 177
148 176
148 175
148 174
147 173
147 172
146 171
146 170
145 169
144 168
144 167
143 166
143 165
142 164
141 164
141 165
140 166
140 167
139 168
139 169
138 170
137 171
136 170
136 169
136 168
136 167
136 166
136 165
135 164
135 163
134 162
134 161
133 160
132 159
131 159
130 158
129 158
129 159
129 160
128 161
127 160
127 159
127 158
126 157
125 156
124 155
123 154
122 154
121 153
121 154
121 155
121 156
120 157
120 158
120 159
120 160
120 161
120 162
119 163
119 164
119 165
118 166
117 165
117 164
117 163
117 162
116 161
116 160
115 159
115 158
114 157
113 156
112 155
111 155
110 154
109 154
108 154
107 154
106 154
105 155
104 155
103 155
103 156
104 157
105 158
105 159
105 160
106 161
106 162
107 163
107 164
108 165
108 166
108 167
109 168
109 169
109 170
108 171
107 170
106 169
105 169
104 168
103 167
102 166
101 166
100 165
99 164
98 163
97 163
96 163
95 163
94 164
94 165
94 166
94 167
94 168
94 169
94 170
95 171
95 172
96 173
96 174
97 175
98 176
97 177
96 177
95 177
94 177
93 177
93 178
93 179
94 180
94 181
95 182
96 183
97 184
98 185
99 185
100 186
101 186
102 187
103 187
104 187
105 187
106 188
107 188
108 188
109 188
110 187
111 187
112 187
113 187
114 186
115 186
116 186
117 185
118 185
119 184
120 184
121 184
122 185
123 185
124 186
125 187
126 188
127 189
126 190
125 190
124 191
123 192
122 192
121 193
120 193
119 194
118 194
117 195
116 195
115 196
114 196
113 197
112 197
111 197
110 198
109 198
108 198
107 199
106 199
105 200
104 200
103 201
103 202
104 203
105 204
106 204
107 205
108 205
109 206
110 206
111 206
112 206
113 206
114 206
115 206
116 206
117 206
118 207
117 208
116 209
115 209
114 210
113 210
112 211
111 212
110 213
109 213
110 214
111 214
112 215
112 216
113 216
114 217
115 217
116 217
117 217
118 218
117 219
118 220
119 221
120 221
121 222
120 223
121 224
122 225
122 226
123 227
123 228
123 229
123 230
123 231
123 232
123 233
123 234
122 235
121 234
121 233
120 232
120 231
119 230
119 229
118 228
117 227
116 226
115 226
114 226
113 225
112 225
111 225
110 225
109 225
110 226
110 227
110 228
110 229
111 230
111 231
111 232
110 233
109 232
108 231
107 230
106 230
105 229
104 228
103 228
102 228
101 228
100 228
99 228
98 228
97 228
98 229
97 230
96 230
95 229
94 229
93 229
92 228
92 229
92 230
92 231
91 232
90 232
89 232
88 232
87 231
86 231
85 230
84 229
83 229
82 229
81 229
80 229
79 229
78 230
77 230
76 231
75 230
76 231
76 232
76 233
76 234
77 235
77 236
77 237
77 238
78 239
77 240
76 240
75 239
74 238
73 237
72 237
71 236
70 237
69 237
69 238
68 239
68 240
68 241
69 242
69 243
70 244
69 245
68 245
67 244
66 244
65 244
64 244
63 245
63 246
63 247
63 248
64 249
65 250
65 251
66 251
67 252
68 252
69 253
69 254
68 255
67 255
66 256
65 256
64 257
63 257
62 258
63 259
64 260
65 261
66 261
67 262
68 262
69 262
70 262
71 262
72 262
73 262
74 261
75 261
76 261
77 262
76 263
75 264
74 265
73 266
72 267
71 268
70 269
69 270
69 271
70 272
71 272
72 273
73 273
74 274
75 275
76 276
77 276
78 276
79 276
80 276
81 276
82 276
83 276
84 275
85 275
86 274
87 274
88 273
89 274
89 275
88 276
87 277
86 278
86 279
85 280
84 281
84 282
85 282
86 283
87 283
88 282
89 282
90 282
91 282
92 281
93 281
94 282
93 283
92 284
91 285
91 286
90 287
91 287
92 288
93 288
94 288
95 287
96 287
97 287
98 286
99 286
100 286
101 285
102 285
103 284
104 283
105 282
106 282
107 281
108 280
109 279
110 278
111 279
111 280
110 281
109 282
109 283
108 284
107 285
107 286
106 287
106 288
105 289
104 290
104 291
103 292
102 293
101 293
100 292
99 292
98 291
97 291
96 290
96 291
97 292
97 293
96 294
95 293
94 293
93 292
92 291
91 290
90 290
89 290
88 289
89 290
89 291
89 292
89 293
89 294
90 295
89 296
90 297
90 298
90 299
90 300
90 301
90 302
91 303
91 304
91 305
91 306
91 307
91 308
91 309
91 310
91 311
91 312
92 313
91 314
91 315
91 316
92 317
91 318
90 318
89 318
88 318
87 318
86 317
85 317
84 317
83 316
84 315
84 314
84 313
84 312
84 311
85 310
85 309
85 308
85 307
85 306
85 305
85 304
85 303
85 302
84 301
84 300
84 299
84 298
84 297
83 296
83 295
82 294
82 293
81 292
80 291
80 290
79 290
78 289
77 289
76 289
76 290
76 291
76 292
76 293
76 294
76 295
76 296
76 297
76 298
76 299
76 300
76 301
76 302
76 303
76 304
75 305
74 304
74 303
74 302
73 301
73 300
72 299
72 298
71 297
71 296
70 295
69 294
68 293
67 292
66 292
65 291
64 291
63 291
62 291
62 292
62 293
62 294
63 295
63 296
63 297
64 298
64 299
64 300
65 301
65 302
65 303
65 304
66 305
66 306
66 307
66 308
66 309
67 310
67 311
67 312
66 313
65 313
64 313
63 312
62 312
61 312
60 312
59 311
58 310
58 309
58 308
58 307
57 306
57 305
56 304
55 303
54 302
53 301
52 301
51 301
50 300
49 300
48 300
47 300
46 300
45 301
44 301
44 302
43 303
44 304
45 305
46 306
47 307
48 307
49 308
50 309
50 310
49 311
48 311
47 310
46 310
45 310
44 310
43 310
42 310
41 310
41 311
41 312
42 313
42 314
42 315
43 316
44 317
45 317
46 318
47 318
48 318
49 319
50 318
51 318
52 318
53 319
52 320
51 321
50 321
49 322
48 323
47 323
47 324
47 325
48 326
49 327
50 327
51 327
52 328
53 328
54 329
53 330
52 331
53 332
54 332
55 333
56 334
57 334
58 334
59 335
60 335
61 335
62 335
63 335
64 335
65 335
66 335
67 335
68 334
69 334
70 333
71 333
72 332
73 331
74 330
75 330
76 329
77 330
77 331
76 332
75 333
75 334
74 335
74 336
73 337
72 338
72 339
71 340
70 341
70 342
71 342
72 343
73 343
74 343
75 343
76 343
77 343
78 342
79 341
80 341
81 342
80 343
80 344
79 345
80 345
81 345
82 345
83 345
84 345
85 345
86 344
87 344
88 343
89 342
90 341
91 340
92 339
93 338
94 337
94 336
95 335
96 336
96 337
96 338
95 339
95 340
95 341
94 342
94 343
93 344
93 345
92 346
92 347
91 348
90 349
91 349
92 349
93 349
94 349
95 349
96 348
97 348
98 349
97 350
97 351
98 351
99 351
100 351
101 350
102 350
103 350
104 349
105 349
106 348
107 348
108 347
109 348
109 349
108 350
108 351
107 352
106 353
107 353
108 353
109 353
110 353
111 353
112 352
113 352
114 351
115 351
116 350
117 349
118 348
118 347
119 346
120 345
120 344
121 343
121 342
122 341
122 340
123 339
123 338
124 337
124 336
124 335
125 334
125 333
125 332
125 331
125 330
125 329
126 328
127 328
128 328
129 328
130 328
131 328
132 328
133 328
134 329
135 329
136 329
137 329
138 329
139 329
140 329
141 329
142 330
143 331
143 332
143 333
142 334
142 335
142 336
142 337
141 338
141 339
141 340
140 341
140 342
140 343
139 344
139 345
139 346
138 347
138 348
137 349
137 350
136 351
136 352
135 353
135 354
135 355
135 356
134 357
134 358
133 359
132 359
133 359
134 360
133 361
132 361
131 361
130 361
129 361
128 361
127 361
126 361
127 362
127 363
128 364
128 365
129 366
128 367
127 367
126 366
125 365
124 365
123 365
122 365
121 364
120 364
119 364
118 364
117 364
117 365
118 366
118 367
119 368
118 369
117 369
116 369
115 368
114 368
113 368
112 368
111 368
110 368
109 369
110 370
109 371
108 371
107 371
106 371
105 371
104 371
103 371
102 371
103 372
104 373
104 374
105 375
106 376
106 377
107 378
108 379
108 380
107 381
106 380
105 379
104 379
103 378
102 378
101 377
100 377
99 377
98 376
97 376
96 376
95 376
94 376
93 376
92 376
92 377
93 378
92 379
91 379
90 379
89 379
88 379
87 379
86 380
85 379
85 380
85 381
86 382
87 383
88 384
87 385
86 385
85 384
84 384
83 383
82 383
81 383
80 383
79 383
78 383
77 383
76 384
77 385
78 386
79 387
79 388
80 389
79 390
78 390
77 389
76 389
75 388
74 388
73 388
72 388
71 388
70 388
69 388
68 388
68 389
69 390
70 391
71 392
71 393
72 394
73 395
74 396
73 397
72 397
71 396
70 396
69 395
68 395
67 394
66 394
65 394
64 394
63 394
62 395
61 395
60 395
59 396
60 397
61 398
62 399
63 400
64 400
65 401
65 402
66 402
67 403
68 404
69 405
68 406
67 406
66 405
65 405
64 404
63 404
62 404
61 404
60 404
59 404
58 404
57 404
56 404
55 404
54 404
53 405
52 405
51 406
50 407
49 408
49 409
49 410
50 410
51 411
52 411
53 411
54 411
55 412
56 412
57 412
58 412
59 413
60 413
61 413
62 414
63 414
64 414
65 415
66 416
66 417
67 418
68 419
67 420
66 421
66 422
65 423
64 424
64 425
63 426
62 427
61 428
60 428
59 429
58 430
57 431
56 431
56 432
57 433
58 434
59 434
60 434
61 434
62 435
63 434
64 434
65 434
66 433
67 433
68 432
69 432
70 433
69 434
69 435
70 435
71 436
72 436
73 436
74 436
75 435
76 435
77 435
78 434
79 433
80 432
81 432
82 433
81 434
81 435
81 436
80 437
81 438
82 438
83 438
84 437
85 437
86 436
87 436
88 435
89 434
90 433
91 432
92 431
93 430
94 431
94 432
94 433
93 434
93 435
93 436
94 436
95 436
96 436
97 435
98 435
99 434
100 434
101 433
102 433
103 433
104 432
105 432
106 431
107 430
108 429
108 428
109 427
109 426
110 425
110 424
111 423
111 422
112 421
112 420
112 419
112 418
113 417
113 416
113 415
113 414
113 413
113 412
113 411
113 410
113 409
113 408
113 407
112 406
112 405
112 404
113 403
114 403
115 403
116 402
117 402
118 401
119 401
120 401
121 400
122 400
123 400
124 399
125 399
126 399
127 398
128 398
129 398
130 399
130 400
130 401
130 402
130 403
130 404
130 405
130 406
130 407
130 408
130 409
130 410
130 411
130 412
130 413
130 414
130 415
130 416
130 417
130 418
130 419
130 420
130 421
129 422
129 423
129 424
129 425
129 426
129 427
128 428
129 428
130 428
131 428
132 429
133 430
134 430
135 431
136 432
137 433
138 434
139 435
140 436
141 437
142 438
143 439
144 440
145 441
146 442
147 443
148 444
149 445
150 446
151 447
151 448
150 449
149 449
148 450
147 451
146 451
145 452
144 453
143 453
142 452
142 451
141 450
141 449
140 448
139 447
138 446
137 445
136 444
135 444
134 443
133 442
132 442
131 441
130 441
129 440
128 439
127 439
126 439
125 438
124 438
123 438
122 437
121 437
120 437
119 437
118 437
117 437
116 438
115 438
114 438
113 438
114 439
115 440
116 441
117 442
116 443
115 443
114 443
113 443
112 443
111 443
110 443
109 443
108 444
107 444
106 444
105 445
106 445
107 446
108 447
109 448
108 449
107 449
106 449
105 449
104 449
103 450
102 450
101 451
100 451
99 452
98 452
99 452
100 453
101 453
102 454
103 454
104 455
105 456
106 456
107 457
108 458
107 459
106 459
105 458
104 458
103 458
102 458
101 458
100 458
99 458
98 459
97 459
96 460
95 461
94 462
93 463
92 464
93 464
94 464
95 465
96 465
97 465
98 465
99 466
100 466
101 466
102 467
101 468
100 468
99 468
98 469
97 469
96 469
95 470
94 471
93 471
93 472
92 473
91 474
91 475
91 476
91 477
91 478
91 479
92 480
93 480
94 480
95 480
96 479
97 479
98 479
99 478
100 478
101 478
102 477
103 477
104 478
104 479
103 480
102 481
101 481
100 482
99 483
98 483
97 484
97 485
97 486
98 487
99 488
100 489
101 489
102 489
103 489
104 489
105 489
106 488
107 488
108 487
109 486
110 486
111 487
111 488
111 489
110 490
110 491
110 492
111 493
112 493
113 493
114 493
115 493
116 492
117 491
118 490
118 489
119 488
119 487
120 486
120 485
121 484
121 483
121 482
121 481
122 480
122 479
122 478
122 477
122 476
121 475
121 474
121 473
121 472
120 471
120 470
121 469
122 468
123 468
124 467
125 467
126 466
127 466
128 466
129 467
129 468
129 469
129 470
129 471
129 472
129 473
129 474
129 475
129 476
129 477
128 478
128 479
128 480
128 481
128 482
128 483
127 484
127 485
127 486
127 487
127 488
126 489
126 490
127 490
128 490
129 490
130 490
131 489
132 489
133 488
133 487
134 486
135 485
135 484
136 483
136 482
137 481
137 480
137 479
138 478
138 477
138 476
138 475
138 474
138 473
138 472
138 471
139 470
139 469
139 468
140 467
141 468
141 469
141 470
142 471
142 472
142 473
143 474
143 475
143 476
144 477
144 478
144 479
144 480
145 481
145 482
145 483
145 484
146 485
146 486
146 487
147 486
148 486
149 485
150 484
150 483
151 482
151 481
152 480
152 479
153 478
154 479
154 480
155 481
155 482
156 481
157 480
158 479
159 478
159 477
160 476
160 475
160 474
160 473
160 472
160 471
160 470
160 469
160 468
160 467
160 466
160 465
160 464
160 463
159 462
159 461
159 460
159 459
158 458
158 457
157 456
157 455
156 454
155 453
155 452
154 451
153 450
154 449
155 449
156 448
157 447
158 447
159 446
160 446
161 445
162 446
162 447
163 448
164 449
164 450
164 451
165 452
165 453
165 454
166 455
166 456
166 457
166 458
167 459
167 460
167 461
167 462
168 463
168 464
168 465
168 466
168 467
169 468
169 469
169 470
169 471
170 472
170 473
170 474
170 475
171 475
172 474
173 473
174 474
174 475
173 476
172 477
173 477
174 478
175 478
176 478
177 478
178 479
179 479
180 479
181 480
180 481
179 481
178 481
177 481
176 482
175 482
174 482
173 483
172 483
171 484
170 485
169 486
169 487
168 488
169 488
170 488
171 489
172 489
173 489
174 489
175 489
176 489
177 489
178 489
179 489
180 489
181 489
182 490
183 490
184 490
185 490
186 490
187 491
188 491
189 491
190 492
191 492
192 492
193 493
193 494
192 495
191 496
190 497
189 497
189 498
188 499
187 500
186 500
185 499
184 498
183 498
182 497
181 497
180 497
179 497
178 497
177 497
176 497
175 497
174 497
173 497
172 498
171 498
170 499
169 499
168 500
168 501
167 502
166 503
166 504
165 505
165 506
165 507
165 508
165 509
165 510
166 510
167 510
168 510
169 510
170 509
171 509
172 509
173 508
174 508
175 508
176 507
177 507
178 506
179 506
180 506
181 505
182 506
182 507
181 508
180 509
180 510
179 511
178 512
177 513
177 514
177 515
176 516
176 517
175 518
175 519
174 520
175 521
176 521
177 522
178 522
179 522
180 522
181 522
182 522
183 521
184 521
185 520
186 519
187 519
187 518
188 517
189 516
189 515
190 514
191 514
192 515
192 516
192 517
192 518
192 519
192 520
192 521
193 521
194 521
195 520
196 520
197 519
198 519
198 518
199 517
200 516
200 515
200 514
201 513
201 512
201 511
202 510
203 511
203 512
203 513
204 514
204 515
204 516
205 515
206 515
207 515
208 514
209 513
209 512
210 511
210 510
210 509
211 508
211 507
211 506
212 505
213 506
213 507
213 508
214 509
214 510
214 511
215 511
216 510
217 509
218 508
218 507
219 506
219 505
219 504
219 503
219 502
219 501
219 500
219 499
219 498
219 497
219 496
219 495
218 494
218 493
218 492
217 491
217 490
217 489
216 488
216 487
215 486
214 485
214 484
213 483
212 482
211 481
210 480
210 479
211 478
212 477
213 476
214 475
215 474
216 473
217 472
218 471
219 470
220 469
221 468
222 467
222 466
223 465
224 464
225 463
226 462
227 461
228 460
229 459
230 458
231 457
232 456
233 455
234 454
235 453
236 453
237 452
238 452
239 453
240 454
240 455
241 456
242 457
242 458
243 459
243 460
244 461
244 462
245 463
245 464
246 465
246 466
247 467
247 468
247 469
248 470
248 471
249 472
249 473
250 474
250 475
250 476
249 477
248 477
247 477
246 477
245 477
244 478
243 478
242 478
241 479
240 480
239 481
238 481
239 481
240 482
240 483
241 483
242 483
243 484
244 484
245 484
246 485
247 485
248 485
249 486
250 486
251 486
252 487
253 487
254 487
255 488
254 489
253 489
252 489
251 489
250 489
249 489
248 489
247 489
246 489
245 489
244 489
243 489
242 489
241 489
240 490
239 490
238 490
237 491
236 492
235 492
234 493
234 494
233 495
233 496
234 496
235 496
236 496
237 496
238 497
237 498
236 498
235 499
234 500
233 500
233 501
232 502
231 503
231 504
230 505
230 506
229 507
230 507
231 507
232 507
233 508
232 509
231 510
230 511
230 512
229 513
229 514
229 515
228 516
229 517
230 517
231 516
232 516
233 517
233 518
232 519
231 520
231 521
231 522
230 523
230 524
231 525
231 526
232 527
232 528
233 528
234 527
235 527
236 526
237 526
238 526
239 525
240 524
241 524
242 523
243 523
244 522
245 523
245 524
245 525
244 526
244 527
244 528
243 529
243 530
243 531
242 532
242 533
242 534
241 535
242 535
243 536
244 536
245 536
246 536
247 536
248 535
249 535
250 534
251 533
252 533
253 534
253 535
252 536
253 535
254 535
255 535
256 535
257 534
258 534
259 533
260 532
260 531
261 530
261 529
262 528
262 527
262 526
262 525
262 524
262 523
263 522
264 523
264 524
265 525
265 526
265 527
265 528
265 529
266 530
266 531
267 531
268 530
269 529
270 528
270 527
271 526
272 526
273 526
274 525
275 524
276 523
276 522
277 521
277 520
278 519
278 518
278 517
278 516
278 515
278 514
278 513
279 512
280 512
281 513
282 513
283 513
284 513
285 513
286 513
287 513
288 512
289 512
290 512
291 512
292 513
291 514
290 515
289 515
288 515
287 516
286 516
285 517
284 517
283 518
282 519
281 519
281 520
280 521
279 522
279 523
278 524
278 525
278 526
278 527
279 527
280 528
281 527
282 527
283 527
284 526
285 526
286 527
286 528
285 529
285 530
284 531
284 532
284 533
284 534
284 535
284 536
284 537
284 538
285 539
285 540
286 540
287 540
288 539
289 539
290 538
291 537
292 536
293 535
294 534
295 533
296 533
297 532
298 531
299 532
299 533
299 534
299 535
299 536
298 537
298 538
298 539
298 540
298 541
298 542
298 543
298 544
297 545
298 546
297 547
298 547
299 547
300 547
301 547
302 547
303 546
304 546
305 545
306 544
307 543
308 542
308 541
308 540
309 539
309 538
309 537
309 536
309 535
309 534
309 533
310 532
311 533
311 534
312 535
312 536
313 537
313 538
314 539
314 540
314 541
315 542
315 543
316 543
316 542
317 541
318 540
318 539
319 538
319 537
319 536
320 535
320 534
320 533
321 532
322 533
322 534
323 535
324 536
325 536
326 535
327 534
327 533
328 532
329 531
329 530
330 529
330 528
331 527
331 526
331 525
332 524
333 525
334 524
335 523
335 522
336 521
336 520
336 519
337 518
338 518
339 517
340 516
341 515
341 514
342 513
342 512
342 511
342 510
343 509
343 508
342 507
342 506
342 505
342 504
342 503
342 502
343 501
343 500
343 499
343 498
343 497
343 496
343 495
344 494
343 493
343 492
343 491
343 490
343 489
343 488
343 487
342 486
342 485
342 484
342 483
341 482
341 481
342 480
343 480
344 481
345 482
346 483
347 484
348 485
349 486
350 487
350 488
351 489
352 490
353 491
354 492
354 493
355 494
356 495
357 496
358 497
359 496
359 495
360 494
360 493
360 492
360 491
361 490
361 489
362 488
362 487
363 486
364 486
365 486
366 486
367 486
368 486
369 486
370 487
371 487
372 487
373 487
374 487
375 488
376 488
377 488
378 488
379 488
380 489
381 489
382 489
383 489
384 490
385 490
386 490
387 491
388 491
389 491
390 492
390 493
389 494
389 495
388 496
388 497
387 498
386 499
385 500
384 499
383 499
382 498
381 498
380 498
379 498
378 497
377 497
376 497
375 497
374 497
373 497
372 497
371 497
370 497
369 497
368 497
367 497
366 497
365 497
364 497
363 497
362 498
361 498
360 498
359 499
358 499
357 500
356 500
355 501
354 502
353 503
352 504
351 505
352 505
353 505
354 506
353 507
352 508
351 509
350 510
349 511
349 512
350 512
351 512
352 512
353 512
354 512
355 513
356 513
357 513
358 513
359 513
360 513
361 514
360 515
359 515
358 515
357 516
356 516
355 517
354 517
353 518
352 518
351 519
350 520
349 521
349 522
348 523
348 524
348 525
347 526
348 526
349 526
350 526
351 526
352 525
353 525
354 525
355 526
354 527
353 528
352 528
351 529
350 530
350 531
349 532
348 533
348 534
348 535
347 536
347 537
348 538
347 539
348 539
349 539
350 539
351 538
352 538
353 539
353 540
352 541
352 542
352 543
351 544
351 545
352 546
352 547
352 548
353 549
353 550
354 551
355 550
356 549
357 549
358 548
359 547
360 546
361 545
362 544
363 543
364 542
365 541
366 542
367 543
367 544
367 545
366 546
366 547
366 548
366 549
366 550
366 551
365 552
365 553
365 554
365 555
365 556
366 556
367 556
368 556
369 556
370 555
371 555
372 554
373 553
374 552
374 551
375 550
375 549
375 548
375 547
376 546
377 547
377 548
378 549
378 550
378 551
378 552
379 552
380 551
381 551
382 550
383 549
383 548
384 547
384 546
384 545
385 544
385 543
385 542
386 541
387 542
387 543
388 544
388 545
389 546
390 545
391 545
391 544
392 543
392 542
393 541
394 540
394 539
395 538
396 537
396 536
396 535
397 534
397 533
397 532
397 531
397 530
397 529
397 528
397 527
396 526
396 525
396 524
395 523
395 522
396 521
397 522
398 523
399 524
400 525
400 526
401 527
402 528
403 529
403 530
404 529
404 528
405 527
405 526
405 525
405 524
406 523
406 522
407 521
407 520
408 519
408 518
408 517
408 516
408 515
408 514
408 513
408 512
408 511
408 510
407 509
407 508
407 507
406 506
406 505
405 504
405 503
406 502
407 503
408 504
409 505
410 506
411 507
412 508
413 509
414 510
415 511
416 511
416 510
416 509
416 508
417 507
417 506
417 505
416 504
416 503
416 502
416 501
415 500
415 499
414 498
414 497
413 496
413 495
412 494
412 493
411 492
410 491
409 490
408 489
407 488
406 487
405 487
404 486
403 485
402 485
401 484
400 484
399 483
398 482
399 481
399 480
400 479
401 478
402 477
403 477
404 477
405 478
406 478
407 479
408 480
409 480
410 481
409 482
410 482
411 483
412 483
413 483
414 484
415 485
416 486
417 487
418 488
419 488
420 489
421 490
421 491
422 492
423 493
424 493
425 494
426 495
427 495
427 494
427 493
427 492
427 491
427 490
427 489
427 488
428 487
429 487
430 487
431 487
432 487
433 487
434 488
435 488
436 488
437 488
438 489
438 490
438 491
438 492
437 493
437 494
436 495
436 496
436 497
435 498
435 499
434 500
434 501
433 502
433 503
433 504
432 505
432 506
431 507
431 508
430 509
430 510
429 511
429 512
429 513
429 514
428 515
428 516
427 517
427 518
426 519
426 520
426 521
425 522
425 523
424 524
423 523
422 523
421 523
420 523
419 523
418 523
417 524
416 524
415 525
414 526
413 527
412 528
411 529
411 530
411 531
410 532
410 533
410 534
410 535
410 536
410 537
410 538
411 539
412 540
413 541
414 541
415 540
416 539
416 538
417 537
418 536
419 535
419 534
420 533
421 532
422 531
423 532
423 533
423 534
423 535
423 536
423 537
423 538
423 539
423 540
424 541
424 542
424 543
424 544
425 543
426 543
427 543
428 543
429 542
430 541
431 541
432 540
433 540
434 539
435 539
436 538
437 537
438 536
438 535
438 534
439 533
439 532
439 531
439 530
439 529
439 528
439 527
439 526
440 525
441 526
441 527
442 528
443 529
443 530
444 531
444 532
445 532
445 531
446 530
447 529
447 528
447 527
447 526
447 525
447 524
447 523
447 522
447 521
446 520
446 519
446 518
445 517
445 516
444 515
444 514
443 513
442 512
441 511
440 510
439 509
438 509
437 508
436 507
435 507
434 506
434 505
435 504
435 503
435 502
436 501
437 500
438 500
439 500
440 501
441 501
442 502
443 503
443 504
444 505
445 506
446 507
447 508
447 509
448 510
449 511
449 512
450 513
450 514
451 515
452 516
452 517
453 518
453 519
454 518
455 517
455 516
455 515
456 514
456 513
456 512
456 511
456 510
456 509
456 508
456 507
455 506
455 505
455 504
455 503
454 502
453 501
453 500
452 499
452 498
451 497
450 496
449 495
449 494
448 494
447 493
446 492
445 491
444 491
443 490
442 489
442 488
442 487
442 486
443 485
443 484
444 483
444 482
445 481
445 480
446 479
446 478
446 477
447 476
448 475
449 474
450 474
451 474
452 475
453 475
454 476
455 477
456 477
457 478
458 479
459 480
460 481
461 482
462 483
463 483
464 484
465 485
466 486
467 487
468 488
469 489
469 490
470 490
471 491
472 492
472 491
473 490
473 489
473 488
473 487
473 486
473 485
472 484
472 483
472 482
472 481
471 480
471 479
470 478
470 477
469 476
469 475
468 474
467 473
466 472
465 471
464 470
463 469
462 468
461 467
460 467
459 466
458 466
457 465
456 464
455 464
454 464
453 463
453 462
454 461
454 460
455 459
455 458
456 457
457 457
458 457
459 458
460 458
461 459
462 460
463 461
464 462
465 463
465 464
466 464
467 465
467 466
468 467
469 468
470 469
470 470
471 471
472 472
472 473
473 474
474 475
474 476
475 477
476 477
477 478
477 479
478 478
479 477
479 476
479 475
479 474
479 473
479 472
479 471
479 470
479 469
479 468
480 467
481 468
482 469
483 470
484 469
485 470
485 471
484 472
484 473
483 474
482 475
483 475
484 476
485 476
486 477
485 478
484 479
484 480
483 481
482 482
482 483
482 484
483 484
484 484
485 484
486 484
487 484
488 483
489 483
490 483
491 483
492 483
493 483
494 483
495 483
496 483
497 483
498 483
499 483
500 483
501 483
502 483
503 483
504 483
505 483
506 483
507 484
508 484
509 484
510 485
510 486
509 487
509 488
509 489
509 490
509 491
508 492
507 492
506 492
505 492
504 492
503 492
502 492
501 492
500 492
499 492
498 492
497 492
496 493
495 493
494 493
493 494
492 494
491 495
490 496
489 496
488 497
487 497
487 498
486 499
485 500
485 501
484 502
484 503
483 504
483 505
483 506
483 507
483 508
484 508
485 508
486 507
487 507
488 506
489 507
489 508
488 509
488 510
487 511
487 512
487 513
487 514
487 515
487 516
487 517
487 518
487 519
488 519
489 518
490 517
491 517
492 518
492 519
491 520
492 521
492 522
492 523
492 524
493 525
493 526
494 527
495 526
496 525
497 525
498 524
499 523
499 522
500 521
500 520
501 519
502 519
503 520
503 521
503 522
503 523
503 524
503 525
503 526
503 527
503 528
503 529
504 529
505 529
506 529
507 529
508 528
509 527
510 526
510 525
511 524
512 524
513 525
513 526
514 526
515 526
516 525
517 524
518 523
518 522
518 521
519 520
520 519
521 518
522 517
522 516
522 515
522 514
523 513
523 512
523 511
523 510
523 509
522 508
522 507
523 506
524 506
525 507
526 508
527 508
528 509
529 509
529 508
530 507
530 506
530 505
530 504
530 503
531 502
531 501
531 500
531 499
532 498
532 497
532 496
532 495
532 494
533 493
534 494
535 493
535 492
535 491
536 490
536 489
536 488
536 487
537 486
538 485
538 484
538 483
539 482
539 481
539 480
539 479
539 478
539 477
539 476
538 475
538 474
538 473
538 472
537 471
537 470
536 469
535 468
535 467
534 466
535 465
536 465
537 466
538 467
539 467
540 468
541 469
542 469
543 470
544 471
545 472
546 472
546 471
546 470
546 469
546 468
546 467
546 466
545 465
545 464
544 463
545 462
546 462
547 463
548 463
548 462
548 461
548 460
548 459
548 458
548 457
548 456
547 455
547 454
547 453
546 452
546 451
545 450
545 449
546 448
547 449
548 450
549 450
550 451
551 451
552 452
553 452
553 451
553 450
553 449
553 448
553 447
552 446
552 445
553 444
554 444
555 444
555 443
555 442
555 441
555 440
555 439
555 438
555 437
554 436
554 435
554 434
554 433
554 432
553 431
553 430
553 429
553 428
553 427
552 426
553 425
554 425
555 426
556 426
557 426
558 426
559 427
559 426
559 425
560 424
560 423
560 422
560 421
559 420
559 419
559 418
558 417
559 416
560 416
561 416
562 416
563 417
564 417
565 418
565 419
564 420
564 421
563 422
563 423
562 424
562 425
563 426
564 426
565 426
566 426
567 426
568 426
569 425
570 425
571 426
571 427
570 428
569 429
568 430
567 431
566 432
566 433
565 434
565 435
565 436
565 437
564 438
564 439
565 439
566 439
567 440
566 441
566 442
566 443
565 444
565 445
565 446
565 447
566 447
567 447
568 447
569 447
570 447
571 447
572 448
572 449
571 450
571 451
570 452
570 453
570 454
569 455
569 456
569 457
569 458
569 459
569 460
569 461
570 462
570 463
570 464
570 465
570 466
570 467
570 468
570 469
570 470
570 471
571 470
572 470
573 470
573 469
574 468
575 468
576 467
577 466
578 465
579 465
580 464
581 463
582 463
583 462
584 461
585 461
586 460
587 460
588 459
589 459
590 459
591 459
592 460
593 461
593 462
593 463
593 464
592 465
591 465
590 465
589 466
588 466
587 467
586 467
585 468
584 468
583 469
582 470
581 471
580 471
580 472
579 473
578 474
577 475
577 476
576 477
576 478
575 479
575 480
575 481
575 482
575 483
575 484
575 485
575 486
576 487
576 488
577 488
578 487
579 486
580 485
581 484
582 483
583 484
583 485
583 486
583 487
584 488
584 489
584 490
584 491
585 492
585 493
586 494
587 495
588 495
589 495
590 495
591 495
591 494
592 493
592 492
592 491
593 490
593 489
593 488
593 487
593 486
593 485
594 484
595 484
596 485
597 486
597 487
598 488
599 489
599 490
599 491
600 492
600 493
600 494
601 494
602 494
603 493
604 493
604 492
605 491
605 490
606 489
606 488
606 487
606 486
606 485
606 484
606 483
606 482
606 481
605 480
604 479
603 478
602 477
601 476
600 475
599 475
598 474
597 474
596 474
595 473
595 472
595 471
595 470
595 469
596 468
597 468
598 468
599 469
600 469
601 470
602 470
603 471
604 471
605 472
605 473
606 473
607 474
608 475
609 476
610 477
611 478
612 479
613 479
613 478
613 477
614 476
614 475
614 474
614 473
614 472
614 471
614 470
613 469
613 468
613 467
612 466
611 465
610 464
609 463
609 462
610 461
611 461
612 462
613 462
614 462
615 463
616 463
617 463
618 464
618 463
619 462
619 461
619 460
619 459
618 458
618 457
617 456
617 455
616 454
616 453
615 452
614 452
613 451
612 450
611 450
610 449
609 449
608 448
607 448
606 447
605 447
604 447
603 446
602 446
601 446
600 446
599 446
598 446
597 446
596 446
595 445
595 444
595 443
595 442
594 441
595 440
595 439
595 438
595 437
595 436
595 435
595 434
595 433
595 432
596 431
597 431
598 431
599 431
600 431
601 431
602 432
603 432
604 432
605 432
606 433
607 433
608 433
609 434
610 435
611 435
612 436
613 436
614 437
615 437
616 438
617 438
618 438
619 439
620 439
620 438
620 437
620 436
620 435
620 434
620 433
619 432
619 431
618 430
618 429
617 428
616 427
615 426
614 425
613 424
612 424
611 423
610 422
609 422
608 421
607 421
606 420
605 420
604 419
603 419
602 419
601 419
600 418
599 418
598 418
597 418
596 418
595 417
595 416
594 415
594 414
594 413
594 412
594 411
594 410
594 409
594 408
594 407
595 406
594 405
594 404
594 403
594 402
594 401
594 400
594 399
594 398
594 397
594 396
594 395
594 394
595 393
596 392
597 393
598 392
599 393
600 393
601 393
602 394
603 394
604 394
605 395
606 395
607 396
608 396
609 396
610 397
611 397
612 397
613 397
614 398
615 399
616 399
617 399
618 400
619 400
620 400
621 401
621 400
621 399
621 398
621 397
621 396
621 395
620 394
620 393
620 392
619 391
618 390
617 389
616 388
615 387
614 386
613 385
612 385
611 384
610 383
611 382
612 382
613 382
614 382
615 382
616 382
617 382
618 382
619 382
620 383
621 382
622 382
623 381
624 381
625 382
625 381
624 380
624 379
624 378
625 377
625 376
625 375
625 374
626 373
625 372
625 371
625 370
625 369
624 368
624 367
623 366
623 365
623 364
623 363
623 362
622 361
622 360
622 359
622 358
622 357
621 356
621 355
621 354
621 353
620 352
620 351
620 350
621 349
622 350
622 349
622 348
622 347
622 346
622 345
621 344
621 343
621 342
621 341
622 340
623 340
623 339
623 338
623 337
622 336
622 335
622 334
621 333
621 332
620 331
620 330
619 329
618 328
619 327
620 327
621 327
621 326
622 325
621 324
621 323
621 322
620 321
620 320
619 319
619 318
620 317
621 317
621 316
621 315
621 314
621 313
620 312
620 311
619 310
619 309
620 308
619 307
620 306
619 305
619 304
619 303
618 302
618 301
617 300
616 299
615 298
614 297
613 296
612 295
611 295
610 294
609 293
608 293
607 292
606 292
605 291
604 291
603 290
602 290
601 289
600 289
599 289
598 289
597 289
596 288
596 287
596 286
596 285
597 284
597 283
597 282
597 281
597 280
597 279
597 278
597 277
597 276
597 275
598 274
598 273
598 272
598 271
599 270
599 269
600 268
600 267
601 266
602 266
603 266
604 266
605 265
606 265
607 265
608 265
609 264
610 264
611 264
612 264
613 263
614 263
615 263
616 263
617 263
618 262
619 262
620 262
621 262
622 262
623 262
624 261
625 261
626 261
627 261
628 261
629 261
630 260
631 260
632 260
633 260
634 259
635 259
636 259
637 259
638 258
639 258
640 258
641 258
642 258
643 258
644 257
645 257
646 257
647 257
648 257
649 257
650 256
651 256
652 256
653 256
654 256
655 256
656 256
657 255
658 255
659 255
660 255
661 255
662 255
663 255
664 255
665 255
666 254
667 254
668 254
669 254
670 254
671 254
672 254
673 254
674 254
675 254
676 253
677 253
678 253
679 253
680 253
681 253
682 253
683 253
684 253
685 253
686 252
687 252
688 252
689 252
690 252
691 252
692 252
693 252
694 252
695 252
696 252
697 251
698 251
699 251
700 251
701 251
702 251
703 251
704 251
705 251
706 251
707 251
708 251
709 251
710 251
711 251
712 251
713 250
714 250
715 250
716 250
717 250
718 250
719 250
720 250
721 250
722 250
723 250
724 250
725 250
726 250
727 250
728 249
729 249
730 249
731 249
732 249
733 249
734 249
735 249
736 249
737 249
738 250
739 250
740 250
741 250
742 250
743 250
744 250
745 250
746 250
747 251
748 251
749 251
750 251
751 251
752 252
753 252
754 252
755 252
756 252
757 252
758 253
759 253
760 253
761 253
762 253
763 253
764 252
764 251
764 250
764 249
764 248
764 247
764 246
764 245
764 244
763 243
763 242
763 241
763 240
762 239
762 238
761 237
761 236
760 236
759 236
758 235
757 235
756 235
755 234
754 234
753 234
752 234
751 234
750 234
749 234
748 234
747 234
746 235
745 235
744 236
743 236
742 236
741 237
740 237
739 237
738 237
737 237
736 238
735 238
734 238
733 238
732 239
731 239
730 239
729 239
728 239
727 239
726 240
725 240
724 240
723 240
722 240
721 240
720 240
719 241
718 241
717 241
716 241
715 241
714 241
713 241
712 241
711 241
710 241
709 242
708 242
707 242
706 242
705 242
704 242
703 242
702 242
701 242
700 243
699 243
698 243
697 243
696 243
695 243
694 243
693 243
692 243
691 243
690 244
689 244
688 244
687 244
686 244
685 244
684 244
683 244
682 244
681 244
680 245
679 245
678 245
677 245
676 245
675 245
674 245
673 245
672 246
671 246
670 246
669 246
668 246
667 246
666 246
665 246
664 247
663 247
662 247
661 247
660 247
659 247
658 247
657 247
656 247
655 248
654 248
653 248
652 248
651 248
650 248
649 248
648 248
647 248
646 249
645 249
644 249
643 249
642 249
641 249
640 249
639 249
638 249
637 250
636 250
635 250
634 249
633 249
632 248
631 247
631 246
632 245
633 246
634 246
633 245
634 244
635 244
636 244
637 243
638 242
639 241
640 241
641 240
641 239
642 238
643 237
643 236
642 235
642 234
642 233
643 232
644 231
645 230
645 229
646 228
647 227
647 226
648 225
648 224
648 223
648 222
647 222
646 221
647 220
647 219
648 218
648 217
649 216
649 215
649 214
649 213
649 212
649 211
649 210
649 209
649 208
649 207
648 207
647 207
646 208
645 208
644 208
643 209
642 209
641 209
640 209
639 210
638 210
637 210
636 209
637 208
638 208
639 207
640 206
641 205
642 204
642 203
643 202
644 201
644 200
645 199
645 198
645 197
645 196
645 195
645 194
645 193
644 193
643 192
643 191
643 190
644 189
644 188
643 187
643 186
643 185
642 186
641 186
640 187
639 187
638 188
637 188
636 188
635 189
634 189
633 190
632 190
631 189
632 188
633 187
634 186
634 185
635 184
636 183
637 182
637 181
638 180
638 179
638 178
639 177
639 176
639 175
639 174
639 173
638 172
637 172
636 173
635 173
634 174
633 174
632 175
631 176
630 176
629 177
628 178
627 178
626 179
625 180
624 180
623 181
622 181
621 182
620 183
619 183
618 184
617 184
616 185
615 185
614 186
613 185
612 184
612 183
612 182
611 181
611 180
611 179
611 178
611 177
612 176
613 175
614 174
615 173
616 172
617 172
617 171
618 170
619 169
620 168
621 167
622 166
622 165
623 164
623 163
624 162
624 161
625 160
625 159
625 158
626 157
626 156
626 155
626 154
626 153
626 152
626 151
626 150
625 149
625 148
624 148
623 147
622 148
621 149
621 150
620 151
619 152
619 153
618 154
617 155
617 156
616 157
615 158
614 159
614 160
613 161
612 162
611 163
610 164
609 165
608 166
607 166
606 165
606 164
606 163
605 162
605 161
604 160
604 159
603 158
603 157
603 156
603 155
602 154
602 153
603 152
604 152
605 151
606 150
607 150
608 149
609 148
610 148
611 147
612 146
613 145
614 144
614 143
614 142
615 141
615 140
615 139
614 138
614 137
613 136
612 135
611 135
610 135
609 134
609 133
610 132
609 131
609 130
609 129
609 128
608 127
608 126
607 125
606 124
606 123
606 122
606 121
606 120
606 119
607 118
607 117
607 116
607 115
606 114
605 115
604 116
603 116
602 117
601 118
600 119
600 120
599 121
598 121
597 122
596 123
595 124
594 124
593 125
592 126
591 126
590 125
590 124
589 123
589 122
588 121
587 120
587 119
586 118
586 117
586 116
585 115
584 114
584 113
583 112
583 111
584 110
585 110
585 109
586 108
586 107
586 106
586 105
587 104
587 103
586 102
586 101
586 100
586 99
585 98
585 97
584 96
583 95
582 95
581 94
580 94
579 94
578 93
577 94
576 94
575 94
575 95
575 96
576 97
576 98
576 99
577 100
577 101
576 102
576 103
575 104
574 103
573 103
572 102
571 101
571 100
571 99
571 98
571 97
571 96
570 96
569 97
568 97
567 98
566 98
565 99
564 99
563 100
562 100
561 99
562 98
563 97
563 96
563 95
564 94
564 93
565 92
565 91
565 90
565 89
565 88
565 87
564 86
564 85
564 84
563 85
562 86
561 87
560 88
559 88
558 89
557 90
556 90
555 91
554 92
553 93
552 94
551 95
550 95
549 96
548 97
547 97
546 98
545 98
544 98
543 99
542 98
541 97
541 96
541 95
540 94
541 93
542 92
543 92
544 91
545 90
546 90
547 90
548 89
549 88
549 87
550 86
551 85
552 86
553 87
554 87
555 88
556 88
556 87
555 86
554 85
553 84
552 83
553 82
553 81
554 80
555 79
555 78
555 77
556 76
556 75
556 74
557 73
557 72
557 71
557 70
557 69
557 68
556 67
556 66
555 65
554 65
553 66
553 67
552 68
551 68
550 67
551 66
551 65
551 64
551 63
551 62
551 61
550 60
550 59
550 58
549 57
549 56
548 55
548 56
547 57
547 58
546 59
545 60
545 61
544 62
543 63
543 64
542 65
541 66
540 67
539 68
538 69
537 70
536 71
535 72
534 73
533 72
532 71
532 70
531 69
531 68
531 67
530 66
530 65
529 64
529 63
529 62
528 61
528 60
527 60
527 61
528 62
528 63
529 64
528 65
527 65
526 65
525 64
524 64
523 64
522 64
521 64
520 64
519 63
518 63
517 62
516 62
515 61
514 61
513 60
512 60
511 59
510 59
510 60
509 61
509 62
509 63
509 64
509 65
509 66
510 67
511 68
511 69
512 70
513 71
513 72
514 73
513 74
512 74
511 74
510 74
509 74
508 74
507 74
507 75
507 76
507 77
508 78
508 79
508 80
508 81
508 82
509 83
510 84
510 85
511 85
512 86
513 87
514 88
515 88
516 89
517 90
516 91
515 91
514 91
513 91
512 91
511 91
510 91
509 90
509 89
509 90
508 91
507 91
506 92
505 93
504 94
503 95
502 95
501 94
502 93
502 92
502 91
503 90
503 89
503 88
503 87
503 86
504 85
504 84
504 83
504 82
503 81
503 80
503 79
502 78
502 77
501 78
500 79
500 80
499 81
498 82
497 83
496 84
495 85
495 86
494 87
493 88
492 87
492 86
493 85
493 84
493 83
494 82
494 81
494 80
494 79
495 78
495 77
495 76
495 75
495 74
496 73
496 72
496 71
496 70
496 69
496 68
496 67
496 66
496 65
495 64
495 63
495 62
494 63
493 64
492 65
491 64
491 63
491 62
491 61
491 60
491 59
490 58
490 57
490 56
489 55
489 54
488 53
487 54
487 55
486 56
485 57
485 58
484 59
483 60
483 61
482 62
481 63
480 64
479 65
478 66
477 67
476 68
475 69
474 69
473 70
472 71
471 72
470 72
469 71
469 70
468 69
468 68
468 67
467 66
467 65
466 64
466 63
465 62
465 61
464 60
464 59
463 58
463 57
462 56
462 55
461 54
461 53
461 52
460 51
459 51
459 52
460 53
460 54
461 55
460 56
459 56
458 56
457 56
456 56
455 56
454 56
453 55
452 55
451 55
450 55
449 55
448 54
447 54
446 53
445 53
444 53
443 52
442 52
441 52
440 51
