30 260
30 261
30 262
30 263
30 264
31 264
32 264
33 264
34 264
35 264
36 264
37 264
38 263
39 263
40 263
41 263
42 264
43 264
44 265
45 265
46 266
47 266
48 267
49 267
50 268
51 269
52 270
53 271
53 272
53 273
53 274
52 275
51 276
50 277
49 277
48 278
47 278
46 279
45 279
44 280
43 280
42 280
41 280
40 281
40 282
40 283
40 284
40 285
40 286
41 286
42 286
43 286
44 287
45 287
46 288
47 288
48 289
49 289
50 290
50 291
51 292
52 293
52 294
53 295
53 296
54 297
54 298
55 299
55 300
56 301
57 302
58 303
59 303
60 304
61 305
62 305
63 306
64 307
65 308
65 309
66 310
67 311
68 312
69 312
70 313
71 313
72 313
73 313
74 313
75 313
76 313
77 313
78 313
79 313
80 313
81 313
82 313
83 313
84 313
85 313
86 314
87 314
88 315
89 315
90 316
90 317
91 318
91 319
92 320
92 321
92 322
92 323
93 323
94 323
95 323
96 323
97 322
98 321
99 320
100 319
101 319
102 318
103 317
104 316
105 315
106 314
107 313
108 312
109 311
110 310
111 310
112 310
113 311
114 312
115 313
116 314
117 315
117 316
118 317
118 318
119 319
119 320
119 321
120 322
120 323
120 324
120 325
120 326
120 327
120 328
121 329
121 330
121 331
122 332
122 333
121 334
121 335
121 336
121 337
121 338
121 339
121 340
121 341
121 342
121 343
121 344
121 345
121 346
121 347
121 348
121 349
122 349
123 349
123 348
124 347
124 346
125 345
125 344
126 343
126 342
127 341
128 340
129 339
130 338
131 337
132 336
132 335
133 334
134 333
135 332
136 331
136 330
137 329
138 328
139 327
140 326
141 325
142 324
142 323
143 322
143 321
144 320
144 319
145 318
145 317
146 316
146 315
147 314
148 313
149 312
150 313
151 314
152 315
152 316
153 317
153 318
153 319
154 320
154 321
154 322
155 323
155 324
155 325
156 326
156 327
156 328
157 329
157 330
158 331
159 332
160 333
160 334
161 335
161 336
162 337
162 338
163 339
163 340
163 341
164 342
164 343
164 344
165 345
165 346
166 347
166 348
167 349
167 350
168 351
168 352
169 353
169 354
169 355
170 356
170 357
171 357
172 357
173 357
174 357
175 357
175 356
175 355
175 354
175 353
176 352
176 351
176 350
177 349
177 348
178 347
178 346
179 345
179 344
180 343
180 342
181 341
181 340
182 339
182 338
182 337
182 336
182 335
183 334
183 333
184 332
184 331
185 330
185 329
185 328
186 327
186 326
187 325
187 324
188 323
188 322
189 321
189 320
189 319
189 318
189 317
189 316
190 315
190 314
190 313
191 312
191 311
192 310
193 309
194 308
195 309
196 310
197 311
197 312
198 313
198 314
198 315
198 316
199 317
199 318
199 319
199 320
199 321
199 322
199 323
199 324
200 325
200 326
200 327
200 328
200 329
200 330
200 331
200 332
200 333
200 334
200 335
200 336
200 337
200 338
200 339
200 340
200 341
200 342
200 343
200 344
200 345
201 346
201 347
201 348
201 349
202 350
202 351
202 352
202 353
202 354
203 355
203 356
203 357
204 358
204 359
205 360
205 361
206 362
206 363
206 364
206 365
206 366
206 367
206 368
206 369
206 370
206 371
206 372
206 373
205 374
205 375
205 376
205 377
205 378
205 379
205 380
205 381
206 381
207 381
208 381
209 381
209 380
210 379
211 378
211 377
212 376
213 375
213 374
214 373
215 372
216 371
216 370
217 369
218 368
219 367
220 366
221 366
222 365
223 365
224 364
225 363
226 362
227 361
228 361
229 360
230 360
231 359
232 359
233 358
234 358
235 358
236 357
237 356
238 355
239 354
240 353
241 352
242 351
243 350
243 349
243 348
243 347
244 346
244 345
245 344
245 343
246 342
246 341
247 340
248 339
248 338
248 337
248 336
249 335
249 334
249 333
249 332
250 331
250 330
250 329
250 328
251 327
251 326
252 325
252 324
253 323
253 322
253 321
254 320
254 319
255 318
255 317
256 316
256 315
256 314
257 313
257 312
257 311
257 310
257 309
258 308
258 307
258 306
258 305
259 304
259 303
259 302
259 301
260 300
260 299
261 298
261 297
262 296
263 295
264 294
265 295
266 295
267 296
267 297
268 298
268 299
269 300
269 301
269 302
269 303
269 304
269 305
269 306
270 307
270 308
270 309
270 310
271 311
271 312
271 313
271 314
271 315
271 316
272 317
272 318
273 319
273 320
274 321
274 322
275 323
275 324
276 325
276 326
277 327
277 328
277 329
278 330
278 331
279 332
279 333
280 334
281 335
281 336
282 337
282 338
283 339
284 340
284 341
285 342
285 343
286 344
286 345
287 346
288 347
288 348
289 349
289 350
290 351
290 352
291 353
291 354
292 355
292 356
292 357
292 358
292 359
292 360
292 361
291 362
291 363
291 364
291 365
291 366
291 367
291 368
292 368
293 368
293 367
294 366
294 365
295 364
295 363
296 362
296 361
296 360
296 359
297 358
297 357
298 356
298 355
299 354
299 353
300 352
301 351
302 350
302 349
302 348
302 347
302 346
302 345
302 344
302 343
303 342
303 341
303 340
303 339
303 338
303 337
303 336
303 335
303 334
304 333
304 332
305 331
305 330
306 329
306 328
306 327
306 326
306 325
307 324
307 323
307 322
308 321
308 320
309 319
309 318
310 317
310 316
311 315
311 314
312 313
312 312
313 311
313 310
314 309
314 308
314 307
314 306
314 305
314 304
314 303
314 302
314 301
314 300
314 299
315 298
315 297
316 296
316 295
317 294
318 294
319 293
320 293
321 292
322 293
323 293
324 294
325 295
326 296
326 297
327 298
327 299
327 300
327 301
327 302
327 303
327 304
326 305
327 305
328 306
329 306
330 307
331 308
332 309
333 310
334 311
334 312
335 313
335 314
336 315
336 316
337 317
337 318
337 319
338 320
338 321
339 322
339 323
340 324
340 325
340 326
340 327
341 328
341 329
342 330
342 331
343 332
343 333
344 334
345 335
345 336
346 337
347 338
348 339
349 340
350 341
351 342
351 343
352 344
352 345
353 346
353 347
354 348
354 349
354 350
355 351
355 352
355 353
355 354
355 355
356 356
356 357
357 357
358 357
359 357
359 356
359 355
360 354
360 353
361 352
361 351
362 350
362 349
363 348
363 347
364 346
364 345
364 344
365 343
365 342
366 341
366 340
367 339
367 338
367 337
368 336
368 335
369 334
369 333
370 332
370 331
370 330
371 329
371 328
371 327
372 326
372 325
373 324
373 323
373 322
373 321
374 320
374 319
375 318
376 317
377 316
378 317
379 318
380 319
381 320
381 321
382 322
382 323
383 324
383 325
384 326
384 327
385 328
385 329
386 330
386 331
386 332
386 333
386 334
386 335
387 336
387 337
387 338
386 339
386 340
385 341
385 342
385 343
385 344
385 345
385 346
385 347
385 348
385 349
386 349
387 349
387 348
388 347
388 346
389 345
389 344
390 343
390 342
390 341
391 340
391 339
392 338
392 337
393 336
393 335
394 334
394 333
395 332
396 331
397 330
398 329
399 328
399 327
399 326
399 325
400 324
400 323
401 322
401 321
401 320
402 319
402 318
403 317
403 316
404 315
405 314
406 313
407 312
407 311
408 310
408 309
409 308
410 307
411 306
411 305
411 304
412 303
412 302
412 301
413 300
413 299
414 298
414 297
415 296
415 295
416 294
417 293
417 292
418 291
418 290
419 289
419 288
420 287
420 286
421 285
421 284
422 283
422 282
423 281
424 280
425 279
426 280
427 281
428 282
428 283
429 284
429 285
430 286
430 287
431 288
431 289
432 290
432 291
432 292
433 293
433 294
434 295
434 296
434 297
435 298
435 299
435 300
436 301
436 302
437 303
437 304
437 305
438 306
439 307
439 308
440 309
441 310
441 311
442 312
443 313
443 314
444 315
444 316
445 317
445 318
446 319
447 320
448 321
448 322
449 323
450 324
451 325
452 326
453 327
454 328
454 329
455 330
455 331
456 332
456 333
457 334
457 335
458 336
458 337
459 338
459 339
460 340
460 341
461 342
461 343
462 344
462 345
463 346
463 347
463 348
464 349
465 349
466 349
467 348
467 347
467 346
467 345
468 344
468 343
468 342
469 341
469 340
469 339
470 338
470 337
470 336
471 335
471 334
472 333
472 332
472 331
473 330
473 329
474 328
474 327
475 326
475 325
476 324
476 323
476 322
477 321
477 320
478 319
478 318
478 317
479 316
479 315
480 314
480 313
481 312
481 311
481 310
482 309
482 308
482 307
482 306
483 305
483 304
483 303
484 302
484 301
484 300
484 299
484 298
485 297
485 296
486 295
487 294
488 293
489 294
490 295
491 296
491 297
492 298
492 299
493 300
493 301
493 302
493 303
493 304
494 305
494 306
494 307
494 308
495 309
495 310
495 311
495 312
495 313
495 314
496 315
496 316
497 317
498 318
499 319
500 320
500 321
501 322
501 323
502 324
502 325
503 326
503 327
503 328
504 329
504 330
504 331
504 332
505 333
505 334
506 335
506 336
506 337
507 338
507 339
507 340
508 341
508 342
509 343
509 344
510 344
511 344
512 344
513 343
513 342
513 341
513 340
514 339
514 338
514 337
515 336
515 335
516 334
516 333
517 332
517 331
518 330
518 329
519 328
519 327
520 326
520 325
521 324
521 323
522 322
523 321
523 320
524 319
524 318
525 317
525 316
526 315
526 314
527 313
527 312
528 311
528 310
529 309
530 308
531 307
531 306
532 305
533 304
533 303
534 302
534 301
535 300
535 299
536 298
536 297
537 296
538 295
538 294
539 293
540 292
540 291
540 290
541 289
541 288
541 287
541 286
541 285
541 284
542 283
542 282
543 281
544 280
545 279
546 280
547 280
548 281
549 282
549 283
550 284
550 285
551 286
552 287
552 288
553 289
553 290
554 291
554 292
555 293
555 294
556 295
556 296
557 297
558 297
559 298
559 299
560 300
560 301
561 302
561 303
561 304
561 305
562 306
563 307
564 308
564 309
565 310
565 311
566 312
566 313
566 314
566 315
567 316
568 317
569 317
570 318
570 319
571 320
571 321
572 322
572 323
573 324
573 325
574 326
574 327
574 328
575 329
575 330
575 331
575 332
576 332
577 332
578 332
579 332
579 331
579 330
580 329
580 328
580 327
580 326
580 325
581 324
581 323
582 322
582 321
582 320
582 319
583 318
583 317
583 316
583 315
583 314
583 313
583 312
584 311
584 310
585 309
585 308
586 307
586 306
587 305
587 304
588 303
589 302
590 301
591 300
592 299
592 298
592 297
592 296
592 295
592 294
592 293
593 292
593 291
593 290
594 289
594 288
594 287
595 286
595 285
595 284
595 283
596 282
596 281
597 280
598 279
599 278
600 278
601 278
602 279
603 280
603 281
604 282
604 283
605 284
605 285
606 286
606 287
607 288
608 289
609 290
609 291
610 292
610 293
611 294
612 295
613 295
614 296
615 296
616 297
617 298
618 299
619 300
620 301
620 302
621 303
621 304
622 305
622 306
623 306
624 306
625 306
626 306
627 306
628 306
629 306
630 306
631 306
631 305
632 304
632 303
633 302
634 301
634 300
635 299
636 298
636 297
637 296
638 295
639 295
640 294
641 293
642 292
643 291
644 291
645 290
646 289
647 288
648 287
649 286
649 285
650 284
651 283
652 282
652 281
653 280
654 279
655 278
656 277
656 276
657 275
658 274
659 273
659 272
660 271
661 270
661 269
661 268
662 267
662 266
662 265
662 264
663 263
663 262
663 261
663 260
664 259
664 258
664 257
664 256
664 255
664 254
664 253
664 252
665 251
665 250
666 249
666 248
667 247
668 246
669 245
669 244
669 243
669 242
669 241
669 240
669 239
669 238
669 237
669 236
668 235
668 234
667 233
667 232
667 231
667 230
666 229
666 228
665 227
665 226
664 225
663 224
662 224
661 223
660 223
659 222
658 221
658 220
657 219
657 218
656 217
656 216
656 215
655 214
656 213
657 212
658 211
659 211
660 210
661 210
662 210
663 209
664 209
665 209
666 209
667 209
668 209
669 209
670 208
671 208
672 208
673 208
674 208
675 208
676 208
677 207
678 207
679 207
680 207
681 207
682 207
683 207
684 207
685 208
686 208
687 209
687 210
688 211
688 212
688 213
689 214
690 214
691 215
692 215
693 215
694 215
695 215
696 215
697 215
698 214
699 214
700 213
701 213
702 213
703 213
704 212
705 212
706 211
707 211
708 210
709 210
710 209
710 208
711 207
711 206
712 205
712 204
713 203
714 203
715 202
716 202
717 201
718 201
718 200
719 199
719 198
719 197
719 196
719 195
719 194
719 193
719 192
718 192
717 192
716 192
715 192
714 192
713 192
712 192
711 192
710 192
709 192
708 192
707 192
706 192
705 193
704 193
703 194
702 194
701 195
700 195
699 196
698 196
697 196
696 197
695 197
694 198
693 198
692 198
691 199
690 199
689 200
688 200
687 200
686 200
685 201
684 201
683 201
682 201
681 201
680 202
679 202
678 202
677 202
676 203
675 203
674 203
673 203
672 203
671 204
670 204
669 204
668 204
667 204
666 204
665 205
664 205
663 205
662 205
661 205
660 205
659 205
658 205
657 205
656 204
655 203
654 202
654 201
653 200
653 199
654 198
654 197
655 196
655 195
656 194
657 193
658 192
659 191
660 190
660 189
660 188
660 187
660 186
660 185
660 184
660 183
660 182
660 181
660 180
660 179
659 178
659 177
658 176
658 175
657 174
657 173
657 172
657 171
657 170
657 169
657 168
657 167
657 166
657 165
657 164
657 163
656 162
656 161
655 160
655 159
654 158
653 157
652 156
652 155
651 154
650 153
649 152
648 151
647 150
646 149
645 149
644 148
643 147
642 147
641 146
640 145
639 144
638 143
637 142
636 142
635 141
634 141
633 140
632 139
632 138
631 137
630 136
629 135
628 134
627 133
626 132
625 131
624 130
623 129
622 128
621 127
620 126
619 125
618 124
617 123
616 122
615 122
614 122
613 122
612 122
611 122
611 123
611 124
611 125
611 126
611 127
611 128
611 129
612 130
611 131
611 132
611 133
610 134
610 135
609 136
609 137
608 138
608 139
607 140
607 141
607 142
607 143
606 144
606 145
606 146
605 147
605 148
605 149
604 150
604 151
604 152
603 153
603 154
603 155
603 156
602 157
602 158
602 159
602 160
601 161
601 162
601 163
601 164
601 165
600 166
600 167
599 168
599 169
598 170
597 171
596 172
595 173
594 172
593 171
592 170
592 169
591 168
591 167
591 166
590 165
590 164
589 163
589 162
588 161
588 160
587 159
587 158
586 157
585 156
585 155
584 154
583 153
582 152
581 151
580 150
580 149
579 148
578 147
577 146
576 145
575 144
574 144
573 143
572 142
571 141
570 140
570 139
569 138
569 137
568 136
568 135
567 134
567 133
566 132
566 131
565 130
565 129
565 128
564 127
564 126
564 125
563 124
562 124
561 124
560 124
559 124
558 124
558 125
557 126
557 127
557 128
556 129
556 130
555 131
555 132
554 133
554 134
553 135
553 136
553 137
552 138
552 139
552 140
551 141
551 142
551 143
551 144
550 145
550 146
550 147
550 148
550 149
550 150
550 151
550 152
549 153
549 154
549 155
549 156
549 157
549 158
549 159
549 160
549 161
549 162
549 163
549 164
549 165
550 166
550 167
550 168
550 169
550 170
549 171
549 172
548 173
548 174
548 175
548 176
548 177
548 178
548 179
547 180
547 181
546 182
546 183
546 184
546 185
545 186
545 187
544 188
544 189
543 190
542 190
541 191
541 192
540 193
539 194
538 195
537 194
536 193
535 192
535 191
536 190
536 189
536 188
536 187
536 186
535 185
535 184
535 183
535 182
535 181
535 180
535 179
534 178
534 177
534 176
534 175
534 174
534 173
533 172
533 171
533 170
533 169
533 168
533 167
532 166
532 165
532 164
532 163
532 162
531 161
531 160
531 159
530 158
530 157
530 156
530 155
529 154
529 153
529 152
528 151
528 150
527 149
527 148
526 147
525 146
525 145
524 144
523 143
522 142
522 141
521 140
520 139
519 138
518 137
518 136
517 135
516 134
515 133
514 132
513 131
512 130
511 129
510 128
509 127
508 126
507 125
506 124
505 124
504 123
503 123
502 122
501 122
500 121
500 120
499 119
499 118
498 117
497 116
496 115
496 114
495 113
494 112
493 111
492 110
491 109
490 109
489 109
488 109
487 109
487 110
487 111
487 112
487 113
487 114
487 115
487 116
487 117
487 118
487 119
488 120
488 121
488 122
488 123
488 124
488 125
488 126
488 127
488 128
488 129
488 130
488 131
488 132
487 133
487 134
487 135
486 136
486 137
486 138
486 139
486 140
485 141
485 142
484 143
484 144
484 145
483 146
483 147
483 148
483 149
483 150
482 151
482 152
481 153
481 154
481 155
481 156
481 157
481 158
481 159
481 160
481 161
481 162
481 163
481 164
481 165
481 166
481 167
481 168
481 169
481 170
480 171
480 172
480 173
480 174
480 175
479 176
478 175
477 174
476 173
475 172
475 171
474 170
474 169
473 168
473 167
472 166
472 165
471 164
471 163
471 162
470 161
470 160
469 159
469 158
468 157
467 156
466 155
466 154
465 153
465 152
464 151
463 150
463 149
462 148
462 147
461 146
461 145
460 144
459 143
458 142
457 141
456 140
455 139
454 138
453 137
452 136
451 135
450 134
449 133
448 132
447 131
446 131
445 130
444 129
443 128
442 127
441 126
440 125
439 124
438 124
437 123
436 122
435 121
434 121
433 120
432 119
431 119
430 118
429 117
428 116
427 115
426 114
425 113
424 112
423 111
422 110
421 109
420 108
419 107
418 107
417 107
416 107
415 107
415 108
415 109
415 110
415 111
415 112
415 113
415 114
416 115
416 116
416 117
417 118
417 119
418 120
418 121
418 122
418 123
419 124
419 125
420 126
420 127
420 128
420 129
420 130
420 131
420 132
420 133
420 134
419 135
419 136
419 137
419 138
419 139
418 140
418 141
417 142
416 143
415 144
414 144
413 143
412 143
411 142
410 141
409 141
408 140
408 139
407 138
406 137
405 136
404 135
403 134
402 133
401 132
400 132
399 131
398 130
397 130
396 129
395 129
394 128
393 128
392 127
391 126
390 126
389 125
388 125
387 124
386 124
385 123
384 123
383 122
382 122
381 121
380 121
379 120
378 120
377 119
376 118
375 117
374 117
373 116
372 115
371 114
370 113
369 112
368 111
367 110
366 109
365 108
364 107
363 107
362 107
361 107
360 107
360 108
360 109
360 110
360 111
360 112
360 113
360 114
360 115
361 116
361 117
362 118
362 119
363 120
363 121
363 122
364 123
364 124
364 125
364 126
365 127
365 128
365 129
365 130
365 131
365 132
364 133
364 134
363 135
363 136
363 137
362 138
362 139
361 140
360 141
359 142
358 142
357 141
356 141
355 140
355 139
354 138
354 137
353 136
353 135
352 134
352 133
351 132
351 131
350 130
350 129
350 128
349 127
349 126
348 125
348 124
347 123
347 122
346 121
346 120
345 119
344 118
343 117
342 116
342 115
341 114
340 113
339 112
338 111
337 110
336 109
335 108
334 107
333 106
332 105
331 104
330 103
329 102
328 101
327 100
327 99
326 98
325 97
324 96
323 95
322 94
322 93
321 92
320 92
319 92
318 92
318 93
318 94
318 95
318 96
318 97
318 98
318 99
318 100
318 101
318 102
319 103
319 104
319 105
319 106
319 107
319 108
319 109
318 110
318 111
318 112
318 113
318 114
318 115
318 116
317 117
317 118
317 119
317 120
317 121
316 122
316 123
316 124
315 125
315 126
315 127
314 128
314 129
314 130
314 131
314 132
314 133
313 134
313 135
313 136
313 137
313 138
313 139
312 140
312 141
312 142
312 143
312 144
312 145
312 146
312 147
312 148
312 149
312 150
312 151
311 152
311 153
311 154
310 155
310 156
309 157
308 158
307 159
306 159
305 158
304 157
303 156
303 155
302 154
301 153
301 152
300 151
299 150
299 149
298 148
297 147
296 146
295 145
294 144
293 143
293 142
292 141
292 140
291 139
290 138
290 137
289 136
288 135
287 134
286 133
286 132
285 131
285 130
284 129
284 128
283 127
282 126
282 125
281 124
281 123
280 122
280 121
279 120
279 119
278 118
277 117
276 116
276 115
275 114
274 113
273 112
272 111
271 111
270 110
269 110
268 109
267 109
266 108
265 108
264 107
263 107
262 107
261 107
260 106
259 106
258 105
257 105
256 104
255 104
254 103
254 102
253 101
253 100
252 99
251 98
250 97
249 96
249 95
248 94
247 94
246 94
245 94
245 95
245 96
245 97
245 98
245 99
245 100
245 101
246 102
246 103
246 104
246 105
246 106
246 107
246 108
246 109
246 110
246 111
245 112
245 113
245 114
245 115
245 116
245 117
245 118
245 119
245 120
245 121
245 122
245 123
244 124
244 125
244 126
244 127
244 128
244 129
243 130
243 131
243 132
243 133
243 134
243 135
243 136
243 137
243 138
243 139
243 140
243 141
243 142
243 143
243 144
243 145
243 146
243 147
243 148
243 149
244 150
244 151
244 152
244 153
244 154
244 155
244 156
244 157
243 158
242 159
241 160
240 160
239 160
238 159
237 159
236 158
235 157
234 156
233 155
232 154
231 154
230 153
229 152
228 152
227 151
226 150
225 149
224 148
223 147
222 146
221 145
220 145
219 144
218 143
217 143
216 142
215 142
214 141
213 141
212 140
211 140
210 139
209 138
208 138
207 138
206 137
205 137
204 136
203 136
202 136
201 135
200 135
199 135
198 134
197 134
196 134
195 134
194 133
193 133
192 133
191 133
190 133
189 133
188 133
187 133
186 133
185 132
184 132
183 132
182 132
181 132
180 131
179 131
178 131
177 130
176 130
175 130
174 130
173 130
172 130
171 129
170 129
169 129
168 129
167 129
166 129
165 129
164 129
163 129
162 129
161 129
160 129
159 129
158 129
157 129
156 129
155 129
154 129
153 129
152 129
151 130
150 129
149 129
148 129
147 129
146 129
145 128
144 128
143 128
142 128
141 127
140 127
139 127
138 127
137 127
136 127
135 127
134 127
133 127
132 127
131 127
130 127
129 128
128 128
127 127
126 127
125 126
124 125
123 124
122 124
121 124
120 124
119 124
118 124
117 125
116 125
115 126
115 127
115 128
115 129
115 130
116 131
117 131
118 132
118 133
119 134
119 135
120 136
120 137
121 138
121 139
121 140
122 141
122 142
122 143
122 144
122 145
122 146
122 147
122 148
122 149
122 150
123 151
123 152
123 153
123 154
123 155
123 156
123 157
123 158
123 159
123 160
123 161
123 162
123 163
123 164
123 165
123 166
124 167
124 168
124 169
124 170
124 171
124 172
124 173
124 174
124 175
124 176
124 177
124 178
124 179
123 180
123 181
122 182
121 183
120 184
119 184
118 184
117 183
116 183
115 182
114 182
113 181
113 180
112 179
111 178
110 177
109 176
108 175
107 174
106 173
105 173
104 172
103 172
102 171
101 171
100 171
99 171
98 171
97 170
96 170
95 170
94 170
93 170
92 170
91 170
90 169
89 169
88 168
87 168
86 168
85 167
84 167
83 166
82 166
81 166
80 165
79 165
78 165
77 165
76 165
75 164
74 164
73 164
72 164
71 164
70 164
69 164
68 164
67 164
66 164
65 164
64 164
64 165
64 166
64 167
64 168
64 169
65 169
66 170
67 170
68 171
69 171
70 172
71 173
71 174
72 175
72 176
73 177
73 178
74 179
75 180
75 181
76 182
76 183
77 184
77 185
78 186
78 187
79 188
79 189
79 190
79 191
79 192
79 193
79 194
80 195
80 196
81 197
81 198
82 199
82 200
82 201
83 202
84 203
85 204
85 205
86 206
86 207
87 208
88 209
88 210
89 211
89 212
90 213
90 214
91 215
91 216
92 217
92 218
92 219
92 220
92 221
92 222
91 223
91 224
90 225
90 226
89 227
88 227
87 228
86 228
85 229
84 229
83 230
82 230
81 230
80 230
79 231
78 231
77 231
76 230
75 230
74 230
73 230
72 230
71 230
70 230
69 230
68 230
67 231
66 231
65 232
64 232
63 233
62 233
61 233
60 233
59 233
58 233
57 233
56 234
56 235
55 236
54 237
53 238
53 239
52 240
52 241
51 242
51 243
50 244
50 245
49 246
49 247
48 248
47 249
46 250
45 251
44 252
43 253
42 254
41 254
40 255
39 255
38 256
37 256
36 257
35 258
34 258
33 259
32 259
31 260
30 260
