325 30
324 31
325 31
326 32
325 33
324 33
323 33
322 33
321 33
320 32
319 32
318 32
317 32
316 32
317 33
316 34
315 34
314 33
313 33
312 33
311 33
310 32
309 32
308 32
307 32
306 32
305 32
304 31
303 31
302 31
301 31
300 31
299 31
298 31
297 31
298 32
299 33
299 34
298 35
297 35
296 35
295 35
294 35
293 35
292 34
291 34
290 35
289 35
288 35
287 35
288 35
289 36
288 37
287 38
286 37
285 37
284 37
283 37
282 37
281 37
280 38
279 39
278 38
277 38
276 38
275 38
274 38
273 38
272 39
271 39
270 40
269 40
270 40
271 40
272 41
273 41
274 42
273 43
272 43
271 44
270 43
269 43
268 43
267 43
266 43
265 43
264 43
263 43
262 43
261 43
260 43
259 43
258 43
258 44
259 44
260 45
259 46
258 46
257 46
256 46
255 46
254 46
253 46
252 46
251 46
250 46
250 47
251 48
250 49
249 49
248 48
247 48
246 48
245 48
244 48
243 48
242 48
241 48
240 47
239 47
238 48
237 48
236 48
235 48
234 48
233 49
234 49
235 49
236 49
237 49
238 50
237 51
236 51
235 51
234 52
233 51
232 52
231 52
230 52
229 52
228 52
227 52
226 52
226 53
226 54
225 55
224 54
223 54
222 55
221 55
220 55
219 55
218 55
217 55
216 56
215 56
214 56
213 56
212 57
211 58
212 59
213 60
213 61
212 62
211 61
210 61
209 62
208 62
207 62
206 63
205 63
204 64
203 64
202 64
201 64
200 65
199 65
198 65
197 65
196 66
195 66
194 67
195 67
196 67
197 67
198 67
199 68
198 69
197 69
196 70
195 70
194 70
193 70
192 70
191 71
190 71
189 71
188 72
187 73
186 73
186 74
187 75
186 76
185 76
184 77
183 77
182 77
181 77
180 78
179 79
178 79
177 80
178 81
179 80
180 80
181 80
182 81
181 82
181 83
180 84
179 83
178 83
177 84
176 84
175 85
174 85
173 86
172 86
171 86
170 87
169 88
168 89
169 89
170 90
171 90
172 91
172 92
171 93
170 92
169 93
168 93
167 93
166 93
165 93
164 94
163 94
162 95
161 95
160 95
159 96
158 96
157 97
156 98
157 98
158 98
159 99
158 100
157 101
156 101
155 101
154 101
153 102
152 102
151 103
150 103
149 104
148 104
147 105
146 105
145 106
144 107
145 107
146 107
147 108
146 109
145 109
144 110
143 110
142 110
141 111
140 111
139 111
138 112
137 112
136 113
137 114
136 115
135 116
134 116
133 116
132 117
131 117
130 117
129 118
128 118
127 118
126 119
125 120
126 121
127 122
126 123
125 123
124 124
123 125
122 125
121 126
120 126
119 127
118 127
117 128
116 129
115 129
115 130
114 131
115 131
116 132
115 133
114 134
113 135
112 135
111 136
110 137
109 137
109 138
110 139
109 140
108 140
107 141
106 141
105 142
104 143
103 144
102 145
103 145
104 146
103 147
102 148
101 148
100 149
99 150
98 150
97 151
96 152
96 153
97 154
96 155
95 155
94 156
93 156
92 157
91 157
90 158
89 158
88 159
87 160
86 161
86 162
86 163
85 164
84 165
83 165
82 166
81 166
80 167
79 167
78 167
77 168
76 168
75 169
75 170
74 171
73 171
72 171
71 171
70 172
69 172
68 173
67 173
67 174
66 175
65 176
64 176
63 177
62 177
61 178
60 178
59 178
58 178
57 179
56 180
55 181
54 181
53 181
52 181
51 182
50 182
49 183
48 184
47 185
46 185
45 185
44 186
43 186
42 187
41 187
40 188
39 189
38 190
37 190
36 191
35 192
35 193
34 194
34 195
34 196
35 197
36 197
37 197
38 198
38 199
39 199
40 199
41 199
42 199
43 199
44 199
45 199
46 199
47 198
48 198
49 198
50 198
51 198
52 198
53 198
54 198
55 198
56 198
57 198
58 198
59 198
60 198
61 198
62 199
63 199
64 198
65 199
66 199
67 199
68 199
69 199
70 199
71 199
72 199
73 199
74 199
75 199
76 199
77 199
78 199
79 199
80 199
81 199
82 199
83 200
84 200
85 200
86 201
87 201
88 201
89 201
90 201
91 202
92 203
93 203
94 203
95 203
96 203
97 203
98 204
99 204
100 204
101 205
102 206
103 206
104 206
105 206
106 207
107 207
108 207
109 208
110 208
111 208
112 209
112 210
113 211
114 211
115 211
116 211
117 211
118 211
119 212
120 212
121 213
122 213
123 213
124 214
125 214
126 214
127 214
128 215
129 215
130 216
131 216
132 217
133 217
134 217
135 218
136 218
137 218
138 218
139 219
138 220
139 221
140 221
141 221
142 222
143 222
144 222
145 222
146 222
147 223
148 223
149 223
150 224
150 225
149 226
149 227
150 227
151 228
152 228
153 228
154 229
155 229
156 229
157 230
158 231
159 231
160 231
161 231
162 232
163 232
164 233
163 234
164 234
165 235
166 235
167 236
168 236
169 236
170 236
171 237
170 238
171 238
172 238
173 239
174 239
175 239
176 239
177 240
178 240
179 240
180 241
181 241
182 241
183 242
184 242
185 243
186 243
187 244
188 244
189 244
190 244
191 244
192 244
193 245
193 246
192 247
193 248
194 248
195 249
196 249
197 249
198 249
199 249
200 249
201 250
202 250
203 250
204 250
205 250
206 251
206 252
205 253
206 253
207 253
208 253
209 253
210 253
211 253
212 253
213 254
214 253
215 253
216 254
217 253
218 253
219 254
219 255
220 255
221 256
222 256
223 256
224 256
225 257
226 257
227 257
228 257
229 257
230 258
231 259
232 259
233 259
234 259
235 260
236 260
237 260
238 260
239 260
240 261
241 261
242 261
243 261
244 261
245 261
246 261
247 261
248 262
249 262
250 262
251 263
252 263
253 264
254 265
255 265
256 265
257 265
258 266
259 266
260 266
261 266
262 266
263 266
264 266
265 265
266 264
267 264
268 264
269 265
270 265
271 265
272 266
273 267
274 267
275 267
276 268
275 269
274 269
275 269
276 270
277 270
278 270
279 271
280 271
281 271
282 271
283 271
284 271
285 271
286 271
287 272
286 273
285 274
286 274
287 275
288 275
289 275
290 276
291 276
292 276
293 276
294 277
295 278
296 279
297 279
298 279
299 279
300 279
301 280
300 281
300 282
301 282
302 282
303 283
304 284
305 284
306 284
307 285
308 285
309 285
310 286
311 286
312 286
313 287
314 287
315 287
316 287
317 288
317 289
318 290
319 290
320 290
321 291
322 291
323 291
324 291
325 291
326 292
327 293
328 293
329 293
330 293
331 293
332 293
333 293
334 293
335 294
334 295
333 295
334 295
335 296
336 296
337 296
338 296
339 296
340 296
341 296
342 296
343 296
344 296
345 296
346 296
347 296
348 297
349 297
350 297
351 297
352 298
353 298
354 298
355 298
356 298
357 298
358 297
359 298
360 299
359 300
358 300
359 301
360 301
361 301
362 301
363 301
364 301
365 301
366 301
367 301
368 301
369 302
370 302
371 302
372 302
373 302
374 302
375 302
376 302
377 302
378 302
379 302
380 303
379 304
378 305
379 305
380 306
381 306
382 306
383 306
384 306
385 306
386 306
387 306
388 306
389 306
390 306
391 306
392 306
393 306
394 306
395 306
396 306
397 306
398 306
399 306
400 306
401 306
402 306
403 306
404 306
405 307
406 307
407 307
408 308
409 308
410 308
411 308
412 307
413 307
414 307
415 307
416 307
417 307
418 307
419 306
420 306
421 307
422 307
423 307
424 307
425 307
426 308
427 308
428 308
429 308
430 308
431 308
432 307
433 307
434 307
435 307
436 307
437 307
438 307
439 306
440 306
441 306
442 306
443 305
444 305
445 305
446 306
447 306
448 306
449 306
450 306
451 306
452 305
453 305
454 305
455 304
456 304
457 304
458 304
459 304
460 303
461 303
462 304
463 304
464 303
465 303
466 302
467 302
468 302
469 302
470 301
471 301
472 301
473 300
474 300
475 300
476 300
477 300
478 301
479 301
480 301
481 301
482 301
483 301
484 300
485 300
486 300
487 299
488 299
489 298
490 298
491 297
492 297
493 297
494 297
495 297
496 297
497 296
498 296
499 296
500 295
501 295
502 294
503 294
504 293
505 293
506 292
507 292
508 292
509 291
510 292
511 292
512 291
513 291
514 290
515 290
516 289
517 289
518 288
519 288
520 287
521 287
522 287
523 287
524 287
525 288
526 288
527 288
528 287
529 287
530 287
531 286
532 286
533 285
534 284
535 284
536 284
537 283
538 283
539 282
540 282
541 282
542 282
543 281
544 281
545 281
546 280
547 280
548 280
549 280
548 279
549 278
550 278
551 279
550 278
551 277
552 277
553 276
554 277
555 277
556 276
557 276
558 275
559 275
560 274
561 273
562 273
563 272
564 272
565 271
566 270
567 271
566 270
567 269
568 269
569 268
570 268
571 267
572 266
573 265
574 265
575 266
574 265
575 264
576 263
577 262
578 261
579 260
580 260
581 259
582 258
583 258
583 257
584 256
585 256
586 256
587 255
588 255
587 254
588 253
589 253
590 252
591 253
592 252
593 252
593 251
594 250
594 249
595 248
596 248
597 248
598 247
599 246
600 245
601 244
602 243
602 242
603 241
604 240
604 239
605 238
605 237
606 236
606 235
607 234
608 233
609 232
610 231
611 230
611 229
612 228
613 227
614 226
615 225
616 224
617 223
618 222
619 221
619 220
620 219
621 218
622 218
623 218
624 218
624 217
625 216
626 216
627 215
628 214
629 213
630 212
631 211
632 210
633 209
634 208
635 207
636 207
637 206
638 205
639 205
640 204
641 204
642 204
643 203
644 203
645 203
646 203
647 203
648 203
649 203
650 203
651 204
652 204
653 204
654 204
655 204
656 205
657 205
658 205
659 205
660 205
661 206
662 206
663 206
664 206
665 207
666 207
667 207
668 208
669 208
670 208
671 208
672 209
673 209
674 209
675 210
676 210
677 210
678 211
679 211
680 211
681 212
682 212
683 212
684 213
685 213
686 213
687 213
688 214
689 214
690 215
691 215
692 215
693 216
694 216
695 217
696 217
697 217
698 217
699 218
700 218
701 218
702 218
703 219
704 219
705 219
706 220
707 220
708 220
709 221
710 221
711 222
712 222
713 222
714 222
715 223
716 223
717 224
718 224
719 224
720 224
721 225
722 225
723 225
724 226
725 226
726 227
727 227
728 227
729 228
730 228
731 228
732 229
733 229
734 229
735 230
736 230
737 230
738 230
739 231
740 231
741 231
742 231
743 232
744 232
745 232
746 232
747 233
748 233
749 233
750 233
751 233
752 234
753 234
754 234
755 234
756 234
757 234
758 234
759 234
760 234
761 234
762 234
763 234
764 234
765 234
766 234
767 234
768 234
769 234
770 234
771 234
772 234
773 234
774 233
775 232
776 231
777 230
778 230
779 229
779 228
778 227
777 226
777 225
776 224
775 223
775 222
776 221
776 220
777 219
777 218
778 217
777 218
776 218
775 219
774 219
773 220
772 221
771 221
770 221
769 222
768 222
767 223
766 223
765 223
764 223
765 223
766 223
767 223
768 223
769 222
770 223
770 224
769 225
768 226
767 226
766 226
765 227
764 226
763 226
762 226
761 227
760 227
759 226
758 226
757 226
756 226
755 226
754 226
753 226
752 226
751 226
750 226
749 226
748 226
747 226
746 226
745 225
744 225
743 225
742 225
741 224
740 224
739 224
738 224
737 224
736 224
735 223
734 223
733 223
732 223
731 222
730 222
729 221
730 220
731 220
732 220
733 220
734 221
735 221
736 221
737 222
738 221
739 221
740 221
741 221
740 221
739 221
738 221
737 222
736 221
736 220
735 220
734 220
733 220
732 220
731 220
730 219
729 219
728 218
727 218
726 218
725 218
724 218
723 219
722 219
721 218
721 217
721 216
720 216
719 215
718 215
717 215
718 216
717 217
716 218
715 217
714 217
713 217
712 217
711 216
710 216
709 215
708 215
707 215
706 215
705 214
704 215
703 214
702 214
701 213
700 213
699 213
698 213
697 213
696 212
695 212
694 212
693 212
692 211
692 210
692 209
693 208
694 208
695 209
694 208
694 207
693 207
692 206
691 206
690 207
689 207
688 207
687 207
686 206
685 206
686 206
687 207
688 207
689 207
690 208
691 208
692 209
691 210
690 211
689 210
688 209
687 209
686 209
685 209
684 208
683 208
682 208
681 208
680 207
679 207
678 207
677 207
676 207
675 206
676 205
677 205
677 204
676 204
675 204
674 203
673 202
674 201
675 201
676 201
675 201
674 201
673 202
672 202
671 202
670 202
669 202
668 202
669 202
670 202
671 202
672 202
673 203
674 204
675 205
674 206
673 206
672 205
671 205
670 205
669 205
668 204
667 204
666 204
665 203
664 203
663 203
662 202
661 201
662 200
663 200
664 201
665 200
666 200
667 200
668 200
669 200
670 200
671 200
672 200
671 200
670 199
669 199
668 199
667 198
666 198
665 198
664 198
663 197
662 197
661 197
660 197
659 196
660 195
661 195
662 195
661 195
660 195
659 194
658 194
657 193
656 193
655 192
654 192
653 191
652 191
651 190
650 190
649 189
648 189
647 188
646 188
645 187
644 186
643 186
642 185
641 184
640 183
639 182
638 181
638 180
637 179
636 178
636 177
635 176
634 175
633 174
633 173
632 172
631 171
630 170
630 169
629 168
628 167
628 166
627 165
626 164
626 163
625 162
624 161
623 160
622 159
622 158
621 157
621 156
620 156
619 155
618 154
618 153
617 152
616 151
615 150
614 150
613 151
612 150
611 149
610 148
609 147
608 146
607 145
606 145
605 144
605 143
604 143
603 142
602 141
601 140
600 139
599 138
598 138
597 137
596 136
596 135
595 134
594 133
593 133
592 132
591 131
590 130
589 129
588 128
587 129
586 129
585 128
584 127
583 126
582 126
581 126
580 125
579 124
579 123
578 123
577 122
576 121
575 120
574 120
573 119
572 120
571 120
570 119
569 119
568 118
568 117
568 116
567 115
566 114
565 113
564 112
563 111
562 112
561 111
560 110
560 109
559 108
559 107
558 106
557 105
556 104
555 104
554 103
553 102
552 101
551 100
550 99
549 98
548 97
547 96
546 95
545 94
544 93
543 92
542 91
541 90
540 90
539 89
539 90
538 91
537 90
536 89
535 88
534 88
533 87
532 86
531 85
530 84
529 83
528 83
527 82
526 82
525 82
524 82
523 81
522 81
521 80
520 79
519 78
518 77
517 76
516 76
515 75
514 74
513 74
513 75
512 76
511 75
510 74
509 73
508 72
507 72
506 71
505 70
504 69
503 69
502 68
501 67
500 66
499 65
498 65
497 64
496 64
496 65
495 66
494 66
493 65
492 64
491 64
490 63
489 62
488 62
487 61
486 60
485 60
484 59
483 59
482 58
481 58
480 57
479 57
478 56
477 56
477 57
478 57
479 58
478 59
477 59
476 59
475 58
474 57
473 57
472 56
471 56
470 55
469 55
468 54
467 54
466 54
465 53
464 53
463 53
462 53
463 53
464 54
463 55
462 55
461 55
460 54
459 53
458 53
457 53
456 52
455 52
454 51
454 52
453 53
452 52
451 51
450 50
449 50
448 49
447 49
446 49
445 48
444 48
443 48
442 48
441 47
440 47
439 47
438 47
438 48
439 49
438 50
437 51
436 50
435 50
434 49
433 49
432 49
431 48
430 48
429 47
428 47
427 47
426 46
425 46
426 47
427 48
426 49
425 49
424 48
423 48
422 47
421 47
420 46
419 46
418 45
417 45
416 44
415 44
414 43
413 43
412 42
411 42
410 42
409 42
408 42
409 42
410 43
411 44
410 45
409 45
408 45
407 44
406 44
405 43
404 43
403 42
402 42
401 41
400 41
399 40
398 40
397 40
396 39
395 39
394 38
393 38
392 38
391 38
390 37
389 37
389 38
390 39
389 40
388 40
387 39
386 39
385 38
384 38
383 39
382 39
381 38
380 38
379 37
378 37
377 37
376 36
375 36
374 36
373 36
372 35
371 35
370 35
369 35
368 35
367 34
366 34
366 35
367 35
368 36
367 37
366 38
365 37
364 37
363 36
362 36
361 36
360 35
359 35
358 35
357 35
356 34
355 34
354 34
353 33
352 33
351 33
350 32
349 32
348 32
347 33
346 32
345 31
344 32
345 33
345 34
344 35
343 35
342 34
341 34
340 34
339 33
338 33
337 33
336 33
335 33
334 32
333 32
332 32
331 31
330 31
329 31
328 31
327 31
326 31
325 30
