339 32
339 33
338 34
338 35
337 36
336 37
336 38
335 39
335 40
334 41
333 40
332 40
331 39
330 39
329 38
328 38
327 37
326 36
325 36
325 37
324 38
323 39
322 39
321 38
320 38
319 38
318 38
317 38
316 38
315 38
314 38
314 39
313 40
313 41
312 42
311 42
310 42
309 42
308 41
307 41
306 42
305 42
304 41
303 41
302 42
301 42
300 42
299 42
298 43
298 44
297 45
296 44
295 44
294 43
293 43
292 43
291 43
290 44
289 44
288 44
287 45
286 45
285 45
284 45
283 45
284 46
284 47
284 48
285 49
285 50
285 51
284 52
284 53
284 54
284 55
284 56
283 57
282 57
281 57
280 57
279 57
278 57
278 58
278 59
278 60
278 61
278 62
278 63
277 64
276 64
275 65
276 66
276 67
276 68
276 69
276 70
275 71
274 71
273 70
272 70
271 70
270 70
269 70
268 69
268 70
267 71
266 72
265 72
264 72
263 72
262 72
261 72
260 72
259 73
260 74
260 75
260 76
259 77
259 78
259 79
259 80
259 81
259 82
258 83
257 83
256 83
255 83
254 84
253 84
252 85
251 86
250 86
249 87
248 88
247 89
246 90
246 91
245 92
244 92
243 91
242 90
241 89
241 88
240 87
239 86
238 85
238 84
237 83
236 82
236 81
235 80
235 79
234 78
233 77
233 76
232 75
232 74
231 73
231 72
231 71
231 70
231 69
231 68
230 67
229 67
228 67
227 67
226 66
225 65
224 64
223 63
223 62
223 61
223 62
223 63
222 64
222 65
222 66
222 67
221 68
220 69
219 68
218 68
218 69
218 70
218 71
218 72
218 73
217 74
216 74
215 74
214 73
213 73
212 72
211 71
211 70
211 71
210 72
209 73
208 74
208 75
207 76
206 76
205 77
204 78
204 79
204 80
203 81
202 81
201 81
200 80
199 80
198 80
197 79
196 79
195 79
194 79
193 79
192 79
191 79
190 80
190 81
190 82
190 83
190 84
189 85
188 86
188 87
187 88
186 88
185 87
184 87
183 87
182 87
181 87
180 88
179 88
178 87
177 87
176 87
175 86
174 86
174 87
174 88
173 89
173 90
172 91
171 91
170 91
169 91
168 90
167 91
166 91
165 91
164 91
165 92
165 93
164 94
165 95
166 96
167 97
166 98
166 99
165 100
164 101
163 100
162 99
161 98
161 97
160 96
160 95
160 96
159 97
158 98
157 97
156 96
155 96
154 96
153 96
152 96
151 95
150 95
149 95
148 95
148 96
149 97
148 98
147 98
146 98
146 99
146 100
145 101
144 101
143 100
142 101
141 100
141 99
141 98
141 97
141 96
140 96
139 97
138 96
138 95
138 94
138 93
138 92
137 92
136 91
136 90
135 89
134 88
134 87
133 87
132 88
131 88
130 88
129 89
128 89
127 88
127 87
126 86
126 85
126 84
126 83
126 82
125 82
124 81
124 80
123 79
123 78
122 77
122 76
121 75
120 76
119 75
118 75
117 74
117 73
117 72
117 71
117 70
117 69
117 68
116 68
115 68
114 67
114 66
114 65
114 64
113 63
113 62
112 62
111 62
110 62
109 61
109 60
109 59
108 58
107 58
106 57
105 57
104 57
103 57
102 57
102 58
101 59
101 60
101 61
100 62
100 63
99 64
98 64
97 65
98 66
98 67
98 68
99 69
100 70
100 71
101 72
101 73
100 74
100 75
99 76
99 77
100 78
100 79
100 80
101 81
101 82
100 83
99 84
99 85
100 86
100 87
101 88
101 89
102 90
103 91
102 92
102 93
101 94
101 95
101 96
101 97
101 98
101 99
101 100
102 101
102 102
102 103
102 104
101 105
101 106
101 107
102 108
103 109
104 110
103 111
103 112
103 113
104 114
105 115
105 116
105 117
105 118
106 119
105 120
104 121
103 121
102 120
102 121
103 122
103 123
103 124
104 125
104 126
104 127
104 128
105 129
105 130
105 131
104 132
103 133
103 134
103 135
104 135
105 136
106 136
107 137
108 138
108 139
107 140
106 141
105 141
105 142
105 143
105 144
105 145
106 146
107 147
107 148
107 149
107 150
108 151
109 152
109 153
110 154
109 155
108 155
107 156
106 156
105 156
104 157
103 157
103 158
103 159
103 160
103 161
102 162
101 162
100 162
99 163
98 163
97 163
96 163
95 163
94 162
94 163
94 164
95 165
95 166
95 167
95 168
95 169
96 170
96 171
96 172
97 173
96 174
95 175
94 176
95 177
96 178
97 179
97 180
97 181
98 182
98 183
98 184
99 185
99 186
98 187
97 187
97 188
97 189
98 190
98 191
98 192
98 193
98 194
98 195
99 196
98 197
97 197
96 197
95 198
94 198
93 198
92 198
91 198
91 199
91 200
91 201
90 202
90 203
89 204
88 204
87 204
86 203
85 203
85 204
85 205
84 206
83 206
82 207
81 207
80 207
79 207
78 207
77 206
76 206
76 207
77 208
77 209
77 210
77 211
78 212
78 213
78 214
78 215
78 216
79 217
79 218
78 219
77 220
76 221
75 222
76 223
77 224
77 225
77 226
78 227
78 228
77 229
76 230
75 230
74 230
73 230
73 231
72 232
73 233
74 234
74 235
74 236
73 237
73 238
73 239
74 240
75 241
74 242
73 243
72 244
71 244
70 244
69 244
69 245
69 246
68 247
67 248
66 248
65 248
64 249
63 249
63 250
63 251
63 252
63 253
63 254
63 255
63 256
63 257
62 258
61 258
60 258
59 258
58 258
57 259
56 258
55 258
55 259
55 260
55 261
55 262
54 263
53 263
52 263
51 263
50 264
49 264
48 264
47 264
46 263
45 264
46 265
46 266
47 267
47 268
47 269
48 270
48 271
48 272
49 273
48 274
48 275
48 276
49 276
50 277
51 277
52 278
52 279
52 280
51 281
50 282
49 283
50 284
51 285
52 286
53 287
54 288
55 288
56 289
56 290
56 291
55 292
54 293
55 294
56 295
57 295
58 296
59 297
60 298
61 299
60 300
59 301
59 302
58 303
57 304
57 305
56 306
55 307
55 308
54 309
55 308
56 308
57 309
58 310
58 311
57 312
58 313
59 314
60 315
61 316
61 317
61 318
60 319
59 320
60 321
60 322
60 323
60 324
59 325
58 325
57 325
56 326
55 327
54 327
53 328
53 329
54 330
55 331
55 332
56 333
56 334
56 335
57 336
57 337
56 338
55 339
54 340
53 340
52 341
51 341
51 342
51 343
50 344
49 345
48 345
47 346
46 347
45 347
44 347
43 347
42 346
41 346
40 346
39 346
38 345
39 346
40 347
41 348
42 349
43 350
44 350
45 351
46 352
47 353
47 354
46 355
45 355
45 356
46 356
47 357
48 358
49 359
50 360
50 361
50 362
50 363
51 364
52 365
53 365
54 366
55 367
55 368
54 369
53 370
53 371
52 372
51 373
50 374
49 375
49 376
50 377
50 378
51 379
51 380
52 381
53 382
54 383
55 384
56 384
57 385
58 386
58 387
58 388
57 389
57 390
56 391
56 392
56 393
56 394
57 394
58 395
59 395
60 396
61 397
62 398
63 399
64 400
65 401
65 402
65 403
64 404
63 405
63 406
64 407
64 408
64 409
64 410
64 411
64 412
64 413
64 414
64 415
64 416
65 416
66 416
67 417
68 418
68 419
69 420
69 421
70 421
71 422
72 423
73 423
74 424
75 425
76 425
77 426
78 427
79 427
80 428
79 429
79 430
80 431
80 432
79 433
78 433
77 434
77 435
78 436
79 436
80 437
81 438
82 439
82 440
83 441
83 442
84 443
83 444
83 445
83 446
83 447
82 448
81 449
80 450
80 451
81 452
82 453
82 454
81 455
80 455
79 456
78 457
77 457
76 458
75 458
74 458
73 458
72 458
71 457
72 458
72 459
73 460
74 461
74 462
75 463
76 464
76 465
77 466
78 467
78 468
79 469
80 469
81 469
82 469
83 470
84 471
85 472
86 472
87 472
88 472
89 473
90 473
91 474
92 474
93 474
94 474
95 475
95 476
95 477
96 478
97 479
98 479
99 480
100 480
101 481
102 481
103 482
104 483
105 483
106 483
107 484
108 484
109 485
110 486
109 487
108 488
108 489
109 490
110 491
111 492
112 492
113 493
114 493
115 494
116 495
117 495
118 495
119 495
120 494
121 494
122 495
122 496
122 497
122 498
122 499
122 500
122 501
122 502
123 502
124 502
125 503
126 503
127 503
128 503
129 503
130 504
131 504
132 504
133 504
134 505
134 506
134 507
134 508
134 509
134 510
134 511
134 512
134 513
134 514
134 515
135 516
136 516
137 517
138 518
139 518
140 519
141 520
142 521
143 522
144 523
145 523
146 524
147 524
148 524
149 524
150 525
151 526
152 527
152 528
153 528
154 529
155 530
156 531
157 532
158 532
159 533
160 533
161 534
162 534
163 534
164 534
165 535
166 535
167 535
168 535
169 536
170 536
171 537
170 538
171 539
172 540
173 540
174 541
175 541
176 542
177 543
177 544
178 545
178 546
179 547
180 548
180 549
181 550
182 550
183 551
184 552
185 552
186 552
187 553
188 554
189 554
190 554
191 555
192 556
193 557
194 557
195 557
196 557
197 557
198 558
199 558
200 559
201 560
202 560
203 560
204 560
205 560
206 561
207 561
208 561
209 562
210 562
211 562
212 563
213 563
214 563
215 564
216 564
217 564
218 565
219 565
220 566
221 567
221 568
221 569
220 570
219 571
219 572
220 572
221 573
222 573
223 573
224 574
225 574
226 574
227 575
227 576
228 576
229 575
230 575
231 576
232 576
233 576
234 577
234 578
235 579
236 579
237 580
238 580
239 580
240 580
241 580
242 580
243 580
244 580
245 581
245 582
246 582
247 582
248 582
249 581
250 581
251 581
252 581
253 581
254 581
255 582
255 583
255 584
256 585
256 586
255 587
256 587
257 588
258 588
259 588
260 588
261 588
262 588
263 588
264 588
265 588
266 588
267 588
268 588
269 587
270 587
271 588
272 589
273 590
273 591
274 592
275 591
276 592
277 592
278 591
279 591
280 591
281 591
282 592
283 591
284 592
285 592
286 592
287 593
288 594
289 594
290 594
291 595
292 596
293 596
294 596
295 596
296 596
297 596
298 596
299 596
300 596
301 596
302 595
303 595
304 595
305 594
306 594
307 594
308 593
309 593
310 593
311 593
312 593
313 592
314 592
315 592
316 591
317 591
318 590
319 590
320 590
321 590
322 590
323 589
324 589
325 589
326 588
327 588
328 588
329 588
330 588
331 588
332 588
333 587
334 587
335 587
336 587
337 587
338 587
339 587
340 587
341 587
342 587
343 587
344 587
345 587
346 587
347 587
348 587
349 587
350 587
351 587
352 587
353 588
354 588
355 588
356 589
357 589
358 590
359 590
360 590
361 590
362 590
363 590
364 590
365 590
366 590
367 591
368 591
369 590
370 590
371 590
372 590
373 591
374 591
375 591
376 591
377 591
378 592
379 592
380 592
381 592
382 592
383 592
384 592
385 592
386 593
387 593
388 593
389 593
390 593
391 593
392 593
393 593
394 593
395 593
396 593
397 593
398 593
399 593
400 593
401 593
402 593
403 593
404 593
405 593
406 592
407 592
408 592
409 592
410 592
411 591
412 591
413 591
414 591
415 591
416 591
417 591
418 590
419 590
420 590
421 590
422 589
423 589
424 589
425 589
426 588
427 588
428 588
429 587
430 587
431 587
432 587
433 586
434 586
435 586
436 586
437 586
438 586
439 585
440 585
441 585
442 585
443 585
444 584
445 584
446 584
447 584
448 584
449 583
450 583
451 583
452 582
453 582
454 583
454 584
455 585
456 585
457 585
458 584
459 583
460 583
461 583
462 582
463 582
464 581
465 580
466 579
467 578
468 577
469 577
470 578
471 579
472 580
473 580
474 581
475 581
476 581
477 580
478 579
479 578
480 577
481 577
482 576
483 576
484 575
485 575
486 575
487 575
488 574
489 574
490 573
491 573
492 573
493 572
494 572
495 571
496 571
497 570
498 570
499 570
500 569
501 569
502 569
503 569
504 569
505 568
506 568
507 568
508 568
509 568
510 567
511 567
512 567
513 567
514 567
515 567
516 567
517 567
518 567
519 567
520 566
521 566
522 566
523 565
524 565
525 565
526 564
527 564
528 563
529 563
530 563
531 563
532 563
533 563
534 563
535 563
536 562
537 561
538 561
539 560
540 559
541 558
542 557
542 556
543 555
544 554
545 553
546 554
547 554
548 555
549 555
550 556
551 557
552 557
553 556
554 556
555 555
556 554
557 553
558 552
559 551
560 551
561 551
562 550
563 550
564 550
565 550
566 549
566 548
567 547
568 547
569 546
570 546
571 545
572 544
573 544
574 544
575 543
576 543
577 542
578 542
579 541
580 541
581 541
582 540
583 540
584 540
585 540
586 539
587 539
588 539
589 539
590 538
591 538
592 538
593 538
594 537
595 537
596 537
597 536
598 536
599 536
600 535
601 535
602 535
603 534
604 533
605 533
606 532
607 531
608 530
609 530
610 530
611 529
612 528
613 527
614 526
615 525
616 524
617 523
618 522
619 522
620 522
621 521
622 520
622 519
623 518
624 517
625 516
626 515
627 515
628 515
629 514
630 513
631 513
632 512
633 512
634 511
635 510
636 510
637 509
638 508
639 508
640 507
641 507
642 507
643 507
644 506
644 505
644 504
644 503
645 502
645 501
646 500
647 499
648 498
649 498
650 498
651 499
652 499
653 499
654 498
655 497
656 496
656 495
657 494
657 493
658 492
658 491
659 490
659 489
659 488
659 487
660 486
661 485
662 485
663 485
664 484
665 484
666 484
667 483
668 483
669 482
670 481
671 480
671 479
671 478
672 477
672 476
672 475
673 474
673 473
673 472
674 471
675 471
676 471
677 471
677 470
677 469
677 468
677 467
677 466
677 465
676 464
676 463
677 462
678 461
679 460
680 460
680 459
681 458
682 457
683 456
684 456
685 456
686 456
687 455
687 454
687 453
687 452
687 451
686 450
686 449
686 448
686 447
685 446
685 445
684 444
683 443
683 442
684 441
684 440
684 439
684 438
683 437
683 436
684 435
684 434
684 433
683 432
683 431
683 430
683 429
682 428
682 427
682 426
681 425
681 424
681 423
682 422
683 422
683 421
683 420
683 419
683 418
683 417
683 416
683 415
684 414
685 413
686 412
686 411
686 410
686 409
686 408
686 407
686 406
686 405
685 404
685 403
686 402
686 401
686 400
686 399
685 398
685 397
685 396
685 395
684 394
684 393
684 392
684 391
684 390
684 389
684 388
684 387
684 386
683 385
682 385
681 384
680 383
679 382
679 381
679 380
678 379
677 378
677 377
678 376
679 376
680 376
681 376
682 376
683 376
684 376
685 375
686 376
687 375
688 375
689 375
690 375
691 375
692 375
693 375
694 375
695 375
696 375
697 374
698 374
699 375
700 374
701 374
702 374
703 374
704 373
705 373
706 373
707 373
708 372
709 372
710 373
711 372
712 372
713 371
714 371
715 371
716 371
717 371
718 371
719 370
720 370
721 370
722 370
723 370
724 369
725 369
726 369
727 369
728 368
729 368
730 368
731 368
732 368
733 367
734 367
735 368
736 367
737 367
738 367
739 366
740 366
741 365
742 366
743 366
744 366
745 366
746 366
747 366
748 366
749 365
750 365
751 365
752 365
753 365
754 365
755 365
756 364
757 363
758 363
759 363
760 362
760 361
760 360
760 359
760 358
759 357
759 356
759 355
759 354
759 353
758 352
758 351
758 350
758 349
757 349
756 349
755 349
754 349
753 349
752 349
751 349
750 349
749 349
748 348
747 349
746 349
745 349
744 349
743 349
742 349
741 349
740 349
739 349
738 349
737 350
736 351
735 351
734 351
733 351
732 351
731 351
730 351
729 350
730 349
730 348
730 349
729 350
728 351
727 351
726 351
725 351
724 352
723 352
722 353
721 352
721 351
722 350
721 350
721 351
721 352
720 353
719 353
718 353
717 353
716 353
715 354
714 355
713 354
713 353
713 354
713 355
712 356
711 357
710 357
709 357
708 358
707 358
706 358
705 358
704 358
703 357
702 356
702 357
701 358
700 359
699 359
698 359
697 359
696 359
695 359
694 360
693 360
692 360
691 360
690 360
689 360
688 360
687 360
686 361
685 361
684 361
683 361
682 361
681 361
680 362
679 362
678 362
677 361
676 361
675 362
674 362
673 362
672 362
671 362
670 362
669 362
668 362
667 361
667 360
667 359
667 360
666 361
665 362
664 363
663 363
662 362
661 362
660 361
660 360
660 359
660 358
660 357
661 356
662 355
662 354
662 353
663 352
664 351
665 351
666 350
667 350
668 350
669 349
670 349
671 349
672 348
671 347
671 346
670 345
671 344
672 343
673 343
673 342
672 341
672 340
672 339
672 338
671 337
671 336
670 335
669 334
668 333
667 332
666 331
666 330
666 329
667 328
668 327
668 326
669 325
670 324
670 323
671 322
671 321
672 320
673 319
673 318
674 317
675 316
675 315
675 314
675 313
674 312
674 311
674 310
675 309
675 308
675 307
675 306
676 305
676 304
677 303
678 302
679 301
679 300
678 301
677 302
676 301
676 300
677 299
678 298
678 297
679 296
679 295
679 294
680 293
680 292
680 291
680 290
679 290
678 289
677 288
678 287
678 286
678 285
678 284
679 283
679 282
679 281
680 280
680 279
680 278
679 278
678 277
677 277
676 276
675 276
674 275
674 274
674 273
675 272
675 271
675 270
675 269
675 268
675 267
676 266
676 265
676 264
676 263
675 263
674 263
673 263
672 262
672 261
672 260
672 259
672 258
671 258
670 258
669 257
669 256
668 255
668 254
667 253
667 252
667 251
667 250
666 250
665 251
664 251
663 251
662 250
662 249
661 249
660 248
659 248
658 247
657 247
656 246
655 246
654 246
653 245
653 244
653 243
653 242
653 241
653 240
653 239
654 238
654 237
654 236
654 235
655 234
655 233
654 233
653 234
652 233
651 233
650 232
650 231
650 230
650 229
649 228
649 227
648 226
648 225
647 225
646 224
645 224
644 224
643 224
642 224
641 224
640 224
639 224
638 225
637 224
637 223
637 222
637 221
637 220
637 219
637 218
637 217
637 216
637 215
637 214
637 213
637 212
636 211
635 211
634 211
633 211
632 210
632 209
632 208
632 207
631 206
631 205
630 204
630 203
630 202
630 201
629 201
628 201
627 202
626 202
625 202
624 202
623 203
622 202
621 201
621 200
621 199
621 198
621 197
621 196
620 195
619 194
619 193
618 192
618 191
617 190
616 191
615 191
614 192
613 192
612 192
611 191
610 190
610 189
610 188
610 187
609 187
608 186
607 185
606 185
605 185
604 184
603 184
603 185
602 186
601 186
600 186
599 185
599 184
599 183
598 183
597 183
596 182
596 181
596 180
596 179
596 178
596 177
596 176
595 175
594 175
593 175
592 175
591 175
590 175
589 175
588 175
587 175
586 174
586 173
586 172
587 171
587 170
587 169
587 168
587 167
587 166
588 165
587 164
586 164
585 163
586 162
586 161
586 160
585 159
585 158
585 157
585 156
584 155
584 154
583 154
582 155
581 155
580 155
579 155
578 155
577 155
576 155
575 154
575 153
574 152
574 151
574 150
574 149
574 148
573 147
573 146
573 145
572 145
571 145
570 145
569 145
568 146
567 146
566 145
566 144
565 143
565 142
564 142
563 141
562 141
561 140
560 140
559 140
558 139
558 140
557 141
556 142
555 142
554 142
553 143
552 144
551 145
550 144
549 143
549 142
548 142
547 141
547 140
546 139
546 138
545 137
544 136
544 135
543 134
542 134
541 134
540 135
539 135
538 136
537 135
536 134
536 133
536 132
535 131
535 130
534 129
534 128
533 127
533 126
533 125
532 126
531 127
530 127
529 127
528 126
528 125
528 124
527 123
526 123
525 122
524 121
523 120
522 120
522 121
521 122
520 123
519 124
518 123
517 123
516 123
515 124
514 125
513 126
512 127
511 126
511 125
510 124
510 123
509 122
509 121
509 120
508 119
507 118
506 117
506 116
505 115
504 115
503 116
502 116
501 117
500 117
499 117
498 116
497 115
497 114
496 113
496 112
496 111
495 110
494 111
493 111
492 110
491 109
490 108
489 108
488 107
487 106
486 105
485 105
484 106
483 107
482 108
481 109
480 109
479 110
478 110
477 110
476 109
476 108
475 107
475 106
475 105
475 104
474 104
473 105
472 105
471 106
470 105
469 104
469 103
469 102
468 101
467 100
466 99
465 98
464 98
463 97
462 96
461 96
460 96
459 97
458 98
457 98
456 99
455 99
454 100
453 101
452 102
451 101
450 100
450 99
449 98
448 97
447 96
447 95
446 94
445 94
444 95
443 95
442 95
441 94
440 94
439 93
438 93
437 93
436 92
435 91
434 91
434 92
434 93
434 94
433 95
432 95
431 94
430 93
429 93
428 93
427 94
426 95
425 94
424 93
424 92
424 91
424 90
424 89
424 88
424 87
424 86
423 85
423 84
423 83
423 82
423 81
423 80
422 79
422 78
422 77
422 76
422 75
422 74
422 73
421 72
421 71
421 70
421 69
421 68
421 67
421 66
421 65
420 64
420 63
420 62
420 61
420 60
420 59
420 58
420 57
420 56
420 55
419 54
419 53
419 52
419 51
418 50
418 49
417 48
417 47
417 46
417 45
416 46
415 47
414 47
413 46
412 45
411 44
410 43
409 42
408 41
408 40
407 40
406 41
405 42
404 42
403 43
402 44
401 43
400 42
400 41
399 40
399 39
398 38
397 37
396 36
396 35
396 34
395 33
394 33
393 34
392 35
391 36
390 36
389 36
388 35
387 34
386 34
385 34
384 34
383 34
382 34
381 33
380 34
380 35
379 36
378 37
377 38
376 38
375 37
374 37
373 38
372 39
372 40
371 41
370 42
369 41
368 40
368 39
367 38
366 38
365 37
364 36
363 35
362 34
361 34
360 33
359 32
358 32
357 32
357 33
356 34
355 35
354 36
353 36
352 35
351 34
350 33
349 32
348 32
347 32
346 33
345 33
344 32
343 32
342 32
341 32
340 32
339 32
