353 44
352 45
353 45
354 46
353 47
352 47
351 47
350 46
349 46
348 46
347 46
346 46
345 46
344 46
343 46
342 45
342 46
343 47
343 48
344 49
344 50
344 51
345 52
345 53
344 54
343 53
342 53
341 52
340 52
339 51
338 51
337 50
336 49
335 49
334 48
333 48
332 48
331 48
330 47
329 47
328 47
327 47
326 47
325 47
324 47
323 46
322 47
321 47
321 48
322 49
323 50
322 51
321 51
320 50
319 49
318 48
317 48
316 47
315 46
314 46
315 47
316 48
316 49
315 50
314 49
313 49
312 48
312 47
311 47
310 47
309 47
308 46
307 46
306 47
305 47
304 47
303 47
302 46
301 46
302 47
303 48
304 49
304 50
305 51
305 52
306 53
306 54
307 55
307 56
307 57
306 58
305 57
304 56
303 56
302 55
301 54
300 54
299 53
298 53
297 52
296 52
295 52
294 53
293 52
292 52
291 51
290 51
289 51
288 50
288 51
289 52
288 53
287 53
286 52
285 51
284 52
283 52
282 51
281 52
280 52
279 52
278 53
277 53
276 54
275 54
274 55
273 56
272 56
273 57
272 58
271 58
270 57
269 57
268 57
267 57
266 57
265 57
264 57
263 58
263 59
262 60
261 59
260 59
259 59
258 59
257 59
256 59
255 59
254 59
253 59
252 59
252 60
251 61
250 61
249 60
249 61
248 62
247 61
246 61
245 61
244 61
243 61
242 61
241 61
240 61
239 61
238 61
237 61
236 61
237 62
238 63
238 64
239 65
240 66
240 67
241 68
242 69
243 70
242 71
241 71
240 71
239 70
238 70
237 70
236 69
235 68
234 68
235 69
234 70
233 71
232 70
232 69
231 68
230 68
229 69
228 69
227 68
226 69
225 69
224 69
223 70
223 71
222 72
221 72
220 72
219 72
218 72
219 72
220 72
221 73
220 74
219 75
218 75
217 74
216 74
215 75
214 75
213 76
212 76
211 77
210 77
209 77
208 78
207 78
206 79
207 79
208 80
209 80
210 81
211 82
212 83
211 84
210 84
209 84
208 84
207 84
206 84
205 83
204 83
203 83
202 83
203 84
202 85
201 85
200 84
199 84
198 84
197 84
196 84
195 84
194 85
193 85
192 85
191 86
190 87
189 88
189 89
188 90
187 90
186 90
185 90
184 90
183 90
182 91
181 91
180 91
180 92
181 93
181 94
180 95
179 94
178 94
177 94
176 95
175 96
174 97
173 98
172 99
172 100
171 101
170 102
169 103
168 103
167 104
166 104
165 104
164 104
164 105
163 106
162 105
161 106
160 106
159 107
158 107
157 108
156 109
155 110
155 111
155 112
156 113
155 114
154 114
153 114
152 114
152 115
153 116
152 117
151 117
150 117
149 117
148 118
147 118
146 119
145 119
144 120
143 121
142 121
141 121
140 122
141 122
142 122
143 123
144 123
145 123
146 124
147 124
148 125
149 125
150 126
149 127
148 127
147 127
146 127
145 127
144 128
143 128
142 128
141 129
140 129
140 130
141 131
140 132
139 132
138 133
137 133
136 134
135 135
134 136
133 137
133 138
132 139
131 140
130 141
131 141
132 142
131 143
130 143
129 144
128 144
127 145
126 146
125 147
125 148
126 149
125 150
124 150
123 151
122 152
121 153
120 154
119 155
119 156
118 157
118 158
117 159
116 160
117 160
118 160
119 160
120 160
121 161
122 161
123 161
124 162
123 163
122 163
121 163
120 164
119 164
118 165
117 165
116 166
115 167
115 168
114 169
115 170
116 170
117 170
118 170
119 171
118 172
117 172
116 172
115 173
114 174
114 175
113 176
112 177
112 178
111 179
111 180
111 181
111 182
110 183
110 184
109 185
108 185
107 185
106 186
105 186
105 187
105 188
106 189
107 190
107 191
108 191
109 191
110 192
109 193
108 193
107 193
106 194
105 194
104 194
103 194
102 195
101 195
100 196
99 197
98 198
99 199
98 200
97 200
96 200
95 200
94 201
93 201
92 201
91 201
90 202
89 202
88 202
88 203
89 204
89 205
88 206
87 207
86 207
85 207
84 207
83 207
82 208
81 208
80 208
79 208
78 208
77 208
76 208
75 209
74 210
73 210
72 209
71 210
70 211
69 211
68 210
67 210
66 210
65 210
64 210
63 210
63 211
63 212
63 213
63 214
63 215
63 216
63 217
62 218
62 219
62 220
61 221
60 222
59 223
58 222
58 223
57 224
57 225
58 226
58 227
59 228
58 229
57 230
57 231
57 232
58 233
57 234
57 235
58 235
59 235
60 235
61 235
62 235
63 236
62 237
61 237
61 238
62 239
63 239
64 239
65 240
66 241
66 242
67 243
68 244
69 244
70 245
71 245
72 245
73 246
72 247
73 246
74 247
75 248
76 249
77 249
78 249
79 250
79 251
80 251
81 252
81 253
82 254
83 255
84 255
85 256
86 256
87 257
86 258
87 258
88 259
88 260
88 261
88 262
89 263
89 264
89 265
90 266
91 266
92 267
91 268
91 269
92 269
93 270
94 270
95 271
95 272
94 273
93 273
92 274
93 275
94 276
95 276
96 277
97 278
98 279
98 280
99 280
100 281
101 281
102 281
103 282
102 283
101 283
100 283
99 284
98 284
97 285
97 286
97 287
98 288
98 289
99 290
100 291
101 292
101 293
102 294
102 295
101 296
102 297
102 298
103 299
104 300
105 301
106 302
107 303
106 304
106 305
107 306
107 307
108 308
108 309
109 309
110 310
111 311
112 311
113 312
114 312
115 313
114 314
114 315
115 316
116 316
117 317
118 317
119 318
120 318
121 318
122 319
122 320
121 321
120 321
119 322
118 322
117 322
116 323
117 324
118 325
119 325
120 326
121 326
122 327
123 327
124 327
125 328
126 328
127 329
128 330
129 330
130 330
131 330
132 330
133 331
133 332
132 333
133 334
133 335
134 336
135 336
136 337
137 337
138 338
138 339
137 340
136 340
135 340
134 340
133 340
134 341
134 342
135 343
136 344
136 345
137 346
138 347
139 348
140 349
141 350
142 350
143 351
142 352
143 353
144 353
145 354
146 355
147 356
148 356
149 357
148 358
147 359
146 360
147 361
148 361
149 362
149 363
150 363
151 364
152 365
153 365
154 365
155 365
156 366
155 367
154 367
153 368
152 367
152 368
153 368
154 369
155 369
156 370
157 370
158 371
159 371
160 372
161 373
160 374
161 375
161 376
162 377
162 378
163 379
164 380
165 380
166 381
165 382
164 382
165 383
166 383
167 384
168 384
169 384
170 384
171 384
172 385
171 386
170 386
171 387
172 387
173 387
174 388
175 388
176 389
177 390
178 390
179 389
180 390
180 391
181 392
182 392
183 393
184 394
184 395
185 395
186 396
187 396
188 396
189 396
190 396
191 396
192 397
191 398
190 398
189 398
190 398
191 399
192 399
193 400
194 400
195 401
196 401
197 401
198 402
198 403
199 403
200 404
201 404
202 405
203 405
204 406
205 407
205 408
206 409
207 409
208 410
209 411
210 411
211 411
212 411
213 412
212 413
213 413
214 413
215 413
216 414
215 415
215 416
216 415
217 416
218 416
219 417
220 417
221 417
222 418
223 418
224 418
225 419
226 419
227 419
228 419
229 420
230 420
231 420
232 421
233 421
234 421
235 421
236 421
237 421
238 421
239 421
240 422
241 421
242 421
243 421
244 421
245 421
246 422
246 423
247 424
248 424
249 424
250 425
251 425
252 426
253 426
254 426
255 426
256 426
257 426
258 426
259 427
260 427
261 427
262 427
263 427
264 427
265 427
266 427
267 427
268 427
269 428
270 428
271 427
272 428
273 428
274 428
275 428
276 428
277 429
278 429
279 429
280 428
281 429
282 429
283 428
284 428
285 428
286 428
287 428
288 428
289 429
290 429
291 429
292 429
293 429
294 429
295 429
296 429
297 429
298 429
299 429
300 429
301 429
302 429
303 429
304 428
305 429
306 428
307 428
308 428
309 428
310 428
311 428
312 428
313 427
314 427
315 427
316 427
317 427
318 427
319 427
320 426
321 426
322 426
323 426
324 426
325 426
326 426
327 426
328 426
329 426
330 427
331 427
332 427
333 427
334 427
335 427
336 428
337 428
338 428
339 428
340 428
341 428
342 428
343 428
344 427
345 427
346 427
347 427
348 427
349 426
350 426
351 426
352 426
353 425
354 425
355 425
356 425
357 424
358 424
359 424
360 424
361 424
362 424
363 424
364 424
365 423
366 424
367 425
368 425
369 425
370 425
371 425
372 425
373 425
374 425
375 425
376 425
377 425
378 425
379 424
380 424
381 424
382 424
383 424
384 424
385 424
386 423
387 423
388 423
389 422
390 422
391 421
392 421
393 421
394 421
395 420
396 420
397 420
398 420
399 420
400 420
401 420
402 420
403 420
404 419
405 419
406 419
407 419
408 418
409 418
410 418
411 417
412 417
413 417
414 416
415 416
416 416
417 416
418 416
419 415
420 415
421 415
422 415
423 414
424 414
425 414
426 414
427 413
428 413
429 413
430 412
431 412
432 412
433 411
434 411
435 411
436 411
437 410
438 409
439 408
440 408
440 407
440 406
441 405
442 405
443 404
444 404
445 403
446 402
447 401
447 400
447 399
448 398
449 397
450 397
451 396
452 396
453 396
454 396
455 395
456 396
457 396
458 396
459 396
460 396
461 396
462 396
463 396
464 396
465 395
466 395
467 394
468 393
469 393
470 392
471 391
472 391
473 390
474 390
475 389
476 389
477 389
478 388
479 388
479 387
480 386
481 385
482 385
483 385
484 384
485 383
486 383
487 384
488 383
488 382
489 381
490 381
491 381
492 381
493 380
494 380
495 380
496 380
497 379
498 378
499 377
500 377
501 376
502 376
503 375
504 374
505 373
505 372
506 371
507 370
507 369
508 368
508 367
508 366
509 365
509 364
510 363
511 362
512 362
513 361
514 360
514 359
515 358
516 357
516 356
517 355
517 354
518 353
519 352
520 352
521 351
522 350
523 349
524 348
525 348
526 348
527 347
528 346
529 345
530 344
530 343
531 342
532 341
533 340
533 339
534 338
534 337
535 336
536 335
536 334
537 333
538 332
538 331
539 330
539 329
540 328
541 327
541 326
542 325
542 324
543 323
544 322
545 321
546 321
547 320
548 320
548 319
549 318
549 317
550 316
550 315
551 314
552 313
552 312
553 311
553 310
554 309
555 308
555 307
556 306
557 305
558 304
558 303
559 302
559 301
560 300
560 299
561 298
561 297
562 296
562 295
562 294
563 293
563 292
564 291
565 290
566 289
567 288
568 287
568 286
569 285
569 284
570 283
570 282
571 281
571 280
572 279
573 278
573 277
574 276
575 275
575 274
576 273
576 272
577 271
577 270
578 269
578 268
579 267
580 266
580 265
581 264
581 263
582 262
582 261
583 260
584 259
584 258
585 257
586 256
586 255
587 254
588 253
589 253
590 253
591 253
592 253
593 253
594 252
595 252
596 252
597 252
598 252
599 252
600 252
601 251
602 251
603 251
604 251
605 251
606 251
607 251
608 251
609 251
610 251
611 251
612 251
613 251
614 251
615 251
616 251
617 251
618 251
619 251
620 251
621 251
622 251
623 251
624 251
625 251
626 251
627 251
628 251
629 251
630 251
631 251
632 251
633 251
634 251
635 251
636 251
637 251
638 251
639 251
640 251
641 251
642 251
643 251
644 251
645 251
646 251
647 251
648 251
649 251
650 251
651 251
652 251
653 251
654 251
655 252
656 251
657 251
658 251
659 251
660 251
661 251
662 251
663 251
664 251
665 251
666 252
667 252
668 252
669 252
670 252
671 252
672 252
673 252
674 252
675 252
676 251
677 252
678 252
679 251
680 252
681 252
682 252
683 252
684 252
685 252
686 252
687 252
688 252
689 252
690 252
691 252
692 252
693 252
694 252
695 252
696 252
697 252
698 252
699 252
700 252
701 252
702 252
703 252
704 252
705 252
706 252
707 252
708 252
709 252
710 251
711 251
712 251
713 251
714 251
715 251
716 251
717 251
718 251
719 251
720 251
721 251
722 251
723 251
724 251
725 251
726 251
727 251
728 251
729 251
730 251
731 251
732 251
733 251
734 250
735 250
736 250
737 250
738 250
739 250
740 250
741 250
742 250
743 250
744 250
745 249
746 249
747 249
748 249
749 249
750 249
751 248
752 248
753 248
754 248
755 248
756 247
757 247
758 247
759 247
760 247
761 247
762 246
763 246
764 246
765 246
766 246
767 246
768 245
769 244
770 244
771 244
772 243
773 243
773 242
773 241
774 240
775 240
776 240
775 239
776 238
777 238
778 237
779 236
780 236
781 235
782 234
782 233
783 232
783 231
783 230
783 229
783 228
783 227
783 226
782 225
781 224
781 223
781 222
781 221
781 220
780 219
780 220
780 221
779 222
778 221
777 221
776 221
775 221
774 222
773 222
772 223
771 224
770 224
769 224
769 225
768 226
767 225
766 225
765 226
765 227
766 227
767 227
768 228
767 229
766 229
765 229
764 230
763 231
762 230
762 229
761 229
760 230
759 230
758 229
758 230
757 231
756 231
755 231
754 232
754 233
753 234
752 234
751 233
750 233
749 234
748 233
747 233
746 234
745 235
744 234
743 235
742 235
741 236
740 236
739 235
738 235
737 236
736 237
735 237
734 237
733 236
732 236
731 236
730 237
729 237
728 237
727 236
726 236
725 237
724 237
723 237
722 236
721 235
720 235
721 235
722 236
723 237
722 238
721 238
720 237
719 238
718 238
717 237
718 236
717 237
716 237
715 237
714 236
713 236
712 237
711 238
710 238
709 238
708 237
707 236
706 236
705 236
704 236
703 236
702 236
701 236
700 237
699 237
698 238
697 238
696 237
695 238
694 239
693 239
692 238
693 237
692 237
691 238
690 238
689 238
688 238
687 238
686 238
685 238
684 238
683 238
682 238
681 238
680 238
679 238
678 238
677 238
676 238
675 238
674 238
673 238
672 238
671 238
670 238
669 238
668 238
667 238
666 238
665 238
664 238
663 238
662 238
661 238
660 238
659 238
658 238
657 238
656 239
655 238
654 238
653 238
652 238
651 238
650 238
649 238
648 238
647 238
646 238
645 238
644 238
643 238
642 238
641 238
640 238
639 238
638 238
637 238
636 238
635 238
634 238
633 238
632 238
631 238
630 238
629 238
628 238
627 238
626 238
625 238
624 238
623 238
622 238
621 238
620 238
619 238
618 238
617 238
616 238
615 238
614 238
613 238
612 238
611 237
610 237
609 238
608 237
607 237
606 237
605 237
604 237
603 236
602 236
601 235
600 234
599 233
598 233
597 232
597 231
596 230
595 229
595 228
594 227
594 226
593 225
593 224
592 223
592 222
591 221
591 220
591 219
590 218
590 217
589 216
589 215
588 214
588 213
588 212
588 211
588 210
588 209
588 208
587 207
587 206
587 205
587 204
587 203
587 202
587 201
587 200
587 199
587 198
587 197
586 196
586 195
586 194
586 193
586 192
586 191
585 190
585 189
584 188
584 187
584 186
584 185
584 184
584 183
583 182
583 181
583 180
582 179
582 178
582 177
582 176
582 175
581 174
581 173
580 172
579 171
579 170
578 169
578 168
578 167
577 166
577 165
577 164
576 163
576 162
576 161
576 160
575 159
575 158
574 157
574 156
573 155
573 154
572 153
571 152
570 151
569 151
568 151
568 152
567 153
566 152
565 151
565 150
565 149
564 148
563 147
563 146
562 145
562 144
561 143
561 142
560 141
560 140
559 139
559 138
558 137
557 136
557 135
557 134
556 133
556 132
555 131
555 130
554 129
554 128
553 127
553 126
552 125
551 124
550 123
549 123
548 122
547 122
546 122
545 123
544 122
543 121
543 120
542 119
541 118
541 117
540 116
540 115
539 114
538 113
537 113
536 112
536 111
535 110
535 109
534 108
533 107
532 106
531 105
530 104
529 104
528 104
527 104
526 104
526 105
527 104
528 104
529 105
528 106
527 107
526 107
525 108
524 107
524 106
524 105
523 104
522 103
521 102
520 101
519 100
519 99
518 98
517 97
516 96
515 95
514 95
514 96
513 97
512 96
511 95
511 94
510 93
510 92
509 91
508 90
507 90
506 89
505 88
504 88
503 88
502 88
501 88
500 88
500 89
499 90
498 89
498 88
497 87
496 86
496 85
495 84
494 83
493 82
492 81
491 81
490 80
489 79
488 79
487 80
486 81
485 80
484 79
483 78
482 78
481 77
480 77
479 77
478 78
477 77
476 76
476 75
475 74
474 73
473 72
473 73
472 74
471 73
471 72
470 72
469 71
468 71
467 71
466 70
465 70
464 70
463 70
462 70
461 71
460 71
459 71
458 72
457 71
457 70
456 69
455 68
454 67
453 67
452 67
451 66
450 65
449 64
448 64
447 63
446 62
445 62
444 62
443 62
442 62
441 61
440 62
439 62
440 63
439 64
438 64
437 63
436 62
436 61
435 61
434 60
433 59
432 58
432 59
431 60
430 61
429 60
429 59
428 58
427 57
426 56
425 55
424 55
423 55
422 54
421 54
420 54
419 55
418 55
417 55
416 55
415 55
416 56
417 57
417 58
416 59
415 58
414 57
413 56
412 55
411 55
410 54
409 54
408 54
407 54
406 54
405 53
404 53
403 52
402 52
401 51
400 51
399 51
398 50
397 50
396 50
395 50
394 50
395 51
396 52
396 53
397 54
397 55
396 56
395 55
394 54
393 53
392 52
391 51
390 50
389 49
388 48
387 48
386 49
385 48
384 47
383 47
382 47
381 48
380 47
379 46
378 46
377 46
376 46
375 46
374 46
373 46
372 46
371 47
370 47
369 47
368 47
367 47
366 46
365 46
364 46
363 46
362 46
361 45
360 46
359 46
358 47
357 46
356 45
355 45
354 45
353 44
