169 43
169 44
169 45
169 46
169 47
169 48
170 49
170 50
170 51
171 52
171 53
171 54
171 55
171 56
171 57
171 58
171 59
171 60
170 61
170 62
169 63
169 64
168 65
167 66
166 67
165 68
164 68
163 69
162 69
161 69
160 69
159 69
158 69
159 70
159 71
160 72
160 73
160 74
160 75
161 76
161 77
161 78
161 79
161 80
161 81
161 82
162 83
162 84
162 85
162 86
162 87
162 88
162 89
162 90
162 91
162 92
162 93
161 94
161 95
161 96
160 97
160 98
160 99
159 100
159 101
158 102
158 103
158 104
157 105
157 106
156 107
155 108
154 109
153 110
152 110
151 111
150 112
149 112
148 112
147 113
146 113
145 113
144 113
143 113
142 113
143 113
144 114
145 114
146 115
147 116
147 117
148 118
149 119
150 120
150 121
151 122
151 123
152 124
153 125
153 126
154 127
154 128
155 129
155 130
156 131
156 132
157 133
157 134
158 135
159 136
160 137
160 138
161 139
161 140
162 141
163 142
163 143
164 144
165 145
165 146
166 147
167 148
167 149
168 150
168 151
169 152
169 153
169 154
170 155
170 156
171 157
171 158
171 159
171 160
172 161
173 162
173 163
173 164
173 165
173 166
173 167
173 168
173 169
173 170
173 171
174 172
173 173
172 174
171 175
170 175
169 176
168 176
167 176
166 176
165 176
164 176
163 176
162 176
161 176
160 176
159 176
158 176
157 176
156 176
155 175
154 175
153 175
152 175
151 175
150 175
149 174
148 174
147 174
146 174
145 174
144 173
143 173
142 173
141 173
140 172
139 172
138 172
137 172
136 171
135 171
134 170
133 170
132 169
131 169
130 169
129 169
128 168
127 167
126 167
125 167
124 166
123 166
122 165
121 165
120 165
119 165
118 164
117 164
116 164
115 163
114 163
113 163
112 162
111 162
110 162
109 162
108 162
107 162
106 161
105 161
104 161
103 160
102 160
101 160
100 159
99 159
98 159
97 158
96 158
95 157
94 157
93 156
92 155
91 155
90 154
89 153
88 152
88 153
88 154
89 155
89 156
89 157
90 158
89 159
89 160
89 161
89 162
88 163
88 164
88 165
87 166
87 167
86 168
85 169
84 170
83 171
82 172
81 172
80 173
79 174
78 174
77 175
76 175
75 176
74 177
73 177
72 178
71 178
70 179
69 179
68 179
67 180
66 180
65 180
64 180
63 181
62 181
61 181
60 181
59 181
58 182
57 182
56 182
55 182
54 182
53 182
52 182
51 182
50 183
49 183
48 183
49 184
49 185
49 186
49 187
49 188
49 189
48 190
48 191
47 192
47 193
46 194
45 195
44 196
43 197
42 198
41 199
40 200
39 200
38 200
37 201
36 201
35 201
34 201
33 201
32 201
31 201
30 201
29 201
28 202
27 202
26 202
25 202
24 202
25 202
26 203
27 204
28 204
29 205
30 206
31 206
32 207
33 208
34 209
35 210
35 211
36 212
36 213
37 214
38 215
38 216
39 217
39 218
40 219
40 220
40 221
40 222
41 223
41 224
41 225
41 226
41 227
40 228
40 229
40 230
40 231
39 232
38 233
37 233
36 234
35 234
36 234
37 235
38 235
39 235
40 236
41 236
42 236
43 237
44 238
45 239
46 239
47 240
48 241
49 242
50 243
51 244
52 245
53 246
54 247
55 248
56 249
57 250
58 251
59 252
60 253
61 254
62 255
63 256
63 257
64 258
64 259
64 260
64 261
64 262
64 263
64 264
64 265
64 266
64 267
64 268
64 269
63 270
63 271
63 272
62 273
62 274
61 275
60 276
59 277
59 278
58 279
57 280
56 280
55 281
54 282
53 283
54 283
55 282
56 282
57 282
58 282
59 282
60 282
61 281
62 281
63 281
64 281
65 281
66 281
67 282
68 282
69 282
70 283
71 283
72 283
73 283
74 284
75 284
76 284
77 284
78 284
79 285
80 285
81 285
82 285
83 285
84 285
85 286
86 286
87 286
88 286
89 286
90 286
91 286
92 286
93 286
94 286
95 286
96 287
97 287
98 287
99 287
100 287
101 287
102 288
103 288
104 288
105 288
106 288
107 288
108 289
109 289
110 289
111 289
112 290
113 290
114 290
115 290
116 291
117 291
118 291
119 291
120 291
121 292
122 292
123 293
124 293
125 293
126 294
127 295
128 295
129 296
130 297
131 297
132 298
133 299
134 300
135 301
135 302
135 303
135 304
135 305
135 306
134 307
134 308
134 309
133 310
132 311
131 310
130 310
129 310
128 311
127 311
126 311
125 312
124 312
123 312
122 313
121 313
120 313
119 314
118 314
117 314
116 315
115 315
114 315
113 316
112 316
111 316
110 317
109 317
108 318
107 318
106 319
105 319
104 320
103 320
102 321
101 321
100 321
99 322
98 322
97 323
96 323
95 323
94 324
93 324
92 325
91 325
90 326
89 326
88 327
87 327
86 328
85 328
84 329
83 329
82 329
81 329
80 330
79 330
78 330
77 330
78 330
79 331
80 331
81 332
82 333
82 334
83 335
83 336
84 337
84 338
84 339
84 340
84 341
84 342
84 343
83 344
83 345
83 346
83 347
82 348
82 349
82 350
82 351
82 352
82 353
81 354
81 355
81 356
80 357
80 358
79 359
78 360
78 361
77 362
76 363
75 364
75 365
74 366
73 367
72 368
71 369
70 369
69 370
70 370
71 371
72 372
73 373
73 374
73 375
73 376
73 377
73 378
72 379
72 380
71 381
71 382
70 383
70 384
69 385
68 386
67 387
66 388
65 389
64 390
63 391
62 391
61 392
60 393
59 393
58 394
57 395
56 396
57 396
58 395
59 395
60 395
61 395
62 395
63 395
64 395
65 395
66 395
67 395
68 395
69 395
70 395
71 396
72 396
73 396
74 396
75 396
76 396
77 397
78 398
79 398
80 399
81 400
82 401
83 402
84 403
85 404
85 405
86 406
86 407
86 408
86 409
86 410
85 411
86 411
87 410
88 410
89 410
90 409
91 409
92 409
93 409
94 409
95 409
96 409
97 409
98 409
99 409
100 409
101 409
102 409
103 409
104 409
105 409
106 410
107 410
108 410
109 410
110 410
111 411
112 411
113 411
114 411
115 412
116 412
117 413
118 413
119 414
120 414
121 415
122 415
123 416
124 416
125 417
126 418
127 419
128 420
129 421
129 422
130 423
130 424
131 425
131 426
131 427
132 428
132 429
132 430
132 431
132 432
132 433
131 434
131 435
131 436
130 437
130 438
131 437
132 436
133 435
134 434
135 433
136 432
137 432
138 431
139 430
140 430
141 429
142 429
143 428
144 428
145 428
146 427
147 427
148 426
149 426
150 426
151 425
152 425
153 424
154 424
155 424
156 423
157 423
158 423
159 422
160 422
161 422
162 421
163 421
164 421
165 420
166 420
167 419
168 419
169 418
170 418
171 417
172 417
173 416
174 416
175 415
176 415
177 414
178 414
179 413
180 413
181 413
182 412
183 412
184 411
185 411
186 410
187 410
188 410
189 409
190 409
191 408
192 408
193 408
194 407
195 407
196 407
197 406
198 406
199 406
200 405
201 405
202 405
203 405
204 405
205 405
206 405
207 405
208 405
209 406
210 406
211 406
212 407
213 408
214 409
215 410
216 411
217 412
217 413
218 414
218 415
219 416
219 417
219 418
219 419
219 420
219 421
219 422
219 423
219 424
220 425
219 426
219 427
219 428
219 429
219 430
219 431
219 432
219 433
219 434
219 435
219 436
219 437
220 437
221 438
222 439
223 440
224 440
225 441
225 442
226 443
227 444
227 445
228 446
228 447
229 448
230 449
230 450
231 451
231 452
231 453
232 454
232 455
232 456
232 457
233 458
233 459
233 460
233 461
233 462
233 463
233 464
234 465
234 466
234 467
234 468
235 469
235 468
235 467
235 466
235 465
235 464
235 463
236 462
236 461
236 460
237 459
237 458
237 457
238 456
238 455
239 454
240 453
241 452
241 451
242 450
243 449
244 448
245 447
246 446
247 445
248 445
249 444
250 444
251 443
252 443
253 443
254 443
255 443
256 443
257 444
258 444
259 445
260 446
260 445
260 444
261 443
261 442
262 441
262 440
263 439
263 438
264 437
264 436
265 435
266 434
266 433
267 432
268 431
269 430
270 429
271 428
272 428
273 428
274 428
275 427
276 427
277 427
278 427
279 427
280 427
281 428
282 428
283 428
284 428
285 429
286 430
287 431
288 432
288 433
288 432
288 431
288 430
288 429
288 428
288 427
288 426
288 425
289 424
289 423
289 422
290 421
290 420
290 419
291 418
291 417
291 416
292 415
292 414
292 413
293 412
293 411
294 410
294 409
294 408
295 407
295 406
295 405
295 404
295 403
295 402
295 401
296 400
296 399
296 398
296 397
296 396
297 395
297 394
297 393
298 392
299 391
299 390
299 389
299 388
300 387
300 386
300 385
301 384
301 383
301 382
302 381
302 380
303 379
304 378
305 377
306 376
307 376
308 376
309 377
310 377
311 377
312 377
313 378
314 378
315 378
316 378
317 378
318 379
319 379
320 379
321 380
322 380
323 381
324 381
325 382
326 383
327 383
328 384
329 385
330 385
331 386
332 386
333 387
334 387
335 387
336 388
337 388
338 389
339 389
340 390
341 391
342 392
343 393
344 394
345 395
346 396
347 397
347 396
346 395
345 394
345 393
344 392
343 391
343 390
342 389
342 388
342 387
342 386
341 385
341 384
341 383
341 382
341 381
341 380
341 379
341 378
341 377
341 376
341 375
341 374
341 373
341 372
341 371
341 370
341 369
341 368
341 367
341 366
341 365
341 364
341 363
341 362
341 361
341 360
341 359
341 358
341 357
341 356
341 355
341 354
341 353
341 352
341 351
341 350
341 349
341 348
341 347
341 346
341 345
341 344
341 343
341 342
340 341
340 340
340 339
340 338
340 337
340 336
340 335
340 334
339 333
339 332
339 331
339 330
339 329
339 328
339 327
339 326
339 325
339 324
339 323
339 322
339 321
339 320
339 319
339 318
339 317
338 316
338 315
338 314
338 313
337 312
337 311
337 310
337 309
337 308
336 307
336 306
336 305
336 304
336 303
335 302
335 301
335 300
334 299
334 298
334 297
333 296
333 295
332 294
332 293
331 292
331 291
331 290
330 289
330 288
329 287
330 286
331 286
332 286
333 286
334 286
335 286
336 286
337 286
338 286
339 286
340 286
341 286
342 286
343 286
344 286
345 286
346 286
347 287
348 287
349 287
350 287
351 287
352 287
353 287
354 287
355 287
356 287
357 287
358 287
359 287
360 287
361 287
362 287
363 287
364 287
365 287
366 287
367 287
368 287
369 287
370 287
371 287
372 287
373 287
374 287
375 287
376 287
377 287
378 287
379 287
380 287
381 287
382 287
383 287
384 287
385 287
386 287
387 287
388 287
389 287
390 287
391 287
392 287
393 287
394 287
395 287
396 287
397 287
398 287
399 286
400 286
401 286
402 286
403 286
404 286
405 286
406 286
407 286
408 286
409 286
410 286
411 286
412 286
413 286
414 286
415 286
416 285
417 285
418 285
419 285
420 285
421 285
422 285
423 285
424 285
425 285
426 285
427 285
428 284
429 284
430 284
431 284
432 284
433 284
434 284
435 284
436 284
437 284
438 283
439 283
440 283
441 283
442 283
443 283
444 283
445 283
446 282
447 282
448 282
449 282
450 282
451 282
452 282
453 282
454 281
455 281
456 281
457 281
458 281
459 281
460 280
461 280
462 280
463 280
464 280
465 280
466 280
467 279
468 279
469 279
470 279
471 279
472 279
473 279
474 278
475 278
476 278
477 278
478 278
479 278
480 277
481 277
482 277
483 277
484 277
485 277
486 276
487 276
488 276
489 276
490 276
491 276
492 275
493 275
494 275
495 275
496 275
497 274
498 274
499 274
500 274
501 274
502 273
503 273
504 273
505 273
506 273
507 272
508 272
509 272
510 272
511 271
512 271
513 271
514 271
515 271
516 270
517 270
518 270
519 270
520 270
521 269
522 269
523 269
524 269
525 269
526 268
527 268
528 268
529 268
530 267
531 267
532 267
533 267
534 267
535 266
536 266
537 266
538 266
539 265
540 265
541 265
542 265
543 264
544 264
545 264
546 264
547 263
548 263
549 263
550 263
551 262
552 262
553 262
554 262
555 262
556 261
557 261
558 261
559 260
560 260
561 260
562 260
563 260
564 259
565 259
566 259
567 259
568 258
569 258
570 258
571 258
572 257
573 257
574 257
575 257
576 256
577 256
578 256
579 256
580 255
581 255
582 255
583 255
584 255
585 255
586 254
587 254
588 254
589 253
590 253
591 253
592 253
593 252
594 252
595 252
596 252
597 252
598 251
599 251
600 251
601 251
602 251
603 250
604 250
605 250
606 250
607 249
608 249
609 249
610 249
611 249
612 248
613 248
614 248
615 248
616 248
617 247
618 247
619 247
620 247
621 247
622 246
623 246
624 246
625 246
626 246
627 245
628 245
629 245
630 245
631 245
632 245
633 244
634 244
635 244
636 244
637 243
638 243
639 243
640 243
641 243
642 243
643 242
644 242
645 242
646 242
647 242
648 241
649 241
650 241
651 241
652 241
653 240
654 240
655 240
656 240
657 240
658 239
659 239
660 239
661 239
662 239
663 238
664 238
665 238
666 238
667 238
668 237
669 237
670 237
671 237
672 236
673 236
674 236
675 236
676 236
677 236
678 235
679 235
680 235
681 235
682 234
683 234
684 234
685 234
686 234
687 233
688 233
689 233
690 233
691 232
692 232
693 232
694 232
695 232
696 232
697 231
698 231
699 231
700 231
701 230
702 230
703 230
704 230
705 229
706 229
707 229
708 229
709 229
710 229
711 228
712 228
713 228
714 228
715 228
716 228
717 227
718 227
719 227
720 227
721 227
722 227
723 226
724 226
725 226
726 226
727 226
728 225
729 225
730 225
731 225
732 225
733 225
734 225
735 225
736 225
737 224
738 224
739 224
740 224
741 224
742 224
743 224
744 224
745 224
746 223
747 223
748 223
749 223
750 223
751 223
752 223
753 223
754 223
755 223
756 223
757 223
758 223
759 223
760 223
761 223
762 223
763 223
764 222
765 222
766 222
767 221
768 221
769 220
770 220
771 219
772 219
773 219
774 218
775 218
776 217
777 216
777 215
776 214
775 213
774 213
773 212
773 211
772 211
771 211
770 212
769 212
768 213
767 214
766 215
765 215
764 215
763 216
762 216
761 216
760 216
759 216
758 217
757 217
756 217
755 217
754 217
753 217
752 217
751 218
750 218
749 218
748 218
747 218
746 218
745 219
744 219
743 219
742 219
741 219
740 219
739 219
738 220
737 220
736 220
735 220
734 220
733 220
732 220
731 221
730 221
729 221
728 221
727 221
726 222
725 222
724 222
723 222
722 222
721 222
720 223
719 223
718 223
717 223
716 223
715 224
714 224
713 224
712 224
711 224
710 225
709 225
708 225
707 225
706 225
705 226
704 226
703 226
702 226
701 227
700 227
699 227
698 227
697 227
696 228
695 228
694 228
693 228
692 229
691 229
690 229
689 229
688 229
687 230
686 230
685 230
684 230
683 230
682 231
681 231
680 231
679 231
678 232
677 232
676 232
675 232
674 232
673 233
672 233
671 233
670 233
669 234
668 234
667 234
666 234
665 234
664 235
663 235
662 235
661 235
660 235
659 236
658 236
657 236
656 236
655 236
654 237
653 237
652 237
651 237
650 237
649 238
648 238
647 238
646 238
645 238
644 239
643 239
642 239
641 239
640 239
639 240
638 240
637 240
636 240
635 240
634 241
633 241
632 241
631 241
630 241
629 241
628 242
627 242
626 242
625 242
624 242
623 242
622 243
621 243
620 243
619 243
618 243
617 244
616 244
615 244
614 244
613 244
612 244
611 245
610 245
609 245
608 245
607 246
606 246
605 246
604 246
603 246
602 246
601 247
600 247
599 247
598 247
597 248
596 248
595 248
594 248
593 248
592 249
591 249
590 249
589 249
588 249
587 250
586 250
585 250
584 250
583 251
582 251
581 251
580 251
579 251
578 252
577 252
576 252
575 252
574 253
573 253
572 253
571 253
570 253
569 254
568 254
567 254
566 254
565 255
564 255
563 255
562 255
561 256
560 256
559 256
558 256
557 257
556 257
555 257
554 257
553 258
552 258
551 258
550 258
549 259
548 259
547 259
546 259
545 259
544 260
543 260
542 260
541 261
540 261
539 261
538 261
537 262
536 262
535 262
534 262
533 263
532 263
531 263
530 263
529 263
528 264
527 264
526 264
525 264
524 264
523 265
522 265
521 265
520 265
519 266
518 266
517 266
516 266
515 267
514 267
513 267
512 267
511 267
510 268
509 268
508 268
507 268
506 269
505 269
504 269
503 269
502 269
501 270
500 270
499 270
498 270
497 270
496 271
495 271
494 271
493 271
492 271
491 272
490 272
489 272
488 272
487 272
486 273
485 273
484 273
483 273
482 273
481 273
480 274
479 274
478 274
477 274
476 274
475 274
474 275
473 275
472 275
471 275
470 275
469 275
468 276
467 276
466 276
465 276
464 276
463 276
462 276
461 277
460 277
459 277
458 277
457 277
456 277
455 278
454 278
453 278
452 278
451 278
450 278
449 278
448 279
447 279
446 279
445 279
444 279
443 279
442 279
441 279
440 279
439 279
438 280
437 280
436 280
435 280
434 280
433 280
432 280
431 280
430 280
429 281
428 281
427 281
426 281
425 281
424 281
423 281
422 281
421 281
420 281
419 281
418 281
417 281
416 282
415 282
414 282
413 282
412 282
411 282
410 282
409 282
408 282
407 282
406 282
405 282
404 282
403 282
402 282
401 282
400 283
399 283
398 283
397 283
396 283
395 283
394 283
393 283
392 283
391 283
390 283
389 283
388 283
387 283
386 283
385 283
384 283
383 283
382 283
381 283
380 283
379 283
378 283
377 283
376 283
375 283
374 283
373 283
372 283
371 283
370 283
369 283
368 283
367 283
366 283
365 283
364 283
363 283
362 283
361 283
360 283
359 283
358 283
357 283
356 283
355 283
354 283
353 283
352 283
351 282
350 282
349 282
348 282
347 282
346 282
345 282
344 282
343 282
342 282
341 281
340 281
339 281
338 281
337 281
336 281
335 280
334 280
333 279
333 278
334 277
335 277
336 276
337 275
338 274
339 274
340 273
341 272
342 272
343 271
344 270
345 270
346 269
347 268
348 268
349 267
350 267
351 266
352 265
353 264
353 263
353 262
353 261
352 260
352 259
353 258
353 257
354 256
354 255
355 254
356 253
356 252
357 251
357 250
358 249
359 248
360 247
361 246
362 245
362 244
363 243
364 242
365 241
366 240
366 239
367 238
368 237
369 236
370 235
371 234
372 233
373 232
373 231
374 230
375 229
375 228
376 227
377 226
378 225
378 224
379 223
379 222
380 221
381 220
381 219
382 218
383 218
384 217
384 216
385 215
385 214
386 213
387 212
387 211
388 210
388 209
389 208
390 207
390 206
391 205
391 204
392 203
392 202
393 201
394 200
395 199
396 198
397 197
398 196
399 195
400 195
401 194
402 193
403 193
404 192
405 191
404 191
403 191
402 191
401 192
400 192
399 192
398 192
397 192
396 192
395 192
394 192
393 192
392 192
391 192
390 191
389 191
388 191
387 191
386 191
385 191
384 191
383 191
382 191
381 191
380 191
379 191
378 191
377 191
376 190
375 190
374 190
373 190
372 189
371 189
370 189
369 188
368 187
367 187
366 187
365 186
365 185
364 184
364 183
364 182
364 181
364 180
364 179
364 178
364 177
364 176
365 175
365 174
365 173
365 172
365 171
366 170
366 169
366 168
366 167
367 166
367 165
368 164
368 163
368 162
369 161
369 160
369 159
370 158
370 157
370 156
370 155
371 154
371 153
371 152
371 151
371 150
372 149
372 148
372 147
372 146
372 145
372 144
372 143
372 142
372 141
373 140
373 139
373 138
373 137
374 136
374 135
374 134
375 133
375 132
375 131
376 130
376 129
376 128
377 127
376 128
375 129
374 130
373 131
372 132
371 132
370 133
369 133
368 133
367 133
366 133
365 133
364 132
363 132
362 131
361 131
360 130
359 129
358 128
357 127
357 126
356 125
356 124
355 123
355 122
355 121
354 120
354 119
354 118
354 117
354 116
354 115
354 114
354 113
354 112
354 111
354 110
354 109
354 108
354 107
354 106
354 105
354 104
354 103
354 102
354 101
354 100
354 99
354 98
354 97
354 96
353 96
352 97
351 98
350 99
349 99
348 99
347 98
346 98
345 97
344 97
343 96
342 95
341 94
340 93
340 92
339 91
339 90
338 89
338 88
337 87
337 86
337 85
336 84
336 83
336 82
336 81
336 80
336 79
335 78
335 77
335 76
335 75
335 74
335 73
335 72
335 71
335 70
335 69
335 70
334 71
334 72
333 73
333 74
332 75
331 76
331 77
330 78
329 79
328 80
327 81
326 82
325 83
324 84
323 85
322 85
321 86
320 87
319 88
318 88
317 89
316 89
315 90
314 90
313 91
312 91
311 91
310 91
309 92
308 92
307 92
306 92
305 91
304 90
303 89
302 90
302 91
302 92
301 93
301 94
300 95
300 96
299 97
299 98
298 99
298 100
297 101
297 102
296 103
296 104
295 105
295 106
294 107
294 108
293 109
293 110
292 111
291 111
290 112
289 112
288 112
287 112
286 112
285 111
284 110
283 109
282 108
281 107
280 106
279 105
278 104
277 103
276 102
276 101
275 100
274 99
274 98
273 97
272 96
272 95
271 94
271 93
270 92
270 91
269 90
269 89
268 88
267 87
267 86
266 85
265 84
264 83
264 82
263 81
262 80
261 79
261 78
260 77
259 76
259 75
258 74
258 73
257 72
256 71
255 70
255 69
254 68
254 67
253 66
253 65
252 64
252 63
252 62
251 61
251 60
250 59
250 58
250 57
249 56
249 55
249 54
249 53
249 52
249 51
249 50
249 51
248 52
248 53
247 54
247 55
246 56
246 57
245 58
245 59
244 60
243 61
242 61
241 62
240 63
239 64
238 64
237 65
236 65
235 65
234 66
233 66
232 66
231 66
230 66
229 66
228 65
227 65
226 65
225 65
224 64
223 64
222 63
221 63
220 62
219 62
218 61
217 60
216 60
215 59
214 59
213 58
212 57
211 56
210 56
209 55
208 54
207 54
206 53
205 52
204 51
203 50
202 49
201 48
201 47
201 48
201 49
200 50
200 51
199 52
198 52
197 53
196 54
195 54
194 54
193 54
192 54
191 55
190 55
189 55
188 55
187 54
186 54
185 54
184 53
183 53
182 52
181 51
180 51
179 50
178 50
177 49
176 49
175 48
174 48
173 47
172 46
171 45
170 44
169 43
