311 1
310 2
309 2
308 2
307 2
306 2
305 2
304 2
303 2
302 2
301 2
300 2
299 2
298 2
297 2
296 2
295 2
294 2
293 2
292 3
291 3
290 3
289 3
288 3
287 3
286 3
285 4
284 4
283 4
282 4
281 3
280 3
279 3
278 3
277 3
276 3
275 3
274 3
273 3
272 3
271 3
270 4
269 4
268 4
267 4
266 4
265 4
264 4
263 4
262 4
261 4
260 4
259 4
258 4
257 4
256 4
255 4
254 4
253 4
252 4
251 4
250 5
249 5
248 5
247 5
246 6
245 6
244 6
243 6
242 6
241 6
240 6
239 6
238 6
237 7
236 7
235 7
234 7
233 7
232 8
231 8
230 8
229 8
228 8
227 9
226 9
225 9
224 9
223 9
222 10
221 10
220 10
219 10
218 11
217 11
216 11
215 12
214 12
213 12
212 12
211 13
210 13
209 13
208 13
207 13
206 14
205 14
204 14
203 14
202 14
201 15
200 15
199 15
198 16
197 16
196 17
195 17
194 17
193 18
192 18
191 18
190 19
189 19
188 19
187 20
186 21
185 21
184 22
183 22
182 23
181 24
180 24
179 25
178 25
178 26
177 27
176 28
175 29
174 29
173 30
172 30
171 31
170 32
169 33
168 34
167 34
166 35
165 36
164 36
163 37
162 38
161 38
160 39
159 40
158 41
157 41
156 42
155 43
154 43
153 44
152 45
151 46
150 47
149 47
148 48
147 49
146 49
145 50
144 51
143 52
142 53
141 54
140 54
139 55
139 56
139 57
138 58
137 58
136 57
135 58
134 59
133 59
132 60
131 60
130 61
129 62
128 63
127 63
126 64
125 65
124 66
123 66
122 67
121 68
120 69
119 69
118 70
117 71
116 72
115 72
114 73
113 74
113 75
112 76
111 77
110 78
109 78
108 79
108 80
107 81
106 81
105 82
105 83
104 84
103 84
103 85
102 86
101 87
100 87
100 88
99 89
98 90
97 91
96 92
95 93
95 94
94 95
93 96
92 97
91 98
91 99
90 100
89 101
88 102
87 103
86 104
85 105
84 106
83 107
82 108
82 109
81 110
81 111
80 112
79 113
78 114
77 115
76 116
75 117
75 118
74 119
73 119
72 120
71 121
70 122
69 123
68 123
67 124
66 125
65 126
64 127
63 128
62 129
61 130
60 131
59 132
59 133
58 134
57 135
57 136
56 137
55 138
54 139
54 140
53 141
53 142
52 143
52 144
51 145
51 146
50 147
50 148
49 149
49 150
48 151
48 152
47 153
46 154
46 155
45 156
45 157
45 158
44 159
44 160
43 161
43 162
42 163
42 164
42 165
41 166
41 167
40 168
40 169
39 170
38 171
38 172
38 173
37 174
36 175
36 176
35 177
34 178
33 179
33 180
33 181
33 182
32 183
31 184
31 185
30 186
30 187
30 188
29 189
29 190
29 191
29 192
28 193
28 194
28 195
27 196
27 197
27 198
27 199
27 200
26 201
26 202
26 203
25 204
25 205
25 206
24 207
24 208
24 209
23 210
23 211
23 212
22 213
22 214
21 215
21 216
21 217
20 218
20 219
19 220
18 221
18 222
17 223
17 224
16 225
15 226
15 227
14 228
14 229
13 230
12 231
12 232
11 233
11 234
11 235
11 236
10 237
10 238
9 239
9 240
9 241
8 242
8 243
8 244
7 245
7 246
7 247
7 248
6 249
6 250
6 251
5 252
5 253
5 254
5 255
5 256
4 257
4 258
4 259
4 260
3 261
3 262
3 263
3 264
3 265
3 266
3 267
3 268
3 269
3 270
3 271
3 272
3 273
3 274
3 275
3 276
3 277
3 278
3 279
3 280
3 281
3 282
2 283
2 284
2 285
2 286
2 287
2 288
2 289
2 290
1 291
1 292
1 293
1 294
1 295
1 296
1 297
1 298
1 299
1 300
1 301
1 302
1 303
1 304
1 305
1 306
1 307
1 308
1 309
1 310
2 311
2 312
3 313
3 314
4 315
4 316
5 317
5 318
5 319
5 320
5 321
5 322
5 323
5 324
5 325
4 326
4 327
4 328
4 329
4 330
5 331
5 332
5 333
4 334
4 335
4 336
4 337
4 338
5 339
5 340
5 341
5 342
5 343
6 344
6 345
6 346
6 347
6 348
7 349
7 350
8 351
8 352
8 353
8 354
9 355
9 356
9 357
10 358
10 359
10 360
11 361
11 362
11 363
11 364
12 365
12 366
12 367
13 368
13 369
13 370
14 371
15 372
15 373
15 374
16 375
16 376
17 377
18 378
18 379
19 380
20 381
21 382
21 383
22 384
23 385
23 386
24 387
24 388
25 389
26 390
26 391
27 392
28 393
28 394
29 395
29 396
30 397
30 398
31 399
31 400
32 401
32 402
33 403
33 404
33 405
34 406
34 407
34 408
35 409
35 410
36 411
36 412
37 413
37 414
38 415
38 416
39 417
39 418
40 419
41 420
42 421
42 422
43 423
43 424
44 425
45 426
45 427
46 428
47 429
48 430
49 431
50 432
50 433
50 434
51 435
52 436
52 437
53 437
54 438
54 439
55 440
56 441
56 442
57 443
58 444
59 445
60 446
61 447
62 448
63 448
64 449
65 450
66 450
67 451
68 452
69 452
70 453
70 454
71 455
72 456
73 457
74 458
74 459
75 460
76 461
77 462
78 463
78 464
79 464
80 465
80 466
81 467
82 468
83 469
84 470
85 471
86 472
87 473
88 474
89 475
90 476
91 477
92 478
93 479
94 480
95 481
96 482
97 483
97 484
98 484
99 485
100 486
101 487
102 488
103 489
103 490
104 491
105 492
106 493
107 494
108 495
108 496
109 497
110 498
111 498
112 499
112 500
113 501
114 501
115 502
116 503
117 504
118 505
119 506
120 506
121 507
122 508
123 508
124 509
125 510
126 511
127 512
128 512
129 513
130 514
130 515
131 516
132 516
133 517
134 518
135 519
136 520
137 520
138 521
139 522
140 522
141 523
142 524
143 525
144 525
145 526
146 527
147 527
148 528
149 528
150 529
151 530
152 530
153 531
154 532
155 532
156 533
157 533
158 534
159 535
160 536
161 536
162 537
163 538
164 538
165 539
166 539
167 540
168 541
169 541
170 542
171 543
172 543
173 544
174 544
175 545
176 545
177 546
178 547
179 547
180 548
181 548
182 549
183 549
184 550
185 550
186 550
187 551
188 551
189 551
190 552
191 552
192 552
193 553
194 553
195 553
196 553
197 554
198 554
199 554
200 554
201 554
202 555
203 555
204 556
205 556
206 556
207 557
208 557
209 557
210 557
211 557
212 558
213 558
214 559
215 559
216 559
217 560
218 561
219 561
220 562
221 562
222 563
223 563
224 563
225 564
226 564
227 564
228 565
229 565
230 565
231 566
232 566
233 567
234 567
235 567
236 568
237 568
238 568
239 568
240 568
241 569
242 569
243 569
244 570
245 570
246 570
247 570
248 570
249 570
250 570
251 570
252 570
253 571
254 571
255 571
256 571
257 571
258 572
259 572
260 572
261 572
262 572
263 573
264 573
265 573
266 573
267 573
268 573
269 573
270 574
271 574
272 574
273 574
274 574
275 574
276 574
277 574
278 574
279 574
280 574
281 574
282 574
283 574
284 574
285 574
286 574
287 574
288 574
289 575
290 575
291 575
292 575
293 575
294 575
295 575
296 575
297 575
298 575
299 575
300 576
301 576
302 576
303 576
304 576
305 576
306 576
307 576
308 576
309 576
310 576
311 576
312 576
313 575
314 575
315 575
316 575
317 575
318 575
319 574
320 574
321 574
322 574
323 574
324 573
325 573
326 573
327 573
328 573
329 573
330 573
331 573
332 572
333 572
334 572
335 572
336 572
337 571
338 571
339 571
340 571
341 570
342 570
343 570
344 570
345 569
346 569
347 569
348 569
349 569
350 568
351 568
352 568
353 567
354 567
355 567
356 567
357 567
358 566
359 566
360 565
361 565
362 564
363 564
364 563
365 563
366 563
367 563
368 562
369 562
370 562
371 562
372 562
373 562
374 561
375 561
376 561
377 561
378 560
379 560
380 560
381 560
382 559
383 559
384 559
385 558
386 558
387 558
388 558
389 557
390 557
391 557
392 556
393 556
394 555
395 555
396 555
397 554
398 554
399 554
400 554
401 553
402 553
403 553
404 552
405 552
406 552
407 552
408 551
409 551
410 551
411 550
412 550
413 550
414 549
415 549
416 548
417 547
418 547
419 546
420 546
421 545
422 545
423 544
424 544
425 544
426 544
427 543
428 542
429 542
430 541
431 540
432 540
433 540
434 539
435 539
436 539
437 538
438 538
439 537
440 537
441 537
442 537
443 536
444 536
445 536
446 535
447 535
448 535
449 535
450 535
451 534
452 534
453 533
454 533
455 532
456 532
457 531
458 531
459 530
460 529
461 529
462 529
463 528
464 528
465 528
466 527
467 527
468 526
469 526
470 525
471 525
472 524
473 523
474 523
475 522
476 521
477 521
478 520
479 519
480 519
481 518
482 517
483 516
484 515
485 514
486 513
487 512
488 511
488 510
489 509
490 508
491 507
492 506
493 505
494 504
495 503
496 502
497 501
498 500
499 499
500 499
501 498
502 497
503 496
504 496
505 495
506 494
507 493
508 492
509 492
510 491
511 490
512 489
513 489
514 488
515 487
516 486
517 485
518 485
519 484
520 483
521 482
521 481
522 480
523 479
524 478
525 477
526 476
527 475
528 474
528 473
529 472
530 471
531 470
531 469
532 468
532 467
533 466
534 465
534 464
535 463
535 462
536 461
537 460
538 459
538 458
539 457
539 456
540 455
540 454
541 453
541 452
542 451
542 450
543 449
544 448
544 447
544 446
545 445
545 444
545 443
546 442
546 441
547 440
547 439
548 438
548 437
549 436
549 435
550 434
550 433
550 432
551 431
551 430
552 429
552 428
552 427
553 426
553 425
553 424
554 423
554 422
554 421
554 420
555 419
555 418
555 417
556 416
556 415
557 414
557 413
557 412
557 411
558 410
558 409
558 408
558 407
558 406
559 405
559 404
559 403
559 402
559 401
560 400
560 399
560 398
560 397
561 396
561 395
561 394
561 393
561 392
561 391
562 390
562 389
562 388
562 387
562 386
562 385
562 384
562 383
562 382
562 381
562 380
562 379
562 378
562 377
562 376
562 375
562 374
562 373
562 372
562 371
562 370
562 369
562 368
562 367
562 366
562 365
562 364
562 363
562 362
562 361
562 360
561 359
561 358
561 357
561 356
561 355
560 354
560 353
560 352
559 351
559 350
559 349
558 348
558 347
557 346
557 345
556 344
556 343
555 342
555 341
555 340
554 339
554 338
553 337
553 336
552 335
552 334
552 333
551 332
550 331
550 330
549 329
549 328
548 327
547 326
547 325
546 324
545 323
544 322
544 321
543 320
542 319
541 318
540 317
539 316
538 315
537 314
536 313
535 312
534 311
533 311
532 310
531 309
530 308
529 308
528 307
527 306
526 305
525 304
524 304
523 303
522 302
521 302
520 301
519 300
518 300
517 299
516 298
515 298
514 298
513 297
512 297
511 296
510 296
509 295
508 295
507 294
506 294
505 294
504 293
503 293
502 293
501 293
500 293
499 292
498 292
497 292
496 292
495 292
494 292
493 292
492 292
491 292
490 292
489 292
488 291
487 291
486 291
485 291
484 291
483 291
482 291
481 291
480 291
479 291
478 291
477 291
476 291
475 291
474 291
473 291
472 292
471 292
470 292
469 292
468 292
467 292
466 292
465 292
464 292
463 292
462 292
461 292
460 293
459 293
458 293
457 293
456 293
455 293
454 293
453 293
452 293
451 293
450 293
449 293
448 293
447 292
446 292
445 292
444 292
443 292
442 292
441 292
440 292
439 292
438 292
437 291
436 291
435 291
434 291
433 290
432 289
431 288
432 287
432 286
433 285
434 285
435 284
436 283
437 283
438 282
439 282
440 282
441 282
442 282
443 282
444 282
445 282
446 282
447 281
448 281
449 281
450 281
451 281
452 281
453 281
454 281
455 281
456 281
457 281
458 281
459 281
460 281
461 281
462 281
463 281
464 281
465 281
466 281
467 281
468 281
469 281
470 281
471 281
472 281
473 281
474 281
475 281
476 281
477 281
478 281
479 281
480 281
481 281
482 281
483 281
484 281
485 281
486 281
487 281
488 281
489 281
490 281
491 281
492 281
493 281
494 281
495 281
496 281
497 281
498 281
499 281
500 281
501 281
502 281
503 281
504 281
505 281
506 281
507 281
508 281
509 281
510 281
511 281
512 281
513 282
514 282
515 282
516 282
517 282
518 282
519 282
520 282
521 282
522 282
523 282
524 282
525 282
526 282
527 282
528 282
529 282
530 283
531 283
532 283
533 283
534 283
535 283
536 283
537 283
538 283
539 283
540 283
541 283
542 283
543 283
544 283
545 284
546 284
547 284
548 284
549 284
550 284
551 284
552 284
553 284
554 284
555 284
556 284
557 284
558 284
559 284
560 284
561 284
562 284
563 284
564 284
565 285
566 285
567 285
568 285
569 285
570 285
571 285
572 285
573 285
574 285
575 285
576 285
577 285
578 285
579 285
580 286
581 286
582 286
583 286
584 286
585 286
586 286
587 286
588 286
589 286
590 286
591 286
592 286
593 286
594 286
595 286
596 287
597 287
598 287
599 287
600 287
601 287
602 287
603 287
604 287
605 287
606 287
607 287
608 287
609 288
610 288
611 288
612 288
613 288
614 288
615 288
616 288
617 288
618 288
619 288
620 288
621 288
622 288
623 289
624 289
625 289
626 289
627 289
628 289
629 289
630 289
631 289
632 289
633 289
634 290
635 290
636 290
637 290
638 290
639 290
640 290
641 290
642 290
643 290
644 290
645 291
646 291
647 291
648 291
649 291
650 291
651 291
652 292
653 292
654 292
655 292
656 293
657 293
658 294
659 294
660 294
661 295
662 295
663 295
664 295
665 296
666 297
667 297
668 297
669 297
670 297
671 298
672 299
673 299
674 299
675 299
676 299
677 298
677 297
678 296
679 296
680 295
680 294
680 293
680 292
680 291
680 290
680 289
680 288
680 287
680 286
680 285
680 284
680 283
679 283
678 283
677 283
676 283
675 283
674 282
673 282
672 282
671 282
670 282
669 282
668 282
667 282
666 282
665 282
664 282
663 282
662 282
661 282
660 282
659 282
658 283
657 283
656 283
655 283
654 283
653 284
652 284
651 284
650 284
649 284
648 284
647 283
646 283
645 283
644 283
643 283
642 283
641 283
640 283
639 283
638 283
637 283
636 283
635 283
634 283
633 283
632 283
631 283
630 283
629 283
628 283
627 282
626 282
625 282
624 282
623 282
622 282
621 282
620 282
619 282
618 282
617 282
616 282
615 282
614 281
613 281
612 281
611 281
610 281
609 281
608 281
607 281
606 281
605 281
604 281
603 281
602 281
601 281
600 281
599 281
598 281
597 280
596 280
595 280
594 280
593 280
592 280
591 280
590 280
589 280
588 280
587 280
586 280
585 280
584 280
583 280
582 280
581 279
580 279
579 279
578 279
577 279
576 279
575 279
574 279
573 279
572 279
571 279
570 279
569 279
568 279
567 279
566 279
565 279
564 279
563 279
562 279
561 278
560 278
559 278
558 278
557 278
556 278
555 278
554 278
553 278
552 278
551 278
550 278
549 277
548 277
547 277
546 277
545 277
544 277
543 277
542 277
541 277
540 277
539 277
538 277
537 277
536 277
535 277
534 277
533 276
532 276
531 276
530 276
529 276
528 276
527 276
526 276
525 276
524 276
523 276
522 276
521 276
520 276
519 276
518 276
517 276
516 276
515 276
514 276
513 275
512 275
511 275
510 275
509 275
508 275
507 275
506 275
505 275
504 275
503 275
502 275
501 275
500 275
499 275
498 275
497 275
496 275
495 275
494 275
493 274
492 274
491 274
490 274
489 274
488 274
487 274
486 274
485 274
484 274
483 274
482 274
481 274
480 274
479 274
478 274
477 274
476 274
475 274
474 274
473 274
472 274
471 274
470 274
469 274
468 274
467 274
466 274
465 273
464 274
463 274
462 273
461 273
460 273
459 273
458 273
457 273
456 273
455 273
454 273
453 273
452 273
451 273
450 273
449 273
448 272
447 272
446 272
445 272
444 272
443 272
442 272
441 271
440 271
439 270
438 270
437 269
436 269
435 268
434 268
433 267
432 266
432 265
433 264
432 263
433 262
434 262
435 261
436 261
437 260
438 260
439 260
440 260
441 259
442 259
443 259
444 258
445 258
446 258
447 258
448 258
449 257
450 257
451 257
452 257
453 257
454 256
455 256
456 256
457 256
458 256
459 256
460 256
461 256
462 256
463 255
464 255
465 255
466 255
467 255
468 255
469 256
470 255
471 254
472 254
473 253
474 253
475 253
476 253
477 253
478 252
479 252
480 252
481 252
482 251
483 251
484 251
485 250
486 250
487 250
488 250
489 249
490 249
491 248
492 248
493 248
494 247
495 247
496 247
497 246
498 246
499 245
500 245
501 245
502 244
503 244
504 244
505 243
506 242
507 242
508 241
509 241
510 240
511 240
512 239
513 238
514 237
515 237
516 236
517 235
518 234
519 233
520 232
521 232
522 231
523 230
523 229
524 228
525 228
525 227
526 226
527 225
528 224
528 223
529 222
530 221
530 220
531 219
531 218
532 217
532 216
533 215
533 214
534 213
534 212
534 211
535 210
535 209
535 208
536 207
536 206
536 205
537 204
537 203
538 202
538 201
538 200
538 199
539 198
539 197
539 196
540 195
540 194
540 193
541 192
541 191
541 190
541 189
542 188
542 187
542 186
542 185
543 184
543 183
543 182
543 181
543 180
543 179
543 178
543 177
543 176
543 175
543 174
543 173
544 172
543 171
543 170
543 169
543 168
543 167
543 166
542 165
542 164
542 163
542 162
542 161
542 160
542 159
542 158
541 157
541 156
541 155
541 154
541 153
541 152
540 151
540 150
540 149
540 148
539 147
539 146
539 145
539 144
538 143
538 142
538 141
537 140
537 139
536 138
535 137
534 136
533 135
533 134
534 133
533 132
533 131
532 130
532 129
532 128
531 127
531 126
530 125
530 124
529 123
528 122
528 121
527 120
526 119
526 118
525 117
524 116
523 115
522 114
521 113
520 112
519 111
518 110
517 109
517 108
516 107
515 106
514 105
513 104
512 103
511 102
510 101
509 100
508 99
507 98
506 97
505 97
504 96
503 95
502 94
501 93
500 92
499 91
498 90
497 89
496 88
495 87
495 86
494 85
493 84
492 83
492 82
491 81
490 80
489 79
488 78
487 77
486 76
485 75
484 74
484 73
483 72
482 71
482 70
481 69
481 68
480 67
479 66
479 65
478 64
477 63
477 62
476 61
475 60
474 59
473 58
473 57
472 56
471 55
470 54
469 53
468 52
467 51
466 50
465 49
464 48
463 48
462 47
461 46
460 45
459 44
458 44
457 43
456 42
455 41
454 41
453 40
452 39
451 39
450 38
449 37
448 37
447 36
446 36
445 35
444 34
443 34
442 33
441 33
440 32
439 32
438 31
437 31
436 30
435 30
434 29
433 28
432 28
431 27
430 27
429 26
428 26
427 25
426 25
425 25
424 24
423 24
422 23
421 23
420 23
419 23
418 22
417 22
416 22
415 21
414 21
413 20
412 20
411 20
410 19
409 19
408 19
407 18
406 18
405 18
404 17
403 17
402 16
401 16
400 16
399 16
398 16
397 15
396 15
395 15
394 14
393 14
392 13
391 13
390 12
389 12
388 12
387 12
386 11
385 11
384 11
383 11
382 10
381 10
380 10
379 10
378 9
377 9
376 9
375 9
374 9
373 8
372 8
371 8
370 8
369 7
368 7
367 7
366 7
365 6
364 6
363 6
362 5
361 5
360 5
359 5
358 5
357 5
356 4
355 4
354 4
353 4
352 3
351 3
350 3
349 3
348 3
347 3
346 2
345 2
344 2
343 2
342 2
341 1
340 1
339 1
338 1
337 1
336 1
335 1
334 1
333 1
332 1
331 1
330 1
329 1
328 1
327 1
326 1
325 1
324 1
323 1
322 1
321 1
320 1
319 1
318 1
317 1
316 1
315 1
314 1
313 1
312 1
311 1
