442 128
441 129
440 129
439 129
438 129
437 129
436 129
435 129
434 130
433 130
432 130
431 130
430 131
429 131
428 131
427 132
426 131
425 131
424 131
423 131
422 131
421 131
420 131
419 131
418 131
417 131
416 131
415 131
414 131
413 131
412 131
411 131
410 131
409 131
408 131
407 131
406 131
405 131
404 131
403 131
402 131
401 131
400 132
399 132
398 133
397 133
396 134
395 134
394 135
393 135
392 136
391 136
390 136
389 137
388 137
387 138
386 139
385 139
384 139
383 140
382 140
381 141
380 141
379 141
378 142
377 142
376 143
375 143
374 143
373 144
372 144
371 144
370 145
369 145
368 145
367 145
366 145
365 146
364 146
363 146
362 146
361 146
360 146
359 146
358 146
357 146
356 146
355 146
354 146
353 146
352 146
351 146
350 145
349 145
348 145
347 145
346 145
345 145
344 145
343 146
342 146
341 146
340 146
339 146
338 146
337 146
336 146
335 146
334 146
333 146
332 146
331 146
330 146
329 146
328 146
327 146
326 147
325 147
324 147
323 147
322 147
321 147
320 147
319 148
318 148
317 148
316 149
315 149
314 149
313 149
312 149
311 149
310 150
309 150
308 150
307 150
306 150
305 150
304 150
303 150
302 151
301 151
300 151
299 151
298 152
297 152
296 152
295 153
294 153
293 153
292 154
291 154
290 154
289 154
288 155
287 155
286 155
285 155
284 155
283 156
282 156
281 156
280 156
279 157
278 157
277 158
276 158
275 159
274 159
273 160
272 160
271 161
270 161
269 161
268 162
267 162
266 163
265 163
264 163
263 164
262 164
261 164
260 165
259 165
258 166
257 166
256 166
255 166
254 166
253 167
252 167
251 167
250 168
249 168
248 169
247 169
246 170
245 171
244 171
243 172
242 172
241 172
240 173
239 173
238 173
237 174
236 175
235 175
234 176
233 177
232 177
231 178
230 179
229 179
228 180
227 180
227 181
226 182
225 183
224 183
223 184
222 185
221 186
221 187
220 188
219 189
219 190
218 191
217 192
216 193
215 194
214 194
213 195
212 196
211 197
210 198
210 199
209 200
208 201
207 201
206 202
205 203
204 203
203 204
202 205
201 205
200 206
199 207
198 208
197 209
196 210
195 210
194 211
193 212
192 213
191 213
190 214
189 214
188 215
187 215
186 216
185 216
184 217
183 217
182 218
181 218
180 218
179 219
178 220
177 220
176 221
175 222
174 223
173 223
173 224
172 225
171 225
170 226
169 226
168 227
167 228
166 229
165 229
164 230
163 231
162 231
161 232
160 233
159 233
158 234
157 235
156 235
155 236
154 237
153 238
152 239
151 240
150 241
149 242
148 243
147 244
146 244
145 245
144 246
143 247
142 248
141 249
140 250
140 251
139 252
138 253
137 254
136 255
135 256
135 257
135 258
134 259
133 260
132 261
131 262
130 263
129 264
128 265
127 266
126 267
125 268
124 269
123 270
122 271
121 272
120 273
119 274
118 275
117 276
116 277
115 278
115 279
114 280
114 281
114 282
113 283
113 284
113 285
113 286
113 287
114 288
114 289
115 290
116 291
117 292
117 293
118 294
119 295
120 296
121 297
122 298
123 299
124 299
125 300
126 300
127 300
128 300
129 301
130 301
131 301
132 302
133 302
134 303
135 303
136 303
137 304
138 304
139 304
140 305
141 305
142 306
143 306
144 307
145 307
146 308
147 308
148 308
149 309
150 310
151 310
152 311
153 312
154 313
155 314
156 315
157 316
158 316
159 316
160 317
161 318
162 318
163 319
164 320
165 320
166 320
167 321
168 322
169 322
170 322
171 323
172 324
173 324
174 325
175 326
176 327
177 328
178 328
179 329
180 330
181 330
182 330
183 331
184 332
185 332
186 332
187 333
188 333
189 334
190 334
191 335
192 335
193 335
194 336
195 336
196 336
197 337
198 337
199 337
200 338
201 339
202 339
203 340
204 340
205 341
206 341
207 342
208 342
209 343
210 344
211 344
212 345
213 345
214 345
215 346
216 346
217 346
218 347
219 347
220 347
221 348
222 348
223 348
224 349
225 349
226 349
227 350
228 350
229 350
230 351
231 351
232 351
233 351
234 351
235 352
236 352
237 353
238 353
239 353
240 353
241 353
242 354
243 354
244 354
245 354
246 354
247 355
248 355
249 355
250 356
251 356
252 356
253 357
254 357
255 357
256 358
257 358
258 358
259 359
260 359
261 359
262 360
263 360
264 361
265 361
266 362
267 362
268 362
269 362
270 363
271 363
272 363
273 364
274 364
275 365
276 365
277 365
278 366
279 366
280 367
281 368
282 368
283 368
284 369
285 369
286 370
287 370
288 371
289 371
290 372
291 372
292 373
293 373
294 373
295 373
296 374
297 374
298 374
299 374
300 375
301 375
302 375
303 375
304 376
305 376
306 376
307 376
308 377
309 377
310 377
311 377
312 377
313 378
314 378
315 378
316 378
317 379
318 379
319 379
320 379
321 379
322 379
323 379
324 380
325 380
326 380
327 380
328 380
329 380
330 381
331 381
332 381
333 381
334 381
335 381
336 381
337 381
338 381
339 381
340 381
341 381
342 381
343 381
344 381
345 381
346 381
347 381
348 381
349 381
350 381
351 381
352 381
353 381
354 381
355 381
356 381
357 381
358 381
359 381
360 381
361 381
362 381
363 381
364 381
365 380
366 380
367 380
368 380
369 380
370 380
371 380
372 380
373 379
374 379
375 379
376 379
377 379
378 379
379 379
380 379
381 379
382 379
383 378
384 378
385 378
386 378
387 378
388 378
389 378
390 378
391 378
392 378
393 378
394 378
395 377
396 377
397 377
398 377
399 377
400 376
401 376
402 376
403 376
404 376
405 375
406 375
407 375
408 375
409 374
410 374
411 374
412 374
413 374
414 374
415 373
416 373
417 373
418 373
419 372
420 372
421 372
422 372
423 372
424 371
425 371
426 371
427 371
428 371
429 370
430 370
431 370
432 370
433 370
434 369
435 369
436 369
437 368
438 368
439 368
440 368
441 368
442 368
443 368
444 367
445 367
446 367
447 367
448 367
449 366
450 366
451 366
452 366
453 366
454 366
455 366
456 365
457 365
458 365
459 364
460 364
461 364
462 364
463 363
464 363
465 363
466 363
467 362
468 362
469 362
470 362
471 361
472 361
473 361
474 360
475 360
476 359
477 359
478 358
479 358
480 358
481 357
482 356
483 356
484 355
485 355
486 355
487 354
488 354
489 353
490 353
491 352
492 352
493 351
494 351
495 350
496 350
497 349
498 349
499 348
500 348
501 347
502 347
503 346
504 346
505 345
506 344
507 344
508 344
509 343
510 342
511 342
512 342
513 341
514 340
515 340
516 339
517 338
518 338
519 337
520 337
521 336
522 335
523 334
524 333
525 333
526 332
527 332
528 331
529 330
530 330
531 329
532 328
533 327
534 327
535 326
536 326
537 325
538 324
539 323
540 322
541 321
542 320
543 320
544 319
545 318
546 317
547 316
548 316
548 315
549 314
550 313
551 312
552 311
553 310
554 309
555 308
556 307
557 306
558 305
559 304
560 303
561 302
561 301
562 300
563 299
564 298
565 297
566 296
567 295
568 294
568 293
569 292
569 291
570 290
571 289
572 288
572 287
573 286
574 285
574 284
575 283
576 282
576 281
577 280
578 279
578 278
579 277
580 276
580 275
581 274
581 273
582 272
582 271
583 270
583 269
584 268
584 267
585 266
586 265
586 264
587 263
588 262
589 261
590 260
591 259
592 258
593 258
594 258
595 257
596 257
597 256
598 256
599 256
600 255
601 255
602 254
603 254
604 254
605 253
606 253
607 253
608 252
609 252
610 251
611 251
612 251
613 251
614 251
615 250
616 250
617 249
618 249
619 248
620 248
621 248
622 247
623 246
624 245
624 244
624 243
624 242
624 241
624 240
623 239
622 239
621 240
620 239
619 239
618 239
617 239
616 240
615 240
614 240
613 240
612 240
611 240
610 240
609 240
608 241
607 241
606 241
605 241
604 242
603 242
602 242
601 242
600 242
599 242
598 242
597 242
596 242
595 242
594 242
593 243
592 243
591 243
590 243
589 242
588 242
587 242
586 241
585 241
584 240
584 239
583 238
582 237
582 236
581 235
581 234
580 233
580 232
580 231
580 230
580 229
580 228
580 227
579 226
579 225
579 224
579 223
578 222
578 221
578 220
577 219
577 218
577 217
576 216
576 215
576 214
575 213
575 212
574 211
573 210
573 209
572 208
572 207
571 206
570 205
570 204
569 203
568 202
567 201
566 200
565 199
564 198
563 197
563 196
562 195
561 194
560 193
560 192
559 191
559 190
558 189
557 188
556 187
555 186
554 185
553 184
552 183
551 182
550 181
549 181
548 180
547 179
546 178
545 177
544 176
543 175
542 174
541 173
540 172
539 171
538 170
537 169
536 168
535 168
534 167
533 167
532 166
531 165
530 165
529 164
528 163
527 163
526 162
525 161
524 160
523 160
522 159
522 158
521 157
520 157
519 156
518 155
517 155
516 154
515 154
514 153
513 152
512 152
511 151
510 151
509 150
508 149
507 149
506 148
505 148
504 147
503 147
502 146
501 145
500 145
499 144
498 144
497 143
496 142
495 141
494 140
493 140
492 139
491 139
490 139
489 139
488 138
487 138
486 138
485 137
484 137
483 136
482 136
481 136
480 136
479 136
478 135
477 135
476 135
475 135
474 135
473 134
472 134
471 134
470 134
469 134
468 134
467 134
466 133
465 133
464 132
463 132
462 132
461 132
460 131
459 131
458 131
457 131
456 131
455 130
454 130
453 129
452 129
451 129
450 129
449 129
448 128
447 128
446 128
445 128
444 128
443 128
442 128
