56 353
56 354
56 355
56 356
56 357
56 358
56 359
56 360
56 361
56 362
56 363
56 364
56 365
57 365
58 365
59 365
60 365
61 365
62 365
63 365
64 365
65 364
65 363
66 362
67 362
68 361
69 361
70 361
71 361
72 361
73 361
74 362
75 362
76 363
77 363
78 364
79 365
80 365
81 365
82 365
83 366
84 366
85 366
86 366
87 367
88 367
89 367
90 368
91 368
92 369
93 369
94 370
95 371
96 372
97 372
98 372
99 373
100 373
101 373
102 373
103 374
104 374
105 374
106 375
107 375
108 375
109 375
110 375
111 375
112 376
113 376
114 376
115 376
116 377
117 377
118 378
119 378
120 379
120 380
121 381
121 382
122 383
123 383
124 383
125 383
126 383
127 384
128 384
129 384
130 384
131 384
132 384
133 385
134 385
135 385
136 385
137 385
138 385
139 385
140 385
141 386
142 386
143 386
144 386
145 386
146 386
147 386
148 386
149 386
150 386
151 386
152 386
153 386
154 387
155 387
156 388
157 388
158 389
158 390
159 391
159 392
160 393
160 394
160 395
160 396
160 397
160 398
160 399
160 400
160 401
160 402
161 402
162 402
163 402
164 402
165 402
166 402
167 402
168 402
169 402
170 401
171 401
172 400
173 400
174 400
175 400
176 399
177 399
178 399
179 399
180 399
181 399
182 398
183 399
184 399
185 399
186 399
187 399
188 399
189 399
190 399
191 399
192 399
193 399
194 399
195 399
196 399
197 399
198 398
199 398
200 398
201 398
202 398
203 398
204 397
205 397
206 397
207 396
208 396
209 396
210 395
211 395
212 395
213 395
214 394
215 394
216 393
217 393
218 393
219 393
220 392
221 393
222 393
223 394
224 395
225 396
225 397
226 398
226 399
226 400
226 401
225 402
225 403
225 404
225 405
225 406
225 407
225 408
225 409
225 410
225 411
225 412
225 413
225 414
225 415
225 416
225 417
225 418
225 419
225 420
225 421
225 422
225 423
225 424
225 425
225 426
226 427
227 428
228 429
229 430
230 431
231 432
232 433
232 434
233 435
234 436
235 436
236 436
237 436
238 436
239 436
240 436
241 436
242 436
243 435
244 435
245 434
246 434
247 433
248 433
249 433
250 433
251 432
252 432
253 432
254 431
255 431
256 431
257 430
258 430
259 429
260 429
261 428
262 428
263 427
264 427
265 427
266 427
267 427
268 427
269 427
270 426
271 426
272 425
273 424
274 424
275 423
276 422
277 421
278 421
279 420
280 419
281 418
282 417
283 416
283 415
284 414
285 413
286 412
287 411
288 410
289 409
290 408
291 407
291 406
292 405
292 404
293 403
294 402
295 401
296 401
297 400
298 400
299 399
300 399
301 398
302 397
303 396
304 395
305 394
306 393
306 392
307 391
308 390
309 389
310 388
310 387
311 386
311 385
312 384
313 383
314 382
314 381
315 380
316 379
316 378
317 377
317 376
318 375
318 374
318 373
319 372
319 371
319 370
320 369
320 368
320 367
320 366
321 365
321 364
321 363
321 362
321 361
322 360
322 359
322 358
322 357
322 356
322 355
322 354
322 353
322 352
322 351
322 350
323 349
323 348
323 347
323 346
323 345
324 344
324 343
324 342
325 341
325 340
325 339
325 338
326 337
326 336
326 335
326 334
327 333
327 332
327 331
327 330
327 329
327 328
327 327
327 326
327 325
327 324
328 323
328 322
328 321
328 320
328 319
328 318
328 317
328 316
328 315
328 314
328 313
328 312
328 311
328 310
328 309
328 308
328 307
328 306
328 305
328 304
328 303
328 302
328 301
328 300
328 299
328 298
328 297
328 296
328 295
328 294
328 293
328 292
328 291
328 290
328 289
328 288
328 287
328 286
328 285
328 284
328 283
328 282
327 281
327 280
327 279
327 278
327 277
327 276
328 275
328 274
329 273
330 272
331 272
332 271
333 271
334 270
335 270
336 269
337 269
338 269
339 269
340 268
341 268
342 268
343 267
344 267
345 267
346 266
347 266
348 266
349 265
350 265
351 265
352 264
353 264
354 263
355 263
356 263
357 263
358 262
359 262
360 261
361 261
362 260
363 260
364 260
365 259
366 259
367 258
368 258
369 258
370 258
371 258
372 258
373 258
374 257
375 257
376 257
377 256
378 256
379 255
380 255
381 254
382 254
383 254
384 254
385 254
386 254
387 254
388 253
389 253
390 252
391 252
392 252
393 252
394 251
395 251
396 251
397 251
398 250
399 250
400 250
401 250
402 249
403 249
404 249
405 248
406 248
407 248
408 248
409 248
410 247
411 247
412 247
413 247
414 247
415 246
416 246
417 246
418 246
419 245
420 245
421 245
422 245
423 245
424 244
425 244
426 244
427 244
428 244
429 244
430 243
431 243
432 243
433 243
434 243
435 242
436 242
437 242
438 242
439 242
440 242
441 242
442 242
443 241
444 241
445 241
446 241
447 241
448 241
449 241
450 241
451 240
452 240
453 241
454 241
455 242
456 242
457 243
458 243
459 244
459 245
460 246
460 247
461 248
461 249
461 250
461 251
462 252
462 253
462 254
462 255
463 256
462 257
462 258
461 259
461 260
460 261
459 261
458 262
457 262
456 263
455 263
454 263
453 263
452 263
451 264
450 264
449 265
448 265
447 266
446 266
445 267
444 267
443 267
442 268
441 268
440 268
439 269
438 269
437 269
436 270
435 270
434 271
433 272
432 272
431 273
430 274
429 274
428 275
427 275
426 276
425 276
424 277
423 277
422 278
421 279
420 280
419 280
418 281
417 281
416 282
415 283
414 283
413 284
412 284
411 285
410 285
409 286
408 287
407 288
406 289
405 290
404 291
403 292
402 293
401 293
400 294
400 295
400 296
399 297
399 298
399 299
399 300
398 301
398 302
398 303
398 304
398 305
398 306
398 307
397 308
397 309
396 310
396 311
396 312
396 313
395 314
395 315
395 316
394 317
394 318
393 319
393 320
392 321
392 322
391 323
390 324
389 325
389 326
389 327
389 328
389 329
389 330
389 331
389 332
389 333
389 334
389 335
389 336
389 337
389 338
389 339
389 340
389 341
390 342
390 343
391 344
392 345
392 346
393 347
394 348
394 349
395 350
396 351
397 352
397 353
398 354
399 355
400 356
400 357
401 358
401 359
402 360
402 361
402 362
402 363
402 364
401 365
401 366
401 367
401 368
400 369
400 370
400 371
400 372
400 373
400 374
400 375
400 376
400 377
400 378
400 379
400 380
400 381
400 382
400 383
400 384
400 385
401 385
402 386
402 387
403 388
403 389
404 390
404 391
404 392
404 393
405 394
405 395
405 396
405 397
405 398
405 399
406 400
406 401
406 402
406 403
406 404
406 405
407 406
407 407
407 408
407 409
407 410
408 411
408 412
408 413
408 414
408 415
409 416
409 417
409 418
409 419
409 420
409 421
410 422
410 423
410 424
410 425
410 426
410 427
410 428
410 429
411 430
411 431
411 432
411 433
411 434
411 435
411 436
411 437
412 438
412 439
413 440
414 441
414 442
415 443
415 444
416 445
416 446
417 447
418 448
418 449
419 450
419 451
420 452
420 453
421 454
421 455
422 456
422 457
423 458
424 459
424 460
425 461
425 462
426 463
426 464
427 465
428 466
429 466
430 467
431 467
432 468
432 469
433 470
433 471
434 472
434 473
435 474
436 474
437 475
438 475
439 476
440 477
441 478
442 479
443 480
444 481
445 482
445 483
446 484
446 485
447 486
448 487
449 488
450 489
451 490
452 491
453 492
454 493
455 494
456 495
456 496
457 497
457 498
457 499
457 500
457 501
457 502
457 503
457 504
457 505
457 506
457 507
457 508
457 509
457 510
458 511
459 512
460 512
461 512
462 512
463 512
464 512
465 512
466 512
467 512
468 512
469 512
470 512
471 512
472 512
473 511
474 510
474 509
474 508
474 507
474 506
474 505
474 504
474 503
474 502
474 501
474 500
474 499
474 498
474 497
474 496
474 495
474 494
474 493
474 492
474 491
474 490
474 489
474 488
474 487
474 486
474 485
474 484
473 483
473 482
473 481
474 480
474 479
475 478
475 477
476 476
476 475
477 474
477 473
478 472
479 471
479 470
479 469
479 468
480 467
480 466
481 465
481 464
482 463
482 462
483 461
484 461
485 460
486 460
487 459
488 459
489 459
490 458
491 457
492 456
493 455
494 454
494 453
495 452
495 451
496 450
496 449
497 448
497 447
497 446
498 445
498 444
499 443
499 442
499 441
499 440
500 439
500 438
500 437
500 436
500 435
500 434
500 433
500 432
500 431
501 430
501 429
502 428
502 427
503 426
504 426
505 425
506 425
507 425
508 425
509 425
510 425
511 425
512 425
512 424
512 423
512 422
513 421
513 420
514 419
514 418
514 417
514 416
515 415
515 414
515 413
515 412
516 411
516 410
516 409
516 408
516 407
516 406
516 405
516 404
516 403
516 402
516 401
516 400
516 399
516 398
516 397
516 396
516 395
516 394
516 393
516 392
516 391
516 390
515 389
515 388
515 387
515 386
515 385
515 384
515 383
515 382
515 381
515 380
515 379
515 378
515 377
515 376
516 375
517 374
518 373
519 373
520 373
521 374
522 374
523 375
524 375
525 376
526 376
527 377
528 377
529 378
530 378
531 379
532 379
533 379
534 380
535 380
536 381
537 381
538 382
539 382
540 382
541 383
542 383
543 383
544 383
545 383
546 384
547 384
548 384
549 384
550 384
551 384
552 384
553 384
554 384
555 384
556 385
557 385
558 385
559 386
560 386
561 386
562 387
563 387
564 388
565 388
566 388
567 388
568 388
569 388
570 388
571 388
572 388
573 388
574 388
574 387
574 386
574 385
574 384
574 383
574 382
573 381
572 381
571 380
570 379
570 378
569 377
569 376
568 375
568 374
567 373
567 372
566 371
566 370
565 369
565 368
564 367
564 366
564 365
563 364
563 363
563 362
563 361
563 360
562 359
562 358
561 357
561 356
560 355
560 354
559 353
559 352
558 351
557 350
557 349
556 348
556 347
555 346
555 345
554 344
554 343
554 342
553 341
553 340
552 339
552 338
551 337
551 336
551 335
551 334
551 333
551 332
551 331
551 330
551 329
550 328
550 327
549 326
549 325
548 324
547 323
546 322
546 321
545 320
544 319
544 318
543 317
543 316
542 315
542 314
541 313
541 312
541 311
541 310
540 309
539 308
539 307
538 306
537 305
536 304
535 303
534 302
533 301
532 300
531 300
530 299
529 298
528 297
527 297
526 296
525 295
524 295
523 294
522 293
521 292
520 292
519 291
518 290
517 289
516 288
515 287
514 286
513 285
512 284
511 283
510 282
509 281
508 280
507 279
506 278
505 278
504 277
503 276
502 276
501 275
500 275
499 274
498 274
497 274
496 273
495 273
494 272
493 272
492 272
491 271
490 271
489 270
488 270
487 270
486 269
485 269
484 269
483 268
482 268
481 268
480 268
479 267
478 267
477 267
476 266
475 266
474 265
473 265
472 264
471 264
470 263
469 262
468 261
468 260
467 259
467 258
466 257
466 256
466 255
466 254
466 253
466 252
466 251
466 250
466 249
466 248
466 247
466 246
466 245
467 244
467 243
468 242
469 242
470 241
471 241
472 240
473 240
474 240
475 240
476 240
477 240
478 240
479 240
480 240
481 240
482 240
483 240
484 239
485 239
486 239
487 239
488 239
489 239
490 239
491 239
492 239
493 239
494 239
495 239
496 239
497 239
498 239
499 239
500 238
501 238
502 238
503 238
504 238
505 238
506 238
507 238
508 238
509 238
510 237
511 237
512 237
513 237
514 237
515 237
516 237
517 237
518 237
519 237
520 237
521 237
522 236
523 236
524 236
525 236
526 236
527 236
528 236
529 236
530 236
531 236
532 236
533 236
534 235
535 235
536 235
537 235
538 235
539 235
540 235
541 235
542 235
543 235
544 235
545 235
546 235
547 235
548 235
549 235
550 234
551 234
552 234
553 234
554 234
555 234
556 234
557 234
558 234
559 234
560 234
561 234
562 234
563 234
564 233
565 233
566 233
567 233
568 233
569 233
570 233
571 233
572 233
573 233
574 233
575 233
576 233
577 233
578 233
579 232
580 232
581 232
582 232
583 232
584 232
585 232
586 232
587 232
588 232
589 232
590 232
591 231
592 231
593 231
594 231
595 231
596 231
597 231
598 231
599 231
600 231
601 231
602 231
603 231
604 231
605 231
606 231
607 230
608 230
609 230
610 230
611 230
612 230
613 230
614 230
615 230
616 230
617 230
618 230
619 230
620 230
621 230
622 230
623 230
624 229
625 229
626 229
627 229
628 229
629 229
630 229
631 229
632 229
633 229
634 229
635 229
636 229
637 229
638 229
639 229
640 229
641 229
642 229
643 229
644 229
645 229
646 228
647 228
648 228
649 228
650 228
651 228
652 228
653 228
654 228
655 228
656 228
657 228
658 228
659 228
660 228
661 228
662 228
663 228
664 228
665 228
666 228
667 228
668 228
669 228
670 228
671 228
672 228
673 228
674 228
675 228
676 228
677 228
678 228
679 228
680 228
681 228
682 228
683 228
684 228
685 228
686 228
687 228
688 228
689 228
690 229
691 229
692 229
693 229
694 229
695 229
696 229
697 229
698 229
699 229
700 229
701 229
702 229
703 229
704 229
705 229
706 229
707 229
708 229
709 229
710 229
711 229
712 229
713 229
714 230
715 230
716 230
717 230
718 230
719 230
720 230
721 230
722 230
723 231
724 231
725 231
726 231
727 231
728 231
729 231
730 231
731 231
732 231
733 231
734 231
735 231
736 231
737 231
738 231
739 231
740 231
741 231
742 231
743 231
744 231
745 231
746 231
747 231
748 231
749 231
750 231
751 230
751 229
751 228
751 227
751 226
751 225
751 224
751 223
751 222
751 221
751 220
751 219
750 219
749 219
748 219
747 219
746 219
745 219
744 219
743 219
742 219
741 219
740 219
739 219
738 219
737 219
736 219
735 220
734 220
733 221
732 221
731 222
730 222
729 223
728 223
727 223
726 224
725 224
724 224
723 224
722 224
721 224
720 224
719 224
718 224
717 224
716 224
715 224
714 224
713 224
712 225
711 225
710 225
709 224
708 224
707 224
706 224
705 224
704 224
703 224
702 224
701 224
700 224
699 224
698 224
697 224
696 224
695 224
694 224
693 224
692 224
691 224
690 224
689 224
688 224
687 224
686 224
685 224
684 224
683 224
682 224
681 224
680 224
679 224
678 224
677 224
676 224
675 224
674 224
673 224
672 224
671 224
670 224
669 224
668 224
667 224
666 224
665 224
664 224
663 224
662 224
661 224
660 224
659 224
658 224
657 224
656 224
655 224
654 224
653 224
652 224
651 224
650 224
649 224
648 224
647 224
646 224
645 224
644 224
643 224
642 224
641 224
640 224
639 224
638 224
637 225
636 225
635 225
634 225
633 225
632 225
631 225
630 225
629 225
628 225
627 225
626 225
625 225
624 225
623 225
622 225
621 225
620 225
619 225
618 225
617 225
616 226
615 226
614 226
613 226
612 226
611 226
610 226
609 226
608 226
607 226
606 226
605 226
604 226
603 226
602 226
601 227
600 227
599 227
598 227
597 227
596 227
595 227
594 227
593 227
592 227
591 227
590 227
589 227
588 227
587 228
586 228
585 228
584 228
583 228
582 228
581 228
580 228
579 228
578 228
577 228
576 228
575 228
574 228
573 228
572 229
571 229
570 229
569 229
568 229
567 229
566 229
565 229
564 229
563 229
562 229
561 229
560 229
559 230
558 230
557 230
556 230
555 230
554 230
553 230
552 230
551 230
550 230
549 230
548 231
547 231
546 231
545 231
544 231
543 231
542 231
541 231
540 231
539 231
538 231
537 231
536 231
535 231
534 232
533 232
532 232
531 232
530 232
529 232
528 232
527 232
526 232
525 232
524 232
523 232
522 232
521 233
520 233
519 233
518 233
517 233
516 233
515 233
514 233
513 233
512 233
511 233
510 233
509 233
508 233
507 234
506 234
505 234
504 234
503 234
502 234
501 234
500 234
499 234
498 234
497 234
496 234
495 234
494 234
493 234
492 235
491 235
490 235
489 235
488 235
487 235
486 235
485 235
484 235
483 235
482 235
481 235
480 235
479 235
478 235
477 235
476 235
475 235
474 235
473 236
472 236
471 235
470 235
469 234
468 234
467 233
467 232
466 231
466 230
466 229
466 228
466 227
466 226
466 225
466 224
467 223
467 222
467 221
468 220
468 219
468 218
469 217
469 216
470 215
470 214
471 213
471 212
472 211
473 210
473 209
474 208
474 207
475 206
475 205
476 204
476 203
476 202
477 201
477 200
477 199
478 198
478 197
479 196
479 195
479 194
480 193
480 192
481 191
481 190
482 189
482 188
482 187
482 186
482 185
483 184
483 183
484 182
484 181
484 180
485 179
485 178
485 177
485 176
486 175
486 174
486 173
486 172
486 171
486 170
486 169
486 168
486 167
486 166
486 165
486 164
486 163
486 162
486 161
486 160
486 159
486 158
486 157
486 156
487 155
487 154
487 153
487 152
487 151
487 150
487 149
487 148
487 147
487 146
487 145
487 144
487 143
487 142
487 141
487 140
487 139
487 138
486 137
486 136
486 135
486 134
486 133
486 132
486 131
486 130
486 129
486 128
485 127
485 126
485 125
485 124
485 123
484 122
484 121
484 120
484 119
483 118
482 118
481 117
481 116
480 115
480 114
479 113
479 112
479 111
479 110
479 109
479 108
479 107
479 106
478 105
478 104
477 103
477 102
477 101
477 100
476 99
475 98
475 97
474 96
474 95
473 94
473 93
473 92
473 91
472 90
472 89
472 88
472 87
472 86
471 85
471 84
471 83
471 82
471 81
471 80
471 79
471 78
471 77
471 76
470 76
469 76
468 76
467 76
466 76
465 76
464 76
463 76
462 77
462 78
461 79
461 80
460 81
459 82
458 83
457 84
457 85
456 86
456 87
455 88
455 89
454 90
454 91
453 92
452 93
451 94
450 95
449 96
448 97
447 98
446 99
446 100
445 101
444 102
444 103
444 104
443 105
443 106
443 107
442 108
442 109
442 110
441 111
441 112
441 113
441 114
441 115
441 116
441 117
440 118
440 119
440 120
440 121
440 122
439 123
439 124
438 125
438 126
437 127
436 128
435 129
434 129
433 129
432 128
431 128
430 127
429 127
428 126
428 125
427 124
427 123
426 122
426 121
426 120
426 119
426 118
425 117
425 116
424 115
424 114
423 113
423 112
423 111
423 110
423 109
422 108
422 107
422 106
421 105
421 104
420 103
420 102
419 101
419 100
418 99
417 98
416 97
416 96
415 95
414 94
413 93
413 92
412 91
411 90
411 89
410 88
409 87
409 86
408 85
407 84
406 83
405 83
404 82
403 82
402 81
401 80
400 79
399 78
398 77
397 76
396 76
395 76
394 76
393 76
392 76
391 76
390 76
389 76
388 76
387 76
386 77
385 76
384 76
383 75
382 75
381 74
380 73
379 72
378 71
377 70
376 69
375 69
374 68
373 68
372 68
371 68
370 67
369 67
368 67
367 67
366 67
365 66
364 66
363 65
362 65
361 64
360 64
359 63
358 62
357 62
356 61
355 61
354 61
353 61
352 61
351 61
350 61
349 61
348 61
347 61
346 61
345 61
344 62
343 63
342 63
341 63
340 63
339 63
338 62
337 62
336 62
335 61
334 61
333 61
332 60
331 60
330 60
329 60
328 60
327 60
326 60
325 60
324 60
323 60
322 59
321 59
320 59
319 58
318 58
317 57
316 57
315 56
314 56
313 55
312 55
311 54
310 54
309 53
308 53
307 52
307 51
306 50
306 49
305 48
305 47
305 46
304 46
303 46
302 46
301 46
300 46
299 46
298 46
297 46
296 46
296 47
295 48
295 49
294 50
294 51
294 52
294 53
294 54
294 55
294 56
294 57
294 58
294 59
294 60
294 61
294 62
295 63
295 64
295 65
295 66
295 67
296 68
296 69
296 70
296 71
297 72
297 73
298 74
298 75
298 76
298 77
298 78
298 79
298 80
298 81
299 81
300 82
301 82
302 83
303 84
304 85
304 86
305 87
305 88
305 89
305 90
305 91
305 92
305 93
305 94
305 95
305 96
305 97
305 98
305 99
305 100
305 101
305 102
305 103
305 104
305 105
305 106
305 107
305 108
305 109
305 110
305 111
305 112
305 113
305 114
306 115
306 116
307 117
307 118
307 119
308 120
308 121
309 122
309 123
309 124
309 125
309 126
309 127
309 128
309 129
310 130
310 131
311 132
312 133
312 134
313 135
313 136
314 137
314 138
315 139
315 140
316 141
316 142
315 143
315 144
315 145
315 146
315 147
315 148
315 149
315 150
315 151
315 152
315 153
315 154
316 155
316 156
317 157
318 158
319 159
320 160
321 161
322 162
323 163
324 164
325 164
326 165
327 166
328 167
329 167
330 168
331 169
332 169
333 170
334 170
335 171
336 172
337 173
338 174
338 175
339 176
339 177
340 178
340 179
340 180
340 181
341 182
342 183
343 184
344 185
344 186
345 187
345 188
344 189
344 190
343 191
343 192
342 193
342 194
341 195
340 195
339 196
339 197
339 198
339 199
339 200
339 201
340 202
341 203
342 203
343 203
344 203
345 203
346 203
347 203
348 204
349 204
350 205
351 205
352 206
353 207
353 208
354 209
355 210
356 211
357 212
357 213
358 214
359 215
360 216
360 217
361 218
361 219
362 220
363 220
364 220
365 221
366 221
367 221
368 222
369 222
370 222
371 223
372 223
373 224
374 224
375 225
376 226
377 226
378 226
379 226
380 226
381 227
382 227
383 227
384 227
385 227
386 227
387 227
388 227
389 227
390 227
391 227
392 227
393 227
394 227
395 227
396 227
397 227
398 227
399 226
400 226
401 226
402 225
403 225
404 225
405 225
406 224
407 224
408 224
409 224
410 224
411 224
412 224
413 224
414 223
415 223
416 223
417 223
418 223
419 222
420 222
421 221
422 221
423 221
424 221
425 221
426 220
427 220
428 220
429 220
430 220
431 220
432 220
433 220
434 220
435 220
436 220
437 219
438 219
439 219
440 219
441 218
442 218
443 218
444 218
445 218
446 217
447 217
448 217
449 216
450 216
451 216
452 215
453 215
454 215
455 215
456 214
457 214
458 214
459 215
460 215
461 216
462 217
462 218
463 219
462 220
462 221
462 222
462 223
462 224
461 225
461 226
461 227
461 228
460 229
460 230
459 231
459 232
458 233
457 233
456 234
455 234
454 235
453 235
452 235
451 236
450 236
449 236
448 236
447 236
446 236
445 236
444 236
443 237
442 237
441 237
440 237
439 237
438 237
437 237
436 238
435 238
434 238
433 238
432 239
431 239
430 239
429 239
428 239
427 240
426 240
425 240
424 240
423 240
422 240
421 241
420 241
419 241
418 241
417 242
416 242
415 242
414 242
413 242
412 243
411 243
410 243
409 243
408 243
407 244
406 244
405 244
404 244
403 245
402 245
401 245
400 245
399 245
398 246
397 246
396 246
395 246
394 247
393 247
392 247
391 248
390 248
389 248
388 248
387 248
386 249
385 249
384 249
383 249
382 250
381 250
380 250
379 250
378 251
377 251
376 251
375 252
374 252
373 252
372 252
371 253
370 253
369 253
368 254
367 254
366 254
365 254
364 255
363 255
362 255
361 256
360 256
359 256
358 257
357 257
356 257
355 257
354 258
353 258
352 258
351 259
350 259
349 259
348 260
347 260
346 260
345 261
344 261
343 261
342 262
341 262
340 262
339 262
338 263
337 263
336 263
335 264
334 264
333 264
332 264
331 265
330 265
329 265
328 266
327 266
326 266
325 265
324 265
323 264
322 263
321 262
320 261
319 260
318 259
317 258
316 257
315 256
314 255
313 254
312 254
311 253
310 252
309 252
308 251
307 250
306 249
305 249
304 248
303 247
302 247
301 246
300 245
299 244
298 244
297 243
296 242
295 242
294 241
293 240
292 240
291 239
290 238
289 238
288 237
287 236
286 236
285 235
284 235
283 234
282 233
281 233
280 232
279 232
278 231
277 230
276 230
275 229
274 229
273 228
272 227
271 226
270 226
269 225
268 225
267 224
266 223
266 222
265 221
265 220
264 219
264 218
263 217
262 216
261 215
260 215
259 214
258 214
257 213
256 213
255 212
254 212
253 212
252 211
251 211
250 210
249 210
248 209
247 209
246 208
245 208
244 207
243 207
242 206
241 206
240 205
239 205
238 204
237 204
236 203
235 202
234 202
233 201
232 201
231 201
230 201
229 201
228 201
227 201
226 201
225 201
224 201
223 202
222 203
221 203
220 204
219 204
218 204
217 204
216 204
215 204
214 204
213 204
212 204
211 204
210 204
209 204
208 204
207 204
206 204
205 204
204 204
203 204
202 204
201 204
200 204
199 204
198 204
197 204
196 204
195 204
194 204
193 204
192 204
191 204
190 205
189 205
188 205
187 205
186 205
185 205
184 205
183 205
182 205
181 206
180 206
179 206
178 206
178 207
177 208
176 208
175 209
174 209
173 210
172 210
171 211
170 211
169 211
168 211
167 211
166 211
165 211
164 211
163 211
162 211
161 211
160 212
159 212
158 212
157 212
156 213
155 213
154 212
153 212
152 212
151 212
150 212
149 212
148 212
147 212
146 212
145 212
144 213
143 214
143 215
143 216
143 217
143 218
143 219
143 220
143 221
143 222
143 223
144 224
145 225
146 226
146 227
147 228
147 229
148 230
149 231
149 232
150 233
151 234
151 235
152 236
152 237
153 238
154 239
154 240
155 241
156 242
157 243
158 244
159 245
160 246
160 247
161 248
161 249
160 250
160 251
159 252
158 252
157 253
156 253
155 254
154 254
153 255
152 255
151 256
150 257
149 257
148 258
147 259
146 260
145 261
144 261
143 262
142 263
141 264
140 265
139 266
138 267
137 267
136 268
135 269
135 270
134 271
134 272
133 273
133 274
133 275
133 276
133 277
132 278
132 279
131 280
131 281
130 282
130 283
129 284
129 285
129 286
129 287
128 288
128 289
127 290
127 291
126 292
125 293
124 294
123 295
123 296
123 297
123 298
123 299
122 300
122 301
121 302
121 303
120 304
120 305
119 306
118 307
117 307
116 308
115 308
114 309
113 309
112 309
111 309
110 309
109 309
108 309
108 310
108 311
108 312
108 313
109 314
109 315
109 316
108 317
108 318
107 319
106 320
105 321
104 322
103 323
102 324
101 325
101 326
100 327
99 328
98 328
97 329
96 330
95 330
95 331
94 332
94 333
93 334
93 335
92 336
91 336
90 337
89 337
88 338
87 338
86 339
85 339
84 340
83 340
82 341
81 341
80 342
79 343
78 344
77 344
76 345
75 345
74 346
73 346
72 347
71 347
70 348
69 348
68 348
67 348
66 349
65 349
64 350
63 350
62 351
61 351
60 351
59 352
58 352
57 352
56 353
