329 39
328 40
327 40
326 40
325 40
324 40
323 40
322 40
321 40
320 40
319 40
318 41
317 41
316 41
315 41
314 41
313 41
312 41
311 42
310 41
309 41
308 41
307 42
306 42
305 42
304 42
303 42
302 42
301 42
300 42
299 42
298 42
297 42
296 43
295 43
294 43
293 43
292 43
291 43
290 43
289 43
288 44
287 44
286 44
285 44
284 44
283 44
282 45
281 45
280 45
279 45
278 45
277 45
276 46
275 46
274 46
273 46
272 46
271 46
270 47
269 47
268 48
267 48
266 48
265 48
264 49
263 49
262 49
261 49
260 49
259 49
258 49
257 49
256 49
255 49
254 49
253 49
252 49
251 50
250 50
249 50
248 51
247 52
246 53
245 53
244 54
243 54
242 55
241 55
240 56
239 56
238 56
237 56
236 56
235 56
234 56
233 56
232 57
231 57
230 57
229 57
228 57
227 57
226 58
225 58
224 58
223 58
222 59
221 59
220 60
219 60
218 61
217 61
216 61
215 62
214 62
213 62
212 63
211 63
210 63
209 64
208 64
207 65
206 65
205 65
204 66
203 66
202 66
201 66
200 66
199 66
198 65
197 65
196 66
195 66
194 66
193 66
192 67
191 67
190 67
189 67
188 67
187 67
186 67
185 67
184 68
183 68
182 69
181 69
180 70
179 70
178 70
177 70
176 70
175 71
174 71
173 71
172 71
171 72
170 72
169 72
168 73
167 73
166 74
165 74
164 74
163 74
162 75
161 75
160 75
159 76
158 76
157 76
156 77
155 78
154 78
153 78
152 79
151 79
150 80
149 80
148 81
147 82
146 82
145 83
144 83
143 83
142 84
141 84
140 84
139 85
138 85
137 85
136 85
135 86
134 86
133 87
132 88
131 89
130 89
129 90
128 90
127 90
126 91
125 91
124 92
123 92
122 93
121 94
120 95
119 95
118 96
117 97
116 97
115 98
114 98
113 99
112 100
111 100
110 100
109 101
108 101
107 101
106 102
105 102
104 103
103 103
102 104
101 105
101 106
100 107
99 107
98 108
97 108
96 109
95 109
94 110
93 110
92 111
91 111
90 112
89 113
88 114
87 115
86 116
85 117
84 118
83 118
82 119
81 120
80 121
79 121
78 122
77 123
76 124
76 125
75 126
75 127
74 128
73 129
72 129
71 130
70 131
69 132
68 132
67 133
66 133
65 134
64 135
63 135
62 136
61 137
60 137
59 138
58 138
57 139
56 140
55 141
54 142
53 143
52 143
51 144
50 145
49 146
48 147
47 148
46 148
45 149
45 150
44 151
44 152
43 153
42 153
41 154
40 155
39 156
38 157
37 157
36 158
35 159
34 160
33 160
32 161
31 162
30 163
29 164
30 165
31 165
32 166
33 167
34 168
35 168
36 169
37 169
38 170
39 171
40 171
41 172
42 173
43 174
43 175
44 176
45 177
46 178
47 179
48 179
49 180
50 181
51 182
52 183
53 184
54 185
55 185
56 186
57 187
57 188
58 189
59 190
59 191
60 192
60 193
61 193
62 194
63 195
64 195
65 196
66 197
67 198
68 199
69 199
70 200
71 201
72 202
73 202
74 203
75 204
76 205
77 205
78 206
79 207
80 207
81 207
82 208
83 209
84 210
85 211
86 212
87 213
88 214
89 214
90 215
91 216
92 217
93 218
94 219
95 219
96 220
97 221
98 222
99 222
100 223
101 223
102 224
103 225
104 225
105 226
106 227
107 227
108 227
109 228
110 229
111 230
112 231
113 232
114 233
115 233
116 234
117 234
118 235
119 235
120 236
121 236
122 237
123 237
124 238
125 238
126 239
127 239
128 239
129 240
130 241
130 242
131 243
132 244
133 244
134 245
135 245
136 246
137 246
138 247
139 247
140 247
141 248
142 249
143 250
144 251
145 251
146 252
147 252
148 252
149 253
150 253
151 253
152 254
153 254
154 254
155 255
156 255
157 255
158 256
159 256
160 256
161 257
162 258
163 258
164 258
165 259
166 259
167 259
168 260
169 260
170 260
171 261
172 261
173 262
174 262
175 262
176 263
177 264
178 264
179 265
180 265
181 265
182 266
183 266
184 266
185 267
186 267
187 267
188 267
189 268
190 268
191 268
192 269
193 269
194 269
195 270
196 270
197 270
198 271
199 271
200 271
201 271
202 271
203 272
204 272
205 273
206 274
207 274
208 275
209 275
210 275
211 275
212 275
213 275
214 275
215 275
216 275
217 276
218 276
219 276
220 276
221 276
222 276
223 276
224 276
225 277
226 277
227 277
228 277
229 277
230 278
231 278
232 278
233 279
234 279
235 279
236 279
237 280
238 280
239 280
240 281
241 281
242 282
243 282
244 283
245 284
246 285
247 286
248 286
249 286
250 286
251 286
252 286
253 286
254 286
255 286
256 286
257 287
258 287
259 287
260 287
261 287
262 287
263 287
264 287
265 288
266 288
267 288
268 288
269 288
270 289
271 289
272 289
273 289
274 289
275 289
276 290
277 290
278 290
279 290
280 291
281 291
282 291
283 292
284 292
285 292
286 292
287 293
288 293
289 293
290 293
291 294
292 294
293 295
294 295
295 295
296 296
297 296
298 297
299 297
300 297
301 298
302 298
303 298
304 298
305 297
306 297
307 297
308 296
309 296
310 296
311 296
312 296
313 296
314 295
315 295
316 295
317 294
318 294
319 294
320 294
321 294
322 294
323 293
324 293
325 293
326 293
327 293
328 293
329 293
330 293
331 293
332 293
333 293
334 293
335 293
336 293
337 294
338 294
339 294
340 294
341 294
342 294
343 293
344 293
345 293
346 294
347 294
348 294
349 294
350 294
351 294
352 294
353 294
354 294
355 294
356 294
357 294
358 294
359 294
360 294
361 294
362 294
363 294
364 294
365 294
366 294
367 294
368 295
369 295
370 295
371 295
372 295
373 295
374 295
375 295
376 295
377 295
378 294
379 294
380 294
381 294
382 294
383 294
384 293
385 293
386 293
387 293
388 292
389 292
390 292
391 291
392 291
393 291
394 291
395 290
396 290
397 290
398 290
399 289
400 289
401 289
402 289
403 288
404 288
405 288
406 288
407 288
408 287
409 287
410 287
411 287
412 287
413 286
414 286
415 286
416 286
417 286
418 286
419 286
420 285
421 285
422 285
423 285
424 285
425 285
426 284
427 284
428 284
429 284
430 283
431 283
432 283
433 283
434 283
435 283
436 282
437 282
438 282
439 282
440 282
441 282
442 281
443 281
444 281
445 280
445 279
445 278
445 277
445 276
445 275
445 274
445 273
445 272
445 271
446 270
447 270
448 270
449 269
450 269
451 269
452 269
453 269
454 268
455 268
456 268
457 268
458 268
459 268
460 268
461 268
462 268
463 268
464 268
465 268
466 268
467 268
468 268
469 267
470 267
471 267
472 266
473 266
474 266
475 265
476 265
477 265
478 264
479 264
480 264
481 263
482 263
483 263
484 262
485 262
486 262
487 262
488 262
489 261
490 261
491 261
492 261
493 260
494 260
495 260
496 260
497 259
498 259
499 259
500 258
501 258
502 258
503 257
504 257
505 257
506 256
507 256
508 256
509 256
510 255
511 255
512 255
513 254
514 254
515 254
516 254
517 253
518 253
519 253
520 252
521 252
522 252
523 251
524 251
525 251
526 250
527 250
528 250
529 249
530 249
531 249
532 249
533 248
534 248
535 247
536 247
537 246
538 246
539 245
540 245
541 245
542 244
543 244
544 244
545 243
546 243
547 242
548 242
549 242
550 241
551 241
552 240
553 240
554 240
555 239
556 239
557 238
558 238
559 237
560 236
561 236
562 235
563 235
564 234
565 234
566 233
567 233
568 233
569 232
570 231
571 231
572 230
573 230
574 230
575 229
576 229
577 228
578 228
579 227
580 227
581 227
582 226
583 226
584 225
585 224
586 224
587 224
588 223
589 223
590 222
591 222
592 221
593 220
594 220
595 220
596 219
597 219
598 218
599 218
600 217
601 217
602 216
603 216
604 215
605 215
606 214
607 214
608 214
609 213
610 213
611 213
612 212
613 212
614 212
615 211
616 211
617 210
618 210
619 209
620 209
621 209
622 208
623 208
624 207
625 207
626 206
627 206
628 205
629 205
630 204
631 204
632 203
633 203
634 203
635 202
636 202
637 201
638 201
639 201
640 201
641 200
642 200
643 199
644 199
645 198
646 198
647 197
648 197
649 196
650 196
651 195
652 195
653 194
654 193
655 193
656 192
657 192
658 191
659 190
660 190
661 189
662 189
663 188
664 188
665 188
666 187
667 187
668 187
669 186
670 185
671 184
672 184
673 183
674 182
675 182
676 181
677 180
678 180
679 179
680 178
681 177
682 177
683 176
684 176
685 175
686 174
687 173
688 173
689 172
690 171
691 171
692 170
693 170
694 169
695 168
696 168
697 167
698 166
699 166
700 165
701 164
702 164
703 163
704 163
705 162
706 161
707 161
708 161
709 160
710 159
711 159
712 158
713 158
714 158
715 157
716 157
717 157
718 156
719 156
720 156
721 156
722 155
723 155
724 155
725 155
726 155
726 154
727 153
728 153
729 152
730 152
731 152
732 151
733 151
734 150
735 150
736 150
737 150
738 149
739 149
740 148
741 148
742 147
743 147
744 148
744 149
745 149
746 148
747 148
747 147
748 146
749 145
750 145
750 144
751 143
752 142
753 141
754 140
755 140
756 140
757 139
758 139
759 138
760 137
761 136
762 135
762 134
762 133
763 132
763 131
762 130
761 129
761 128
761 127
761 126
761 125
760 124
760 123
759 123
758 122
757 122
756 122
755 122
754 122
753 122
752 122
751 123
750 123
749 123
748 124
747 124
746 124
745 125
744 125
743 126
742 127
741 127
740 128
739 129
738 129
738 130
737 131
736 131
735 132
734 133
733 133
732 134
731 135
730 136
729 137
728 138
727 139
726 139
725 140
724 140
723 140
722 141
721 142
720 143
719 144
718 144
717 145
716 145
715 145
714 146
713 146
712 147
711 147
710 148
709 148
708 149
707 149
706 149
705 150
704 150
703 150
702 151
701 151
700 151
699 152
698 152
697 152
696 153
695 153
694 153
693 154
692 154
691 154
690 154
689 155
688 155
687 156
686 156
685 156
684 156
683 157
682 157
681 157
680 157
679 158
678 158
677 158
676 158
675 159
674 159
673 159
672 160
671 160
670 160
669 160
668 160
667 161
666 161
665 161
664 161
663 161
662 162
661 162
660 162
659 162
658 162
657 162
656 163
655 163
654 163
653 163
652 163
651 163
650 163
649 163
648 164
647 164
646 164
645 164
644 164
643 164
642 164
641 165
640 165
639 164
638 164
637 163
636 163
635 162
634 161
633 161
632 160
631 159
630 158
629 158
628 157
627 156
626 155
625 155
624 154
623 153
622 152
621 151
620 151
619 150
618 149
617 149
616 148
615 147
614 147
613 146
612 146
611 145
610 145
609 144
608 144
607 143
606 142
605 142
604 141
603 140
602 140
601 139
600 138
599 138
598 137
597 136
596 136
595 135
594 134
593 134
592 133
591 133
590 132
589 131
588 131
587 130
586 130
585 129
584 128
583 128
582 127
581 126
580 126
579 125
578 125
577 124
576 123
575 123
574 122
573 121
572 121
571 120
570 119
569 119
568 118
567 118
566 117
565 117
564 116
563 115
562 115
561 114
560 113
559 113
558 112
557 111
556 111
555 110
554 110
553 109
552 109
551 108
550 108
549 107
548 106
547 106
546 106
545 105
544 105
543 104
542 104
541 104
540 103
539 103
538 102
537 102
536 102
535 101
534 101
533 101
532 100
531 100
530 100
529 99
528 99
527 98
526 98
525 98
524 98
523 97
522 97
521 97
520 96
519 96
518 96
517 95
516 95
515 95
514 94
513 94
512 93
511 93
510 93
509 92
508 92
507 91
506 91
505 91
504 90
503 90
502 90
501 89
500 89
499 88
498 88
497 88
496 87
495 87
494 86
493 86
492 85
491 85
490 84
489 84
488 83
487 82
486 82
485 81
484 81
483 80
482 80
481 80
480 80
479 79
478 79
477 78
476 78
475 78
474 77
473 77
472 76
471 76
470 76
469 75
468 75
467 75
466 74
465 74
464 73
463 72
462 72
461 71
460 71
459 71
458 70
457 70
456 69
455 68
454 68
453 68
452 67
451 66
450 66
449 66
448 65
447 65
446 64
445 64
444 63
443 63
442 62
441 62
440 62
439 61
438 61
437 61
436 60
435 60
434 60
433 60
432 59
431 59
430 59
429 59
428 58
427 58
426 58
425 58
424 58
423 58
422 58
421 58
420 58
419 58
418 58
417 57
416 57
415 57
414 57
413 57
412 57
411 56
410 56
409 56
408 56
407 56
406 55
405 55
404 55
403 54
402 54
401 53
400 53
399 52
398 52
397 51
396 50
395 50
394 49
393 49
392 49
391 48
390 47
389 47
388 47
387 46
386 46
385 45
384 45
383 45
382 45
381 44
380 44
379 43
378 43
377 43
376 43
375 43
374 44
373 44
372 44
371 44
370 44
369 44
368 44
367 44
366 44
365 44
364 44
363 45
362 45
361 44
360 43
359 43
358 43
357 43
356 43
355 43
354 43
353 43
352 43
351 42
350 42
349 42
348 42
347 42
346 42
345 42
344 41
343 41
342 41
341 41
340 40
339 40
338 40
337 40
336 40
335 40
334 40
333 40
332 40
331 40
330 39
329 39
