264 72
264 73
264 74
264 75
264 76
264 77
265 78
265 79
265 80
265 81
265 82
264 83
263 82
262 82
261 82
260 81
259 81
258 81
257 80
256 80
255 80
254 79
253 79
252 79
251 78
250 78
249 78
248 78
247 78
246 78
245 77
244 77
243 77
242 77
241 77
240 77
239 78
238 78
238 79
239 80
239 81
240 82
240 83
240 84
240 85
241 86
241 87
240 88
239 88
238 87
237 87
236 86
235 86
234 85
233 85
232 85
231 85
230 85
229 85
228 85
227 85
226 85
225 85
224 85
223 85
222 85
221 85
220 85
219 85
218 85
217 86
218 87
219 88
219 89
220 90
219 91
220 92
219 93
218 94
217 94
216 93
215 93
214 93
213 93
212 94
211 94
210 93
209 93
208 94
207 94
206 94
205 94
204 95
203 95
202 96
202 97
203 98
203 99
203 100
204 101
205 102
205 103
206 104
205 105
204 105
203 104
202 104
201 103
200 103
199 103
198 102
197 102
196 102
195 102
194 102
193 102
192 101
191 101
190 101
189 101
188 101
187 102
186 102
185 103
185 104
186 105
186 106
187 107
187 108
187 109
186 110
185 110
184 109
183 109
182 109
181 109
180 109
179 109
178 108
177 108
176 108
175 108
174 108
173 108
172 109
171 109
170 109
170 110
171 111
171 112
172 113
173 114
174 115
174 116
173 117
172 117
171 116
170 116
169 115
168 115
167 115
166 114
165 114
164 114
163 114
162 113
161 113
160 113
159 113
158 113
157 113
156 114
155 114
154 113
153 113
153 114
153 115
154 116
154 117
154 118
154 119
154 120
155 121
154 122
153 122
152 122
151 122
150 121
149 121
148 121
147 120
146 120
145 120
144 120
143 119
142 119
141 119
140 119
139 119
138 119
137 118
136 119
136 120
137 121
137 122
137 123
137 124
137 125
138 126
138 127
138 128
137 129
136 128
135 128
134 128
133 128
132 127
131 127
130 127
129 127
128 127
127 127
126 126
125 126
124 126
123 126
122 126
121 126
120 126
119 126
118 126
117 126
116 127
115 127
114 127
115 128
116 129
116 130
116 131
117 132
117 133
118 134
117 135
116 135
115 135
114 135
113 135
112 134
111 134
110 134
109 134
108 134
107 134
106 134
105 134
104 134
103 134
102 134
101 134
100 134
99 134
98 134
97 134
96 135
95 135
94 135
93 136
93 137
93 138
93 139
94 140
94 141
95 142
95 143
95 144
94 145
93 144
92 144
91 144
90 144
89 144
88 145
87 145
86 145
85 145
84 146
83 146
82 146
81 146
80 147
79 147
78 147
77 148
76 148
75 149
74 149
73 149
72 150
71 151
70 151
69 152
68 152
68 153
69 154
70 155
70 156
71 157
70 158
69 158
68 158
67 158
66 159
65 159
64 160
63 160
62 161
61 161
60 161
59 162
58 162
57 162
56 163
55 163
54 164
53 164
52 164
51 165
50 166
49 166
49 167
49 168
49 169
50 170
50 171
50 172
49 173
48 173
47 173
46 173
45 173
44 174
43 174
42 174
41 174
40 175
39 175
38 176
37 176
36 176
35 177
34 177
33 178
32 178
31 178
30 178
29 179
28 179
27 179
26 180
25 180
24 181
23 182
23 183
22 184
22 185
23 186
24 187
25 188
26 188
27 189
28 190
28 191
29 191
30 192
31 192
32 193
33 194
34 195
35 195
36 196
37 196
38 197
39 197
40 198
41 198
42 199
43 199
44 200
45 200
46 200
47 200
48 200
49 200
50 201
51 201
52 201
53 201
54 201
55 200
56 200
57 200
58 200
59 199
60 199
61 199
62 199
63 198
64 199
65 200
65 201
64 202
65 203
65 204
66 204
67 204
68 204
69 204
70 204
71 204
72 204
73 204
74 204
75 203
76 203
77 203
78 204
77 205
78 206
78 207
79 207
80 207
81 207
82 207
83 208
84 208
85 208
86 208
87 208
88 208
89 208
90 208
91 208
92 208
93 209
92 210
91 211
90 212
89 213
88 214
87 214
88 215
88 216
89 216
90 216
91 217
92 217
93 217
94 217
95 218
96 218
97 218
98 219
99 219
100 219
101 219
102 219
103 220
104 220
105 220
106 221
107 222
107 223
106 224
105 225
104 226
103 227
102 227
102 228
102 229
103 230
104 230
105 231
106 231
107 231
108 231
109 232
110 232
111 233
112 233
113 234
114 234
115 235
116 235
117 236
118 236
119 236
120 237
121 238
121 239
120 240
119 240
118 241
117 242
116 243
115 244
115 245
116 246
117 246
118 247
119 247
120 248
121 248
122 248
123 248
124 248
125 248
126 248
127 248
128 248
129 248
130 248
131 248
132 248
133 249
134 249
135 249
136 250
136 251
135 252
134 253
134 254
133 255
132 256
133 256
134 257
134 258
135 258
136 258
137 258
138 258
139 259
140 259
141 259
142 259
143 259
144 259
145 258
146 258
147 258
148 258
149 258
150 259
151 259
152 260
151 261
150 262
150 263
150 264
149 265
148 266
148 267
148 268
149 269
150 269
151 270
152 270
153 270
154 270
155 271
156 271
157 271
158 271
159 271
160 271
161 271
162 271
163 271
164 271
165 271
166 272
167 272
168 272
169 272
170 272
171 272
172 273
172 274
172 275
172 276
172 277
171 278
172 278
173 279
174 279
175 279
176 279
177 279
178 279
179 279
180 279
181 279
182 280
183 280
184 280
185 280
186 280
187 281
188 281
189 281
190 281
191 282
192 282
193 282
194 283
195 283
196 284
196 285
196 286
196 287
195 288
195 289
194 290
193 291
194 292
195 292
196 292
197 293
198 293
199 293
200 293
201 293
202 293
203 293
204 293
205 293
206 292
207 292
208 292
209 292
210 292
211 293
212 293
213 293
214 293
215 293
216 293
217 293
218 293
219 293
220 294
220 295
219 296
218 297
217 297
217 298
218 299
219 300
220 301
221 302
222 302
223 303
224 303
225 303
226 303
227 303
228 303
229 303
230 303
231 302
232 302
233 302
234 302
235 302
236 303
236 304
235 305
234 306
234 307
235 308
236 309
236 310
237 311
238 311
239 312
240 312
241 312
242 313
243 313
244 313
245 313
246 313
247 313
248 313
249 313
250 313
251 313
252 313
253 312
254 312
255 312
256 313
256 314
255 315
255 316
256 317
256 318
256 319
257 320
258 321
259 321
260 322
261 322
262 323
263 323
264 323
265 324
266 324
267 324
268 324
269 324
270 324
271 324
272 324
273 324
274 325
275 326
276 326
277 327
278 328
279 329
279 330
280 330
281 330
282 330
283 330
284 330
285 330
286 330
287 330
288 330
289 329
290 329
291 329
292 329
293 329
294 329
295 329
296 328
297 329
297 330
296 331
295 332
295 333
294 334
294 335
295 336
296 336
297 337
297 338
298 339
299 340
300 340
301 340
302 340
303 341
304 341
305 341
306 341
307 341
308 341
309 341
310 341
311 341
312 341
313 342
314 342
315 342
316 342
317 342
318 342
319 342
320 342
321 343
320 344
319 345
320 346
321 347
322 348
323 349
324 350
325 350
326 350
327 351
328 351
329 351
330 351
331 351
332 351
333 351
334 351
335 350
336 350
337 350
338 350
339 350
340 350
341 349
342 349
343 349
344 349
345 349
346 348
347 348
348 348
349 349
350 349
351 349
352 349
353 349
354 348
355 348
356 348
357 349
357 350
356 351
356 352
356 353
356 354
355 355
355 356
356 356
357 357
358 357
359 358
360 358
361 358
362 358
363 358
364 357
365 357
366 357
367 357
368 357
369 357
370 357
371 357
372 358
373 359
374 360
375 360
376 361
377 361
378 361
379 361
380 361
381 361
382 361
383 361
384 361
385 361
386 361
387 361
388 361
389 361
390 361
391 361
392 361
393 360
394 360
395 360
396 360
397 361
398 361
399 361
400 362
401 362
402 362
403 362
404 362
405 362
406 362
407 362
408 362
409 362
410 362
411 362
412 361
413 361
414 361
415 361
416 361
417 362
418 362
419 363
420 363
421 363
422 363
423 363
424 362
425 362
426 362
427 362
428 362
429 362
430 362
431 361
432 361
433 361
434 361
435 360
436 360
437 360
438 359
439 359
440 359
441 359
442 359
443 359
444 359
445 360
446 360
447 361
447 362
448 362
449 362
450 362
451 362
452 363
453 363
454 363
455 363
456 363
457 363
458 363
459 363
460 363
461 363
462 363
463 363
464 363
465 363
466 363
467 363
468 363
469 363
470 363
471 363
472 363
473 363
474 363
475 363
476 363
477 363
478 363
479 363
480 363
481 363
482 363
483 363
484 363
485 363
486 362
487 362
488 362
489 362
490 362
491 362
492 362
493 362
494 362
495 362
496 362
497 362
498 362
499 361
500 361
501 361
502 361
503 361
504 361
505 361
506 361
507 361
508 360
509 360
510 360
511 360
512 360
513 360
514 360
515 359
516 359
517 359
518 359
519 359
520 359
521 359
522 359
523 359
524 359
525 359
526 359
527 359
528 359
529 359
530 359
531 358
532 358
533 358
534 358
535 358
536 357
537 357
538 357
539 357
540 356
541 356
542 356
543 355
544 355
545 354
546 353
547 353
548 352
549 352
550 352
551 351
552 351
553 351
554 350
555 350
556 350
557 349
558 349
559 349
560 349
561 348
562 348
563 348
564 347
565 347
566 347
567 347
568 347
569 346
570 346
571 346
572 345
573 344
574 343
575 342
576 342
577 342
578 342
579 341
580 340
581 340
582 339
582 338
583 337
584 337
585 336
586 335
587 334
588 334
589 333
589 332
590 331
591 330
592 330
593 329
594 328
595 328
596 327
597 327
598 326
599 326
600 325
601 325
602 324
603 324
604 324
605 324
606 323
607 323
608 323
609 323
610 323
611 323
612 323
613 323
614 323
615 323
616 323
617 323
618 323
619 323
620 323
621 324
622 324
623 324
624 324
625 324
626 324
627 324
628 325
629 325
630 325
631 326
632 326
633 326
634 326
635 327
636 327
637 327
638 327
639 328
640 328
641 328
642 328
643 329
644 329
645 329
646 329
647 330
648 330
649 330
650 331
651 331
652 331
653 331
654 331
655 332
656 332
657 332
658 332
659 333
660 333
661 333
662 333
663 334
664 334
665 334
666 334
667 334
668 335
669 335
670 335
671 335
672 336
673 336
674 336
675 336
676 336
677 336
678 337
679 337
680 337
681 338
682 338
683 338
684 338
685 338
686 339
687 339
688 339
689 339
690 340
691 340
692 340
693 340
694 340
695 341
696 341
697 341
698 341
699 342
700 342
701 342
702 343
703 343
704 343
705 343
706 344
707 344
708 344
709 344
710 345
711 345
712 345
713 346
714 346
715 346
716 346
717 347
718 347
719 347
720 348
721 349
722 349
723 349
724 349
725 350
726 351
727 351
728 352
729 352
730 352
731 352
732 351
733 351
733 350
733 349
734 348
734 347
733 346
733 345
732 344
732 343
731 342
730 341
730 340
729 339
728 338
727 338
726 337
725 336
724 336
723 335
722 335
721 334
720 334
719 333
718 333
717 333
716 332
715 332
714 332
713 331
712 331
711 331
710 330
709 330
708 330
707 330
706 330
705 329
704 329
703 329
702 328
701 328
700 328
699 328
698 327
697 327
696 327
695 327
694 327
693 326
692 326
691 326
690 326
689 326
688 325
687 325
686 325
685 324
684 324
683 324
682 324
681 324
680 323
679 323
678 323
677 323
676 323
675 323
674 322
673 322
672 322
671 321
670 321
669 321
668 321
667 321
666 320
665 320
664 320
663 320
662 319
661 319
660 319
659 319
658 319
657 318
656 318
655 318
654 318
653 317
652 317
651 317
650 316
649 316
648 316
647 316
646 315
645 315
644 315
643 315
642 314
641 314
640 313
639 313
638 313
637 312
636 312
635 312
634 311
633 310
633 309
633 308
633 307
634 306
634 305
635 304
636 304
636 303
636 302
637 301
637 300
638 299
638 298
639 297
639 296
640 295
641 294
641 293
642 292
643 291
644 290
644 289
645 288
645 287
646 286
646 285
647 284
647 283
648 282
648 281
648 280
648 279
649 278
649 277
649 276
649 275
649 274
650 273
650 272
650 271
650 270
650 269
651 268
651 267
651 266
652 265
652 264
652 263
653 262
653 261
653 260
653 259
653 258
652 257
652 256
652 255
652 254
652 253
652 252
652 251
652 250
652 249
652 248
652 247
652 246
652 245
652 244
652 243
652 242
652 241
652 240
652 239
652 238
652 237
652 236
652 235
652 234
652 233
652 232
652 231
651 230
651 229
651 228
651 227
650 226
650 225
649 224
649 223
649 222
649 223
648 224
647 225
646 225
645 224
645 223
645 222
645 221
644 220
644 219
644 218
644 217
644 216
644 215
644 214
643 213
643 212
643 211
642 210
641 210
640 211
639 211
638 212
637 212
636 211
636 210
636 209
636 208
636 207
635 206
635 205
635 204
635 203
635 202
634 201
634 200
634 199
633 198
633 197
633 196
632 195
632 194
631 193
631 192
630 192
629 193
629 194
628 195
627 196
628 197
628 198
628 199
628 200
627 201
626 200
625 199
624 199
623 198
622 197
621 196
621 195
621 194
620 193
621 192
621 191
621 190
621 189
621 188
621 187
621 186
620 185
620 184
619 183
619 182
618 181
618 180
617 179
617 178
617 177
617 178
617 179
616 180
616 181
615 182
614 183
613 183
612 184
611 183
610 182
610 181
610 180
610 179
609 178
609 177
609 176
609 175
609 174
609 173
608 172
608 171
608 170
607 169
607 168
606 167
606 166
605 165
605 164
605 163
604 162
604 161
603 161
602 162
601 163
601 164
600 165
599 166
598 167
597 168
596 168
595 168
594 167
594 166
594 165
593 164
593 163
592 162
592 161
591 160
591 159
590 158
589 157
589 156
588 155
588 154
587 153
586 152
586 151
585 150
584 149
584 148
583 147
583 146
582 145
581 144
580 143
579 143
578 142
577 142
577 143
576 144
576 145
575 146
574 147
574 148
573 149
572 148
572 147
571 146
570 145
570 144
569 143
569 142
568 141
567 140
567 139
566 138
565 137
564 136
563 135
563 134
562 133
561 132
560 131
559 131
558 130
557 130
556 129
555 129
554 129
553 129
552 128
551 128
550 129
551 130
551 131
550 132
550 133
549 134
548 135
547 136
546 135
545 134
544 133
543 132
543 131
542 130
541 129
541 128
540 127
539 126
539 125
538 124
538 123
538 122
538 121
538 122
537 123
537 124
536 125
535 126
534 126
533 127
532 126
532 125
531 124
531 123
530 122
530 121
529 120
529 119
528 118
528 117
527 116
527 115
526 114
525 113
524 112
523 111
523 110
522 110
521 109
520 109
519 108
518 108
517 108
516 107
515 107
514 107
513 107
512 107
513 108
513 109
513 110
513 111
512 112
512 113
511 114
510 113
509 112
509 111
508 110
508 109
507 108
506 107
505 108
504 109
503 110
502 110
501 109
501 108
500 107
499 106
499 105
498 104
497 103
496 102
495 101
494 100
493 100
492 100
491 99
490 99
489 99
488 99
488 100
488 101
488 102
488 103
487 104
487 105
487 106
486 107
485 108
484 108
483 108
482 107
482 106
481 105
480 104
479 103
478 102
477 101
476 100
475 99
474 99
473 98
472 97
472 98
471 99
471 100
470 101
469 102
468 101
467 100
466 99
466 98
465 97
464 96
463 95
463 94
462 93
461 93
460 92
459 92
458 92
457 92
456 92
455 92
454 92
453 92
453 93
452 94
452 95
452 96
451 97
450 97
449 96
449 95
448 94
447 93
446 93
445 92
444 91
443 90
442 89
441 89
440 88
439 88
438 87
437 87
436 87
435 87
435 88
435 89
435 90
435 91
434 92
433 93
432 92
431 91
430 91
429 90
428 89
427 88
426 88
425 88
424 87
423 87
422 86
421 86
420 85
419 85
418 85
417 84
416 84
415 83
414 83
413 83
412 83
412 84
412 85
412 86
412 87
412 88
412 89
412 90
411 91
410 91
409 90
408 89
408 88
407 88
406 87
405 87
404 86
403 86
402 85
401 84
400 84
399 83
398 83
397 83
396 83
395 83
394 83
393 83
392 82
392 83
392 84
391 85
390 85
389 85
388 84
387 84
386 83
385 83
384 82
383 82
382 81
381 81
380 80
379 80
378 80
377 79
376 79
375 78
374 78
373 78
372 78
371 78
370 77
369 77
369 78
369 79
369 80
369 81
369 82
369 83
369 84
369 85
368 86
367 85
366 84
365 83
364 82
363 82
362 81
361 81
360 80
359 79
358 79
357 79
356 78
355 78
354 78
353 78
352 77
351 77
350 77
349 77
348 76
347 76
346 76
345 77
344 77
343 77
343 78
343 79
343 80
344 81
344 82
343 83
342 84
341 83
340 82
339 81
338 81
337 80
336 79
335 79
334 79
333 78
332 78
331 77
330 76
329 76
328 75
327 75
326 75
325 74
324 74
323 73
322 73
321 72
320 72
319 72
318 72
318 73
318 74
318 75
318 76
318 77
318 78
318 79
318 80
318 81
317 82
316 82
315 81
314 80
313 80
312 79
311 78
310 77
309 76
308 76
307 75
306 75
305 75
304 74
303 74
302 73
301 73
300 73
299 73
298 72
297 72
296 72
295 72
294 73
294 74
294 75
294 76
294 77
295 78
295 79
295 80
294 81
293 80
292 80
291 79
290 79
289 78
288 77
287 77
286 77
285 76
284 76
283 76
282 75
281 75
280 75
279 75
278 74
277 74
276 74
275 74
274 74
273 74
272 74
271 73
270 73
269 73
268 72
267 72
266 72
265 72
264 72
