417 39
417 40
418 41
418 42
418 43
418 44
419 45
418 46
417 46
416 45
415 44
414 44
413 43
412 43
411 42
410 42
409 43
408 43
407 43
406 42
405 42
404 42
403 42
402 42
401 42
400 42
399 42
398 42
397 42
396 42
395 42
394 43
394 44
393 45
392 45
391 44
390 44
389 44
388 43
387 43
386 43
385 42
384 42
383 42
382 42
381 42
381 43
380 44
379 43
378 43
377 42
376 41
375 41
374 40
373 40
372 40
371 40
370 41
369 41
370 42
369 43
368 43
367 43
366 42
366 41
365 41
364 40
363 40
362 40
362 41
362 42
361 43
360 42
359 41
358 41
357 41
356 41
355 41
354 41
353 41
352 41
351 40
350 40
349 41
348 41
347 42
346 42
345 41
344 40
345 41
346 42
345 43
344 43
343 43
342 43
341 43
340 43
339 43
338 43
337 42
336 42
335 42
334 43
333 43
332 44
333 45
333 46
333 47
332 48
331 48
330 47
329 47
328 46
327 46
326 46
325 45
324 45
323 45
322 45
321 45
322 46
322 47
321 48
320 48
319 48
318 48
317 47
316 47
315 46
314 46
313 46
312 46
312 47
311 48
310 47
309 47
308 47
307 47
306 48
305 48
304 49
303 50
302 50
301 51
302 52
301 53
300 53
299 53
298 52
297 52
296 52
295 52
294 52
293 52
292 52
291 52
290 53
289 54
290 55
290 56
289 57
288 57
287 56
286 56
285 55
284 55
283 55
283 56
282 57
281 58
280 58
279 58
278 58
277 58
276 58
275 58
274 59
273 59
272 59
271 60
270 60
269 61
268 61
267 62
266 62
265 61
264 61
264 62
265 62
266 63
267 64
268 65
267 66
266 66
265 66
264 65
263 66
262 65
261 66
260 66
259 66
259 67
258 68
259 69
260 70
259 71
258 71
257 71
256 72
255 72
254 73
253 73
252 74
251 74
251 75
250 76
249 76
248 77
247 77
246 77
245 77
246 77
247 78
247 79
248 80
247 81
246 81
245 81
244 81
243 81
242 81
241 81
240 81
239 81
238 81
237 81
236 82
235 82
234 82
235 83
234 84
234 85
234 86
235 87
236 88
237 89
237 90
236 91
235 91
234 91
233 91
232 92
231 92
230 93
229 93
228 94
227 95
226 96
225 97
225 98
226 99
225 100
224 100
223 101
222 100
221 100
220 100
219 100
218 101
217 101
216 102
215 103
214 103
213 104
212 105
212 106
211 107
210 107
209 108
208 109
207 109
208 110
209 110
210 111
209 112
208 112
207 113
206 114
206 115
205 116
204 117
205 118
204 119
203 119
202 119
201 119
202 120
201 121
200 121
199 121
198 121
197 122
196 122
195 122
194 123
194 124
193 125
192 124
191 125
190 125
191 125
192 125
193 126
192 127
191 127
190 127
189 127
188 127
189 127
190 127
191 128
192 129
193 130
192 131
191 131
190 131
189 131
188 131
187 132
186 132
185 132
184 132
183 133
182 133
182 134
181 135
180 134
179 134
179 135
180 134
181 135
182 136
183 137
184 138
183 139
182 139
181 138
181 139
180 140
179 139
178 139
177 139
176 139
175 139
174 140
173 141
172 141
171 142
171 143
171 144
172 144
173 145
173 146
172 147
171 148
170 148
169 148
168 148
167 148
166 149
165 149
164 150
165 151
164 152
163 152
162 152
161 153
160 154
159 155
159 156
158 157
157 158
156 159
156 160
156 161
157 160
158 160
159 160
160 161
160 162
159 163
158 163
157 164
156 165
155 165
154 166
153 167
152 168
152 169
153 170
152 171
152 172
152 173
153 174
154 174
155 175
156 175
157 176
156 177
156 178
155 179
156 180
157 181
158 181
159 181
160 181
161 181
162 181
163 181
164 181
165 181
166 181
167 182
167 183
167 184
167 185
168 185
169 185
170 186
169 187
168 187
167 188
166 188
166 189
165 190
164 190
163 190
162 191
162 192
161 193
160 192
159 192
158 192
157 192
156 192
155 192
154 192
153 192
152 192
151 192
150 191
149 191
148 192
147 192
146 192
145 192
144 193
143 193
142 193
141 193
140 193
139 194
140 195
141 196
141 197
142 198
143 198
144 199
143 200
143 201
142 202
141 202
140 202
139 203
138 203
137 203
136 203
135 203
134 203
133 203
132 203
131 203
131 204
130 205
130 206
130 207
130 208
131 209
131 210
132 211
133 212
134 213
134 214
135 215
136 216
137 217
136 218
135 218
134 218
133 219
132 220
131 220
130 221
129 222
128 223
128 224
127 225
126 226
127 227
126 228
127 228
128 229
129 229
130 229
131 230
131 231
132 232
133 231
134 231
135 232
136 231
137 231
138 231
139 231
140 231
141 230
142 230
143 231
144 231
145 231
146 232
146 233
147 233
148 234
147 235
146 236
146 237
146 238
147 239
146 240
145 240
144 240
143 240
142 241
141 241
140 241
139 241
138 241
137 241
136 241
135 241
134 241
133 242
134 242
135 243
134 244
134 245
133 246
133 247
132 248
131 249
130 249
129 248
128 247
127 247
126 247
125 247
124 247
123 247
122 247
121 247
120 248
119 249
118 250
117 251
116 252
115 253
114 254
114 255
115 255
116 256
116 257
115 258
114 258
113 258
112 259
111 259
110 260
109 261
110 262
109 263
108 264
107 265
106 266
105 267
104 267
103 268
102 269
102 270
103 270
104 271
103 272
104 273
103 274
102 274
101 273
101 272
101 273
102 274
101 275
100 275
101 275
102 274
103 275
103 276
104 277
103 278
102 278
101 279
100 279
99 280
98 281
97 282
96 282
95 283
95 284
94 285
93 286
93 287
93 288
94 289
93 290
94 290
95 291
96 291
97 292
98 293
97 294
96 295
95 296
94 297
93 298
92 299
91 300
90 301
90 302
89 303
89 304
88 305
89 306
89 307
88 308
87 308
86 308
85 308
84 308
83 308
82 309
81 309
80 309
79 310
78 310
77 311
76 312
75 312
75 313
74 314
74 315
75 315
76 316
75 317
74 317
73 318
72 318
71 318
70 319
69 319
68 319
67 319
66 319
65 319
64 320
63 321
62 321
63 322
64 323
63 324
62 324
61 325
60 326
59 326
58 326
57 327
56 327
55 328
54 328
53 328
52 329
51 330
50 330
49 330
50 330
51 330
52 331
52 332
51 333
51 334
51 335
50 336
50 337
50 338
49 339
49 340
49 341
48 342
47 343
47 344
46 345
46 346
46 347
45 348
44 349
44 350
44 351
44 352
43 353
42 353
42 354
42 355
41 356
40 357
40 358
40 359
39 360
38 361
38 362
37 363
37 364
36 365
36 366
37 366
38 365
39 366
40 366
41 366
42 365
43 365
44 365
45 364
46 363
47 362
48 361
49 360
50 359
51 358
51 357
52 356
53 355
53 354
54 353
55 352
56 352
57 351
58 351
59 350
60 349
61 348
62 348
63 348
64 347
65 347
66 347
67 346
67 345
67 344
68 343
68 342
69 341
70 341
71 341
72 341
73 341
74 342
75 342
76 342
77 342
78 342
79 342
80 342
81 343
82 344
83 345
84 345
85 345
86 345
87 346
88 346
89 346
90 345
91 345
92 346
93 346
94 347
95 348
96 348
97 349
98 349
99 350
100 350
101 351
102 351
103 352
104 352
105 352
106 353
107 354
108 355
108 356
108 357
109 358
109 359
110 359
111 360
112 360
113 361
112 362
112 363
113 363
114 364
114 365
115 365
116 366
116 367
117 368
117 369
118 369
119 370
120 371
121 372
122 373
123 374
124 375
125 375
126 376
127 377
128 378
129 379
129 380
129 381
129 382
130 383
129 384
130 384
131 384
132 384
133 385
133 386
134 386
135 386
136 386
137 386
138 387
138 388
137 389
137 390
136 391
136 392
136 393
135 394
136 394
137 395
136 396
137 395
138 396
139 397
139 398
140 398
141 398
142 398
143 398
144 398
145 398
146 398
147 398
148 397
149 398
149 399
148 400
147 401
146 402
145 402
145 403
146 404
147 404
148 405
149 406
150 407
151 407
152 408
153 408
154 409
155 410
156 410
157 411
158 411
159 411
160 412
161 413
160 414
159 415
159 416
158 417
158 418
158 419
157 420
158 421
159 422
159 423
159 424
159 425
159 426
159 427
160 428
160 429
160 430
161 430
162 431
163 431
164 431
165 431
166 431
167 431
168 431
169 431
170 432
171 433
170 434
170 435
170 436
171 437
172 438
173 438
174 439
175 439
176 440
177 440
178 440
179 441
178 442
177 443
176 444
176 445
175 446
176 447
176 448
177 449
178 450
179 450
180 451
181 451
182 451
183 452
184 452
185 453
186 453
187 453
188 453
189 453
190 453
191 454
191 455
190 456
190 457
190 458
189 459
189 460
190 461
191 462
190 463
189 463
190 463
191 463
192 464
193 464
194 464
195 465
194 466
195 466
196 466
197 466
198 466
199 466
200 466
201 465
202 466
203 467
204 467
205 468
206 469
206 470
206 471
207 472
208 472
209 472
210 473
211 473
212 474
212 475
213 475
214 475
215 476
216 476
217 476
218 476
219 476
220 476
221 477
220 478
219 479
218 480
217 480
216 480
216 481
217 481
218 481
219 481
220 481
221 482
222 482
223 482
224 482
225 482
226 481
227 481
228 482
229 482
230 482
231 482
232 482
233 483
234 483
235 483
236 483
237 484
238 484
239 485
238 486
238 487
237 488
237 489
237 490
237 491
237 492
237 493
238 494
238 495
237 496
236 497
236 498
235 499
234 499
233 500
232 501
233 500
234 501
235 502
236 502
237 502
238 503
239 503
240 503
241 503
242 503
243 503
244 503
245 503
246 503
247 503
248 503
249 504
248 505
247 506
246 507
245 508
245 509
244 510
243 509
244 510
245 511
246 511
247 512
248 513
249 513
250 513
251 514
252 515
251 516
252 517
253 517
254 517
255 518
256 518
257 518
258 518
259 518
260 518
261 519
260 520
259 521
258 522
257 523
256 524
255 524
254 523
254 524
255 525
256 526
257 526
258 527
259 527
260 528
261 529
262 530
263 530
264 531
265 532
266 532
267 532
268 531
269 532
269 533
270 533
271 533
272 533
273 534
274 535
275 535
276 535
277 535
278 536
278 537
278 538
278 539
279 539
280 539
281 539
282 540
283 540
284 540
285 540
286 540
287 540
288 540
289 540
290 540
291 540
292 540
293 541
293 542
293 543
294 543
295 543
296 542
297 542
298 542
299 541
300 541
301 541
302 542
301 543
301 544
300 545
299 546
298 547
297 547
296 547
297 548
298 548
299 548
300 549
301 549
302 549
303 550
304 550
305 550
306 550
307 550
308 549
309 549
310 549
311 550
312 550
313 550
314 550
315 550
316 551
317 551
318 552
317 553
318 552
319 552
320 552
321 552
322 553
322 554
323 554
324 554
325 554
326 554
327 554
328 554
329 554
330 554
331 555
332 555
333 555
334 555
335 555
336 555
337 556
338 556
339 556
340 556
341 556
342 556
343 557
344 557
345 557
346 557
347 557
348 557
349 557
350 557
351 557
352 557
353 557
354 558
355 558
356 558
357 558
358 558
359 558
360 559
361 559
362 559
363 559
364 558
365 558
366 557
367 557
368 556
369 557
370 558
369 559
370 558
371 558
372 558
373 558
374 558
375 558
376 558
377 559
378 559
379 560
380 560
381 560
382 560
383 560
384 560
385 560
386 559
387 559
388 559
389 558
390 557
391 558
391 559
391 560
392 561
391 562
392 562
393 562
394 562
395 562
396 562
397 562
398 562
399 562
400 561
401 562
401 563
400 564
401 564
402 564
403 563
404 562
405 563
406 563
407 563
408 562
409 562
410 562
411 561
412 561
413 561
414 562
413 563
412 563
413 564
414 563
415 563
416 562
417 561
418 560
419 560
420 559
421 558
422 558
423 558
424 558
425 558
426 558
427 559
428 559
429 559
430 558
431 558
432 558
433 557
434 557
435 556
436 556
437 555
438 554
439 554
440 554
441 553
442 553
443 552
444 552
445 552
446 552
447 552
448 552
449 552
450 552
451 552
452 551
453 552
454 551
455 551
456 550
457 550
458 549
458 548
459 547
460 548
461 548
462 547
463 546
464 545
465 544
466 544
467 543
468 544
469 543
470 542
471 542
472 541
473 541
474 540
475 540
476 539
477 538
478 538
479 537
480 536
481 535
481 534
482 533
483 533
484 532
485 532
485 531
486 530
486 529
487 528
488 527
488 526
489 525
490 524
491 523
491 522
492 521
492 520
493 519
493 518
494 517
494 516
495 515
496 515
497 515
498 516
498 517
499 517
500 516
500 515
501 514
501 513
502 512
502 511
503 510
503 509
504 508
505 507
506 507
507 507
508 506
508 505
509 504
510 503
511 502
511 501
511 500
512 499
513 498
513 497
514 496
515 496
516 496
517 496
518 497
519 497
520 497
521 496
521 495
522 494
523 493
523 492
524 491
524 490
525 489
525 488
525 487
525 486
526 485
526 484
526 483
527 482
527 481
528 480
529 480
530 479
531 478
532 478
533 478
534 479
533 480
532 481
533 480
534 479
535 478
536 477
536 476
537 475
538 474
538 473
539 472
539 471
539 470
539 469
540 468
541 468
541 467
541 466
541 465
541 464
541 463
541 462
541 461
541 460
541 459
541 458
541 457
542 456
543 457
543 456
543 455
543 454
543 453
543 452
543 451
543 450
543 449
542 448
542 447
542 446
543 445
543 444
542 443
543 442
544 442
545 443
546 444
547 443
547 442
547 441
547 440
547 439
547 438
547 437
547 436
547 435
547 434
547 433
547 432
547 431
547 430
547 429
546 428
546 427
546 426
546 425
546 424
547 423
547 422
548 421
549 420
550 420
551 419
551 418
551 417
551 416
550 415
550 414
550 413
549 412
549 411
549 410
548 409
548 408
548 407
547 406
547 405
547 404
546 403
546 402
546 401
546 400
545 399
545 398
545 397
544 396
544 395
544 394
543 393
543 392
542 392
541 392
540 391
539 391
538 391
537 391
536 390
535 390
534 390
533 390
532 390
531 390
530 390
529 390
528 389
528 388
527 388
526 387
526 386
526 385
526 384
526 383
526 382
526 381
525 380
525 379
525 378
525 377
525 376
525 375
525 374
524 373
524 372
524 371
523 370
522 369
521 368
521 367
520 366
520 365
520 364
520 363
520 362
520 361
520 360
520 359
521 358
521 357
521 356
521 355
521 354
521 353
521 352
521 351
521 350
521 349
521 348
521 347
521 346
521 345
521 344
521 343
520 342
520 341
520 340
520 339
520 338
519 337
519 336
519 335
519 334
519 333
519 332
518 331
518 330
518 329
517 328
517 327
517 326
517 325
516 324
516 323
515 322
515 321
515 320
514 319
514 318
513 317
513 316
513 315
512 314
512 313
512 312
513 311
514 311
515 311
516 311
517 311
518 311
519 311
520 311
521 311
522 311
523 312
524 312
525 312
526 312
527 312
528 312
529 313
530 313
531 313
532 314
533 314
534 314
535 314
536 315
537 315
538 315
539 315
540 316
541 316
542 316
543 316
544 316
545 317
546 317
547 317
548 317
549 317
550 318
551 318
552 318
553 318
554 318
555 318
556 319
557 319
558 319
559 319
560 319
561 319
562 320
563 320
564 320
565 320
566 320
567 320
568 321
569 321
570 321
571 321
572 321
573 321
574 321
575 322
576 322
577 322
578 322
579 322
580 322
581 323
582 323
583 323
584 323
585 323
586 323
587 323
588 323
589 323
590 324
591 324
592 324
593 324
594 324
595 324
596 324
597 324
598 325
599 325
600 325
601 325
602 325
603 325
604 325
605 325
606 325
607 326
608 326
609 326
610 326
611 326
612 326
613 326
614 326
615 326
616 326
617 326
618 327
619 327
620 327
621 327
622 327
623 327
624 327
625 327
626 327
627 327
628 327
629 327
630 328
631 328
632 328
633 328
634 328
635 328
636 328
637 328
638 328
639 328
640 329
641 329
642 329
643 329
644 329
645 329
646 329
647 329
648 329
649 329
650 329
651 329
652 329
653 330
654 330
655 330
656 330
657 330
658 330
659 330
660 330
661 330
662 330
663 330
664 330
665 331
666 331
667 331
668 331
669 331
670 331
671 331
672 331
673 331
674 331
675 331
676 331
677 331
678 331
679 332
680 332
681 332
682 332
683 332
684 332
685 332
686 332
687 332
688 332
689 332
690 333
691 333
692 333
693 333
694 333
695 333
696 333
697 333
698 333
699 333
700 333
701 334
702 334
703 334
704 334
705 334
706 334
707 334
708 334
709 334
710 334
711 334
712 334
713 335
714 335
715 335
716 335
717 335
718 335
719 335
720 335
721 335
722 335
723 335
724 335
725 336
726 336
727 336
728 336
729 336
730 336
731 336
732 336
733 336
734 336
735 337
736 337
737 337
738 337
739 337
740 337
741 337
742 337
743 337
744 337
745 337
746 337
747 337
748 337
749 337
750 337
751 337
752 337
753 337
754 337
755 337
756 337
757 336
758 336
759 336
760 336
761 335
762 335
763 335
764 334
765 334
766 334
767 333
768 333
769 332
770 332
771 331
772 331
773 330
774 329
775 328
776 327
776 326
777 325
777 324
777 323
776 323
775 322
776 321
775 320
774 319
774 318
774 317
773 316
773 315
772 316
771 317
770 318
769 319
768 320
767 320
766 321
765 321
764 322
763 322
762 322
761 323
760 323
759 323
758 324
757 324
756 324
755 324
754 324
753 325
752 325
751 325
750 325
749 325
748 325
747 325
746 325
745 325
744 325
743 325
742 326
741 326
740 326
739 325
738 325
737 325
736 325
735 325
734 325
733 325
732 325
731 325
730 325
729 325
728 325
727 325
726 325
725 325
724 325
723 325
722 325
721 325
720 325
719 325
718 325
717 325
716 324
715 324
714 324
713 324
712 324
711 324
710 324
709 324
708 324
707 324
706 324
705 324
704 324
703 324
702 324
701 324
700 324
699 323
698 323
697 323
696 324
695 325
694 325
693 325
692 325
691 325
690 325
689 325
688 326
687 326
686 325
685 324
684 324
683 324
682 324
681 324
680 324
679 325
678 325
677 325
676 325
675 325
674 325
673 325
672 325
671 324
671 323
672 322
673 322
674 322
675 322
676 322
677 322
678 322
679 322
680 322
681 322
682 322
683 322
682 322
681 322
680 322
679 322
678 322
677 322
676 322
675 322
674 322
673 322
672 321
671 321
670 321
669 321
668 321
667 321
666 321
665 321
664 321
663 321
662 321
661 321
660 321
659 321
658 321
657 320
656 320
655 320
654 320
653 320
652 320
651 320
650 320
649 320
648 320
647 320
646 319
645 319
644 319
643 319
642 319
641 319
640 319
639 319
638 319
637 319
636 319
635 319
634 319
633 318
632 318
631 318
632 319
631 320
630 320
629 320
628 320
627 320
626 319
627 318
628 318
629 318
628 318
627 318
626 318
625 317
624 318
623 318
622 318
621 317
620 317
619 317
618 317
617 317
616 317
615 317
614 317
613 317
612 317
611 317
610 316
609 316
608 316
607 316
606 316
605 316
604 316
603 316
602 315
601 315
600 315
599 315
598 315
597 315
596 315
595 315
594 314
593 314
592 314
591 314
590 314
589 314
588 314
587 314
586 314
585 314
584 313
583 313
582 313
581 313
580 313
579 313
578 313
577 312
576 312
575 312
574 312
573 312
572 312
571 312
570 311
569 311
568 311
567 310
566 310
565 310
564 310
563 310
562 310
561 310
560 310
559 310
558 310
557 310
556 309
555 309
554 309
553 309
552 308
551 308
550 308
549 308
548 307
547 307
546 307
545 307
544 307
543 306
542 306
541 306
540 305
539 305
538 305
537 305
536 304
535 304
534 304
533 303
532 303
531 303
530 302
529 302
528 302
527 301
526 301
525 301
524 300
523 300
522 300
521 299
520 299
519 298
518 297
519 296
520 295
521 294
522 295
522 294
523 293
524 293
525 293
526 292
527 291
528 291
527 290
528 289
529 289
530 288
531 288
532 287
533 286
534 286
535 285
536 284
537 283
538 283
539 282
540 281
541 280
542 279
543 278
544 277
545 276
546 275
547 274
548 273
549 272
550 271
551 270
551 269
552 268
553 267
553 266
554 265
555 265
556 264
557 263
558 262
559 261
559 260
560 259
561 258
561 257
562 256
562 255
563 254
563 253
564 252
564 251
565 250
565 249
565 248
566 247
566 246
566 245
567 244
567 243
567 242
567 241
567 240
567 239
567 238
567 237
567 236
567 235
567 234
567 233
567 232
567 231
567 230
567 229
567 228
567 227
567 226
566 225
566 224
566 223
567 222
568 221
569 221
570 221
571 220
572 220
573 220
574 220
575 219
576 219
577 219
578 219
579 219
580 218
580 217
579 217
578 217
577 217
576 216
577 215
578 215
579 214
580 213
581 212
582 211
582 210
583 209
584 208
585 207
585 206
586 205
586 204
585 203
584 202
585 201
586 200
586 199
586 198
587 197
587 196
587 195
587 194
587 193
587 192
588 191
588 190
588 189
588 188
588 187
587 188
586 188
585 187
585 186
585 185
586 184
587 183
587 182
586 181
587 180
587 179
587 178
586 177
586 176
586 175
586 174
586 173
585 172
585 171
584 170
583 170
582 170
581 171
580 170
580 169
579 168
579 167
578 166
578 165
577 164
577 163
576 162
576 161
575 160
575 159
574 158
573 157
572 157
571 158
570 159
569 158
569 157
568 156
567 155
566 154
565 153
564 152
563 152
562 151
561 150
560 149
559 149
558 149
557 148
558 147
559 147
559 146
558 146
557 145
557 144
557 143
557 142
557 141
557 140
557 139
557 138
557 137
557 136
556 135
556 134
556 133
557 132
557 131
557 130
557 129
557 128
557 127
557 126
557 125
558 124
558 123
558 122
558 121
558 120
557 120
556 121
556 122
555 123
554 123
553 122
553 121
553 120
553 119
553 118
553 117
553 116
553 115
553 114
553 113
553 112
553 111
554 110
554 109
554 108
554 107
554 106
553 105
553 104
553 103
552 102
552 101
552 102
551 103
550 102
549 101
549 100
548 99
548 98
547 97
546 96
545 95
544 95
543 94
542 93
541 93
542 94
542 95
542 96
541 97
540 98
539 97
539 96
539 95
539 94
538 93
538 92
538 91
538 90
537 89
537 88
536 87
536 86
536 87
535 88
534 87
533 86
533 85
532 84
531 83
530 82
529 81
528 80
527 80
526 80
525 79
524 79
523 79
522 78
521 77
520 76
520 75
519 75
518 74
517 75
516 74
516 73
515 72
515 71
514 70
513 69
512 69
511 69
510 69
509 68
508 67
507 66
506 65
505 65
504 64
503 64
502 64
501 63
500 63
499 63
498 63
497 62
496 61
496 60
495 59
495 58
494 58
493 58
492 59
491 59
490 59
489 58
489 57
488 56
488 55
487 54
487 53
486 52
485 52
485 53
484 54
483 53
482 52
481 51
480 51
479 50
478 50
477 49
476 49
475 49
474 50
473 49
472 48
473 49
474 50
474 51
474 52
474 53
473 54
472 54
471 53
471 52
470 51
469 50
468 49
467 48
467 47
466 46
466 45
465 45
464 45
463 46
462 45
461 44
460 43
459 43
458 42
457 42
456 42
455 42
454 42
453 42
453 43
454 44
454 45
453 46
453 47
452 48
451 48
450 47
449 46
448 45
447 45
446 44
445 43
444 43
443 42
442 42
441 42
440 42
439 41
438 41
437 40
438 41
439 42
439 43
438 44
437 43
436 43
435 42
434 41
433 41
432 40
432 41
432 42
431 43
430 42
429 41
428 41
427 40
426 40
425 40
424 40
423 39
422 39
421 39
420 39
419 39
418 40
417 39
