402 91
401 92
400 92
399 92
398 92
397 92
396 92
395 92
394 92
393 92
392 92
391 92
390 92
389 93
388 93
387 93
386 93
385 93
384 93
383 93
382 93
381 93
380 94
379 94
378 94
377 94
376 94
375 94
374 94
373 94
372 95
371 95
370 95
369 95
368 95
367 96
366 96
365 96
364 96
363 96
362 97
361 96
360 97
359 97
358 97
357 98
356 98
355 98
354 98
353 98
352 99
351 99
350 99
349 99
348 99
347 99
346 99
345 99
344 99
343 99
342 99
341 99
340 99
339 99
338 99
337 99
336 99
335 98
334 98
333 98
332 98
331 99
330 99
329 99
328 99
327 100
326 100
325 100
324 100
323 100
322 101
321 101
320 101
319 101
318 101
317 102
316 102
315 102
314 102
313 103
312 103
311 103
310 103
309 104
308 104
307 104
306 104
305 104
304 105
303 105
302 106
301 106
300 107
299 107
298 107
297 108
296 108
295 109
294 109
293 109
292 110
291 110
290 111
289 111
288 111
287 112
286 112
285 113
284 113
283 114
282 114
281 114
280 114
279 115
278 115
277 116
276 116
275 116
274 117
273 117
272 118
271 118
270 118
269 118
268 119
267 119
266 120
265 120
264 121
263 121
262 121
261 122
260 122
259 122
258 123
257 123
256 123
255 124
254 124
253 125
252 125
251 126
250 126
249 126
248 127
247 127
246 128
245 128
244 129
243 129
242 130
241 130
240 131
239 131
238 132
237 132
236 133
235 133
234 133
233 134
232 134
231 134
230 135
229 135
228 136
227 136
226 137
225 137
224 137
223 138
222 138
221 138
220 138
219 139
218 139
217 139
216 140
215 140
214 141
213 141
212 141
211 142
210 142
209 142
208 143
207 143
206 143
205 144
204 144
203 145
202 145
201 146
200 147
199 147
198 148
197 148
196 149
195 149
194 150
193 150
192 151
191 152
190 153
189 153
188 154
188 155
187 156
186 156
185 156
184 157
183 158
182 158
181 159
180 160
179 160
178 161
177 162
176 162
175 163
174 164
173 165
172 165
171 166
170 167
169 168
168 169
167 170
166 170
165 171
164 172
163 173
162 174
161 175
160 175
159 176
158 177
157 177
156 177
155 178
154 179
153 180
152 180
151 181
150 182
149 182
148 183
147 184
146 185
145 185
144 186
143 187
142 187
141 188
140 189
139 190
138 190
137 191
136 191
135 192
134 192
133 192
132 193
131 193
130 194
129 194
129 195
128 196
127 197
126 197
125 198
124 199
123 200
122 201
121 202
120 203
119 204
118 205
117 205
116 206
115 207
114 208
113 209
112 210
112 211
111 212
110 212
109 213
108 214
107 215
106 216
105 217
104 217
103 218
102 218
101 219
100 220
99 221
98 221
97 222
96 223
95 223
94 224
93 225
92 226
91 227
90 228
89 229
88 230
87 231
86 231
85 232
84 232
83 233
82 234
81 235
80 236
79 236
78 237
77 238
76 239
75 240
74 241
73 241
72 242
71 243
70 244
69 245
68 245
67 246
67 247
66 248
65 249
64 250
63 251
62 252
61 253
61 254
60 255
60 256
60 257
60 258
60 259
60 260
60 261
60 262
60 263
60 264
61 265
61 266
62 267
62 268
63 269
64 270
64 271
64 272
65 273
65 274
66 275
67 276
67 277
68 278
69 279
69 280
70 281
71 282
72 283
72 284
73 285
73 286
74 286
75 287
76 288
77 289
78 290
79 291
80 292
81 293
81 294
82 295
83 296
84 297
85 298
86 299
87 299
88 300
89 301
89 302
90 303
91 304
92 305
93 305
94 306
94 307
95 308
96 309
96 310
97 310
98 309
99 308
100 307
101 307
102 308
101 309
100 310
99 311
98 312
98 313
99 314
99 315
100 316
101 316
102 317
103 318
103 319
104 320
105 321
106 321
107 322
107 323
107 324
108 324
109 325
110 326
111 327
111 328
112 329
112 330
113 330
114 331
115 332
116 333
117 334
118 335
119 336
120 337
121 338
122 339
123 340
124 341
125 342
126 343
127 344
128 345
129 346
130 347
131 348
132 349
133 349
134 350
135 351
135 352
136 352
137 353
138 354
139 355
140 356
141 357
142 358
143 358
144 359
145 360
145 361
146 361
147 362
148 363
149 363
150 364
151 365
152 366
153 366
154 367
155 368
156 369
157 370
158 371
159 371
160 372
161 373
162 374
163 375
164 376
165 376
166 377
167 378
168 379
169 380
170 380
171 381
172 382
173 382
174 383
175 384
176 384
177 385
178 386
179 387
180 387
181 388
182 388
183 389
184 390
185 391
186 391
187 392
188 392
189 393
190 393
191 394
192 394
193 395
194 395
195 396
196 396
197 397
198 397
199 398
200 398
201 399
202 399
203 400
204 400
205 401
206 402
207 403
208 403
209 404
210 405
211 406
212 407
213 408
214 408
215 409
216 410
217 411
218 411
219 412
220 413
221 414
222 415
223 415
224 416
225 417
226 418
227 418
228 419
229 419
230 420
231 420
232 421
233 421
234 422
235 423
236 423
237 424
238 424
239 425
240 425
241 426
242 426
243 426
244 427
245 427
246 428
247 428
248 429
249 429
250 430
251 430
252 431
253 431
254 431
255 432
256 432
257 433
258 433
259 434
260 435
261 435
262 435
263 436
264 436
265 436
266 437
267 437
268 438
269 438
270 438
271 439
272 439
273 440
274 440
275 440
276 441
277 441
278 441
279 441
280 442
281 442
282 442
283 442
284 443
285 443
286 443
287 443
288 444
289 444
290 444
291 444
292 444
293 445
294 445
295 445
296 445
297 446
298 446
299 446
300 446
301 446
302 447
303 447
304 447
305 448
306 448
307 448
308 449
309 450
310 450
311 451
312 451
313 452
314 452
315 453
316 453
317 454
318 455
319 456
320 456
321 456
322 457
323 458
324 458
325 458
326 459
327 459
328 459
329 459
330 459
331 459
332 460
333 460
334 460
335 461
336 461
337 461
338 462
339 462
340 462
341 463
342 463
343 463
344 464
345 464
346 464
347 464
348 465
349 465
350 465
351 465
352 465
353 465
354 465
355 465
356 465
357 466
358 466
359 466
360 466
361 466
362 466
363 466
364 467
365 467
366 467
367 467
368 467
369 467
370 467
371 467
372 467
373 467
374 467
375 467
376 468
377 468
378 468
379 468
380 468
381 468
382 468
383 468
384 468
385 468
386 468
387 468
388 468
389 468
390 468
391 468
392 468
393 468
394 468
395 468
396 467
397 467
398 467
399 467
400 467
401 467
402 466
403 466
404 466
405 466
406 466
407 466
408 465
409 465
410 465
411 465
412 465
413 465
414 464
415 464
416 464
417 464
418 464
419 463
420 463
421 463
422 463
423 463
424 462
425 462
426 462
427 461
428 461
429 461
430 460
431 460
432 459
433 459
434 459
435 458
436 458
437 457
438 457
439 457
440 456
441 456
442 456
443 455
444 455
445 455
446 454
447 454
448 454
449 453
450 453
451 452
452 452
453 452
454 451
455 451
456 451
457 450
458 450
459 450
460 450
461 449
462 449
463 449
464 449
465 449
466 448
467 448
468 448
469 448
470 447
471 447
472 447
473 446
474 446
475 445
476 445
477 445
478 444
479 444
480 444
481 443
482 443
483 443
484 442
485 442
486 441
487 441
488 441
489 440
490 439
491 439
492 438
493 438
494 437
495 437
496 436
496 435
497 434
498 434
499 433
500 432
501 433
502 433
503 432
504 432
505 432
506 431
507 431
508 431
509 430
510 430
511 430
512 429
513 429
514 428
515 428
516 427
517 426
518 426
519 425
520 425
521 424
522 424
523 423
524 422
525 422
526 421
527 421
528 420
529 420
530 419
531 419
532 418
533 417
534 417
535 416
536 416
537 415
538 414
539 413
540 413
541 412
542 411
543 411
544 410
545 409
546 408
547 408
548 408
549 407
550 406
551 405
552 404
553 403
554 403
555 402
556 402
557 401
558 400
559 399
560 399
561 398
561 397
562 396
563 396
564 395
565 395
566 394
567 393
568 393
569 392
570 391
571 390
572 390
573 389
574 388
575 387
576 386
577 385
578 384
579 383
580 382
581 381
582 380
583 379
584 378
585 377
586 376
586 375
587 374
588 373
589 372
590 371
591 370
591 369
592 368
592 367
593 366
593 365
594 364
595 363
595 362
596 361
596 360
595 360
594 359
593 359
592 359
591 359
590 358
589 358
588 358
587 358
586 357
585 356
584 355
583 354
584 353
584 352
584 351
584 350
585 349
585 348
586 347
586 346
586 345
587 344
587 343
587 342
587 341
588 340
589 340
590 339
591 339
592 339
593 339
594 339
595 338
596 338
597 338
598 338
599 338
600 337
601 337
602 336
603 336
604 336
605 336
606 336
607 336
608 337
609 337
610 336
611 336
612 337
613 337
614 337
615 336
616 336
617 335
618 334
618 333
619 332
620 332
620 331
621 330
622 329
623 329
624 328
624 327
624 326
625 325
626 325
626 324
626 323
626 322
627 321
628 321
628 320
628 319
629 318
630 317
631 317
631 316
632 315
633 314
634 313
634 312
635 311
636 311
637 310
638 309
639 309
640 309
641 308
642 307
643 307
644 307
645 306
646 306
647 306
648 306
649 306
650 305
651 305
652 305
653 305
654 304
655 304
656 304
657 304
658 304
659 304
660 304
661 304
662 304
663 303
664 303
665 303
666 303
667 303
668 303
669 303
670 303
671 303
672 303
673 303
674 303
675 302
676 302
677 302
678 302
679 302
680 302
681 302
682 302
683 302
684 302
685 302
686 301
687 301
688 301
689 301
690 301
691 301
692 301
693 301
694 301
695 300
696 300
697 300
698 300
699 300
700 300
701 299
702 299
703 299
704 299
705 299
706 299
707 298
708 298
709 298
710 298
711 297
712 297
713 297
714 296
715 296
716 296
717 296
718 296
719 295
720 295
721 295
722 295
723 294
724 294
725 294
726 293
727 292
728 292
729 291
730 291
731 290
732 290
733 289
734 288
735 288
736 287
737 286
737 285
738 284
738 283
739 282
739 281
739 280
738 279
738 278
738 277
738 276
737 275
737 274
736 273
736 272
737 271
736 270
735 270
734 270
733 270
732 270
731 271
730 271
729 272
728 272
727 272
726 273
725 274
724 274
723 273
722 274
721 275
720 275
719 276
718 276
717 276
716 276
715 277
714 277
713 277
712 278
711 278
710 278
709 278
708 279
707 279
706 279
705 280
704 280
703 280
702 280
701 280
700 280
699 281
698 281
697 281
696 281
695 281
694 281
693 282
692 282
691 282
690 282
689 282
688 282
687 283
686 282
685 283
684 283
683 283
682 283
681 283
680 283
679 283
678 283
677 283
676 283
675 283
674 283
673 283
672 284
671 284
670 284
669 283
668 283
667 284
666 284
665 284
664 285
663 284
662 283
661 284
660 284
659 283
658 284
657 285
656 284
655 284
654 284
653 284
652 283
651 283
650 283
649 283
648 283
647 283
646 282
645 281
644 281
643 280
642 280
641 279
641 278
640 278
639 277
639 276
638 275
638 274
639 273
638 274
637 274
636 273
636 272
636 271
636 270
635 269
634 268
634 267
633 266
633 265
632 264
632 263
631 262
631 261
631 260
630 259
629 258
629 257
628 256
628 255
628 254
627 253
627 252
626 251
625 250
624 249
624 248
623 247
622 246
621 245
621 244
620 243
620 242
619 241
619 240
618 239
618 238
617 237
616 236
616 235
615 234
614 233
613 232
613 231
612 230
611 229
611 228
610 228
609 227
609 226
608 225
608 224
607 223
606 222
605 221
604 220
604 219
603 218
602 217
601 216
600 215
600 214
599 213
598 212
598 211
597 210
596 209
595 208
594 207
593 206
593 205
592 204
591 203
590 202
589 201
588 200
587 199
587 198
586 197
585 196
584 195
583 194
583 193
582 193
581 192
580 191
579 190
578 189
578 188
577 188
576 187
576 186
575 185
574 184
573 183
572 182
571 182
570 181
570 180
569 179
568 178
567 177
566 176
565 175
564 175
563 174
562 173
561 172
560 171
559 170
559 169
558 168
557 167
556 166
555 165
554 164
553 163
552 162
551 161
550 161
549 160
548 159
547 158
546 157
545 157
544 156
543 155
542 154
541 154
540 153
539 152
538 151
537 150
536 149
535 149
534 148
533 147
532 146
531 145
530 144
529 143
528 142
527 142
526 141
525 140
524 139
523 139
522 138
521 137
520 136
519 135
518 134
517 133
516 133
515 132
514 131
513 131
512 130
511 129
510 128
509 128
508 127
507 127
506 126
505 125
504 124
503 124
502 123
501 123
500 122
499 121
498 120
497 120
496 119
495 119
494 118
493 118
492 117
491 117
490 116
489 116
488 115
487 115
486 114
485 114
484 113
483 113
482 113
481 112
480 112
479 111
478 111
477 110
476 110
475 110
474 110
473 109
472 109
471 108
470 108
469 108
468 108
467 107
466 107
465 106
464 106
463 105
462 105
461 105
460 105
459 104
458 103
457 103
456 103
455 103
454 102
453 102
452 102
451 101
450 101
449 100
448 100
447 101
446 100
445 99
444 99
443 99
442 99
441 99
440 98
439 98
438 98
437 98
436 97
435 97
434 97
433 96
432 96
431 96
430 96
429 95
428 95
427 95
426 95
425 95
424 94
423 94
422 94
421 94
420 94
419 94
418 93
417 93
416 93
415 93
414 93
413 92
412 92
411 92
410 92
409 92
408 92
407 92
406 92
405 92
404 92
403 91
402 91
