307 39
306 40
305 40
304 41
303 42
302 43
301 44
300 44
299 44
298 43
297 43
296 43
295 43
294 44
293 44
292 44
291 45
290 45
289 44
288 44
287 44
286 44
285 44
284 43
283 43
282 44
281 44
280 44
279 45
279 46
279 47
278 48
277 49
276 50
275 50
274 50
273 50
272 50
271 50
270 50
269 51
269 52
268 53
267 53
266 54
265 54
264 53
263 53
262 53
261 52
260 52
259 52
258 52
257 52
256 52
255 53
254 53
253 54
253 55
252 56
253 57
252 58
251 59
250 60
249 60
248 60
247 60
246 60
245 60
244 60
243 61
242 61
241 62
241 63
240 64
240 65
239 66
238 66
237 67
236 67
235 66
234 66
233 66
232 66
231 66
230 66
229 67
228 67
227 67
226 68
225 68
225 69
224 70
224 71
223 72
224 73
223 74
222 74
221 75
220 76
219 76
218 77
217 77
216 78
215 78
214 78
213 78
212 79
211 79
210 80
209 81
209 82
209 83
209 84
208 85
207 85
207 86
206 87
205 87
204 87
203 87
202 88
201 88
200 88
199 89
198 89
197 88
196 88
195 88
194 88
193 88
192 89
191 89
190 90
190 91
190 92
190 93
190 94
189 95
190 96
189 97
188 97
187 96
186 96
185 96
184 97
183 97
182 97
181 98
180 99
179 99
179 100
179 101
179 102
178 103
177 104
177 105
176 106
175 106
174 106
173 107
173 108
172 109
171 109
170 109
169 109
168 109
167 109
166 109
165 110
164 110
163 111
162 112
162 113
161 114
162 115
162 116
162 117
161 118
161 119
160 120
159 121
158 121
157 122
156 123
156 124
156 125
155 126
155 127
154 128
153 128
152 128
151 128
150 128
149 128
148 128
147 128
146 129
145 130
144 131
144 132
143 133
143 134
143 135
142 136
142 137
141 138
141 139
140 140
139 141
138 142
137 143
136 143
135 143
134 143
133 143
132 144
132 145
131 146
131 147
131 148
130 149
130 150
131 151
130 152
129 152
128 152
127 152
126 152
125 152
124 153
123 153
122 154
121 155
120 155
119 156
119 157
118 158
118 159
118 160
118 161
118 162
118 163
117 164
116 165
115 166
114 166
113 166
112 167
111 168
110 169
109 169
108 170
107 171
107 172
107 173
107 174
107 175
107 176
106 177
105 178
105 179
104 180
103 180
102 180
101 181
100 181
99 182
98 183
97 184
97 185
96 186
96 187
96 188
96 189
96 190
95 191
94 192
93 193
92 194
91 195
90 196
89 196
88 196
87 197
86 197
85 197
84 197
83 198
82 199
81 200
81 201
81 202
81 203
80 204
79 205
78 206
77 206
76 207
75 208
74 209
73 209
72 210
71 210
70 210
69 211
68 211
67 212
67 213
66 214
65 215
64 216
63 217
62 216
61 217
60 217
59 217
58 217
57 218
56 218
55 218
54 219
53 220
52 221
51 222
50 223
49 223
48 222
47 222
46 222
45 222
44 221
43 221
42 222
41 222
40 222
39 222
38 223
37 223
36 224
35 224
34 224
33 225
32 225
31 226
30 226
29 227
28 228
27 229
26 230
26 231
25 232
26 232
27 233
27 234
28 235
28 236
29 237
30 238
30 239
31 240
32 241
32 242
33 241
34 242
34 243
35 244
36 245
37 245
38 246
39 247
40 247
41 248
42 248
43 249
44 250
45 251
46 251
47 252
48 252
49 252
50 253
51 254
52 255
53 255
54 255
55 256
56 257
57 257
58 258
59 258
60 259
61 259
62 260
63 260
64 261
65 262
66 262
67 262
68 263
68 264
69 264
70 265
71 265
72 266
72 267
73 268
74 269
75 270
76 271
77 271
78 271
79 272
80 273
81 274
82 275
83 276
84 276
85 277
86 278
86 279
86 280
86 281
86 282
87 283
88 284
89 285
90 286
91 286
92 286
93 287
94 287
95 287
96 288
95 289
96 290
96 291
97 292
98 293
99 294
100 294
101 295
100 296
100 297
100 298
100 299
100 300
100 301
101 302
102 303
103 304
104 305
105 306
106 306
107 306
108 307
109 307
110 308
110 309
111 310
112 311
112 312
113 312
114 313
115 314
116 315
115 316
114 317
114 318
114 319
114 320
115 321
115 322
116 322
117 323
118 324
119 324
120 324
121 325
122 326
122 327
123 326
124 327
125 327
126 327
127 328
128 329
129 330
130 331
131 331
132 332
133 332
134 333
135 333
136 334
137 335
136 336
135 337
134 338
134 339
134 340
135 341
136 342
137 343
138 344
139 344
140 345
141 346
142 346
143 346
144 347
143 348
144 348
145 349
146 350
147 350
148 351
149 352
148 353
147 354
148 355
148 356
148 357
148 358
148 359
148 360
149 361
150 361
151 361
152 362
153 362
154 363
155 364
156 364
157 365
158 366
159 366
160 367
160 368
161 369
161 370
161 371
162 372
163 373
164 374
165 374
166 375
167 375
168 375
169 376
170 376
171 377
171 378
171 379
172 380
172 381
173 382
174 383
175 384
176 384
177 384
178 384
179 385
180 384
181 385
182 384
183 385
183 386
184 387
185 388
186 389
187 389
188 389
189 390
189 391
189 392
188 393
188 394
188 395
188 396
189 397
190 398
191 398
192 398
193 399
194 399
195 399
196 400
196 401
197 402
198 402
199 403
200 403
201 403
202 403
203 404
204 404
205 405
206 406
207 407
208 407
209 408
210 408
211 408
212 408
213 408
214 409
213 410
214 411
215 411
216 411
216 410
217 409
218 410
218 411
218 412
217 413
218 414
219 415
220 416
221 417
222 417
223 417
224 417
225 418
226 418
227 419
226 420
227 420
228 420
229 420
230 420
231 421
232 421
233 421
234 421
235 421
236 422
237 422
238 422
239 423
240 423
241 424
242 424
243 425
242 426
243 425
244 425
245 426
246 426
247 426
248 426
249 426
250 426
251 426
252 427
253 428
254 428
255 428
256 428
257 428
258 428
259 429
260 429
261 429
262 429
263 429
264 429
265 429
266 429
267 429
268 429
269 429
270 430
271 429
272 429
273 430
273 431
274 432
275 432
276 432
277 432
278 432
279 432
280 432
281 431
282 431
283 431
284 431
285 432
286 432
287 433
288 434
288 435
288 436
289 437
290 437
291 438
292 438
293 437
294 437
295 436
296 436
297 436
298 436
299 436
300 436
301 436
302 436
303 436
304 437
305 437
306 438
307 438
308 438
309 439
310 438
311 438
312 438
313 438
314 438
315 438
316 439
317 439
318 439
319 440
320 440
321 440
322 440
323 440
324 440
325 440
326 440
327 440
328 440
329 440
330 440
331 440
332 440
333 440
334 440
335 440
336 440
337 441
338 441
339 441
340 441
341 440
342 440
343 440
344 440
345 440
346 440
347 440
348 439
349 440
350 440
351 439
352 439
353 439
354 439
355 439
356 439
357 439
358 440
359 439
360 439
361 439
362 439
363 439
364 439
365 439
366 438
367 438
368 437
369 437
370 437
371 437
372 437
373 437
374 436
375 436
376 436
377 436
378 435
379 435
380 434
381 433
382 433
383 432
384 431
385 431
386 430
387 430
388 429
389 429
390 428
391 428
392 428
393 428
394 427
395 427
396 426
397 426
398 425
399 424
400 423
400 422
401 421
401 420
402 419
403 418
404 418
405 417
406 417
407 417
407 416
408 415
409 415
410 414
411 413
412 412
413 412
414 412
415 412
416 412
417 412
418 412
419 412
420 412
421 411
421 410
422 409
422 408
423 407
424 406
425 405
426 404
427 403
428 402
429 401
430 401
431 401
432 401
433 400
434 399
435 398
436 398
437 397
438 397
439 396
440 396
441 397
442 397
443 397
444 397
445 397
446 396
447 395
448 395
449 394
450 393
451 393
452 393
453 393
454 393
455 393
456 393
457 393
458 393
459 392
460 392
461 392
462 392
463 392
463 391
464 390
465 390
466 389
467 389
468 389
469 389
470 388
471 388
472 388
473 387
474 387
475 386
476 386
477 386
478 385
479 384
480 384
481 384
482 383
483 383
484 382
485 382
486 381
487 381
488 381
489 381
490 381
490 380
490 379
491 378
492 378
493 377
494 377
495 376
496 376
496 375
497 374
497 373
497 372
498 371
499 371
500 370
501 369
502 369
503 368
504 367
505 367
506 367
507 366
508 366
509 366
510 366
511 366
512 365
512 364
513 363
513 362
513 361
514 360
515 360
516 360
517 359
518 359
519 358
519 357
520 356
521 356
522 356
523 355
524 355
525 355
526 355
527 354
527 353
528 352
528 351
529 350
529 349
529 348
529 347
529 346
530 345
531 344
532 344
533 343
533 342
534 341
535 340
536 339
536 338
537 337
538 337
539 337
540 336
541 336
542 335
542 334
542 333
542 332
542 331
543 330
543 329
543 328
543 327
544 326
545 326
546 325
546 324
547 323
547 322
547 321
548 320
549 320
550 320
551 320
551 319
552 318
552 317
553 316
553 315
553 314
553 313
553 312
553 311
553 310
553 309
553 308
554 307
555 306
555 305
555 304
556 303
556 302
557 301
558 300
559 300
560 299
561 299
561 298
561 297
561 296
562 295
562 294
561 293
561 292
561 291
561 290
561 289
561 288
561 287
561 286
560 285
560 284
560 283
560 282
560 281
560 280
560 279
560 278
560 277
560 276
560 275
560 274
560 273
560 272
560 271
560 270
560 269
560 268
560 267
559 266
559 265
560 264
560 263
560 262
560 261
560 260
560 259
561 258
561 257
561 256
561 255
562 254
562 253
563 252
564 251
565 250
566 250
566 249
567 248
568 248
569 248
570 247
571 246
572 246
573 245
573 244
573 243
573 242
574 241
575 240
576 239
577 238
578 238
579 237
580 236
581 235
582 235
583 234
584 234
585 233
586 233
587 232
588 232
589 232
590 231
591 230
592 230
593 230
594 229
595 229
596 228
597 228
598 227
599 226
600 226
601 225
602 225
603 224
604 224
605 224
606 223
607 222
608 222
609 222
610 221
611 220
612 220
613 220
614 219
615 219
616 218
617 218
618 217
619 217
620 216
621 215
622 216
623 215
624 214
625 213
626 214
627 213
628 212
629 212
630 211
631 211
631 210
632 209
633 210
634 209
635 208
636 208
637 208
638 208
639 207
640 206
641 206
642 205
643 205
644 205
645 204
646 204
647 204
648 203
649 202
650 202
651 201
652 201
653 201
654 200
655 200
656 199
657 199
658 199
659 198
660 198
661 198
662 198
662 197
663 196
664 197
665 196
666 196
667 195
668 195
669 194
670 194
671 194
672 193
673 193
674 193
675 192
676 192
677 192
678 191
679 191
680 191
681 191
682 190
683 190
684 189
685 189
686 188
687 188
688 187
689 187
690 188
691 187
692 186
693 187
694 187
695 186
696 186
697 185
698 185
699 185
700 185
701 184
702 184
703 184
704 183
705 183
706 183
707 183
708 182
709 182
710 182
711 181
712 181
713 181
714 181
715 180
716 180
717 180
718 179
719 179
720 179
721 179
722 179
723 178
724 178
725 178
726 178
727 177
728 177
729 177
730 177
731 177
732 177
733 176
734 176
735 176
736 176
737 176
738 175
739 175
740 175
741 175
742 175
743 175
744 175
745 174
746 174
747 173
748 173
749 173
750 173
751 172
751 171
752 170
753 169
754 169
755 169
756 169
757 169
758 168
759 168
759 167
759 166
759 165
758 165
757 165
756 166
755 165
755 164
755 163
755 162
755 161
754 160
753 159
752 160
751 160
750 161
749 161
750 161
751 162
751 163
751 164
752 164
753 165
752 166
751 166
750 166
749 166
748 166
747 166
746 166
745 167
744 168
743 167
742 167
741 167
740 168
739 168
738 168
737 168
736 168
735 168
734 168
733 168
732 169
731 169
730 169
729 169
728 169
727 169
726 170
725 170
724 170
723 169
724 170
723 171
722 171
721 171
720 171
719 171
718 171
717 170
718 171
717 172
716 172
715 171
714 172
713 172
712 172
711 172
710 173
709 172
709 173
708 174
707 174
706 174
705 175
704 174
703 174
702 175
701 175
700 174
699 173
700 174
699 175
698 176
697 176
696 177
695 177
694 177
693 177
692 177
691 178
690 177
689 178
688 179
687 179
686 179
685 180
684 181
683 181
682 181
681 181
681 182
680 183
679 183
678 182
677 182
676 183
675 184
674 184
673 184
672 185
672 186
671 187
670 187
669 186
668 187
667 188
666 188
665 188
664 189
663 190
662 190
661 189
662 188
663 187
662 188
661 189
661 190
660 191
659 190
658 190
657 191
656 192
655 192
654 193
653 192
653 193
652 194
651 194
650 194
649 194
648 195
647 196
646 197
645 198
644 197
643 198
642 199
641 199
640 199
639 199
638 200
637 201
636 200
636 199
635 199
636 200
636 201
635 202
634 201
633 201
632 200
633 201
633 202
632 203
631 203
630 203
629 204
628 204
628 205
627 206
626 206
625 207
624 207
623 207
622 208
621 208
620 208
619 209
618 210
617 210
616 210
615 211
614 211
613 212
612 213
611 213
610 214
609 214
608 215
607 215
606 216
605 216
604 216
603 217
602 217
601 218
600 218
601 218
602 219
601 220
600 220
599 220
598 219
597 220
596 220
595 219
594 219
593 220
592 220
591 221
590 222
589 222
588 222
587 222
586 223
585 223
584 224
583 224
582 225
581 225
580 226
579 226
578 227
577 227
577 228
577 229
576 230
575 229
574 229
573 229
572 229
571 229
570 229
569 230
568 230
567 230
566 230
566 231
565 232
564 233
563 234
562 234
561 233
560 233
559 232
558 232
557 231
557 230
556 229
556 228
556 227
555 226
554 225
555 224
556 224
556 223
556 222
556 221
556 220
556 219
556 218
556 217
556 216
557 215
557 214
557 213
557 212
557 211
557 210
557 209
557 208
557 207
557 206
557 205
557 204
557 203
557 202
557 201
556 201
555 200
555 199
554 198
553 197
552 198
551 197
551 196
551 195
550 194
550 193
550 192
549 191
549 190
548 190
547 189
547 188
547 187
547 186
547 185
548 184
547 183
547 182
546 181
546 180
546 179
545 178
544 177
543 176
542 175
541 175
540 174
539 173
539 172
539 171
539 170
538 169
537 168
536 167
536 166
536 165
536 164
536 163
536 162
535 161
535 160
535 159
534 158
534 157
533 156
533 155
532 155
531 154
530 154
529 154
528 154
527 154
526 153
525 153
524 152
524 151
524 150
523 149
523 148
523 147
522 146
521 145
520 144
519 143
518 142
517 142
516 141
516 140
516 139
515 139
514 138
514 137
513 136
513 135
513 134
513 133
512 132
511 132
510 131
509 132
508 132
507 132
506 132
505 133
504 132
503 131
502 130
501 129
500 128
499 127
499 126
498 125
497 125
496 124
495 124
494 125
493 125
492 124
493 123
492 123
491 122
491 121
490 120
490 119
490 118
489 118
488 117
487 116
487 115
487 114
486 113
486 112
485 111
484 111
483 110
482 109
481 110
480 110
479 111
478 111
477 111
476 111
475 111
474 110
473 109
472 108
472 107
471 107
470 106
469 106
468 105
467 104
467 103
467 102
467 101
466 100
465 99
464 98
463 98
462 98
461 98
460 98
459 99
458 99
457 99
456 98
456 97
456 96
455 95
455 94
454 93
453 92
452 92
451 91
450 91
449 90
449 89
449 88
448 87
448 86
448 85
447 84
447 83
446 82
445 81
444 80
443 79
442 79
441 79
440 80
439 81
438 80
437 80
436 80
435 79
434 78
433 77
432 77
431 77
430 76
429 75
428 74
427 73
427 72
427 71
426 70
426 69
425 68
424 67
423 66
422 66
421 66
420 66
419 66
418 66
417 66
416 66
415 66
414 66
413 65
413 64
412 63
411 63
410 63
409 63
408 62
407 61
407 60
406 59
405 58
405 57
404 56
403 55
402 55
401 54
400 54
399 55
398 56
397 56
396 56
396 57
395 58
394 57
393 56
392 55
392 54
391 53
390 53
389 52
388 52
387 52
386 53
385 52
384 52
383 52
382 51
381 50
380 50
379 49
378 48
378 47
377 46
376 45
375 45
374 45
373 45
372 44
371 45
370 45
369 46
368 47
367 47
366 47
365 48
364 47
363 46
362 46
361 45
360 45
359 45
358 45
357 45
356 45
355 46
355 47
354 48
353 47
353 46
352 47
351 46
350 45
350 44
349 44
348 43
347 42
346 42
345 42
344 41
343 41
342 41
341 41
340 41
339 41
338 42
337 43
336 44
335 44
334 45
333 45
332 44
331 44
330 43
329 43
328 42
327 42
326 42
325 42
324 43
323 44
322 44
321 44
320 44
319 44
318 43
317 43
316 42
315 42
314 41
313 41
312 40
311 40
310 40
309 39
308 39
307 39
