308 109
308 110
307 111
307 112
306 113
306 114
306 115
305 116
305 117
305 118
304 119
304 120
304 121
304 122
304 123
303 124
303 125
303 126
303 127
303 128
303 129
303 130
303 131
303 132
303 133
303 134
303 135
304 136
304 137
304 138
304 139
304 140
303 141
302 141
301 140
300 140
299 139
298 139
297 139
296 138
295 138
294 138
293 137
292 137
291 137
290 137
289 137
288 136
287 136
286 136
285 136
284 136
283 136
282 136
281 136
280 136
279 137
278 137
277 137
276 137
275 138
274 138
273 138
272 139
271 139
270 139
269 140
268 140
267 141
266 142
265 142
264 143
263 144
262 145
261 146
260 147
259 148
258 148
257 149
256 149
255 150
254 151
254 152
255 153
256 154
257 154
258 155
259 156
259 157
259 158
260 159
260 160
261 161
262 162
262 163
263 164
263 165
263 166
264 167
264 168
265 169
265 170
266 171
266 172
267 173
267 174
268 175
268 176
269 177
269 178
270 179
271 180
271 181
272 182
272 183
273 184
273 185
274 186
274 187
275 188
276 189
276 190
277 191
277 192
278 193
279 194
279 195
279 196
280 197
281 198
281 199
282 200
283 201
283 202
284 203
285 204
285 205
286 206
287 207
287 208
288 209
289 210
290 211
290 212
291 213
292 214
293 215
294 216
295 217
296 218
297 219
298 220
299 221
300 222
300 223
301 224
301 225
302 225
303 226
304 227
304 228
305 229
305 230
306 230
307 231
308 232
308 233
309 234
310 235
311 236
312 237
313 238
314 239
314 240
315 241
316 242
317 243
318 244
319 245
320 246
320 247
321 248
322 249
322 250
323 251
324 252
324 253
325 254
326 255
327 256
327 257
328 258
329 259
330 260
330 261
331 262
332 263
333 264
333 265
334 266
335 267
336 268
337 269
337 270
338 271
339 272
340 273
340 274
341 275
342 276
342 277
343 278
344 279
344 280
345 281
346 282
346 283
347 284
347 285
348 286
349 287
349 288
350 289
350 290
351 291
351 292
352 293
353 294
353 295
354 296
354 297
355 298
356 299
356 300
357 301
358 302
358 303
359 304
359 305
359 306
358 307
357 308
356 308
355 308
354 308
353 308
352 309
351 309
350 309
349 309
348 309
347 308
346 308
345 308
344 308
343 308
342 308
341 308
340 307
339 307
338 307
337 307
336 306
335 306
334 305
333 305
332 304
331 304
330 303
329 303
328 302
327 302
326 302
325 301
324 301
323 300
322 300
321 300
320 299
319 299
318 299
317 298
316 298
315 298
314 297
313 297
312 297
311 296
310 296
309 296
308 295
307 295
306 295
305 294
304 294
303 294
302 294
301 293
300 293
299 293
298 293
297 292
296 292
295 292
294 291
293 291
292 290
291 290
290 290
289 289
288 289
287 289
286 289
285 289
284 288
283 288
282 288
281 287
280 287
279 287
278 286
277 286
276 286
275 286
274 286
273 286
272 286
271 286
270 286
269 286
268 286
267 286
266 286
265 285
264 285
263 285
262 285
261 285
260 285
259 284
258 284
257 284
256 284
255 284
254 283
253 283
252 283
251 283
250 283
249 282
248 282
247 282
246 282
245 282
244 282
243 281
242 281
241 281
240 281
239 281
238 281
237 281
236 281
235 281
234 281
233 281
232 281
231 281
230 281
229 281
228 281
227 281
226 281
225 281
224 280
223 280
222 280
221 280
220 280
219 280
218 280
217 280
216 280
215 280
214 280
213 280
212 280
211 280
210 280
209 280
208 280
207 280
206 280
205 280
204 280
203 280
202 280
201 280
200 280
199 280
198 280
197 280
196 280
195 280
194 280
193 280
192 280
191 280
190 280
189 281
188 281
187 281
186 282
185 282
184 282
183 282
182 282
181 282
180 282
179 283
178 283
177 283
176 283
175 284
174 284
173 284
172 284
171 284
170 285
169 285
168 285
167 286
166 286
165 287
164 287
163 288
162 288
161 288
160 288
159 288
158 287
157 287
156 288
157 289
157 290
157 291
158 292
158 293
159 294
159 295
159 296
160 297
160 298
160 299
160 300
161 301
161 302
161 303
162 304
162 305
163 306
163 307
164 308
165 309
166 310
167 311
167 312
168 312
169 313
169 314
170 314
171 315
172 316
173 317
174 317
175 318
176 319
177 320
178 321
179 322
180 322
181 323
182 324
183 325
184 326
185 327
186 328
187 329
186 330
185 331
184 331
183 332
182 332
181 332
180 333
179 333
178 333
177 334
176 334
175 334
174 335
173 335
172 335
171 336
170 336
169 337
168 337
167 338
166 338
165 339
164 340
163 341
162 341
161 342
160 343
159 344
158 345
157 346
156 347
155 348
155 349
154 350
153 350
152 351
151 351
150 352
149 353
148 354
147 355
146 356
145 357
145 358
144 359
144 360
145 361
145 362
144 363
143 363
143 364
143 365
144 366
144 367
145 368
146 369
146 370
146 371
146 372
147 373
147 374
147 375
148 376
149 376
150 377
150 378
151 379
151 380
152 381
153 382
153 383
154 384
155 385
156 386
157 387
158 388
159 388
160 389
161 390
162 391
163 391
164 392
165 392
166 393
167 393
168 394
169 394
170 395
171 396
172 396
173 396
174 397
175 397
176 398
177 398
178 398
179 399
180 399
181 399
182 400
183 400
184 400
185 400
186 400
187 400
188 400
189 401
190 401
191 401
192 401
193 401
194 401
195 401
196 401
197 401
198 401
199 401
200 401
201 401
202 401
203 400
204 400
205 400
206 400
207 400
208 400
209 400
210 400
211 399
212 400
213 400
214 400
215 400
216 400
217 400
218 401
219 402
219 403
218 404
217 405
216 406
215 407
215 408
214 409
213 410
212 411
211 412
210 413
209 414
208 415
207 416
206 417
205 418
204 419
203 420
202 421
201 421
200 422
199 423
198 424
197 425
196 426
195 427
195 428
194 429
193 429
193 430
192 431
191 432
190 432
189 433
189 434
188 435
187 436
186 437
186 438
185 439
184 440
184 441
183 442
182 443
182 444
181 445
180 446
179 446
178 447
178 448
179 449
180 449
181 449
182 450
183 451
183 452
183 453
184 452
185 453
185 454
186 454
187 455
188 455
189 455
190 456
191 457
192 457
193 458
193 459
194 459
195 460
196 460
197 461
198 461
199 462
200 463
201 463
202 463
203 464
204 464
205 465
206 465
207 465
208 465
209 466
210 466
211 466
212 466
213 466
214 466
215 466
216 467
217 467
218 467
219 467
220 467
221 467
222 467
223 467
224 467
225 467
226 467
227 467
228 467
229 467
230 467
231 467
232 467
233 467
234 467
235 466
236 466
237 466
238 466
239 466
240 466
241 466
242 466
243 466
244 466
245 466
246 466
247 466
248 466
249 466
250 466
251 465
252 465
253 465
254 465
255 465
256 465
257 465
258 465
259 464
260 464
261 464
262 464
263 464
264 464
265 464
266 464
267 463
268 463
269 463
270 463
271 463
272 463
273 463
274 462
275 462
276 462
277 462
278 462
279 462
280 462
281 461
282 461
283 461
284 461
285 460
286 460
287 460
288 460
289 459
290 459
291 459
292 459
293 458
294 458
295 458
296 458
297 458
298 457
299 457
300 456
301 456
302 456
303 456
304 455
305 455
306 454
307 454
308 454
309 454
310 454
311 453
312 453
313 452
314 452
315 452
316 451
317 451
318 451
319 450
320 450
321 449
322 449
323 448
324 448
325 447
326 446
327 446
328 446
329 445
330 445
331 444
332 444
333 443
334 443
335 442
336 442
337 441
338 441
339 440
340 440
341 440
342 439
343 438
344 438
345 438
346 437
347 437
348 436
349 435
350 435
351 434
352 434
353 433
354 433
355 433
356 432
357 432
358 432
359 431
360 431
361 431
362 430
363 430
364 430
365 430
366 429
367 429
368 429
369 429
370 429
371 429
372 429
373 428
374 428
375 428
376 428
377 428
378 428
379 429
380 429
381 430
381 431
381 432
380 433
380 434
379 435
379 436
378 437
378 438
377 439
377 440
376 441
376 442
375 443
375 444
374 445
374 446
373 447
373 448
372 449
372 450
371 451
371 452
370 453
370 454
369 455
369 456
368 457
367 458
367 459
366 460
365 461
365 462
364 463
364 464
363 465
363 466
362 467
362 468
361 469
361 470
360 471
359 472
359 473
358 474
357 475
357 476
356 477
356 478
355 479
355 480
354 481
353 482
353 483
352 484
352 485
351 486
351 487
350 488
350 489
349 490
349 491
348 492
348 493
347 494
347 495
346 496
346 497
345 498
345 499
344 500
344 501
343 502
343 503
342 504
342 505
341 506
341 507
340 508
340 509
340 510
339 511
339 512
338 513
338 514
337 515
337 516
337 517
336 518
336 519
336 520
335 521
335 522
335 523
334 524
334 525
334 526
333 527
333 528
333 529
332 530
332 531
332 532
332 533
331 534
331 535
331 536
330 537
330 538
329 539
329 540
329 541
328 542
328 543
328 544
327 545
327 546
327 547
326 548
326 549
326 550
326 551
325 552
325 553
325 554
325 555
325 556
324 557
324 558
324 559
324 560
324 561
323 562
323 563
323 564
323 565
322 566
322 567
322 568
322 569
322 570
322 571
321 572
321 573
321 574
320 575
320 576
320 577
319 578
319 579
319 580
318 581
318 582
318 583
318 584
317 585
317 586
317 587
317 588
317 589
317 590
316 591
316 592
315 593
315 594
314 595
313 596
313 597
313 598
314 599
315 599
316 599
317 599
318 600
319 600
320 601
320 602
321 603
321 604
322 604
323 605
324 605
325 606
326 606
327 607
328 607
329 607
330 607
331 607
332 608
333 608
334 608
335 608
336 608
337 608
338 608
339 608
340 608
341 608
342 608
343 608
344 608
345 608
346 608
347 608
348 608
349 609
350 610
351 611
352 612
352 613
352 614
353 615
353 616
354 617
354 618
355 619
355 620
355 621
356 622
356 623
356 624
356 625
357 626
357 627
357 628
357 629
358 630
358 631
358 632
359 632
360 632
361 632
362 631
363 631
364 631
365 631
366 630
367 630
368 629
369 629
370 629
371 628
372 628
373 627
374 627
375 626
376 625
377 625
378 624
379 623
380 623
381 622
382 621
383 620
384 619
385 618
386 617
387 616
388 615
389 614
390 613
391 612
392 611
393 611
394 610
395 609
396 608
397 608
398 607
399 606
399 605
400 604
401 603
402 602
402 601
403 600
404 599
405 598
405 597
406 596
407 595
407 594
408 593
409 592
409 591
410 590
411 589
411 588
412 587
413 586
413 585
414 584
415 583
416 582
416 581
417 580
418 579
419 578
420 577
421 576
422 575
423 574
424 573
425 572
426 571
427 570
428 569
429 568
429 567
430 566
431 565
431 564
432 563
432 562
432 561
433 560
433 559
434 558
435 557
435 556
435 555
436 554
436 553
437 552
438 551
438 550
439 549
439 548
440 547
440 546
441 545
442 544
442 543
443 542
443 541
444 540
445 539
446 538
447 537
448 537
449 536
450 536
451 535
452 535
453 534
454 534
455 533
456 533
457 532
458 531
459 531
460 530
461 529
462 528
463 527
464 527
464 526
465 525
466 525
466 524
467 523
468 522
469 522
469 521
470 520
471 519
472 519
473 518
474 517
474 516
475 515
476 514
477 513
478 512
479 511
480 510
480 509
481 508
482 507
483 506
483 505
484 504
485 503
486 502
486 501
487 500
487 499
488 498
488 497
489 496
489 495
490 494
491 493
491 492
492 491
492 490
492 489
493 488
494 487
495 486
495 485
496 484
496 483
497 482
497 481
498 480
499 479
499 478
500 477
500 476
501 475
502 474
502 473
503 472
503 471
504 470
505 469
506 468
506 467
507 466
507 465
508 464
508 463
509 462
509 461
510 460
510 459
511 458
512 457
512 456
512 455
513 454
514 453
514 452
515 451
515 450
516 449
516 448
517 447
517 446
518 445
518 444
519 443
519 442
520 441
521 440
521 439
522 438
522 437
523 436
523 435
524 434
524 433
525 432
526 431
527 430
527 429
528 428
529 427
530 426
530 425
531 424
532 423
533 422
534 421
534 420
535 419
536 418
537 417
538 416
539 415
539 414
540 413
541 412
541 411
542 410
543 410
543 409
544 408
545 407
546 406
547 405
548 404
549 403
550 402
551 401
552 400
553 399
554 398
555 397
555 396
556 395
557 395
558 394
559 393
560 392
560 391
561 390
562 389
563 388
564 387
565 386
566 386
567 385
568 384
569 383
570 382
571 381
572 381
573 380
574 379
575 378
576 378
577 377
578 376
579 376
580 375
581 374
582 374
583 373
584 373
585 372
586 371
587 370
588 370
589 369
590 369
591 368
592 368
593 367
594 366
595 365
596 365
597 364
598 364
599 363
600 363
601 362
602 362
603 362
604 362
605 361
606 361
607 361
608 361
609 360
610 360
611 360
612 360
613 360
614 360
615 359
616 359
617 359
618 359
619 359
620 359
621 359
622 358
623 358
624 358
625 358
626 358
627 358
628 358
629 357
630 357
631 357
632 357
633 357
634 357
635 357
636 357
637 357
638 356
639 356
640 356
641 356
642 356
643 356
644 356
645 356
646 355
647 355
648 355
649 355
650 355
651 355
652 355
653 355
654 354
655 354
656 354
657 354
658 354
659 354
660 353
661 353
662 353
663 353
664 353
665 353
666 353
667 352
668 352
669 352
670 352
671 352
672 352
673 352
674 351
675 351
676 351
677 351
678 351
679 351
680 350
681 350
682 350
683 350
684 350
685 350
686 349
687 349
688 349
689 349
690 349
691 349
692 348
693 348
694 348
695 348
696 348
697 348
698 347
699 347
700 347
701 347
702 347
703 347
704 346
705 346
706 346
707 346
708 346
709 346
710 346
711 345
712 345
713 345
714 345
715 344
716 344
717 344
718 344
719 344
720 344
721 344
722 344
723 344
724 344
725 344
726 344
727 343
728 343
729 343
730 343
731 343
732 343
733 343
734 343
735 343
736 343
737 343
738 343
739 343
740 343
741 343
742 342
743 342
744 342
745 341
746 340
747 340
748 339
749 338
750 337
751 337
752 336
752 335
753 334
753 333
753 332
752 331
752 330
751 329
750 329
749 328
748 328
747 328
746 327
745 326
744 326
743 326
742 326
741 327
740 327
739 327
738 327
737 327
736 327
735 328
734 328
733 328
732 329
731 329
730 329
729 329
728 330
727 329
726 330
725 330
724 330
723 330
722 330
721 330
720 330
719 331
718 331
717 331
716 331
715 331
714 332
713 332
712 332
711 332
710 332
709 332
708 332
707 333
706 333
705 333
704 334
703 334
702 334
701 334
700 334
699 335
698 335
697 335
696 336
695 336
694 336
693 336
692 336
691 336
690 337
689 337
688 337
687 337
686 337
685 337
684 338
683 338
682 338
681 338
680 339
679 339
678 339
677 339
676 339
675 340
674 340
673 340
672 340
671 340
670 340
669 341
668 341
667 341
666 341
665 341
664 341
663 341
662 342
661 342
660 342
659 342
658 342
657 342
656 342
655 342
654 342
653 343
652 343
651 343
650 343
649 343
648 343
647 343
646 344
645 344
644 344
643 344
642 344
641 344
640 344
639 344
638 344
637 344
636 344
635 345
634 345
633 345
632 345
631 345
630 345
629 345
628 345
627 345
626 345
625 345
624 346
623 346
622 346
621 346
620 346
619 346
618 346
617 346
616 346
615 346
614 346
613 346
612 346
611 346
610 346
609 346
608 346
607 346
606 346
605 346
604 346
603 346
602 346
601 346
600 346
599 345
598 345
597 345
596 344
595 344
594 343
593 343
592 343
591 343
590 342
589 342
588 342
587 341
586 341
585 341
584 340
583 340
582 340
581 339
580 339
579 339
578 338
577 338
576 338
575 337
574 337
573 337
572 336
571 336
570 336
569 335
568 335
567 334
566 334
565 334
564 333
563 333
562 332
561 332
560 331
559 330
558 330
557 329
556 329
555 329
554 328
553 327
552 327
551 326
550 325
549 325
548 324
547 323
546 322
545 321
544 320
543 320
542 319
541 318
540 318
539 317
538 316
537 315
537 314
536 313
535 313
534 312
533 311
532 310
532 309
531 308
530 307
529 306
528 305
528 304
527 303
526 302
525 301
525 300
524 299
523 298
522 297
522 296
521 295
520 294
519 293
519 292
518 291
517 290
517 289
516 288
515 287
515 286
514 285
513 284
513 283
512 282
512 281
511 280
510 279
509 278
508 277
508 276
507 275
506 274
505 273
504 272
504 271
503 270
502 269
501 268
500 267
500 266
499 265
498 264
497 263
496 262
495 261
494 260
494 259
493 258
492 257
491 256
490 255
489 254
488 253
487 252
486 251
485 250
485 249
484 248
483 247
482 246
481 245
480 244
479 243
478 242
477 241
476 240
475 239
474 238
473 237
472 236
471 235
470 234
470 233
469 232
468 231
467 230
466 229
465 229
464 228
464 227
463 226
462 225
461 224
460 223
459 222
458 221
457 220
456 219
455 219
454 218
453 217
452 216
451 215
450 214
449 213
448 212
448 211
447 210
446 209
445 208
444 207
443 206
442 205
441 204
440 203
439 202
438 201
437 200
436 199
435 198
434 197
433 196
432 195
431 194
431 193
430 192
429 191
428 190
427 189
426 188
426 187
425 187
424 186
423 185
423 184
422 183
421 182
420 182
419 181
418 180
417 179
416 178
415 178
414 177
413 177
412 176
411 175
410 174
409 173
408 172
407 172
406 171
405 170
404 169
403 168
402 168
401 167
401 166
400 165
399 165
398 164
397 163
396 162
395 161
394 160
393 159
392 158
391 157
390 156
389 155
388 155
387 154
386 153
385 152
384 151
383 151
382 150
381 150
380 149
379 148
378 147
377 147
376 146
375 145
374 144
373 143
372 142
371 142
370 141
369 140
368 139
367 139
366 138
365 137
364 136
363 136
362 135
361 134
360 133
359 132
358 131
357 130
356 130
355 129
354 128
353 128
352 127
351 126
350 126
349 125
348 124
347 124
346 125
345 126
344 127
343 128
342 129
341 128
340 127
339 126
338 125
337 124
336 124
335 123
334 123
333 122
332 121
331 121
330 120
329 119
328 119
327 119
326 118
325 117
324 117
323 116
322 116
321 115
320 114
319 114
318 113
317 113
316 113
315 112
314 112
313 111
312 110
311 110
310 109
309 109
308 109
