292 33
291 34
291 35
291 36
291 37
291 38
291 39
291 40
291 41
290 42
290 43
290 44
290 45
290 46
289 47
289 48
289 49
288 50
288 51
288 52
287 53
286 54
285 55
285 56
284 57
283 58
282 59
281 60
281 61
280 62
279 63
279 64
278 65
277 66
276 67
275 68
274 69
273 69
272 69
271 68
270 68
269 68
268 67
267 67
266 66
265 65
264 64
263 65
262 65
262 66
262 67
261 68
261 69
261 70
261 71
261 72
260 73
260 74
260 75
260 76
260 77
260 78
260 79
260 80
261 81
261 82
261 83
261 84
261 85
261 86
260 87
260 88
259 89
259 90
259 91
258 92
258 93
258 94
259 95
259 96
259 97
258 98
258 99
257 100
256 101
255 101
254 101
253 101
252 100
251 100
250 99
249 98
248 97
247 96
246 95
245 94
244 93
243 92
242 91
242 90
241 89
240 88
240 87
239 86
239 85
238 84
238 83
237 82
237 81
236 80
236 79
235 78
235 77
234 76
233 75
232 74
232 73
231 72
230 71
230 70
229 69
228 68
228 67
227 66
226 65
225 64
224 63
224 62
223 61
222 60
221 59
221 58
220 57
220 56
220 55
220 54
219 53
219 52
219 51
218 50
218 49
217 48
216 47
216 46
216 47
216 48
216 49
216 50
216 51
216 52
216 53
216 54
216 55
216 56
216 57
216 58
215 59
214 60
213 61
212 62
211 63
210 64
209 65
208 66
207 67
206 67
205 68
204 68
203 69
202 69
201 69
200 69
199 69
198 69
197 69
196 69
195 69
194 68
193 67
192 67
191 66
190 66
189 65
188 65
187 64
186 64
185 63
184 62
183 62
182 61
181 60
180 60
179 59
178 59
177 58
176 57
175 56
174 56
173 55
172 54
171 53
170 52
169 51
168 50
167 49
166 48
165 47
164 46
163 45
163 46
163 47
163 48
163 49
163 50
163 51
163 52
163 53
163 54
162 55
161 56
160 57
159 57
158 58
157 58
156 59
155 59
154 59
153 59
152 59
151 59
150 59
149 59
148 59
147 58
146 58
145 58
144 57
143 57
142 57
141 56
140 56
139 56
138 55
137 55
136 54
135 54
134 53
133 53
132 52
131 52
130 51
129 50
128 49
127 49
126 48
125 47
124 47
125 48
125 49
126 50
126 51
127 52
128 53
128 54
129 55
129 56
129 57
130 58
130 59
130 60
130 61
131 62
131 63
131 64
131 65
131 66
131 67
131 68
130 69
130 70
130 71
130 72
129 73
128 74
127 75
126 75
125 75
124 76
123 76
122 76
121 75
121 76
121 77
122 78
123 79
124 80
125 81
125 82
126 83
126 84
127 85
128 86
128 87
129 88
130 89
130 90
131 91
131 92
132 93
132 94
132 95
132 96
133 97
133 98
133 99
133 100
133 101
133 102
132 103
132 104
131 105
130 106
129 107
128 108
127 108
126 109
125 109
124 110
123 110
122 111
121 111
120 111
119 111
118 110
117 110
117 111
118 112
119 112
120 113
121 114
122 115
123 115
124 116
125 117
126 118
127 118
128 119
129 120
130 121
131 121
132 122
133 122
134 123
135 123
136 124
137 124
138 125
139 125
140 126
141 126
142 127
143 128
144 129
145 130
146 131
147 131
148 132
149 133
150 133
151 133
152 134
153 135
153 136
154 137
154 138
155 139
156 140
156 141
157 142
157 143
157 144
157 145
157 146
157 147
157 148
157 149
157 150
156 151
155 151
154 150
153 150
152 150
151 150
150 149
149 149
148 149
147 148
146 148
145 148
144 147
143 147
142 146
141 146
140 145
139 145
138 144
137 144
136 143
135 143
134 142
133 142
132 141
131 141
130 140
129 140
128 139
127 139
126 138
125 138
124 137
123 137
122 136
121 135
120 134
119 133
118 133
117 132
116 132
115 132
114 132
113 131
112 131
111 131
110 131
109 130
108 130
107 130
106 129
105 129
104 129
103 129
102 128
101 128
100 127
99 127
98 127
97 126
96 126
95 126
94 126
93 125
92 125
91 125
90 124
89 124
88 123
87 123
86 122
85 121
84 121
83 120
82 120
81 119
80 118
80 119
81 120
81 121
82 122
82 123
83 124
84 125
84 126
84 127
84 128
84 129
84 130
84 131
84 132
84 133
84 134
84 135
84 136
84 137
83 138
83 139
83 140
83 141
83 142
83 143
83 144
82 145
82 146
82 147
81 148
81 149
80 150
79 151
78 152
77 152
76 152
75 152
74 153
73 153
72 153
71 153
70 153
69 154
68 154
67 154
66 154
65 155
64 155
63 155
62 156
61 156
60 156
59 156
58 157
57 157
56 157
55 157
54 157
53 157
52 157
51 157
50 156
49 156
48 156
47 155
46 155
45 154
44 154
43 154
44 155
45 156
46 157
46 158
47 159
47 160
48 161
48 162
48 163
48 164
48 165
48 166
48 167
48 168
47 169
46 170
46 171
45 172
44 173
43 174
42 175
41 176
40 177
39 178
38 178
37 179
36 179
35 180
34 180
33 181
32 181
31 181
30 182
29 182
28 182
27 182
26 183
25 183
24 183
23 183
22 183
21 183
20 184
19 184
20 184
21 184
22 185
23 185
24 185
25 186
26 186
27 187
28 187
29 188
30 188
31 189
32 189
33 190
33 191
34 192
35 193
36 194
37 195
37 196
38 197
39 198
39 199
40 200
41 201
42 202
43 203
43 204
44 205
44 206
45 207
44 208
44 209
44 210
44 211
43 212
43 213
42 214
41 215
40 215
39 216
38 216
37 216
36 217
35 217
34 217
35 217
36 218
37 218
38 218
39 218
40 218
41 219
42 219
43 219
44 219
45 220
46 220
47 221
48 221
49 222
50 222
51 222
52 223
53 223
54 224
55 224
56 225
57 225
58 226
59 226
60 226
61 227
62 227
63 228
64 228
65 229
66 230
67 230
68 231
69 232
70 232
71 233
72 234
73 235
73 236
73 237
73 238
72 239
72 240
72 241
71 242
71 243
70 244
70 245
69 246
69 247
68 248
67 249
67 250
66 251
66 252
65 253
65 254
64 255
63 256
62 257
61 258
60 259
59 259
58 260
57 260
56 261
55 261
54 261
53 261
52 261
53 261
54 262
55 262
56 262
57 262
58 262
59 262
60 262
61 261
62 261
63 261
64 261
65 261
66 261
67 261
68 261
69 262
70 262
71 262
72 262
73 262
74 263
75 263
76 263
77 263
78 264
79 264
80 264
81 264
82 264
83 264
84 264
85 264
86 264
87 264
88 264
89 264
90 264
91 264
92 264
93 264
94 264
95 264
96 264
97 264
98 264
99 263
100 263
101 263
102 263
103 263
104 263
105 262
106 262
107 262
108 262
109 262
110 262
111 262
112 262
113 262
114 262
115 261
116 261
117 261
118 261
119 262
120 262
121 262
122 262
123 262
124 262
125 261
126 261
127 261
128 261
129 261
130 261
131 261
132 260
133 260
134 260
135 261
136 261
137 261
138 261
139 261
140 261
141 262
141 263
141 264
140 265
140 266
140 267
140 268
139 269
138 269
137 270
136 271
135 271
134 272
133 273
132 273
131 274
130 274
129 275
128 275
127 276
126 276
125 277
124 278
123 279
122 280
121 281
120 281
119 281
118 281
117 282
116 282
115 282
114 282
113 283
112 283
111 283
110 283
109 283
108 283
107 284
106 284
105 284
104 285
103 285
102 286
101 286
100 286
99 287
98 287
97 287
96 288
95 288
94 288
93 288
92 289
91 289
90 289
89 289
88 289
89 290
90 290
91 291
92 291
93 292
94 292
95 293
95 294
96 294
97 295
97 296
98 297
98 298
99 299
99 300
100 301
100 302
100 303
100 304
100 305
99 306
99 307
98 308
98 309
97 310
96 311
96 312
95 313
94 314
93 315
92 316
91 317
90 318
90 319
89 320
88 321
87 321
86 322
85 323
85 324
85 325
86 326
86 327
86 328
86 329
86 330
86 331
86 332
85 333
84 334
84 335
83 336
82 337
81 337
80 338
79 339
78 340
77 341
76 342
75 342
75 343
76 343
77 343
78 343
79 343
80 343
81 342
82 342
83 342
84 342
85 341
86 341
87 341
88 341
89 341
90 341
91 341
92 341
93 341
94 341
95 341
96 341
97 341
98 341
99 341
100 341
101 342
102 342
103 342
104 343
105 343
106 344
107 344
108 345
109 345
110 346
110 347
111 348
111 349
111 350
111 351
111 352
111 353
110 354
110 355
110 356
109 357
109 358
108 359
109 358
110 358
111 357
112 356
113 356
114 355
115 355
116 354
117 354
118 354
119 353
120 353
121 353
122 353
123 353
124 353
125 353
126 353
127 353
128 353
129 353
130 352
131 352
132 352
133 352
134 352
135 352
136 352
137 352
138 352
139 352
140 352
141 352
142 352
143 352
144 352
145 353
146 353
147 353
148 354
149 355
150 356
151 357
151 358
152 359
152 360
153 361
153 362
153 363
153 364
154 365
154 366
154 367
154 368
154 369
154 370
154 371
154 372
154 373
154 374
154 375
154 376
153 377
153 378
153 379
152 380
152 381
151 382
150 383
149 383
150 383
151 383
152 382
153 381
154 380
155 379
156 378
157 377
158 376
159 375
160 375
161 374
162 373
163 372
164 372
165 371
166 371
167 371
168 370
169 369
170 369
171 368
172 368
173 367
174 367
175 366
176 366
177 365
178 364
179 364
180 363
181 362
182 362
183 361
184 360
185 359
186 358
187 358
188 357
189 356
190 355
191 355
192 354
193 353
194 352
195 352
196 352
197 351
198 351
199 350
200 350
201 349
202 348
203 348
204 347
205 347
206 347
207 347
208 347
209 347
210 347
211 348
212 349
212 350
212 351
212 352
212 353
212 354
212 355
212 356
212 357
212 358
212 359
212 360
212 361
212 362
212 363
212 364
212 365
212 366
211 367
211 368
211 369
211 370
211 371
211 372
210 373
210 374
210 375
210 376
210 377
210 378
210 379
210 380
210 381
211 380
212 380
213 379
214 380
215 380
216 381
217 382
218 383
218 384
219 385
219 386
220 387
220 388
221 389
221 390
222 391
222 392
222 393
222 394
223 395
223 396
223 397
223 398
222 399
222 400
222 401
222 402
222 403
221 404
221 405
221 406
221 407
221 408
220 409
220 410
220 411
220 412
221 411
222 410
223 409
224 408
225 407
225 406
226 405
227 404
228 403
228 402
229 401
230 400
231 399
231 398
232 397
233 396
234 395
235 395
236 394
237 393
238 392
239 391
240 391
241 390
242 389
243 389
244 389
245 389
246 390
247 390
248 389
248 388
249 387
249 386
250 385
250 384
251 383
251 382
252 381
253 380
253 379
254 378
255 377
256 376
257 375
258 374
259 374
260 373
261 373
262 373
263 373
264 374
265 375
266 376
267 377
268 377
269 378
270 379
271 380
272 381
272 382
272 383
272 384
272 385
272 386
272 387
272 388
272 387
273 386
274 385
274 384
274 383
275 382
275 381
275 380
276 379
276 378
276 377
276 376
277 375
277 374
277 373
277 372
277 371
278 370
278 369
278 368
278 367
279 366
279 365
279 364
279 363
280 362
280 361
280 360
280 359
281 358
281 357
281 356
281 355
281 354
281 353
281 352
281 351
281 350
281 349
281 348
281 347
281 346
281 345
282 344
282 343
282 342
282 341
282 340
283 339
283 338
283 337
283 336
283 335
283 334
283 333
283 332
283 331
283 330
283 329
283 328
284 327
284 326
284 325
284 324
284 323
284 322
285 321
286 320
287 319
288 319
289 319
290 319
291 320
292 320
293 320
294 320
295 321
296 321
297 322
297 323
298 324
299 325
300 326
301 327
301 328
302 329
303 330
304 331
305 332
306 332
307 332
308 333
309 333
310 334
311 334
312 335
313 335
314 336
315 336
316 337
317 337
318 337
319 338
320 338
321 339
322 340
323 341
324 342
325 343
326 344
326 345
327 346
328 347
328 348
329 349
329 350
330 351
331 352
331 353
332 354
333 355
334 355
333 354
333 353
333 352
333 351
332 350
332 349
332 348
332 347
331 346
331 345
331 344
331 343
330 342
330 341
330 340
330 339
330 338
330 337
330 336
330 335
329 334
329 333
329 332
329 331
329 330
330 329
330 328
330 327
330 326
330 325
330 324
330 323
330 322
330 321
330 320
330 319
330 318
329 317
329 316
329 315
329 314
329 313
328 312
328 311
328 310
329 309
329 308
329 307
329 306
328 305
328 304
327 303
326 302
325 301
325 300
324 299
324 298
323 297
323 296
322 295
321 294
321 293
320 292
320 291
319 290
318 289
318 288
317 287
317 286
316 285
316 284
315 283
315 282
314 281
314 280
313 279
312 278
312 277
311 276
311 275
310 274
309 273
309 272
308 271
308 270
308 269
307 268
307 267
307 266
307 265
307 264
307 263
306 262
306 261
306 260
305 259
305 258
304 257
303 256
302 255
301 254
301 253
300 252
299 251
298 250
298 249
297 248
297 247
296 246
295 245
295 244
294 243
294 242
293 241
292 240
292 239
293 238
294 238
295 238
296 238
297 237
298 237
299 236
300 236
301 236
302 236
303 236
304 236
305 235
306 235
307 235
308 235
309 235
310 235
311 234
312 234
313 234
314 234
315 234
316 234
317 234
318 234
319 233
320 233
321 233
322 233
323 233
324 233
325 232
326 232
327 232
328 232
329 232
330 232
331 231
332 231
333 231
334 231
335 231
336 231
337 231
338 230
339 230
340 230
341 230
342 230
343 230
344 230
345 230
346 229
347 229
348 229
349 229
350 229
351 229
352 229
353 229
354 228
355 228
356 228
357 228
358 228
359 228
360 228
361 228
362 228
363 228
364 228
365 228
366 228
367 228
368 228
369 227
370 227
371 227
372 227
373 227
374 227
375 227
376 227
377 227
378 227
379 227
380 227
381 227
382 227
383 227
384 227
385 227
386 227
387 227
388 227
389 227
390 227
391 227
392 227
393 227
394 227
395 227
396 227
397 227
398 227
399 227
400 227
401 228
402 228
403 228
404 227
405 227
406 227
407 227
408 227
409 227
410 227
411 227
412 227
413 227
414 227
415 227
416 227
417 227
418 227
419 227
420 227
421 227
422 227
423 227
424 227
425 227
426 227
427 227
428 226
429 226
430 226
431 226
432 226
433 226
434 226
435 226
436 226
437 226
438 226
439 226
440 226
441 226
442 226
443 226
444 226
445 226
446 226
447 226
448 226
449 226
450 226
451 226
452 226
453 226
454 226
455 226
456 226
457 226
458 226
459 226
460 226
461 226
462 226
463 226
464 226
465 226
466 226
467 226
468 226
469 226
470 226
471 226
472 226
473 226
474 226
475 226
476 226
477 226
478 226
479 226
480 226
481 226
482 226
483 226
484 226
485 226
486 226
487 226
488 226
489 225
490 225
491 225
492 225
493 225
494 225
495 225
496 225
497 225
498 225
499 225
500 225
501 225
502 225
503 225
504 225
505 225
506 225
507 225
508 225
509 225
510 225
511 225
512 225
513 225
514 225
515 225
516 225
517 225
518 225
519 225
520 225
521 225
522 225
523 225
524 225
525 225
526 225
527 225
528 225
529 225
530 225
531 225
532 225
533 225
534 225
535 225
536 225
537 225
538 225
539 225
540 225
541 225
542 225
543 225
544 225
545 225
546 225
547 225
548 225
549 225
550 225
551 225
552 225
553 225
554 225
555 225
556 225
557 225
558 225
559 225
560 225
561 225
562 225
563 225
564 225
565 225
566 225
567 225
568 225
569 225
570 225
571 225
572 225
573 225
574 225
575 225
576 225
577 225
578 225
579 225
580 225
581 225
582 225
583 225
584 225
585 225
586 225
587 225
588 225
589 225
590 225
591 225
592 225
593 225
594 225
595 225
596 225
597 225
598 225
599 225
600 225
601 225
602 225
603 225
604 225
605 225
606 225
607 225
608 226
609 226
610 226
611 226
612 226
613 226
614 226
615 226
616 226
617 226
618 226
619 226
620 226
621 226
622 226
623 226
624 226
625 226
626 226
627 226
628 226
629 227
630 227
631 227
632 227
633 227
634 227
635 227
636 227
637 227
638 227
639 227
640 227
641 227
642 227
643 228
644 228
645 228
646 228
647 228
648 228
649 228
650 228
651 228
652 228
653 228
654 228
655 229
656 229
657 229
658 229
659 229
660 229
661 229
662 229
663 229
664 229
665 229
666 230
667 230
668 230
669 230
670 230
671 230
672 230
673 231
674 231
675 231
676 232
677 232
678 232
679 232
680 231
681 230
681 229
681 228
680 227
680 226
680 225
679 224
678 224
677 224
676 224
675 224
674 224
673 224
672 224
671 224
670 224
669 225
668 225
667 225
666 225
665 225
664 225
663 225
662 225
661 225
660 225
659 225
658 225
657 225
656 225
655 225
654 225
653 225
652 225
651 225
650 225
649 225
648 224
647 224
646 224
645 224
644 224
643 224
642 224
641 224
640 224
639 224
638 224
637 224
636 224
635 224
634 224
633 224
632 224
631 224
630 224
629 223
628 223
627 223
626 223
625 223
624 223
623 223
622 223
621 223
620 223
619 223
618 223
617 223
616 223
615 223
614 223
613 223
612 223
611 223
610 223
609 223
608 223
607 223
606 223
605 223
604 223
603 222
602 222
601 222
600 222
599 222
598 222
597 222
596 222
595 222
594 222
593 222
592 222
591 222
590 222
589 222
588 222
587 222
586 222
585 222
584 222
583 222
582 222
581 222
580 222
579 222
578 222
577 222
576 223
575 223
574 223
573 223
572 223
571 223
570 223
569 223
568 223
567 223
566 223
565 223
564 223
563 223
562 223
561 223
560 223
559 223
558 223
557 223
556 223
555 223
554 223
553 223
552 223
551 223
550 223
549 223
548 223
547 223
546 223
545 223
544 223
543 223
542 223
541 223
540 223
539 223
538 223
537 223
536 223
535 223
534 223
533 223
532 223
531 223
530 223
529 223
528 223
527 223
526 223
525 223
524 223
523 223
522 223
521 223
520 223
519 223
518 223
517 223
516 223
515 223
514 223
513 223
512 223
511 223
510 223
509 223
508 223
507 223
506 223
505 223
504 223
503 223
502 223
501 223
500 223
499 223
498 223
497 223
496 223
495 223
494 223
493 223
492 223
491 223
490 223
489 223
488 223
487 223
486 223
485 223
484 223
483 223
482 223
481 223
480 223
479 223
478 223
477 223
476 223
475 223
474 223
473 223
472 223
471 223
470 223
469 223
468 223
467 223
466 223
465 223
464 223
463 223
462 223
461 223
460 223
459 223
458 223
457 223
456 223
455 223
454 223
453 223
452 223
451 223
450 223
449 223
448 223
447 223
446 223
445 223
444 223
443 223
442 223
441 223
440 224
439 224
438 224
437 224
436 224
435 224
434 224
433 224
432 224
431 224
430 224
429 224
428 224
427 224
426 224
425 224
424 224
423 224
422 224
421 224
420 224
419 224
418 224
417 224
416 225
415 225
414 225
413 225
412 225
411 225
410 225
409 225
408 225
407 225
406 225
405 225
404 225
403 225
402 225
401 225
400 225
399 225
398 225
397 225
396 225
395 225
394 225
393 225
392 225
391 225
390 225
389 225
388 225
387 225
386 225
385 225
384 225
383 225
382 225
381 225
380 225
379 225
378 225
377 225
376 225
375 225
374 225
373 225
372 225
371 225
370 225
369 225
368 225
367 225
366 225
365 225
364 225
363 225
362 225
361 225
360 225
359 225
358 225
357 225
356 225
355 225
354 225
353 225
352 226
351 226
350 226
349 226
348 226
347 226
346 226
345 227
344 227
343 227
342 227
341 227
340 227
339 227
338 227
337 228
336 228
335 228
334 228
333 228
332 228
331 228
330 228
329 229
328 229
327 229
326 229
325 229
324 229
323 229
322 230
321 230
320 230
319 230
318 230
317 230
316 230
315 230
314 231
313 231
312 231
311 231
310 231
309 231
308 231
307 231
306 232
305 232
304 232
303 232
302 232
301 232
300 232
299 231
300 230
301 229
302 228
303 228
304 227
305 226
305 225
306 224
307 224
307 223
308 222
309 222
310 221
311 220
312 219
313 218
314 218
315 217
316 216
316 215
317 214
318 213
319 212
320 211
321 210
322 209
323 208
324 207
325 207
326 206
327 205
328 204
329 204
330 203
331 202
332 201
333 200
334 199
335 199
336 198
337 197
338 196
339 196
340 195
341 194
342 193
343 192
344 192
345 191
346 190
347 189
348 188
349 187
350 186
351 185
352 184
353 183
354 182
355 181
356 180
357 179
358 178
359 177
360 176
360 175
361 174
362 173
363 172
364 171
364 170
365 169
366 168
366 167
367 166
367 165
368 164
368 163
369 162
369 161
370 160
371 159
371 158
372 157
372 156
373 155
374 154
374 153
375 152
376 152
377 151
378 150
379 149
380 148
381 147
382 146
382 145
383 144
384 143
384 142
383 142
382 143
381 144
380 144
379 145
378 145
377 146
376 146
375 146
374 147
373 147
372 148
371 148
370 148
369 148
368 149
367 149
366 149
365 149
364 149
363 149
362 149
361 149
360 150
359 150
358 150
357 150
356 150
355 150
354 150
353 151
352 151
351 151
350 151
349 151
348 152
347 152
346 152
345 152
344 153
343 153
342 154
341 154
340 154
339 155
338 155
337 155
336 156
335 156
334 156
333 156
332 156
331 156
330 157
329 157
328 157
327 156
326 156
325 155
324 154
324 153
324 152
324 151
324 150
324 149
325 148
325 147
325 146
326 145
326 144
326 143
326 142
327 141
327 140
327 139
327 138
328 137
328 136
328 135
328 134
329 133
329 132
329 131
329 130
330 129
330 128
330 127
330 126
330 125
330 124
331 123
331 122
331 121
331 120
332 119
332 118
333 117
333 116
333 115
334 114
334 113
334 112
335 111
335 110
335 109
335 108
336 107
336 106
336 105
336 104
336 103
337 102
337 101
337 100
337 99
338 98
338 97
338 96
338 95
339 94
339 93
339 92
340 91
340 90
340 89
341 88
341 87
342 86
342 85
343 84
343 83
344 82
343 82
342 83
341 84
340 85
339 85
338 86
337 87
336 88
335 88
334 89
333 89
332 89
331 90
330 90
329 90
328 91
327 91
326 91
325 92
324 92
323 92
322 92
321 92
320 91
320 90
319 89
318 88
318 87
317 86
316 85
316 84
316 83
315 82
315 81
315 80
315 79
315 78
315 77
315 76
315 75
314 74
314 73
314 72
314 71
313 70
312 71
311 71
310 71
309 70
308 69
307 68
306 67
306 66
305 65
304 64
304 63
304 62
303 61
303 60
302 59
301 58
301 57
300 56
299 55
299 54
298 53
298 52
297 51
297 50
297 49
297 48
296 47
296 46
296 45
296 44
295 43
295 42
295 41
295 40
294 39
294 38
294 37
293 36
293 35
293 34
293 33
292 33
