438 12
437 13
437 14
436 15
436 16
435 17
434 18
433 18
432 19
431 20
430 21
429 22
428 23
427 24
426 25
425 26
424 27
423 28
422 29
421 29
420 30
419 31
418 32
417 33
416 34
415 34
414 35
413 36
412 37
412 38
411 39
410 40
409 41
408 42
407 43
406 44
405 45
404 46
403 47
402 48
401 49
400 50
399 51
398 52
397 53
397 54
396 55
395 56
395 57
394 58
393 59
393 60
392 61
391 62
391 63
391 64
390 65
389 66
389 67
388 68
388 69
387 70
387 71
386 72
386 73
386 74
385 75
385 76
384 77
384 78
384 79
383 80
383 81
382 82
382 83
382 84
382 85
381 86
381 87
381 88
381 89
380 90
380 91
380 92
379 93
379 94
379 95
378 96
378 97
378 98
377 99
377 100
377 101
376 102
376 103
376 104
375 105
375 106
375 107
374 108
374 109
374 110
374 111
374 112
373 113
373 114
373 115
373 116
373 117
373 118
372 119
372 120
372 121
372 122
371 123
371 124
371 125
371 126
370 127
370 128
370 129
370 130
369 131
369 132
369 133
369 134
369 135
369 136
369 137
369 138
369 139
369 140
369 141
369 142
369 143
369 144
369 145
369 146
369 147
368 148
368 149
368 150
368 151
368 152
368 153
368 154
368 155
369 156
369 157
369 158
369 159
369 160
369 161
369 162
369 163
369 164
369 165
369 166
369 167
369 168
369 169
370 170
370 171
370 172
370 173
370 174
371 175
371 176
371 177
371 178
372 179
372 180
372 181
372 182
373 183
373 184
374 185
374 186
374 187
375 188
375 189
376 190
376 191
377 192
378 192
379 193
380 194
380 195
381 196
381 197
382 198
382 199
383 200
383 201
383 202
383 203
383 204
383 205
383 206
383 207
383 208
384 209
384 210
384 211
384 212
384 213
385 214
385 215
385 216
386 217
386 218
386 219
387 220
387 221
387 222
388 223
388 224
389 225
389 226
390 227
390 228
391 229
391 230
392 231
392 232
393 233
393 234
393 235
394 236
394 237
395 238
395 239
396 240
397 241
397 242
398 243
399 244
399 245
400 246
400 247
401 248
401 249
402 250
402 251
403 252
403 253
404 254
405 255
405 256
406 257
407 258
408 259
409 260
410 261
411 262
412 263
413 264
414 265
415 266
416 266
417 267
418 268
419 269
420 269
421 270
422 271
423 271
424 272
425 272
426 273
427 273
428 274
429 274
430 274
431 275
432 275
433 275
434 276
435 276
436 276
437 277
438 277
439 277
440 277
441 278
442 278
443 278
444 278
445 279
446 279
447 279
448 279
449 279
450 280
451 280
452 280
453 280
454 280
455 280
456 280
457 280
458 280
459 280
460 280
461 280
462 280
463 280
464 280
465 280
466 280
467 280
468 281
469 281
470 281
471 281
472 281
473 282
474 282
475 283
475 284
476 285
476 286
476 287
476 288
475 289
474 289
473 289
472 289
471 289
470 289
469 289
468 289
467 289
466 289
465 289
464 290
463 290
462 290
461 290
460 290
459 290
458 290
457 290
456 290
455 290
454 290
453 290
452 290
451 290
450 290
449 290
448 290
447 290
446 290
445 290
444 290
443 290
442 290
441 290
440 291
439 291
438 291
437 291
436 291
435 291
434 291
433 291
432 291
431 291
430 291
429 291
428 291
427 291
426 291
425 291
424 291
423 291
422 291
421 291
420 291
419 292
418 292
417 292
416 292
415 292
414 292
413 292
412 292
411 292
410 292
409 292
408 292
407 292
406 292
405 292
404 292
403 292
402 292
401 292
400 292
399 291
398 291
397 290
396 290
395 289
394 288
393 287
392 286
391 286
390 285
390 284
389 283
388 282
387 282
386 283
385 284
384 285
383 286
382 286
382 287
381 288
380 288
379 288
378 287
377 286
377 285
377 284
377 283
377 282
377 281
378 280
379 279
380 278
381 278
381 277
380 276
380 275
379 274
378 273
377 272
376 271
375 270
374 269
373 268
372 267
371 266
370 266
369 265
368 264
367 263
366 263
365 262
364 261
363 261
362 260
361 259
360 258
359 258
358 257
357 256
356 256
355 255
354 254
353 254
352 253
351 253
350 252
349 251
348 251
347 250
346 250
345 249
344 249
343 248
342 248
341 247
340 247
339 246
338 246
337 245
336 245
335 245
334 244
333 244
332 243
331 243
330 242
329 242
328 241
327 241
326 241
325 241
324 240
323 240
322 240
321 240
320 239
319 239
318 239
317 239
316 238
315 238
314 238
313 238
312 238
311 237
310 238
309 238
308 238
307 238
306 238
305 238
304 238
303 238
302 238
301 238
300 237
299 236
298 235
297 235
296 235
295 235
294 235
293 235
292 235
291 235
290 235
289 234
288 234
287 234
286 234
285 234
284 234
283 233
282 233
281 233
280 233
279 233
278 233
277 233
276 233
275 233
274 232
273 233
272 233
271 232
270 232
269 232
268 232
267 232
266 232
265 232
264 232
263 232
262 232
261 232
260 232
259 231
258 231
257 231
256 231
255 232
254 232
253 232
252 232
251 232
250 233
249 232
248 232
247 232
246 232
245 232
244 232
243 232
242 232
241 232
240 232
239 232
238 231
237 231
236 231
235 231
234 231
233 231
232 231
231 231
230 231
229 231
228 231
227 231
226 231
225 231
224 231
223 231
222 231
221 231
220 231
219 232
218 232
217 232
216 232
215 232
214 232
213 232
212 233
211 233
210 233
209 233
208 233
207 233
206 233
205 233
204 233
203 233
202 233
201 233
200 234
199 234
198 234
197 234
196 234
195 235
194 235
193 235
192 235
191 235
190 236
189 236
188 236
187 236
186 237
185 237
184 237
183 237
182 237
181 238
180 238
179 238
178 238
177 239
176 239
175 239
174 240
173 240
172 240
171 240
170 241
169 241
168 242
167 242
166 242
165 242
164 243
163 243
162 244
161 244
160 244
159 244
158 245
157 245
156 246
155 246
154 246
153 247
152 247
151 248
150 248
149 249
148 249
147 249
146 250
145 250
144 251
143 251
142 252
141 252
140 253
139 253
138 254
137 254
136 255
135 255
134 255
133 256
132 256
131 257
130 257
129 257
128 258
127 258
126 259
125 259
124 260
123 261
122 261
121 262
120 262
119 263
118 264
117 265
116 265
115 266
114 267
113 268
112 269
111 269
110 270
109 270
108 271
107 272
106 273
105 273
104 274
103 275
102 276
101 276
100 277
99 278
98 279
97 280
96 280
95 281
94 282
93 283
92 283
91 284
90 285
89 285
88 286
87 287
86 288
85 289
84 289
83 290
82 291
81 292
80 293
79 294
78 295
77 296
76 297
76 298
75 299
74 300
73 301
72 302
71 303
70 304
69 305
68 306
67 307
66 308
65 308
64 309
63 310
62 311
61 312
60 313
60 314
59 315
58 316
57 317
56 318
56 319
55 320
54 320
53 321
53 322
52 323
51 324
51 325
50 326
49 327
48 328
48 329
49 329
50 329
51 329
52 329
53 329
54 329
55 330
56 330
57 330
58 331
59 331
60 332
61 332
62 333
63 334
64 334
65 335
66 336
67 336
68 337
69 338
70 338
71 339
72 340
73 340
74 341
75 342
76 343
77 344
78 344
79 345
79 346
80 346
81 347
82 348
83 349
84 349
85 350
86 351
87 352
88 352
89 353
90 354
91 355
92 355
93 356
94 356
95 357
96 358
97 359
98 359
99 360
100 360
101 361
102 361
103 362
104 362
105 363
106 363
107 364
108 364
109 365
110 365
111 366
112 366
113 367
114 367
115 368
116 368
117 368
118 369
119 369
120 370
121 370
122 371
123 371
124 371
125 372
126 372
127 372
128 373
129 373
130 374
131 374
132 374
133 375
134 375
135 375
136 376
137 376
138 376
139 377
140 377
141 378
142 378
143 378
144 378
145 379
146 379
147 379
148 379
149 380
150 380
151 380
152 380
153 381
154 381
155 381
156 381
157 381
158 382
159 382
160 382
161 382
162 382
163 383
164 383
165 383
166 383
167 383
168 383
169 384
170 384
171 384
172 384
173 384
174 384
175 384
176 384
177 385
178 385
179 385
180 385
181 385
182 385
183 386
184 386
185 386
186 386
187 386
188 387
189 387
190 387
191 387
192 387
193 388
194 388
195 388
196 388
197 388
198 389
199 389
200 389
201 390
202 390
203 390
204 390
205 391
206 391
207 391
208 391
209 392
210 392
211 392
212 392
213 393
214 393
215 393
216 394
217 394
218 394
219 394
220 394
221 394
222 395
223 395
224 395
225 395
226 395
227 395
228 395
229 395
230 395
231 396
232 396
233 396
234 396
235 396
236 396
237 396
238 396
239 396
240 396
241 396
242 396
243 396
244 396
245 396
246 396
247 396
248 396
249 396
250 396
251 396
252 396
253 396
254 396
255 396
256 396
257 396
258 396
259 396
260 396
261 396
262 396
263 396
264 396
265 395
266 395
267 395
268 395
269 395
270 395
271 394
272 394
273 394
274 394
275 394
276 393
277 393
278 393
279 393
280 393
281 392
282 392
283 391
284 391
285 391
286 391
287 390
288 390
289 390
290 390
291 389
292 389
293 389
294 388
295 388
296 388
297 387
298 387
299 387
300 386
301 386
302 385
303 385
304 384
305 384
306 383
307 383
308 382
309 381
310 381
311 380
312 380
313 379
314 379
315 378
316 378
317 377
318 377
319 376
320 376
321 376
322 375
323 375
324 374
325 374
326 373
327 373
328 372
329 372
330 371
331 371
332 370
333 370
334 369
335 368
336 368
337 367
338 367
339 366
340 366
341 365
342 365
343 364
344 364
345 363
346 362
347 362
348 361
349 361
350 360
351 360
352 359
353 358
354 358
355 357
356 356
357 356
358 355
359 354
360 353
361 352
362 352
363 351
364 350
365 349
366 348
367 347
368 347
369 346
370 345
371 344
372 343
373 342
374 341
375 340
376 339
376 338
377 337
378 336
379 335
379 334
380 333
380 332
381 331
381 330
382 329
383 328
383 327
384 326
385 325
385 324
386 323
387 322
387 321
388 320
389 319
389 318
390 317
390 316
391 315
391 314
392 313
392 312
392 311
393 310
393 309
394 308
394 307
395 306
395 305
396 304
397 303
398 302
398 301
399 300
400 299
401 298
402 297
403 296
404 295
405 295
406 295
407 295
408 295
409 295
410 295
411 295
412 295
413 295
414 295
415 295
416 295
417 295
418 295
419 295
420 295
421 295
422 294
423 294
424 294
425 294
426 294
427 294
428 294
429 294
430 294
431 294
432 294
433 294
434 294
435 294
436 294
437 294
438 294
439 294
440 294
441 294
442 294
443 294
444 294
445 294
446 294
447 294
448 294
449 294
450 294
451 294
452 294
453 294
454 294
455 293
456 293
457 293
458 293
459 293
460 293
461 293
462 293
463 293
464 293
465 293
466 293
467 293
468 293
469 293
470 293
471 293
472 293
473 293
474 293
475 293
476 293
477 293
478 294
478 295
478 296
478 297
478 298
478 299
478 300
477 301
476 302
475 303
474 302
473 303
472 302
471 302
470 302
469 302
468 302
467 301
466 301
465 301
464 301
463 301
462 301
461 301
460 301
459 301
458 301
457 301
456 301
455 301
454 301
453 301
452 301
451 301
450 301
449 301
448 302
447 302
446 302
445 302
444 302
443 302
442 303
441 303
440 303
439 303
438 304
437 304
436 304
435 305
434 305
433 305
432 306
431 307
430 307
429 308
428 308
427 309
426 309
425 310
424 311
423 311
422 312
421 312
420 313
419 314
418 314
417 315
416 316
415 317
414 317
413 318
412 319
411 319
410 320
409 321
408 321
407 322
406 323
405 324
404 325
403 325
402 326
401 327
401 328
400 329
399 330
398 331
397 332
397 333
396 334
396 335
395 336
395 337
394 338
393 339
392 340
392 341
391 342
390 343
390 344
389 345
388 346
388 347
387 348
387 349
386 350
386 351
386 352
385 353
385 354
384 355
383 356
382 357
382 358
381 359
380 360
379 361
378 362
378 363
377 364
377 365
376 366
376 367
376 368
375 369
375 370
375 371
374 372
374 373
373 374
373 375
372 376
371 377
371 378
370 379
370 380
369 381
369 382
368 383
368 384
367 385
367 386
366 387
366 388
366 389
365 390
365 391
365 392
364 393
364 394
363 395
363 396
363 397
362 398
362 399
361 400
361 401
361 402
360 403
360 404
360 405
359 406
359 407
359 408
358 409
358 410
358 411
357 412
357 413
357 414
356 415
356 416
356 417
355 418
355 419
355 420
354 421
354 422
354 423
353 424
353 425
353 426
352 427
352 428
352 429
351 430
351 431
351 432
350 433
350 434
350 435
350 436
350 437
350 438
349 439
349 440
349 441
349 442
349 443
349 444
349 445
348 446
348 447
348 448
348 449
348 450
348 451
348 452
348 453
348 454
348 455
348 456
348 457
348 458
348 459
347 460
347 461
347 462
347 463
347 464
347 465
347 466
347 467
347 468
347 469
347 470
347 471
347 472
348 473
348 474
348 475
348 476
348 477
349 478
349 479
349 480
350 481
350 482
350 483
351 484
351 485
351 486
351 487
351 488
351 489
351 490
351 491
351 492
351 493
352 494
352 495
352 496
352 497
352 498
353 499
353 500
353 501
353 502
353 503
353 504
353 505
353 506
354 507
354 508
354 509
354 510
354 511
354 512
355 513
355 514
355 515
356 516
356 517
356 518
357 519
357 520
358 521
358 522
359 523
359 524
360 525
360 526
360 527
361 528
361 529
362 530
362 531
363 532
363 533
364 534
364 535
365 536
365 537
365 538
366 539
366 540
367 541
367 542
368 543
369 544
369 545
370 546
371 547
372 548
373 548
374 548
375 547
376 547
377 546
378 546
379 546
380 545
381 545
382 545
383 545
384 546
385 546
386 546
387 545
388 544
389 543
390 542
391 541
392 542
393 543
393 544
393 545
393 546
394 546
394 545
395 544
396 543
396 542
397 541
398 540
398 539
399 538
399 537
400 536
401 535
402 534
402 533
403 532
404 531
405 530
405 529
406 528
407 527
407 526
408 525
409 524
409 523
410 522
411 521
412 520
412 519
413 518
414 517
415 516
415 515
416 514
417 513
417 512
418 511
419 510
419 509
420 508
421 507
421 506
422 505
423 504
424 503
424 502
425 501
426 500
426 499
427 498
428 497
428 496
429 495
430 494
430 493
431 492
432 491
432 490
433 489
434 488
434 487
435 486
435 485
436 484
437 483
437 482
438 481
439 480
439 479
440 478
441 477
442 476
442 475
443 474
444 473
445 472
446 471
446 470
447 469
448 468
448 467
449 466
449 465
450 464
450 463
451 462
452 461
452 460
453 459
453 458
454 457
454 456
455 455
455 454
456 453
456 452
457 451
458 450
458 449
459 448
460 447
460 446
460 445
461 444
461 443
462 442
462 441
463 440
463 439
464 438
464 437
465 436
466 435
466 434
467 433
468 432
468 431
469 430
469 429
470 428
470 427
471 426
471 425
472 424
472 423
473 422
473 421
474 420
475 419
475 418
476 417
476 416
477 415
477 414
478 413
479 412
479 411
480 410
480 409
481 408
481 407
482 406
482 405
483 404
484 403
484 402
485 401
485 400
486 399
486 398
487 397
487 396
488 395
488 394
488 393
489 392
489 391
490 390
490 389
490 388
491 387
491 386
492 385
492 384
492 383
493 382
493 381
493 380
494 379
494 378
494 377
495 376
495 375
495 374
495 373
496 372
496 371
496 370
497 369
497 368
497 367
497 366
498 365
498 364
498 363
499 362
499 361
499 360
499 359
500 358
500 357
500 356
501 355
501 354
501 353
501 352
502 351
502 350
502 349
502 348
503 347
503 346
503 345
503 344
503 343
503 342
503 341
503 340
503 339
504 338
504 337
504 336
504 335
504 334
504 333
504 332
504 331
504 330
504 329
503 328
503 327
503 326
503 325
503 324
503 323
503 322
503 321
502 320
502 319
502 318
502 317
501 316
501 315
500 314
500 313
499 312
499 311
498 310
498 309
497 308
496 307
496 306
495 305
494 304
493 303
492 302
492 301
491 300
490 299
489 298
488 297
487 296
487 295
488 294
489 294
490 293
491 293
492 293
493 293
494 293
495 293
496 293
497 293
498 293
499 293
500 293
501 293
502 293
503 293
504 293
505 292
506 293
507 293
508 293
509 293
510 293
511 293
512 293
513 293
514 293
515 292
516 292
517 292
518 292
519 292
520 292
521 292
522 292
523 292
524 292
525 292
526 292
527 292
528 292
529 292
530 292
531 292
532 292
533 292
534 292
535 292
536 292
537 292
538 292
539 292
540 292
541 292
542 292
543 292
544 292
545 292
546 292
547 292
548 292
549 292
550 292
551 292
552 292
553 292
554 292
555 292
556 292
557 292
558 292
559 292
560 292
561 292
562 292
563 292
564 292
565 292
566 292
567 293
567 294
567 295
567 296
566 297
565 298
564 298
563 299
562 299
561 299
560 300
559 301
558 301
557 302
556 303
555 304
554 305
553 306
552 307
551 308
551 309
550 310
550 311
549 312
549 313
549 314
548 315
548 316
548 317
548 318
548 319
547 320
547 321
547 322
547 323
547 324
547 325
547 326
547 327
547 328
547 329
547 330
547 331
547 332
547 333
548 334
548 335
548 336
548 337
548 338
549 339
549 340
549 341
549 342
550 343
550 344
550 345
550 346
551 347
551 348
551 349
551 350
552 351
552 352
552 353
553 354
553 355
553 356
554 357
554 358
554 359
555 360
555 361
556 362
556 363
557 364
557 365
558 366
558 367
559 368
560 369
560 370
561 371
561 372
562 373
562 374
563 375
563 376
564 377
565 378
565 379
566 380
567 381
567 382
568 383
569 384
569 385
570 386
571 387
572 388
573 389
574 390
575 391
576 392
577 393
578 394
579 395
580 396
581 397
582 397
583 398
584 399
585 400
586 401
587 401
588 402
589 403
590 403
591 404
592 405
593 406
594 407
595 407
596 408
597 409
598 409
599 410
600 410
601 411
602 411
603 412
604 412
605 413
606 413
607 414
608 414
609 414
610 415
611 415
612 416
613 416
614 417
615 418
616 419
617 420
618 421
619 422
620 423
621 423
622 423
623 424
624 424
625 423
626 423
627 422
627 421
627 420
627 419
627 418
627 417
626 416
626 415
626 414
626 413
625 412
625 411
624 410
624 409
624 408
624 407
624 406
625 405
625 404
625 403
625 402
625 401
626 400
626 399
626 398
626 397
626 396
626 395
627 394
627 393
627 392
627 391
627 390
626 389
626 388
626 387
626 386
627 385
627 384
627 383
627 382
627 381
627 380
627 379
627 378
627 377
627 376
627 375
627 374
627 373
627 372
627 371
627 370
627 369
627 368
627 367
627 366
627 365
627 364
627 363
627 362
627 361
626 360
626 359
626 358
626 357
626 356
626 355
626 354
625 353
625 352
625 351
625 350
625 349
624 348
624 347
624 346
623 345
623 344
623 343
623 342
622 341
622 340
622 339
621 338
621 337
621 336
620 335
620 334
619 333
619 332
619 331
618 330
618 329
617 328
617 327
616 326
616 325
615 324
615 323
614 322
614 321
614 320
613 319
613 318
612 317
612 316
611 315
611 314
610 313
610 312
609 311
609 310
608 309
608 308
607 307
606 306
606 305
605 304
605 303
604 302
604 301
603 300
602 299
601 298
600 297
599 296
598 296
597 295
596 295
595 294
594 293
593 292
593 291
594 290
595 290
596 290
597 290
598 289
599 289
600 289
601 289
602 289
603 289
604 289
605 288
606 288
607 288
608 288
609 288
610 288
611 288
612 288
613 288
614 287
615 287
616 287
617 287
618 287
619 287
620 287
621 286
622 286
623 286
624 286
625 286
626 286
627 285
628 285
629 285
630 285
631 285
632 285
633 285
634 284
635 284
636 284
637 284
638 284
639 284
640 283
641 283
642 283
643 283
644 283
645 282
646 282
647 282
648 282
649 282
650 282
651 281
652 281
653 281
654 281
655 280
656 280
657 280
658 280
659 280
660 280
661 280
662 279
663 279
664 279
665 279
666 278
667 278
668 278
669 278
670 278
671 277
672 277
673 277
674 277
675 277
676 276
677 276
678 276
679 275
680 275
681 275
682 275
683 275
684 274
685 274
686 274
687 274
688 273
689 273
690 273
691 273
692 272
693 272
694 272
695 272
696 271
697 271
698 271
699 271
700 270
701 270
702 270
703 269
704 269
705 269
706 269
707 268
708 268
709 268
710 267
711 267
712 267
713 267
714 266
715 266
716 266
717 265
718 265
719 265
720 265
721 264
722 264
723 264
724 263
725 263
726 263
727 262
728 262
729 262
730 261
731 261
732 261
733 261
734 260
735 260
736 260
737 259
738 259
739 259
740 259
741 258
742 258
743 257
744 257
745 257
746 257
747 256
748 256
749 256
750 256
751 255
752 255
753 255
754 255
755 254
756 254
757 254
758 254
759 254
760 255
761 255
762 256
763 257
764 258
765 259
766 260
767 261
768 261
769 262
769 261
769 260
769 259
770 258
770 257
771 256
771 255
771 254
771 253
771 252
770 251
769 251
768 250
767 249
766 249
765 249
764 248
763 248
762 247
761 247
760 247
759 247
758 247
757 247
756 247
755 247
754 248
753 248
752 249
751 249
750 250
749 250
748 250
747 251
746 251
745 252
744 252
743 252
742 253
741 253
740 253
739 254
738 254
737 254
736 255
735 255
734 255
733 256
732 256
731 256
730 257
729 257
728 257
727 258
726 258
725 258
724 259
723 259
722 259
721 259
720 260
719 260
718 260
717 261
716 261
715 261
714 262
713 262
712 262
711 263
710 263
709 263
708 264
707 264
706 264
705 264
704 265
703 265
702 265
701 266
700 266
699 266
698 266
697 267
696 267
695 267
694 268
693 268
692 268
691 268
690 268
689 269
688 269
687 269
686 269
685 270
684 270
683 270
682 270
681 271
680 271
679 271
678 271
677 272
676 272
675 272
674 272
673 273
672 273
671 273
670 273
669 273
668 274
667 274
666 274
665 274
664 275
663 275
662 275
661 275
660 275
659 275
658 276
657 276
656 276
655 276
654 276
653 277
652 277
651 277
650 277
649 277
648 277
647 278
646 278
645 278
644 278
643 278
642 279
641 279
640 279
639 279
638 279
637 280
636 280
635 280
634 280
633 280
632 280
631 280
630 281
629 281
628 281
627 281
626 281
625 281
624 282
623 282
622 282
621 282
620 282
619 282
618 282
617 283
616 283
615 283
614 283
613 283
612 283
611 283
610 283
609 283
608 284
607 284
606 284
605 284
604 284
603 284
602 284
601 284
600 284
599 284
598 284
597 285
596 285
595 285
594 285
593 285
592 285
591 285
590 285
589 285
588 284
587 284
586 283
587 282
588 282
589 281
590 281
591 280
592 280
593 279
594 278
595 277
596 277
597 276
598 275
599 274
600 273
601 272
602 271
602 270
603 269
603 268
604 267
604 266
605 265
605 264
606 263
606 262
606 261
607 260
607 259
607 258
608 257
608 256
608 255
608 254
608 253
609 252
609 251
609 250
609 249
609 248
609 247
610 246
610 245
610 244
610 243
611 242
611 241
611 240
611 239
612 238
612 237
612 236
612 235
612 234
613 233
613 232
613 231
613 230
613 229
614 228
614 227
614 226
614 225
614 224
614 223
614 222
614 221
615 220
615 219
615 218
615 217
615 216
615 215
615 214
615 213
616 212
616 211
616 210
616 209
616 208
616 207
617 206
617 205
617 204
617 203
617 202
618 201
618 200
618 199
618 198
618 197
618 196
619 195
619 194
619 193
619 192
619 191
619 190
620 189
620 188
620 187
620 186
620 185
620 184
620 183
620 182
620 181
620 180
620 179
620 178
620 177
620 176
620 175
619 174
619 173
619 172
619 171
619 170
618 169
618 168
618 167
618 166
618 165
618 164
618 163
617 162
617 161
617 160
617 159
616 158
616 157
616 156
615 155
615 154
615 153
614 152
614 151
614 150
614 149
614 148
614 147
614 146
613 145
614 144
614 143
614 142
615 141
615 140
615 139
616 138
616 137
616 136
617 135
617 134
616 134
615 135
614 135
614 136
613 137
612 138
611 139
610 140
609 141
608 142
607 142
606 143
605 144
604 144
603 145
602 145
601 146
600 147
599 147
598 148
597 148
596 149
595 149
594 150
593 150
592 151
591 151
590 152
589 153
588 154
587 154
586 155
585 156
584 156
583 157
582 158
581 159
580 160
579 161
578 161
577 162
576 163
575 164
574 165
573 166
572 167
571 168
570 169
569 170
569 171
568 172
567 173
566 174
566 175
565 176
564 177
564 178
563 179
562 180
561 181
561 182
560 183
560 184
559 185
558 186
558 187
557 188
557 189
556 190
556 191
555 192
555 193
554 194
554 195
553 196
553 197
552 198
552 199
551 200
551 201
550 202
550 203
550 204
549 205
549 206
549 207
549 208
549 209
549 210
549 211
549 212
548 213
548 214
548 215
548 216
548 217
547 218
547 219
547 220
546 221
546 222
546 223
546 224
545 225
545 226
545 227
545 228
545 229
545 230
545 231
545 232
545 233
545 234
545 235
545 236
545 237
545 238
545 239
545 240
545 241
545 242
545 243
545 244
545 245
545 246
545 247
545 248
545 249
545 250
545 251
545 252
545 253
546 254
546 255
546 256
546 257
546 258
547 259
547 260
547 261
548 262
548 263
549 264
549 265
550 266
550 267
551 268
552 269
553 270
553 271
554 271
555 272
556 273
557 274
558 274
559 275
560 276
561 276
562 277
563 277
564 277
565 278
566 278
567 279
568 279
569 280
570 281
570 282
570 283
570 284
570 285
569 286
568 287
567 287
566 287
565 287
564 287
563 287
562 287
561 287
560 287
559 287
558 287
557 288
556 288
555 288
554 288
553 288
552 288
551 288
550 288
549 288
548 288
547 288
546 288
545 288
544 288
543 288
542 288
541 288
540 288
539 288
538 288
537 288
536 288
535 288
534 288
533 288
532 288
531 288
530 288
529 288
528 288
527 288
526 288
525 288
524 288
523 288
522 288
521 288
520 288
519 288
518 288
517 288
516 288
515 288
514 288
513 288
512 288
511 288
510 288
509 288
508 288
507 288
506 288
505 288
504 288
503 288
502 288
501 288
500 288
499 288
498 288
497 288
496 288
495 288
494 288
493 287
492 287
491 287
490 287
489 287
488 287
487 287
486 287
485 286
484 286
483 286
482 285
482 284
483 283
484 282
485 281
485 280
486 279
487 278
488 277
488 276
489 275
490 274
491 273
491 272
492 271
492 270
493 269
493 268
494 267
494 266
495 265
496 264
496 263
496 262
497 261
497 260
497 259
498 258
498 257
499 256
499 255
500 254
500 253
500 252
500 251
501 250
501 249
501 248
501 247
501 246
501 245
502 244
502 243
502 242
502 241
502 240
502 239
502 238
502 237
502 236
502 235
502 234
502 233
502 232
502 231
502 230
502 229
502 228
501 227
501 226
501 225
501 224
501 223
501 222
501 221
500 220
500 219
500 218
500 217
499 216
499 215
499 214
498 213
498 212
498 211
498 210
497 209
497 208
497 207
496 206
496 205
496 204
495 203
495 202
495 201
494 200
494 199
493 198
493 197
493 196
492 195
492 194
492 193
491 192
491 191
491 190
491 189
491 188
491 187
490 186
490 185
490 184
490 183
489 182
489 181
489 180
489 179
488 178
488 177
488 176
487 175
487 174
487 173
487 172
487 171
486 170
486 169
486 168
486 167
485 166
485 165
485 164
485 163
484 162
484 161
484 160
484 159
484 158
484 157
484 156
483 155
483 154
483 153
483 152
483 151
483 150
483 149
482 148
482 147
482 146
482 145
481 144
481 143
481 142
480 141
480 140
480 139
480 138
480 137
480 136
479 135
479 134
479 133
479 132
479 131
478 130
478 129
478 128
478 127
478 126
478 125
477 124
477 123
477 122
476 121
476 120
476 119
476 118
475 117
475 116
475 115
475 114
474 113
474 112
474 111
473 110
473 109
472 109
471 108
471 107
471 106
471 105
472 104
471 103
471 102
471 101
471 100
471 99
470 98
470 97
470 96
470 95
469 94
469 93
468 92
468 91
468 90
467 89
467 88
467 87
466 86
466 85
466 84
466 83
465 82
465 81
464 80
464 79
464 78
464 77
463 76
463 75
463 74
462 73
462 72
462 71
462 70
461 69
461 68
461 67
460 66
460 65
460 64
460 63
459 62
459 61
459 60
458 59
458 58
457 57
457 56
457 55
456 54
456 53
456 52
456 51
455 50
455 49
454 48
454 47
454 46
453 45
453 44
453 43
452 42
452 41
452 40
451 39
451 38
450 37
450 36
450 35
449 34
449 33
448 32
448 31
447 30
447 29
446 28
446 27
446 26
445 25
445 24
445 23
445 22
444 21
444 20
443 19
443 18
442 17
442 16
442 15
441 14
441 13
440 13
439 12
438 12
