204 135
203 136
202 136
201 137
200 137
199 137
198 137
197 138
196 138
195 138
194 139
193 139
192 140
191 140
191 141
190 142
189 143
189 144
188 145
187 146
186 147
185 147
184 147
183 147
182 147
181 147
180 147
179 147
178 147
177 147
176 147
175 146
174 146
173 146
172 146
171 147
170 147
169 147
168 147
167 147
166 147
165 147
164 147
163 148
162 148
161 149
160 149
159 149
158 150
157 151
156 151
155 152
154 152
153 153
152 153
151 154
150 155
149 156
148 156
147 157
146 158
145 159
144 160
143 161
142 162
141 163
140 164
139 165
139 166
139 167
138 168
138 169
137 170
136 171
136 172
136 173
136 174
135 175
134 176
134 177
134 178
134 179
133 180
133 181
132 182
132 183
132 184
132 185
132 186
132 187
132 188
132 189
132 190
132 191
132 192
132 193
132 194
133 195
133 196
133 197
134 198
134 199
135 200
135 201
135 202
135 203
135 204
136 205
136 206
136 207
136 208
136 209
136 210
136 211
136 212
136 213
136 214
136 215
136 216
136 217
136 218
136 219
136 220
136 221
136 222
136 223
136 224
137 225
137 226
138 227
138 228
139 229
139 230
140 231
140 232
141 233
141 234
142 235
142 236
142 237
142 238
142 239
142 240
142 241
141 242
140 243
139 244
138 245
137 245
136 245
135 246
134 247
133 247
132 248
131 248
130 249
129 250
128 251
127 251
126 252
125 253
125 254
124 255
123 255
122 256
121 257
120 258
119 259
119 260
119 261
118 262
117 263
117 264
116 265
116 266
115 267
115 268
115 269
114 270
114 271
114 272
114 273
114 274
114 275
114 276
114 277
114 278
114 279
113 280
113 281
114 282
114 283
113 284
113 285
114 286
114 287
114 288
114 289
114 290
115 291
115 292
116 293
116 294
116 295
117 296
117 297
118 298
119 299
119 300
118 301
119 302
119 303
119 304
120 305
120 306
120 307
121 308
122 309
123 310
123 311
123 312
124 313
125 314
126 315
126 316
126 317
127 318
128 319
128 320
129 321
129 322
130 323
131 324
131 325
132 326
132 327
133 328
134 329
134 330
134 331
135 332
135 333
135 334
135 335
135 336
135 337
135 338
134 339
133 340
132 340
131 341
131 342
130 343
129 344
128 345
127 345
126 346
125 346
124 347
123 348
122 349
121 349
120 350
119 351
118 351
117 352
116 353
115 353
114 354
114 355
113 356
112 357
111 357
110 358
110 359
110 360
109 361
109 362
109 363
109 364
108 365
107 365
107 366
108 367
109 368
109 369
110 369
111 370
111 371
110 372
111 373
111 374
112 375
113 376
114 377
114 378
114 379
115 380
116 381
117 382
118 383
118 384
118 385
118 386
119 387
119 388
119 389
119 390
120 391
120 392
121 393
121 394
122 395
122 396
123 396
124 397
124 398
125 399
126 400
127 400
128 401
128 402
129 403
130 404
131 405
132 406
133 407
134 408
135 408
136 409
137 410
137 411
138 411
139 412
140 413
141 414
141 415
142 416
143 417
144 418
144 419
145 420
146 421
146 422
147 423
148 423
149 424
149 425
150 425
151 426
152 427
153 428
154 428
155 429
156 429
157 430
158 431
159 431
160 432
161 433
162 433
163 434
164 435
165 436
165 437
165 438
166 439
166 440
166 441
166 442
166 443
165 444
165 445
165 446
165 447
164 448
164 449
163 450
162 451
162 452
161 453
161 454
161 455
161 456
160 457
160 458
159 459
158 460
158 461
158 462
158 463
157 464
157 465
157 466
156 467
156 468
156 469
156 470
156 471
155 472
155 473
155 474
155 475
155 476
156 477
156 478
156 479
156 480
157 481
158 482
158 483
159 484
159 485
160 485
161 486
162 487
162 488
163 488
164 489
165 489
166 489
167 490
167 491
168 491
169 491
170 491
171 491
172 491
173 492
174 492
175 492
176 492
177 493
178 493
179 493
180 494
181 494
182 494
183 494
184 494
185 494
186 494
187 494
188 494
189 494
190 493
191 493
192 493
193 492
194 492
195 491
196 491
197 491
198 491
199 491
200 491
201 490
202 490
203 490
204 490
205 489
206 489
207 489
208 489
209 490
210 490
211 490
212 490
213 490
214 491
214 492
215 493
216 494
217 495
218 496
218 497
219 498
219 499
220 500
221 501
221 502
222 503
223 504
223 505
224 506
224 507
224 508
225 509
225 510
226 511
226 512
226 513
226 514
227 515
228 516
228 517
229 518
229 519
229 520
229 521
230 522
231 522
232 523
233 524
234 524
235 525
236 526
237 526
238 526
239 526
240 527
241 527
242 527
243 528
244 528
245 528
246 528
247 528
248 529
249 529
250 530
251 530
252 531
253 531
254 531
255 532
256 533
257 533
258 534
259 534
260 534
261 535
262 535
263 535
264 535
265 535
266 535
267 535
268 534
269 534
270 534
271 533
272 533
273 532
274 531
275 531
276 530
277 529
278 528
279 527
280 526
281 525
282 524
283 523
283 522
284 521
285 520
285 519
286 518
286 517
287 516
288 515
288 514
288 513
288 512
289 511
289 510
289 509
290 508
290 507
290 506
291 505
291 504
292 503
292 502
292 501
293 500
293 499
293 498
294 497
294 496
295 495
295 494
295 493
295 492
296 491
296 490
296 489
297 488
297 487
297 486
297 485
298 484
298 483
298 482
299 481
299 480
299 479
300 478
300 477
300 476
301 475
301 474
301 473
302 472
302 471
302 470
303 469
303 468
303 467
303 466
303 465
304 464
304 463
304 462
304 461
304 460
305 459
305 458
305 457
305 456
305 455
306 454
306 453
306 452
307 451
307 450
307 449
308 448
308 447
308 446
308 445
309 444
309 443
309 442
309 441
310 440
310 439
310 438
311 437
311 436
311 435
312 434
312 433
312 432
313 431
313 430
313 429
313 428
314 427
314 426
314 425
314 424
315 423
315 422
315 421
315 420
315 419
316 418
316 417
316 416
316 415
317 414
317 413
317 412
317 411
318 410
318 409
318 408
319 407
319 406
320 405
320 404
320 403
321 402
321 401
321 400
322 399
322 398
322 397
323 396
323 395
323 394
323 393
324 392
324 391
324 390
324 389
325 388
325 387
325 386
326 385
326 384
327 383
327 382
327 381
328 380
328 379
329 378
330 377
330 376
331 375
332 374
332 373
332 372
333 371
334 370
334 369
335 368
336 367
337 366
338 365
339 364
339 363
340 362
341 361
342 360
343 359
344 358
344 357
345 356
346 355
346 354
347 353
348 352
349 351
350 350
351 349
352 348
353 347
354 346
355 345
356 344
357 343
358 342
359 342
360 341
361 340
362 340
363 339
364 338
365 337
366 337
367 336
368 336
369 335
370 334
371 333
372 333
373 332
374 332
375 331
376 330
377 330
378 329
379 329
380 329
381 328
382 328
383 328
384 327
385 327
386 327
387 326
388 326
389 326
390 326
391 325
392 325
393 325
394 325
395 325
396 325
397 325
398 325
399 325
400 325
401 325
402 325
403 325
404 325
405 325
406 325
407 325
408 325
409 325
410 325
411 325
412 324
413 324
414 324
415 324
416 324
417 324
418 324
419 324
420 324
421 324
422 324
423 324
424 324
425 324
426 324
427 324
428 324
429 324
430 324
431 324
432 324
433 324
434 324
435 324
436 324
437 324
438 324
439 324
440 324
441 324
442 324
443 324
444 325
445 325
446 325
447 325
448 325
449 325
450 325
451 325
452 325
453 325
454 325
455 325
456 325
457 325
458 325
459 325
460 325
461 325
462 325
463 325
464 325
465 326
466 326
467 326
468 326
469 326
470 326
471 326
472 326
473 326
474 326
475 326
476 327
477 327
478 327
479 327
480 327
481 327
482 327
483 327
484 327
485 327
486 327
487 327
488 327
489 327
490 327
491 328
492 328
493 328
494 328
495 328
496 328
497 328
498 328
499 328
500 329
501 329
502 329
503 329
504 329
505 329
506 329
507 329
508 330
509 330
510 330
511 330
512 330
513 330
514 331
515 331
516 331
517 331
518 331
519 331
520 332
521 332
522 332
523 332
524 332
525 332
526 332
527 333
528 333
529 333
530 333
531 333
532 333
533 334
534 334
535 334
536 334
537 335
538 335
539 335
540 335
541 336
542 336
543 336
544 336
545 336
546 336
547 336
548 337
549 337
550 337
551 337
552 338
553 338
554 338
555 338
556 338
557 339
558 339
559 339
560 339
561 339
562 340
563 340
564 340
565 340
566 340
567 340
568 341
569 342
570 342
571 342
572 342
573 342
574 343
575 343
576 343
577 344
578 344
579 344
580 344
581 345
582 345
583 345
584 345
585 345
586 346
587 346
588 346
589 347
590 347
591 347
592 347
593 348
594 348
595 349
596 349
597 349
598 349
599 350
600 350
601 350
602 351
603 351
604 351
605 352
606 352
607 352
608 353
609 353
610 354
611 354
612 354
613 355
614 355
615 356
616 356
617 357
618 357
619 358
620 359
621 359
622 360
623 360
624 361
625 361
626 361
627 360
628 360
629 361
630 362
631 362
632 363
633 364
634 365
635 364
635 363
635 362
635 361
636 360
637 361
637 360
637 359
638 358
637 359
636 360
635 361
634 360
634 359
634 358
634 357
633 358
632 358
631 359
630 358
629 357
629 356
629 355
629 354
630 353
631 353
632 353
633 354
634 353
635 353
636 354
636 355
637 356
638 355
638 354
637 353
636 353
635 352
634 351
633 351
632 350
631 350
630 350
629 349
628 349
627 349
626 349
625 349
624 349
623 348
622 348
621 348
620 348
619 347
618 347
617 346
616 346
615 346
614 346
613 345
612 345
611 345
610 345
609 345
608 344
607 344
606 344
605 343
604 343
603 343
602 342
601 342
600 342
599 342
598 341
597 341
596 341
595 341
594 340
593 340
592 340
591 339
590 339
589 339
588 339
587 339
586 338
585 338
584 338
583 337
582 337
581 337
580 337
579 337
578 337
577 337
576 336
575 336
574 335
573 335
572 335
571 335
570 334
569 334
568 334
567 333
566 333
565 333
564 333
563 333
562 333
561 332
560 332
559 331
558 331
557 331
556 331
555 331
554 331
553 331
552 330
551 330
550 330
549 330
548 329
547 329
546 329
545 329
544 328
543 328
542 328
541 328
540 328
539 328
538 327
537 327
536 327
535 327
534 327
533 326
532 326
531 326
530 326
529 326
528 325
527 325
526 325
525 325
524 324
523 324
522 324
521 324
520 324
519 324
518 323
517 323
516 323
515 323
514 323
513 323
512 323
511 322
510 322
509 322
508 322
507 322
506 322
505 321
504 321
503 321
502 321
501 321
500 321
499 321
498 321
497 321
496 320
495 320
494 320
493 320
492 320
491 320
490 320
489 320
488 320
487 319
486 319
485 319
484 319
483 319
482 319
481 319
480 319
479 319
478 319
477 319
476 319
475 318
474 318
473 318
472 318
471 318
470 318
469 318
468 318
467 318
466 318
465 318
464 318
463 318
462 317
461 317
460 317
459 317
458 317
457 317
456 317
455 317
454 317
453 317
452 317
451 317
450 317
449 317
448 317
447 316
446 316
445 316
444 316
443 316
442 316
441 316
440 316
439 316
438 316
437 316
436 316
435 316
434 316
433 316
432 316
431 316
430 316
429 316
428 316
427 316
426 316
425 316
424 316
423 316
422 316
421 316
420 316
419 316
418 316
417 316
416 316
415 316
414 316
413 315
412 315
411 315
410 316
409 316
408 315
407 315
406 315
405 315
404 315
403 315
402 316
401 315
400 316
399 315
398 315
397 315
396 315
395 315
394 315
393 315
392 315
391 315
390 315
389 315
388 314
387 314
386 314
385 314
384 314
383 314
382 314
381 313
380 313
379 312
378 312
377 311
376 311
375 310
374 310
373 309
372 309
371 308
370 307
369 307
368 306
367 305
366 305
365 304
364 303
363 302
362 302
361 301
360 300
359 300
358 299
357 298
356 297
355 296
354 296
353 295
352 294
351 293
350 292
349 291
348 290
347 289
346 288
345 287
344 286
343 285
342 284
341 283
340 282
339 281
338 281
337 280
336 279
336 278
335 277
334 276
333 275
332 274
331 273
330 272
329 271
328 270
327 269
326 268
326 267
325 266
324 265
323 264
322 263
321 262
321 261
320 260
320 259
319 259
318 258
318 257
317 256
317 255
316 255
315 254
315 253
314 252
313 251
313 250
312 249
312 248
311 247
310 246
309 245
308 244
308 243
307 242
307 241
306 241
305 240
305 239
304 238
304 237
303 236
303 235
302 234
301 233
300 232
299 231
299 230
298 229
298 228
297 227
296 226
295 225
295 224
294 223
294 222
293 221
292 220
292 219
291 218
290 217
289 216
289 215
288 214
287 213
286 212
286 211
285 210
284 209
284 208
283 207
282 206
281 205
280 204
280 203
279 203
278 202
278 201
277 200
276 199
275 198
274 197
273 196
272 195
272 194
271 193
270 192
270 191
269 190
268 189
267 188
267 187
266 186
265 185
264 184
264 183
263 182
262 181
261 180
260 179
260 178
259 177
258 177
257 176
256 175
256 174
255 173
254 172
253 171
252 170
251 169
250 168
250 167
249 166
248 165
247 164
246 163
245 163
244 162
244 161
243 161
242 160
241 159
241 158
240 157
240 156
239 156
238 155
237 154
237 153
236 153
235 152
234 151
233 150
232 149
231 148
230 147
229 146
228 145
227 144
226 143
225 142
224 141
223 141
222 140
221 140
220 139
220 138
219 137
218 137
217 137
216 136
215 136
214 136
213 136
212 136
211 135
210 135
209 135
208 135
207 135
206 135
205 135
204 135
