36 224
36 225
36 226
36 227
36 228
36 229
36 230
36 231
36 232
37 233
37 234
38 235
39 236
40 237
41 238
42 239
43 240
44 241
45 242
46 243
47 244
47 245
48 246
48 247
49 248
49 249
50 250
50 251
50 252
50 253
50 254
50 255
50 256
51 257
51 258
51 259
51 260
52 261
52 262
53 263
53 264
54 265
54 266
54 267
55 268
55 269
56 270
56 271
56 272
57 273
57 274
57 275
57 276
57 277
58 278
58 279
58 280
58 281
59 282
59 283
59 284
60 285
60 286
61 287
62 288
62 289
63 290
63 291
64 292
64 293
64 294
65 295
65 296
66 297
67 298
68 299
69 300
69 301
70 302
70 303
71 304
71 305
72 306
72 307
73 308
74 309
75 310
76 311
77 312
77 313
78 314
79 315
80 316
81 317
82 318
83 319
84 319
85 320
86 321
87 322
88 322
89 323
90 324
91 324
92 324
93 324
94 324
95 324
96 324
97 324
98 324
99 324
100 324
101 324
102 324
103 324
104 324
105 325
106 325
107 325
108 325
109 325
110 325
111 325
112 325
113 325
114 325
115 325
116 325
117 326
118 326
119 327
120 327
121 328
121 329
122 330
122 331
123 331
124 331
125 332
126 332
127 333
128 333
129 334
129 335
130 336
129 337
129 338
129 339
128 340
128 341
127 342
127 343
127 344
127 345
126 346
126 347
126 348
126 349
125 350
125 351
125 352
125 353
124 354
124 355
124 356
124 357
124 358
123 359
123 360
123 361
123 362
123 363
123 364
123 365
123 366
123 367
123 368
123 369
123 370
123 371
123 372
122 373
122 374
121 375
121 376
121 377
120 378
120 379
119 380
119 381
118 382
118 383
117 384
117 385
116 386
115 387
115 388
114 389
113 390
112 391
112 392
111 393
111 394
111 395
111 396
111 397
112 397
113 397
114 397
115 397
116 397
117 397
118 397
119 397
120 396
121 396
122 396
123 396
124 397
125 397
126 398
127 398
128 399
129 399
130 400
131 401
132 402
133 402
134 403
135 403
136 403
137 403
138 403
139 403
140 404
141 404
142 405
143 405
144 405
145 405
146 405
147 405
148 405
149 405
150 405
151 405
152 405
153 405
154 405
155 405
156 405
157 404
158 403
159 403
160 402
161 402
162 401
163 400
164 400
165 399
166 399
167 398
168 398
169 397
170 397
171 396
172 396
173 396
174 396
175 396
176 396
177 395
178 394
179 393
180 392
181 391
182 390
183 390
184 389
185 388
186 387
187 386
188 385
189 384
190 383
191 382
192 382
193 381
194 381
195 382
196 383
197 384
197 385
198 386
198 387
198 388
198 389
198 390
199 391
199 392
199 393
199 394
199 395
199 396
199 397
199 398
199 399
200 400
200 401
199 402
199 403
199 404
199 405
199 406
198 407
198 408
198 409
198 410
198 411
198 412
198 413
198 414
198 415
198 416
198 417
198 418
198 419
198 420
198 421
198 422
199 422
200 422
201 422
202 422
203 422
204 422
205 422
206 422
207 422
208 422
209 421
210 421
211 421
212 421
213 421
214 421
215 421
216 421
217 421
218 421
219 421
220 421
221 421
222 421
223 421
224 421
225 420
226 419
227 418
228 418
229 417
230 416
231 415
232 414
233 413
234 413
235 412
236 411
237 410
238 410
239 409
240 409
241 408
242 407
243 406
244 405
245 404
246 403
247 402
247 401
248 400
248 399
249 398
250 398
251 397
252 396
253 395
254 394
254 393
255 392
256 391
256 390
257 389
258 388
258 387
259 386
259 385
260 384
260 383
261 382
261 381
261 380
262 379
262 378
263 377
263 376
264 375
264 374
265 373
265 372
266 371
266 370
267 369
267 368
268 367
269 366
270 365
271 366
272 367
273 368
273 369
273 370
273 371
273 372
273 373
273 374
273 375
273 376
273 377
273 378
273 379
273 380
273 381
273 382
273 383
273 384
273 385
273 386
273 387
273 388
273 389
273 390
273 391
273 392
273 393
273 394
273 395
273 396
273 397
273 398
273 399
273 400
273 401
274 402
274 403
274 404
274 405
275 406
275 407
275 408
275 409
275 410
275 411
275 412
275 413
276 414
276 415
276 416
276 417
276 418
276 419
276 420
276 421
275 422
275 423
275 424
275 425
274 426
274 427
273 428
273 429
273 430
273 431
273 432
273 433
273 434
273 435
273 436
273 437
273 438
274 438
275 438
276 438
277 438
278 438
279 438
280 437
281 436
282 435
283 434
284 434
285 433
286 432
287 431
288 430
289 430
290 429
291 428
292 428
293 427
294 426
295 425
296 425
297 424
298 424
299 423
300 423
301 422
302 422
303 422
304 421
305 421
306 421
307 421
308 421
309 420
310 420
311 419
312 419
313 418
314 418
315 417
316 416
317 415
318 414
318 413
319 412
319 411
320 410
321 410
322 409
323 409
324 408
324 407
325 406
326 405
327 404
328 403
329 402
330 401
330 400
331 399
332 398
332 397
333 396
333 395
334 394
334 393
335 392
336 391
337 391
338 390
339 391
340 391
341 392
341 393
342 394
342 395
343 396
343 397
343 398
343 399
343 400
343 401
343 402
343 403
343 404
344 405
344 406
344 407
344 408
345 409
345 410
345 411
345 412
345 413
346 414
346 415
346 416
346 417
346 418
346 419
346 420
346 421
346 422
346 423
346 424
345 425
345 426
345 427
345 428
345 429
345 430
345 431
345 432
345 433
344 434
344 435
344 436
344 437
344 438
344 439
344 440
344 441
344 442
344 443
344 444
344 445
344 446
344 447
344 448
344 449
344 450
345 450
346 450
347 450
348 450
349 450
350 450
351 450
351 449
352 448
353 447
353 446
354 445
354 444
355 443
355 442
356 441
357 440
358 439
359 438
360 437
361 436
362 436
363 435
364 434
365 433
366 432
367 431
368 430
369 429
370 428
371 428
372 427
373 427
374 426
375 425
375 424
376 423
377 423
378 422
379 422
380 421
381 421
382 421
383 421
384 420
384 419
385 418
385 417
386 416
386 415
387 414
388 413
389 412
390 411
390 410
391 409
391 408
392 407
392 406
393 405
393 404
394 403
394 402
395 401
395 400
396 399
397 398
398 397
398 396
399 395
400 394
400 393
401 392
401 391
402 390
402 389
403 388
403 387
404 386
404 385
405 384
405 383
406 382
407 382
408 381
409 382
410 383
411 384
411 385
412 386
412 387
412 388
412 389
412 390
412 391
412 392
412 393
412 394
412 395
412 396
412 397
412 398
412 399
412 400
412 401
412 402
412 403
412 404
412 405
412 406
412 407
412 408
412 409
412 410
412 411
412 412
412 413
412 414
413 415
413 416
413 417
413 418
413 419
413 420
413 421
413 422
413 423
413 424
413 425
413 426
413 427
414 428
414 429
415 430
415 431
415 432
415 433
415 434
415 435
415 436
415 437
415 438
415 439
416 440
416 441
416 442
416 443
416 444
417 444
418 444
419 444
420 444
421 444
422 444
423 444
424 444
425 443
426 442
426 441
427 440
428 439
429 438
429 437
430 436
430 435
431 434
432 433
433 432
434 432
435 431
436 430
437 429
438 428
439 427
439 426
440 425
441 424
442 424
443 423
444 423
445 422
446 422
447 421
448 420
449 420
450 419
451 419
452 418
453 418
454 417
455 416
455 415
455 414
455 413
456 412
456 411
457 410
457 409
458 408
459 408
460 407
461 407
461 406
462 405
462 404
463 403
463 402
464 401
465 400
466 399
466 398
467 397
467 396
468 395
469 394
470 393
471 392
472 391
473 390
474 389
474 388
475 387
476 386
476 385
477 384
478 383
479 382
479 381
480 380
480 379
480 378
480 377
481 376
481 375
481 374
482 373
482 372
483 371
483 370
484 369
484 368
485 367
485 366
486 365
486 364
487 363
487 362
488 361
488 360
489 359
489 358
489 357
489 356
489 355
490 354
490 353
491 352
491 351
492 350
493 349
494 349
495 348
495 347
495 346
496 345
496 344
496 343
496 342
496 341
496 340
496 339
496 338
496 337
496 336
496 335
496 334
496 333
496 332
496 331
496 330
496 329
496 328
496 327
495 326
495 325
495 324
495 323
495 322
494 321
494 320
494 319
493 318
494 317
494 316
495 315
496 315
497 314
498 314
499 313
500 313
501 313
502 313
503 313
504 313
505 313
506 313
507 313
508 313
509 313
510 313
511 313
512 314
513 314
514 314
515 314
516 314
517 314
518 314
519 314
520 314
521 314
522 315
523 315
524 316
525 316
526 316
527 316
528 316
529 316
530 316
531 316
532 316
533 316
534 316
535 316
536 316
537 316
538 316
539 316
540 316
541 316
542 317
543 317
544 318
545 318
546 318
547 318
548 318
549 318
550 318
551 318
552 318
553 318
554 318
555 318
556 318
557 318
558 318
559 318
560 318
561 318
562 318
563 318
564 318
565 318
566 318
567 318
568 319
569 319
570 319
571 319
572 319
573 319
574 319
575 319
576 319
577 319
578 319
579 319
580 319
581 319
582 320
583 320
584 320
585 320
586 320
587 320
588 320
589 320
590 320
591 320
592 320
593 320
594 319
595 319
596 318
597 318
598 318
599 318
600 319
601 319
602 319
603 319
604 319
605 319
606 319
607 319
608 319
609 319
610 320
611 320
612 321
613 321
614 322
614 323
615 324
615 325
615 326
615 327
615 328
615 329
615 330
615 331
616 331
617 331
617 330
618 329
619 329
620 328
620 327
620 326
620 325
619 324
618 323
619 322
620 321
621 320
622 320
623 319
624 319
625 319
626 319
627 320
628 320
629 320
630 321
631 321
632 321
633 321
634 321
635 321
636 321
637 321
638 321
639 321
640 321
641 321
642 321
643 321
644 320
645 320
646 320
647 320
648 320
649 320
650 320
651 320
652 320
653 320
654 320
655 320
656 320
657 320
658 320
659 320
660 320
661 320
662 320
663 320
664 320
665 320
666 319
667 319
668 319
669 319
670 319
671 319
672 319
673 319
674 319
675 319
676 319
677 319
678 319
679 319
680 319
681 319
682 319
683 319
684 319
685 319
686 319
687 319
688 319
689 319
690 319
691 319
692 319
693 319
694 319
695 319
696 319
697 319
698 319
699 319
700 319
701 320
702 320
703 321
704 320
705 320
706 319
707 319
708 320
709 321
710 322
709 323
708 324
707 325
706 325
705 324
704 325
703 325
702 326
701 326
700 327
699 327
698 327
697 327
696 327
695 328
694 328
693 328
692 329
691 329
690 329
689 329
688 329
687 329
686 330
685 330
684 330
683 330
682 330
681 330
680 330
679 330
678 330
677 331
676 331
675 331
674 331
673 331
672 331
671 331
670 331
669 331
668 331
668 332
668 333
669 333
670 334
671 335
672 335
673 336
673 337
674 337
675 337
676 337
677 337
678 337
679 337
680 337
681 337
682 337
683 337
684 337
685 337
686 337
687 337
688 337
689 336
690 336
691 336
692 336
693 336
694 336
695 336
696 336
697 336
698 335
699 335
700 335
701 335
702 335
703 335
704 334
705 334
706 334
707 334
708 334
709 333
710 333
711 333
712 333
713 333
714 333
715 333
716 333
717 332
718 332
719 332
720 332
721 332
722 332
723 332
724 331
725 331
726 331
727 331
728 331
729 331
730 330
731 330
732 330
733 330
734 330
735 330
735 329
736 328
736 327
736 326
737 325
737 324
738 323
738 322
739 321
739 320
740 319
741 319
742 318
743 318
744 317
745 317
746 317
747 317
747 316
747 315
747 314
747 313
747 312
747 311
747 310
747 309
746 308
746 307
745 306
744 306
743 306
742 306
741 306
740 306
739 306
738 306
737 306
736 307
735 307
734 308
733 308
732 308
731 309
730 309
729 310
728 310
727 311
726 311
725 311
724 311
723 312
722 312
721 312
720 312
719 312
718 313
717 313
716 313
715 313
714 313
713 313
712 313
711 313
710 313
709 314
708 314
707 314
706 314
705 314
704 314
703 314
702 314
701 314
700 314
699 314
698 314
697 315
696 315
695 315
694 315
693 315
692 315
691 315
690 315
689 315
688 315
687 315
686 315
685 315
684 315
683 315
682 315
681 315
680 315
679 315
678 315
677 315
676 315
675 315
674 315
673 316
672 315
671 315
670 315
669 315
668 315
667 315
666 315
665 315
664 315
663 315
662 315
661 315
660 315
659 316
658 316
657 316
656 316
655 316
654 316
653 316
652 316
651 315
650 315
649 315
648 315
647 315
646 315
645 315
644 315
643 315
642 315
641 315
640 315
639 315
638 315
637 315
636 315
635 315
634 315
633 315
632 315
631 316
630 316
629 316
628 316
627 316
626 316
625 316
624 316
623 316
622 316
621 316
620 316
619 316
618 316
617 316
616 316
615 316
614 315
613 315
612 315
611 315
610 315
609 315
608 315
607 315
606 315
605 315
604 315
603 315
602 315
601 315
600 315
599 315
598 315
597 314
596 314
595 314
594 314
593 314
592 314
591 314
590 314
589 314
588 314
587 314
586 314
585 314
584 314
583 314
582 314
581 314
580 313
579 313
578 313
577 313
576 313
575 313
574 313
573 313
572 313
571 313
570 313
569 313
568 313
567 313
566 313
565 313
564 312
563 312
562 312
561 312
560 312
559 312
558 312
557 312
556 312
555 311
554 311
553 310
552 310
551 310
550 310
549 310
548 310
547 310
546 310
545 310
544 310
543 310
542 310
541 310
540 311
539 311
538 311
537 311
536 310
535 310
534 310
533 310
532 310
531 310
530 310
529 310
528 310
527 310
526 310
525 310
524 309
523 309
522 309
521 309
520 309
519 309
518 309
517 309
516 309
515 308
514 308
513 308
512 308
511 308
510 308
509 308
508 308
507 308
506 308
505 308
504 307
503 307
502 307
501 307
500 307
499 307
498 307
497 307
496 306
495 306
494 305
493 305
492 304
492 303
491 302
492 301
492 300
493 299
493 298
494 297
495 296
496 295
497 294
498 293
499 293
500 292
501 291
502 290
502 289
502 288
502 287
502 286
502 285
502 284
502 283
502 282
502 281
502 280
502 279
501 279
500 278
499 277
499 276
498 275
498 274
498 273
498 272
498 271
498 270
499 269
499 268
499 267
499 266
499 265
499 264
499 263
499 262
499 261
499 260
499 259
499 258
499 257
499 256
499 255
499 254
499 253
499 252
499 251
498 251
497 250
496 250
495 249
494 249
493 248
493 247
492 246
492 245
491 244
491 243
491 242
490 241
490 240
490 239
489 238
489 237
488 236
488 235
487 234
487 233
486 232
486 231
485 230
485 229
484 228
483 227
483 226
482 225
482 224
481 223
481 222
480 221
480 220
479 219
479 218
478 217
478 216
477 215
477 214
477 213
476 212
476 211
475 210
475 209
474 208
474 207
473 206
473 205
473 204
472 203
471 202
470 201
469 200
468 199
467 198
466 197
465 196
464 196
463 195
462 194
461 193
460 192
459 191
458 190
458 189
457 188
457 187
456 186
455 185
455 184
454 183
454 182
453 181
453 180
452 179
452 178
451 177
451 176
450 175
449 175
448 175
447 175
446 175
445 175
444 175
443 175
442 175
441 175
440 175
439 175
439 176
439 177
438 178
438 179
438 180
438 181
438 182
437 183
437 184
437 185
437 186
437 187
436 188
436 189
436 190
436 191
435 192
435 193
435 194
434 195
434 196
434 197
433 198
433 199
433 200
433 201
433 202
433 203
433 204
432 205
432 206
432 207
432 208
432 209
432 210
432 211
432 212
432 213
432 214
432 215
432 216
431 217
431 218
431 219
431 220
431 221
431 222
431 223
430 224
430 225
430 226
430 227
430 228
430 229
430 230
430 231
429 232
429 233
429 234
429 235
429 236
429 237
429 238
429 239
429 240
429 241
429 242
429 243
429 244
429 245
429 246
429 247
429 248
429 249
428 250
428 251
427 252
426 253
425 254
424 253
423 252
422 251
422 250
421 249
421 248
421 247
421 246
421 245
421 244
421 243
421 242
420 241
420 240
420 239
420 238
419 237
419 236
419 235
418 234
418 233
418 232
418 231
418 230
418 229
418 228
418 227
418 226
417 225
417 224
417 223
416 222
416 221
415 220
414 219
414 218
413 217
412 216
411 215
411 214
410 213
410 212
409 211
409 210
408 209
408 208
407 207
407 206
407 205
407 204
406 203
405 202
405 201
404 200
403 199
403 198
402 197
402 196
401 195
400 194
400 193
399 192
398 191
397 190
397 189
396 188
395 187
395 186
394 185
394 184
393 183
393 182
392 181
392 180
391 179
391 178
391 177
390 176
390 175
389 174
389 173
389 172
388 171
388 170
388 169
387 168
387 167
387 166
387 165
387 164
387 163
387 162
387 161
386 161
385 161
384 161
383 161
382 162
381 163
381 164
380 165
379 166
379 167
379 168
378 169
378 170
378 171
377 172
377 173
377 174
377 175
376 176
376 177
376 178
376 179
376 180
375 181
375 182
375 183
374 184
374 185
373 186
373 187
372 188
372 189
371 190
371 191
370 192
369 193
369 194
368 195
368 196
367 197
367 198
366 199
366 200
365 201
365 202
365 203
364 204
364 205
364 206
364 207
363 208
363 209
363 210
362 211
362 212
361 213
361 214
360 215
360 216
360 217
359 218
359 219
359 220
358 221
358 222
357 223
357 224
357 225
357 226
356 227
356 228
355 229
354 230
353 231
352 230
351 229
350 228
350 227
349 226
349 225
349 224
349 223
349 222
349 221
349 220
349 219
349 218
349 217
349 216
349 215
348 214
348 213
348 212
348 211
347 210
347 209
346 208
346 207
346 206
345 205
345 204
344 203
344 202
343 201
343 200
342 199
342 198
341 197
341 196
340 195
340 194
339 193
339 192
338 191
337 190
336 189
335 188
335 187
334 186
333 185
332 184
332 183
331 182
330 181
329 180
328 179
327 178
326 178
325 178
324 178
323 178
322 178
321 178
320 178
319 177
318 177
317 176
316 175
316 174
315 173
315 172
316 171
316 170
317 169
317 168
317 167
317 166
317 165
317 164
317 163
317 162
317 161
317 160
317 159
317 158
317 157
317 156
316 155
316 154
316 153
316 152
315 152
314 152
313 152
312 152
311 152
310 152
309 153
309 154
309 155
308 156
308 157
308 158
307 159
307 160
306 161
306 162
305 163
305 164
304 165
304 166
303 167
303 168
303 169
302 170
302 171
301 172
301 173
300 174
300 175
299 176
298 177
298 178
297 179
297 180
297 181
296 182
296 183
296 184
295 185
295 186
294 187
294 188
294 189
293 190
293 191
293 192
292 193
292 194
291 195
291 196
291 197
290 198
290 199
290 200
290 201
289 202
289 203
289 204
289 205
288 206
288 207
288 208
288 209
288 210
287 211
287 212
286 213
285 214
284 215
283 214
282 214
281 213
281 212
280 211
280 210
279 209
279 208
278 207
278 206
278 205
278 204
277 203
277 202
277 201
276 200
275 199
275 198
274 197
274 196
273 195
273 194
272 193
272 192
271 191
271 190
270 189
269 188
268 187
267 186
267 185
266 184
265 183
265 182
264 181
264 180
263 179
263 178
262 177
261 176
260 175
259 174
258 173
257 172
257 171
256 170
256 169
255 168
255 167
254 166
254 165
254 164
253 163
253 162
252 161
252 160
251 159
251 158
250 157
250 156
249 155
249 154
249 153
248 152
248 151
247 151
246 151
245 151
244 151
243 151
243 152
242 153
242 154
242 155
242 156
241 157
241 158
240 159
240 160
240 161
239 162
239 163
239 164
239 165
238 166
238 167
237 168
237 169
237 170
236 171
236 172
235 173
235 174
234 175
234 176
233 177
233 178
232 179
232 180
231 181
231 182
230 183
230 184
229 185
228 186
228 187
228 188
228 189
228 190
227 191
227 192
227 193
227 194
227 195
226 196
226 197
226 198
226 199
225 200
225 201
224 202
224 203
224 204
224 205
224 206
223 207
223 208
223 209
223 210
222 211
222 212
222 213
221 214
221 215
220 216
219 217
218 218
217 217
216 216
215 215
215 214
214 213
214 212
213 211
213 210
212 209
212 208
211 207
211 206
210 205
210 204
210 203
209 202
208 201
207 200
206 199
205 198
204 197
203 197
202 196
202 195
201 194
201 193
200 192
200 191
199 190
199 189
198 188
197 187
196 186
195 185
194 184
193 183
192 182
192 181
191 180
190 179
189 178
189 177
188 176
187 175
187 174
186 173
186 172
185 171
184 170
183 169
182 168
182 167
181 166
181 165
180 164
180 163
180 162
179 161
179 160
178 159
177 159
176 159
175 159
174 159
173 159
172 159
171 159
170 159
170 160
170 161
170 162
170 163
170 164
170 165
170 166
170 167
169 168
169 169
169 170
169 171
168 172
168 173
168 174
167 175
167 176
167 177
166 178
166 179
166 180
165 181
165 182
165 183
164 184
164 185
163 186
163 187
163 188
163 189
163 190
163 191
163 192
163 193
162 194
162 195
161 196
161 197
160 198
160 199
160 200
159 201
159 202
158 203
158 204
158 205
157 206
157 207
157 208
157 209
157 210
157 211
157 212
157 213
157 214
157 215
157 216
157 217
157 218
157 219
157 220
157 221
157 222
157 223
157 224
158 225
159 226
160 227
161 228
161 229
162 230
161 231
161 232
160 233
159 233
158 234
157 234
156 235
155 235
154 235
153 235
152 235
151 235
150 235
149 235
148 234
147 233
146 232
145 231
144 230
143 229
142 228
141 227
141 226
140 225
139 224
138 223
137 222
136 221
136 220
135 219
134 218
133 217
132 216
131 216
130 216
129 216
128 215
127 215
126 215
125 215
124 215
123 215
122 215
121 215
120 215
119 215
118 215
117 215
116 215
115 214
114 214
113 214
112 214
111 214
110 214
109 214
108 214
107 214
106 214
105 214
104 214
103 214
102 214
101 214
100 214
99 214
98 214
97 214
96 214
95 214
94 214
93 214
92 214
91 214
90 214
89 214
88 214
87 214
86 214
85 214
84 214
83 214
82 214
81 215
80 215
79 215
78 216
77 216
76 216
75 217
74 217
73 217
72 218
71 218
70 218
69 219
68 219
67 219
66 219
65 219
64 219
63 220
62 220
61 220
60 220
59 220
58 221
57 221
56 221
55 221
54 221
53 222
52 222
51 223
50 223
49 224
48 224
47 224
46 224
45 224
44 224
43 224
42 224
41 224
40 224
39 224
38 224
37 224
36 224
