389 44
388 45
387 46
386 47
386 48
386 49
385 50
385 51
385 52
384 53
384 54
384 55
384 56
384 57
383 58
383 59
383 60
383 61
383 62
383 63
383 64
384 65
384 66
384 67
384 68
384 69
384 70
384 71
384 72
385 73
385 74
385 75
385 76
385 77
385 78
384 79
384 80
384 81
384 82
384 83
384 84
384 85
384 86
384 87
384 88
384 89
384 90
384 91
384 92
384 93
384 94
384 95
384 96
384 97
384 98
383 99
383 100
383 101
383 102
382 103
382 104
382 105
382 106
381 107
381 108
381 109
381 110
380 111
380 112
380 113
380 114
380 115
380 116
379 117
379 118
379 119
379 120
379 121
378 122
378 123
378 124
378 125
379 126
378 127
377 127
376 126
375 127
374 128
374 129
373 130
372 131
372 132
372 133
371 134
371 135
371 136
370 137
370 138
370 139
370 140
370 141
370 142
369 143
369 144
369 145
369 146
369 147
369 148
369 149
369 150
369 151
369 152
369 153
369 154
370 155
370 156
370 157
370 158
370 159
370 160
370 161
370 162
370 163
370 164
370 165
369 166
369 167
369 168
369 169
369 170
369 171
369 172
369 173
369 174
369 175
369 176
370 177
370 178
370 179
370 180
370 181
370 182
369 183
369 184
369 185
369 186
369 187
369 188
369 189
369 190
368 191
368 192
368 193
368 194
368 195
368 196
368 197
368 198
368 199
368 200
368 201
368 202
368 203
369 204
369 205
369 206
369 207
369 208
369 209
369 210
369 211
369 212
369 213
369 214
370 215
370 216
370 217
370 218
370 219
371 220
371 221
371 222
371 223
372 224
372 225
372 226
372 227
373 228
373 229
373 230
373 231
374 232
374 233
374 234
375 235
375 236
375 237
376 238
376 239
376 240
376 241
377 242
377 243
377 244
377 245
378 246
378 247
378 248
379 249
379 250
379 251
380 252
380 253
380 254
380 255
381 256
381 257
381 258
382 259
382 260
382 261
383 262
383 263
383 264
384 265
384 266
384 267
384 268
385 269
385 270
385 271
385 272
386 273
386 274
386 275
387 276
387 277
387 278
388 279
388 280
388 281
389 282
389 283
390 284
390 285
391 286
391 287
392 288
393 289
393 290
394 291
394 292
395 293
396 294
396 295
397 296
397 297
398 298
398 299
399 300
400 301
400 302
401 303
401 304
402 305
403 306
403 307
404 308
404 309
405 310
405 311
406 312
407 313
407 314
408 315
408 316
409 317
410 318
410 319
411 320
412 321
413 322
413 323
414 324
415 325
416 326
416 327
417 328
418 329
419 330
419 331
420 332
421 333
422 334
423 335
424 336
425 337
425 338
426 339
427 340
428 341
429 342
430 343
431 344
432 345
433 346
434 347
435 348
436 348
437 349
437 350
438 351
439 352
440 353
441 354
442 355
443 356
444 357
445 358
446 358
447 359
448 360
449 361
449 362
450 362
451 363
452 364
453 365
454 365
455 366
455 367
456 367
457 368
458 368
459 369
460 370
461 371
462 372
463 372
464 373
465 374
466 374
467 375
468 375
469 376
470 377
471 377
472 378
473 379
474 379
475 380
476 380
477 381
478 381
479 381
480 382
481 383
482 383
483 383
484 384
485 384
486 385
487 385
488 386
489 386
490 386
491 387
492 387
493 387
494 388
495 388
496 388
497 389
498 389
499 390
498 391
497 391
496 391
495 391
494 391
493 391
492 391
491 391
490 391
489 391
488 391
487 391
486 391
485 391
484 391
483 391
482 390
481 390
480 390
479 390
478 390
477 390
476 390
475 390
474 389
473 389
472 388
471 388
470 387
469 387
468 386
467 385
466 385
465 385
464 384
463 383
462 382
461 382
460 381
459 380
458 379
457 378
456 377
455 376
454 375
453 374
452 373
451 372
450 371
449 370
448 369
447 368
446 368
445 367
444 366
443 365
442 364
441 363
440 362
439 361
438 361
437 360
436 359
435 358
434 358
433 357
432 356
431 355
430 355
429 354
428 354
427 353
426 352
425 352
424 351
423 351
422 350
421 349
420 349
419 348
418 347
417 347
416 346
415 345
414 345
413 344
412 343
411 342
410 342
409 341
408 340
407 339
406 339
405 338
404 338
403 337
402 337
401 336
400 336
399 335
398 335
397 334
396 334
395 333
394 333
393 333
392 332
391 332
390 331
389 331
388 331
387 330
386 330
385 330
384 329
383 329
382 329
381 328
380 328
379 328
378 327
377 327
376 326
375 326
374 326
373 325
372 325
371 325
370 324
369 324
368 323
367 323
366 323
365 322
364 322
363 322
362 322
361 321
360 321
359 321
358 320
357 320
356 320
355 319
354 319
353 319
352 319
351 319
350 319
349 318
348 318
347 318
346 318
345 318
344 317
343 317
342 317
341 317
340 317
339 316
338 316
337 316
336 315
335 315
334 315
333 314
332 314
331 314
330 313
329 313
328 313
327 313
326 312
325 312
324 312
323 312
322 312
321 312
320 311
319 311
318 311
317 311
316 310
315 310
314 310
313 310
312 309
311 309
310 309
309 309
308 309
307 308
306 308
305 308
304 308
303 308
302 308
301 308
300 308
299 308
298 308
297 308
296 308
295 308
294 308
293 307
292 307
291 307
290 307
289 307
288 307
287 307
286 307
285 307
284 307
283 307
282 307
281 307
280 307
279 307
278 307
277 307
276 307
275 307
274 307
273 307
272 307
271 307
270 307
269 307
268 307
267 307
266 307
265 307
264 307
263 307
262 307
261 307
260 307
259 308
258 308
257 308
256 308
255 308
254 308
253 308
252 308
251 308
250 308
249 309
248 309
247 309
246 309
245 309
244 309
243 309
242 309
241 309
240 309
239 309
238 309
237 309
236 309
235 309
234 309
233 310
232 310
231 310
230 311
229 311
228 311
227 311
226 312
225 312
224 312
223 312
222 313
221 313
220 313
219 314
218 314
217 314
216 314
215 314
214 315
213 315
212 315
211 315
210 316
209 316
208 316
207 316
206 317
205 317
204 317
203 318
202 318
201 319
200 319
199 320
198 320
197 321
196 321
195 322
194 322
193 323
192 323
191 324
190 324
189 325
188 325
187 325
186 326
185 326
184 327
183 328
182 328
181 329
180 330
179 330
178 331
177 332
176 333
175 334
174 335
173 335
172 336
171 337
170 338
169 338
168 339
167 340
166 340
165 341
164 342
163 343
162 343
161 344
160 345
159 345
158 346
157 347
156 348
155 348
154 349
153 350
152 351
151 352
150 353
149 353
148 354
147 355
146 356
145 356
144 357
143 358
142 359
141 360
140 360
139 361
138 362
137 363
136 364
135 365
134 366
133 367
132 367
131 368
130 369
129 370
128 371
127 372
126 372
125 373
124 374
123 375
122 376
121 377
120 378
119 379
118 380
117 380
116 381
115 382
114 383
113 384
112 385
111 385
110 386
109 386
108 387
107 388
106 389
105 389
105 390
104 391
103 392
102 393
101 394
101 395
101 396
102 397
103 398
103 399
104 400
104 401
103 402
102 402
101 403
100 403
99 404
98 404
97 405
96 405
95 406
94 407
93 408
92 409
92 410
91 411
90 412
89 413
88 414
88 415
87 416
86 417
85 418
84 419
84 420
83 421
82 422
81 423
80 424
79 425
78 426
77 427
76 428
75 429
74 430
73 431
72 432
71 433
71 434
70 435
70 436
69 437
68 438
68 439
67 440
67 441
66 442
65 443
64 444
64 445
63 446
62 447
61 448
60 448
59 449
58 450
57 451
56 452
55 452
54 453
53 454
52 455
51 456
50 457
49 457
48 458
48 459
47 460
46 461
45 462
44 463
43 464
43 465
43 466
43 467
44 468
45 469
45 470
46 471
47 471
48 472
49 473
50 473
51 474
52 474
53 475
54 475
55 476
56 476
57 476
58 476
59 477
60 477
61 477
62 477
63 477
64 477
65 477
66 477
67 478
68 478
69 479
70 479
71 480
72 480
73 480
74 481
75 481
76 482
77 482
78 483
79 483
80 484
81 484
82 485
83 485
84 485
85 486
86 486
87 487
88 487
89 488
90 489
91 489
92 490
93 490
94 491
95 491
96 492
97 492
98 492
99 493
100 493
101 493
102 494
103 494
104 494
105 495
106 495
107 495
108 495
109 496
110 496
111 496
112 496
113 497
114 498
114 499
113 500
113 501
112 502
111 503
111 504
111 505
111 506
112 506
113 507
114 508
115 509
116 509
117 510
118 510
119 510
120 511
121 511
122 512
123 512
124 512
125 513
126 513
127 514
128 514
129 515
130 515
131 516
132 516
133 517
134 517
135 518
136 518
137 519
138 519
139 520
140 520
141 520
142 521
143 521
144 521
145 521
146 522
147 522
148 522
149 522
150 522
151 523
152 523
153 523
154 523
155 523
156 523
157 524
158 524
159 524
160 524
161 524
162 524
163 524
164 524
165 525
166 525
167 525
168 525
169 525
170 525
171 526
172 526
173 526
174 526
175 526
176 526
177 526
178 526
179 526
180 526
181 526
182 526
183 527
183 528
183 529
183 530
183 531
183 532
182 533
182 534
182 535
182 536
182 537
183 538
184 539
185 540
186 540
187 540
188 541
189 541
190 542
191 542
192 542
193 542
194 543
195 543
196 543
197 543
198 543
199 543
200 543
201 543
202 543
203 544
204 544
205 545
206 546
207 546
208 547
209 547
210 548
211 548
212 548
213 548
214 549
215 549
216 549
217 549
218 549
219 549
220 549
221 549
222 549
223 549
224 548
225 548
226 548
227 548
228 548
229 548
230 547
231 547
232 547
233 547
234 547
235 547
236 547
237 546
238 546
239 546
240 546
241 546
242 546
243 545
244 545
245 545
246 545
247 544
248 544
249 544
250 544
251 543
252 543
253 543
254 543
255 543
256 542
257 542
258 541
259 541
260 540
261 540
262 540
263 539
264 539
265 539
266 538
267 538
268 538
269 538
270 537
271 537
272 537
273 537
274 536
275 536
276 536
277 535
278 535
279 535
280 534
281 534
282 534
283 533
284 533
285 532
286 532
287 532
288 531
289 531
290 530
291 530
292 530
293 529
294 529
295 529
296 528
297 528
298 528
299 527
300 527
301 527
302 527
303 526
304 526
305 526
306 526
307 525
308 525
309 525
310 524
311 524
312 524
313 523
314 522
315 522
316 522
317 521
318 521
319 520
320 520
321 520
322 519
323 519
324 518
325 518
326 518
327 517
328 517
329 516
330 516
331 515
332 515
333 514
334 513
335 513
336 513
337 512
338 512
339 511
340 511
341 511
342 510
343 509
344 509
345 508
346 508
347 507
348 506
349 505
350 505
351 504
352 503
353 503
354 502
355 501
356 501
357 500
358 499
359 498
360 498
361 497
362 496
363 496
364 495
365 494
366 494
367 493
368 492
369 491
370 490
371 489
372 488
373 487
374 487
375 486
376 485
377 484
378 484
379 483
380 482
381 481
382 480
383 480
384 479
385 478
386 477
387 476
388 476
389 475
390 474
391 473
392 472
393 472
394 471
395 471
396 470
397 469
398 469
399 468
400 468
401 467
402 467
403 466
404 465
405 465
406 464
407 463
408 462
409 461
410 462
411 461
412 460
413 459
413 458
414 457
415 456
416 455
417 454
416 453
417 452
418 452
419 451
420 451
421 450
422 449
423 448
424 447
425 446
426 445
426 444
427 443
428 443
429 442
428 441
428 440
429 439
430 438
431 437
432 436
432 435
433 434
434 434
434 433
435 432
436 431
437 432
438 431
437 430
438 429
438 428
439 427
440 428
440 427
441 426
442 425
442 424
442 423
443 422
444 423
445 422
446 421
447 420
447 419
448 418
447 417
448 416
449 416
450 416
450 415
451 414
452 414
452 413
453 412
453 411
454 410
455 410
456 409
457 408
458 407
458 406
459 405
460 405
460 404
461 403
462 403
463 402
464 401
465 400
466 400
467 400
468 399
469 399
470 399
471 398
472 398
473 398
474 398
475 398
476 397
477 397
478 397
479 397
480 397
481 397
482 397
483 397
484 397
485 397
486 398
487 398
488 398
489 398
490 398
491 398
492 398
493 398
494 398
495 399
496 399
497 399
498 399
499 399
500 399
501 399
502 399
503 400
504 400
505 400
506 400
507 400
508 401
509 401
510 401
511 402
512 402
513 402
514 403
515 403
516 404
517 404
518 404
519 405
520 405
521 406
522 406
523 407
524 408
524 409
524 410
523 411
522 412
521 412
520 412
519 413
518 413
517 413
516 413
515 413
514 413
513 413
512 414
511 414
510 414
509 414
508 414
507 414
506 415
505 415
504 415
503 415
502 415
501 415
500 415
499 416
498 416
497 416
496 417
495 417
494 417
493 417
492 417
491 418
490 418
489 418
488 418
487 418
486 418
485 419
484 419
483 419
482 419
481 420
480 420
479 420
478 421
477 421
476 421
475 422
474 422
473 422
472 423
471 423
470 424
469 424
468 425
467 425
466 425
465 426
464 427
463 427
462 428
461 428
460 429
459 429
458 430
457 430
456 431
455 432
454 432
453 433
452 434
451 434
450 435
449 436
448 437
447 437
446 438
445 438
444 439
443 440
442 440
441 441
440 442
439 443
438 443
437 444
436 445
435 445
434 446
433 447
432 447
431 448
430 449
429 450
428 450
427 451
426 452
425 453
424 454
423 455
422 456
421 456
420 457
419 458
418 458
417 459
416 460
415 460
414 461
413 462
412 463
411 464
410 465
409 466
408 467
407 468
407 469
406 470
405 471
404 472
403 473
402 474
401 475
401 476
400 477
399 478
398 479
397 480
397 481
396 482
395 483
394 484
393 485
392 486
391 487
390 488
390 489
389 490
388 491
387 492
386 493
385 494
385 495
384 496
383 497
382 498
381 499
380 500
379 501
379 502
378 503
378 504
377 505
377 506
376 507
375 508
375 509
374 510
373 511
373 512
372 513
371 514
371 515
370 516
369 517
368 518
367 519
366 520
365 521
364 522
364 523
363 524
362 525
361 526
360 527
360 528
359 529
358 530
358 531
357 532
356 533
356 534
355 535
355 536
354 537
354 538
353 539
353 540
352 541
352 542
351 543
351 544
350 545
350 546
349 547
349 548
348 549
348 550
347 551
346 552
346 553
345 554
345 555
344 556
344 557
343 558
343 559
343 560
342 561
342 562
342 563
342 564
341 565
341 566
341 567
340 568
340 569
340 570
339 571
339 572
339 573
339 574
338 575
338 576
338 577
337 578
337 579
336 580
336 581
336 582
335 583
335 584
334 585
334 586
334 587
334 588
333 589
333 590
333 591
333 592
332 593
332 594
332 595
331 596
331 597
331 598
331 599
331 600
331 601
331 602
330 603
330 604
330 605
330 606
330 607
330 608
329 609
329 610
329 611
328 612
328 613
328 614
328 615
328 616
327 617
327 618
327 619
327 620
327 621
327 622
327 623
327 624
327 625
327 626
327 627
327 628
327 629
327 630
326 631
326 632
326 633
326 634
326 635
326 636
326 637
326 638
325 639
325 640
325 641
325 642
325 643
325 644
325 645
325 646
325 647
325 648
325 649
325 650
325 651
325 652
325 653
325 654
325 655
325 656
325 657
325 658
325 659
325 660
325 661
325 662
325 663
325 664
325 665
325 666
326 667
326 668
326 669
326 670
326 671
326 672
326 673
326 674
326 675
326 676
326 677
326 678
326 679
326 680
326 681
326 682
326 683
326 684
326 685
326 686
326 687
326 688
326 689
326 690
326 691
326 692
326 693
326 694
326 695
326 696
326 697
326 698
326 699
326 700
326 701
325 702
325 703
325 704
325 705
325 706
325 707
325 708
325 709
325 710
325 711
325 712
324 713
324 714
324 715
324 716
324 717
324 718
324 719
324 720
323 721
323 722
323 723
323 724
323 725
322 726
322 727
322 728
321 729
321 730
321 731
321 732
320 733
320 734
320 735
320 736
320 737
320 738
321 739
321 740
321 741
322 741
323 741
324 741
325 741
326 740
327 740
328 740
329 740
330 739
331 739
332 738
333 738
334 737
335 737
336 737
337 736
338 736
339 735
340 734
341 734
342 733
343 733
344 732
345 732
346 731
347 730
348 729
349 728
350 728
351 727
352 727
353 726
354 725
355 725
356 724
357 724
358 724
359 724
360 723
361 723
362 722
363 722
364 721
365 721
366 720
367 720
368 719
369 718
370 718
371 717
372 716
373 716
374 715
375 714
376 713
377 713
378 712
379 711
380 711
381 710
382 709
383 708
384 707
385 707
386 706
387 705
388 705
389 704
390 703
391 703
392 702
393 701
394 700
395 700
396 699
397 698
398 698
399 697
400 696
401 695
402 694
403 694
404 694
405 694
406 694
407 694
408 694
409 694
410 694
411 693
412 693
413 693
414 692
415 692
416 691
417 691
418 690
419 689
420 689
421 688
422 688
423 688
422 687
423 686
424 685
425 685
426 684
427 683
428 682
429 681
430 680
431 679
432 678
433 678
434 677
435 676
436 675
437 674
438 673
439 672
440 671
441 670
442 670
443 669
444 668
445 668
446 667
447 667
448 666
448 665
449 664
450 664
450 663
451 662
452 662
452 661
453 660
454 660
455 659
455 658
456 657
457 656
458 656
459 655
459 654
460 653
461 652
462 651
463 651
464 650
465 650
466 649
467 648
468 647
469 646
470 645
471 644
472 643
473 642
474 641
474 640
475 639
476 638
476 637
477 636
478 635
479 634
480 635
481 636
481 637
482 638
482 639
483 640
483 641
484 641
485 642
486 642
487 642
488 642
489 642
490 642
491 642
492 642
493 642
494 641
495 641
496 641
497 640
498 639
499 639
500 638
501 637
502 636
503 635
504 634
505 633
506 632
507 631
508 630
509 630
510 629
511 628
512 627
512 626
513 625
514 624
514 623
515 622
516 621
517 620
517 619
518 618
519 617
519 616
520 615
521 614
521 613
522 612
523 611
523 610
524 609
524 608
525 607
526 606
526 605
527 604
527 603
528 602
528 601
528 600
529 599
529 598
529 597
530 596
530 595
531 594
531 593
532 592
533 591
533 590
534 589
534 588
535 587
535 586
536 585
536 584
537 583
537 582
538 581
538 580
538 579
539 578
539 577
540 576
540 575
540 574
540 573
540 572
541 571
541 570
541 569
541 568
542 567
542 566
542 565
542 564
543 563
543 562
543 561
543 560
543 559
543 558
544 557
544 556
545 555
545 554
545 553
546 552
546 551
546 550
547 549
547 548
547 547
547 546
547 545
547 544
547 543
547 542
548 541
548 540
548 539
548 538
548 537
548 536
548 535
548 534
548 533
548 532
548 531
548 530
548 529
549 528
549 527
549 526
549 525
549 524
549 523
549 522
549 521
549 520
549 519
549 518
549 517
549 516
549 515
549 514
549 513
549 512
549 511
549 510
549 509
549 508
548 507
548 506
548 505
549 504
549 503
549 502
549 501
549 500
549 499
549 498
549 497
549 496
549 495
549 494
549 493
549 492
549 491
549 490
549 489
548 488
548 487
548 486
548 485
548 484
547 483
547 482
547 481
546 480
546 479
545 478
545 477
545 476
544 475
544 474
544 473
544 472
543 471
543 470
543 469
543 468
542 467
542 466
541 465
541 464
540 463
540 462
539 461
539 460
539 459
538 458
538 457
537 456
536 455
536 454
535 453
534 452
533 451
533 450
533 449
532 448
531 447
531 446
530 445
529 444
528 443
527 442
527 441
526 441
525 440
525 439
524 438
524 437
524 436
523 435
523 434
523 433
523 432
524 431
524 430
525 429
525 428
525 427
526 426
526 425
526 424
527 423
527 422
527 421
528 420
528 419
528 418
528 417
528 416
529 415
529 414
529 413
529 412
530 411
531 410
532 410
533 410
534 410
535 410
536 410
537 411
538 411
539 411
540 411
541 412
542 412
543 412
544 412
545 413
546 413
547 414
548 414
549 414
550 415
551 415
552 416
553 416
554 416
555 417
556 417
557 418
558 418
559 418
560 419
561 419
562 420
563 420
564 421
565 421
566 421
567 422
568 422
569 423
570 423
571 424
572 424
573 424
574 425
575 425
576 426
577 426
578 426
579 427
580 427
581 428
582 428
583 429
584 429
585 430
586 430
587 431
588 431
589 431
590 432
591 432
592 433
593 433
594 434
595 434
596 434
597 435
598 435
599 436
600 436
601 437
602 437
603 437
604 438
605 438
606 438
607 439
608 439
609 439
610 440
611 440
612 441
613 441
614 442
615 442
616 442
617 443
618 443
619 443
620 444
621 444
622 444
623 445
624 445
625 445
626 446
627 446
628 446
629 447
630 447
631 447
632 447
633 448
634 448
635 449
636 449
637 450
638 450
639 450
640 450
641 451
642 451
643 451
644 452
645 452
646 452
647 453
648 453
649 453
650 454
651 454
652 454
653 454
654 455
655 455
656 455
657 455
658 456
659 456
660 456
661 457
662 457
663 457
664 458
665 458
666 458
667 458
668 459
669 459
670 459
671 460
672 460
673 460
674 460
675 460
676 461
677 461
678 461
679 462
680 462
681 462
682 462
683 463
684 463
685 463
686 463
687 464
688 464
689 464
690 464
691 465
692 465
693 465
694 465
695 466
696 466
697 466
698 467
699 467
700 467
701 468
702 468
703 469
704 469
705 470
706 470
707 470
708 471
709 472
710 472
711 473
712 473
713 474
714 474
715 475
716 475
717 476
718 477
719 477
720 478
721 479
722 479
723 480
724 481
725 482
726 483
727 484
728 485
729 484
730 485
731 485
732 485
733 485
733 484
734 483
734 482
734 481
735 480
735 479
736 478
736 477
737 476
738 476
738 475
739 474
739 473
739 472
739 471
739 470
738 470
737 469
736 469
735 469
734 468
733 468
732 467
731 467
730 466
729 466
728 466
727 466
726 466
725 466
724 466
723 466
722 465
721 465
720 464
719 463
718 463
717 462
716 462
715 462
714 461
713 461
712 460
711 460
710 459
709 459
708 459
707 459
706 458
705 458
704 458
703 457
702 457
701 457
700 457
699 456
698 456
697 456
696 456
695 456
694 455
693 455
692 455
691 455
690 454
689 454
688 454
687 454
686 453
685 453
684 453
683 453
682 452
681 452
680 452
679 452
678 451
677 451
676 451
675 450
674 450
673 450
672 450
671 449
670 449
669 449
668 449
667 448
666 448
665 448
664 447
663 447
662 447
661 447
660 446
659 446
658 446
657 446
656 445
655 445
654 445
653 444
652 444
651 444
650 443
649 443
648 443
647 443
646 442
645 442
644 442
643 442
642 441
641 441
640 441
639 440
638 440
637 440
636 439
635 439
634 439
633 438
632 438
631 438
630 437
629 437
628 437
627 436
626 436
625 436
624 435
623 435
622 435
621 434
620 434
619 434
618 433
617 433
616 433
615 432
614 432
613 432
612 431
611 431
610 430
609 430
608 430
607 429
606 429
605 429
604 428
603 428
602 427
601 427
600 426
599 426
598 426
597 425
596 425
595 425
594 424
593 424
592 423
591 423
590 423
589 422
588 422
587 421
586 421
585 421
584 420
583 420
582 419
581 419
580 419
579 418
578 418
577 417
576 417
575 416
574 416
573 416
572 415
571 415
570 414
569 414
568 413
567 413
566 413
565 412
564 412
563 411
562 411
561 410
560 410
559 409
558 409
557 408
556 408
555 408
554 407
553 407
552 406
551 406
550 405
549 405
548 404
547 404
546 403
545 403
544 402
543 402
542 401
541 401
540 401
539 400
538 400
537 399
536 399
535 399
534 398
533 397
533 396
533 395
532 394
532 393
532 392
532 391
532 390
531 389
531 388
531 387
531 386
530 385
530 384
530 383
529 382
529 381
529 380
529 379
528 378
528 377
528 376
528 375
528 374
528 373
528 372
528 371
528 370
529 369
530 368
531 367
532 366
533 365
534 365
535 364
536 363
537 362
538 361
539 361
540 360
540 359
541 358
542 358
543 358
544 357
544 356
545 355
546 354
547 353
548 352
549 352
549 351
550 350
551 349
551 348
552 347
553 346
554 345
554 344
555 343
556 342
556 341
557 340
557 339
558 338
558 337
559 336
560 335
560 334
560 333
561 332
561 331
562 330
562 329
563 328
563 327
563 326
564 325
564 324
564 323
565 322
565 321
565 320
566 319
566 318
566 317
567 316
567 315
567 314
568 313
568 312
568 311
569 310
569 309
569 308
570 307
570 306
570 305
571 304
571 303
571 302
572 301
572 300
572 299
572 298
572 297
573 296
573 295
573 294
573 293
574 292
574 291
574 290
574 289
575 288
575 287
575 286
576 285
576 284
576 283
576 282
577 281
577 280
577 279
577 278
577 277
577 276
578 275
578 274
578 273
578 272
578 271
579 270
579 269
579 268
579 267
579 266
579 265
580 264
580 263
580 262
580 261
580 260
580 259
580 258
580 257
580 256
580 255
580 254
580 253
580 252
580 251
580 250
580 249
580 248
580 247
580 246
580 245
580 244
580 243
580 242
580 241
579 240
579 239
579 238
579 237
579 236
579 235
579 234
579 233
579 232
578 231
578 230
578 229
578 228
578 227
577 226
577 225
577 224
577 223
576 222
576 221
576 220
575 219
575 218
575 217
574 216
574 215
573 214
572 213
571 212
570 211
569 210
568 210
567 209
566 208
565 209
564 210
563 209
563 208
563 207
564 206
563 205
563 204
563 203
563 202
562 201
562 200
561 199
561 198
560 197
559 196
558 195
558 194
557 193
556 192
555 191
554 190
553 189
552 188
551 187
550 186
549 185
549 184
548 183
547 182
546 182
545 181
544 180
543 180
542 179
541 179
540 179
539 178
538 178
537 178
536 178
535 178
534 178
533 178
532 178
532 179
531 180
530 181
529 181
528 182
527 182
526 183
525 184
524 183
524 182
524 181
524 180
523 179
523 178
523 177
522 176
522 175
522 174
521 173
521 172
520 171
520 170
519 169
518 168
518 167
517 166
517 165
516 164
516 163
515 162
514 161
513 160
512 159
512 158
511 157
510 156
510 155
509 154
508 153
508 152
507 151
506 150
505 149
505 148
504 147
503 146
502 145
501 144
500 143
499 142
498 141
497 140
496 139
495 138
495 137
494 136
493 136
492 135
491 134
490 133
489 132
489 131
488 130
487 129
487 128
486 127
485 126
484 125
483 124
483 123
482 122
481 121
481 120
480 119
479 118
478 117
477 116
476 116
475 115
474 115
473 115
472 116
471 117
471 118
470 119
469 118
468 117
468 116
467 115
466 114
465 113
465 112
464 111
463 110
462 109
461 108
460 107
459 106
458 105
457 104
456 103
455 102
454 101
453 100
452 99
451 99
450 98
449 98
448 97
447 96
446 96
445 95
444 94
443 93
442 93
441 92
440 91
439 90
438 89
437 88
436 87
435 86
435 85
434 85
433 84
432 83
431 82
430 81
429 80
428 79
427 78
426 78
425 77
424 76
423 75
422 74
421 73
420 72
420 71
419 70
418 69
417 68
416 67
415 66
414 65
413 65
412 64
411 63
410 62
409 61
408 60
407 59
406 58
405 57
404 56
403 55
402 54
401 53
400 52
399 51
398 50
397 49
396 48
395 48
394 47
393 46
392 46
391 45
390 45
389 44
