366 117
365 118
364 118
363 118
362 118
361 118
360 118
359 118
358 118
357 118
356 118
355 118
354 118
353 118
352 118
351 119
350 119
349 119
348 119
347 119
346 119
345 120
344 120
343 120
342 120
341 120
340 120
339 120
338 120
337 120
336 121
335 121
334 121
333 121
332 120
331 120
330 120
329 120
328 120
327 120
326 120
325 120
324 120
323 120
322 121
321 121
320 121
319 121
318 121
317 121
316 121
315 122
314 122
313 122
312 122
311 122
310 122
309 123
308 123
307 123
306 123
305 124
304 124
303 124
302 124
301 124
300 124
299 124
298 125
297 125
296 125
295 125
294 125
293 125
292 125
291 125
290 126
289 126
288 126
287 126
286 126
285 127
284 127
283 127
282 127
281 128
280 128
279 128
278 128
277 129
276 129
275 129
274 129
273 130
272 130
271 130
270 130
269 130
268 131
267 131
266 131
265 131
264 132
263 132
262 132
261 132
260 132
259 132
258 132
257 132
256 132
255 132
254 132
253 133
252 133
251 133
250 133
249 133
248 134
247 134
246 134
245 134
244 134
243 134
242 135
241 135
240 135
239 135
238 135
237 135
236 136
235 136
234 136
233 136
232 137
231 137
230 137
229 138
228 138
227 138
226 139
225 139
224 139
223 139
222 140
221 140
220 141
219 141
218 141
217 142
216 142
215 143
214 143
213 144
212 144
211 145
210 145
209 145
208 146
207 147
206 147
205 147
204 148
203 148
202 148
201 149
200 149
199 150
198 150
197 150
196 151
195 151
194 151
193 152
192 152
191 153
190 153
189 153
188 154
187 154
186 154
185 155
184 155
183 155
182 156
181 156
180 156
179 157
178 157
177 157
176 158
175 158
174 158
173 159
172 159
171 159
170 160
169 160
168 160
167 161
166 161
165 162
164 162
163 163
162 163
161 163
160 164
159 164
158 165
157 165
156 165
155 166
154 166
153 167
152 167
151 167
150 168
149 169
148 169
147 170
146 170
145 171
144 171
143 172
142 173
141 173
140 173
139 174
138 174
137 175
136 176
135 176
134 177
133 177
132 178
131 179
130 179
129 180
128 181
127 181
126 182
125 182
124 183
123 184
122 185
121 185
120 186
119 187
118 188
117 188
116 189
115 190
114 191
113 192
112 193
111 194
110 195
109 196
108 197
107 198
106 199
105 200
104 201
103 201
103 202
102 203
101 203
101 204
100 205
99 206
98 207
97 208
97 209
96 210
96 211
95 212
95 213
95 214
94 215
94 216
94 217
94 218
93 219
93 220
93 221
93 222
93 223
93 224
93 225
93 226
93 227
93 228
93 229
93 230
93 231
93 232
93 233
93 234
93 235
93 236
93 237
93 238
93 239
93 240
94 241
94 242
94 243
94 244
94 245
94 246
94 247
95 248
95 249
95 250
95 251
96 252
97 253
97 254
97 255
98 256
99 257
99 258
100 258
101 259
101 260
102 261
103 262
104 263
105 264
106 265
106 266
107 267
108 268
109 268
110 268
111 269
112 270
113 271
113 272
114 273
115 273
116 274
117 274
118 275
119 275
120 275
121 276
122 276
123 277
124 277
125 277
126 278
127 278
128 279
129 279
130 279
131 280
132 280
133 280
134 280
135 281
136 281
137 281
138 282
139 282
140 283
141 283
142 283
143 283
144 284
145 284
146 285
147 285
148 285
149 286
150 286
151 287
152 287
153 288
154 288
155 289
156 289
157 290
158 290
159 291
160 291
161 291
162 292
163 292
164 293
165 293
166 293
167 294
168 294
169 295
170 295
171 295
172 295
173 296
174 296
175 296
176 296
177 297
178 297
179 297
180 297
181 297
182 297
183 297
184 297
185 297
186 298
187 298
188 298
189 298
190 298
191 298
192 298
193 299
194 299
195 299
196 299
197 299
198 299
199 300
200 300
201 300
202 300
203 300
204 300
205 300
206 299
207 299
208 299
209 299
210 299
211 299
212 299
213 299
214 299
215 299
216 299
217 299
218 299
219 299
220 299
221 300
222 300
223 300
224 300
225 300
226 300
227 300
228 300
229 300
230 301
231 301
232 301
233 301
234 301
235 301
236 301
237 301
238 302
239 302
240 302
241 302
242 302
243 302
244 302
245 303
246 303
247 303
248 303
249 303
250 303
251 304
252 304
253 304
254 304
255 304
256 304
257 304
258 304
259 304
260 304
261 304
262 304
263 304
264 304
265 304
266 304
267 304
268 304
269 304
270 304
271 304
272 304
273 304
274 304
275 304
276 304
277 304
278 304
279 304
280 304
281 304
282 304
283 304
284 304
285 304
286 304
287 304
288 304
289 304
290 304
291 304
292 304
293 304
294 304
295 303
296 303
297 303
298 303
299 303
300 303
301 303
302 303
303 303
304 303
305 302
306 302
307 302
308 302
309 302
310 302
311 302
312 302
313 302
314 302
315 302
316 301
317 301
318 301
319 301
320 301
321 301
322 301
323 300
324 300
325 300
326 300
327 299
328 299
329 299
330 299
331 298
332 298
333 298
334 297
335 296
336 296
337 295
338 295
339 295
340 294
341 294
342 294
343 294
344 293
345 293
346 293
347 293
348 292
349 292
350 292
351 292
352 292
353 292
354 292
355 292
356 292
357 292
358 292
359 292
360 292
361 292
362 292
363 291
364 291
365 291
366 291
367 291
368 291
369 291
370 290
371 290
372 290
373 290
374 290
375 289
376 289
377 289
378 288
379 288
380 287
381 287
382 287
383 286
384 286
385 286
386 286
387 285
388 285
389 285
390 284
391 284
392 284
393 283
394 283
395 283
396 283
397 283
398 283
399 282
400 282
401 282
402 282
403 282
404 281
405 281
406 281
407 281
408 281
409 280
410 280
411 280
412 279
413 279
414 279
415 278
416 278
417 278
418 278
419 278
420 278
421 278
422 277
423 277
424 277
425 277
426 277
427 277
428 277
429 277
430 277
431 276
432 276
433 276
434 275
435 275
436 275
437 274
438 274
439 274
440 273
441 273
442 273
443 272
444 272
445 272
446 271
447 271
448 271
449 270
450 270
451 269
452 269
453 269
454 269
455 268
456 268
457 267
458 267
459 266
460 266
461 265
462 265
463 265
464 265
465 264
466 264
467 263
468 263
469 262
470 262
471 261
472 261
473 261
474 260
475 260
476 259
477 259
478 258
479 258
480 258
481 257
482 257
483 257
484 257
485 256
486 256
487 256
488 256
489 256
490 256
491 255
492 255
493 255
494 255
495 254
496 254
497 253
498 253
499 253
500 252
501 252
502 252
503 251
504 251
505 251
506 250
507 250
508 249
509 249
510 249
511 249
512 249
513 248
514 248
515 248
516 248
517 248
518 248
519 248
520 248
521 247
522 247
523 247
524 247
525 246
526 246
527 246
528 246
529 246
530 245
531 245
532 245
533 245
534 245
535 245
536 245
537 244
538 244
539 244
540 243
541 243
542 243
543 242
544 242
545 241
546 241
547 241
548 240
549 240
550 240
551 239
552 239
553 239
554 238
555 238
556 237
557 237
558 236
559 236
560 236
561 235
562 235
563 234
564 234
565 233
566 233
567 232
568 232
569 232
570 231
571 231
572 231
573 230
574 230
575 229
576 229
577 229
578 228
579 228
580 228
581 228
582 227
583 227
584 227
585 227
586 226
587 226
588 226
589 226
590 226
591 226
592 226
593 225
594 225
595 225
596 225
597 225
598 225
599 224
600 224
601 224
602 224
603 224
604 224
605 224
606 224
607 224
608 224
609 223
610 223
611 223
612 222
613 222
614 222
615 222
616 221
617 221
618 221
619 221
620 221
621 221
622 221
623 221
624 220
625 220
626 220
627 220
628 219
629 219
630 219
631 219
632 218
633 218
634 218
635 218
636 218
637 218
638 218
639 217
640 217
641 217
642 217
643 217
644 217
645 217
646 217
647 217
648 217
649 217
650 217
651 217
652 217
653 217
654 217
655 217
656 217
657 217
658 217
659 217
660 217
661 218
662 218
663 218
664 218
665 218
666 218
667 218
668 218
669 218
670 218
671 218
672 218
673 218
674 217
675 217
676 217
677 216
678 215
679 214
680 213
680 212
681 211
681 210
681 209
681 208
681 207
681 206
680 205
679 204
678 204
677 204
676 204
675 203
674 203
673 203
672 202
671 202
670 202
669 202
668 202
667 202
666 202
665 202
664 202
663 202
662 201
661 201
660 201
659 201
658 201
657 201
656 201
655 201
654 201
653 201
652 201
651 201
650 201
649 201
648 201
647 201
646 201
645 200
644 200
643 200
642 199
641 199
640 199
639 199
638 199
637 198
636 198
635 198
634 197
633 197
632 196
631 196
630 196
629 195
628 195
627 195
626 194
625 194
624 194
623 193
622 193
621 193
620 192
619 192
618 191
617 190
616 189
615 189
614 188
613 187
612 187
611 186
610 185
609 184
608 183
607 183
606 182
605 181
604 180
603 179
602 179
601 178
600 177
599 176
598 176
597 175
596 175
595 174
595 173
594 173
593 173
592 172
591 171
590 171
589 170
588 169
587 169
586 168
585 167
584 167
583 166
582 165
581 165
580 164
579 164
578 163
577 163
576 162
575 162
574 161
573 161
572 160
571 159
570 158
569 158
568 157
567 156
566 156
565 155
564 155
563 154
562 153
561 153
560 152
559 152
558 151
557 151
556 150
555 150
554 149
553 148
552 148
551 147
550 147
549 147
548 146
547 146
546 145
545 145
544 144
543 144
542 144
541 143
540 143
539 142
538 142
537 142
536 141
535 141
534 141
533 140
532 140
531 140
530 140
529 139
528 139
527 139
526 138
525 138
524 138
523 137
522 137
521 137
520 136
519 136
518 136
517 135
516 135
515 135
514 135
513 134
512 134
511 134
510 134
509 133
508 133
507 133
506 133
505 132
504 132
503 132
502 131
501 131
500 131
499 131
498 130
497 130
496 129
495 129
494 129
493 129
492 128
491 128
490 128
489 128
488 127
487 127
486 127
485 127
484 126
483 126
482 126
481 126
480 125
479 125
478 125
477 125
476 125
475 125
474 125
473 125
472 125
471 125
470 125
469 125
468 124
467 124
466 124
465 124
464 124
463 124
462 124
461 124
460 124
459 123
458 123
457 123
456 122
455 122
454 122
453 121
452 121
451 121
450 121
449 120
448 120
447 120
446 120
445 119
444 119
443 119
442 119
441 119
440 119
439 119
438 119
437 118
436 118
435 118
434 118
433 118
432 118
431 118
430 118
429 118
428 118
427 118
426 118
425 118
424 118
423 118
422 118
421 117
420 117
419 117
418 117
417 117
416 117
415 117
414 117
413 117
412 117
411 117
410 117
409 117
408 117
407 117
406 117
405 117
404 117
403 117
402 117
401 117
400 117
399 117
398 117
397 117
396 117
395 117
394 117
393 117
392 117
391 117
390 117
389 117
388 117
387 117
386 117
385 117
384 117
383 117
382 117
381 117
380 117
379 117
378 117
377 117
376 117
375 117
374 117
373 117
372 117
371 117
370 117
369 117
368 117
367 117
366 117
