408 38
407 39
406 40
406 41
405 42
404 43
403 44
402 45
401 46
400 47
399 48
398 49
397 49
396 50
395 50
394 51
393 51
392 52
391 53
390 53
389 54
388 54
388 55
387 56
386 57
385 58
384 59
383 60
383 61
382 62
381 63
381 64
380 65
379 66
378 67
378 68
378 69
377 70
377 71
377 72
377 73
376 74
375 75
375 76
374 77
374 78
373 79
372 79
372 80
371 81
370 82
370 83
370 84
370 85
369 86
368 86
367 87
367 88
367 89
366 90
366 91
366 92
365 93
364 94
364 95
364 96
364 97
364 98
364 99
363 100
363 101
362 102
362 103
362 104
362 105
362 106
362 107
362 108
361 109
360 110
360 111
360 112
360 113
360 114
360 115
359 116
359 117
359 118
359 119
359 120
359 121
359 122
359 123
359 124
359 125
359 126
358 127
358 128
358 129
358 130
358 131
358 132
358 133
359 134
359 135
359 136
359 137
359 138
359 139
360 140
360 141
360 142
360 143
360 144
360 145
360 146
360 147
360 148
361 149
361 150
361 151
361 152
361 153
361 154
361 155
362 156
362 157
362 158
361 159
361 160
361 161
362 162
362 163
362 164
362 165
363 166
363 167
363 168
364 169
364 170
364 171
364 172
364 173
364 174
365 175
365 176
365 177
365 178
365 179
365 180
365 181
365 182
366 183
366 184
366 185
366 186
366 187
366 188
366 189
367 190
367 191
367 192
368 193
368 194
369 195
369 196
369 197
369 198
370 199
370 200
371 201
371 202
372 203
372 204
373 205
373 206
373 207
374 208
375 209
375 210
376 211
376 212
377 213
378 214
378 215
379 216
380 217
380 218
381 219
381 220
382 221
382 222
383 223
384 224
385 225
385 226
386 227
386 228
387 229
388 230
389 231
390 232
390 233
390 234
391 235
392 235
393 236
394 237
395 238
395 239
396 239
397 240
398 241
399 241
400 242
401 243
402 244
403 244
404 245
405 246
406 246
407 247
408 247
409 248
410 248
411 248
412 249
413 249
414 249
415 250
416 250
417 251
418 251
419 251
420 251
421 252
422 252
423 253
424 253
425 253
426 253
427 254
428 254
429 254
430 254
431 255
432 255
433 255
434 255
435 255
436 256
437 256
438 256
439 256
440 256
441 256
442 256
443 256
444 257
445 257
446 257
447 257
448 257
449 257
450 258
451 258
452 259
452 260
453 261
453 262
454 263
454 264
455 265
455 266
455 267
455 268
455 269
454 270
453 271
452 271
451 271
450 271
449 271
448 271
447 271
446 271
445 271
444 271
443 271
442 271
441 271
440 271
439 271
438 271
437 271
436 271
435 271
434 271
433 271
432 271
431 271
430 271
429 271
428 271
427 271
426 271
425 271
424 271
423 271
422 271
421 271
420 271
419 271
418 271
417 271
416 271
415 271
414 271
413 271
412 271
411 271
410 271
409 271
408 270
407 270
406 270
405 270
404 270
403 270
402 270
401 270
400 270
399 270
398 270
397 270
396 270
395 270
394 270
393 270
392 269
391 269
390 269
389 269
388 269
387 269
386 269
385 269
384 269
383 269
382 269
381 268
380 268
379 268
378 268
377 268
376 268
375 268
374 268
373 268
372 268
371 267
370 267
369 267
368 267
367 267
366 267
365 267
364 267
363 266
362 266
361 266
360 266
359 266
358 266
357 265
356 265
355 265
354 265
353 265
352 265
351 264
350 264
349 264
348 264
347 264
346 263
345 263
344 263
343 263
342 263
341 262
340 262
339 262
338 262
337 262
336 261
335 261
334 261
333 261
332 260
331 260
330 260
329 260
328 259
327 259
326 259
325 259
324 258
323 258
322 258
321 258
320 257
319 257
318 257
317 256
316 256
315 256
314 256
313 255
312 255
311 255
310 254
309 254
308 253
307 252
306 251
305 250
304 249
303 248
302 248
301 247
300 246
299 245
299 244
298 243
297 242
297 241
296 240
296 239
296 238
296 237
296 236
296 235
296 234
297 233
297 232
297 231
297 230
298 229
298 228
299 227
299 226
299 225
300 224
300 223
301 222
301 221
301 220
302 219
302 218
303 217
303 216
303 215
304 214
304 213
304 212
304 211
305 210
305 209
305 208
306 207
306 206
307 205
307 204
307 203
308 202
308 201
308 200
308 199
308 198
308 197
308 196
308 195
308 194
307 193
307 192
307 191
307 190
307 189
307 188
307 187
307 186
307 185
307 184
307 183
307 182
306 181
306 180
306 179
306 178
306 177
305 176
305 175
304 174
304 173
304 172
304 171
303 170
303 169
303 168
303 167
302 166
302 165
301 165
300 164
300 163
300 162
300 161
299 160
299 159
299 158
298 157
298 156
297 155
297 154
297 153
296 152
295 151
294 150
294 149
294 148
293 147
293 146
292 145
291 144
291 143
290 142
290 141
290 140
289 139
289 138
288 137
288 136
287 135
287 134
287 133
286 132
285 131
285 130
284 129
283 129
282 128
282 127
281 126
281 125
281 124
280 123
279 122
279 121
278 120
278 119
277 118
276 117
275 116
274 115
274 114
273 113
273 112
272 111
272 110
271 109
271 108
270 107
269 107
268 106
267 105
267 104
266 103
265 102
264 101
264 100
263 99
262 98
261 97
260 96
259 96
258 96
257 95
256 94
255 94
254 93
254 92
253 91
252 90
252 89
251 89
250 88
249 87
248 86
247 85
247 84
246 83
245 82
244 81
243 80
242 80
241 80
240 79
239 78
238 78
237 77
236 76
235 75
234 75
233 74
232 73
231 72
230 71
229 70
228 70
227 70
226 70
225 69
224 69
223 68
222 67
221 67
220 66
219 67
218 67
217 66
216 66
215 66
214 66
213 65
212 65
211 65
210 65
209 65
208 64
207 64
206 63
205 63
204 63
203 63
202 63
201 63
200 63
199 63
198 63
197 63
196 63
195 63
194 63
193 63
192 63
191 63
190 63
189 63
188 62
187 63
186 63
185 63
184 63
183 63
182 63
181 62
180 62
179 62
178 62
177 62
176 62
175 61
174 61
173 61
172 60
171 60
170 59
169 58
168 58
167 57
166 57
165 57
165 58
165 59
164 60
164 61
164 62
164 63
164 64
165 65
164 66
164 67
165 68
165 69
165 70
164 71
163 72
163 73
162 74
162 75
161 76
161 77
160 78
160 79
159 80
158 81
158 82
158 83
158 84
157 85
157 86
157 87
156 88
156 89
156 90
156 91
156 92
155 93
155 94
156 95
156 96
156 97
155 98
154 99
154 100
154 101
154 102
154 103
154 104
154 105
153 106
153 107
153 108
154 109
154 110
154 111
154 112
154 113
154 114
154 115
154 116
154 117
154 118
154 119
155 120
155 121
155 122
155 123
155 124
155 125
156 126
156 127
156 128
157 129
157 130
157 131
157 132
157 133
156 134
156 135
156 136
156 137
157 138
157 139
157 140
158 141
158 142
159 143
159 144
159 145
159 146
160 147
160 148
161 149
161 150
162 151
162 152
163 153
163 154
164 155
164 156
164 157
164 158
165 159
165 160
165 161
166 162
167 163
167 164
168 165
168 166
168 167
169 168
169 169
170 170
171 171
172 172
172 173
173 174
174 175
174 176
175 177
176 178
176 179
177 180
177 181
177 182
177 183
177 184
178 185
178 186
179 187
179 188
180 189
181 190
181 191
182 192
182 193
183 194
183 195
184 196
184 197
185 198
186 199
186 200
187 201
188 202
188 203
189 204
190 205
191 206
192 207
193 208
194 209
195 210
196 211
197 212
198 213
199 214
200 215
201 215
202 216
203 217
204 218
205 219
205 220
206 220
207 221
208 222
209 223
210 224
211 225
212 226
213 227
214 228
215 228
216 229
217 229
218 230
219 231
220 231
221 232
222 232
223 233
224 233
225 234
226 235
227 236
228 236
229 237
230 237
231 238
232 238
233 239
234 239
235 240
236 240
237 240
238 241
239 241
240 241
241 242
242 242
243 242
244 242
245 243
246 243
247 244
248 244
249 244
250 244
251 245
252 245
253 245
254 245
255 245
256 245
257 245
258 246
259 246
260 246
261 246
262 246
263 246
264 246
265 246
266 246
267 246
268 246
269 246
270 246
271 246
272 246
273 246
274 246
275 246
276 246
277 246
278 246
279 246
280 246
281 246
282 246
283 246
284 246
285 246
286 246
287 246
288 246
289 246
290 246
291 247
292 247
293 248
294 248
295 248
296 249
297 250
298 251
299 252
299 253
299 254
298 255
297 256
296 256
295 257
294 258
293 259
292 260
291 260
290 261
289 262
288 263
287 263
286 264
285 265
284 265
283 266
282 267
281 267
280 268
279 269
278 269
277 270
276 271
275 271
274 271
273 272
272 273
271 273
270 274
269 274
268 275
267 275
266 275
265 276
264 276
263 277
262 277
261 278
260 278
259 278
258 279
257 279
256 280
255 280
254 280
253 281
252 281
251 281
250 281
249 281
248 282
247 282
246 282
245 282
244 281
243 281
242 281
241 281
240 280
239 280
238 279
237 278
236 278
235 277
234 277
233 276
232 275
231 275
230 274
229 273
228 273
227 272
226 271
225 271
224 270
223 269
222 269
221 268
220 267
219 267
218 266
217 266
216 265
215 265
214 264
213 264
212 263
211 262
210 262
209 261
208 260
207 260
206 259
205 259
204 258
203 258
202 257
201 257
200 257
199 256
198 256
197 255
196 255
195 254
194 254
193 253
192 253
191 253
190 253
189 253
188 252
187 252
186 252
185 251
184 251
183 251
182 250
181 250
180 250
179 250
178 250
177 250
176 251
175 250
174 250
173 250
172 250
171 250
170 250
169 250
168 250
167 250
166 250
165 250
164 250
163 250
162 249
161 249
160 250
159 250
158 250
157 250
156 250
155 250
154 250
153 250
152 251
151 251
150 251
149 251
148 251
147 251
146 251
145 251
144 252
143 253
142 253
141 253
140 253
139 253
138 253
137 253
136 253
135 253
134 254
133 254
132 254
131 255
130 256
129 256
128 256
127 257
126 257
125 257
124 258
123 258
122 258
121 258
120 259
119 259
118 259
117 260
116 261
115 261
114 261
113 261
112 262
111 262
110 263
109 263
108 264
107 265
106 265
105 266
104 266
104 267
103 268
102 269
101 269
100 270
99 270
98 271
97 271
97 272
97 273
96 274
95 274
94 274
93 274
92 275
91 275
90 276
89 277
89 278
88 279
87 280
86 280
85 281
84 282
83 283
82 283
81 284
80 285
79 286
78 287
77 288
76 289
75 289
74 290
73 291
72 292
72 293
72 294
71 295
70 296
69 297
69 298
68 299
67 300
67 301
67 302
67 303
67 304
66 305
66 306
66 307
65 308
65 309
64 310
64 311
64 312
64 313
63 314
62 315
62 316
62 317
61 318
61 319
60 320
60 321
59 322
58 323
57 324
57 325
57 326
57 327
56 328
55 329
54 330
54 331
53 332
53 333
52 334
51 334
51 335
50 336
49 337
49 338
48 339
47 340
47 341
46 342
45 343
45 344
44 345
43 346
43 347
42 348
41 349
41 350
41 351
41 352
42 352
43 353
44 353
45 354
46 354
47 354
48 354
49 355
50 355
51 355
52 355
53 355
54 355
55 355
56 355
57 356
58 356
59 356
60 356
61 356
62 356
63 356
64 357
65 357
66 358
67 358
68 359
69 360
70 360
71 361
72 361
73 361
74 361
75 362
76 363
77 363
78 364
79 364
80 365
81 366
82 366
83 367
84 368
85 368
86 369
87 369
88 370
89 371
90 371
91 372
92 372
93 372
94 372
95 373
96 373
97 374
98 374
99 374
100 374
101 374
102 374
103 374
104 374
105 375
106 375
107 376
108 376
109 376
110 376
111 377
112 377
113 378
114 379
115 379
116 379
117 379
118 379
119 379
120 379
121 379
122 379
123 379
124 380
125 380
126 380
127 380
128 380
129 380
130 380
131 380
132 380
133 380
134 380
135 380
136 381
137 380
138 380
139 381
140 381
141 381
142 381
143 380
144 380
145 379
146 379
147 379
148 379
149 379
150 378
151 378
152 378
153 378
154 378
155 378
156 378
157 377
158 377
159 377
160 377
161 377
162 376
163 376
164 376
165 376
166 376
167 376
168 375
169 375
170 374
171 374
172 374
173 373
174 373
175 373
176 372
177 372
178 372
179 372
180 371
181 371
182 370
183 369
184 369
185 368
186 368
187 367
188 366
189 366
190 365
191 365
192 364
193 364
194 363
195 362
196 361
197 360
198 359
199 358
200 357
201 356
202 355
202 354
203 353
204 352
204 351
205 350
206 349
207 348
208 347
208 346
209 345
210 344
211 343
212 342
213 341
214 340
215 339
215 338
216 337
217 336
218 335
219 334
219 333
220 332
221 331
222 330
222 329
223 328
224 327
224 326
225 325
225 324
226 323
226 322
227 321
228 320
228 319
229 318
229 317
230 316
230 315
231 314
231 313
232 312
232 311
233 310
233 309
234 308
234 307
234 306
235 305
235 304
236 303
236 302
237 301
237 300
238 299
239 298
239 297
240 296
241 295
242 294
242 293
243 292
244 291
245 290
246 289
247 288
248 287
249 287
250 286
251 286
252 285
253 285
254 284
255 284
254 284
253 283
254 282
255 282
256 282
257 281
258 281
259 280
260 280
261 279
262 279
263 278
264 278
265 278
266 277
267 277
268 276
269 276
270 275
271 275
272 274
273 274
274 273
275 273
276 272
277 271
278 271
279 270
280 270
281 269
282 268
283 268
284 267
285 266
286 266
287 265
288 265
289 264
290 263
291 263
292 262
293 262
294 263
295 262
296 262
297 261
298 261
299 261
300 262
300 263
300 264
300 265
300 266
300 267
300 268
299 269
298 270
297 271
296 272
295 272
294 272
293 273
292 273
291 273
290 273
289 274
288 274
287 274
286 275
285 276
284 276
283 276
282 277
281 277
280 278
279 278
278 279
277 280
276 280
275 281
274 281
273 281
272 282
271 282
270 282
269 283
268 283
267 284
266 285
265 286
264 286
263 287
262 288
261 289
260 290
259 291
258 292
257 293
256 294
255 295
255 296
254 297
253 298
252 299
252 300
251 301
250 302
250 303
249 304
249 305
248 306
247 307
247 308
246 309
245 310
245 311
244 312
244 313
244 314
243 315
243 316
243 317
242 318
242 319
243 320
242 321
242 322
242 323
242 324
242 325
242 326
242 327
242 328
242 329
241 330
241 331
241 332
241 333
241 334
241 335
241 336
240 337
240 338
240 339
240 340
240 341
240 342
240 343
240 344
239 345
239 346
239 347
239 348
239 349
238 350
238 351
238 352
238 353
238 354
238 355
238 356
238 357
238 358
238 359
238 360
237 361
237 362
237 363
237 364
237 365
237 366
237 367
237 368
237 369
236 370
236 371
236 372
236 373
236 374
236 375
236 376
237 377
237 378
237 379
237 380
237 381
237 382
237 383
237 384
237 385
237 386
237 387
237 388
237 389
238 390
238 391
238 392
238 393
238 394
238 395
238 396
238 397
238 398
238 399
238 400
239 401
239 402
240 403
240 404
240 405
241 406
241 407
241 408
241 409
241 410
242 411
242 412
243 413
244 414
244 415
244 416
245 417
245 418
246 419
247 420
247 421
248 422
249 423
250 424
250 425
251 426
252 427
252 428
253 429
253 430
254 431
254 432
255 433
256 434
257 435
258 436
259 437
259 438
260 439
261 440
262 441
263 442
264 443
265 444
265 445
266 446
267 447
268 448
269 449
270 450
271 451
272 452
273 453
274 454
275 454
276 455
277 455
278 456
279 457
280 457
281 458
282 459
283 460
284 461
284 462
285 463
286 464
287 464
288 465
289 465
290 465
291 464
291 463
291 462
291 461
291 460
292 459
292 458
293 457
294 457
295 456
296 455
297 454
298 454
299 453
300 452
301 452
302 451
303 451
304 450
305 449
306 449
307 448
308 447
309 447
310 446
311 445
312 444
313 443
314 442
315 441
316 441
316 440
317 439
318 438
319 437
320 436
321 435
322 434
322 433
323 432
324 431
324 430
325 429
325 428
325 427
326 426
326 425
327 424
327 423
328 422
328 421
329 420
329 419
330 418
330 417
331 416
332 415
332 414
332 413
333 412
333 411
334 410
334 409
335 408
335 407
335 406
335 405
336 404
336 403
337 402
337 401
337 400
337 399
338 398
338 397
338 396
338 395
339 394
339 393
339 392
340 391
340 390
340 389
341 388
341 387
341 386
342 385
342 384
343 383
343 382
343 381
343 380
343 379
343 378
343 377
344 376
344 375
344 374
344 373
344 372
344 371
344 370
344 369
344 368
344 367
344 366
343 365
343 364
344 363
344 362
344 361
344 360
344 359
344 358
343 357
343 356
344 355
344 354
344 353
344 352
343 351
343 350
343 349
342 348
342 347
343 346
343 345
343 344
343 343
343 342
342 341
342 340
342 339
342 338
342 337
342 336
342 335
342 334
342 333
342 332
342 331
341 330
341 329
341 328
340 327
340 326
340 325
340 324
340 323
340 322
340 321
339 320
339 319
338 318
338 317
338 316
337 315
337 314
336 313
336 312
336 311
336 310
336 309
335 308
335 307
335 306
334 305
333 304
333 303
332 302
332 301
331 300
330 299
330 298
329 297
328 296
328 295
327 294
326 293
325 292
324 291
323 290
322 289
321 288
320 287
319 286
318 285
317 285
316 284
315 283
314 282
313 281
312 280
311 280
310 279
309 278
308 277
308 276
307 275
306 274
306 273
305 272
305 271
305 270
305 269
305 268
305 267
305 266
305 265
305 264
305 263
306 262
306 261
307 260
308 260
309 260
310 260
311 260
312 260
313 260
314 260
315 260
316 260
317 261
318 261
319 261
320 261
321 262
322 262
323 262
324 262
325 263
326 263
327 263
328 263
329 264
330 264
331 264
332 264
333 265
334 265
335 265
336 265
337 266
338 266
339 266
340 266
341 267
342 267
343 267
344 267
345 268
346 268
347 268
348 268
349 269
350 269
351 269
352 269
353 269
354 270
355 270
356 270
357 270
358 270
359 270
360 270
361 271
362 271
363 271
364 271
365 271
366 271
367 272
368 272
369 272
370 272
371 272
372 272
373 272
374 273
375 273
376 273
377 273
378 273
379 273
380 273
381 273
382 273
383 273
384 273
385 274
386 274
387 274
388 274
389 274
390 274
391 274
392 274
393 274
394 274
395 274
396 274
397 274
398 275
399 275
400 275
401 275
402 275
403 275
404 275
405 275
406 275
407 275
408 275
409 275
410 275
411 275
412 275
413 275
414 275
415 275
416 275
417 275
418 275
419 275
420 275
421 275
422 275
423 275
424 275
425 275
426 275
427 275
428 275
429 275
430 275
431 275
432 275
433 276
434 276
435 276
436 276
437 276
438 276
439 276
440 276
441 276
442 276
443 276
444 276
445 276
446 276
447 276
448 276
449 276
450 276
451 276
452 277
453 277
454 277
455 278
455 279
455 280
455 281
455 282
455 283
455 284
454 285
454 286
454 287
454 288
454 289
453 290
453 291
452 292
451 293
450 293
449 294
448 295
447 295
446 295
445 296
444 296
443 296
442 297
441 297
440 297
439 298
438 298
437 298
436 299
435 299
434 299
433 299
432 300
431 300
430 300
429 301
428 301
427 301
426 302
425 302
424 303
423 303
422 304
421 305
420 306
419 307
418 307
417 308
416 309
415 309
414 310
413 311
412 312
411 313
411 314
411 315
410 316
409 317
409 318
409 319
408 320
407 321
407 322
406 323
406 324
405 325
406 326
405 327
405 328
405 329
405 330
404 331
404 332
403 333
403 334
403 335
402 336
403 337
402 338
402 339
402 340
402 341
401 342
401 343
401 344
400 345
400 346
400 347
400 348
401 349
401 350
401 351
401 352
400 353
400 354
400 355
400 356
400 357
400 358
400 359
400 360
400 361
400 362
399 363
399 364
399 365
399 366
399 367
399 368
399 369
398 370
398 371
398 372
398 373
397 374
397 375
397 376
397 377
398 378
398 379
398 380
398 381
397 382
397 383
397 384
397 385
397 386
397 387
397 388
398 389
398 390
398 391
398 392
398 393
398 394
399 395
399 396
399 397
398 398
398 399
398 400
398 401
398 402
398 403
399 404
399 405
399 406
399 407
399 408
399 409
399 410
399 411
400 412
400 413
400 414
401 415
402 416
403 417
403 418
403 419
404 420
404 421
404 422
404 423
405 424
406 425
406 426
406 427
406 428
406 429
406 430
407 431
407 432
408 433
408 434
409 435
409 436
409 437
410 438
411 439
411 440
412 441
412 442
413 443
414 444
414 445
415 446
415 447
416 448
417 449
417 450
417 451
417 452
418 453
418 454
418 455
419 456
419 457
420 458
420 459
421 460
422 461
422 462
423 463
424 464
425 465
426 466
426 467
427 468
428 469
429 470
430 471
431 472
432 472
433 473
433 474
434 475
435 476
436 476
437 477
438 478
439 479
440 480
441 480
442 481
443 481
444 482
445 483
446 483
447 483
448 483
449 484
450 484
451 485
452 485
453 486
454 487
455 488
456 489
457 490
458 490
459 491
460 491
461 492
462 492
463 492
464 491
464 490
465 489
466 488
466 487
467 486
468 486
469 485
470 484
471 483
472 482
473 481
474 481
475 480
476 480
477 480
478 479
479 479
480 478
481 477
482 476
483 475
484 474
485 473
486 472
487 472
488 471
489 470
490 469
491 468
491 467
492 466
493 465
494 464
495 463
495 462
496 461
497 460
498 459
499 458
499 457
500 456
500 455
500 454
501 453
501 452
502 451
502 450
502 449
503 448
504 448
504 447
505 446
505 445
506 444
506 443
506 442
506 441
507 440
507 439
507 438
508 437
508 436
509 435
509 434
509 433
509 432
509 431
509 430
509 429
510 428
510 427
510 426
510 425
510 424
510 423
510 422
510 421
510 420
510 419
510 418
510 417
511 416
511 415
512 414
512 413
512 412
512 411
512 410
512 409
513 408
513 407
513 406
513 405
513 404
513 403
513 402
513 401
513 400
513 399
513 398
513 397
513 396
513 395
513 394
513 393
513 392
514 391
514 390
514 389
514 388
514 387
514 386
515 385
515 384
515 383
515 382
515 381
515 380
515 379
515 378
515 377
515 376
516 375
516 374
516 373
516 372
516 371
516 370
516 369
516 368
516 367
516 366
516 365
516 364
515 363
515 362
516 361
515 360
515 359
515 358
515 357
515 356
515 355
514 354
514 353
515 352
515 351
515 350
514 349
514 348
514 347
514 346
513 345
513 344
513 343
513 342
512 341
512 340
512 339
511 338
511 337
511 336
510 335
510 334
510 333
509 332
509 331
509 330
509 329
509 328
508 327
508 326
507 325
507 324
506 323
505 322
505 321
504 321
503 320
503 319
502 318
501 317
501 316
501 315
500 314
500 313
499 312
498 311
497 310
497 309
496 308
495 308
494 307
493 306
492 305
492 304
491 303
490 302
489 302
488 301
487 300
486 300
485 299
484 299
483 298
482 298
481 297
480 297
479 297
478 296
477 296
476 295
475 295
474 295
473 294
472 294
471 293
470 292
469 292
468 291
467 291
466 290
465 290
464 289
463 288
462 287
462 286
461 285
461 284
460 283
461 282
461 281
462 280
463 279
464 279
465 279
466 279
467 279
468 279
469 279
470 280
471 280
472 280
473 280
474 280
475 281
476 281
477 281
478 281
479 281
480 282
481 282
482 282
483 282
484 282
485 283
486 283
487 283
488 283
489 283
490 284
491 284
492 284
493 284
494 284
495 285
496 285
497 285
498 285
499 286
500 286
501 286
502 286
503 286
504 286
505 287
506 287
507 287
508 287
509 287
510 287
511 288
512 288
513 288
514 288
515 288
516 289
517 289
518 289
519 289
520 289
521 289
522 290
523 290
524 290
525 290
526 290
527 290
528 290
529 291
530 291
531 291
532 291
533 291
534 291
535 291
536 292
537 292
538 292
539 292
540 292
541 292
542 292
543 293
544 293
545 293
546 293
547 293
548 293
549 293
550 294
551 294
552 294
553 294
554 294
555 294
556 294
557 294
558 295
559 295
560 295
561 295
562 295
563 295
564 295
565 295
566 295
567 296
568 296
569 296
570 296
571 296
572 296
573 296
574 296
575 297
576 297
577 297
578 297
579 297
580 297
581 297
582 298
583 298
584 298
585 298
586 298
587 299
588 299
589 300
589 301
590 302
590 303
591 304
591 305
592 306
592 307
592 308
592 309
592 310
591 311
590 311
589 312
588 312
587 313
586 313
585 313
584 313
583 314
582 314
581 314
580 314
579 314
578 314
577 314
576 315
575 315
574 315
573 315
572 316
571 316
570 317
569 317
568 318
567 319
566 320
565 320
564 321
563 322
562 323
561 324
561 325
560 326
559 327
559 328
558 329
557 330
556 331
556 332
555 333
555 334
555 335
555 336
554 337
554 338
553 339
553 340
553 341
553 342
553 343
552 344
552 345
552 346
552 347
552 348
552 349
553 350
552 351
552 352
552 353
552 354
552 355
552 356
552 357
552 358
552 359
552 360
552 361
553 362
553 363
553 364
553 365
553 366
553 367
554 368
554 369
554 370
554 371
555 372
555 373
556 374
556 375
557 376
557 377
558 378
558 379
558 380
558 381
558 382
559 383
559 384
559 385
560 386
560 387
560 388
560 389
560 390
560 391
560 392
561 393
561 394
561 395
562 396
562 397
563 398
563 399
563 400
564 401
564 402
565 403
566 404
566 405
567 406
567 407
568 408
568 409
569 410
569 411
570 412
570 413
570 414
571 415
571 416
572 417
572 418
573 419
574 420
574 421
575 422
576 423
576 424
577 425
578 426
579 427
580 427
581 428
581 429
582 430
583 431
584 432
585 433
586 434
586 435
587 436
588 437
589 438
590 439
591 439
592 440
592 441
593 442
594 443
595 444
596 445
597 446
598 447
599 448
600 449
601 450
601 451
602 451
603 452
603 453
604 453
605 454
606 455
607 456
608 457
609 457
610 458
611 458
612 459
613 459
614 459
615 460
616 460
617 461
618 462
619 463
620 464
621 464
622 465
622 466
623 466
624 467
625 467
626 467
627 466
627 465
628 464
628 463
628 462
628 461
629 460
629 459
629 458
630 457
630 456
631 455
631 454
632 453
632 452
633 451
633 450
634 449
635 448
636 447
636 446
636 445
637 444
638 443
638 442
639 441
640 440
640 439
641 438
641 437
642 436
642 435
642 434
643 433
643 432
644 431
644 430
644 429
645 428
645 427
645 426
646 425
646 424
646 423
647 422
647 421
647 420
647 419
647 418
648 417
648 416
648 415
648 414
649 413
649 412
649 411
649 410
650 409
650 408
650 407
651 406
652 405
652 404
652 403
652 402
652 401
652 400
652 399
652 398
652 397
652 396
652 395
652 394
652 393
652 392
652 391
652 390
652 389
652 388
652 387
653 386
653 385
653 384
654 383
654 382
654 381
654 380
654 379
654 378
654 377
654 376
655 375
655 374
655 373
655 372
655 371
655 370
655 369
655 368
656 367
656 366
657 365
657 364
657 363
657 362
657 361
657 360
657 359
657 358
657 357
657 356
657 355
657 354
657 353
657 352
656 351
656 350
656 349
655 348
655 347
655 346
655 345
655 344
654 343
654 342
653 341
653 340
652 339
652 338
652 337
652 336
651 335
651 334
650 333
649 332
649 331
649 330
648 329
647 328
646 327
645 326
645 325
644 324
643 323
642 322
641 321
640 320
639 319
639 318
640 317
641 318
642 318
643 318
644 318
645 319
646 319
647 319
648 320
649 320
650 320
651 321
652 321
653 321
654 322
655 322
656 322
657 323
658 323
659 323
660 324
661 324
662 324
663 325
664 325
665 325
666 326
667 326
668 326
669 326
670 327
671 327
672 327
673 328
674 328
675 328
676 329
677 329
678 329
679 329
680 330
681 330
682 330
683 331
684 331
685 331
686 331
687 332
688 332
689 332
690 332
691 333
692 333
693 333
694 334
695 334
696 334
697 334
698 335
699 335
700 335
701 335
702 335
703 336
704 336
705 336
706 336
707 337
708 337
709 337
710 338
711 338
712 338
713 338
714 339
715 339
716 339
717 339
718 340
719 340
720 340
721 340
722 340
723 341
724 341
725 341
726 341
727 342
728 342
729 342
730 342
731 343
732 343
733 343
734 343
735 343
736 344
737 344
738 344
739 344
740 345
741 345
742 345
743 345
744 346
745 346
746 346
747 347
748 347
749 347
750 348
751 348
752 348
753 349
754 349
755 349
756 350
757 350
758 351
759 351
760 352
761 353
762 353
763 354
764 355
765 355
766 355
767 355
768 355
769 355
770 354
771 353
772 352
772 351
772 350
772 349
772 348
771 347
770 346
769 345
768 345
767 344
766 344
765 343
764 343
763 343
762 342
761 342
760 342
759 342
758 341
757 341
756 341
755 341
754 341
753 341
752 340
751 340
750 340
749 340
748 340
747 339
746 339
745 339
744 339
743 339
742 339
741 338
740 338
739 338
738 338
737 338
736 337
735 337
734 337
733 337
732 337
731 336
730 336
729 336
728 336
727 336
726 335
725 335
724 335
723 335
722 334
721 334
720 334
719 334
718 334
717 333
716 333
715 333
714 333
713 332
712 332
711 332
710 332
709 331
708 331
707 331
706 331
705 331
704 330
703 330
702 330
701 330
700 330
699 329
698 329
697 329
696 328
695 328
694 328
693 327
692 327
691 327
690 327
689 327
688 326
687 326
686 326
685 326
684 325
683 325
682 325
681 325
680 324
679 324
678 324
677 323
676 323
675 323
674 323
673 322
672 322
671 321
670 321
669 321
668 321
667 320
666 320
665 320
664 319
663 319
662 319
661 318
660 318
659 318
658 318
657 317
656 317
655 316
654 316
653 316
652 316
651 315
650 315
649 315
648 314
647 314
646 314
645 313
644 313
643 313
642 312
641 312
640 311
639 311
638 311
637 310
636 310
635 310
634 309
633 309
632 309
631 308
630 308
629 308
628 307
627 307
626 307
625 306
624 306
623 305
622 305
621 305
620 304
619 304
618 303
617 303
616 303
615 302
614 302
613 301
612 301
611 301
610 300
609 300
608 299
607 299
606 298
605 298
604 297
603 297
602 296
601 296
600 295
599 295
598 294
597 293
597 292
597 291
597 290
597 289
597 288
597 287
598 286
598 285
599 284
600 284
601 283
602 282
603 281
604 281
605 280
606 280
607 279
608 279
609 279
610 279
611 279
612 279
613 278
614 278
615 278
616 278
617 277
618 277
619 277
620 276
621 276
622 276
623 275
624 274
625 274
626 273
627 272
628 271
629 271
629 270
630 269
631 268
632 267
633 266
633 265
634 264
635 263
636 262
637 261
637 260
638 259
639 258
640 257
640 256
641 255
642 254
643 253
644 252
644 251
645 250
646 249
646 248
647 247
647 246
647 245
648 244
649 243
649 242
649 241
650 240
650 239
650 238
651 237
651 236
652 235
652 234
652 233
652 232
652 231
652 230
653 229
653 228
653 227
653 226
653 225
653 224
653 223
653 222
652 221
652 220
652 219
652 218
652 217
652 216
652 215
652 214
652 213
652 212
652 211
652 210
652 209
652 208
652 207
652 206
651 205
651 204
651 203
651 202
650 201
650 200
650 199
649 198
649 197
649 196
649 195
649 194
649 193
649 192
649 191
649 190
649 189
649 188
648 187
648 186
647 185
647 184
647 183
647 182
646 181
646 180
646 179
646 178
645 177
644 176
644 175
643 174
643 173
643 172
642 171
642 170
641 169
640 168
640 167
640 166
640 165
639 164
639 163
639 162
639 161
638 160
638 159
638 158
638 157
637 156
637 155
637 154
637 153
637 152
636 151
636 150
635 149
634 148
633 147
633 146
633 145
632 144
632 143
632 142
632 141
632 140
631 139
631 138
631 137
631 136
630 135
630 134
629 133
629 132
629 131
628 130
627 129
626 128
626 127
625 126
624 125
623 124
622 123
621 122
621 121
620 120
619 119
619 118
618 117
618 116
618 115
617 114
616 113
616 112
615 111
614 110
613 109
612 108
611 107
610 106
609 106
608 105
607 104
606 104
605 104
604 104
603 104
602 103
602 102
601 101
600 101
599 101
598 101
597 101
596 100
595 100
594 100
593 101
592 102
591 103
590 104
589 104
588 105
587 106
586 106
586 107
585 108
584 109
583 109
582 110
581 111
580 112
579 113
578 114
577 115
577 116
576 117
575 118
574 119
573 120
572 121
572 122
571 123
570 124
569 124
569 125
568 126
567 127
567 128
566 129
565 130
565 131
564 132
563 133
562 134
562 135
561 136
561 137
560 138
560 139
560 140
559 141
559 142
559 143
558 144
558 145
558 146
557 147
557 148
556 149
555 150
555 151
554 152
554 153
553 154
552 155
552 156
551 157
551 158
551 159
550 160
549 161
549 162
549 163
549 164
548 165
548 166
548 167
548 168
547 169
546 170
546 171
545 172
545 173
545 174
544 175
544 176
544 177
543 178
542 179
542 180
542 181
541 182
540 182
540 183
539 184
539 185
539 186
539 187
539 188
539 189
538 190
538 191
538 192
537 193
537 194
537 195
537 196
537 197
537 198
536 199
536 200
536 201
536 202
536 203
536 204
535 205
535 206
535 207
535 208
535 209
535 210
535 211
535 212
535 213
535 214
535 215
536 216
536 217
535 218
535 219
535 220
536 221
536 222
536 223
536 224
536 225
536 226
536 227
537 228
536 229
536 230
536 231
536 232
536 233
536 234
536 235
535 236
535 237
535 238
536 239
536 240
537 241
537 242
537 243
538 244
538 245
539 246
540 247
540 248
540 249
541 250
541 251
542 252
543 253
543 254
544 255
544 256
545 257
546 258
546 259
547 260
547 261
548 262
548 263
549 264
550 265
551 266
552 267
553 268
554 269
555 270
556 271
557 272
558 273
559 273
560 274
561 275
562 275
563 276
564 277
565 277
566 278
567 278
568 279
569 279
570 280
571 280
572 280
573 281
574 281
575 281
576 281
577 281
578 281
579 282
580 282
581 282
582 282
583 282
584 282
585 282
586 282
587 282
588 283
589 283
590 284
591 285
591 286
591 287
591 288
591 289
591 290
591 291
590 292
589 292
588 292
587 292
586 292
585 292
584 292
583 292
582 292
581 292
580 292
579 292
578 292
577 292
576 292
575 291
574 291
573 291
572 291
571 291
570 291
569 291
568 291
567 291
566 291
565 290
564 290
563 290
562 290
561 290
560 290
559 290
558 290
557 289
556 289
555 289
554 289
553 289
552 289
551 289
550 289
549 289
548 289
547 289
546 289
545 288
544 288
543 288
542 288
541 288
540 288
539 287
538 287
537 287
536 287
535 287
534 287
533 287
532 287
531 286
530 286
529 286
528 286
527 286
526 286
525 286
524 285
523 285
522 285
521 285
520 285
519 285
518 285
517 284
516 284
515 284
514 284
513 284
512 284
511 283
510 283
509 283
508 283
507 283
506 283
505 282
504 282
503 282
502 282
501 282
500 281
499 281
498 281
497 281
496 281
495 280
494 280
493 280
492 280
491 280
490 279
489 279
488 279
487 279
486 278
485 278
484 278
483 278
482 278
481 277
480 277
479 277
478 276
477 276
476 276
475 276
474 275
473 275
472 275
471 274
470 274
469 274
468 273
467 273
466 273
465 272
464 272
463 271
462 270
462 269
462 268
461 267
461 266
460 265
460 264
459 263
459 262
459 261
459 260
459 259
459 258
460 257
460 256
461 255
461 254
462 253
463 253
463 252
464 251
465 251
466 250
467 249
468 248
469 247
470 246
471 245
472 244
473 243
474 242
474 241
475 240
476 239
477 238
478 237
479 236
480 235
480 234
481 233
482 232
483 231
483 230
484 229
484 228
485 227
485 226
486 225
487 224
488 223
488 222
489 221
489 220
490 219
490 218
491 217
491 216
492 215
492 214
492 213
492 212
493 211
493 210
493 209
494 208
495 207
495 206
495 205
496 204
496 203
496 202
496 201
497 200
496 199
496 198
496 197
496 196
497 195
497 194
497 193
497 192
498 191
498 190
498 189
498 188
498 187
498 186
498 185
498 184
498 183
498 182
498 181
498 180
498 179
498 178
498 177
498 176
498 175
499 174
499 173
499 172
499 171
499 170
499 169
499 168
499 167
499 166
499 165
499 164
499 163
499 162
499 161
499 160
499 159
498 158
498 157
498 156
498 155
497 154
497 153
497 152
496 151
496 150
496 149
496 148
496 147
495 146
495 145
495 144
494 143
494 142
493 141
493 140
492 139
492 138
492 137
492 136
492 135
491 134
491 133
491 132
491 131
490 130
490 129
489 129
488 128
487 127
487 126
487 125
487 124
487 123
486 122
485 121
485 120
485 119
485 118
484 117
484 116
484 115
483 114
483 113
482 112
482 111
482 110
482 109
481 108
481 107
481 106
481 105
481 104
481 103
481 102
481 101
481 100
481 99
480 98
480 97
479 96
479 95
478 95
477 94
476 93
476 92
475 91
475 90
474 89
473 88
472 87
471 86
471 85
470 84
470 83
469 82
468 81
468 80
468 79
467 78
466 77
465 76
464 75
463 75
462 74
462 73
461 72
460 71
459 70
458 69
457 68
456 68
455 67
455 66
454 65
454 64
453 63
452 62
451 62
450 61
450 60
449 60
448 59
447 59
446 58
445 57
444 57
443 56
443 55
442 55
441 54
440 53
439 52
438 51
437 50
436 49
435 49
434 49
433 48
432 47
431 47
430 47
429 47
428 46
427 46
426 46
425 46
424 46
423 46
422 46
421 46
420 45
419 45
418 45
417 44
416 44
415 43
414 43
413 42
412 41
411 40
410 39
410 38
409 38
408 38
