115 354
115 355
115 356
115 357
115 358
115 359
115 360
115 361
115 362
115 363
115 364
116 364
117 365
118 366
119 367
120 368
121 368
122 368
123 368
124 368
125 369
126 369
127 369
128 369
129 369
130 369
131 369
132 369
133 369
134 369
135 369
136 369
137 369
138 369
139 369
140 370
141 370
142 370
143 370
144 370
145 370
146 370
147 370
148 370
149 370
150 370
151 370
152 370
153 370
154 370
155 370
156 369
157 369
158 369
159 369
160 369
161 369
162 369
163 369
164 369
165 369
166 369
167 369
168 369
169 368
170 368
171 368
172 367
173 367
174 367
175 367
176 367
177 366
178 366
179 366
180 365
181 365
182 365
183 365
184 364
185 364
186 364
187 364
188 364
189 363
190 363
191 363
192 363
193 362
194 362
195 362
196 362
197 361
198 361
199 360
200 360
201 359
202 359
203 359
204 358
205 358
206 358
207 357
208 357
209 356
210 356
211 355
212 355
213 354
214 354
215 353
216 353
217 352
218 351
219 350
220 350
221 349
222 348
223 348
224 347
225 346
226 346
227 345
228 344
229 343
230 343
231 342
232 341
233 340
234 340
235 339
236 338
237 337
238 336
239 335
240 334
241 333
242 332
243 331
244 330
245 329
246 328
247 327
247 326
248 325
249 324
250 323
251 322
252 321
252 320
253 319
254 318
254 317
255 316
256 315
256 314
257 313
257 312
258 311
259 310
259 309
260 308
260 307
261 306
261 305
262 304
262 303
262 302
262 301
263 300
263 299
264 298
264 297
265 296
265 295
266 294
266 293
267 292
267 291
267 290
267 289
267 288
268 287
268 286
269 285
269 284
270 283
270 282
270 281
270 280
270 279
270 278
270 277
271 276
271 275
272 274
272 273
273 272
274 271
275 271
276 270
277 270
278 269
279 269
280 269
281 269
282 269
283 269
284 269
285 269
286 269
287 269
288 269
289 269
290 269
291 269
292 269
293 269
294 269
295 269
296 269
297 269
298 269
299 269
300 269
301 269
302 269
303 269
304 269
305 269
306 269
307 269
308 269
309 269
310 269
311 269
312 269
313 269
314 269
315 269
316 269
317 269
318 269
319 269
320 269
321 269
322 269
323 269
324 269
325 269
326 268
327 268
328 268
329 268
330 268
331 268
332 267
333 268
334 268
335 269
336 270
337 271
337 272
338 273
337 274
337 275
336 276
336 277
335 278
335 279
334 280
334 281
333 282
333 283
332 284
332 285
331 286
331 287
330 288
330 289
329 290
329 291
328 292
328 293
327 294
327 295
326 296
325 297
325 298
324 299
323 300
323 301
322 302
322 303
321 304
321 305
321 306
320 307
320 308
319 309
319 310
319 311
318 312
318 313
318 314
317 315
317 316
316 317
316 318
316 319
316 320
315 321
315 322
315 323
315 324
314 325
314 326
314 327
313 328
313 329
313 330
313 331
313 332
313 333
313 334
313 335
312 336
312 337
312 338
312 339
311 340
311 341
310 342
310 343
310 344
310 345
310 346
310 347
310 348
310 349
310 350
310 351
310 352
310 353
310 354
310 355
310 356
310 357
310 358
310 359
310 360
310 361
310 362
310 363
310 364
310 365
310 366
311 367
311 368
311 369
311 370
311 371
311 372
311 373
311 374
311 375
312 376
312 377
312 378
312 379
313 380
313 381
313 382
313 383
314 384
314 385
314 386
314 387
315 388
315 389
315 390
315 391
315 392
315 393
315 394
316 395
316 396
316 397
317 398
317 399
317 400
317 401
318 402
318 403
318 404
319 405
319 406
319 407
320 408
320 409
320 410
321 411
321 412
322 413
322 414
323 415
323 416
324 417
324 418
325 419
325 420
325 421
326 422
326 423
326 424
327 425
327 426
327 427
328 428
328 429
328 430
329 431
329 432
330 433
330 434
330 435
331 436
331 437
331 438
331 439
332 440
332 441
332 442
333 443
333 444
334 445
335 446
336 447
337 448
338 449
339 449
340 450
341 450
342 450
343 450
344 450
345 450
346 450
347 450
348 450
349 450
350 450
351 449
352 449
353 448
354 447
355 447
356 446
357 445
357 444
358 443
358 442
358 441
359 440
359 439
359 438
360 437
360 436
361 435
361 434
361 433
362 432
362 431
362 430
363 429
363 428
364 427
364 426
364 425
365 424
365 423
365 422
365 421
365 420
366 419
366 418
367 417
367 416
367 415
367 414
368 413
368 412
368 411
368 410
368 409
369 408
369 407
370 406
370 405
370 404
371 403
371 402
372 401
372 400
372 399
373 398
373 397
373 396
373 395
373 394
373 393
373 392
373 391
374 390
374 389
374 388
374 387
374 386
374 385
374 384
374 383
374 382
374 381
374 380
374 379
374 378
374 377
374 376
374 375
375 374
375 373
376 372
377 371
378 370
379 371
380 372
381 373
381 374
382 375
382 376
382 377
383 378
383 379
383 380
383 381
384 382
384 383
384 384
384 385
385 386
385 387
385 388
385 389
386 390
386 391
387 392
387 393
388 394
388 395
388 396
388 397
388 398
388 399
389 400
389 401
389 402
389 403
389 404
390 405
390 406
390 407
391 408
391 409
391 410
392 411
392 412
392 413
393 414
393 415
393 416
393 417
394 418
394 419
395 420
395 421
395 422
396 423
397 424
397 425
398 426
399 427
400 427
401 427
402 428
403 428
404 429
405 429
406 429
407 429
408 429
409 429
410 429
411 429
412 429
413 429
414 428
415 428
416 427
417 427
418 426
419 426
420 425
421 424
422 423
423 422
424 421
424 420
425 419
425 418
426 417
426 416
427 415
427 414
428 413
428 412
428 411
429 410
429 409
430 408
430 407
430 406
431 405
431 404
432 403
432 402
432 401
433 400
433 399
433 398
433 397
433 396
434 395
434 394
434 393
434 392
434 391
435 390
435 389
435 388
436 387
436 386
436 385
436 384
436 383
436 382
437 381
437 380
437 379
437 378
438 377
438 376
438 375
438 374
438 373
438 372
438 371
439 370
439 369
439 368
439 367
439 366
439 365
439 364
439 363
439 362
439 361
440 360
440 359
441 358
442 357
443 356
444 357
445 358
446 359
446 360
447 361
447 362
448 363
448 364
448 365
448 366
449 367
449 368
449 369
449 370
450 371
450 372
451 373
451 374
452 375
452 376
452 377
453 378
454 379
454 380
455 381
455 382
456 383
456 384
457 385
457 386
458 387
458 388
458 389
459 390
459 391
459 392
460 393
460 394
461 395
461 396
462 397
462 398
463 399
463 400
464 401
464 402
464 403
465 404
465 405
466 406
466 407
467 408
467 409
467 410
467 411
468 412
468 413
469 414
469 415
469 416
470 417
470 418
471 419
471 420
472 421
472 422
473 423
474 424
475 425
476 426
477 427
478 428
479 428
480 429
481 429
482 430
483 430
484 430
485 430
486 430
487 430
488 430
489 430
490 430
491 430
492 430
493 430
494 429
495 429
496 428
497 428
498 427
499 426
500 425
501 424
501 423
502 422
502 421
502 420
503 419
503 418
503 417
504 416
504 415
505 414
505 413
505 412
505 411
506 410
506 409
506 408
506 407
506 406
506 405
506 404
506 403
506 402
507 401
507 400
507 399
507 398
507 397
508 396
508 395
508 394
509 393
509 392
509 391
509 390
510 389
510 388
510 387
510 386
510 385
510 384
510 383
510 382
510 381
511 380
511 379
511 378
512 377
512 376
513 375
513 374
513 373
513 372
513 371
513 370
513 369
513 368
513 367
513 366
513 365
513 364
513 363
513 362
513 361
513 360
513 359
513 358
513 357
513 356
513 355
513 354
513 353
513 352
513 351
513 350
513 349
513 348
513 347
513 346
513 345
513 344
513 343
513 342
512 341
512 340
512 339
512 338
512 337
511 336
511 335
511 334
511 333
511 332
510 331
510 330
510 329
510 328
510 327
510 326
510 325
509 324
509 323
509 322
508 321
508 320
508 319
508 318
508 317
507 316
507 315
507 314
506 313
506 312
506 311
506 310
506 309
506 308
505 307
505 306
505 305
505 304
504 303
504 302
503 301
503 300
503 299
502 298
502 297
502 296
501 295
501 294
500 293
500 292
499 291
499 290
498 289
498 288
498 287
497 286
497 285
497 284
496 283
496 282
495 281
495 280
494 279
494 278
493 277
493 276
492 275
492 274
491 273
491 272
491 271
491 270
491 269
492 268
493 267
494 266
495 266
496 265
497 265
498 265
499 265
500 265
501 265
502 265
503 265
504 265
505 265
506 265
507 265
508 265
509 265
510 266
511 266
512 266
513 266
514 266
515 266
516 266
517 266
518 266
519 266
520 266
521 266
522 266
523 266
524 266
525 266
526 266
527 266
528 266
529 266
530 266
531 267
532 267
533 267
534 267
535 267
536 267
537 268
538 268
539 269
540 269
541 270
541 271
542 272
542 273
543 274
542 275
542 276
541 277
541 278
541 279
540 280
540 281
540 282
539 283
539 284
538 285
538 286
537 287
537 288
536 289
536 290
536 291
535 292
535 293
535 294
534 295
534 296
534 297
533 298
533 299
533 300
532 301
532 302
532 303
532 304
531 305
531 306
531 307
531 308
531 309
531 310
530 311
530 312
530 313
530 314
530 315
530 316
530 317
530 318
530 319
530 320
530 321
530 322
530 323
530 324
530 325
530 326
530 327
530 328
530 329
530 330
530 331
530 332
530 333
530 334
530 335
530 336
530 337
530 338
530 339
530 340
530 341
530 342
530 343
531 344
531 345
531 346
531 347
531 348
532 349
532 350
532 351
533 352
534 353
534 354
535 355
535 356
536 357
536 358
537 359
537 360
538 361
539 362
540 363
540 364
541 365
542 366
543 367
544 368
545 369
545 370
546 371
547 372
547 373
548 374
548 375
549 376
550 377
550 378
551 379
552 380
553 381
554 382
554 383
555 384
556 385
557 386
558 387
559 388
559 389
560 390
561 391
562 392
563 393
564 394
564 395
565 396
566 397
566 398
567 399
568 400
569 401
570 402
571 403
572 404
573 405
574 406
575 407
576 408
577 409
578 409
579 410
580 410
581 410
582 410
583 410
584 410
585 410
586 410
587 410
588 410
589 410
590 410
591 410
592 410
593 410
594 410
595 410
595 409
596 408
597 407
598 406
599 405
600 404
601 403
601 402
601 401
602 400
602 399
602 398
602 397
602 396
603 395
603 394
603 393
603 392
603 391
603 390
603 389
603 388
603 387
603 386
603 385
603 384
603 383
603 382
603 381
603 380
603 379
603 378
603 377
603 376
603 375
603 374
603 373
603 372
603 371
603 370
603 369
603 368
603 367
603 366
603 365
603 364
603 363
603 362
603 361
603 360
603 359
603 358
603 357
603 356
603 355
602 354
602 353
602 352
602 351
602 350
602 349
602 348
602 347
602 346
602 345
602 344
601 343
601 342
601 341
600 340
600 339
599 338
599 337
599 336
599 335
599 334
599 333
599 332
598 331
598 330
598 329
598 328
597 327
596 326
595 325
595 324
594 323
594 322
593 321
593 320
593 319
593 318
593 317
593 316
592 315
592 314
591 313
591 312
590 311
589 310
589 309
588 308
587 307
587 306
586 305
586 304
585 303
584 302
583 301
582 300
581 299
580 298
580 297
579 296
578 295
577 294
576 293
575 292
574 291
573 290
572 289
571 288
570 287
569 286
568 285
567 284
566 283
565 282
564 281
563 280
562 279
561 278
560 277
559 276
558 275
558 274
557 273
557 272
557 271
558 270
559 269
560 268
561 268
562 267
563 267
564 267
565 267
566 267
567 267
568 267
569 267
570 267
571 267
572 267
573 267
574 267
575 267
576 267
577 267
578 267
579 267
580 267
581 267
582 267
583 267
584 267
585 267
586 267
587 267
588 267
589 267
590 267
591 266
592 266
593 266
594 266
595 266
596 266
597 266
598 266
599 266
600 266
601 266
602 266
603 266
604 266
605 266
606 265
607 265
608 265
609 265
610 265
611 265
612 265
613 265
614 265
615 265
616 265
617 265
618 265
619 265
620 265
621 265
622 265
623 265
624 265
625 265
626 265
627 265
628 264
629 264
630 264
631 264
632 264
633 264
634 265
635 265
636 265
637 265
638 265
639 265
640 265
641 265
642 265
643 265
644 265
645 265
646 265
647 265
648 265
649 265
650 265
651 265
651 264
651 263
651 262
651 261
651 260
651 259
651 258
651 257
651 256
651 255
651 254
650 254
649 254
648 254
647 254
646 254
645 254
644 254
643 254
642 254
641 254
640 254
639 255
638 255
637 255
636 255
635 256
634 256
633 256
632 256
631 257
630 257
629 257
628 257
627 257
626 257
625 257
624 257
623 258
622 258
621 258
620 258
619 258
618 258
617 258
616 258
615 258
614 258
613 258
612 258
611 258
610 258
609 258
608 258
607 258
606 258
605 258
604 258
603 258
602 258
601 258
600 258
599 258
598 258
597 258
596 258
595 258
594 258
593 258
592 258
591 258
590 258
589 258
588 258
587 258
586 258
585 258
584 258
583 258
582 258
581 258
580 258
579 258
578 258
577 258
576 258
575 258
574 258
573 258
572 258
571 258
570 258
569 258
568 258
567 258
566 258
565 258
564 258
563 258
562 258
561 257
560 257
559 257
558 256
557 256
556 256
555 256
554 256
553 256
552 256
551 256
550 256
549 256
548 256
547 256
546 256
545 257
544 257
543 257
542 257
541 257
540 256
539 256
538 256
537 256
536 256
535 256
534 256
533 256
532 256
531 256
530 256
529 256
528 256
527 256
526 256
525 256
524 256
523 256
522 256
521 256
520 256
519 256
518 256
517 256
516 256
515 256
514 256
513 255
512 255
511 255
510 255
509 255
508 255
507 255
506 255
505 255
504 255
503 255
502 255
501 255
500 255
499 254
498 254
497 254
496 253
495 253
494 252
493 252
492 251
491 250
491 249
490 248
490 247
490 246
491 245
491 244
492 243
493 242
494 241
495 240
496 239
496 238
497 237
497 236
498 235
499 234
500 233
501 232
502 231
503 230
504 229
504 228
505 227
506 226
507 225
508 224
508 223
509 222
510 221
510 220
511 219
512 218
513 217
513 216
514 215
515 214
515 213
516 212
516 211
517 210
517 209
518 208
518 207
518 206
518 205
519 204
519 203
520 202
520 201
521 200
521 199
522 198
522 197
522 196
523 195
523 194
523 193
523 192
523 191
524 190
524 189
524 188
524 187
524 186
524 185
524 184
525 183
525 182
525 181
525 180
525 179
525 178
525 177
525 176
525 175
525 174
525 173
525 172
525 171
525 170
525 169
525 168
525 167
525 166
525 165
525 164
525 163
525 162
525 161
525 160
525 159
524 158
524 157
524 156
523 155
523 154
523 153
523 152
523 151
523 150
523 149
523 148
523 147
523 146
523 145
522 144
522 143
522 142
522 141
522 140
522 139
522 138
522 137
521 136
521 135
521 134
521 133
520 132
520 131
520 130
519 129
519 128
519 127
518 126
518 125
518 124
517 123
517 122
516 121
516 120
516 119
515 118
515 117
514 116
514 115
513 114
513 113
512 112
511 111
511 110
510 109
509 108
509 107
508 106
507 105
506 104
505 103
504 102
503 101
502 100
501 100
500 99
499 99
498 98
497 98
496 98
495 98
494 98
493 98
492 98
491 98
490 99
489 99
488 100
487 100
486 101
485 102
484 103
484 104
483 105
483 106
483 107
483 108
482 109
482 110
482 111
482 112
482 113
481 114
481 115
481 116
481 117
481 118
481 119
481 120
480 121
480 122
480 123
479 124
479 125
478 126
478 127
478 128
478 129
477 130
477 131
477 132
477 133
476 134
476 135
476 136
475 137
475 138
474 139
474 140
473 141
473 142
472 143
472 144
471 145
470 146
470 147
469 148
469 149
468 150
468 151
467 152
467 153
466 154
466 155
466 156
465 157
465 158
465 159
465 160
464 161
464 162
464 163
464 164
464 165
464 166
463 167
463 168
463 169
463 170
463 171
463 172
463 173
463 174
463 175
463 176
463 177
463 178
463 179
463 180
463 181
463 182
463 183
463 184
463 185
463 186
463 187
463 188
463 189
464 190
464 191
464 192
464 193
464 194
465 195
465 196
465 197
465 198
465 199
465 200
465 201
465 202
465 203
465 204
465 205
466 206
466 207
466 208
466 209
466 210
467 211
467 212
467 213
467 214
468 215
468 216
468 217
468 218
468 219
469 220
469 221
469 222
469 223
470 224
470 225
470 226
471 227
471 228
471 229
472 230
472 231
472 232
473 233
473 234
473 235
474 236
474 237
474 238
474 239
475 240
475 241
475 242
475 243
476 244
476 245
476 246
475 247
475 248
474 249
474 250
473 251
472 251
471 252
470 252
469 253
468 253
467 253
466 252
465 252
464 252
463 252
462 252
461 252
460 252
459 252
458 252
457 252
456 252
455 252
454 252
453 252
452 252
451 252
450 252
449 252
448 252
447 252
446 253
445 253
444 253
443 253
442 253
441 253
440 253
439 253
438 253
437 253
436 253
435 253
434 253
433 253
432 253
431 253
430 253
429 253
428 253
427 253
426 253
425 253
424 253
423 252
422 252
421 251
420 251
419 250
418 249
417 248
417 247
418 246
418 245
419 244
420 243
420 242
421 241
421 240
422 239
422 238
423 237
423 236
424 235
424 234
425 233
425 232
426 231
426 230
427 229
427 228
427 227
427 226
428 225
428 224
429 223
429 222
430 221
430 220
430 219
431 218
431 217
432 216
432 215
433 214
433 213
433 212
433 211
433 210
434 209
434 208
434 207
434 206
435 205
435 204
435 203
436 202
436 201
436 200
437 199
437 198
437 197
438 196
438 195
438 194
438 193
439 192
439 191
440 190
440 189
440 188
440 187
440 186
440 185
440 184
440 183
440 182
440 181
440 180
440 179
440 178
440 177
440 176
440 175
440 174
440 173
440 172
440 171
440 170
440 169
440 168
440 167
440 166
440 165
440 164
440 163
440 162
440 161
440 160
439 159
439 158
439 157
439 156
439 155
439 154
439 153
439 152
439 151
439 150
439 149
439 148
439 147
439 146
438 145
438 144
438 143
438 142
438 141
438 140
437 139
437 138
437 137
437 136
437 135
437 134
436 133
436 132
436 131
436 130
436 129
436 128
436 127
436 126
436 125
435 124
435 123
435 122
435 121
435 120
434 119
434 118
434 117
434 116
434 115
434 114
434 113
433 112
433 111
433 110
433 109
432 108
432 107
432 106
432 105
431 104
431 103
431 102
431 101
430 100
430 99
430 98
429 97
429 96
429 95
428 94
428 93
427 92
426 91
425 90
424 89
423 88
422 88
421 87
420 87
419 87
418 87
417 87
416 87
415 87
414 87
413 87
412 87
411 88
410 88
409 89
408 89
407 90
406 91
405 92
404 93
404 94
403 95
403 96
403 97
402 98
402 99
402 100
401 101
401 102
401 103
401 104
400 105
400 106
400 107
400 108
399 109
399 110
399 111
399 112
398 113
398 114
398 115
397 116
397 117
397 118
396 119
396 120
395 121
395 122
394 123
394 124
393 125
393 126
392 127
392 128
391 129
391 130
391 131
390 132
390 133
390 134
390 135
389 136
389 137
388 138
388 139
387 140
387 141
387 142
387 143
386 144
386 145
386 146
386 147
385 148
385 149
385 150
385 151
384 152
384 153
384 154
383 155
383 156
383 157
383 158
382 159
382 160
382 161
382 162
382 163
382 164
382 165
382 166
382 167
381 168
381 169
381 170
381 171
381 172
381 173
381 174
381 175
381 176
381 177
381 178
381 179
381 180
381 181
381 182
381 183
381 184
381 185
381 186
381 187
382 188
382 189
382 190
382 191
382 192
383 193
383 194
383 195
383 196
383 197
384 198
384 199
384 200
384 201
385 202
385 203
385 204
386 205
386 206
386 207
387 208
387 209
388 210
388 211
388 212
388 213
389 214
389 215
390 216
390 217
390 218
391 219
391 220
392 221
392 222
393 223
393 224
394 225
394 226
395 227
395 228
395 229
396 230
396 231
397 232
397 233
398 234
398 235
399 236
399 237
400 238
400 239
400 240
401 241
401 242
402 243
402 244
403 245
403 246
404 247
404 248
403 249
403 250
402 251
401 251
400 252
399 252
398 253
397 253
396 253
395 254
394 254
393 254
392 254
391 254
390 255
389 255
388 255
387 255
386 255
385 255
384 255
383 255
382 255
381 255
380 255
379 255
378 255
377 255
376 255
375 255
374 255
373 255
372 256
371 256
370 256
369 256
368 256
367 256
366 256
365 256
364 256
363 256
362 256
361 256
360 257
359 257
358 257
357 257
356 257
355 257
354 257
353 257
352 256
351 256
350 255
349 255
348 254
348 253
347 252
347 251
347 250
348 249
348 248
349 247
349 246
350 245
350 244
350 243
351 242
351 241
352 240
352 239
352 238
353 237
353 236
353 235
354 234
354 233
355 232
355 231
355 230
356 229
356 228
356 227
356 226
356 225
357 224
357 223
357 222
357 221
358 220
358 219
358 218
358 217
358 216
358 215
358 214
358 213
358 212
358 211
358 210
358 209
359 208
359 207
359 206
359 205
359 204
359 203
359 202
359 201
359 200
359 199
359 198
359 197
359 196
359 195
359 194
359 193
359 192
359 191
359 190
359 189
359 188
359 187
359 186
359 185
359 184
359 183
359 182
358 181
358 180
358 179
358 178
358 177
358 176
358 175
358 174
358 173
358 172
358 171
358 170
357 169
357 168
357 167
357 166
357 165
356 164
356 163
356 162
355 161
355 160
355 159
354 158
354 157
354 156
353 155
353 154
353 153
352 152
352 151
352 150
351 149
351 148
350 147
350 146
350 145
350 144
349 143
349 142
348 141
347 140
347 139
346 138
345 137
345 136
344 135
344 134
343 133
342 132
342 131
341 130
340 129
340 128
339 127
338 126
338 125
337 124
336 123
336 122
335 121
334 120
334 119
333 118
332 117
331 116
331 115
330 114
329 113
328 112
327 111
326 110
325 109
325 108
324 107
323 106
322 105
321 104
320 103
320 102
319 101
318 100
317 99
316 98
315 97
314 96
313 96
312 96
311 96
310 96
309 96
308 96
307 95
306 95
305 94
304 94
303 94
302 94
301 94
300 94
299 94
298 94
297 94
297 95
296 96
296 97
295 98
295 99
295 100
294 101
294 102
294 103
294 104
294 105
294 106
294 107
294 108
294 109
294 110
294 111
294 112
294 113
294 114
294 115
295 116
295 117
295 118
295 119
295 120
296 121
296 122
296 123
296 124
296 125
296 126
296 127
296 128
296 129
296 130
296 131
296 132
296 133
297 134
297 135
297 136
297 137
297 138
297 139
298 140
298 141
298 142
298 143
299 144
299 145
299 146
300 147
300 148
300 149
300 150
300 151
300 152
301 153
301 154
301 155
301 156
302 157
302 158
302 159
303 160
303 161
302 162
302 163
302 164
302 165
302 166
302 167
302 168
302 169
302 170
302 171
302 172
302 173
302 174
302 175
302 176
302 177
302 178
302 179
302 180
302 181
302 182
302 183
303 184
303 185
303 186
303 187
303 188
303 189
303 190
303 191
303 192
303 193
303 194
303 195
304 196
304 197
304 198
304 199
304 200
305 201
305 202
305 203
306 204
306 205
307 206
307 207
307 208
307 209
307 210
307 211
308 212
308 213
309 214
310 215
310 216
311 217
312 218
312 219
313 220
313 221
314 222
314 223
315 224
315 225
316 226
316 227
317 228
318 229
318 230
319 231
320 232
320 233
321 234
321 235
322 236
322 237
323 238
324 239
324 240
325 241
326 242
326 243
327 244
327 245
328 246
329 247
329 248
330 249
330 250
331 251
331 252
332 253
332 254
331 255
330 256
329 257
328 257
327 258
326 258
325 258
324 258
323 258
322 258
321 258
320 258
319 258
318 258
317 258
316 258
315 258
314 258
313 258
312 258
311 258
310 258
309 259
308 259
307 259
306 259
305 259
304 259
303 259
302 259
301 259
300 259
299 259
298 259
297 259
296 259
295 259
294 259
293 259
292 259
291 259
290 259
289 259
288 259
287 259
286 259
285 259
284 259
283 259
282 259
281 259
280 258
279 258
278 257
277 257
276 256
275 255
275 254
274 253
274 252
274 251
274 250
274 249
275 248
275 247
275 246
275 245
275 244
275 243
276 242
276 241
276 240
276 239
276 238
276 237
276 236
276 235
276 234
276 233
276 232
276 231
276 230
276 229
276 228
276 227
276 226
276 225
276 224
276 223
276 222
276 221
276 220
276 219
276 218
276 217
276 216
276 215
275 214
275 213
275 212
275 211
275 210
274 209
274 208
274 207
274 206
274 205
274 204
274 203
274 202
274 201
274 200
274 199
274 198
274 197
274 196
273 195
273 194
273 193
273 192
273 191
272 190
272 189
272 188
271 187
271 186
271 185
271 184
270 183
270 182
270 181
270 180
269 179
269 178
268 177
268 176
268 175
268 174
267 173
267 172
267 171
266 170
266 169
265 168
264 167
264 166
263 165
263 164
262 163
262 162
261 161
261 160
260 159
260 158
259 157
259 156
258 155
258 154
258 153
257 152
257 151
256 150
256 149
255 148
255 147
254 146
253 145
253 144
252 143
251 142
250 141
249 140
248 139
247 138
246 137
245 136
244 135
243 134
242 133
241 132
240 131
240 130
239 129
238 128
237 127
236 126
235 125
234 125
233 124
232 123
231 122
230 121
229 120
228 119
227 119
226 118
225 117
224 116
223 115
222 114
221 114
220 113
219 112
218 111
217 110
216 110
215 109
214 108
213 108
212 107
211 106
210 106
209 105
208 105
207 105
206 105
205 105
204 105
203 105
202 105
201 105
200 105
199 105
198 105
197 105
196 105
195 105
194 105
193 106
192 106
191 106
190 106
189 106
188 107
188 108
188 109
188 110
188 111
188 112
188 113
188 114
188 115
188 116
188 117
188 118
188 119
188 120
188 121
188 122
188 123
188 124
189 125
189 126
189 127
189 128
190 129
190 130
191 131
191 132
191 133
192 134
192 135
193 136
193 137
193 138
193 139
194 140
194 141
194 142
195 143
195 144
196 145
196 146
196 147
197 148
197 149
197 150
197 151
198 152
198 153
198 154
198 155
199 156
199 157
200 158
200 159
200 160
201 161
201 162
201 163
202 164
202 165
203 166
203 167
204 168
204 169
205 170
205 171
205 172
206 173
206 174
206 175
207 176
207 177
207 178
208 179
208 180
208 181
209 182
209 183
209 184
209 185
210 186
210 187
210 188
210 189
211 190
211 191
211 192
211 193
211 194
212 195
212 196
212 197
213 198
213 199
213 200
214 201
214 202
215 203
215 204
216 205
216 206
217 207
217 208
218 209
218 210
219 211
219 212
220 213
220 214
221 215
221 216
222 217
223 218
223 219
224 220
224 221
225 222
225 223
226 224
226 225
227 226
227 227
228 228
229 229
229 230
230 231
231 232
232 233
233 234
233 235
234 236
235 237
236 238
236 239
237 240
238 241
239 242
240 242
241 243
242 244
243 245
244 246
245 247
246 248
247 249
248 250
249 251
250 252
251 253
252 254
253 255
254 256
255 257
256 258
256 259
257 260
257 261
258 262
258 263
258 264
257 265
257 266
256 267
256 268
255 269
254 270
253 270
252 271
251 271
250 271
249 271
248 271
247 271
246 271
246 272
245 273
244 274
243 274
242 275
241 275
240 276
239 276
238 277
237 277
236 277
235 278
234 278
233 278
232 279
231 279
230 280
229 280
228 280
227 281
226 281
225 281
224 281
223 282
222 282
221 282
220 283
219 283
218 283
217 284
216 284
215 284
214 284
213 285
212 285
211 286
210 286
209 286
208 287
207 287
206 287
205 288
204 288
203 288
202 289
201 289
200 289
199 290
198 290
197 291
196 291
195 292
194 292
193 293
192 293
191 293
190 294
189 295
188 295
187 296
186 296
185 297
184 298
183 299
182 299
181 300
180 300
179 301
178 301
177 302
176 303
175 304
175 305
174 306
173 307
172 308
171 309
170 310
169 311
168 311
167 312
166 313
165 313
164 314
163 315
162 316
161 317
160 318
159 319
158 320
157 320
156 321
155 322
154 322
153 323
152 324
151 325
150 325
149 326
148 327
147 327
146 328
145 329
144 329
143 330
142 331
141 332
140 332
139 333
138 334
137 334
136 335
135 335
134 336
133 336
132 337
131 337
130 338
129 339
128 340
127 341
126 341
125 342
124 343
123 344
122 345
121 345
120 346
119 347
118 348
117 349
116 350
116 351
116 352
116 353
115 354
