50 272
50 273
50 274
50 275
50 276
50 277
50 278
50 279
51 279
52 279
53 279
54 279
55 279
56 279
57 279
58 279
59 279
60 279
61 279
62 279
63 279
64 279
65 279
66 279
67 279
68 279
69 279
70 279
71 279
72 279
73 279
74 279
75 279
76 279
77 279
78 279
79 279
80 279
81 279
82 279
83 279
84 278
85 278
86 278
87 278
88 278
89 278
90 278
91 278
92 278
93 278
94 278
95 278
96 278
97 278
98 278
99 278
100 278
101 278
102 278
103 278
104 278
105 278
106 278
107 278
108 278
109 278
110 278
111 278
112 278
113 278
114 278
115 278
116 278
117 278
118 278
119 278
120 278
121 278
122 278
123 278
124 278
125 278
126 277
127 277
128 277
129 277
130 278
131 278
132 278
133 278
134 278
135 278
136 278
137 278
138 278
139 279
140 279
141 279
142 279
143 279
144 279
145 279
146 279
147 279
148 279
149 279
150 279
151 279
152 279
153 279
154 278
155 278
156 278
157 278
158 278
159 278
160 278
161 278
162 278
163 278
164 278
165 278
166 278
167 278
168 278
169 278
170 278
171 279
172 279
173 279
174 279
175 279
176 279
177 279
178 279
179 279
180 279
181 279
182 279
183 279
184 279
185 279
186 279
187 279
188 280
189 280
190 280
191 280
192 280
193 280
194 280
195 280
196 280
197 280
198 280
199 280
200 280
201 280
202 280
203 280
204 280
205 280
206 280
207 280
208 281
209 281
210 281
211 281
212 281
213 281
214 281
215 281
216 281
217 281
218 281
219 281
220 281
221 281
222 280
223 280
224 280
225 281
226 281
227 281
228 281
229 281
230 281
231 281
232 281
233 281
234 281
235 281
236 281
237 281
238 280
239 280
240 280
241 280
242 280
243 280
244 280
245 280
246 280
247 280
248 280
249 280
250 280
251 280
252 280
253 280
254 281
255 281
256 281
257 281
258 281
259 281
260 281
261 281
262 281
263 281
264 281
265 281
266 281
267 281
268 281
269 281
270 281
271 281
272 281
273 281
274 280
275 280
276 280
277 280
278 280
279 280
280 280
281 280
282 280
283 279
284 279
285 279
286 279
287 279
288 279
289 279
290 279
291 279
292 279
293 279
294 279
295 279
296 279
297 279
298 279
299 279
300 279
301 279
302 278
303 278
304 278
305 278
306 278
307 278
308 278
309 278
310 278
311 278
312 278
313 278
314 277
315 277
316 277
317 277
318 277
319 277
320 277
321 277
322 277
323 276
324 276
325 276
326 276
327 276
328 276
329 276
330 276
331 276
332 275
333 275
334 275
335 275
336 275
337 275
338 275
339 275
340 275
341 275
342 275
343 275
344 275
345 275
346 275
347 274
348 274
349 274
350 274
351 274
352 274
353 274
354 274
355 273
356 273
357 273
358 273
359 273
360 273
361 273
362 272
363 272
364 272
365 272
366 272
367 272
368 272
369 272
370 271
371 271
372 271
373 271
374 271
375 271
376 270
377 270
378 270
379 270
380 270
381 269
382 269
383 269
384 269
385 269
386 269
387 269
388 269
389 268
390 268
391 268
392 268
393 268
394 267
395 267
396 267
397 267
398 267
399 266
400 266
401 266
402 266
403 266
404 265
405 265
406 265
407 264
408 264
409 264
410 264
411 263
412 263
413 263
414 263
415 263
416 262
417 262
418 262
419 262
420 262
421 262
422 261
423 261
424 261
425 261
426 261
427 260
428 260
429 260
430 260
431 260
432 259
433 259
434 259
435 259
436 259
437 259
438 258
439 258
440 258
441 258
442 258
443 258
444 259
445 259
446 259
447 259
448 259
449 259
450 259
451 260
452 260
453 261
454 261
455 262
455 263
456 264
455 265
454 266
453 267
452 267
451 268
450 268
449 268
448 268
447 268
446 268
445 269
444 269
443 269
442 269
441 269
440 269
439 269
438 269
437 269
436 269
435 269
434 269
433 269
432 270
431 270
430 270
429 270
428 270
427 270
426 270
425 270
424 270
423 270
422 271
421 271
420 271
419 271
418 271
417 271
416 271
415 271
414 272
413 272
412 272
411 272
410 272
409 272
408 272
407 273
406 273
405 273
404 273
403 273
402 273
401 274
400 274
399 274
398 274
397 274
396 274
395 275
394 275
393 275
392 275
391 275
390 275
389 276
388 276
387 276
386 276
385 277
384 277
383 277
382 277
381 278
380 278
379 278
378 279
377 279
376 279
375 280
374 280
373 280
372 281
371 281
370 282
369 282
368 283
367 283
366 283
365 284
364 284
363 285
362 285
361 285
360 286
359 287
358 287
357 288
356 289
355 289
354 290
353 291
352 291
351 292
350 293
349 293
348 294
347 295
346 295
345 296
344 296
343 297
342 297
341 298
340 299
339 299
338 300
337 300
336 301
335 301
334 302
333 303
332 304
331 304
330 305
329 305
328 306
327 307
326 307
325 308
324 309
323 310
322 310
321 311
320 312
319 313
318 313
317 314
316 315
315 316
314 316
313 317
312 318
311 319
310 319
309 320
308 321
307 322
306 322
305 323
304 324
303 325
302 326
301 326
300 327
299 328
298 329
297 329
296 330
295 331
294 332
293 333
293 334
292 335
291 336
290 337
289 338
288 339
287 340
286 341
285 342
284 343
283 344
282 345
281 346
280 347
279 348
278 349
277 350
276 351
275 352
274 353
273 354
272 355
271 356
270 357
269 358
268 358
267 359
266 360
265 361
264 361
263 362
262 363
261 364
260 365
259 366
258 367
257 368
256 369
255 370
254 371
253 372
252 373
251 374
250 375
249 376
249 377
248 378
247 379
246 380
245 381
244 382
243 383
242 384
241 385
240 386
239 387
238 388
237 389
236 390
236 391
235 392
234 393
233 394
233 395
232 396
231 397
231 398
230 399
229 400
229 401
228 402
227 403
226 404
225 405
224 406
223 407
222 408
221 409
220 410
219 411
219 412
218 413
217 414
216 415
215 416
214 417
214 418
213 419
212 420
211 421
210 422
209 423
208 424
208 425
207 426
206 427
205 428
204 429
204 430
203 431
202 432
201 433
200 434
199 435
199 436
199 437
199 438
199 439
199 440
199 441
199 442
200 442
201 442
202 442
203 442
204 442
205 442
206 442
207 442
208 442
209 442
210 442
211 442
212 441
213 441
214 441
215 441
216 440
217 440
218 440
219 439
220 439
221 438
222 438
223 437
224 436
225 436
226 435
227 435
228 434
229 434
230 433
231 432
232 432
233 431
234 431
235 430
236 430
237 429
238 429
239 428
240 428
241 428
242 427
243 427
244 426
245 426
246 425
247 425
248 424
249 424
250 423
251 423
252 422
253 422
254 422
255 421
256 421
257 420
258 420
259 420
260 419
261 419
262 418
263 418
264 417
265 417
266 417
267 416
268 416
269 415
270 415
271 415
272 414
273 413
274 412
275 412
276 411
277 411
278 410
279 410
280 409
281 409
282 408
283 408
284 407
285 407
286 406
287 406
288 405
289 405
290 404
291 404
292 404
293 403
294 403
295 402
296 402
297 401
298 401
299 401
300 400
301 400
302 399
303 399
304 398
305 398
306 397
307 397
308 396
309 396
310 396
311 395
312 395
313 394
314 393
315 392
316 392
317 391
318 391
319 390
320 389
321 389
322 388
323 388
324 387
325 386
326 386
327 385
328 384
329 384
330 383
331 382
332 382
333 381
334 380
335 380
336 379
337 378
338 378
339 377
340 377
341 376
342 375
343 375
344 374
345 373
346 373
347 372
348 371
349 371
350 370
351 370
352 369
353 368
354 367
355 366
356 366
357 365
358 364
359 363
360 362
361 362
362 361
363 360
364 360
365 359
366 358
367 357
368 356
369 355
370 354
371 353
372 353
373 352
374 351
375 350
376 350
377 349
378 349
379 348
380 347
381 346
382 346
383 345
384 344
385 343
386 343
387 342
388 341
389 340
390 339
391 338
392 338
393 337
394 336
395 335
396 334
397 333
398 332
399 331
400 330
401 329
402 329
403 328
404 327
405 327
406 326
407 325
408 324
409 323
410 322
411 321
412 320
413 319
414 318
414 317
415 316
415 315
416 314
416 313
417 312
417 311
418 310
419 309
420 308
421 307
422 307
423 306
424 306
425 305
426 305
427 304
428 303
429 302
430 301
431 300
432 299
433 299
434 298
435 297
436 297
437 296
438 295
439 294
440 293
441 292
442 292
443 291
444 290
445 289
446 289
447 288
448 287
449 286
450 286
451 285
452 285
453 284
454 283
455 283
456 282
457 281
458 281
459 280
460 280
461 279
462 278
463 278
464 277
465 277
466 276
467 277
468 277
469 278
469 279
469 280
468 281
468 282
467 283
467 284
466 285
465 286
465 287
464 288
464 289
463 290
463 291
462 292
462 293
461 294
461 295
460 296
460 297
459 298
459 299
458 300
458 301
457 302
457 303
456 304
456 305
455 306
455 307
455 308
455 309
454 310
454 311
454 312
454 313
454 314
453 315
453 316
453 317
453 318
453 319
453 320
453 321
453 322
453 323
453 324
453 325
453 326
453 327
453 328
453 329
453 330
453 331
453 332
453 333
453 334
453 335
453 336
453 337
453 338
453 339
453 340
453 341
453 342
453 343
453 344
453 345
453 346
453 347
453 348
453 349
453 350
453 351
453 352
453 353
453 354
453 355
453 356
453 357
453 358
453 359
453 360
453 361
453 362
453 363
453 364
453 365
453 366
453 367
453 368
453 369
453 370
453 371
453 372
453 373
453 374
453 375
453 376
454 377
454 378
454 379
454 380
454 381
454 382
454 383
454 384
455 385
455 386
455 387
455 388
455 389
455 390
455 391
455 392
456 393
456 394
456 395
456 396
457 397
457 398
458 399
458 400
459 401
459 402
460 403
460 404
461 405
461 406
462 407
462 408
463 409
463 410
463 411
464 412
464 413
465 414
465 415
466 416
466 417
467 418
467 419
467 420
468 421
468 422
468 423
469 424
469 425
470 426
470 427
471 428
471 429
472 430
472 431
473 432
474 433
474 434
475 435
475 436
476 437
476 438
477 439
477 440
478 441
479 442
479 443
480 444
481 445
481 446
482 447
483 448
483 449
484 450
485 451
485 452
486 453
486 454
487 455
487 456
488 457
488 458
489 459
490 460
491 460
492 460
493 460
494 460
495 460
496 460
496 459
496 458
496 457
496 456
497 455
497 454
497 453
497 452
497 451
497 450
497 449
497 448
497 447
497 446
497 445
497 444
497 443
497 442
497 441
497 440
497 439
497 438
497 437
497 436
497 435
497 434
497 433
497 432
497 431
497 430
497 429
497 428
497 427
498 426
498 425
498 424
498 423
498 422
498 421
498 420
498 419
498 418
498 417
498 416
498 415
498 414
498 413
498 412
498 411
498 410
498 409
498 408
499 407
499 406
499 405
499 404
499 403
499 402
499 401
499 400
499 399
499 398
499 397
499 396
499 395
499 394
499 393
499 392
500 391
500 390
500 389
500 388
500 387
500 386
500 385
500 384
500 383
500 382
500 381
500 380
500 379
500 378
500 377
500 376
500 375
500 374
500 373
500 372
500 371
500 370
500 369
500 368
501 367
501 366
501 365
501 364
501 363
501 362
501 361
501 360
501 359
501 358
502 357
502 356
502 355
502 354
502 353
502 352
502 351
502 350
502 349
502 348
502 347
502 346
502 345
502 344
502 343
503 342
503 341
503 340
503 339
503 338
503 337
503 336
503 335
503 334
503 333
503 332
503 331
503 330
503 329
503 328
503 327
503 326
503 325
502 324
502 323
502 322
502 321
502 320
502 319
501 318
501 317
501 316
501 315
501 314
501 313
501 312
501 311
501 310
501 309
501 308
501 307
501 306
501 305
501 304
500 303
500 302
500 301
499 300
499 299
499 298
498 297
498 296
497 295
497 294
496 293
496 292
495 291
495 290
494 289
494 288
494 287
494 286
493 285
493 284
493 283
493 282
492 281
492 280
492 279
492 278
492 277
491 276
490 275
490 274
489 273
489 272
488 271
489 270
489 269
490 268
491 268
492 267
493 267
494 266
495 266
496 266
497 265
498 265
499 265
500 264
501 264
502 264
503 264
504 263
505 263
506 263
507 262
508 262
509 262
510 262
511 261
512 261
513 261
514 261
515 261
516 262
517 262
518 263
519 263
520 263
521 263
522 262
522 261
523 260
524 259
525 259
526 258
527 258
528 257
529 257
530 257
531 257
532 256
533 256
534 256
535 256
536 255
537 255
538 255
539 255
540 255
541 255
542 254
543 254
544 254
545 254
546 254
547 253
548 253
549 253
550 253
551 253
552 252
553 252
554 252
555 252
556 252
557 251
558 251
559 251
560 251
561 251
562 251
563 251
564 250
565 250
566 250
567 250
568 250
569 250
570 249
571 249
572 249
573 249
574 249
575 249
576 249
577 249
578 248
579 248
580 248
581 248
582 248
583 248
584 248
585 248
586 247
587 247
588 247
589 247
590 247
591 247
592 247
593 247
594 247
595 247
596 246
597 246
598 246
599 246
600 246
601 246
602 246
603 246
604 246
605 246
606 246
607 246
608 246
609 245
610 245
611 245
612 245
613 245
614 245
615 245
616 245
617 245
618 245
619 245
620 245
621 245
622 245
623 245
624 245
625 245
626 245
627 245
628 245
629 245
630 245
631 245
632 245
633 245
634 245
635 245
636 245
637 245
638 245
639 245
640 245
641 245
642 245
643 245
644 245
645 245
646 245
647 245
648 245
649 246
650 246
651 246
652 246
653 246
654 246
655 246
656 246
657 246
658 246
659 246
660 247
661 247
662 247
663 247
664 247
665 247
666 247
667 247
668 248
669 248
670 248
671 248
672 248
673 248
674 249
675 249
676 249
677 249
678 249
679 249
680 249
681 249
682 250
683 250
684 250
685 250
686 250
687 250
688 250
689 250
690 250
691 250
692 250
693 250
694 250
694 249
694 248
694 247
694 246
694 245
694 244
694 243
694 242
694 241
693 241
692 241
691 241
690 241
689 241
688 241
687 241
686 241
685 241
684 241
683 241
682 241
681 241
680 241
679 240
678 240
677 240
676 240
675 240
674 240
673 240
672 240
671 240
670 240
669 239
668 239
667 239
666 239
665 239
664 239
663 239
662 239
661 239
660 239
659 239
658 239
657 239
656 238
655 238
654 238
653 238
652 238
651 238
650 238
649 238
648 238
647 238
646 238
645 238
644 238
643 238
642 238
641 238
640 238
639 238
638 238
637 238
636 238
635 238
634 238
633 238
632 238
631 238
630 238
629 238
628 238
627 238
626 238
625 238
624 238
623 238
622 238
621 238
620 238
619 238
618 238
617 238
616 238
615 238
614 238
613 238
612 238
611 238
610 238
609 238
608 238
607 238
606 238
605 238
604 238
603 238
602 238
601 238
600 238
599 238
598 239
597 239
596 239
595 239
594 239
593 239
592 239
591 239
590 239
589 239
588 239
587 239
586 239
585 240
584 240
583 240
582 240
581 240
580 240
579 240
578 240
577 240
576 240
575 241
574 241
573 241
572 241
571 241
570 241
569 241
568 241
567 242
566 242
565 242
564 242
563 242
562 242
561 242
560 242
559 243
558 243
557 243
556 243
555 243
554 243
553 244
552 244
551 244
550 244
549 244
548 244
547 245
546 245
545 245
544 245
543 245
542 245
541 246
540 246
539 246
538 246
537 246
536 247
535 247
534 247
533 247
532 247
531 248
530 248
529 248
528 248
527 247
526 247
525 247
524 247
523 246
524 245
525 245
526 244
526 243
527 242
528 241
529 241
530 240
531 239
532 238
533 238
534 237
535 236
536 235
537 235
538 234
539 233
540 232
541 231
542 230
543 230
544 229
545 228
546 227
547 226
548 226
549 225
550 224
551 224
552 223
553 222
554 222
555 221
556 220
557 219
558 219
559 218
560 217
561 216
562 215
563 214
564 213
565 212
566 211
567 210
568 209
569 208
570 208
571 207
572 206
573 205
574 204
575 203
576 202
577 201
577 200
578 199
579 198
579 197
580 196
581 195
582 194
582 193
583 192
584 191
585 190
586 189
587 188
588 187
588 186
589 185
590 184
590 183
591 182
592 181
592 180
593 179
594 178
594 177
595 176
596 175
596 174
597 173
597 172
598 171
599 170
600 169
601 168
602 167
602 166
603 165
604 164
605 163
606 162
607 161
608 160
609 159
610 158
611 157
611 156
612 155
613 154
614 153
615 152
615 151
616 150
617 149
618 148
619 147
619 146
620 145
621 144
622 143
623 142
623 141
624 140
625 139
626 138
626 137
626 136
626 135
626 134
626 133
626 132
626 131
626 130
626 129
625 129
624 129
623 129
622 129
621 129
620 129
619 129
618 129
617 129
616 129
615 130
614 130
613 130
612 130
611 130
610 130
609 130
608 130
607 131
606 131
605 131
604 132
603 132
602 132
601 132
600 132
599 132
598 133
597 133
596 133
595 133
594 133
593 133
592 133
591 133
590 134
589 134
588 134
587 135
586 135
585 135
584 136
583 136
582 137
581 137
580 137
579 138
578 138
577 138
576 138
575 139
574 139
573 140
572 140
571 141
570 141
569 142
568 143
567 143
566 144
565 144
564 145
563 145
562 146
561 146
560 147
559 147
558 148
557 149
556 150
555 150
554 151
553 152
552 152
551 153
550 154
549 154
548 155
547 156
546 156
545 157
544 158
543 159
542 159
541 160
540 160
539 161
538 162
537 162
536 163
535 164
534 164
533 165
532 166
531 167
530 168
529 168
528 169
527 169
526 170
525 171
524 172
523 172
522 173
521 174
520 175
519 176
518 176
517 177
516 178
515 179
514 180
513 181
512 182
511 183
510 184
509 185
509 186
508 187
507 188
506 189
505 190
504 191
503 192
502 193
502 194
501 195
500 196
499 197
499 198
498 199
498 200
497 201
497 202
496 203
496 204
495 205
495 206
495 207
494 208
494 209
494 210
493 211
493 212
493 213
492 214
492 215
492 216
491 217
491 218
491 219
490 220
490 221
490 222
490 223
489 224
489 225
488 226
488 227
487 228
487 229
487 230
486 231
486 232
486 233
485 234
485 235
485 236
484 237
484 238
483 239
483 240
482 241
482 242
481 243
480 244
479 245
478 245
477 245
476 244
475 243
474 242
473 241
472 240
472 239
471 238
470 237
470 236
469 235
468 234
467 233
466 232
466 231
465 230
464 229
464 228
463 227
462 226
462 225
461 224
461 223
460 222
459 221
459 220
458 219
458 218
457 217
457 216
456 215
456 214
455 213
454 212
454 211
453 210
452 209
452 208
451 207
450 206
450 205
449 204
448 203
448 202
447 201
446 200
446 199
445 198
445 197
444 196
443 195
443 194
442 193
442 192
441 191
440 190
440 189
439 188
439 187
438 186
437 185
437 184
436 183
435 182
435 181
434 180
433 179
432 178
431 177
431 176
430 175
429 174
428 173
427 172
426 171
425 170
424 169
423 168
422 167
421 166
420 165
419 164
418 163
417 162
416 161
415 160
414 159
413 158
412 157
411 156
410 155
409 154
409 153
408 152
407 151
406 150
405 149
404 149
403 148
402 147
401 146
400 146
399 145
398 144
397 144
396 143
395 142
394 141
393 141
392 140
391 139
390 138
389 137
388 136
387 135
386 134
385 133
384 132
383 131
382 131
381 130
380 129
379 129
378 128
377 127
376 126
375 126
374 125
373 124
372 123
371 122
370 121
369 120
368 119
367 118
366 117
365 116
364 115
363 114
362 113
361 112
360 112
359 111
358 110
357 109
356 108
355 107
354 107
353 106
352 105
351 104
350 103
349 103
348 102
347 101
346 101
345 100
344 99
343 98
342 98
341 97
340 96
339 96
338 95
337 94
336 94
335 93
334 92
333 92
332 91
331 90
330 90
329 89
328 89
327 88
326 88
325 87
324 87
323 86
322 86
321 85
320 84
319 84
318 83
317 83
316 82
315 81
314 81
313 80
312 80
311 79
310 78
309 78
308 77
307 76
306 76
305 75
304 75
303 74
302 73
301 73
300 72
299 72
298 71
297 71
296 70
295 70
294 69
293 69
292 68
291 68
290 67
289 67
288 66
287 66
286 66
285 65
284 65
283 64
282 64
281 63
280 63
279 62
278 62
277 61
276 61
275 60
274 60
273 59
272 58
271 58
270 57
269 57
268 56
267 56
266 55
265 55
264 54
263 54
262 53
261 52
260 52
259 51
258 50
257 49
256 49
255 48
254 48
253 47
252 47
251 46
250 46
249 45
248 45
247 44
246 44
245 43
244 42
243 42
242 41
241 41
240 41
239 40
238 40
237 40
236 40
235 40
234 40
233 40
232 40
231 40
230 40
229 40
228 40
227 40
227 41
227 42
227 43
227 44
227 45
227 46
227 47
227 48
227 49
227 50
228 51
229 52
230 53
230 54
231 55
232 56
233 57
234 58
235 59
236 60
236 61
237 62
238 63
238 64
239 65
240 66
241 67
242 68
242 69
243 70
244 71
245 72
246 73
247 74
248 75
248 76
249 77
250 78
251 79
252 80
252 81
253 82
254 83
255 84
256 85
256 86
257 87
258 88
259 89
260 90
261 91
262 92
263 93
264 94
264 95
265 96
266 97
266 98
267 99
268 100
269 101
269 102
270 103
271 104
272 105
273 106
274 107
275 108
276 109
276 110
277 111
278 112
279 113
280 114
281 115
281 116
282 117
283 118
284 119
285 120
286 121
287 122
288 123
288 124
289 125
290 126
291 127
292 128
293 129
293 130
294 131
295 132
296 133
297 134
298 135
299 136
300 137
301 138
302 138
303 139
304 140
305 141
306 142
307 143
308 144
309 144
310 145
311 146
312 147
313 148
314 149
315 150
316 151
317 152
318 153
319 154
320 155
321 155
322 156
323 157
324 158
325 158
326 159
327 160
328 161
329 162
330 163
331 164
332 165
333 166
334 167
335 168
336 169
337 170
338 171
339 172
340 173
341 174
342 175
343 176
344 177
345 178
346 179
347 180
348 181
349 181
350 182
351 183
352 184
353 185
354 186
355 187
356 188
357 189
358 190
359 191
360 191
361 192
362 193
363 194
364 195
365 196
366 196
367 197
368 198
369 198
370 199
371 200
372 200
373 201
374 202
375 202
376 203
377 204
378 205
379 206
380 206
381 207
382 207
383 208
384 208
385 209
386 209
387 210
388 210
389 211
390 211
391 212
392 212
393 213
394 213
395 214
396 215
397 216
398 217
399 218
400 218
401 219
402 220
403 220
404 221
405 221
406 222
407 222
408 223
409 224
409 225
410 226
409 227
408 227
407 228
406 228
405 227
404 227
403 226
402 226
401 226
400 225
399 225
398 224
397 224
396 224
395 223
394 223
393 223
392 222
391 222
390 222
389 221
388 221
387 221
386 220
385 220
384 220
383 219
382 219
381 219
380 219
379 218
378 218
377 218
376 218
375 218
374 218
373 218
372 217
371 217
370 217
369 217
368 217
367 217
366 217
365 217
364 217
363 217
362 216
361 216
360 216
359 216
358 216
357 215
356 215
355 215
354 215
353 215
352 214
351 214
350 214
349 214
348 213
347 213
346 213
345 213
344 213
343 213
342 213
341 212
340 212
339 212
338 212
337 212
336 212
335 212
334 212
333 212
332 212
331 212
330 212
329 212
328 212
327 212
326 212
325 212
324 211
323 211
322 211
321 211
320 211
319 211
318 211
317 211
316 211
315 211
314 211
313 211
312 211
311 211
310 211
309 211
308 211
307 211
306 211
305 211
304 211
303 211
302 211
301 211
300 211
299 211
298 211
297 211
296 211
295 211
294 211
293 210
292 210
291 210
290 210
289 210
288 210
287 210
286 210
285 210
284 210
283 210
282 210
281 210
280 210
279 210
278 210
277 211
276 211
275 211
274 211
273 211
272 211
271 211
270 211
269 211
268 212
267 212
266 212
265 212
264 212
263 212
262 212
261 212
260 212
259 212
258 213
257 213
256 213
255 213
254 213
253 214
252 214
251 214
250 214
249 214
248 214
247 214
246 214
245 214
244 215
243 215
242 215
241 215
240 215
239 216
238 216
237 216
236 216
235 217
234 217
233 217
232 217
231 217
230 217
229 217
228 218
227 218
226 218
225 218
224 218
223 219
222 219
221 219
220 220
219 220
218 220
217 220
216 220
215 221
214 221
213 221
212 221
211 221
210 221
209 222
208 222
207 222
206 222
205 222
204 223
203 223
202 223
201 223
200 223
199 223
198 224
197 224
196 224
195 224
194 224
193 224
192 224
191 225
190 225
189 225
188 225
187 225
186 226
185 226
184 226
183 226
182 226
181 227
180 227
179 227
178 227
177 227
176 227
175 228
174 228
173 228
172 229
171 229
170 230
169 230
168 230
167 231
166 231
165 231
164 232
163 232
162 232
161 233
160 233
159 234
158 234
157 234
156 235
155 235
154 235
153 236
152 236
151 237
150 237
149 237
148 237
147 238
146 238
145 239
144 239
143 239
142 239
141 239
140 240
139 240
138 240
137 241
136 241
135 241
134 241
133 242
132 242
131 243
130 243
129 244
128 244
127 245
126 245
125 245
124 246
123 246
122 246
121 247
120 247
119 247
118 248
117 248
116 248
115 249
114 249
113 250
112 250
111 250
110 250
109 250
108 251
107 251
106 251
105 251
104 251
103 251
102 252
101 252
100 252
99 252
98 252
97 252
96 253
95 253
94 253
93 253
92 254
91 254
90 255
89 255
88 255
87 256
86 256
85 257
84 257
83 258
82 258
81 259
80 259
79 259
78 260
77 260
76 261
75 261
74 262
73 262
72 263
71 263
70 263
69 264
68 264
67 264
66 265
65 265
64 266
63 266
62 266
61 267
60 267
59 267
58 268
57 268
56 268
55 269
54 269
53 270
52 270
51 271
50 272
