373 60
372 61
371 61
370 61
369 61
368 61
367 61
366 61
365 61
364 62
363 62
362 62
361 62
360 62
359 62
358 62
357 62
356 62
355 62
354 62
353 62
352 62
351 62
350 62
349 62
348 62
347 62
346 62
345 62
344 62
343 62
342 63
341 63
340 63
339 63
338 63
337 63
336 64
335 64
334 64
333 64
332 64
331 65
330 65
329 65
328 65
327 66
326 66
325 66
324 67
323 67
322 67
321 68
320 68
319 68
318 69
317 69
316 70
315 70
314 71
313 71
312 72
311 73
310 73
309 74
308 75
307 75
306 76
305 76
304 77
303 77
302 77
301 78
300 78
299 79
298 79
297 79
296 80
295 80
294 80
293 80
292 81
291 81
290 81
289 81
288 82
287 82
286 83
285 83
284 83
283 84
282 84
281 84
280 85
279 85
278 85
277 86
276 86
275 86
274 87
273 87
272 88
271 88
270 88
269 89
268 89
267 89
266 90
265 90
264 90
263 91
262 91
261 92
260 92
259 93
258 93
257 93
256 94
255 94
254 94
253 94
252 95
251 95
250 96
249 96
248 96
247 96
246 97
245 97
244 97
243 97
242 98
241 98
240 98
239 98
238 99
237 99
236 99
235 100
234 100
233 100
232 100
231 101
230 101
229 101
228 101
227 101
226 102
225 102
224 102
223 102
222 103
221 103
220 103
219 104
218 104
217 104
216 104
215 104
214 104
213 105
212 105
211 105
210 105
209 105
208 105
207 106
206 106
205 106
204 106
203 106
202 107
201 107
200 107
199 107
198 107
197 107
196 107
195 107
194 107
193 107
192 108
191 108
190 108
189 108
188 108
187 108
186 109
185 109
184 109
183 109
182 109
181 109
180 109
179 109
178 109
177 110
176 110
175 111
174 111
173 111
172 111
171 112
170 112
169 112
168 113
167 113
166 114
165 114
164 115
163 116
162 116
161 116
160 117
159 117
158 117
157 117
156 118
155 118
154 119
153 119
152 119
151 120
150 120
149 121
148 121
147 122
146 122
145 122
144 123
143 123
142 124
141 124
140 124
139 125
138 126
137 126
136 126
135 127
134 128
133 128
132 129
131 129
130 129
129 130
128 130
127 131
126 131
125 132
124 133
123 133
122 134
121 135
120 136
119 136
118 137
117 137
116 138
115 138
114 139
113 140
112 140
111 141
110 141
109 142
108 143
107 143
106 144
105 145
104 145
103 146
102 147
101 148
100 148
99 149
98 150
97 150
96 151
95 152
94 152
93 153
92 154
91 154
90 155
89 156
88 157
87 157
86 158
85 158
84 159
83 159
82 160
81 161
80 162
79 162
78 163
77 164
76 165
75 166
74 166
73 166
72 167
71 167
70 168
69 168
68 169
67 169
66 170
65 170
65 171
64 172
63 172
62 173
61 173
60 174
59 174
58 174
57 175
56 174
55 174
54 174
53 174
52 174
53 175
53 176
54 177
55 178
55 179
56 180
56 181
56 182
57 183
57 184
58 185
58 186
58 187
59 188
59 189
60 190
60 191
60 192
61 193
61 194
61 195
62 196
62 197
62 198
63 199
63 200
63 201
64 202
64 203
65 204
66 205
66 206
66 207
67 208
68 209
68 210
69 211
69 212
70 213
71 214
71 215
72 216
73 217
73 218
74 219
74 220
75 221
75 222
76 223
77 224
77 225
78 226
79 227
79 228
80 229
81 230
82 231
83 232
84 233
84 234
85 235
86 236
87 237
88 238
89 239
90 240
91 241
91 242
92 242
93 243
93 244
94 245
95 245
96 246
97 247
98 248
99 249
100 250
101 251
102 252
103 252
104 253
105 254
106 255
107 256
108 256
109 257
110 258
111 259
112 260
113 261
114 261
115 262
116 263
117 264
118 264
119 265
120 266
121 267
122 268
123 269
124 269
125 270
125 271
126 271
127 272
128 273
129 274
130 275
131 276
132 277
133 278
134 279
135 280
136 280
137 281
138 282
139 283
140 284
141 284
142 285
143 286
144 287
145 287
146 288
147 289
148 289
149 290
150 291
151 292
152 292
153 293
154 294
155 294
156 295
157 296
158 297
159 298
160 298
161 299
162 300
163 300
164 301
165 301
166 302
167 303
168 304
169 304
170 305
171 305
172 306
173 307
174 308
175 308
176 309
177 310
178 310
179 311
180 311
181 312
182 313
183 314
184 314
185 315
186 315
187 316
188 317
189 317
190 318
191 318
192 319
193 319
194 320
195 321
196 321
197 322
198 322
199 323
200 323
201 324
202 325
203 325
204 326
205 326
206 326
207 327
208 327
209 327
210 328
211 328
212 329
213 329
214 330
215 330
216 331
217 331
218 332
219 332
220 333
221 333
222 334
223 334
224 334
225 335
226 335
227 336
228 336
229 337
230 337
231 338
232 338
233 338
234 339
235 339
236 339
237 340
238 340
239 340
240 340
241 340
242 340
243 340
244 341
245 341
246 341
247 341
248 341
249 341
250 342
251 342
252 342
253 342
254 342
255 342
256 342
257 342
258 342
259 342
260 342
261 342
262 342
263 342
264 342
265 343
266 343
267 343
268 343
269 343
270 343
271 343
272 343
273 343
274 343
275 343
276 343
277 343
278 343
279 343
280 343
281 343
282 343
283 343
284 343
285 343
286 343
287 343
288 344
289 344
290 344
291 344
292 344
293 344
294 344
295 344
296 344
297 345
298 345
299 345
300 345
301 345
302 345
303 345
304 345
305 345
306 346
307 346
308 346
309 346
310 346
311 346
312 346
313 347
314 347
315 347
316 347
317 347
318 347
319 348
320 348
321 348
322 348
323 348
324 348
325 348
326 348
327 348
328 348
329 349
330 349
331 349
332 349
333 349
334 349
335 349
336 349
337 349
338 349
339 349
340 350
341 350
342 350
343 350
344 350
345 350
346 350
347 350
348 350
349 350
350 350
351 350
352 350
353 350
354 350
355 350
356 350
357 351
358 351
359 351
360 351
361 351
362 351
363 351
364 351
365 351
366 351
367 351
368 351
369 352
370 352
371 352
372 352
373 352
374 352
375 352
376 352
377 352
378 352
379 352
380 353
381 353
382 353
383 353
384 353
385 353
386 353
387 353
388 353
389 353
390 353
391 353
392 353
393 353
394 353
395 353
396 353
397 353
398 353
399 353
400 353
401 353
402 353
403 353
404 353
405 353
406 353
407 353
408 353
409 353
410 352
411 352
412 352
413 352
414 352
415 352
416 352
417 352
418 352
419 352
420 352
421 352
422 352
423 352
424 352
425 351
426 351
427 351
428 351
429 351
430 351
431 350
432 350
433 350
434 350
435 350
436 350
437 350
438 350
439 349
440 349
441 349
442 349
443 349
444 349
445 349
446 349
447 349
448 349
449 348
450 348
451 348
452 348
453 348
454 348
455 348
456 347
457 347
458 347
459 347
460 347
461 346
462 346
463 346
464 346
465 346
466 345
467 345
468 345
469 345
470 345
471 345
472 344
473 344
474 344
475 344
476 344
477 344
478 344
479 343
480 343
481 343
482 343
483 343
484 343
485 342
486 342
487 342
488 342
489 342
490 341
491 341
492 341
493 341
494 341
495 341
496 340
497 340
498 340
499 340
500 340
501 340
502 339
503 339
504 339
505 339
506 339
507 339
508 338
509 338
510 338
511 338
512 338
513 337
514 337
515 337
516 336
517 336
518 336
519 335
520 335
521 335
522 334
523 334
524 333
525 333
526 332
527 332
528 332
529 331
530 330
531 330
532 329
533 329
534 329
535 328
536 328
537 328
538 327
539 327
540 326
541 326
542 325
543 325
544 325
545 324
546 324
547 324
548 323
549 323
550 322
551 322
552 321
553 320
554 320
555 320
556 319
557 318
558 318
559 317
560 317
561 316
562 316
563 315
564 314
565 314
566 313
567 313
568 312
569 311
570 311
571 310
572 309
573 309
574 308
575 308
576 307
577 306
578 305
579 305
580 304
581 304
582 303
583 303
583 302
584 301
585 301
585 300
586 299
587 299
588 298
589 297
590 296
591 296
592 295
593 294
594 294
595 293
596 292
597 291
598 290
599 289
600 288
601 288
602 287
602 286
603 285
604 284
605 283
606 282
607 281
608 280
609 279
609 278
610 277
611 277
611 276
612 275
613 274
614 273
614 272
615 271
616 270
616 269
617 268
617 267
618 266
619 265
619 264
619 263
620 262
620 261
621 260
621 259
622 258
622 257
623 256
623 255
623 254
623 253
623 252
624 251
624 250
624 249
624 248
624 247
624 246
625 245
625 244
625 243
625 242
625 241
625 240
625 239
625 238
625 237
625 236
625 235
626 234
626 233
626 232
627 231
627 230
628 229
628 228
629 227
630 226
631 226
632 225
633 225
634 225
635 224
636 224
637 224
638 224
639 224
640 223
641 223
642 223
643 223
644 223
645 222
646 222
647 222
648 222
649 222
650 222
651 222
652 222
653 222
654 222
655 221
656 221
657 221
658 222
659 222
660 222
661 221
662 221
663 221
664 221
665 221
666 221
667 221
668 221
669 221
670 221
671 221
672 221
673 221
674 221
675 221
676 221
677 221
678 221
679 221
680 221
681 221
682 221
683 221
684 221
685 221
686 221
687 221
688 221
689 221
690 221
691 221
692 221
693 221
694 221
695 221
696 221
697 221
698 221
699 221
700 221
701 221
702 221
703 221
704 221
705 221
706 221
707 221
708 221
709 221
710 221
711 221
712 221
713 221
714 221
715 221
716 221
717 221
718 221
719 221
720 221
721 221
722 221
723 221
724 221
725 221
726 222
727 222
728 221
729 221
730 221
731 221
732 221
733 221
734 222
735 222
736 222
737 222
738 222
739 222
740 222
741 222
742 222
743 222
744 223
745 223
746 223
747 223
748 223
749 223
750 223
751 223
752 223
753 223
754 222
755 222
756 221
757 220
758 219
758 218
758 217
758 216
758 215
758 214
758 213
758 212
757 211
757 210
756 209
756 210
755 211
754 210
753 210
752 209
751 209
750 209
749 208
748 208
747 208
746 208
745 208
744 208
743 208
742 208
741 207
740 207
739 207
738 207
737 207
736 207
735 207
734 207
733 207
732 207
731 207
730 207
729 207
728 207
727 207
726 207
725 207
724 207
723 207
722 207
721 207
720 207
719 207
718 207
717 207
716 207
715 208
714 208
713 208
712 208
711 208
710 208
709 208
708 208
707 208
706 208
705 208
704 208
703 208
702 208
701 208
700 208
699 208
698 208
697 208
696 208
695 208
694 208
693 208
692 208
691 208
690 208
689 208
688 208
687 208
686 208
685 208
684 208
683 208
682 208
681 208
680 208
679 208
678 208
677 208
676 208
675 208
674 208
673 208
672 208
671 208
670 208
669 208
668 208
667 208
666 208
665 208
664 208
663 208
662 208
661 208
660 208
659 208
658 208
657 208
656 208
655 208
654 208
653 208
652 208
651 208
650 208
649 208
648 207
647 207
646 207
645 207
644 207
643 207
642 207
641 206
640 205
639 205
638 205
637 204
636 203
635 202
634 201
634 200
634 199
633 198
633 197
633 196
633 195
632 194
632 193
632 192
632 191
632 190
632 189
632 188
632 187
632 186
632 185
632 184
632 183
632 182
632 181
632 180
632 179
631 178
631 177
631 176
631 175
631 174
630 173
630 172
630 171
630 170
630 169
629 168
629 167
629 166
628 165
628 164
627 163
627 162
626 161
625 160
625 159
624 158
624 157
623 156
622 155
621 154
621 153
620 153
619 152
619 151
618 150
617 149
616 148
615 147
614 147
613 146
613 145
612 144
611 144
610 143
609 142
608 142
607 141
606 141
605 140
604 139
603 138
602 138
601 137
600 136
599 135
598 134
597 134
596 133
595 133
594 132
593 132
592 131
591 130
590 129
589 129
588 128
587 128
586 127
585 126
584 126
583 125
582 125
581 124
580 123
579 123
578 123
577 122
576 122
575 121
574 121
573 121
572 120
571 120
570 120
569 120
568 119
567 119
566 118
565 118
564 117
563 117
562 117
561 116
560 116
559 116
558 115
557 115
556 114
555 114
554 113
553 113
552 112
551 112
550 111
549 111
548 110
547 109
546 109
545 108
544 108
543 107
542 107
541 106
540 106
539 105
538 105
537 104
536 104
535 104
534 103
533 102
532 102
531 102
530 101
529 101
528 100
527 100
526 99
525 99
524 98
523 98
522 97
521 97
520 97
519 96
518 96
517 95
516 95
515 95
514 94
513 93
512 93
511 93
510 92
509 91
508 91
507 90
506 90
505 89
504 88
503 88
502 87
501 87
500 86
499 86
498 86
497 85
496 84
495 84
494 83
493 83
492 82
491 82
490 82
489 81
488 81
487 80
486 79
485 79
484 78
483 78
482 77
481 77
480 76
479 76
478 75
477 75
476 75
475 75
474 74
473 74
472 74
471 73
470 73
469 73
468 72
467 72
466 72
465 71
464 71
463 71
462 71
461 71
460 70
459 70
458 70
457 70
456 70
455 70
454 69
453 69
452 69
451 69
450 70
449 70
448 70
447 70
446 70
445 70
444 70
443 71
442 71
441 70
440 70
439 70
438 70
437 70
436 70
435 70
434 69
433 69
432 69
431 68
430 68
429 68
428 68
427 67
426 67
425 67
424 66
423 66
422 66
421 66
420 65
419 65
418 65
417 65
416 64
415 64
414 64
413 64
412 64
411 64
410 63
409 63
408 63
407 62
406 62
405 62
404 62
403 61
402 61
401 61
400 61
399 61
398 61
397 61
396 60
395 60
394 60
393 60
392 60
391 60
390 60
389 60
388 60
387 60
386 60
385 60
384 60
383 60
382 60
381 60
380 60
379 60
378 60
377 60
376 60
375 60
374 60
373 60
