394 185
394 186
393 187
392 188
391 189
390 190
389 191
389 192
388 193
387 193
386 194
385 195
384 196
383 196
382 197
381 198
380 199
379 199
378 199
377 199
376 199
375 200
374 200
373 200
372 201
371 201
370 201
369 201
368 200
367 200
366 200
365 200
364 200
363 199
362 199
361 199
360 199
359 199
358 200
357 200
356 199
355 199
354 198
353 198
352 197
351 197
350 197
349 197
348 197
347 197
346 197
345 196
344 196
343 196
342 195
341 195
340 195
339 195
338 195
337 195
336 195
335 195
334 195
333 195
332 195
331 194
330 194
329 194
328 194
327 194
326 194
325 194
324 194
323 194
322 194
321 194
320 194
319 194
318 194
317 194
316 194
315 194
314 194
313 194
312 193
311 193
310 193
309 193
308 193
307 193
306 192
305 192
304 192
303 192
304 193
304 194
304 195
303 196
302 197
301 197
300 197
299 198
298 198
297 197
296 197
295 197
294 197
293 197
292 197
291 198
290 198
289 198
288 198
287 198
286 198
285 199
284 199
283 199
282 199
281 199
280 198
279 198
278 199
277 199
276 199
275 199
274 198
273 199
272 199
271 199
270 198
269 198
268 198
267 198
266 198
265 198
264 197
264 196
263 196
262 196
261 195
260 195
259 195
258 195
257 195
256 194
255 194
254 194
253 193
252 193
251 193
250 192
249 192
248 192
247 191
246 191
245 191
244 191
243 192
242 192
241 191
240 191
239 190
238 190
238 191
237 192
238 193
238 194
238 195
238 196
238 197
239 198
239 199
240 200
239 201
239 202
239 203
238 204
237 205
236 206
236 207
237 206
238 206
239 207
239 208
239 207
240 206
241 205
242 204
243 204
244 204
245 204
246 204
247 204
248 205
248 206
248 207
248 208
247 209
246 210
245 210
244 210
243 210
242 210
241 210
240 210
240 211
240 212
240 213
240 214
239 215
238 215
237 216
236 215
235 215
234 215
234 216
233 217
233 218
233 219
233 220
234 220
235 221
235 222
235 223
234 224
233 224
232 225
231 225
230 225
229 224
229 223
230 222
230 221
230 220
230 219
230 218
231 217
230 216
230 217
230 218
229 219
228 218
227 217
226 216
226 215
225 216
224 216
224 217
223 218
223 219
222 220
221 220
220 220
220 221
219 222
218 222
217 222
216 221
217 220
218 220
217 220
216 220
216 221
215 222
214 222
213 222
213 223
212 224
211 223
210 223
209 224
208 223
207 224
206 224
205 225
204 226
203 226
202 226
201 227
200 227
201 228
200 229
199 229
198 229
197 229
197 230
196 231
195 231
194 231
193 231
192 232
191 232
190 232
189 232
188 233
187 233
186 233
185 233
184 234
184 235
183 236
182 237
181 237
180 238
179 238
178 238
177 238
176 238
175 238
174 239
173 239
172 239
171 239
170 239
169 240
168 240
167 241
166 242
165 241
164 242
164 243
165 244
165 245
166 246
165 247
165 248
165 249
165 250
165 251
165 252
165 253
165 254
164 255
164 256
163 257
162 257
162 258
161 259
161 260
160 261
159 262
159 263
158 264
157 265
156 266
155 267
154 267
153 268
153 269
152 270
151 271
150 272
149 273
148 274
147 274
146 275
146 276
145 277
144 278
143 279
142 279
143 279
144 279
145 278
146 279
147 279
148 279
149 279
150 279
151 280
150 281
149 281
148 281
147 281
146 281
145 281
144 281
143 281
142 282
142 283
143 283
144 284
145 284
146 284
147 285
147 286
148 286
149 287
150 288
151 288
152 289
153 290
153 291
154 292
155 292
156 293
157 294
157 295
158 296
159 297
159 298
160 299
161 300
161 301
161 302
161 303
161 304
162 305
162 306
162 307
161 308
162 309
162 310
162 311
161 312
161 313
161 314
160 315
160 316
160 317
160 318
160 319
159 320
160 319
161 319
162 319
163 320
164 320
165 320
166 320
167 321
167 322
166 323
165 324
164 324
165 325
166 325
167 325
168 324
169 324
170 324
171 325
170 326
171 327
172 327
173 327
174 328
175 329
176 330
177 330
178 331
179 331
180 332
181 332
182 332
183 332
184 332
185 332
186 333
186 334
187 335
187 336
187 337
187 338
188 339
188 340
188 341
188 342
188 343
188 344
187 345
187 346
186 347
187 348
188 349
189 349
190 350
191 351
192 351
193 351
194 352
195 352
196 352
197 352
198 352
199 353
199 354
200 354
201 354
202 354
203 355
204 355
205 355
206 355
207 354
208 354
209 355
210 355
211 355
212 355
213 356
214 356
215 356
216 356
217 356
218 356
219 357
220 357
221 358
222 358
223 359
223 360
224 361
225 360
226 360
227 361
226 362
227 363
227 362
228 361
229 361
230 362
230 363
231 363
232 364
232 365
232 366
231 367
230 366
229 366
230 367
231 368
232 369
232 370
233 371
233 372
233 373
233 374
234 374
235 375
236 376
236 375
237 374
238 375
238 376
238 377
239 378
240 379
241 378
241 377
242 376
243 376
244 377
245 377
246 376
247 376
248 376
249 375
250 374
251 374
252 374
253 373
254 372
255 372
256 372
256 371
257 370
258 370
259 370
260 370
261 370
262 369
263 368
264 367
265 366
266 367
267 367
268 367
269 367
270 367
271 367
272 367
273 367
274 367
275 367
276 366
277 366
278 366
279 366
280 366
281 366
282 367
283 367
284 368
285 369
286 369
287 368
288 367
289 368
289 369
288 370
288 371
288 372
289 371
290 371
291 371
291 370
292 369
293 369
294 368
295 368
296 369
297 369
298 368
299 367
300 367
301 367
302 367
303 366
304 366
305 366
306 366
307 366
308 365
309 366
310 366
311 366
312 365
313 365
314 364
315 364
316 364
317 364
318 364
319 364
320 363
321 363
322 362
323 362
324 362
325 362
326 362
327 362
328 362
329 362
330 362
331 361
332 361
333 361
334 361
335 361
336 362
337 362
338 362
339 362
340 362
339 361
340 360
341 360
342 361
343 361
344 362
345 362
346 362
347 363
348 363
349 364
350 364
351 365
352 366
353 366
354 367
355 368
355 369
356 370
357 371
357 372
358 372
359 372
359 371
359 370
358 369
358 368
359 367
359 366
360 365
361 364
361 363
361 362
362 361
362 360
363 359
364 358
364 357
365 356
366 356
367 357
368 356
369 356
370 355
371 356
372 356
373 356
374 357
375 357
376 356
377 356
378 356
379 356
380 355
381 355
382 355
383 355
384 355
385 355
386 355
387 355
388 355
389 355
390 355
391 356
392 356
393 357
394 357
395 357
396 358
397 359
398 360
399 360
400 361
401 361
402 361
403 362
404 363
405 363
406 364
406 365
406 366
406 367
407 368
408 368
409 369
409 370
409 369
410 368
411 368
411 367
412 366
412 365
412 364
413 363
413 362
414 361
414 360
415 359
415 358
416 357
417 356
418 355
418 354
419 353
419 352
420 351
421 350
422 350
423 349
424 349
424 348
425 347
426 346
427 346
427 345
428 344
429 343
430 342
431 342
432 341
433 340
434 340
434 339
435 338
436 338
437 337
438 336
439 336
440 336
441 336
442 335
443 335
444 334
445 334
446 335
447 334
448 333
449 333
450 333
451 333
452 334
453 335
454 335
455 334
455 333
455 332
456 331
456 330
456 329
456 328
456 327
456 326
457 325
458 326
458 325
459 324
459 323
460 322
461 321
462 320
463 320
463 319
464 318
465 318
466 318
467 319
468 319
469 319
470 319
471 319
472 319
472 318
472 317
473 316
473 315
474 314
474 313
475 312
475 311
476 310
476 309
476 308
476 307
476 306
477 305
478 304
479 303
480 303
480 302
479 302
478 302
477 303
476 302
476 301
475 300
475 299
475 298
474 298
473 297
472 297
471 297
471 298
471 299
470 300
469 300
468 301
468 302
467 303
466 304
465 305
464 305
463 304
464 303
464 302
464 301
464 300
464 299
464 298
465 297
465 296
465 295
465 294
465 293
465 292
466 291
467 291
468 291
469 291
470 291
471 292
472 292
473 293
474 294
475 294
476 295
477 295
478 296
479 296
480 296
481 296
482 296
483 296
484 297
485 296
486 296
487 296
488 296
489 296
490 296
491 296
492 296
493 296
494 296
495 297
496 297
497 298
498 299
499 299
500 299
500 298
500 297
501 296
501 295
502 294
503 293
503 292
503 291
504 290
505 289
506 288
507 287
507 286
507 285
507 284
508 283
509 282
510 282
510 281
511 280
512 280
513 280
514 279
515 279
516 278
517 278
518 278
519 278
520 277
521 277
522 277
523 277
524 277
525 277
526 276
527 276
528 277
529 277
530 277
531 277
532 277
533 277
534 277
535 276
536 276
537 276
538 276
539 276
540 275
541 275
542 276
543 277
543 278
544 278
545 277
546 277
547 277
548 276
549 276
550 275
550 274
550 273
551 272
552 272
553 272
554 272
555 272
556 273
556 274
556 275
556 276
556 277
557 277
558 277
559 277
560 278
561 277
562 278
563 278
564 279
564 280
565 280
566 281
566 282
567 282
568 281
569 281
570 281
571 280
572 279
572 278
572 277
572 276
572 275
571 275
570 274
569 274
568 275
567 274
567 273
566 273
565 273
564 273
563 272
562 271
561 271
560 271
559 271
558 271
557 271
556 270
555 269
554 269
553 269
552 268
552 267
551 266
550 266
549 266
548 267
549 267
550 268
549 269
548 269
547 269
546 269
545 268
544 267
545 268
544 269
543 270
542 270
541 270
540 270
539 270
538 269
537 269
536 270
535 270
534 270
533 270
532 271
531 271
530 270
530 269
529 269
529 270
530 271
530 272
529 273
528 273
527 273
526 272
525 272
524 272
523 272
523 273
522 274
521 273
520 272
519 271
520 270
521 270
520 270
519 269
518 269
517 268
516 268
515 268
514 268
513 268
512 268
511 267
510 267
509 267
508 267
507 267
506 267
505 267
505 268
504 269
503 269
502 269
501 268
501 267
501 268
501 269
501 270
501 271
501 272
500 273
499 273
498 272
498 271
498 270
497 269
497 268
497 267
496 266
495 265
495 264
495 263
494 262
494 261
493 260
493 259
492 258
491 257
490 256
489 255
488 254
487 253
486 252
486 251
485 250
485 249
484 248
484 247
483 246
482 245
482 244
482 243
481 242
481 241
480 240
480 239
480 238
480 237
479 236
479 235
479 234
478 233
477 233
476 232
475 231
474 230
473 229
472 228
471 227
470 227
469 226
469 225
468 225
467 225
466 225
465 224
465 223
464 222
463 222
462 223
461 222
460 221
460 220
459 220
458 219
457 219
456 218
455 217
456 216
456 215
456 214
455 213
454 212
454 211
455 210
455 209
456 208
455 209
454 209
453 210
452 211
451 211
450 212
449 212
448 213
447 213
446 214
445 214
444 214
443 214
442 214
441 214
440 215
439 215
438 215
437 215
436 215
435 215
434 215
433 215
432 215
431 215
430 215
429 215
428 214
427 214
426 213
425 213
424 213
423 212
422 212
421 212
420 211
419 211
418 210
417 210
416 209
415 208
414 207
413 207
412 206
411 205
410 205
409 205
408 205
408 206
408 207
408 208
407 209
406 208
405 207
405 206
405 205
406 204
405 203
404 202
404 201
403 201
402 200
403 199
404 199
403 199
402 199
401 200
400 199
399 200
398 199
398 198
398 197
398 196
398 195
398 194
398 193
397 192
397 191
396 190
396 189
396 188
395 187
394 186
394 185
