247 39
246 40
245 40
244 40
243 40
242 40
241 40
240 40
239 40
238 40
237 40
236 40
235 40
234 40
233 40
232 40
231 40
230 40
229 41
228 41
227 41
226 41
225 41
224 42
223 42
222 42
221 43
220 43
219 43
218 43
217 44
216 44
215 44
214 44
213 45
212 45
211 45
210 45
209 46
208 45
207 46
206 46
205 46
204 46
203 46
202 46
201 46
200 47
199 47
198 48
197 48
196 48
195 49
194 49
193 49
192 49
191 50
190 50
189 51
188 51
187 52
186 52
185 52
184 52
183 53
182 53
181 53
180 54
179 54
178 54
177 55
176 55
175 55
174 56
173 56
172 57
171 57
170 58
169 58
168 58
167 59
166 59
165 60
164 60
163 60
162 61
161 61
160 62
159 63
158 63
157 63
156 64
155 65
154 65
153 65
152 66
151 67
150 67
149 67
148 68
147 69
146 69
145 70
144 71
143 71
142 71
141 72
140 72
139 73
138 74
137 75
136 75
135 76
134 76
133 77
132 78
131 79
130 79
129 80
128 81
127 82
126 83
125 83
125 84
124 85
123 85
122 86
121 87
120 88
119 89
118 89
117 90
116 91
115 92
114 93
113 94
112 94
112 95
111 96
110 96
109 97
108 98
107 99
106 100
105 100
104 101
103 102
103 103
102 104
101 105
100 105
100 106
99 107
98 107
97 108
97 109
96 110
95 111
94 112
94 113
93 114
93 115
92 116
91 117
91 118
90 119
90 120
89 121
89 122
88 123
87 124
86 125
85 126
84 127
83 128
83 129
82 130
81 131
81 132
80 133
80 134
79 135
78 136
78 137
77 138
76 139
76 140
75 141
74 142
74 143
73 144
72 145
72 146
71 147
71 148
70 149
70 150
69 151
68 152
67 153
67 154
66 155
65 156
65 157
65 158
64 159
64 160
64 161
63 162
63 163
62 164
62 165
62 166
61 167
61 168
61 169
60 170
60 171
59 172
59 173
58 174
58 175
57 176
56 177
56 178
56 179
56 180
55 181
55 182
54 183
54 184
53 185
53 186
53 187
52 188
52 189
52 190
51 191
51 192
50 193
50 194
49 195
49 196
49 197
48 198
48 199
47 200
47 201
46 202
46 203
45 204
45 205
44 206
44 207
44 208
43 209
43 210
43 211
42 212
42 213
42 214
41 215
41 216
41 217
41 218
40 219
40 220
40 221
40 222
39 223
39 224
39 225
39 226
38 227
38 228
38 229
37 230
37 231
37 232
36 233
36 234
36 235
36 236
36 237
36 238
36 239
36 240
35 241
35 242
35 243
35 244
36 245
36 246
35 247
36 248
36 249
36 250
36 251
36 252
36 253
36 254
36 255
36 256
36 257
36 258
36 259
36 260
37 261
36 262
36 263
36 264
37 265
37 266
37 267
37 268
37 269
38 270
38 271
38 272
39 273
39 274
39 275
39 276
40 277
40 278
40 279
40 280
41 281
41 282
41 283
42 284
42 285
42 286
43 287
43 288
43 289
44 290
44 291
45 292
45 293
45 294
45 295
45 296
46 297
47 298
47 299
47 300
48 301
48 302
49 303
49 304
49 305
50 306
50 307
50 308
51 309
51 310
51 311
52 312
52 313
53 314
53 315
54 316
54 317
54 318
55 319
55 320
56 321
56 322
56 323
57 324
57 325
57 326
57 327
58 328
58 329
59 330
59 331
60 332
61 333
61 334
62 335
62 336
63 337
63 338
64 339
64 340
65 341
65 342
66 343
66 344
67 345
67 346
68 347
68 348
69 349
69 350
70 351
71 352
72 353
73 354
74 355
74 356
75 357
76 358
77 359
78 360
79 360
80 361
80 362
81 363
82 364
83 365
84 366
85 367
85 368
86 369
87 370
88 371
89 372
90 373
91 374
92 375
93 376
94 377
94 378
95 379
96 380
97 381
98 382
99 383
100 384
101 385
102 386
102 387
103 388
104 389
105 390
106 391
106 392
107 392
108 393
109 394
110 395
111 396
112 396
113 397
114 398
115 399
116 400
117 401
118 402
119 403
120 404
121 404
122 405
123 405
124 406
125 407
126 407
127 408
128 408
129 409
130 409
131 410
132 410
133 411
134 411
135 412
136 412
137 413
138 413
139 414
140 414
141 415
142 415
143 416
144 416
145 417
146 418
147 418
148 419
149 420
150 420
151 420
152 421
153 422
154 422
155 423
156 423
157 424
158 424
159 424
160 425
161 425
162 425
163 425
164 426
165 426
166 426
167 426
168 427
169 427
170 427
171 427
172 428
173 428
174 428
175 428
176 428
177 429
178 429
179 429
180 430
181 430
182 430
183 431
184 431
185 432
186 432
187 432
188 433
189 433
190 433
191 434
192 434
193 434
194 435
195 435
196 435
197 436
198 436
199 436
200 436
201 437
202 437
203 437
204 437
205 437
206 437
207 437
208 437
209 438
210 438
211 438
212 438
213 438
214 438
215 438
216 438
217 439
218 438
219 438
220 439
221 439
222 439
223 439
224 439
225 439
226 439
227 439
228 439
229 439
230 439
231 439
232 439
233 439
234 439
235 440
236 440
237 440
238 440
239 440
240 440
241 440
242 441
243 441
244 441
245 441
246 441
247 441
248 441
249 441
250 441
251 441
252 441
253 441
254 440
255 440
256 440
257 440
258 440
259 440
260 440
261 440
262 440
263 440
264 440
265 440
266 440
267 439
268 439
269 439
270 439
271 439
272 439
273 439
274 438
275 438
276 438
277 437
278 437
279 437
280 437
281 436
282 436
283 435
284 435
285 435
286 435
287 434
288 434
289 434
290 433
291 433
292 433
293 433
294 432
295 432
296 432
297 431
298 431
299 431
300 431
301 430
302 430
303 430
304 430
305 430
306 429
307 429
308 429
309 429
310 429
311 428
312 428
313 427
314 427
315 426
316 426
317 426
318 425
319 425
320 425
321 424
322 423
323 423
324 422
325 422
326 421
327 421
328 420
329 420
330 420
331 419
332 419
333 418
334 418
335 417
336 417
337 417
338 416
339 416
340 416
341 415
342 415
343 415
344 414
345 414
346 414
347 413
348 412
349 412
350 411
351 411
352 411
353 410
354 409
355 409
356 408
357 408
358 407
359 406
360 406
361 405
362 404
363 404
364 403
365 403
366 403
367 402
368 402
369 401
370 400
371 400
372 400
373 400
374 399
375 399
376 399
377 398
378 397
379 396
380 396
381 395
382 395
383 394
384 394
385 393
386 393
387 393
388 392
389 392
390 391
391 391
392 390
393 389
394 389
395 388
396 388
397 387
398 387
399 386
400 386
401 385
402 385
403 384
404 384
405 383
406 382
407 382
408 381
409 380
410 379
411 378
412 378
413 377
414 377
415 376
416 375
417 374
418 373
419 373
420 372
421 371
422 370
423 370
424 369
425 368
426 368
427 367
428 366
429 365
430 364
431 363
432 362
433 362
433 361
434 360
435 359
436 358
437 357
438 356
439 355
440 354
441 353
442 352
443 351
444 350
444 349
445 348
446 348
447 347
448 346
449 345
449 344
450 343
451 342
452 341
453 340
454 339
454 338
455 337
456 336
456 335
457 334
458 333
458 332
459 331
460 330
461 329
461 328
462 327
463 326
464 325
464 324
465 323
465 322
466 321
467 320
468 319
468 318
469 317
470 316
471 315
471 314
472 313
473 312
474 311
475 310
475 309
476 308
476 307
477 306
478 305
479 304
479 303
480 302
480 301
481 300
481 299
482 298
482 297
483 296
483 295
483 294
484 293
485 292
485 291
485 290
486 289
486 288
487 287
487 286
488 285
488 284
488 283
488 282
489 281
489 280
489 279
490 278
490 277
490 276
491 275
491 274
491 273
492 272
492 271
492 270
492 269
492 268
493 267
493 266
493 265
494 264
494 263
494 262
495 261
495 260
496 259
496 258
496 257
497 256
497 255
498 254
498 253
499 252
499 251
500 250
500 249
501 248
501 247
502 246
502 245
503 244
503 243
504 242
504 241
505 240
506 239
507 238
508 238
509 238
510 238
511 238
512 237
513 237
514 237
515 237
516 237
517 237
518 237
519 237
520 237
521 237
522 236
523 236
524 236
525 236
526 236
527 236
528 236
529 236
530 236
531 236
532 236
533 236
534 236
535 235
536 235
537 235
538 235
539 235
540 235
541 235
542 235
543 235
544 235
545 235
546 235
547 235
548 235
549 235
550 234
551 234
552 234
553 234
554 234
555 234
556 234
557 234
558 234
559 234
560 234
561 234
562 234
563 234
564 234
565 234
566 234
567 234
568 234
569 234
570 233
571 233
572 233
573 233
574 233
575 233
576 233
577 233
578 233
579 233
580 233
581 233
582 233
583 233
584 233
585 232
586 232
587 232
588 232
589 232
590 232
591 232
592 232
593 232
594 232
595 232
596 232
597 232
598 232
599 232
600 232
601 232
602 232
603 232
604 232
605 231
606 231
607 231
608 231
609 231
610 231
611 231
612 231
613 231
614 231
615 231
616 231
617 231
618 231
619 231
620 231
621 231
622 231
623 231
624 231
625 231
626 231
627 231
628 231
629 230
630 230
631 230
632 230
633 230
634 230
635 230
636 230
637 230
638 230
639 230
640 230
641 230
642 230
643 230
644 230
645 230
646 230
647 230
648 230
649 230
650 230
651 229
652 229
653 229
654 229
655 229
656 229
657 229
658 229
659 229
660 229
661 229
662 229
663 229
664 229
665 229
666 229
667 229
668 228
669 228
670 228
671 228
672 228
673 228
674 228
675 228
676 228
677 228
678 228
679 228
680 228
681 228
682 228
683 228
684 228
685 228
686 228
687 228
688 228
689 228
690 228
691 228
692 228
693 228
694 228
695 228
696 228
697 227
698 227
699 227
700 227
701 227
702 227
703 227
704 227
705 227
706 227
707 227
708 227
709 227
710 227
711 227
712 227
713 227
714 227
715 227
716 227
717 227
718 227
719 227
720 227
721 227
722 227
723 228
724 228
725 228
726 228
727 228
728 228
729 228
730 228
731 228
732 228
733 228
734 228
735 228
736 228
737 228
738 228
739 228
740 228
741 228
742 228
743 228
744 228
745 228
746 227
747 227
748 226
749 225
749 224
749 223
750 222
750 221
751 220
750 219
749 218
748 218
747 218
746 218
745 218
744 218
743 218
742 217
741 217
740 217
739 217
738 217
737 218
736 217
735 218
734 218
733 218
732 218
731 218
730 217
729 218
728 218
727 218
726 218
725 218
724 218
723 218
722 218
721 218
720 218
719 218
718 218
717 218
716 218
715 218
714 218
713 218
712 219
711 219
710 219
709 219
708 219
707 219
706 219
705 219
704 219
703 219
702 220
701 220
700 220
699 220
698 220
697 220
696 220
695 220
694 220
693 220
692 220
691 220
690 220
689 220
688 220
687 220
686 220
685 220
684 220
683 221
682 221
681 221
680 221
679 221
678 221
677 221
676 221
675 221
674 221
673 222
672 221
671 221
670 221
669 222
668 222
667 222
666 222
665 222
664 222
663 222
662 222
661 222
660 222
659 222
658 222
657 222
656 222
655 222
654 222
653 223
652 223
651 223
650 223
649 223
648 223
647 223
646 223
645 223
644 223
643 223
642 223
641 223
640 223
639 223
638 224
637 224
636 224
635 224
634 224
633 224
632 224
631 224
630 224
629 224
628 224
627 224
626 224
625 224
624 224
623 224
622 224
621 224
620 224
619 224
618 224
617 224
616 225
615 225
614 225
613 225
612 225
611 225
610 225
609 225
608 225
607 225
606 225
605 225
604 225
603 225
602 225
601 225
600 225
599 225
598 226
597 226
596 226
595 226
594 226
593 226
592 226
591 226
590 226
589 226
588 226
587 226
586 226
585 226
584 226
583 226
582 226
581 226
580 226
579 226
578 227
577 227
576 227
575 227
574 227
573 227
572 227
571 227
570 227
569 227
568 227
567 227
566 227
565 227
564 228
563 228
562 228
561 228
560 228
559 228
558 228
557 228
556 228
555 228
554 228
553 228
552 228
551 228
550 228
549 228
548 228
547 228
546 228
545 229
544 229
543 229
542 229
541 229
540 229
539 229
538 229
537 229
536 229
535 229
534 229
533 229
532 229
531 229
530 230
529 229
528 230
527 230
526 230
525 230
524 230
523 230
522 230
521 230
520 230
519 230
518 230
517 230
516 230
515 230
514 230
513 230
512 230
511 230
510 229
509 228
508 227
508 226
507 225
506 224
506 223
506 222
505 221
505 220
504 219
504 218
504 217
504 216
503 215
503 214
503 213
502 212
502 211
502 210
501 209
501 208
500 207
500 206
500 205
500 204
499 203
499 202
499 201
498 200
498 199
498 198
497 197
497 196
496 195
496 194
496 193
495 192
495 191
494 190
494 189
493 188
493 187
492 186
492 185
491 184
491 183
490 182
490 181
489 180
489 179
488 178
488 177
487 176
486 175
486 174
486 173
485 172
485 171
484 170
484 169
483 168
483 167
482 166
481 165
481 164
480 163
479 162
479 161
478 160
478 159
477 158
477 157
476 156
475 155
474 154
474 153
473 152
472 151
471 150
471 149
470 148
469 147
469 146
468 145
467 144
466 143
466 142
465 141
465 140
464 139
463 138
463 137
462 136
462 135
461 134
460 133
459 132
458 131
457 130
456 129
455 129
454 128
454 127
453 126
452 125
452 124
451 123
450 122
449 122
448 121
447 120
446 119
445 119
444 118
443 117
442 116
441 116
440 115
439 114
438 113
437 113
436 112
435 111
434 111
433 110
432 109
431 108
430 107
429 107
428 106
427 106
426 105
425 104
424 104
423 103
422 102
421 101
420 100
419 100
418 99
417 98
416 97
415 96
414 95
413 94
412 93
411 93
410 92
409 91
408 90
407 90
406 89
405 88
404 87
403 87
402 87
401 86
401 85
400 85
399 84
398 84
397 83
396 82
395 82
394 81
393 80
392 79
391 78
390 78
389 77
388 76
387 76
386 75
385 75
384 74
383 74
382 73
381 73
380 72
379 71
378 71
377 70
376 70
375 69
374 69
373 68
372 68
371 67
370 67
369 66
368 65
367 65
366 65
365 65
364 64
363 64
362 63
361 63
360 62
359 62
358 61
357 61
356 61
355 61
354 60
353 60
352 59
351 59
350 59
349 58
348 58
347 58
346 58
345 58
344 58
343 57
342 56
341 56
340 56
339 55
338 55
337 55
336 55
335 54
334 54
333 54
332 54
331 54
330 53
329 53
328 53
327 53
326 53
325 53
324 53
323 53
322 52
321 52
320 52
319 52
318 51
317 51
316 50
315 50
314 50
313 49
312 49
311 49
310 49
309 48
308 48
307 48
306 48
305 48
304 48
303 47
302 47
301 47
300 47
299 46
298 46
297 46
296 46
295 45
294 45
293 45
292 45
291 45
290 44
289 44
288 44
287 44
286 44
285 44
284 43
283 43
282 43
281 43
280 42
279 42
278 42
277 42
276 41
275 41
274 41
273 41
272 40
271 40
270 40
269 40
268 40
267 40
266 40
265 40
264 40
263 39
262 39
261 39
260 39
259 40
258 40
257 40
256 39
255 40
254 39
253 39
252 39
251 39
250 39
249 39
248 39
247 39
