352 36
351 37
350 37
349 37
348 37
347 37
346 37
345 37
344 37
343 37
342 38
341 38
340 38
339 38
338 38
337 38
336 38
335 38
334 38
333 38
332 38
331 38
330 38
329 38
328 38
327 38
326 38
325 38
324 38
323 38
322 38
321 38
320 38
319 38
318 38
317 38
316 38
315 39
314 38
313 38
312 38
311 38
310 38
309 38
308 39
307 39
306 39
305 39
304 39
303 39
302 39
301 39
300 39
299 39
298 39
297 39
296 39
295 39
294 39
293 39
292 39
291 39
290 39
289 39
288 39
287 39
286 40
285 40
284 40
283 40
282 40
281 40
280 40
279 40
278 40
277 40
276 40
275 40
274 40
273 41
272 41
271 41
270 41
269 41
268 41
267 41
266 41
265 41
264 41
263 41
262 41
261 41
260 41
259 41
258 42
257 41
256 41
255 42
254 42
253 42
252 42
251 42
250 42
249 42
248 42
247 42
246 42
245 42
244 43
243 43
242 42
241 42
240 42
239 42
238 42
237 43
236 43
235 43
234 43
233 43
232 43
231 43
230 43
229 43
228 44
227 43
226 43
225 43
224 43
223 43
222 44
221 44
220 44
219 44
218 44
217 44
216 44
215 44
214 44
213 44
212 44
211 44
210 44
209 44
208 44
207 45
206 45
205 45
204 45
203 45
202 45
201 45
200 45
199 45
198 46
197 46
196 46
195 46
194 46
193 46
192 46
191 46
190 46
189 46
188 47
187 47
186 47
185 47
184 47
183 47
182 47
181 47
180 47
179 47
178 47
177 47
176 47
175 47
174 47
173 47
172 47
171 47
170 47
169 47
168 47
167 47
166 47
165 47
164 47
163 47
162 47
161 47
160 48
159 48
158 47
157 47
156 47
155 47
154 47
153 47
152 47
151 47
150 47
149 47
148 47
147 47
146 47
145 47
144 47
143 47
142 47
141 47
140 47
139 47
138 47
137 47
136 47
135 47
134 47
133 47
132 47
131 47
130 47
129 47
128 47
127 47
126 47
125 47
124 47
123 47
122 47
121 47
120 47
119 47
118 47
117 47
116 47
115 47
114 47
113 47
112 47
111 48
110 48
109 48
108 48
107 48
106 48
105 48
104 48
103 48
102 48
101 48
100 48
99 48
98 48
97 48
96 48
95 48
94 48
93 48
92 48
91 48
90 48
89 48
88 48
87 48
86 49
85 49
84 49
83 49
82 49
81 49
80 49
79 49
78 49
77 49
76 49
75 49
74 49
73 49
72 49
71 49
70 49
69 49
68 49
67 49
66 49
65 49
64 49
63 49
62 49
61 49
60 49
59 49
58 49
57 49
56 49
55 50
54 50
53 50
52 50
51 50
50 50
49 50
48 50
47 50
46 50
45 51
44 51
43 51
42 51
41 51
40 51
39 51
38 51
37 52
36 52
35 52
34 52
33 52
32 52
31 52
30 52
29 52
28 52
27 52
26 53
25 53
24 53
23 53
22 53
21 54
22 54
23 55
24 56
25 57
26 57
27 58
28 59
29 59
30 60
31 61
32 61
33 62
34 63
35 64
36 64
37 65
38 66
39 67
40 67
41 68
42 69
43 69
44 70
45 70
46 71
47 71
48 72
49 73
50 74
51 74
52 74
53 75
54 76
55 76
56 77
57 78
58 78
59 79
60 79
61 80
62 80
63 81
64 81
65 82
66 82
67 83
68 83
69 84
70 84
71 85
72 85
73 86
74 86
75 87
76 87
77 88
78 88
79 89
80 89
81 90
82 90
83 91
84 91
85 92
86 92
87 93
88 93
89 94
90 94
91 95
92 95
93 96
94 96
95 96
96 97
97 97
98 98
99 98
100 98
101 99
102 99
103 100
104 100
105 101
106 101
107 102
108 102
109 103
110 103
111 103
112 104
113 104
114 105
115 105
116 106
117 106
118 107
119 107
120 107
121 108
122 108
123 108
124 109
125 109
126 110
127 110
128 110
129 111
130 111
131 112
132 112
133 112
134 113
135 113
136 113
137 113
138 114
139 114
140 114
141 115
142 115
143 115
144 116
145 116
146 116
147 117
148 117
149 117
150 118
151 118
152 118
153 119
154 119
155 119
156 119
157 120
158 120
159 120
160 121
161 121
162 121
163 121
164 122
165 122
166 122
167 123
168 123
169 123
170 123
171 124
172 124
173 124
174 124
175 125
176 125
177 125
178 125
179 126
180 126
181 126
182 127
183 127
184 127
185 127
186 127
187 128
188 128
189 128
190 128
191 128
192 128
193 129
194 129
195 129
196 129
197 130
198 130
199 130
200 130
201 131
202 131
203 131
204 131
205 132
206 132
207 132
208 132
209 132
210 133
211 133
212 133
213 133
214 134
215 134
216 134
217 134
218 135
219 135
220 135
221 135
222 136
223 136
224 136
225 136
226 136
227 137
228 137
229 137
230 137
231 137
232 137
233 138
234 138
235 138
236 138
237 139
238 139
239 139
240 139
241 139
242 139
243 140
244 140
245 140
246 140
247 140
248 140
249 141
250 141
251 141
252 141
253 141
254 141
255 142
256 142
257 142
258 142
259 142
260 142
261 142
262 142
263 142
264 142
265 143
266 143
267 143
268 143
269 143
270 143
271 143
272 143
273 143
274 143
275 143
276 144
277 144
278 144
279 144
280 144
281 144
282 144
283 144
284 144
285 144
286 145
287 145
288 145
289 145
290 145
291 145
292 145
293 145
294 145
295 145
296 145
297 145
298 145
299 145
300 145
301 145
302 145
303 145
304 146
305 146
306 146
307 146
308 146
309 146
310 146
311 146
312 146
313 146
314 146
315 146
316 146
317 146
318 146
319 146
320 146
321 146
322 146
323 147
324 147
325 147
326 147
327 147
328 147
329 147
330 147
331 147
332 147
333 147
334 147
335 147
336 147
337 148
338 148
339 148
340 148
341 148
342 148
343 148
344 148
345 148
346 148
347 148
348 148
349 148
350 148
351 148
352 148
353 148
354 148
355 148
356 148
357 148
358 148
359 148
360 148
361 148
362 148
363 148
364 148
365 148
366 148
367 148
368 148
369 148
370 148
371 148
372 148
373 148
374 148
375 148
376 148
377 148
378 148
379 148
380 148
381 148
382 148
383 148
384 148
385 147
386 147
387 147
388 147
389 147
390 147
391 147
392 147
393 147
394 147
395 147
396 147
397 147
398 147
399 147
400 147
401 147
402 147
403 147
404 146
405 146
406 146
407 146
408 146
409 146
410 146
411 146
412 146
413 146
414 146
415 146
416 146
417 146
418 146
419 146
420 145
421 145
422 145
423 145
424 145
425 145
426 145
427 145
428 145
429 145
430 145
431 145
432 145
433 145
434 145
435 145
436 145
437 145
438 145
439 144
440 144
441 144
442 144
443 144
444 144
445 144
446 144
447 144
448 144
449 144
450 144
451 144
452 143
453 143
454 143
455 143
456 143
457 143
458 143
459 143
460 143
461 142
462 142
463 142
464 142
465 142
466 142
467 142
468 142
469 142
470 141
471 141
472 141
473 141
474 141
475 141
476 141
477 141
478 141
479 141
480 141
481 141
482 140
483 140
484 140
485 140
486 140
487 140
488 140
489 140
490 140
491 140
492 140
493 139
494 139
495 139
496 139
497 139
498 139
499 139
500 139
501 139
502 139
503 139
504 138
505 138
506 138
507 138
508 138
509 138
510 138
511 138
512 138
513 138
514 138
515 137
516 137
517 137
518 137
519 137
520 137
521 137
522 137
523 136
524 136
525 136
526 136
527 136
528 136
529 136
530 136
531 136
532 136
533 135
534 135
535 135
536 135
537 135
538 135
539 135
540 135
541 135
542 134
543 134
544 134
545 134
546 134
547 134
548 134
549 134
550 134
551 133
552 133
553 133
554 133
555 133
556 133
557 133
558 132
559 132
560 132
561 132
562 132
563 132
564 131
565 131
566 131
567 131
568 131
569 130
570 130
571 130
572 130
573 130
574 130
575 129
576 129
577 129
578 129
579 129
580 128
581 128
582 128
583 128
584 128
585 127
586 127
587 127
588 127
589 127
590 126
591 126
592 126
593 126
594 126
595 126
596 125
597 125
598 125
599 125
600 125
601 125
602 124
603 124
604 124
605 124
606 124
607 124
608 123
609 123
610 123
611 123
612 123
613 122
614 122
615 122
616 122
617 122
618 121
619 121
620 121
621 121
622 120
623 120
624 120
625 120
626 119
627 119
628 119
629 119
630 119
631 118
632 118
633 118
634 117
635 117
636 117
637 116
638 116
639 116
640 116
641 115
642 115
643 115
644 115
645 115
646 114
647 114
648 114
649 113
650 113
651 113
652 112
653 112
654 112
655 111
656 111
657 111
658 110
659 110
660 110
661 110
662 109
663 109
664 108
665 108
666 108
667 107
668 107
669 106
670 106
671 106
672 105
673 105
674 105
675 104
676 104
677 103
678 103
679 102
680 102
681 102
682 101
683 101
684 101
685 100
686 100
687 100
688 99
689 99
690 99
691 99
692 98
693 98
694 98
695 98
696 97
697 97
698 97
699 97
700 96
701 96
702 96
703 96
704 95
705 95
706 95
707 95
708 94
709 94
710 94
711 94
712 94
713 93
714 93
715 93
716 93
717 93
718 93
719 93
720 92
721 92
722 92
723 92
724 92
725 92
726 92
727 92
728 92
729 92
730 92
731 92
732 92
733 92
734 92
735 92
736 92
737 92
738 92
739 92
740 92
741 92
742 92
743 92
744 92
745 92
746 92
747 92
748 92
749 92
750 92
751 92
752 92
753 92
754 92
755 92
756 91
757 91
758 90
759 90
760 89
761 88
762 88
763 87
764 86
765 86
766 85
767 84
768 83
769 82
769 81
770 80
771 79
771 78
772 77
772 76
772 75
773 74
772 74
771 73
770 73
769 73
768 73
767 73
766 73
765 73
764 72
763 72
762 72
761 72
760 72
759 72
758 72
757 72
756 73
755 73
754 73
753 73
752 73
751 73
750 74
749 74
748 74
747 74
746 74
745 74
744 74
743 74
742 74
741 75
740 75
739 75
738 75
737 75
736 75
735 75
734 75
733 75
732 75
731 75
730 75
729 75
728 75
727 75
726 75
725 75
724 75
723 75
722 75
721 75
720 75
719 75
718 75
717 75
716 75
715 75
714 75
713 75
712 74
711 74
710 74
709 74
708 74
707 74
706 73
705 73
704 73
703 73
702 72
701 72
700 72
699 72
698 72
697 71
696 71
695 71
694 71
693 70
692 70
691 70
690 70
689 69
688 69
687 69
686 69
685 68
684 68
683 68
682 68
681 67
680 67
679 67
678 67
677 66
676 66
675 66
674 66
673 65
672 65
671 65
670 65
669 65
668 64
667 64
666 64
665 64
664 64
663 63
662 63
661 63
660 62
659 62
658 62
657 62
656 61
655 61
654 61
653 61
652 60
651 60
650 60
649 60
648 59
647 59
646 59
645 59
644 58
643 58
642 58
641 58
640 58
639 57
638 57
637 57
636 57
635 57
634 56
633 56
632 56
631 56
630 56
629 56
628 56
627 55
626 55
625 55
624 55
623 54
622 54
621 54
620 54
619 54
618 54
617 53
616 53
615 53
614 53
613 53
612 53
611 52
610 52
609 52
608 52
607 52
606 52
605 52
604 51
603 51
602 51
601 51
600 50
599 50
598 50
597 50
596 50
595 50
594 50
593 50
592 50
591 49
590 49
589 49
588 49
587 49
586 49
585 49
584 49
583 49
582 49
581 49
580 49
579 49
578 49
577 49
576 48
575 48
574 48
573 48
572 48
571 48
570 48
569 47
568 47
567 47
566 47
565 47
564 47
563 47
562 47
561 47
560 47
559 47
558 47
557 46
556 46
555 46
554 46
553 46
552 46
551 46
550 46
549 46
548 46
547 46
546 46
545 46
544 46
543 45
542 45
541 45
540 45
539 45
538 45
537 46
536 46
535 45
534 45
533 45
532 45
531 45
530 45
529 45
528 45
527 45
526 45
525 45
524 45
523 45
522 45
521 45
520 45
519 45
518 45
517 45
516 45
515 45
514 45
513 45
512 44
511 44
510 44
509 44
508 44
507 44
506 45
505 45
504 45
503 44
502 44
501 44
500 44
499 44
498 44
497 44
496 44
495 44
494 44
493 44
492 44
491 44
490 43
489 43
488 43
487 43
486 43
485 43
484 43
483 43
482 43
481 43
480 43
479 42
478 42
477 42
476 42
475 42
474 42
473 42
472 42
471 42
470 42
469 42
468 42
467 42
466 42
465 41
464 41
463 41
462 41
461 41
460 41
459 41
458 41
457 41
456 41
455 41
454 41
453 41
452 41
451 41
450 41
449 41
448 41
447 40
446 40
445 40
444 40
443 40
442 40
441 40
440 40
439 40
438 40
437 40
436 40
435 40
434 40
433 40
432 40
431 40
430 39
429 39
428 39
427 39
426 39
425 39
424 39
423 39
422 39
421 39
420 39
419 39
418 39
417 39
416 39
415 38
414 38
413 38
412 38
411 38
410 38
409 38
408 38
407 38
406 37
405 37
404 37
403 37
402 37
401 37
400 37
399 37
398 37
397 37
396 37
395 37
394 37
393 37
392 37
391 36
390 36
389 36
388 36
387 36
386 36
385 36
384 36
383 36
382 36
381 36
380 36
379 36
378 36
377 36
376 36
375 36
374 36
373 36
372 36
371 36
370 36
369 36
368 36
367 36
366 36
365 36
364 36
363 36
362 36
361 36
360 36
359 36
358 36
357 36
356 36
355 36
354 36
353 36
352 36
