363 63
362 64
361 64
360 64
359 64
358 64
357 64
356 64
355 64
354 64
353 64
352 64
351 64
350 64
349 64
348 64
347 64
346 64
345 64
344 64
343 64
342 65
341 65
340 65
339 65
338 66
337 66
336 66
335 66
334 66
333 67
332 67
331 67
330 67
329 67
328 68
327 68
326 68
325 69
324 69
323 69
322 70
321 70
320 70
319 70
318 71
317 71
316 71
315 71
314 71
313 71
312 71
311 71
310 71
309 71
308 71
307 71
306 71
305 71
304 71
303 71
302 72
301 72
300 72
299 73
298 73
297 74
296 74
295 75
294 75
293 75
292 76
291 76
290 76
289 76
288 77
287 77
286 77
285 78
284 78
283 78
282 79
281 79
280 79
279 79
278 79
277 80
276 80
275 80
274 80
273 80
272 80
271 80
270 80
269 80
268 80
267 81
266 81
265 81
264 81
263 82
262 82
261 83
260 83
259 84
258 84
257 85
256 85
255 85
254 86
253 86
252 86
251 87
250 87
249 87
248 88
247 88
246 88
245 89
244 89
243 89
242 90
241 90
240 91
239 91
238 92
237 92
236 93
235 93
234 94
233 94
232 95
231 95
230 95
229 96
228 96
227 96
226 97
225 97
224 98
223 98
222 99
221 99
220 100
219 101
218 101
217 102
216 102
215 103
214 103
213 104
212 104
211 105
210 105
209 106
208 107
207 107
206 108
205 108
204 109
203 110
202 111
201 111
200 112
199 113
198 113
197 114
196 115
195 115
194 116
193 117
192 117
191 118
190 119
189 120
188 120
187 121
186 122
185 123
184 124
183 125
182 126
181 127
180 127
179 128
178 129
177 129
176 130
175 131
174 131
173 132
172 133
171 134
170 135
169 135
168 136
167 137
166 137
165 138
164 138
163 139
162 140
161 140
160 141
159 142
158 142
157 143
156 144
155 145
154 146
153 147
152 148
151 149
150 150
149 150
148 151
147 152
146 153
145 153
144 154
143 155
142 156
141 157
140 158
139 159
138 160
137 161
136 162
135 163
134 164
133 165
133 166
132 167
131 168
130 169
129 170
128 171
128 172
127 173
126 174
125 175
124 176
123 177
122 178
121 179
120 180
120 181
119 182
118 183
117 184
117 185
116 186
115 187
114 188
113 189
112 190
112 191
111 192
110 193
110 194
109 195
108 196
107 197
107 198
106 199
105 200
105 201
104 202
104 203
103 204
102 205
102 206
101 207
100 208
99 209
99 210
98 211
98 212
97 213
96 214
96 215
95 216
94 217
93 218
93 219
92 220
91 221
90 222
89 223
88 224
87 225
87 226
86 227
85 228
85 229
84 230
83 231
83 232
82 233
82 234
81 235
81 236
80 237
80 238
79 239
79 240
78 241
78 242
77 243
77 244
76 245
75 246
74 247
73 248
73 249
73 250
72 251
71 252
70 253
69 254
68 255
67 256
66 257
65 257
64 258
64 259
63 260
62 261
61 262
60 263
60 264
60 265
59 266
59 267
60 268
60 269
60 270
61 271
61 272
62 273
63 274
64 275
65 276
65 277
66 278
67 279
68 280
69 281
70 282
71 283
72 284
73 285
74 286
75 287
75 288
76 289
77 290
77 291
78 292
79 293
79 294
79 295
80 296
81 297
82 298
82 299
83 300
84 301
85 302
85 303
86 304
87 305
87 306
88 307
89 308
89 309
90 310
91 311
91 312
92 313
92 314
93 314
94 315
94 316
95 317
95 318
96 319
97 320
98 321
99 322
100 323
100 324
101 324
102 325
102 326
103 327
104 328
105 329
105 330
106 331
107 332
108 333
109 334
110 335
111 336
112 337
112 338
113 339
114 340
115 341
116 342
117 342
118 343
119 344
120 345
120 346
121 347
122 348
123 349
124 349
125 350
126 351
126 352
127 353
128 353
129 354
130 355
131 356
132 356
133 357
134 358
135 358
136 359
137 360
138 361
139 362
140 363
141 363
142 364
143 365
144 366
145 367
146 367
147 368
148 369
149 369
150 370
151 371
152 371
153 372
154 372
155 373
156 373
157 374
158 374
159 375
160 375
161 376
162 376
163 377
164 377
165 378
166 378
167 379
168 379
169 380
170 381
171 381
172 381
173 382
174 383
175 383
176 384
177 384
178 385
179 385
180 386
181 386
182 386
183 387
184 387
185 388
186 388
187 389
188 389
189 389
190 390
191 390
192 391
193 392
194 392
195 393
196 393
197 394
198 394
199 394
200 395
201 395
202 396
203 396
204 397
205 397
206 398
207 398
208 398
209 399
210 400
211 400
212 401
213 401
214 402
215 402
216 403
217 403
218 404
219 404
220 404
221 405
222 406
223 406
224 406
225 406
226 407
227 407
228 407
229 407
230 408
231 408
232 408
233 408
234 408
235 409
236 409
237 409
238 409
239 410
240 410
241 410
242 411
243 411
244 411
245 411
246 412
247 412
248 412
249 412
250 413
251 413
252 413
253 413
254 414
255 414
256 414
257 414
258 415
259 415
260 415
261 415
262 415
263 416
264 416
265 416
266 417
267 417
268 417
269 417
270 418
271 418
272 418
273 418
274 418
275 418
276 418
277 418
278 418
279 418
280 418
281 418
282 418
283 418
284 418
285 418
286 418
287 418
288 418
289 418
290 418
291 418
292 418
293 419
294 419
295 419
296 419
297 420
298 420
299 420
300 420
301 421
302 421
303 421
304 422
305 422
306 423
307 424
308 424
309 424
310 424
311 425
312 425
313 425
314 426
315 426
316 426
317 426
318 426
319 426
320 426
321 426
322 426
323 426
324 426
325 426
326 426
327 426
328 426
329 426
330 426
331 427
332 427
333 427
334 427
335 427
336 428
337 428
338 428
339 429
340 429
341 430
342 430
343 431
344 431
345 432
346 432
347 432
348 432
349 433
350 433
351 434
352 434
353 434
354 434
355 435
356 435
357 435
358 436
359 436
360 436
361 437
362 437
363 437
364 438
365 438
366 438
367 439
368 439
369 440
370 440
371 440
372 440
373 440
374 440
375 440
376 441
377 441
378 441
379 441
380 441
381 441
382 441
383 441
384 441
385 442
386 442
387 442
388 442
389 442
390 442
391 442
392 442
393 442
394 442
395 442
396 442
397 443
398 443
399 443
400 443
401 443
402 443
403 443
404 443
405 443
406 443
407 443
408 443
409 443
410 443
411 443
412 443
413 443
414 443
415 443
416 443
417 443
418 443
419 443
420 443
421 442
422 442
423 442
424 442
425 442
426 442
427 442
428 442
429 442
430 442
431 441
432 441
433 441
434 441
435 441
436 441
437 441
438 440
439 440
440 440
441 440
442 440
443 440
444 439
445 439
446 439
447 439
448 439
449 439
450 439
451 438
452 438
453 438
454 438
455 438
456 438
457 437
458 437
459 437
460 436
461 436
462 436
463 436
464 436
465 435
466 435
467 435
468 434
469 433
470 433
471 433
472 433
473 433
474 432
475 431
476 431
477 431
478 430
479 430
480 429
481 429
482 428
483 427
484 427
485 427
486 426
487 426
488 425
489 424
490 424
491 424
492 423
493 422
494 422
495 422
496 422
497 421
498 421
499 420
500 420
501 420
502 419
503 419
504 419
505 418
506 417
507 417
508 416
509 416
510 416
511 416
512 415
513 415
514 414
515 414
516 414
517 414
518 413
519 413
520 413
521 412
522 412
523 412
524 411
525 411
526 410
527 410
528 409
529 408
530 408
531 407
532 407
533 406
534 405
535 405
536 404
537 404
538 404
539 404
540 404
541 403
542 403
543 403
544 403
545 403
546 403
547 403
548 403
549 403
550 403
551 403
552 403
553 402
554 402
555 401
556 401
557 401
558 401
559 400
560 400
561 399
562 398
563 398
564 397
565 397
566 396
567 395
568 395
569 394
570 393
571 393
572 392
573 391
574 390
575 389
576 390
576 389
577 388
578 388
579 387
580 387
580 386
581 385
582 384
583 385
584 384
585 383
586 382
587 381
587 380
587 379
588 378
589 379
589 380
589 381
590 380
591 379
592 379
592 378
593 377
594 376
595 376
596 375
597 375
598 374
598 373
599 372
600 372
601 371
602 370
602 369
603 368
604 367
605 366
605 365
606 364
607 364
608 365
609 364
610 363
611 362
612 361
613 361
614 360
614 359
615 358
616 357
617 356
617 355
617 354
618 353
619 352
620 352
621 352
622 351
623 350
623 349
624 348
624 347
625 346
625 345
626 344
627 343
628 342
629 341
630 340
631 339
632 338
633 337
634 336
635 335
636 334
636 333
637 332
638 332
639 332
640 331
641 330
642 329
643 329
644 328
645 328
646 327
647 326
648 326
649 325
649 324
649 323
650 322
651 322
651 321
652 320
652 319
653 318
654 318
655 319
656 318
657 317
658 316
659 315
660 314
660 313
661 312
662 312
662 311
663 310
664 310
664 309
665 308
666 307
666 306
667 305
668 304
669 304
670 304
671 303
672 302
673 302
674 302
675 301
676 301
677 301
678 301
679 301
680 301
681 300
682 301
683 301
684 300
685 300
686 300
687 300
688 300
689 300
690 300
691 300
692 300
693 300
694 301
695 300
696 301
697 301
698 301
699 302
700 301
701 302
702 302
703 301
704 302
705 302
706 301
707 302
708 302
709 303
710 303
711 303
712 303
713 304
714 303
715 304
716 305
717 305
718 305
719 306
720 305
721 306
721 307
722 307
723 307
724 307
725 307
726 308
727 309
728 309
729 308
730 309
731 309
732 309
733 310
734 310
735 311
736 311
737 311
738 311
739 311
740 311
741 312
742 312
743 312
744 312
745 312
746 312
747 311
748 311
749 311
750 311
751 311
752 311
753 310
753 309
752 308
752 307
751 306
751 305
751 304
750 303
750 302
750 301
750 300
751 299
751 298
751 297
751 296
751 295
752 294
752 293
751 292
751 291
751 290
750 289
749 288
748 288
747 288
746 289
745 289
744 289
743 289
742 289
741 289
740 289
739 288
738 288
737 288
736 288
735 288
734 287
733 287
732 287
731 287
730 286
729 286
728 286
727 286
726 286
725 285
724 285
723 285
722 284
721 284
720 284
719 284
718 284
717 283
716 282
715 283
714 283
713 282
712 282
711 283
710 282
709 282
708 282
707 282
706 281
705 281
704 281
703 280
702 281
701 280
700 280
699 280
698 280
697 279
696 279
695 279
694 279
693 279
692 279
691 278
690 278
689 278
688 277
687 277
686 277
685 277
684 276
683 276
682 275
681 274
680 273
679 273
678 272
678 271
678 270
678 269
677 268
676 267
676 266
676 265
675 264
675 263
675 262
675 261
675 260
674 259
674 258
674 257
673 256
673 255
673 254
673 253
673 252
672 251
672 250
672 249
671 248
671 247
671 246
670 245
670 244
670 243
670 242
670 241
670 240
670 239
670 238
669 237
669 236
669 235
668 234
668 233
668 232
668 231
667 230
667 229
666 228
666 227
666 226
666 225
665 224
665 223
664 222
664 221
663 220
663 219
663 218
662 217
661 216
661 215
660 214
659 213
659 212
658 211
657 210
656 209
656 208
655 207
654 206
654 205
653 204
652 203
652 202
651 201
651 200
650 199
649 198
648 197
648 196
647 195
647 194
646 193
645 192
644 191
644 190
643 189
643 188
642 187
641 186
640 185
639 184
639 183
638 182
637 181
637 180
636 179
635 178
634 177
633 176
632 175
632 174
631 173
630 172
629 171
628 170
627 169
626 168
625 167
625 166
624 165
623 164
623 163
622 162
621 161
620 160
619 159
618 158
617 157
616 156
615 155
614 154
613 153
613 152
612 152
611 151
611 150
610 150
609 149
608 148
608 147
607 147
606 146
605 145
604 144
603 144
602 143
602 142
601 142
600 141
599 140
598 139
597 138
596 137
595 137
594 136
593 135
592 134
591 134
590 133
589 132
588 131
587 130
586 130
585 129
584 128
583 128
582 127
581 126
580 126
579 125
578 125
577 124
576 123
575 123
574 122
573 121
572 120
571 120
570 119
569 118
568 118
567 117
566 116
565 115
564 114
563 114
562 113
561 113
560 112
559 111
558 111
557 110
556 110
555 109
554 108
553 108
552 107
551 107
550 106
549 105
548 105
547 104
546 104
545 103
544 102
543 101
542 101
541 101
540 100
539 100
538 99
537 99
536 99
535 98
534 98
533 97
532 97
531 97
530 96
529 96
528 96
527 95
526 95
525 95
524 94
523 94
522 93
521 93
520 93
519 92
518 92
517 91
516 91
515 91
514 90
513 90
512 89
511 89
510 88
509 88
508 88
507 87
506 87
505 87
504 86
503 86
502 86
501 86
500 85
499 85
498 85
497 85
496 85
495 84
494 84
493 84
492 84
491 84
490 84
489 84
488 83
487 83
486 83
485 82
484 82
483 82
482 82
481 82
480 81
479 81
478 81
477 81
476 81
475 80
474 80
473 80
472 79
471 79
470 79
469 79
468 78
467 78
466 78
465 78
464 77
463 77
462 77
461 77
460 77
459 76
458 76
457 76
456 75
455 75
454 75
453 75
452 75
451 75
450 74
449 74
448 74
447 74
446 73
445 73
444 73
443 73
442 73
441 72
440 72
439 72
438 71
437 71
436 70
435 70
434 70
433 69
432 69
431 69
430 69
429 68
428 68
427 68
426 68
425 68
424 68
423 68
422 67
421 67
420 67
419 67
418 67
417 67
416 66
415 66
414 66
413 66
412 66
411 66
410 66
409 66
408 65
407 65
406 65
405 65
404 65
403 65
402 64
401 64
400 64
399 64
398 64
397 64
396 64
395 64
394 64
393 64
392 63
391 64
390 64
389 63
388 63
387 64
386 64
385 64
384 64
383 64
382 64
381 64
380 64
379 64
378 64
377 64
376 64
375 64
374 64
373 64
372 64
371 64
370 64
369 64
368 64
367 64
366 64
365 64
364 64
363 63
