453 29
452 30
452 31
451 32
451 33
452 34
451 35
450 35
449 35
448 35
448 36
448 37
447 38
447 39
446 40
445 41
444 42
443 43
442 44
441 44
440 45
439 46
438 47
437 47
436 48
435 49
434 49
433 50
432 51
431 52
430 53
429 53
428 54
427 55
427 56
426 57
425 58
425 59
425 60
424 61
423 62
423 63
422 64
421 64
420 65
419 66
418 67
418 68
417 69
416 70
415 71
415 72
414 73
413 74
413 75
412 76
411 77
411 78
410 79
410 80
409 81
408 82
408 83
407 84
407 85
407 86
406 87
406 88
406 89
405 90
405 91
404 92
404 93
403 94
403 95
403 96
402 97
402 98
402 99
402 100
402 101
402 102
402 103
401 104
401 105
401 106
401 107
401 108
401 109
401 110
401 111
401 112
401 113
401 114
401 115
401 116
400 117
399 117
398 116
397 115
396 114
395 113
394 112
394 111
393 110
392 109
391 108
390 107
389 106
388 105
387 104
386 103
385 103
384 102
383 102
382 101
381 100
380 100
379 99
378 98
377 98
376 97
375 96
374 95
373 94
372 94
371 93
370 92
369 92
368 91
367 90
366 90
365 90
364 89
363 89
362 88
361 88
360 88
359 87
358 87
357 87
356 87
355 87
354 87
353 86
352 86
351 86
350 86
349 86
348 86
347 86
346 85
345 85
344 85
343 85
342 85
341 85
340 85
339 85
338 86
337 86
336 86
335 86
334 86
333 86
332 87
331 87
330 87
329 88
328 88
327 87
327 86
327 85
327 84
327 83
327 82
327 81
326 81
325 80
324 79
323 79
322 79
321 79
320 78
320 77
319 77
318 77
317 77
316 77
315 78
315 79
315 80
314 81
313 82
312 83
311 84
310 85
309 86
308 86
307 86
306 87
305 87
304 88
303 88
302 89
301 89
300 90
299 90
298 91
297 91
296 92
295 93
294 93
293 94
292 95
291 96
290 97
289 98
289 99
288 100
287 101
286 102
285 103
284 104
283 105
282 106
281 107
280 108
279 109
279 110
278 111
278 112
277 113
277 114
276 115
276 116
276 117
275 118
275 119
275 120
274 121
274 122
274 123
274 124
273 125
273 126
273 127
273 128
272 129
272 130
272 131
272 132
271 133
271 134
271 135
271 136
270 137
270 138
270 139
270 140
270 141
270 142
270 143
270 144
270 145
270 146
270 147
270 148
270 149
270 150
270 151
270 152
270 153
270 154
270 155
270 156
270 157
270 158
270 159
270 160
270 161
270 162
270 163
270 164
270 165
269 166
269 167
269 168
269 169
269 170
269 171
269 172
270 173
270 174
270 175
270 176
271 177
270 178
269 178
268 177
267 177
266 176
265 175
264 175
263 174
262 173
261 173
260 172
259 171
258 171
257 170
256 169
255 168
254 168
253 167
252 166
251 165
250 164
249 164
248 163
247 163
246 162
245 161
244 161
243 160
242 160
241 159
240 159
239 158
238 158
237 157
236 157
235 156
234 156
233 156
232 155
231 155
230 155
229 154
228 154
227 154
226 153
225 153
224 153
223 152
222 152
221 152
220 151
219 151
218 151
217 151
216 150
215 150
214 149
213 149
212 149
211 148
210 148
209 148
208 147
207 147
206 147
205 147
204 147
203 146
202 146
201 146
200 145
199 145
198 145
197 145
196 145
195 144
194 144
193 144
192 144
191 144
190 144
189 144
188 144
187 144
186 144
185 144
184 144
183 144
182 144
181 145
180 145
179 145
178 145
177 145
176 145
175 145
174 145
173 145
172 145
171 145
170 145
169 145
168 145
167 145
166 146
165 146
164 146
163 146
162 146
161 146
160 147
159 147
158 147
157 147
156 147
155 147
154 147
153 147
152 147
151 147
150 147
149 148
148 148
147 148
146 148
145 148
144 149
143 149
142 149
141 150
140 150
139 150
138 150
137 150
136 150
135 150
134 151
133 151
132 151
131 152
130 152
129 153
128 153
127 154
126 154
125 155
124 155
123 155
122 156
121 157
120 158
119 158
119 159
118 160
117 161
116 161
115 162
114 162
113 163
112 164
111 165
110 166
109 167
109 168
108 169
107 169
106 170
105 170
104 171
103 171
102 172
101 172
100 172
99 173
98 173
97 173
96 173
95 174
94 174
93 175
92 175
91 175
90 175
89 175
88 175
87 176
86 176
85 177
84 177
83 177
82 177
81 177
80 178
79 178
78 179
77 179
76 179
75 180
74 181
74 182
73 183
72 184
71 184
70 185
69 186
68 185
67 185
66 185
65 185
64 185
63 186
62 187
62 188
62 189
62 190
62 191
62 192
62 193
63 194
63 195
63 196
63 197
64 198
65 199
66 200
67 201
68 201
69 202
70 203
70 204
70 205
71 206
72 207
72 208
73 209
74 210
74 211
75 212
75 213
75 214
75 215
76 216
76 217
77 218
77 219
78 220
78 221
78 222
78 223
78 224
79 225
79 226
79 227
80 228
80 229
80 230
81 231
82 232
82 233
83 234
83 235
83 236
83 237
83 238
83 239
83 240
83 241
84 242
84 243
85 244
86 245
86 246
87 247
88 248
89 249
90 250
91 251
91 252
92 253
93 254
94 255
95 256
96 257
97 258
97 259
98 260
99 261
99 262
100 263
101 264
102 265
103 265
104 266
105 267
106 267
107 268
108 269
109 269
110 270
111 271
112 271
113 272
114 273
115 274
116 275
117 275
118 276
119 277
120 278
121 278
122 279
123 279
124 280
125 280
126 280
127 281
128 281
129 281
130 281
131 282
132 282
133 282
134 282
135 282
136 282
137 282
138 282
139 282
140 283
141 282
142 283
143 283
144 284
144 285
144 286
145 287
145 288
146 289
146 290
147 291
148 292
148 293
149 294
150 295
150 296
151 297
152 298
153 299
154 300
155 301
156 302
157 303
158 303
159 304
160 304
161 305
162 305
163 306
164 307
165 307
166 308
167 309
168 310
169 310
170 311
171 312
172 312
173 313
174 313
175 314
176 314
177 315
178 316
179 316
180 317
181 317
182 318
183 318
184 318
185 319
186 319
187 319
188 320
189 320
190 320
191 320
192 321
193 321
194 321
195 322
196 322
197 322
198 322
199 323
200 323
201 323
202 323
203 323
204 323
205 324
206 324
207 324
208 324
209 325
210 325
211 325
212 325
213 326
214 326
215 326
216 326
217 327
218 327
219 327
220 328
219 329
219 330
218 331
218 332
217 333
216 334
216 335
215 336
215 337
214 338
214 339
213 340
213 341
212 342
212 343
211 344
210 345
210 346
210 347
209 348
209 349
208 350
207 351
206 352
205 353
205 354
204 355
204 356
203 357
203 358
202 359
202 360
201 361
201 362
201 363
200 364
200 365
200 366
200 367
199 368
199 369
199 370
198 371
198 372
198 373
197 374
197 375
197 376
196 377
196 378
196 379
195 380
195 381
194 382
194 383
193 384
193 385
193 386
193 387
192 388
192 389
192 390
192 391
192 392
192 393
192 394
192 395
192 396
192 397
192 398
192 399
192 400
192 401
193 402
193 403
193 404
193 405
193 406
193 407
193 408
192 409
192 410
192 411
192 412
192 413
192 414
192 415
192 416
193 417
193 418
193 419
193 420
193 421
193 422
194 423
194 424
194 425
194 426
194 427
195 428
195 429
195 430
196 431
196 432
196 433
197 434
197 435
197 436
197 437
197 438
198 439
198 440
198 441
198 442
198 443
199 444
199 445
199 446
200 447
200 448
201 449
201 450
202 451
202 452
203 453
203 454
203 455
203 456
203 457
204 458
204 459
205 460
206 461
207 462
208 463
208 464
209 465
210 466
211 467
212 468
213 468
214 469
215 469
216 470
217 471
218 472
218 473
219 474
219 475
220 476
220 477
220 478
220 479
221 480
221 481
221 482
221 483
221 484
221 485
221 486
221 487
221 488
221 489
221 490
221 491
222 492
222 493
223 494
223 495
223 496
224 497
224 498
225 499
226 499
227 498
228 497
229 497
230 496
231 496
232 496
233 495
234 495
235 495
236 494
237 494
238 494
239 493
240 493
241 494
242 495
243 495
244 495
245 495
246 495
247 495
248 495
249 495
250 495
251 495
252 495
253 494
254 494
255 495
256 495
257 495
258 495
259 495
260 495
261 495
262 495
263 495
264 495
265 495
266 495
267 494
268 494
269 494
270 494
271 494
272 494
273 494
274 494
275 493
276 493
277 493
278 493
279 493
280 493
281 493
282 493
283 493
284 493
285 493
286 493
287 493
288 493
289 493
290 493
291 493
292 492
293 492
294 492
295 492
296 492
297 491
298 491
299 491
300 491
301 490
302 490
303 490
304 490
305 490
306 489
307 489
308 489
309 489
310 488
311 487
312 487
313 487
314 487
315 487
316 486
317 486
318 486
319 486
320 485
321 485
322 485
323 484
324 484
325 484
326 483
327 483
328 483
329 482
330 482
331 481
332 481
333 481
334 480
335 480
336 479
337 479
338 478
339 478
340 478
341 477
342 476
343 475
344 474
345 473
346 473
347 472
348 471
349 471
350 470
351 469
352 469
353 468
354 467
355 467
356 466
357 465
358 464
359 464
360 463
361 462
362 461
363 461
364 460
365 459
366 458
367 458
368 457
369 456
369 455
370 454
371 453
372 452
373 451
374 450
375 449
376 448
377 447
377 446
378 445
378 444
379 443
380 442
381 441
382 440
383 439
384 438
385 437
386 436
387 435
387 434
388 433
389 432
389 431
390 430
391 429
392 428
392 427
393 426
394 425
394 424
395 423
396 422
396 421
397 420
398 419
399 418
399 417
400 416
400 415
401 414
401 413
402 412
403 411
403 410
404 409
404 408
404 407
405 406
405 405
406 404
406 403
407 402
407 401
408 400
408 399
409 398
409 397
410 396
410 395
410 394
411 393
411 392
412 391
413 390
414 391
414 392
414 393
414 394
414 395
415 396
415 397
415 398
416 399
416 400
416 401
416 402
417 403
417 404
418 405
418 406
419 407
419 408
420 409
420 410
421 411
421 412
421 413
421 414
422 415
422 416
422 417
422 418
422 419
422 420
423 421
423 422
423 423
423 424
424 425
424 426
425 427
425 428
426 429
426 430
427 431
428 432
428 433
429 434
430 435
430 436
431 437
431 438
432 439
432 440
433 441
434 442
434 443
435 444
436 445
437 446
437 447
438 448
439 449
439 450
440 451
441 452
442 453
442 454
443 454
444 455
444 456
445 456
446 457
447 458
448 459
449 460
450 461
451 461
452 462
453 463
454 464
455 465
456 465
457 466
458 467
458 468
459 468
460 469
461 470
462 470
463 470
464 470
465 471
466 471
467 472
468 472
469 472
470 473
471 473
472 474
473 474
474 475
475 476
476 477
477 478
478 478
479 479
480 480
481 481
482 482
483 483
483 484
484 485
485 486
486 487
487 488
487 489
488 490
489 491
489 492
490 493
491 494
492 495
492 496
493 496
494 497
495 497
496 498
497 498
497 497
496 496
495 495
495 494
494 493
494 492
494 491
493 490
494 489
493 488
493 487
493 486
494 485
495 484
496 484
497 484
498 484
499 483
500 483
501 482
502 482
503 481
504 480
505 479
506 478
507 478
508 477
509 477
510 476
511 475
512 474
513 473
514 473
515 472
516 471
517 471
518 470
519 470
520 469
521 469
522 468
523 467
524 467
525 466
526 466
527 465
528 464
529 463
530 462
531 461
532 460
533 460
534 459
535 458
536 457
537 457
538 456
539 455
540 455
541 454
542 453
543 452
544 451
545 450
546 449
547 448
548 447
549 446
550 445
551 444
552 443
553 442
553 441
554 440
555 439
556 438
556 437
557 436
558 435
559 434
559 433
560 432
560 431
560 430
561 429
561 428
562 427
562 426
563 425
563 424
564 423
564 422
564 421
565 420
565 419
566 418
566 417
567 416
567 415
567 414
568 413
568 412
568 411
569 410
569 409
569 408
570 407
570 406
570 405
571 404
571 403
571 402
572 401
572 400
572 399
573 398
573 397
574 396
574 395
574 394
575 393
575 392
575 391
576 390
576 389
576 388
577 387
577 386
577 385
577 384
577 383
577 382
577 381
578 380
578 379
578 378
578 377
579 376
579 375
579 374
579 373
580 372
580 371
580 370
580 369
580 368
581 367
581 366
581 365
581 364
581 363
581 362
581 361
582 360
583 361
584 362
585 362
586 363
587 364
588 365
589 366
590 366
591 367
592 368
593 369
594 370
595 371
596 372
597 372
598 373
599 374
600 374
601 375
602 375
603 376
604 377
605 377
606 378
607 378
608 378
609 379
610 379
611 380
612 380
613 381
614 382
615 382
616 383
617 383
618 384
619 384
620 385
621 385
622 385
623 385
624 386
625 386
626 386
627 386
628 386
629 386
630 386
631 386
632 387
633 387
634 387
635 387
636 387
637 387
638 387
639 387
640 387
641 387
642 386
643 386
644 386
645 386
646 386
647 386
648 385
649 385
650 385
651 385
652 385
653 385
654 385
655 385
656 384
657 384
658 384
659 385
660 385
661 386
662 386
663 386
664 386
665 387
666 387
667 388
668 388
669 388
670 389
671 389
672 389
673 390
674 390
675 390
675 389
674 388
673 387
673 386
672 385
672 384
672 383
672 382
672 381
672 380
672 379
672 378
672 377
672 376
672 375
672 374
673 373
674 372
675 372
676 371
677 370
677 369
678 368
679 368
680 368
681 367
682 366
683 365
684 364
685 363
686 362
687 362
688 361
689 360
689 359
690 358
691 357
691 356
691 355
692 354
693 353
693 352
694 351
694 350
694 349
694 348
694 347
694 346
694 345
694 344
694 343
694 342
694 341
694 340
694 339
694 338
694 337
694 336
693 335
693 334
693 333
693 332
693 331
693 330
693 329
693 328
693 327
693 326
693 325
693 324
693 323
693 322
692 321
692 320
692 319
692 318
691 317
691 316
691 315
691 314
690 313
690 312
690 311
690 310
689 309
689 308
689 307
689 306
688 305
688 304
688 303
687 302
687 301
687 300
686 299
686 298
686 297
685 296
685 295
684 294
684 293
684 292
683 291
683 290
683 289
682 288
682 287
681 286
681 285
680 284
680 283
679 282
679 281
678 280
677 279
677 278
676 277
675 276
674 275
673 274
673 273
672 272
671 271
670 270
669 269
668 268
667 267
666 266
665 265
664 264
663 263
663 262
662 261
661 260
660 260
659 259
658 258
657 258
656 257
655 256
654 255
653 254
652 254
651 253
650 253
649 252
648 252
647 252
646 251
645 251
644 251
643 251
642 251
641 251
640 250
639 250
638 250
637 250
636 250
635 250
634 250
633 250
632 250
631 250
630 250
629 250
628 249
627 249
626 249
625 249
624 248
624 247
625 246
626 245
627 245
628 245
629 245
630 245
631 244
632 244
633 244
634 244
635 243
636 243
637 243
638 243
639 243
640 243
641 243
642 242
643 242
644 242
645 241
646 241
647 241
648 241
649 240
650 240
651 240
652 240
653 240
654 240
655 240
656 239
657 239
658 239
659 239
660 239
661 239
662 238
663 238
664 238
665 238
666 238
667 238
668 237
669 237
670 237
671 237
672 237
673 236
674 236
675 236
676 236
677 236
678 236
679 235
680 235
681 235
682 235
683 235
684 235
685 234
686 234
687 234
688 234
689 234
690 234
691 234
692 234
693 234
694 234
695 233
696 233
697 233
698 233
699 233
700 233
701 232
702 232
703 232
704 232
705 232
706 232
707 232
708 232
709 232
710 232
711 232
712 232
713 232
714 232
715 232
716 232
717 232
718 232
719 232
720 232
721 231
722 232
723 232
724 232
725 232
726 232
727 232
728 232
729 232
730 233
731 233
732 233
733 233
734 234
735 234
736 234
737 234
738 234
739 234
740 233
741 232
742 232
743 232
744 231
745 230
744 229
744 228
745 227
746 226
746 225
746 224
746 223
746 222
746 221
747 220
747 219
747 218
748 217
748 216
748 215
748 214
748 213
747 212
747 211
746 210
745 210
744 209
744 208
743 208
742 207
741 207
740 207
739 207
738 207
737 207
736 207
735 207
734 207
733 208
732 209
731 209
730 210
729 210
728 211
727 212
726 212
725 213
724 214
723 214
722 214
721 215
720 215
719 215
718 216
717 216
716 217
715 217
714 217
713 218
712 218
711 218
710 218
709 219
708 219
707 219
706 219
705 219
704 219
703 220
702 220
701 220
700 220
699 220
698 221
697 221
696 221
695 221
694 221
693 222
692 222
691 222
690 223
689 223
688 223
687 223
686 223
685 224
684 224
683 224
682 224
681 224
680 225
679 225
678 225
677 225
676 225
675 225
674 226
673 226
672 226
671 226
670 226
669 226
668 227
667 227
666 227
665 227
664 227
663 227
662 228
661 228
660 228
659 228
658 228
657 228
656 228
655 228
654 228
653 229
652 229
651 229
650 229
649 229
648 229
647 230
646 230
645 229
645 228
646 227
647 226
648 225
648 224
649 223
650 222
651 221
652 220
653 219
654 218
655 217
655 216
656 215
656 214
656 213
657 212
658 211
658 210
659 209
659 208
660 207
660 206
660 205
660 204
661 203
661 202
662 201
662 200
663 199
663 198
664 197
664 196
665 195
665 194
665 193
666 192
666 191
666 190
666 189
667 188
667 187
667 186
667 185
668 184
668 183
668 182
668 181
668 180
668 179
669 178
669 177
669 176
669 175
669 174
669 173
669 172
669 171
669 170
669 169
670 168
670 167
670 166
670 165
670 164
670 163
670 162
670 161
670 160
670 159
670 158
670 157
670 156
670 155
670 154
670 153
669 152
669 151
668 150
668 149
668 148
667 147
666 146
665 145
665 144
664 143
664 142
663 141
662 141
661 141
660 140
659 140
658 140
657 140
656 139
655 138
654 137
653 136
653 135
653 134
653 133
653 132
653 131
653 130
653 129
654 128
654 127
655 126
654 125
654 124
653 123
653 122
652 121
651 120
650 119
649 118
648 117
647 116
646 115
645 115
644 114
643 113
643 112
642 111
642 110
642 109
642 108
642 107
642 106
641 105
641 104
640 103
640 102
639 101
638 102
637 102
636 102
635 102
634 101
634 102
633 103
632 103
631 104
630 105
629 105
628 106
627 106
626 106
625 106
624 106
623 106
622 106
621 106
620 106
619 106
618 106
617 106
616 106
615 106
614 106
613 106
612 106
611 107
610 107
609 107
608 107
607 107
606 108
605 108
604 109
603 109
602 110
601 110
600 111
599 112
598 113
597 113
596 114
595 114
594 115
593 116
592 116
591 116
590 117
589 118
588 118
587 119
586 120
585 121
584 121
583 122
582 123
581 124
581 125
580 126
579 127
578 128
577 129
576 129
575 130
574 131
573 132
572 133
571 134
570 135
569 136
568 137
567 137
567 138
566 139
565 139
564 138
564 137
564 136
564 135
563 134
563 133
563 132
563 131
563 130
562 129
562 128
562 127
561 126
561 125
560 124
560 123
560 122
559 121
559 120
559 119
558 118
558 117
557 116
557 115
556 114
556 113
555 112
554 111
554 110
553 109
553 108
552 107
551 106
551 105
550 104
550 103
549 102
548 101
548 100
547 99
547 98
546 97
545 96
545 95
544 94
543 93
543 92
542 91
541 90
541 89
540 88
539 87
538 86
537 85
536 84
535 83
534 82
533 81
532 80
531 79
530 78
530 77
529 76
528 75
527 74
526 73
525 72
524 71
523 70
522 69
521 68
520 67
519 66
518 66
517 65
516 64
515 63
514 62
513 61
512 60
511 59
510 59
509 58
508 57
507 57
506 56
505 55
504 55
503 54
502 54
501 53
500 53
499 52
498 52
497 51
496 51
495 50
494 50
493 49
492 49
491 48
490 47
489 47
488 46
487 45
486 45
485 44
484 43
483 43
482 43
481 42
480 42
479 42
478 41
477 40
476 39
475 39
474 38
473 38
472 37
471 37
470 36
469 36
468 35
467 34
466 34
465 34
464 34
463 33
462 33
461 33
460 33
459 32
458 31
457 31
456 30
455 29
454 29
453 29
