371 50
370 51
369 51
368 51
367 51
366 51
365 51
364 51
363 51
362 51
361 51
360 51
359 51
358 51
357 51
357 52
356 53
355 53
354 53
353 53
352 54
351 54
350 54
349 55
348 55
347 55
346 55
345 55
345 56
345 57
344 58
344 59
343 60
343 61
342 62
342 63
342 64
341 65
340 65
339 65
338 66
337 66
336 66
335 66
334 65
333 65
332 64
331 64
330 64
329 64
328 63
327 63
326 62
325 62
324 61
323 61
322 61
321 61
321 62
320 63
319 63
318 63
317 63
316 63
315 63
314 62
313 62
312 62
311 62
310 61
309 61
308 60
307 60
306 59
305 59
304 58
303 58
302 58
301 57
300 57
299 56
298 56
297 56
296 55
295 55
294 54
293 54
292 53
291 53
290 54
289 55
288 55
287 55
286 55
285 55
284 55
283 55
282 54
281 54
280 54
279 54
278 53
277 53
276 53
275 53
274 53
273 53
272 53
271 52
270 52
269 52
269 53
268 54
267 54
266 54
265 54
264 55
263 55
262 55
261 55
260 55
259 55
258 55
257 56
256 56
255 56
254 56
253 56
253 57
253 58
252 59
251 59
250 60
249 61
248 61
247 62
246 63
245 64
244 65
243 65
242 66
241 66
240 67
239 67
239 68
238 69
238 70
237 71
237 72
237 73
236 74
236 75
235 76
234 77
233 77
232 78
231 78
230 78
229 78
228 78
227 78
226 78
225 78
224 78
223 78
222 78
221 78
220 78
219 78
218 78
217 78
217 79
216 80
215 80
214 80
213 80
212 80
211 80
210 80
209 79
208 79
207 79
206 79
205 78
204 78
203 78
202 77
201 77
200 77
199 77
198 77
197 76
196 76
195 76
194 76
193 76
192 75
191 75
190 75
190 76
189 77
188 77
187 77
186 77
185 77
184 77
183 77
182 77
181 77
180 77
179 77
178 77
177 77
176 77
175 77
174 77
173 77
172 76
172 77
172 78
171 79
170 80
169 80
168 80
167 81
166 81
165 82
164 82
163 82
163 83
162 84
161 85
160 85
159 86
158 87
157 88
156 88
155 89
154 90
153 90
153 91
152 92
152 93
152 94
151 95
150 96
150 97
150 98
150 99
149 100
149 101
148 102
147 102
146 103
145 104
144 104
143 105
142 105
141 106
140 106
139 106
138 106
137 107
136 107
135 108
134 108
133 108
132 108
131 108
131 109
131 110
131 111
130 112
129 112
128 112
127 112
126 113
125 113
124 113
123 113
122 114
121 114
120 114
119 115
118 116
117 116
116 116
115 117
115 118
115 119
114 120
113 120
112 121
111 122
110 122
109 123
108 124
107 125
107 126
106 127
105 128
104 128
103 129
103 130
102 131
101 132
100 133
100 134
99 135
98 136
97 137
96 137
95 138
94 138
93 139
92 140
91 141
90 141
89 142
88 143
87 144
86 144
85 145
84 146
83 147
82 148
82 149
81 150
80 151
79 151
78 152
79 153
78 154
79 155
78 156
78 157
77 158
77 159
76 160
75 161
74 161
74 162
74 163
74 164
73 165
72 166
72 167
71 168
70 169
69 170
68 171
68 172
68 173
68 174
68 175
68 176
68 177
68 178
67 179
67 180
67 181
66 182
65 182
65 183
65 184
65 185
65 186
65 187
64 188
64 189
63 190
62 191
61 192
60 193
59 194
58 195
57 195
56 196
56 197
56 198
56 199
56 200
55 201
54 202
54 203
53 204
52 205
51 206
51 207
50 208
49 209
49 210
49 211
49 212
49 213
49 214
48 215
48 216
47 217
47 218
47 219
46 220
46 221
46 222
45 223
45 224
45 225
45 226
46 227
46 228
46 229
46 230
47 231
47 232
47 233
47 234
48 235
48 236
48 237
49 238
49 239
49 240
49 241
49 242
48 243
48 244
48 245
47 246
47 247
47 248
47 249
48 250
47 251
47 252
47 253
46 254
46 255
46 256
45 257
45 258
44 259
44 260
45 261
45 262
45 263
45 264
45 265
45 266
45 267
46 268
46 269
47 270
47 271
48 272
48 273
49 274
50 275
50 276
51 277
52 278
53 278
54 279
54 280
55 281
56 282
57 283
58 284
59 285
59 286
59 287
59 288
60 289
61 290
61 291
61 292
62 293
62 294
62 295
62 296
62 297
61 298
61 299
62 300
62 301
62 302
62 303
62 304
63 305
62 306
61 307
61 308
60 309
59 310
59 311
58 312
57 312
57 313
58 314
58 315
58 316
58 317
58 318
57 319
57 320
57 321
56 322
56 323
55 324
55 325
54 326
53 327
53 328
52 329
51 330
51 331
50 332
49 333
49 334
49 335
48 336
47 337
47 338
47 339
46 340
46 341
46 342
45 343
45 344
45 345
46 346
46 347
47 348
47 349
47 350
48 351
48 352
49 353
49 354
49 355
48 356
48 357
49 358
50 359
51 360
52 361
52 362
53 363
54 364
54 365
54 366
54 367
55 368
56 369
57 370
58 371
58 372
59 372
60 373
60 374
60 375
61 376
62 376
63 377
64 378
64 379
65 380
65 381
66 382
67 383
67 384
67 385
67 386
67 387
67 388
67 389
67 390
67 391
68 392
68 393
69 394
70 394
71 395
71 396
72 397
72 398
72 399
73 400
74 400
75 401
76 402
76 403
77 404
77 405
77 406
78 406
79 407
80 407
81 408
81 409
81 410
82 411
83 412
84 412
85 413
85 414
86 415
87 416
87 417
88 418
89 418
90 418
91 419
91 420
91 421
92 422
93 423
94 424
95 424
96 425
97 426
98 426
99 427
100 428
101 429
102 429
103 429
104 430
105 431
106 431
107 432
106 433
107 432
108 433
108 434
109 435
109 436
110 437
111 438
111 439
111 440
112 440
113 441
113 442
114 443
115 444
116 445
117 445
118 446
119 447
120 447
121 448
122 449
123 449
124 450
125 450
126 451
127 452
128 452
129 453
129 454
130 455
131 455
132 456
133 456
134 457
135 457
136 457
137 458
138 458
139 459
140 459
141 459
142 460
143 461
144 461
145 462
145 463
146 463
147 464
148 464
149 465
150 465
151 465
152 466
153 466
154 466
155 467
156 467
157 467
158 468
159 468
160 468
161 469
162 469
163 470
164 470
165 471
166 471
167 472
168 473
169 474
170 475
171 476
172 477
173 477
174 478
175 479
176 479
177 479
178 480
179 480
180 480
181 480
182 481
183 482
184 482
185 482
186 483
187 483
188 484
189 484
190 485
191 485
192 486
193 486
194 487
195 487
196 487
197 487
198 488
199 488
200 488
201 488
202 488
203 488
204 488
205 488
206 488
207 488
208 488
209 488
210 488
211 489
212 489
213 489
214 490
215 490
216 491
217 491
218 491
219 491
220 491
221 491
222 491
223 491
224 492
225 492
226 492
227 492
228 492
229 492
230 492
231 492
232 492
233 493
234 493
235 493
236 493
237 494
238 494
239 494
240 495
241 496
242 496
243 497
244 497
245 498
246 498
247 499
248 499
249 500
250 500
251 500
252 500
253 501
254 501
255 501
256 501
257 502
258 502
259 502
260 502
261 503
262 503
263 503
264 503
265 504
266 504
267 505
268 505
269 505
270 506
271 506
272 506
273 506
274 506
275 506
276 506
277 506
278 506
279 506
280 506
281 505
282 505
283 505
284 505
285 505
286 505
287 505
288 505
289 506
290 506
291 506
292 506
293 505
294 505
295 505
296 505
297 505
298 505
299 504
300 504
301 504
302 504
303 503
304 503
305 503
306 503
307 503
308 503
309 503
310 503
311 503
312 503
313 503
314 503
315 503
316 503
317 503
318 504
319 504
320 504
321 504
322 505
323 505
324 505
325 505
326 505
327 505
328 505
329 505
330 506
331 506
332 505
333 505
334 505
335 505
336 505
337 505
338 505
339 505
340 505
341 505
342 505
343 504
344 504
345 504
346 504
347 503
348 503
349 502
350 501
351 501
352 500
353 500
354 500
355 499
356 499
357 499
358 498
359 498
360 497
361 497
362 496
363 496
364 495
365 495
366 494
367 493
368 493
369 492
370 492
371 491
372 491
373 491
374 491
375 491
376 491
377 491
378 490
379 489
380 489
381 488
382 488
383 487
384 487
385 486
386 485
387 485
388 484
389 483
390 483
391 483
392 483
393 483
394 483
395 483
396 483
397 482
398 482
399 482
400 481
401 480
402 479
403 479
404 478
405 477
406 477
407 476
408 475
409 475
410 474
411 474
412 474
413 473
414 473
415 473
416 473
417 473
418 473
419 474
420 474
421 474
422 475
423 475
424 475
425 475
426 475
427 475
428 474
429 474
430 474
431 474
432 473
433 473
434 472
435 472
436 472
437 471
438 471
439 471
440 471
441 471
442 471
443 470
444 469
445 469
446 468
447 468
448 467
449 467
450 466
451 465
452 465
453 465
454 465
455 465
456 464
457 463
458 463
459 462
460 461
461 460
461 459
462 458
463 457
464 456
465 455
466 454
467 454
468 453
469 453
470 453
471 452
472 451
473 450
474 450
474 449
475 448
476 447
477 446
477 445
478 444
479 443
479 442
480 441
481 440
482 440
483 439
484 439
485 438
486 437
487 437
488 436
488 435
489 434
490 433
490 432
491 431
492 430
493 429
493 428
494 427
494 426
495 425
495 424
496 423
496 422
497 421
497 420
498 419
499 418
499 417
500 416
501 415
501 414
502 413
502 412
503 411
503 410
504 409
505 409
506 409
507 409
507 408
508 407
509 406
509 405
510 404
510 403
511 402
511 401
511 400
511 399
511 398
511 397
511 396
511 395
512 394
512 393
512 392
512 391
512 390
512 389
512 388
513 387
513 386
513 385
514 384
515 384
516 383
517 382
517 381
518 380
518 379
519 378
520 377
520 376
521 375
522 375
523 374
524 374
525 374
526 374
527 374
528 373
529 373
530 373
531 373
532 372
533 371
534 370
535 370
536 369
537 368
538 367
539 366
539 365
540 364
541 363
541 362
542 361
543 360
543 359
544 358
545 357
546 356
547 355
547 354
548 353
548 352
548 351
549 350
549 349
550 348
550 347
550 346
551 345
551 344
552 343
552 342
553 341
553 340
554 339
554 338
555 337
556 336
556 335
557 334
557 333
557 332
557 331
558 330
558 329
559 328
559 327
559 326
559 325
560 324
560 323
560 322
560 321
561 320
561 319
562 318
562 317
562 316
563 315
563 314
563 313
563 312
563 311
563 310
564 309
564 308
564 307
564 306
564 305
564 304
564 303
564 302
564 301
564 300
564 299
564 298
564 297
564 296
564 295
564 294
565 293
565 292
565 291
565 290
565 289
565 288
565 287
565 286
565 285
565 284
565 283
565 282
565 281
565 280
565 279
565 278
565 277
565 276
565 275
565 274
565 273
565 272
565 271
565 270
566 269
566 268
566 267
566 266
566 265
567 264
567 263
568 262
569 262
570 262
571 262
572 262
573 261
574 261
575 261
576 261
577 261
578 261
579 261
580 261
581 261
582 261
583 261
584 261
585 261
586 261
587 261
588 261
589 261
590 261
591 261
592 261
593 261
594 261
595 261
596 261
597 261
598 261
599 261
600 261
601 261
602 261
603 261
604 261
605 261
606 261
607 261
608 261
609 261
610 261
611 261
612 261
613 261
614 261
615 261
616 261
617 261
618 261
619 261
620 261
621 261
622 261
623 261
624 261
625 261
626 261
627 261
628 261
629 261
630 261
631 261
632 261
633 261
634 261
635 261
636 261
637 261
638 261
639 261
640 261
641 260
642 260
643 260
644 260
645 260
646 260
647 260
648 260
649 260
650 260
651 260
652 260
653 260
654 260
655 260
656 260
657 260
658 260
659 260
660 260
661 260
662 260
663 260
664 260
665 260
666 260
667 260
668 259
669 259
670 259
671 259
672 259
673 259
674 259
675 259
676 259
677 259
678 259
679 259
680 259
681 259
682 258
683 258
684 258
685 258
686 258
687 258
688 258
689 258
690 258
691 257
692 257
693 257
694 257
695 257
696 257
697 257
698 257
699 257
700 257
701 256
702 256
703 256
704 256
705 256
706 256
707 256
708 256
709 255
710 255
711 255
712 255
713 255
714 255
715 254
716 254
717 254
718 254
719 254
720 254
721 253
722 253
723 253
724 253
725 253
726 252
727 252
728 252
729 252
730 252
731 252
732 251
733 251
734 251
735 251
736 251
737 250
738 250
739 250
740 250
741 250
742 249
743 249
744 249
745 249
746 249
747 249
748 248
749 248
750 248
751 248
752 248
753 248
754 248
755 248
756 248
757 248
758 248
759 248
760 248
761 247
762 247
763 247
764 246
765 246
766 246
767 247
768 246
768 245
768 244
768 243
769 242
770 241
770 240
769 239
769 238
768 237
767 236
766 235
765 234
764 234
763 233
762 233
761 232
760 232
759 232
758 232
757 232
756 231
755 231
754 231
753 231
752 231
751 231
750 231
749 232
748 232
747 232
746 232
745 232
744 232
743 233
742 233
741 233
740 233
739 234
738 234
737 234
736 235
735 235
734 235
733 236
732 236
731 236
730 237
729 237
728 237
727 238
726 238
725 239
724 239
723 239
722 240
721 240
720 240
719 240
718 241
717 241
716 241
715 241
714 241
713 242
712 242
711 242
710 242
709 242
708 242
707 243
706 243
705 243
704 243
703 243
702 244
701 244
700 244
699 244
698 244
697 244
696 244
695 245
694 245
693 245
692 245
691 245
690 245
689 245
688 245
687 246
686 246
685 246
684 246
683 246
682 246
681 246
680 246
679 246
678 247
677 247
676 247
675 247
674 247
673 247
672 247
671 247
670 247
669 247
668 247
667 247
666 247
665 247
664 248
663 248
662 248
661 248
660 248
659 248
658 248
657 248
656 248
655 248
654 248
653 248
652 248
651 248
650 248
649 248
648 248
647 249
646 249
645 249
644 249
643 249
642 249
641 249
640 249
639 249
638 249
637 249
636 249
635 249
634 249
633 249
632 249
631 249
630 249
629 249
628 249
627 249
626 249
625 249
624 249
623 249
622 249
621 249
620 250
619 250
618 250
617 250
616 250
615 250
614 250
613 250
612 250
611 250
610 250
609 250
608 250
607 250
606 250
605 250
604 250
603 250
602 250
601 250
600 250
599 250
598 250
597 250
596 250
595 250
594 250
593 250
592 250
591 250
590 250
589 250
588 250
587 250
586 250
585 250
584 250
583 250
582 250
581 250
580 250
579 250
578 250
577 249
576 249
575 248
574 248
573 247
572 246
571 245
571 244
570 243
569 242
568 241
568 240
567 239
567 238
566 237
565 236
565 235
564 234
564 233
563 232
563 231
563 230
562 229
562 228
561 227
561 226
560 225
560 224
560 223
559 222
559 221
558 220
558 219
558 218
557 217
557 216
556 215
556 214
555 213
555 212
554 211
554 210
553 209
552 208
552 207
552 206
551 205
551 204
551 203
550 202
550 201
549 200
549 199
549 198
548 197
548 196
548 195
548 194
547 193
547 192
547 191
547 190
546 189
546 188
546 187
546 186
546 185
545 184
545 183
545 182
545 181
544 180
544 179
544 178
544 177
543 176
543 175
543 174
542 173
542 172
542 171
541 170
541 169
540 168
540 167
540 166
539 165
538 164
538 163
537 162
536 161
535 160
535 159
534 158
534 157
533 156
533 155
532 154
532 153
531 152
531 151
530 150
530 149
529 148
529 147
528 146
528 145
527 144
527 143
526 142
526 141
525 140
525 139
525 138
524 137
524 136
523 135
522 134
521 133
521 132
520 131
519 130
518 129
518 128
517 128
516 128
515 127
514 126
513 125
512 124
511 123
511 122
510 121
509 120
509 119
508 118
507 117
507 116
506 115
505 114
504 113
503 113
502 112
501 112
500 111
500 110
499 109
498 109
497 109
496 109
495 108
494 108
493 107
492 106
491 106
490 106
489 105
488 105
487 105
486 104
485 104
484 105
483 104
482 104
481 104
480 104
479 104
478 103
477 103
476 103
475 103
474 103
473 102
472 102
471 103
470 103
470 104
469 105
468 106
467 106
466 105
465 104
464 104
463 103
462 103
461 102
460 101
459 100
458 99
457 98
456 97
455 96
454 95
453 94
452 93
451 92
450 91
449 91
448 90
447 89
446 89
445 88
444 88
443 88
442 89
441 89
440 89
439 88
438 87
437 86
436 85
435 84
434 83
433 82
432 81
431 80
430 79
429 78
428 78
427 77
426 76
425 75
424 74
423 73
422 73
421 74
420 74
419 74
418 73
417 73
416 73
415 72
414 72
413 72
412 71
411 70
410 69
409 68
408 68
407 67
406 66
405 66
404 65
403 65
402 64
401 63
400 62
399 61
398 61
397 60
396 60
395 59
394 59
393 58
392 57
391 56
390 56
389 56
388 57
387 57
386 56
385 56
384 55
383 55
382 54
381 54
380 53
379 52
378 52
377 52
376 52
375 51
374 51
373 50
372 50
371 50
