318 86
317 87
317 88
316 89
316 90
315 91
314 91
313 91
312 90
311 90
310 89
309 89
308 88
307 88
306 88
305 88
304 88
303 88
302 88
301 88
300 88
299 88
298 88
297 88
296 88
295 88
294 89
293 89
292 89
291 90
290 90
289 90
288 90
287 90
286 90
286 91
286 92
286 93
286 94
287 95
287 96
287 97
287 98
287 99
287 100
287 101
287 102
287 103
287 104
287 105
286 106
286 107
286 108
286 109
285 110
285 111
285 112
285 113
284 114
284 115
284 116
284 117
284 118
284 119
284 120
284 121
283 122
282 123
281 124
280 125
279 125
279 126
279 127
280 128
280 129
280 130
280 131
280 132
281 133
281 134
281 135
281 136
281 137
281 138
282 139
282 140
282 141
283 142
283 143
283 144
283 145
283 146
283 147
283 148
283 149
283 150
283 151
284 152
284 153
284 154
284 155
285 156
285 157
285 158
285 159
285 160
286 161
286 162
286 163
286 164
287 165
287 166
288 167
288 168
289 169
289 170
289 171
290 172
290 173
290 174
291 175
291 176
292 177
292 178
292 179
293 180
293 181
294 182
294 183
294 184
295 185
295 186
296 187
296 188
297 189
297 190
298 191
298 192
299 193
299 194
300 195
300 196
301 197
301 198
302 199
302 200
302 201
303 202
303 203
304 204
304 205
304 206
305 207
305 208
306 209
306 210
306 211
307 212
307 213
308 214
308 215
308 216
309 217
309 218
309 219
310 220
310 221
310 222
311 223
311 224
311 225
312 226
312 227
313 228
313 229
313 230
314 231
314 232
315 233
315 234
315 235
315 236
314 237
313 237
312 237
311 237
310 237
309 236
308 236
307 236
306 235
305 235
304 234
303 234
302 233
301 232
300 232
299 231
298 230
297 229
296 228
295 227
294 226
293 225
292 224
291 223
290 222
289 221
288 220
288 219
287 218
286 217
285 216
284 215
284 214
283 213
282 212
281 211
281 210
280 209
279 208
278 207
277 206
276 205
276 204
275 203
274 202
273 201
272 200
272 199
271 198
270 197
270 196
269 195
268 194
267 193
267 192
266 191
265 190
265 189
264 188
263 187
262 186
262 185
261 184
261 183
260 182
260 181
259 180
258 179
258 178
257 177
256 176
256 175
255 174
254 173
254 172
253 171
252 170
252 169
251 168
250 167
250 166
249 165
249 164
248 163
247 162
247 161
246 160
245 159
244 158
243 158
242 157
242 158
241 159
241 160
240 161
240 162
239 163
238 163
237 162
236 161
235 160
234 159
234 158
233 157
233 156
232 155
231 154
231 153
230 152
229 151
228 150
227 149
227 148
226 147
225 147
224 146
223 146
222 147
221 147
220 147
219 146
219 145
218 144
217 144
216 143
215 142
214 142
213 141
212 141
211 140
210 140
209 140
208 139
207 139
206 139
205 138
204 138
203 138
202 138
201 139
201 140
201 141
201 142
200 143
200 144
199 145
199 146
199 147
198 148
198 149
198 150
197 151
196 152
195 151
194 151
193 150
192 149
191 148
190 148
189 147
188 147
187 146
186 146
185 146
184 147
183 147
182 147
181 146
180 146
179 146
178 145
177 145
176 145
175 144
174 144
173 144
172 144
171 144
170 144
169 144
169 145
168 146
168 147
167 148
166 149
165 149
164 149
163 149
162 149
161 149
160 149
159 150
158 150
157 151
156 151
155 152
154 152
153 152
152 153
151 154
150 154
149 155
148 155
147 155
146 156
145 156
145 157
145 158
145 159
146 160
146 161
146 162
146 163
146 164
146 165
146 166
146 167
146 168
147 169
147 170
147 171
147 172
147 173
147 174
147 175
147 176
148 177
148 178
148 179
148 180
148 181
148 182
149 183
149 184
149 185
149 186
150 187
150 188
151 189
151 190
151 191
151 192
151 193
152 194
152 195
153 196
153 197
154 198
154 199
155 200
156 201
156 202
157 203
158 204
158 205
159 206
159 207
160 208
161 209
161 210
162 211
162 212
163 213
164 214
164 215
165 216
165 217
166 218
166 219
166 220
165 221
164 220
163 220
162 219
161 219
160 218
159 218
158 217
157 217
156 216
155 216
154 215
153 215
152 214
151 214
150 213
149 213
148 212
147 212
146 212
145 211
144 211
143 210
142 210
141 209
140 209
139 209
138 208
137 208
136 207
135 207
134 207
133 206
132 206
131 206
130 206
129 206
128 205
127 205
126 205
125 205
124 205
123 205
122 204
121 204
120 204
119 204
118 204
117 204
116 204
115 204
114 204
113 204
112 204
111 204
110 205
109 205
109 206
108 207
108 208
108 209
108 210
108 211
108 212
107 213
106 214
105 214
104 214
103 215
102 215
101 216
100 216
99 216
98 217
97 217
96 218
95 219
94 219
93 220
92 221
91 221
90 222
89 223
88 224
87 224
86 225
85 225
84 226
83 227
84 228
84 229
85 230
85 231
86 232
86 233
86 234
86 235
87 236
87 237
87 238
87 239
87 240
87 241
86 242
85 242
84 242
83 241
82 241
81 241
80 240
79 240
78 240
77 240
76 240
75 240
74 241
73 241
72 242
71 242
70 242
69 242
68 242
67 243
66 243
65 244
64 244
63 245
62 245
61 246
60 247
59 247
58 248
57 249
56 250
55 251
54 252
53 252
52 253
51 253
50 254
49 254
48 254
47 254
46 255
47 256
48 257
49 258
50 259
50 260
51 261
51 262
52 263
52 264
53 265
53 266
54 267
54 268
54 269
55 270
56 271
56 272
57 273
58 274
59 275
60 276
61 277
62 277
63 278
64 278
65 279
66 279
67 280
68 280
69 280
70 281
71 281
72 282
72 283
72 284
71 285
70 286
70 287
69 288
68 289
67 290
66 291
65 292
64 293
63 294
63 295
64 296
65 297
66 298
66 299
67 299
68 300
69 301
69 302
70 303
71 304
72 305
73 306
74 307
75 307
76 308
77 308
78 309
79 309
80 310
81 311
81 312
82 313
81 314
81 315
81 316
81 317
80 318
81 319
82 320
83 320
84 320
85 320
86 321
87 321
88 321
89 322
90 322
91 322
92 322
93 322
94 322
95 322
96 322
97 323
98 323
99 323
100 324
101 325
102 325
103 325
104 325
105 325
106 325
107 325
108 325
109 325
110 325
111 325
112 325
113 324
114 324
115 324
116 324
117 324
118 324
119 324
120 324
121 323
122 323
123 323
124 323
125 323
126 323
127 323
128 323
129 323
130 323
131 323
132 322
133 322
134 322
135 322
136 322
137 323
138 324
138 325
138 326
138 327
137 328
137 329
136 330
135 331
134 332
134 333
133 334
132 335
131 336
130 337
129 337
129 338
128 339
127 340
126 341
125 342
124 343
123 344
122 345
121 346
120 347
119 348
119 349
118 350
117 351
117 352
116 353
116 354
115 355
114 356
114 357
113 358
113 359
113 360
112 361
112 362
112 363
111 364
111 365
110 366
110 367
110 368
109 369
109 370
109 371
109 372
108 373
108 374
107 375
107 376
106 377
105 378
104 379
104 380
103 381
104 382
105 383
106 383
107 384
108 385
109 385
110 386
110 387
111 388
112 389
113 390
114 390
115 391
115 392
116 392
117 393
118 393
119 394
120 394
121 394
122 394
123 395
124 396
124 397
125 398
125 399
125 400
125 401
125 402
126 402
127 402
128 402
129 402
130 402
131 402
132 401
133 401
134 401
135 401
136 401
137 401
138 401
139 400
140 400
141 400
142 400
143 399
144 399
145 398
146 398
147 397
148 397
149 396
150 396
151 395
152 395
153 396
154 397
154 398
154 399
154 400
154 401
154 402
154 403
154 404
154 405
154 406
154 407
154 408
154 409
154 410
155 411
156 411
157 412
158 412
159 412
160 412
161 412
162 412
163 411
164 411
165 411
166 411
167 411
168 411
169 410
170 410
171 409
172 409
173 409
174 408
175 408
176 407
177 406
178 405
179 404
180 403
181 402
182 403
183 404
183 405
184 406
184 407
185 408
185 409
185 410
186 409
187 409
188 409
189 408
190 407
191 407
192 406
193 405
194 404
195 404
196 403
197 402
198 401
199 400
200 400
200 399
201 398
202 397
203 396
204 395
205 394
206 393
207 392
208 391
209 390
210 389
211 388
211 387
212 386
213 385
214 384
215 384
216 383
217 382
218 381
218 380
219 379
220 378
221 377
222 377
223 377
224 378
225 377
225 376
226 375
227 374
228 373
228 372
229 371
230 370
230 369
231 368
232 367
233 366
234 365
235 364
236 364
237 363
238 362
239 361
240 360
240 359
241 358
242 357
243 356
244 355
245 354
246 353
247 353
248 352
249 351
250 350
251 349
252 348
253 347
254 346
255 345
256 344
257 344
258 343
259 342
260 341
261 341
262 340
263 340
264 339
265 339
266 338
267 338
268 337
269 337
270 336
271 336
272 335
273 335
274 334
275 334
276 334
277 334
278 333
279 333
280 333
281 333
282 333
283 333
284 333
285 333
286 333
287 333
288 333
289 334
289 335
290 336
290 337
289 338
289 339
289 340
289 341
289 342
289 343
288 344
288 345
288 346
287 347
287 348
287 349
286 350
286 351
286 352
285 353
285 354
285 355
284 356
284 357
284 358
283 359
283 360
282 361
282 362
281 363
281 364
281 365
280 366
280 367
279 368
279 369
278 370
278 371
278 372
277 373
277 374
276 375
275 376
275 377
274 378
274 379
273 380
273 381
272 382
272 383
271 384
270 385
270 386
269 387
269 388
268 389
268 390
267 391
266 392
266 393
265 394
265 395
264 396
264 397
264 398
263 399
263 400
262 401
262 402
261 403
261 404
260 405
260 406
259 407
259 408
258 409
258 410
258 411
257 412
257 413
257 414
256 415
256 416
255 417
255 418
254 419
254 420
253 421
253 422
252 423
252 424
251 425
251 426
250 427
250 428
249 429
249 430
249 431
249 432
250 432
251 432
252 432
253 432
254 432
255 433
255 434
255 435
254 436
254 437
254 438
253 439
253 440
253 441
253 442
253 443
252 444
252 445
252 446
252 447
252 448
252 449
252 450
252 451
253 451
254 452
255 453
255 454
255 455
255 456
255 457
255 458
255 459
255 460
255 461
256 462
256 463
256 464
256 465
256 466
256 467
256 468
256 469
256 470
256 471
256 472
256 473
256 474
256 475
256 476
255 477
255 478
255 479
254 480
255 481
256 481
257 482
258 482
259 483
260 483
261 484
262 484
263 485
264 485
265 486
266 486
267 486
268 487
269 487
270 487
271 487
272 487
273 487
274 487
275 487
276 487
277 487
278 487
279 487
280 486
281 486
282 486
283 486
284 485
285 485
286 484
287 484
288 484
289 483
290 483
291 483
292 483
293 484
293 485
293 486
294 487
294 488
295 489
295 490
295 491
295 492
296 492
297 492
298 491
299 491
300 491
301 490
302 490
303 490
304 490
305 489
306 489
307 489
308 488
309 488
310 487
311 487
312 486
313 486
314 485
315 484
316 483
317 483
318 482
319 481
320 480
321 480
322 480
323 481
323 482
324 483
325 483
326 482
327 481
328 480
329 479
330 478
331 477
332 476
333 475
333 474
334 473
335 473
335 472
336 471
337 470
338 469
339 468
340 467
341 468
342 469
342 470
342 471
343 472
343 473
344 473
345 472
346 471
347 470
348 470
349 469
350 468
351 467
352 466
353 465
354 464
355 463
356 462
357 461
358 460
359 459
360 458
361 457
362 456
363 455
364 454
365 453
366 452
367 451
368 450
369 449
370 448
370 447
371 446
372 445
373 444
373 443
374 442
374 441
375 440
375 439
376 438
377 437
378 436
379 437
380 436
380 435
380 434
380 433
380 432
381 431
381 430
381 429
381 428
381 427
382 426
382 425
382 424
382 423
383 422
383 421
383 420
383 419
384 418
384 417
384 416
385 415
385 414
385 413
386 412
386 411
387 410
387 409
388 408
388 407
388 406
389 405
389 404
389 403
390 402
390 401
391 400
391 399
391 398
391 397
392 396
392 395
392 394
393 393
393 392
393 391
394 390
394 389
395 388
395 387
395 386
395 385
396 384
396 383
396 382
396 381
396 380
397 379
397 378
397 377
398 376
398 375
398 374
398 373
399 372
399 371
399 370
399 369
400 368
400 367
400 366
401 365
401 364
401 363
402 362
402 361
402 360
402 359
403 358
403 357
404 356
404 355
404 354
405 353
405 352
405 351
406 350
406 349
407 348
407 347
408 346
408 345
408 344
409 343
409 342
410 341
410 340
410 339
411 338
411 337
412 336
413 335
413 334
414 333
414 332
415 331
416 330
416 329
417 328
417 327
418 326
419 325
420 324
421 323
421 322
422 321
423 320
424 320
425 319
426 318
427 317
428 316
429 316
430 315
431 315
432 314
433 313
434 313
435 313
436 312
437 312
438 312
439 311
440 311
441 311
442 311
443 310
444 310
445 310
446 310
447 309
448 309
449 309
450 309
451 309
452 308
453 308
454 308
455 307
456 307
457 307
458 307
459 306
460 306
461 306
462 306
463 306
464 306
465 305
466 305
467 305
468 305
469 305
470 305
471 304
472 304
473 304
474 304
475 304
476 304
477 304
478 303
479 303
480 303
481 303
482 303
483 302
484 302
485 302
486 302
487 302
488 302
489 302
490 302
491 302
492 302
493 302
494 302
495 302
496 302
497 302
498 302
499 302
500 302
501 302
502 302
503 302
504 302
505 301
506 301
507 301
508 301
509 301
510 301
511 301
512 301
513 300
514 300
515 300
516 300
517 300
518 300
519 300
520 300
521 300
522 300
523 300
524 300
525 300
526 300
527 299
528 299
529 299
530 299
531 300
532 300
533 299
534 299
535 299
536 299
537 300
538 300
539 300
540 300
541 300
542 300
543 300
544 300
545 300
546 300
547 300
548 300
549 300
550 300
551 300
552 300
553 300
554 300
555 300
556 301
557 301
558 301
559 302
560 303
560 304
559 305
559 306
559 307
558 308
557 308
556 309
555 310
554 311
553 312
552 312
551 313
550 314
549 314
549 315
548 316
547 317
547 318
547 319
547 320
546 321
546 322
545 323
544 324
543 325
542 326
541 326
540 327
539 327
538 328
537 329
538 330
538 331
538 332
538 333
537 334
536 335
535 335
534 336
533 337
532 337
531 338
530 339
529 340
528 341
527 342
526 343
525 343
525 344
525 345
524 346
523 347
522 348
521 349
520 349
519 350
518 350
517 351
516 351
515 352
514 352
513 352
512 352
511 352
510 352
509 352
508 352
508 353
509 354
510 355
511 356
512 357
513 358
514 359
514 360
515 361
515 362
515 363
516 364
517 364
518 364
519 365
520 365
521 365
522 366
523 366
524 366
525 366
526 367
527 367
528 367
529 367
530 367
531 368
532 368
533 368
534 368
535 368
536 368
537 368
538 369
538 370
538 371
538 372
538 373
538 374
538 375
538 376
538 377
538 378
539 379
540 379
541 379
542 378
543 378
544 378
545 378
546 378
547 378
548 379
549 380
550 381
551 380
552 380
553 380
554 379
555 378
556 377
557 377
558 376
559 375
560 374
561 373
562 373
563 372
564 371
565 371
566 370
567 369
568 369
569 368
570 367
571 366
572 366
573 365
574 364
575 363
576 362
577 363
578 364
578 365
578 366
578 367
578 368
578 369
579 370
579 371
579 372
579 373
579 374
580 375
580 376
580 377
581 378
581 379
581 380
581 381
582 382
582 383
582 384
583 385
583 386
584 387
584 388
585 389
585 390
586 391
586 392
586 393
587 394
587 395
588 396
588 397
588 398
588 399
588 400
589 400
590 400
591 400
592 400
593 400
594 400
595 400
596 400
597 401
598 401
599 401
600 400
601 400
602 399
603 399
604 399
605 398
606 398
607 397
608 397
609 396
610 396
611 395
612 394
613 393
614 393
614 392
615 391
616 390
616 389
617 388
617 387
618 386
618 385
619 384
619 383
620 382
621 382
622 382
623 383
624 384
625 385
626 385
627 386
628 386
629 387
630 387
631 388
632 388
633 389
634 389
634 388
634 387
635 386
635 385
635 384
636 383
636 382
636 381
637 380
637 379
637 378
638 377
638 376
639 375
639 374
639 373
639 372
639 371
640 370
640 369
640 368
640 367
640 366
640 365
640 364
640 363
640 362
641 361
641 360
641 359
642 358
643 358
644 359
645 359
646 360
647 360
648 361
649 361
650 362
651 363
652 363
653 364
654 364
655 365
656 365
657 366
658 367
659 367
660 368
661 368
662 369
663 369
664 370
665 371
666 371
667 372
668 372
669 373
670 373
671 374
672 375
673 376
674 377
675 378
675 379
676 378
676 377
677 376
678 375
679 374
679 373
680 372
680 371
681 370
682 370
682 369
682 368
682 367
682 366
682 365
683 364
683 363
683 362
683 361
683 360
683 359
683 358
683 357
682 356
682 355
682 354
682 353
681 352
682 351
683 351
684 351
685 351
686 351
687 351
688 351
689 351
690 351
691 351
692 351
693 351
694 351
695 351
696 351
697 351
698 351
699 351
699 350
698 349
698 348
698 347
697 346
697 345
696 344
696 343
695 342
695 341
694 340
693 339
693 338
692 337
691 336
691 335
690 334
689 333
688 332
688 331
687 330
686 329
685 328
684 327
683 326
683 325
682 324
682 323
683 322
684 322
685 322
686 322
687 322
688 322
689 322
690 322
691 322
692 321
693 321
694 321
695 321
696 321
697 321
698 321
699 321
700 321
701 321
702 321
703 321
704 320
705 319
706 319
707 318
708 318
709 318
710 317
711 317
711 316
711 315
711 314
710 313
710 312
709 311
708 310
708 309
707 308
707 307
707 306
706 305
706 304
705 303
705 302
705 301
706 300
707 300
708 299
709 298
710 297
711 297
712 296
712 295
711 295
710 294
709 293
708 293
707 292
706 292
705 291
704 290
703 289
703 288
703 287
702 286
701 285
701 284
700 283
700 282
701 281
702 281
703 280
704 280
705 279
706 278
707 277
708 276
709 275
710 274
710 273
711 272
712 271
712 270
712 269
711 269
710 268
709 268
708 267
707 267
706 266
705 265
704 264
703 264
702 264
701 263
700 263
699 263
698 262
697 262
696 262
695 261
694 261
693 260
693 259
693 258
693 257
694 256
694 255
695 254
696 253
696 252
697 251
698 250
697 250
696 249
695 249
694 248
693 247
693 246
694 245
694 244
695 243
696 242
697 241
697 240
696 240
695 239
694 238
694 237
694 236
695 235
695 234
696 233
696 232
696 231
697 230
697 229
697 228
697 227
698 226
698 225
698 224
698 223
699 222
699 221
699 220
699 219
698 219
697 219
696 219
695 219
694 219
693 219
692 219
691 219
690 219
689 219
688 219
687 219
686 219
685 219
684 218
684 217
683 216
682 216
681 217
680 217
679 217
678 217
677 217
676 217
675 218
674 218
673 218
672 218
671 218
670 219
669 219
668 219
667 220
666 220
665 221
664 221
663 221
662 222
661 222
660 223
659 223
658 224
657 224
656 224
655 224
654 223
654 222
654 221
654 220
655 219
655 218
655 217
655 216
655 215
655 214
655 213
655 212
655 211
655 210
655 209
655 208
655 207
655 206
655 205
655 204
655 203
655 202
655 201
655 200
655 199
655 198
655 197
655 196
656 195
656 194
656 193
656 192
656 191
656 190
655 190
654 191
653 191
652 191
651 191
650 190
650 189
649 188
649 187
649 186
649 185
648 184
648 183
647 182
647 181
646 180
645 179
645 178
644 177
643 176
643 175
643 174
642 173
641 173
640 174
639 175
638 175
637 176
636 177
635 177
634 178
633 178
632 179
631 180
630 181
629 181
628 182
627 183
626 184
625 185
624 186
623 187
622 188
621 189
620 189
619 188
619 187
619 186
618 185
618 184
617 183
617 182
617 181
616 180
616 179
615 178
615 177
615 176
615 175
614 174
614 173
614 172
613 172
612 173
611 174
610 175
609 176
608 177
607 177
606 177
605 176
604 175
603 174
602 173
601 172
600 171
599 171
598 170
598 169
597 169
596 168
595 167
594 167
593 166
592 166
591 165
590 165
589 164
588 164
587 164
587 165
586 166
585 165
584 165
583 165
582 165
581 165
580 165
579 165
578 165
577 165
576 166
576 167
575 168
575 169
574 170
574 171
574 172
574 173
573 174
573 175
573 176
573 177
573 178
572 179
572 180
572 181
572 182
572 183
572 184
572 185
571 186
571 187
571 188
571 189
571 190
571 191
570 192
569 193
568 192
567 192
566 192
565 191
564 191
563 190
562 190
561 190
560 189
559 189
558 189
557 189
556 189
555 188
554 188
553 188
552 188
551 188
550 188
549 188
548 188
547 188
546 188
545 189
545 190
544 191
543 192
542 193
541 193
540 193
539 193
538 193
537 194
536 194
535 194
535 195
535 196
535 197
535 198
535 199
535 200
535 201
534 202
534 203
534 204
533 205
532 206
531 206
530 206
529 206
528 207
527 207
526 208
525 208
524 208
523 209
523 210
522 211
521 211
520 212
519 213
519 214
519 215
520 216
521 217
521 218
522 219
522 220
522 221
522 222
522 223
522 224
521 225
520 226
519 227
518 228
517 229
516 229
515 230
514 231
514 232
513 233
512 234
512 235
511 236
511 237
510 238
510 239
510 240
509 241
509 242
509 243
510 244
511 243
512 243
513 242
514 241
515 241
516 241
517 241
518 241
519 241
520 240
521 240
522 240
523 240
524 240
525 241
526 241
527 241
528 242
528 243
529 244
529 245
530 245
531 246
532 247
533 247
534 248
535 248
536 249
537 250
537 251
537 252
537 253
538 254
539 255
540 255
541 256
542 256
543 257
544 258
545 258
546 259
547 259
548 259
549 260
550 260
551 260
552 261
553 261
554 262
555 262
556 263
557 264
558 264
559 265
560 265
561 266
562 267
563 268
563 269
562 270
563 270
564 271
565 271
566 271
567 271
568 272
569 272
570 272
571 273
572 273
573 273
574 274
575 274
576 275
577 275
578 275
579 276
580 277
581 277
582 277
583 278
584 278
585 279
586 279
587 280
587 281
588 282
589 283
589 284
589 285
589 286
589 287
588 288
587 288
586 289
585 289
584 290
583 290
582 291
581 291
580 291
579 292
578 292
577 293
576 293
575 293
574 293
573 293
572 294
571 294
570 294
569 294
568 294
567 294
566 294
565 294
564 294
563 294
562 294
561 294
560 294
559 294
558 294
557 294
556 294
555 294
554 294
553 294
552 294
551 294
550 294
549 294
548 294
547 294
546 294
545 294
544 294
543 294
542 294
541 294
540 294
539 294
538 293
537 293
536 293
535 293
534 293
533 293
532 293
531 293
530 293
529 293
528 293
527 293
526 293
525 293
524 293
523 293
522 293
521 293
520 292
519 292
518 292
517 292
516 292
515 292
514 292
513 292
512 292
511 292
510 292
509 292
508 292
507 292
506 292
505 291
504 291
503 291
502 291
501 291
500 291
499 291
498 291
497 291
496 290
495 290
494 290
493 290
492 290
491 290
490 290
489 290
488 290
487 290
486 290
485 290
484 290
483 290
482 289
481 289
480 289
479 289
478 289
477 289
476 288
475 288
474 288
473 288
472 288
471 288
470 287
469 287
468 287
467 287
466 287
465 287
464 286
463 286
462 286
461 286
460 285
459 285
458 285
457 285
456 284
455 284
454 284
453 283
452 283
451 283
450 282
449 282
448 281
447 280
446 280
445 279
444 279
443 278
442 278
441 277
440 276
439 275
438 274
437 273
436 272
435 271
434 270
433 269
432 268
432 267
431 266
430 265
429 264
429 263
428 262
428 261
427 260
427 259
427 258
426 257
426 256
425 255
425 254
424 253
424 252
424 251
423 250
423 249
423 248
422 247
422 246
421 245
421 244
421 243
420 242
420 241
420 240
419 239
419 238
419 237
418 236
418 235
418 234
417 233
417 232
417 231
416 230
416 229
416 228
416 227
416 226
415 225
415 224
415 223
415 222
415 221
414 220
414 219
414 218
414 217
414 216
414 215
413 214
413 213
413 212
413 211
413 210
412 209
412 208
412 207
412 206
412 205
412 204
412 203
411 202
411 201
411 200
411 199
411 198
410 197
410 196
410 195
410 194
409 193
409 192
409 191
409 190
409 189
408 188
408 187
408 186
408 185
408 184
407 183
407 182
407 181
407 180
407 179
406 178
406 177
406 176
406 175
406 174
406 173
406 172
406 171
406 170
406 169
406 168
406 167
406 166
406 165
406 164
406 163
406 162
406 161
406 160
406 159
406 158
406 157
406 156
406 155
406 154
405 154
404 154
403 155
402 155
401 155
400 154
399 153
399 152
399 151
399 150
399 149
399 148
399 147
399 146
399 145
399 144
398 143
398 142
398 141
397 140
397 139
397 138
396 137
396 136
395 135
395 134
394 133
393 132
392 133
391 133
391 134
390 135
389 135
388 136
387 137
386 137
385 138
384 139
383 139
382 140
381 139
380 138
380 137
380 136
379 135
379 134
379 133
379 132
378 131
378 130
378 129
377 128
377 127
377 126
377 125
376 124
376 123
376 122
376 121
375 120
375 119
374 118
374 117
374 116
373 115
373 114
373 113
372 112
372 111
372 110
371 109
371 108
370 107
369 106
369 105
368 104
368 103
367 102
366 101
366 100
365 100
364 100
363 101
362 102
361 103
360 103
359 102
358 102
357 101
356 100
355 99
354 99
353 98
352 98
351 97
350 97
349 96
348 96
347 96
346 97
345 98
345 99
345 100
345 101
344 102
344 103
344 104
343 105
343 106
342 107
341 108
340 107
339 106
338 105
338 104
337 103
336 102
336 101
335 100
335 99
334 98
333 97
332 96
331 95
330 94
329 93
328 92
327 91
326 90
325 89
324 89
323 88
322 88
321 87
320 86
319 86
318 86
