267 45
266 46
265 46
264 46
263 46
262 46
261 46
260 46
259 47
258 47
257 47
256 47
255 48
254 48
253 48
252 48
251 48
250 48
249 48
248 48
247 48
246 49
245 49
244 49
243 49
242 50
241 50
240 50
239 50
238 51
237 51
236 51
235 51
234 51
233 51
232 52
231 52
230 53
229 53
228 53
227 53
226 53
225 54
224 54
223 54
222 54
221 54
220 55
219 55
218 55
217 56
216 56
215 56
214 57
213 57
212 58
211 58
210 58
209 59
208 59
207 59
206 60
205 60
204 60
203 60
202 60
201 61
200 61
199 62
198 62
197 62
196 62
195 62
194 63
193 63
192 64
191 65
190 65
189 66
188 67
187 67
186 67
185 67
184 68
183 68
182 68
181 69
180 69
179 69
178 70
177 70
176 71
175 71
174 71
173 72
172 73
171 73
170 73
169 74
168 75
167 75
166 75
165 75
164 76
163 77
162 77
161 78
160 78
159 79
158 79
157 80
156 80
155 80
154 81
153 81
152 82
151 83
150 83
149 83
148 84
147 85
146 85
145 86
144 86
143 87
142 88
141 88
141 89
140 90
139 91
138 91
137 92
136 93
135 94
134 95
133 96
132 97
131 97
130 98
130 99
129 100
129 101
128 102
127 103
126 103
126 104
125 105
124 105
123 106
122 107
122 108
121 109
120 110
119 111
118 112
117 113
116 114
115 115
114 116
114 117
113 118
112 119
112 120
111 121
110 122
109 123
108 124
108 125
108 126
107 127
106 128
105 129
105 130
104 131
103 132
102 133
101 134
101 135
100 136
100 137
99 138
98 139
97 140
97 141
96 142
96 143
95 144
94 145
94 146
93 147
93 148
92 149
91 150
90 151
89 151
88 152
88 153
87 154
86 155
85 156
84 157
83 158
83 159
82 160
81 161
81 162
80 163
80 164
79 165
79 166
79 167
78 168
78 169
77 170
77 171
76 172
76 173
75 174
75 175
75 176
74 177
74 178
74 179
74 180
74 181
74 182
73 183
73 184
72 185
72 186
72 187
72 188
72 189
72 190
72 191
72 192
72 193
72 194
72 195
72 196
73 197
73 198
73 199
73 200
73 201
73 202
73 203
72 204
72 205
72 206
72 207
71 208
71 209
71 210
70 211
69 212
69 213
69 214
68 215
68 216
68 217
68 218
69 219
69 220
69 221
69 222
69 223
69 224
70 225
70 226
70 227
71 228
71 229
72 230
72 231
73 232
73 233
73 234
74 235
74 236
74 237
75 238
76 239
76 240
76 241
77 242
77 243
77 244
77 245
78 246
78 247
79 248
80 249
80 250
81 251
82 252
82 253
83 254
83 255
84 256
85 257
85 258
85 259
86 260
87 261
88 262
88 263
89 264
89 265
89 266
90 266
91 267
91 268
92 269
93 270
94 271
95 272
96 273
97 274
97 275
98 276
99 276
100 277
101 278
102 279
103 280
104 280
105 280
106 281
106 282
107 283
108 283
109 284
110 285
111 286
112 287
113 288
114 289
115 290
116 291
117 292
118 293
119 294
120 295
121 296
122 296
123 297
124 297
125 298
126 299
127 300
128 301
129 301
130 302
131 303
132 304
133 304
134 305
135 306
135 307
136 308
137 309
138 310
139 311
140 311
141 312
142 313
143 314
144 315
145 316
146 316
147 317
148 318
149 319
150 320
151 321
152 322
153 323
154 324
155 324
156 325
157 325
158 326
159 327
160 328
161 329
161 330
162 330
163 331
164 332
165 332
166 333
167 334
168 334
169 335
170 336
171 336
172 337
173 337
174 337
175 337
176 338
177 339
178 339
179 339
180 340
181 340
182 341
183 341
184 341
185 342
186 342
187 342
188 343
189 343
190 343
191 344
192 344
193 345
194 345
195 346
196 346
197 346
198 347
199 347
200 347
201 347
202 348
203 348
204 348
205 348
206 349
207 349
208 349
209 350
210 350
211 350
212 350
213 351
214 351
215 351
216 351
217 351
218 351
219 351
220 351
221 351
222 352
223 352
224 352
225 352
226 352
227 353
228 353
229 353
230 353
231 353
232 353
233 354
234 354
235 354
236 355
237 355
238 355
239 355
240 355
241 356
242 356
243 356
244 356
245 356
246 356
247 356
248 356
249 356
250 356
251 356
252 356
253 356
254 356
255 356
256 356
257 356
258 356
259 356
260 356
261 356
262 356
263 356
264 356
265 356
266 356
267 357
268 357
269 357
270 357
271 357
272 358
273 358
274 358
275 358
276 358
277 358
278 358
279 358
280 357
281 357
282 356
283 356
284 356
285 356
286 355
287 355
288 355
289 355
290 355
291 356
292 356
293 356
294 356
295 356
296 356
297 356
298 356
299 356
300 355
301 355
302 355
303 355
304 355
305 354
306 354
307 355
308 355
309 356
310 356
311 356
312 357
313 357
314 357
315 357
316 357
317 357
318 357
319 357
320 357
321 357
322 357
323 357
324 357
325 357
326 357
327 357
328 357
329 357
330 357
331 357
332 357
333 357
334 357
335 357
336 357
337 357
338 357
339 356
340 356
341 356
342 356
343 356
344 356
345 355
346 355
347 355
348 354
349 354
350 354
351 353
352 353
353 352
354 352
355 352
356 351
357 350
358 350
359 350
360 349
361 349
362 349
363 349
364 349
365 349
366 349
367 349
368 349
369 349
370 349
371 349
372 348
373 348
374 348
375 349
376 349
377 349
378 349
379 349
380 349
381 349
382 349
383 349
384 349
385 349
386 349
387 348
388 348
389 348
390 347
391 347
392 347
393 346
394 346
395 346
396 345
397 345
398 345
399 344
400 344
401 343
402 342
403 342
404 342
404 341
405 340
406 340
407 340
408 340
409 339
410 338
411 338
412 337
413 337
414 336
415 336
416 336
417 335
418 335
419 334
420 334
421 333
422 332
423 331
424 331
424 330
425 329
426 329
427 328
428 327
429 326
430 325
431 324
432 324
433 324
433 323
434 322
435 321
436 320
437 320
438 319
439 318
440 317
441 316
442 315
443 314
444 314
444 313
445 312
446 311
447 311
447 310
448 309
449 309
450 308
451 307
451 306
452 305
453 304
454 303
454 302
455 301
456 300
457 299
458 298
459 298
459 297
460 296
461 295
462 294
463 293
464 293
465 292
466 292
466 291
467 290
468 290
469 289
470 288
471 287
471 286
472 285
473 285
474 284
474 283
475 282
476 281
477 280
477 279
478 278
479 278
480 277
480 276
481 275
482 274
483 273
483 272
484 271
485 270
486 269
486 268
487 267
488 266
488 265
489 264
490 263
491 262
492 261
493 260
494 259
495 258
496 257
496 256
497 255
498 255
499 254
500 253
500 252
501 251
502 250
503 249
504 248
505 247
506 246
507 245
508 244
509 243
510 242
511 241
512 240
513 239
514 238
515 238
515 237
516 236
517 236
518 235
519 234
520 233
521 233
522 232
523 232
524 232
525 231
526 231
527 230
528 229
529 228
530 228
531 228
532 227
533 227
534 226
535 226
536 226
537 225
538 225
539 225
540 225
541 225
542 225
543 225
544 225
545 225
546 225
547 225
548 225
549 225
550 225
551 225
552 225
553 225
554 225
555 225
556 225
557 225
558 225
559 225
560 225
561 225
562 225
563 225
564 225
565 225
566 225
567 225
568 225
569 226
570 226
571 226
572 226
573 226
574 226
575 226
576 226
577 226
578 226
579 226
580 226
581 226
582 226
583 227
584 227
585 227
586 227
587 227
588 227
589 227
590 227
591 227
592 227
593 227
594 227
595 227
596 227
597 227
598 227
599 227
600 227
601 227
602 228
603 228
604 228
605 228
606 228
607 228
608 228
609 228
610 228
611 228
612 228
613 228
614 228
615 229
616 229
617 229
618 229
619 229
620 229
621 229
622 229
623 229
624 229
625 229
626 229
627 230
628 230
629 230
630 230
631 230
632 230
633 230
634 230
635 230
636 230
637 230
638 230
639 230
640 231
641 231
642 231
643 231
644 231
645 231
646 231
647 231
648 231
649 231
650 231
651 231
652 232
653 232
654 232
655 232
656 232
657 232
658 232
659 232
660 232
661 232
662 233
663 233
664 233
665 233
666 233
667 233
668 233
669 233
670 233
671 233
672 234
673 234
674 234
675 234
676 234
677 234
678 234
679 234
680 234
681 235
682 235
683 235
684 235
685 235
686 235
687 235
688 235
689 235
690 235
691 236
692 236
693 236
694 236
695 236
696 236
697 236
698 237
699 237
700 237
701 237
702 237
703 237
704 237
705 237
706 237
707 238
708 238
709 238
710 238
711 238
712 238
713 238
714 238
715 238
716 239
717 239
718 239
719 239
720 239
721 239
722 239
723 240
724 240
725 240
726 240
727 240
728 240
729 240
730 240
731 241
732 241
733 241
734 241
735 241
736 241
737 242
738 242
739 242
740 242
741 242
742 242
743 243
744 243
745 243
746 243
747 243
748 243
749 244
750 244
751 244
752 244
753 244
754 244
755 244
756 244
757 244
758 244
759 244
760 243
761 242
762 242
763 241
763 240
763 239
763 238
762 237
761 236
760 236
759 235
758 235
757 235
756 235
755 235
754 235
753 235
752 235
751 235
750 235
749 235
748 235
747 235
746 235
745 234
744 234
743 234
742 234
741 234
740 234
739 234
738 234
737 234
736 234
735 234
734 233
733 233
732 233
731 233
730 233
729 233
728 233
727 233
726 233
725 233
724 233
723 232
722 232
721 232
720 232
719 232
718 232
717 232
716 232
715 232
714 231
713 231
712 231
711 231
710 231
709 231
708 231
707 231
706 231
705 231
704 230
703 230
702 230
701 230
700 230
699 230
698 230
697 230
696 230
695 230
694 229
693 229
692 229
691 229
690 229
689 229
688 229
687 229
686 228
685 228
684 228
683 228
682 228
681 228
680 228
679 228
678 228
677 228
676 227
675 227
674 227
673 227
672 227
671 227
670 227
669 227
668 227
667 227
666 227
665 226
664 226
663 226
662 226
661 226
660 226
659 226
658 226
657 226
656 226
655 226
654 225
653 225
652 225
651 225
650 225
649 225
648 225
647 225
646 225
645 225
644 225
643 225
642 224
641 224
640 224
639 224
638 224
637 224
636 224
635 224
634 224
633 224
632 223
631 223
630 223
629 223
628 223
627 223
626 223
625 223
624 223
623 223
622 223
621 223
620 222
619 222
618 222
617 222
616 222
615 222
614 222
613 222
612 222
611 222
610 222
609 222
608 222
607 222
606 222
605 222
604 221
603 221
602 221
601 221
600 221
599 221
598 221
597 221
596 221
595 221
594 221
593 221
592 220
591 220
590 220
589 220
588 220
587 220
586 220
585 220
584 220
583 220
582 220
581 220
580 220
579 219
578 219
577 219
576 219
575 219
574 219
573 219
572 219
571 219
570 219
569 219
568 219
567 219
566 219
565 219
564 219
563 219
562 218
561 218
560 218
559 218
558 218
557 218
556 218
555 218
554 218
553 218
552 218
551 218
550 218
549 218
548 218
547 218
546 218
545 217
544 217
543 217
542 217
541 217
540 216
539 216
538 215
537 215
536 214
535 213
534 213
533 212
532 211
531 210
530 210
529 209
528 209
527 208
526 207
525 206
524 205
523 204
522 204
521 203
520 202
519 201
518 200
517 199
516 198
515 197
515 196
514 196
513 195
513 194
512 193
511 192
510 191
509 190
509 189
508 188
508 187
507 186
506 185
506 184
505 183
504 182
504 181
503 180
503 179
502 178
502 177
502 176
501 175
501 174
500 173
499 172
499 171
498 170
497 169
496 168
496 167
495 166
494 165
494 164
493 163
492 162
492 161
491 160
491 159
490 158
490 157
489 156
489 155
488 154
488 153
487 152
486 151
486 150
485 149
485 148
484 147
483 146
482 145
481 144
481 143
480 142
480 141
479 141
478 140
478 139
477 138
476 137
475 136
474 135
474 134
473 133
472 132
471 131
470 130
469 129
468 128
467 128
466 127
465 126
464 125
463 124
462 123
461 123
460 122
460 121
459 120
458 119
458 118
457 117
456 116
455 116
454 115
453 114
452 114
451 113
450 113
449 112
448 112
447 113
446 113
445 112
445 111
445 110
444 109
443 109
442 108
441 107
440 106
439 106
438 105
437 105
436 104
435 103
434 102
433 101
432 100
431 99
430 99
429 98
428 97
427 96
426 95
425 94
424 93
423 92
422 91
421 90
420 89
419 88
418 88
417 87
416 86
415 86
414 85
413 85
412 84
411 84
410 84
409 83
408 83
407 82
406 82
405 81
404 81
403 81
402 80
401 80
400 79
399 79
398 78
397 78
396 77
395 77
394 77
393 76
392 76
391 76
390 75
389 75
388 75
387 75
386 74
385 73
384 73
383 73
382 73
381 72
380 72
379 71
378 71
377 71
376 70
375 69
374 69
373 69
372 68
372 67
371 67
370 66
369 65
368 65
367 64
366 64
365 63
364 63
363 62
362 62
361 61
360 61
359 60
358 61
357 60
356 60
355 60
354 60
353 59
352 58
351 57
350 57
349 57
348 56
347 56
346 55
345 55
344 55
343 54
342 54
341 53
340 53
339 52
338 52
337 51
336 51
335 51
334 50
333 50
332 50
331 49
330 49
329 48
328 48
327 48
326 47
325 47
324 47
323 47
322 47
321 47
320 46
319 46
318 46
317 46
316 46
315 46
314 45
313 45
312 45
311 45
310 45
309 45
308 45
307 45
306 45
305 46
304 46
303 46
302 46
301 46
300 46
299 46
298 46
297 46
296 47
295 47
294 47
293 47
292 47
291 47
290 46
289 47
288 47
287 46
286 46
285 46
284 45
283 45
282 45
281 45
280 45
279 45
278 45
277 45
276 45
275 45
274 45
273 45
272 45
271 45
270 45
269 45
268 45
267 45
