265 125
264 126
263 126
262 126
261 126
260 126
259 126
258 127
257 127
256 128
255 128
254 128
253 129
252 129
251 129
250 129
249 129
248 129
247 129
246 129
245 129
244 129
243 129
242 129
241 129
240 129
239 129
238 129
237 129
236 128
235 128
234 128
233 128
232 128
231 128
230 128
229 128
228 128
227 128
227 129
226 130
225 129
224 130
224 131
223 132
223 133
223 134
222 135
221 136
221 137
220 138
221 139
220 140
219 140
218 140
218 141
217 142
217 143
216 144
215 145
214 145
213 146
213 147
212 148
211 148
210 148
209 149
208 149
207 150
206 150
205 151
204 152
203 152
202 152
201 152
200 153
199 154
198 154
198 155
197 156
196 156
195 156
194 156
193 157
192 157
191 158
190 158
189 159
188 159
188 160
187 161
186 161
185 161
184 162
183 163
182 163
181 163
180 164
179 164
178 165
177 166
176 167
175 167
174 168
173 168
172 169
171 169
170 170
169 171
168 172
167 173
166 174
165 174
164 175
163 176
162 177
161 177
160 178
159 179
158 180
157 180
156 181
156 182
155 183
154 183
154 184
153 185
152 186
151 187
150 188
150 189
150 190
149 191
148 191
147 192
146 193
145 193
145 194
144 195
143 196
142 197
141 198
140 199
140 200
139 201
138 202
138 203
137 204
137 205
136 206
135 207
134 208
133 209
132 210
131 211
131 212
130 213
129 214
129 215
128 216
127 217
127 218
127 219
126 220
125 221
124 222
124 223
123 224
123 225
122 226
121 227
120 228
120 229
119 230
118 231
117 232
116 233
115 234
114 234
113 235
113 236
113 237
114 238
114 239
114 240
114 241
114 242
114 243
114 244
115 245
115 246
115 247
116 248
115 249
115 250
116 251
116 252
116 253
116 254
116 255
116 256
117 257
117 258
117 259
117 260
117 261
117 262
117 263
118 264
118 265
118 266
118 267
118 268
118 269
119 270
119 271
119 272
119 273
119 274
120 275
120 276
120 277
121 278
121 279
121 280
122 281
122 282
122 283
122 284
123 285
123 286
124 287
124 288
125 289
125 290
125 291
126 292
126 293
126 294
126 295
127 296
127 297
127 298
128 299
128 300
129 301
129 302
130 303
130 304
131 305
131 306
132 307
132 308
132 309
133 310
133 311
134 312
134 313
135 314
135 315
136 316
136 317
136 318
137 319
137 320
138 321
138 322
139 323
139 324
139 325
140 326
140 327
141 328
141 329
142 330
142 331
142 332
143 333
143 334
144 335
145 336
145 337
146 338
146 339
147 340
147 341
147 342
148 343
149 344
149 345
149 346
150 347
150 348
151 349
151 350
151 351
152 352
153 353
154 354
154 355
155 356
155 357
156 358
157 359
157 360
158 361
158 362
159 363
160 364
160 365
160 366
161 367
161 368
162 369
162 370
163 371
163 372
164 373
164 374
165 375
165 376
165 377
166 378
166 379
167 380
167 381
168 382
168 383
169 384
170 385
170 386
171 387
171 388
172 389
172 390
173 391
173 392
174 393
175 394
175 395
176 396
177 397
177 398
178 399
179 400
180 401
180 402
181 403
182 404
183 405
184 406
185 407
186 408
187 409
188 410
189 411
190 412
191 413
192 414
193 415
193 416
194 416
195 417
196 417
197 418
198 419
198 420
199 420
200 421
200 422
201 422
202 423
203 424
204 424
205 425
206 426
207 426
208 427
209 428
210 428
211 429
212 429
213 430
214 431
215 431
216 432
217 432
218 433
219 434
220 434
221 435
222 435
223 436
224 436
225 437
226 437
227 438
228 439
229 439
230 440
231 440
232 441
233 441
234 442
235 442
236 443
237 443
238 444
239 444
240 445
241 445
242 446
243 446
244 447
245 448
246 448
247 449
248 449
249 450
250 451
251 452
252 452
253 453
253 454
254 455
255 456
255 457
256 458
256 459
257 460
257 461
257 462
257 463
258 464
259 464
260 465
261 466
262 466
263 466
264 466
265 466
266 466
267 466
268 466
269 466
270 466
271 467
272 467
273 467
274 467
275 467
276 467
277 467
278 467
279 467
280 467
281 467
282 467
283 467
284 467
285 467
286 467
287 467
288 467
289 467
290 467
291 468
292 468
293 468
294 468
295 468
296 468
297 468
298 468
299 468
300 468
301 468
302 468
303 468
304 468
305 468
306 468
307 468
308 468
309 468
310 468
311 468
312 468
313 468
314 468
315 468
316 468
317 468
318 468
319 468
320 468
321 468
322 468
323 468
324 468
325 468
326 468
327 468
328 468
329 468
330 468
331 468
332 468
333 469
334 468
335 469
336 469
337 469
338 469
339 469
340 469
341 469
342 469
343 469
344 469
345 469
346 469
347 469
348 470
349 470
350 470
351 470
352 470
353 470
354 470
355 470
356 470
357 470
358 470
359 470
360 470
361 470
362 470
363 470
364 470
365 470
366 470
367 470
368 470
369 470
370 470
371 470
372 470
373 470
374 470
375 470
376 470
377 470
378 470
379 470
380 470
381 470
382 470
383 470
384 470
385 470
386 470
387 470
388 469
389 469
390 469
391 469
392 469
393 469
394 469
395 469
396 469
397 469
398 469
399 468
400 468
401 468
402 468
403 468
404 468
405 468
406 468
407 468
408 468
409 467
410 467
411 467
412 467
413 467
414 467
415 467
416 467
417 466
418 466
419 466
420 466
421 466
422 466
423 466
424 466
425 466
426 466
427 466
428 466
429 466
430 465
431 465
432 465
433 465
434 465
435 465
436 465
437 465
438 464
439 464
440 464
441 464
442 463
443 463
444 463
445 463
446 463
447 463
448 463
449 463
450 462
451 462
452 462
453 462
454 462
455 462
456 461
457 461
458 461
459 461
460 461
461 461
462 460
463 460
464 460
465 460
466 459
467 459
468 459
469 459
470 458
471 458
472 457
473 457
474 457
475 457
476 456
477 456
478 455
479 455
480 455
481 454
482 454
483 454
484 454
485 453
486 453
487 452
488 451
489 451
490 450
491 450
492 450
493 449
494 448
495 447
496 447
497 446
498 446
499 446
500 445
501 445
502 444
503 444
504 444
505 443
506 442
507 442
508 441
509 441
510 440
511 440
512 439
513 438
514 438
515 437
516 437
517 436
518 436
519 436
520 435
521 434
522 434
523 434
524 433
525 432
526 432
527 431
528 431
529 430
530 429
531 428
532 428
533 427
534 427
535 426
536 426
537 425
538 424
539 424
540 423
541 422
542 422
543 421
544 420
545 419
546 418
547 417
548 416
549 416
550 415
551 414
552 413
553 413
554 412
555 411
556 411
557 410
558 409
559 409
560 408
561 407
562 406
563 405
564 404
565 403
566 402
567 401
568 400
569 399
570 399
570 398
571 397
572 396
573 395
574 394
575 393
576 392
576 391
577 390
578 389
579 388
580 387
581 386
582 385
583 384
584 383
584 382
585 381
586 380
586 379
587 378
587 377
588 376
589 375
590 374
591 373
592 372
592 371
593 370
594 369
594 368
595 367
595 366
596 365
596 364
597 363
597 362
598 361
598 360
599 359
599 358
600 357
601 356
601 355
602 354
602 353
602 352
602 351
603 350
603 349
603 348
603 347
604 346
604 345
604 344
604 343
604 342
605 341
605 340
605 339
606 338
606 337
607 336
608 336
608 335
609 334
610 334
611 333
612 333
613 333
614 333
615 333
616 333
617 332
618 332
619 332
620 332
621 332
622 332
623 332
624 332
625 331
626 331
627 331
628 331
629 331
630 331
631 331
632 331
633 331
634 331
635 331
636 331
637 331
638 331
639 330
640 330
641 330
642 330
643 330
644 330
645 330
646 330
647 330
648 330
649 330
650 329
651 329
652 329
653 329
654 329
655 329
656 329
657 329
658 329
659 329
660 329
661 329
662 329
663 329
664 329
665 329
666 329
667 329
668 328
669 328
670 328
671 328
672 328
673 328
674 328
675 328
676 328
677 328
678 328
679 328
680 328
681 328
682 328
683 328
684 329
685 329
686 329
687 329
688 329
689 329
690 329
691 329
692 329
693 329
694 329
695 329
696 329
697 329
698 329
699 329
700 329
701 329
702 329
703 329
704 328
705 327
706 326
706 325
707 324
708 323
709 322
710 321
710 320
710 319
709 318
708 317
708 316
709 315
708 314
707 313
706 312
705 312
704 312
703 311
702 311
701 311
700 311
699 312
698 312
697 311
696 311
695 311
694 311
693 311
692 311
691 311
690 311
689 311
688 311
687 311
686 311
685 311
684 311
683 311
682 311
681 312
680 312
679 312
678 311
677 311
676 312
675 312
674 312
673 311
672 312
671 312
670 312
669 313
668 312
667 312
666 312
665 312
664 313
663 312
662 312
661 312
660 312
659 312
658 312
657 312
656 312
655 312
654 312
653 312
652 312
651 312
650 312
649 312
648 312
647 312
646 311
645 311
644 312
643 312
642 312
641 312
640 311
639 311
638 311
637 311
636 312
635 312
634 311
633 311
632 310
632 309
631 308
630 307
629 306
629 305
629 304
628 303
628 302
627 301
626 300
626 299
626 298
625 297
625 296
625 295
624 294
623 293
623 292
623 291
622 290
622 289
621 288
620 287
620 286
619 285
619 284
618 283
617 282
617 281
616 280
615 279
614 278
613 277
612 277
611 276
611 275
610 274
609 273
608 272
607 272
606 271
606 270
605 269
604 268
603 268
602 267
602 266
601 265
600 264
599 263
598 262
597 261
596 260
595 259
594 258
593 257
592 256
592 255
591 254
590 253
589 252
588 251
587 250
587 249
586 248
585 247
584 246
583 245
582 244
581 243
581 242
580 241
579 240
578 239
577 238
576 237
575 236
574 235
573 234
572 233
571 232
570 231
569 230
568 229
567 228
566 228
565 227
564 226
563 225
562 225
561 224
560 223
559 222
558 221
557 220
556 220
555 219
554 218
553 217
552 217
551 216
550 215
549 214
548 213
547 212
546 212
545 211
544 210
543 209
542 208
541 208
540 207
539 206
538 205
537 204
536 203
535 203
534 203
533 202
532 201
531 200
530 200
529 199
528 199
527 198
526 198
525 197
525 196
524 196
523 195
522 194
521 193
520 193
519 193
518 192
517 191
516 190
515 190
514 189
513 188
512 188
511 187
510 186
509 186
508 185
507 184
506 184
505 183
504 183
503 183
502 182
501 181
500 181
499 181
498 181
497 180
496 180
495 179
494 179
493 179
492 178
491 178
490 177
489 177
488 177
487 176
486 176
485 176
484 176
483 175
482 174
481 174
480 174
479 174
478 173
477 173
476 173
475 172
474 172
473 172
472 172
471 172
470 172
469 171
468 171
467 171
466 170
465 170
464 170
463 170
462 169
461 169
460 169
459 168
458 168
457 168
456 168
455 168
454 168
453 168
452 168
451 167
450 167
449 167
448 167
447 166
446 166
445 166
444 165
443 165
442 165
441 165
440 164
439 163
438 164
437 164
436 164
435 163
434 162
433 162
432 163
431 163
430 163
429 162
428 162
427 162
426 162
425 161
424 161
423 161
422 160
421 160
420 160
419 160
418 159
417 159
416 159
415 159
414 159
413 158
412 158
411 157
410 157
409 157
408 156
407 156
406 155
405 155
404 155
403 155
402 154
401 154
400 154
399 154
398 154
397 153
396 153
395 153
394 153
393 152
392 152
391 152
390 152
389 152
388 152
387 151
386 151
385 151
384 151
383 150
382 150
381 151
380 150
379 149
378 149
377 149
376 149
375 148
374 149
373 149
372 148
371 147
370 147
369 147
368 147
367 146
366 146
365 145
364 145
363 145
362 144
361 144
360 143
359 143
358 143
357 143
356 143
355 142
354 142
353 141
352 140
351 140
350 140
349 140
348 139
347 139
346 139
345 138
344 138
343 138
342 138
341 138
340 138
339 137
338 137
337 136
336 137
335 136
334 136
333 135
332 135
331 135
330 135
329 135
328 135
327 135
326 135
325 134
324 133
323 133
322 133
321 132
320 132
319 132
318 132
317 131
316 131
315 131
314 131
313 131
312 131
311 130
310 130
309 130
308 130
307 130
306 130
305 130
304 130
303 130
302 129
301 129
300 129
299 129
298 129
297 128
296 128
295 128
294 127
293 127
292 127
291 127
290 127
289 127
288 127
287 127
286 126
285 126
284 126
283 126
282 126
281 126
280 126
279 126
278 126
277 126
276 126
275 125
274 125
273 125
272 125
271 125
270 125
269 125
268 125
267 125
266 125
265 125
