415 33
414 34
413 34
412 34
411 34
410 34
409 34
408 34
407 34
406 34
405 35
404 35
403 35
402 35
401 35
400 35
399 35
398 35
397 35
396 35
395 35
394 35
393 35
392 35
391 35
390 35
389 35
388 36
387 36
386 36
385 36
384 36
383 36
382 36
381 36
380 36
379 36
378 36
377 36
376 36
375 36
374 36
373 36
372 36
371 36
370 36
369 36
368 36
367 36
366 36
365 37
364 37
363 37
362 37
361 37
360 37
359 37
358 37
357 37
356 37
355 38
354 38
353 38
352 38
351 38
350 38
349 38
348 38
347 38
346 39
345 39
344 39
343 39
342 39
341 39
340 39
339 39
338 40
337 40
336 40
335 40
334 40
333 40
332 40
331 40
330 40
329 40
328 41
327 41
326 41
325 41
324 41
323 41
322 42
321 42
320 42
319 42
318 42
317 43
316 43
315 43
314 43
313 43
312 43
311 43
310 43
309 44
308 44
307 44
306 44
305 44
304 44
303 44
302 45
301 45
300 45
299 45
298 45
297 45
296 46
295 46
294 46
293 46
292 46
291 46
290 46
289 47
288 47
287 47
286 47
285 47
284 48
283 48
282 48
281 48
280 48
279 49
278 49
277 49
276 49
275 49
274 49
273 49
272 49
271 49
270 50
269 50
268 50
267 50
266 50
265 50
264 50
263 50
262 50
261 51
260 51
259 51
258 51
257 51
256 51
255 52
254 52
253 52
252 52
251 52
250 53
249 53
248 53
247 53
246 53
245 54
244 54
243 54
242 54
241 54
240 55
239 55
238 55
237 55
236 55
235 56
234 56
233 56
232 56
231 56
230 57
229 57
228 57
227 57
226 58
225 58
224 58
223 58
222 59
221 59
220 59
219 59
218 60
217 60
216 60
215 60
214 61
213 61
212 61
211 61
210 61
209 61
208 62
207 62
206 62
205 62
204 62
203 62
202 63
201 63
200 63
199 63
198 63
197 64
196 64
195 64
194 64
193 64
192 64
191 65
190 65
189 65
188 65
187 66
186 66
185 66
184 67
183 67
182 68
181 68
180 69
179 69
178 69
177 70
176 70
175 71
174 71
173 71
172 71
171 71
170 72
169 72
168 72
167 72
166 73
165 73
164 73
163 74
162 74
161 74
160 75
159 75
158 75
157 75
156 75
155 76
154 76
153 76
152 77
151 77
150 77
149 77
148 78
147 78
146 78
145 78
144 79
143 79
142 79
141 80
140 80
139 80
138 81
137 81
136 81
135 81
134 81
133 82
132 82
131 82
130 83
129 83
128 84
127 84
126 84
125 84
124 85
123 85
122 85
121 86
120 86
119 87
118 87
117 87
116 88
115 88
114 88
113 89
112 89
111 90
110 90
109 90
108 91
107 91
106 91
105 92
104 92
103 93
102 93
101 93
100 93
99 94
98 94
97 94
96 95
95 95
94 95
93 96
92 96
91 97
90 97
89 97
88 98
87 98
86 98
85 99
84 99
83 99
82 100
81 100
80 100
79 101
78 101
77 102
76 102
75 103
74 103
73 104
72 104
71 105
70 105
69 105
68 106
67 106
66 107
65 107
64 108
63 109
62 109
61 110
60 110
59 111
58 111
57 112
56 113
55 113
54 114
53 114
52 115
51 115
50 116
49 116
48 117
47 118
46 118
45 119
44 119
43 120
42 121
41 121
40 122
39 122
38 123
37 123
36 124
35 124
34 125
33 125
32 126
31 126
30 127
29 127
30 127
31 127
32 127
33 127
34 127
35 127
36 128
37 128
38 128
39 128
40 128
41 128
42 129
43 129
44 129
45 129
46 129
47 129
48 129
49 130
50 130
51 130
52 130
53 130
54 131
55 131
56 131
57 131
58 131
59 131
60 132
61 132
62 132
63 132
64 132
65 133
66 133
67 133
68 133
69 133
70 133
71 133
72 134
73 134
74 134
75 134
76 134
77 134
78 135
79 135
80 135
81 135
82 135
83 135
84 135
85 135
86 136
87 136
88 136
89 136
90 136
91 136
92 136
93 136
94 136
95 136
96 137
97 137
98 137
99 137
100 137
101 137
102 137
103 138
104 138
105 138
106 138
107 138
108 138
109 138
110 139
111 139
112 139
113 139
114 139
115 140
116 140
117 140
118 140
119 140
120 140
121 140
122 140
123 140
124 140
125 140
126 140
127 141
128 141
129 141
130 141
131 141
132 141
133 141
134 141
135 141
136 141
137 141
138 141
139 141
140 141
141 141
142 141
143 141
144 141
145 142
146 142
147 142
148 142
149 142
150 142
151 142
152 142
153 142
154 142
155 142
156 142
157 142
158 142
159 142
160 142
161 142
162 142
163 142
164 142
165 142
166 142
167 142
168 143
169 143
170 143
171 143
172 143
173 142
174 143
175 143
176 143
177 143
178 143
179 143
180 144
181 144
182 144
183 144
184 144
185 144
186 144
187 144
188 144
189 144
190 144
191 144
192 145
193 145
194 145
195 145
196 145
197 145
198 145
199 145
200 145
201 145
202 145
203 145
204 146
205 146
206 145
207 145
208 145
209 145
210 145
211 146
212 146
213 146
214 146
215 146
216 146
217 146
218 146
219 146
220 146
221 147
222 147
223 147
224 147
225 147
226 147
227 147
228 147
229 147
230 147
231 147
232 147
233 147
234 147
235 147
236 147
237 147
238 147
239 147
240 147
241 147
242 147
243 147
244 147
245 147
246 147
247 147
248 147
249 147
250 147
251 147
252 147
253 147
254 147
255 147
256 147
257 147
258 147
259 147
260 147
261 147
262 147
263 147
264 148
265 148
266 147
267 147
268 147
269 147
270 147
271 148
272 148
273 148
274 148
275 148
276 148
277 148
278 148
279 148
280 148
281 148
282 148
283 148
284 148
285 148
286 148
287 148
288 148
289 148
290 148
291 148
292 148
293 148
294 148
295 148
296 148
297 148
298 148
299 148
300 148
301 148
302 148
303 148
304 148
305 148
306 148
307 148
308 148
309 148
310 148
311 148
312 148
313 148
314 148
315 148
316 148
317 148
318 148
319 148
320 148
321 148
322 148
323 148
324 147
325 147
326 147
327 147
328 147
329 147
330 147
331 147
332 147
333 147
334 147
335 147
336 147
337 147
338 147
339 147
340 147
341 147
342 147
343 147
344 147
345 147
346 147
347 147
348 147
349 147
350 147
351 147
352 146
353 147
354 147
355 147
356 146
357 146
358 146
359 146
360 146
361 146
362 147
363 146
364 146
365 146
366 146
367 146
368 146
369 146
370 146
371 145
372 145
373 145
374 145
375 145
376 145
377 145
378 144
379 144
380 144
381 144
382 144
383 144
384 144
385 144
386 144
387 144
388 144
389 144
390 143
391 143
392 143
393 143
394 143
395 143
396 143
397 143
398 142
399 142
400 142
401 142
402 142
403 142
404 142
405 141
406 141
407 141
408 141
409 141
410 141
411 140
412 140
413 140
414 141
415 140
416 140
417 140
418 140
419 140
420 140
421 140
422 140
423 139
424 139
425 140
426 139
427 139
428 139
429 139
430 139
431 139
432 139
433 139
434 139
435 139
436 139
437 138
438 138
439 138
440 138
441 138
442 138
443 138
444 137
445 137
446 137
447 137
448 137
449 137
450 137
451 137
452 137
453 137
454 136
455 136
456 136
457 136
458 136
459 136
460 136
461 135
462 135
463 135
464 135
465 135
466 135
467 134
468 134
469 134
470 134
471 134
472 134
473 134
474 134
475 134
476 134
477 134
478 134
479 134
480 134
481 134
482 134
483 134
484 134
485 134
486 134
487 133
488 133
489 133
490 133
491 133
492 133
493 133
494 133
495 133
496 133
497 132
498 132
499 132
500 132
501 132
502 132
503 132
504 131
505 131
506 131
507 131
508 131
509 131
510 131
511 131
512 130
513 130
514 129
515 129
516 129
517 129
518 129
519 129
520 129
521 129
522 129
523 129
524 129
525 129
526 129
527 129
528 129
529 128
530 128
531 128
532 128
533 128
534 128
535 128
536 128
537 128
538 128
539 128
540 128
541 128
542 128
543 128
544 128
545 128
546 127
547 127
548 127
549 127
550 127
551 127
552 127
553 127
554 127
555 127
556 127
557 127
558 126
559 126
560 126
561 126
562 126
563 126
564 126
565 126
566 126
567 126
568 125
569 125
570 125
571 125
572 125
573 125
574 125
575 125
576 124
577 124
578 124
579 124
580 124
581 124
582 124
583 124
584 123
585 123
586 123
587 123
588 123
589 123
590 123
591 122
592 122
593 122
594 122
595 122
596 122
597 122
598 122
599 122
600 121
601 122
602 122
603 122
604 121
605 121
606 121
607 121
608 120
609 120
610 120
611 120
612 120
613 120
614 120
615 120
616 120
617 120
618 119
619 119
620 119
621 119
622 119
623 119
624 119
625 119
626 118
627 118
628 118
629 118
630 118
631 118
632 117
633 117
634 117
635 117
636 117
637 117
638 117
639 117
640 116
641 116
642 116
643 116
644 116
645 116
646 116
647 115
648 116
649 115
650 115
651 115
652 115
653 115
654 114
655 114
656 114
657 114
658 114
659 114
660 113
661 113
662 113
663 113
664 112
665 112
666 112
667 112
668 112
669 112
670 112
671 111
672 111
673 111
674 111
675 110
676 110
677 110
678 110
679 110
680 110
681 110
682 109
683 109
684 109
685 109
686 108
687 109
688 108
689 109
690 108
691 108
692 108
693 108
694 108
695 107
696 107
697 107
698 106
699 106
700 106
701 106
702 105
703 105
704 105
705 104
706 104
707 104
708 103
709 103
710 103
711 103
712 102
713 102
714 102
715 101
716 101
717 101
718 101
719 101
720 100
721 100
722 100
723 100
724 99
725 99
726 99
727 98
728 98
729 98
730 97
731 97
732 96
733 96
734 96
735 96
736 96
737 95
738 95
739 95
740 95
741 95
742 94
743 94
744 94
745 94
746 94
747 94
748 95
749 95
750 95
751 95
752 95
753 95
754 95
755 95
756 96
757 96
758 96
759 96
760 96
761 97
762 97
763 97
764 97
765 98
766 98
767 98
768 98
769 98
770 98
770 97
770 96
769 95
769 94
769 93
769 92
769 91
769 90
769 89
769 88
769 87
769 86
768 85
768 84
767 83
766 84
765 83
764 83
763 83
762 83
761 83
760 83
759 83
758 83
757 83
756 83
755 83
754 83
753 83
752 83
751 83
750 83
749 83
748 83
747 83
746 83
745 83
744 83
743 83
742 82
741 82
740 82
739 82
738 81
737 81
736 81
735 80
734 80
733 80
732 79
731 79
730 78
729 78
728 78
727 77
726 77
725 77
724 76
723 76
722 76
721 75
720 75
719 74
718 74
717 74
716 73
715 73
714 73
713 72
712 72
711 72
710 71
709 71
708 71
707 70
706 70
705 70
704 69
703 69
702 68
701 68
700 68
699 67
698 67
697 67
696 66
695 66
694 66
693 66
692 65
691 65
690 65
689 64
688 64
687 63
686 63
685 63
684 63
683 62
682 62
681 62
680 61
679 61
678 61
677 60
676 60
675 60
674 60
673 59
672 59
671 58
670 58
669 58
668 58
667 58
666 57
665 57
664 56
663 56
662 56
661 56
660 55
659 55
658 55
657 55
656 54
655 54
654 54
653 53
652 53
651 53
650 53
649 53
648 52
647 52
646 52
645 52
644 51
643 51
642 51
641 50
640 50
639 50
638 50
637 50
636 49
635 49
634 49
633 49
632 48
631 48
630 48
629 48
628 47
627 47
626 47
625 47
624 47
623 46
622 46
621 46
620 46
619 45
618 45
617 45
616 45
615 45
614 45
613 44
612 44
611 44
610 44
609 44
608 44
607 43
606 43
605 43
604 43
603 43
602 43
601 43
600 42
599 42
598 42
597 42
596 42
595 42
594 42
593 41
592 41
591 41
590 41
589 41
588 41
587 41
586 41
585 40
584 40
583 40
582 40
581 40
580 40
579 40
578 39
577 39
576 39
575 39
574 39
573 39
572 39
571 39
570 39
569 39
568 39
567 39
566 39
565 38
564 38
563 38
562 38
561 38
560 38
559 38
558 37
557 37
556 37
555 37
554 37
553 37
552 37
551 37
550 37
549 36
548 36
547 36
546 36
545 36
544 36
543 36
542 36
541 36
540 36
539 36
538 36
537 35
536 35
535 35
534 35
533 35
532 35
531 35
530 35
529 35
528 35
527 35
526 35
525 34
524 34
523 34
522 34
521 34
520 34
519 34
518 34
517 34
516 34
515 34
514 34
513 34
512 34
511 34
510 34
509 33
508 33
507 33
506 33
505 33
504 33
503 33
502 33
501 33
500 33
499 34
498 34
497 34
496 33
495 33
494 33
493 33
492 33
491 33
490 33
489 33
488 33
487 33
486 33
485 33
484 33
483 33
482 33
481 33
480 33
479 33
478 33
477 33
476 33
475 33
474 33
473 33
472 33
471 33
470 33
469 33
468 33
467 33
466 33
465 33
464 33
463 33
462 33
461 33
460 33
459 33
458 33
457 33
456 33
455 33
454 33
453 33
452 33
451 33
450 33
449 33
448 33
447 33
446 33
445 33
444 33
443 33
442 33
441 33
440 33
439 33
438 33
437 33
436 33
435 33
434 33
433 33
432 33
431 33
430 33
429 33
428 33
427 33
426 33
425 33
424 33
423 33
422 33
421 33
420 33
419 33
418 33
417 33
416 33
415 33
