466 16
465 17
465 18
464 19
464 20
463 21
462 22
461 23
460 24
460 25
460 26
460 27
459 28
459 29
459 30
459 31
459 32
459 33
459 34
459 35
458 36
458 37
458 38
458 39
458 40
458 41
458 42
458 43
458 44
458 45
458 46
458 47
458 48
458 49
458 50
458 51
458 52
458 53
458 54
458 55
458 56
458 57
458 58
458 59
458 60
458 61
458 62
458 63
458 64
458 65
458 66
458 67
458 68
458 69
458 70
458 71
457 72
457 73
457 74
457 75
457 76
457 77
457 78
457 79
456 80
456 81
456 82
455 83
455 84
455 85
454 86
454 87
454 88
454 89
453 90
453 91
453 92
453 93
453 94
453 95
452 96
452 97
452 98
452 99
452 100
452 101
452 102
452 103
452 104
452 105
452 106
452 107
452 108
452 109
452 110
452 111
452 112
452 113
452 114
452 115
453 116
453 117
453 118
453 119
454 120
454 121
454 122
454 123
454 124
454 125
454 126
454 127
454 128
454 129
454 130
454 131
454 132
455 133
455 134
455 135
455 136
455 137
455 138
455 139
455 140
455 141
455 142
456 143
456 144
456 145
456 146
456 147
456 148
456 149
456 150
456 151
456 152
456 153
456 154
456 155
456 156
456 157
456 158
456 159
456 160
456 161
457 162
457 163
457 164
458 165
458 166
458 167
458 168
459 169
459 170
460 171
460 172
460 173
461 174
461 175
461 176
462 177
462 178
462 179
463 180
463 181
464 182
464 183
464 184
465 185
465 186
465 187
465 188
466 189
466 190
466 191
466 192
466 193
466 194
466 195
466 196
466 197
466 198
466 199
466 200
466 201
466 202
466 203
467 204
467 205
467 206
467 207
467 208
468 209
468 210
468 211
469 212
469 213
469 214
470 215
470 216
471 217
471 218
472 219
472 220
473 221
473 222
474 223
475 224
476 225
476 226
476 227
477 228
477 229
478 230
479 231
479 232
480 233
480 234
481 235
481 236
482 237
483 238
483 239
484 240
485 241
486 242
487 243
488 244
489 245
490 246
491 247
492 248
492 249
493 250
494 251
495 252
496 253
497 254
498 255
499 256
500 257
500 258
501 259
502 260
502 261
502 262
503 263
504 264
504 265
505 266
505 267
505 268
505 269
506 270
507 271
508 272
509 272
510 272
511 273
511 274
510 275
509 274
508 274
507 274
506 273
505 273
504 272
503 271
502 270
501 270
500 269
499 268
498 268
497 267
496 266
495 265
494 264
493 263
492 262
491 261
491 260
490 259
489 258
489 257
488 256
487 255
487 254
486 253
486 252
485 251
484 250
484 249
484 248
483 247
483 246
482 245
482 244
481 243
481 242
480 241
480 240
479 239
479 238
478 237
477 236
477 235
476 234
475 233
475 232
474 231
474 230
473 229
472 228
472 227
471 226
470 225
470 224
469 223
468 222
467 221
467 220
466 219
465 218
464 217
463 216
462 215
461 214
460 213
459 213
458 212
457 211
456 211
455 210
454 209
453 209
452 208
451 207
450 206
449 205
448 204
447 204
446 203
445 202
444 201
443 200
442 199
441 198
440 198
439 197
438 196
437 196
436 195
435 194
434 193
433 192
432 191
431 190
430 189
429 188
428 188
427 187
426 186
425 185
424 185
423 184
422 183
421 182
420 181
419 180
418 180
417 179
416 178
415 177
414 176
413 176
412 175
412 174
411 174
410 173
409 172
408 171
407 170
406 170
405 169
405 168
404 168
403 167
402 167
401 166
400 165
399 165
398 164
397 163
396 162
395 162
394 161
393 161
392 160
391 160
390 159
389 158
388 157
387 157
386 156
385 156
384 157
383 156
383 155
382 154
381 153
380 153
379 152
378 151
377 151
376 150
375 150
374 149
373 148
372 147
371 147
370 146
369 145
368 144
367 143
366 143
365 142
364 141
363 140
362 139
361 138
360 137
359 137
358 136
357 136
356 135
355 135
354 134
353 133
352 132
351 132
350 131
349 130
348 130
347 129
346 129
345 128
344 127
343 127
342 126
341 125
340 125
339 124
338 123
337 123
336 122
335 122
334 121
333 121
332 120
331 119
330 119
329 118
328 118
327 117
326 116
325 116
324 115
323 114
322 114
321 113
320 113
319 113
318 112
317 112
316 112
315 111
314 111
313 111
312 110
311 110
310 109
309 109
308 108
307 108
306 107
305 107
304 106
303 106
302 106
301 106
300 106
299 105
298 104
297 103
296 103
295 102
294 102
293 102
292 101
291 101
290 101
289 100
288 100
287 100
286 99
285 99
284 98
283 98
282 97
281 97
280 96
279 96
278 96
277 96
276 95
275 95
274 94
273 94
272 93
271 93
270 93
269 92
268 92
267 92
266 91
265 91
264 90
263 90
262 89
261 88
260 88
259 88
258 87
257 86
256 86
255 86
254 85
253 85
252 85
251 85
250 85
249 84
248 83
247 83
246 82
245 81
244 81
243 81
242 80
241 80
240 79
239 79
238 78
237 78
236 77
235 77
234 77
233 76
232 75
231 75
230 74
229 74
228 74
227 73
226 73
225 72
224 71
223 71
222 70
221 70
220 70
219 69
218 69
217 69
216 69
215 68
214 67
214 68
213 69
212 69
211 68
210 67
210 66
209 66
208 66
208 67
208 68
208 69
208 70
209 71
209 72
209 73
210 74
211 75
211 76
212 77
213 78
214 79
214 80
215 81
216 82
217 83
217 84
218 85
219 86
219 87
220 88
221 89
222 90
222 91
223 92
224 93
224 94
225 95
225 96
226 97
226 98
227 99
228 100
229 100
230 101
230 102
231 103
231 104
232 105
233 106
233 107
234 108
234 109
235 110
236 111
236 112
237 113
238 114
238 115
239 116
240 117
241 118
241 119
242 120
243 121
244 122
245 123
246 124
246 125
247 126
248 127
249 128
250 129
251 130
251 131
252 132
253 133
254 134
255 135
256 136
257 137
257 138
258 139
259 140
260 141
261 142
262 143
263 144
264 145
265 146
265 147
266 148
267 149
268 150
269 151
270 152
271 153
272 154
273 155
274 156
275 157
276 158
277 158
278 159
279 160
280 161
281 162
281 163
282 164
283 165
284 166
285 166
286 167
287 168
288 169
289 170
290 170
291 171
292 172
293 173
294 173
295 174
296 175
297 176
298 177
299 178
300 179
301 180
302 181
303 181
304 182
305 183
306 183
307 184
307 185
308 185
309 186
310 187
311 188
312 189
313 190
314 191
315 192
316 193
317 193
318 194
318 195
319 196
320 197
321 197
322 198
323 199
324 200
325 201
326 202
327 203
328 204
329 205
329 206
330 207
331 208
332 209
332 210
333 211
334 212
335 213
336 213
337 214
337 215
338 215
339 216
340 217
341 218
342 219
343 219
344 220
345 220
346 221
347 222
348 222
349 223
350 224
351 224
352 225
353 226
354 226
355 227
356 227
357 228
358 228
359 229
360 229
361 230
362 230
363 231
364 232
365 232
366 233
367 234
367 235
367 236
366 237
365 237
364 237
363 237
362 237
361 237
360 237
359 237
358 237
357 237
356 237
355 236
354 236
353 236
352 236
351 236
350 236
349 236
348 236
347 236
346 236
345 236
344 236
343 236
342 236
341 236
340 236
339 236
338 236
337 235
336 235
335 235
334 235
333 235
332 235
331 235
330 235
329 235
328 235
327 235
326 235
325 235
324 235
323 235
322 235
321 235
320 235
319 235
318 235
317 235
316 235
315 235
314 235
313 235
312 235
311 235
310 235
309 235
308 235
307 235
306 235
305 235
304 235
303 235
302 235
301 235
300 235
299 235
298 235
297 235
296 235
295 234
294 234
293 234
292 234
291 234
290 234
289 234
288 234
287 234
286 234
285 234
284 233
283 233
282 233
281 233
280 233
279 233
278 232
277 232
276 232
275 232
274 232
273 232
272 232
271 232
270 232
269 232
268 232
267 231
266 231
265 231
264 231
263 231
262 231
261 231
260 231
259 231
258 231
257 230
256 230
255 230
254 231
253 231
252 231
251 231
250 231
249 231
248 231
247 231
246 231
245 231
244 232
243 232
242 232
241 232
240 233
239 233
238 233
237 233
236 234
235 235
234 235
233 235
232 236
231 236
230 237
229 237
228 237
227 238
226 238
225 238
224 239
223 239
222 239
221 239
220 240
219 240
218 240
217 240
216 241
215 241
214 241
213 241
212 242
211 242
210 242
209 242
208 243
207 243
206 243
205 243
204 244
203 244
202 244
201 244
200 244
199 245
198 245
197 245
196 245
195 245
194 246
193 246
192 246
191 246
190 247
189 247
188 247
187 248
186 248
185 248
184 249
183 249
182 249
181 250
180 250
179 250
178 250
177 250
176 250
175 251
174 251
173 251
172 251
171 252
170 252
169 252
168 253
167 253
166 253
165 253
164 254
163 254
162 254
161 255
160 255
159 255
158 256
157 256
156 257
155 257
154 257
153 258
152 258
151 258
150 259
149 259
148 260
147 260
146 260
145 261
144 261
143 262
142 262
141 262
140 263
139 263
138 263
137 264
136 264
135 264
134 265
133 265
132 265
131 266
130 266
129 267
128 267
127 268
126 268
125 268
124 268
123 269
122 269
121 269
120 270
119 270
118 270
117 271
116 272
115 272
114 272
113 273
112 273
111 274
110 274
109 274
108 275
107 276
106 276
105 277
104 278
103 278
102 279
101 279
100 280
99 280
98 281
97 281
96 282
95 282
94 283
93 283
92 284
91 285
92 286
92 287
91 288
90 288
89 287
88 288
89 288
90 288
91 288
92 288
93 288
94 288
95 288
96 289
97 289
98 289
99 289
100 289
101 290
102 290
103 290
104 290
105 290
106 290
107 290
108 290
109 291
110 291
111 291
112 291
113 292
114 292
115 292
116 292
117 293
118 293
119 293
120 293
121 293
122 293
123 293
124 293
125 293
126 293
127 293
128 293
129 294
130 294
131 294
132 294
133 294
134 294
135 294
136 294
137 294
138 294
139 294
140 294
141 294
142 295
143 295
144 295
145 295
146 296
147 296
148 296
149 296
150 296
151 296
152 296
153 296
154 296
155 297
156 297
157 297
158 297
159 297
160 297
161 298
162 298
163 298
164 298
165 298
166 298
167 299
168 299
169 299
170 299
171 300
172 300
173 300
174 300
175 301
176 301
177 302
178 302
179 302
180 303
181 303
182 303
183 303
184 303
185 304
186 304
187 304
188 304
189 305
190 305
191 305
192 305
193 306
194 306
195 306
196 306
197 307
198 307
199 308
200 308
201 308
202 308
203 309
204 309
205 309
206 309
207 309
208 310
209 310
210 310
211 310
212 310
213 310
214 311
215 311
216 311
217 311
218 312
219 312
220 312
221 312
222 312
223 312
224 312
225 313
226 313
227 313
228 313
229 313
230 313
231 314
232 314
233 314
234 314
235 314
236 315
237 315
238 315
239 315
240 315
241 316
242 316
243 316
244 316
245 316
246 316
247 317
248 317
249 317
250 317
251 317
252 317
253 317
254 317
255 317
256 318
257 318
258 318
259 318
260 318
261 318
262 318
263 318
264 318
265 318
266 318
267 318
268 318
269 318
270 318
271 318
272 318
273 318
274 318
275 318
276 318
277 318
278 319
279 319
280 319
281 319
282 319
283 319
284 319
285 319
286 319
287 319
288 320
289 320
290 320
291 320
292 320
293 320
294 320
295 320
296 320
297 320
298 320
299 320
300 320
301 321
302 321
303 321
304 321
305 321
306 321
307 321
308 321
309 321
310 321
311 321
312 321
313 321
314 321
315 321
316 321
317 321
318 321
319 321
320 321
321 322
322 322
323 322
324 322
325 322
326 322
327 322
328 322
329 322
330 322
331 322
332 322
333 322
334 322
335 322
336 322
337 322
338 322
339 322
340 322
341 322
342 322
343 322
344 322
345 322
346 322
347 322
348 322
349 322
350 322
351 322
352 322
353 322
354 322
355 322
356 321
357 321
358 321
359 321
360 321
361 321
362 321
363 321
364 320
365 320
366 320
367 320
368 320
369 320
370 320
371 320
372 320
373 320
374 320
375 320
376 320
377 320
378 320
379 320
380 319
381 319
382 319
383 319
384 319
385 318
386 318
387 318
388 318
389 318
390 317
391 317
392 317
393 317
394 317
395 317
396 316
397 316
398 316
399 316
400 316
401 315
402 315
403 315
404 315
405 314
406 314
407 314
408 314
409 313
410 313
411 313
412 313
413 312
414 312
415 312
416 311
417 311
418 311
419 311
420 310
421 310
422 310
423 310
424 309
425 309
426 309
427 309
428 308
429 308
430 308
431 308
432 308
433 307
434 307
435 307
436 307
437 306
438 306
439 306
440 305
441 305
442 305
443 304
444 304
445 304
446 304
447 303
448 303
449 303
450 302
451 302
452 301
453 301
454 301
455 300
456 299
457 299
458 299
459 299
460 298
461 298
462 297
463 297
464 296
465 296
466 296
467 296
468 295
469 295
470 295
471 294
472 294
473 293
474 293
475 292
476 292
477 291
478 291
479 291
480 291
481 290
482 290
483 290
484 289
485 289
486 289
487 288
488 288
489 288
490 288
491 288
492 287
493 287
494 287
495 287
496 287
497 287
498 287
499 287
500 287
501 287
502 286
503 287
504 287
505 287
506 287
507 288
507 289
508 290
508 291
507 292
507 293
506 294
505 294
504 294
503 295
502 296
501 296
500 296
499 297
498 297
497 297
496 298
495 298
494 298
493 298
492 298
491 298
490 299
489 299
488 299
487 299
486 299
485 299
484 299
483 299
482 299
481 299
480 299
479 299
478 299
477 299
476 299
475 299
474 299
473 300
472 300
471 300
470 300
469 300
468 301
467 301
466 301
465 301
464 302
463 302
462 302
461 302
460 303
459 303
458 304
457 304
456 304
455 305
454 305
453 305
452 306
451 306
450 306
449 307
448 307
447 308
446 308
445 308
444 308
443 309
442 309
441 310
440 310
439 310
438 311
437 311
436 312
435 313
434 313
433 313
432 314
431 314
430 315
429 315
428 316
427 316
426 317
425 317
424 318
423 318
422 319
421 319
420 320
419 320
418 321
417 321
416 321
415 322
414 322
413 323
412 323
411 324
410 324
409 325
408 325
407 325
406 326
405 326
404 327
403 328
402 328
401 329
400 329
399 330
398 331
397 331
396 331
395 332
394 333
393 333
392 333
391 334
390 334
389 335
388 335
387 336
386 337
385 337
384 338
383 338
382 339
381 339
380 340
379 341
378 341
377 342
376 343
375 343
374 344
373 344
372 345
371 345
370 346
369 347
368 347
367 348
366 349
365 349
364 350
363 351
362 351
361 352
360 353
359 354
358 354
357 355
356 356
355 357
354 357
353 358
352 359
351 360
350 360
349 361
348 362
347 363
346 364
345 365
344 366
343 367
342 367
341 368
340 369
339 370
338 370
337 371
336 372
335 373
334 373
333 374
332 375
331 376
330 377
329 377
328 378
327 379
326 380
325 381
324 382
323 382
322 383
321 384
320 385
319 386
318 386
317 387
316 388
315 389
314 389
313 390
312 391
311 392
310 393
309 393
308 394
307 395
306 396
305 397
304 397
304 398
303 399
302 399
302 400
301 401
300 402
299 403
298 404
297 405
296 406
295 407
295 408
294 409
293 410
292 411
291 412
290 413
289 414
288 415
287 416
286 417
285 418
285 419
284 420
283 421
282 422
281 423
281 424
280 425
279 426
279 427
278 428
277 429
277 430
276 431
275 432
274 433
273 434
273 435
272 436
271 437
270 438
269 439
269 440
268 441
268 442
267 443
266 444
265 445
264 446
263 447
263 448
262 449
261 450
261 451
260 452
259 453
258 454
257 455
257 456
256 457
255 458
254 459
254 460
253 461
252 462
251 463
251 464
250 465
249 466
249 467
248 468
247 469
246 470
246 471
245 472
244 473
243 474
242 475
242 476
241 477
240 478
240 479
239 480
238 481
237 482
237 483
236 484
236 485
235 486
234 487
234 488
234 489
233 490
232 491
233 491
234 490
235 491
235 492
236 492
237 492
238 492
239 492
240 492
241 491
242 491
243 491
244 491
245 490
246 490
247 490
248 489
249 489
250 488
251 488
252 488
253 487
254 486
255 486
256 485
257 485
258 484
259 484
260 484
261 483
262 483
263 482
264 482
265 482
266 481
267 481
268 481
269 480
270 480
271 480
272 480
273 479
274 479
275 479
276 478
277 478
278 477
279 477
280 477
281 477
282 476
283 476
284 476
285 476
286 475
287 475
288 475
289 474
290 474
291 474
292 474
293 473
294 473
295 472
296 472
297 472
298 472
299 472
300 471
301 471
302 471
303 471
304 470
305 470
306 470
307 469
308 469
309 468
310 468
311 467
312 467
313 466
314 465
315 465
316 464
317 464
318 463
319 463
320 462
321 461
322 461
323 460
324 460
325 459
326 459
327 458
328 458
329 457
330 456
331 456
332 455
333 454
334 454
335 453
336 452
337 451
338 451
339 450
340 449
341 449
342 448
343 447
344 447
345 447
346 446
347 446
348 445
349 445
350 444
351 444
352 444
353 443
354 443
355 442
356 442
357 441
358 441
359 440
360 440
361 439
362 439
363 438
364 438
365 437
366 437
367 436
368 436
369 435
370 434
371 434
372 433
373 433
374 432
375 432
376 431
377 430
378 430
379 429
380 428
381 428
382 427
383 426
384 426
385 425
386 424
387 424
388 423
389 422
390 421
391 421
392 420
393 420
394 419
395 418
396 418
397 417
398 417
399 416
400 416
401 415
402 415
403 414
404 414
405 413
406 413
407 412
408 412
409 411
410 410
411 410
412 409
413 408
414 408
415 407
416 406
417 406
418 406
419 405
420 404
421 404
422 403
423 402
424 402
425 401
426 400
427 400
428 399
429 398
430 397
431 397
432 396
433 395
434 394
435 393
436 392
437 391
438 390
439 389
440 388
441 387
442 387
443 386
444 385
445 384
446 384
447 383
448 382
449 381
450 381
451 380
452 380
453 379
454 378
455 377
456 376
457 375
458 375
459 374
460 373
461 372
461 371
462 370
463 369
464 368
464 367
465 366
466 365
467 364
467 363
468 362
469 361
470 360
471 359
472 360
472 361
472 362
472 363
472 364
472 365
472 366
472 367
472 368
472 369
472 370
472 371
472 372
471 373
471 374
471 375
471 376
470 377
470 378
470 379
470 380
469 381
469 382
469 383
468 384
468 385
468 386
467 387
467 388
467 389
467 390
466 391
466 392
466 393
466 394
466 395
466 396
465 397
465 398
465 399
465 400
465 401
465 402
465 403
465 404
465 405
464 406
464 407
464 408
464 409
464 410
464 411
464 412
464 413
463 414
463 415
463 416
463 417
463 418
463 419
463 420
463 421
462 422
462 423
462 424
462 425
462 426
462 427
461 428
461 429
461 430
461 431
461 432
461 433
461 434
461 435
461 436
460 437
460 438
460 439
460 440
460 441
459 442
459 443
459 444
459 445
459 446
459 447
459 448
459 449
459 450
458 451
458 452
458 453
458 454
458 455
458 456
458 457
458 458
458 459
458 460
458 461
458 462
458 463
458 464
458 465
458 466
459 467
459 468
459 469
459 470
459 471
459 472
459 473
459 474
460 475
460 476
460 477
460 478
460 479
460 480
460 481
460 482
460 483
460 484
460 485
461 486
461 487
461 488
461 489
461 490
461 491
462 492
462 493
462 494
462 495
462 496
462 497
463 498
463 499
463 500
463 501
463 502
464 503
464 504
464 505
464 506
464 507
465 508
466 509
466 510
466 511
466 512
467 513
467 514
467 515
468 516
468 517
469 518
469 519
469 520
470 521
470 522
470 523
471 524
471 525
472 526
473 527
473 528
474 529
475 529
476 530
476 531
477 532
478 533
478 534
479 535
480 536
480 537
481 538
482 539
483 540
484 540
485 539
485 538
486 537
486 536
486 535
487 534
487 533
487 532
487 531
487 530
487 529
487 528
488 527
488 526
488 525
489 524
489 523
489 522
490 521
490 520
490 519
491 518
491 517
492 516
492 515
492 514
492 513
493 512
493 511
494 510
494 509
494 508
495 507
495 506
496 505
496 504
496 503
496 502
496 501
497 500
497 499
497 498
497 497
498 496
498 495
498 494
499 493
499 492
499 491
500 490
500 489
500 488
500 487
501 486
501 485
502 484
502 483
503 482
503 481
503 480
504 479
504 478
504 477
505 476
505 475
505 474
506 473
506 472
507 471
507 470
508 469
508 468
509 467
509 466
510 465
510 464
510 463
511 462
511 461
512 460
512 459
512 458
512 457
513 456
513 455
514 454
514 453
515 452
516 451
516 450
516 449
517 448
517 447
517 446
518 445
518 444
518 443
519 442
519 441
520 440
520 439
520 438
521 437
521 436
522 435
522 434
522 433
523 432
523 431
524 430
524 429
524 428
525 427
525 426
526 425
526 424
527 423
527 422
528 421
528 420
528 419
529 418
529 417
530 416
530 415
531 414
531 413
532 412
532 411
532 410
533 409
533 408
533 407
534 406
534 405
535 404
535 403
535 402
536 401
536 400
536 399
537 398
537 397
538 396
538 395
538 394
539 393
539 392
539 391
539 390
540 389
540 388
540 387
540 386
540 385
540 384
541 383
541 382
541 381
541 380
541 379
541 378
542 377
542 376
542 375
542 374
542 373
542 372
542 371
542 370
542 369
542 368
542 367
541 366
541 365
541 364
541 363
540 362
540 361
540 360
540 359
539 358
539 357
539 356
538 355
538 354
537 353
537 352
537 351
536 350
536 349
535 348
535 347
534 346
534 345
534 344
533 343
533 342
532 341
532 340
531 339
531 338
530 337
530 336
529 335
529 334
528 333
528 332
528 331
527 330
527 329
527 328
526 327
526 326
525 325
525 324
524 323
524 322
524 321
523 320
522 319
522 318
522 317
522 316
521 315
521 314
521 313
521 312
521 311
521 310
521 309
521 308
520 307
520 306
520 305
520 304
520 303
520 302
520 301
520 300
520 299
520 298
521 297
522 296
523 296
524 297
525 298
526 299
526 300
527 301
528 302
529 303
530 304
530 305
531 306
532 307
533 308
534 309
535 310
536 311
537 311
538 311
539 311
540 311
540 310
540 309
540 308
540 307
539 306
539 305
538 304
537 303
537 302
536 301
536 300
535 299
535 298
534 297
534 296
533 295
533 294
532 293
531 292
531 291
530 290
531 289
532 288
533 288
534 289
535 288
536 288
537 288
538 288
539 287
540 287
541 287
542 287
543 287
544 287
545 286
546 287
547 287
548 287
549 287
550 287
551 287
552 287
553 286
554 286
555 286
556 286
557 286
558 286
559 286
560 286
561 286
562 286
563 286
564 286
565 286
566 286
567 285
568 285
569 286
570 286
571 285
572 285
573 285
574 285
575 285
576 284
577 285
578 284
577 284
576 283
577 282
578 282
579 282
580 283
581 283
582 284
582 285
583 285
584 285
584 284
584 283
585 282
586 283
586 284
587 284
588 284
587 283
587 282
587 281
587 280
588 279
589 279
590 280
590 281
591 281
592 281
593 281
594 281
595 281
596 281
597 281
598 281
599 282
599 283
600 284
601 284
602 284
603 284
604 284
605 284
606 284
607 284
608 284
609 283
610 283
611 283
612 283
613 283
614 283
615 283
616 283
617 283
618 283
619 283
620 283
621 283
622 283
623 283
624 283
625 283
626 283
627 283
628 283
629 282
630 282
631 282
632 283
633 283
634 283
635 283
636 283
637 283
638 283
639 283
640 283
641 283
642 283
643 283
644 283
645 283
646 283
647 283
648 283
649 283
650 283
651 283
652 283
653 283
654 283
655 283
656 282
657 283
658 283
659 283
660 283
661 283
662 283
663 283
664 283
665 283
666 283
667 283
668 283
669 283
670 283
671 283
672 283
673 282
674 282
675 282
676 282
677 282
678 283
679 283
680 283
680 282
679 282
678 282
677 281
676 281
675 281
674 280
675 279
676 279
677 279
678 278
679 278
680 278
681 279
682 279
682 278
681 278
680 278
679 278
678 277
677 277
676 277
675 277
674 277
673 277
672 277
671 277
670 276
670 275
669 275
668 275
667 276
666 276
665 276
664 275
663 276
662 276
661 276
660 276
659 276
658 276
657 276
656 275
655 275
654 275
653 275
652 275
651 275
650 275
649 275
648 275
647 275
646 275
645 275
644 275
643 275
642 275
641 275
640 275
639 275
638 275
637 276
636 275
635 275
634 276
633 276
632 275
631 275
630 275
629 276
628 276
627 277
626 276
625 276
624 276
623 276
622 276
621 276
620 276
619 276
618 276
617 277
616 276
615 276
614 276
613 276
612 276
611 276
610 277
609 278
608 277
608 276
607 276
606 277
605 277
604 277
603 277
602 277
601 277
600 277
599 277
598 277
597 277
596 277
595 277
594 277
593 277
592 278
591 278
590 278
589 278
588 278
587 278
586 278
585 278
584 278
583 278
582 278
581 278
580 278
579 278
578 278
577 278
576 278
575 278
574 278
573 278
572 278
571 278
570 278
569 278
568 278
567 278
566 278
565 277
566 276
567 275
568 275
569 275
570 274
571 274
572 273
573 273
574 272
575 271
576 270
577 270
578 269
579 268
578 268
577 269
576 269
575 269
574 269
573 269
572 269
571 269
570 269
569 269
568 269
567 269
566 269
565 269
564 270
563 270
562 270
561 270
560 270
559 271
558 271
557 271
556 271
555 272
554 272
553 272
552 272
551 273
550 273
549 273
548 273
547 274
546 274
545 274
544 275
543 275
542 275
541 275
540 276
539 276
538 276
537 276
536 277
535 277
534 277
533 278
532 278
531 278
530 279
529 279
528 279
527 280
526 280
525 280
524 280
523 281
522 281
521 281
520 282
519 281
518 280
518 279
517 279
516 278
515 277
515 276
514 275
513 274
513 273
513 272
513 271
513 270
513 269
513 268
513 267
513 266
513 265
513 264
513 263
513 262
513 261
513 260
513 259
514 258
514 257
514 256
514 255
515 254
515 253
515 252
516 251
516 250
516 249
516 248
517 247
517 246
518 245
518 244
518 243
519 242
519 241
520 240
520 239
521 238
521 237
522 236
522 235
523 234
524 233
523 232
524 231
525 231
526 230
527 229
527 228
528 227
528 226
528 225
528 224
529 223
530 224
531 223
531 222
532 221
532 220
532 219
532 218
533 217
533 216
533 215
533 214
533 213
534 212
534 211
534 210
534 209
534 208
534 207
534 206
534 205
534 204
534 203
534 202
534 201
534 200
534 199
534 198
534 197
534 196
534 195
534 194
534 193
534 192
534 191
533 190
533 189
533 188
533 187
533 186
533 185
533 184
533 183
532 182
532 181
531 180
531 179
531 178
530 177
530 176
529 175
529 174
529 173
528 172
528 171
527 170
527 169
527 168
526 167
526 166
526 165
525 164
525 163
525 162
524 161
524 160
524 159
523 158
523 157
523 156
523 155
522 154
522 153
522 152
522 151
522 150
521 149
521 148
521 147
521 146
520 145
520 144
520 143
519 142
519 141
519 140
519 139
518 138
518 137
518 136
518 135
517 134
517 133
517 132
516 131
516 130
516 129
516 128
515 127
515 126
515 125
515 124
514 123
513 122
513 121
513 120
512 119
512 118
511 117
511 116
511 115
510 114
510 113
510 112
509 111
509 110
508 109
508 108
507 107
507 106
506 105
506 104
505 103
505 102
505 101
504 100
504 99
503 98
503 97
502 96
502 95
501 94
501 93
500 92
500 91
499 90
499 89
498 88
497 87
497 86
496 85
496 84
495 83
494 82
494 81
494 80
493 79
492 78
492 77
491 76
491 75
491 74
490 73
490 72
489 71
488 70
488 69
488 68
487 67
487 66
486 65
486 64
485 63
485 62
485 61
484 60
484 59
483 58
482 57
483 56
482 55
482 54
482 53
481 52
481 51
481 50
480 49
480 48
480 47
479 46
479 45
479 44
478 43
478 42
478 41
477 40
477 39
476 38
476 37
476 36
475 35
475 34
475 33
475 32
474 31
474 30
474 29
474 28
473 27
473 26
473 25
473 24
472 23
472 22
472 21
471 20
471 19
470 18
470 17
469 16
468 16
467 17
466 16
