779 1
778 2
777 3
776 4
775 5
774 5
774 6
773 7
772 7
771 7
770 8
769 9
769 10
768 11
768 12
767 13
767 14
767 15
766 16
766 17
766 18
765 19
764 19
763 20
762 21
761 20
760 20
759 19
758 19
757 19
756 19
755 19
754 20
753 19
752 19
751 20
750 20
749 21
748 21
747 22
746 23
745 24
744 25
743 26
742 27
741 27
740 27
739 28
738 28
737 28
736 28
735 28
734 29
733 29
732 29
731 29
730 29
729 28
728 28
727 27
726 26
725 25
724 25
723 24
722 23
721 23
720 23
719 24
718 24
717 25
716 25
715 26
714 26
713 27
712 27
711 27
710 28
709 28
708 29
707 29
706 29
705 29
704 29
703 30
702 30
701 30
700 30
699 30
698 31
697 31
696 31
695 31
694 31
693 31
692 31
691 31
690 31
689 30
688 30
687 30
686 30
685 30
684 30
683 30
682 30
681 31
680 30
679 30
678 30
677 31
676 31
675 31
674 31
673 31
672 32
671 32
670 32
669 33
668 33
667 34
666 34
665 34
664 35
663 35
662 36
661 36
660 36
659 37
658 37
657 37
656 37
655 37
654 37
653 38
652 38
651 38
650 38
649 38
648 38
647 39
646 39
645 39
644 39
643 39
642 39
641 40
640 40
639 40
638 41
637 41
636 42
635 42
634 42
633 42
632 43
631 44
630 44
629 44
628 45
627 45
626 45
625 46
624 46
623 47
622 47
621 47
620 48
619 48
618 48
617 49
616 49
615 49
614 49
613 49
612 50
611 50
610 50
609 50
608 51
607 51
606 51
605 52
604 52
603 53
602 53
601 54
600 54
599 55
598 55
597 56
596 56
595 56
594 57
593 57
592 57
591 57
590 58
589 59
588 59
587 59
586 60
585 60
584 61
583 61
582 61
581 61
580 62
579 62
578 62
577 62
576 62
575 62
574 63
573 63
572 63
571 63
570 64
569 64
568 64
567 64
566 64
565 65
564 65
563 65
562 66
561 66
560 67
559 67
558 67
557 68
556 68
555 69
554 69
553 70
552 70
551 70
550 71
549 71
548 71
547 72
546 72
545 72
544 73
543 73
542 73
541 74
540 74
539 74
538 75
537 75
536 76
535 76
534 76
533 77
532 78
531 78
530 78
529 79
528 79
527 80
526 80
525 81
524 81
523 81
522 82
521 82
520 83
519 83
518 84
517 84
516 85
515 85
514 85
513 86
512 86
511 87
510 87
509 88
508 88
507 88
506 89
505 90
504 90
503 91
502 91
501 92
500 92
499 93
498 93
497 94
496 94
495 94
494 95
493 95
492 96
491 96
490 97
489 97
488 98
487 98
486 99
485 99
484 99
483 100
482 100
481 101
480 101
479 102
478 102
477 103
476 103
475 104
474 104
473 105
472 105
471 106
470 106
469 106
468 107
467 107
466 108
465 108
464 108
463 109
462 109
461 110
460 110
459 111
458 111
457 112
456 113
455 113
454 114
453 114
452 115
451 116
450 116
449 117
448 118
447 118
446 119
445 120
444 121
443 122
442 122
441 122
440 123
441 124
440 125
439 125
439 126
438 127
437 128
436 128
435 128
434 129
433 129
434 130
433 131
432 131
431 132
430 132
429 133
428 134
427 135
426 135
425 135
425 136
424 137
423 138
422 138
421 139
420 140
419 139
419 138
418 139
417 140
418 141
417 142
416 142
415 143
414 143
413 144
412 144
411 144
410 145
409 145
408 146
407 146
406 146
405 146
404 147
403 147
402 147
401 148
400 148
399 149
398 149
397 150
396 150
395 150
394 151
393 151
392 152
391 152
390 153
389 153
388 154
387 155
386 155
385 156
384 156
383 157
382 157
382 158
382 159
382 160
383 161
383 162
383 163
383 164
383 165
383 166
382 167
381 168
380 169
379 170
378 171
377 171
376 172
375 173
374 174
373 174
372 175
371 176
370 177
369 178
368 179
367 180
367 181
366 182
365 183
364 183
363 184
362 185
361 186
360 187
359 188
358 189
357 190
356 191
355 191
354 192
353 192
352 193
351 193
350 194
349 195
348 196
347 196
346 197
345 197
344 198
343 198
342 199
341 200
340 200
339 201
338 201
338 202
337 203
337 204
336 205
335 205
334 204
334 205
333 206
332 206
331 207
330 207
329 208
328 207
327 208
326 209
325 209
324 210
323 210
322 211
321 212
320 212
319 213
318 214
317 215
316 216
315 216
315 217
314 218
314 219
313 220
313 221
313 222
313 223
314 224
314 225
314 226
314 227
314 228
313 229
313 230
312 231
311 232
310 233
309 234
308 235
307 236
306 237
305 237
304 238
303 238
302 239
301 240
300 240
299 241
298 241
297 242
296 242
295 243
294 244
293 245
292 245
291 246
290 247
289 248
288 249
287 249
286 250
285 251
284 252
283 253
282 253
281 254
280 253
281 254
280 255
279 255
278 256
277 256
276 257
275 257
274 257
273 258
272 258
271 258
270 259
269 260
268 260
267 261
266 262
266 263
265 264
264 264
264 265
263 266
263 267
263 268
263 269
262 270
262 271
262 272
262 273
261 274
261 275
261 276
261 277
260 278
260 279
259 280
259 281
258 282
257 283
256 284
256 285
255 286
254 287
253 288
252 289
251 290
250 291
249 292
248 293
247 294
246 295
245 296
244 296
243 297
242 298
241 299
240 300
239 300
238 301
237 302
236 302
235 303
234 303
234 304
233 305
232 305
231 305
231 306
230 307
229 307
228 308
227 309
226 310
225 310
224 311
223 312
222 312
221 313
220 313
219 313
218 314
217 315
216 316
216 317
216 318
215 319
214 320
213 321
212 321
211 321
212 322
211 323
210 323
209 322
210 323
209 324
208 325
207 326
206 326
205 326
204 326
203 326
202 326
201 327
200 327
199 327
198 328
197 329
196 330
195 330
194 331
193 332
192 333
191 334
190 334
189 335
188 336
187 337
186 337
185 338
184 339
184 340
184 341
184 342
185 343
185 344
186 345
186 346
186 347
186 348
186 349
185 350
185 351
184 352
183 353
183 354
182 355
181 356
180 357
179 358
178 359
177 360
176 361
175 362
174 363
173 364
173 365
172 366
171 366
170 367
170 368
169 369
168 370
167 371
166 371
165 372
164 373
163 373
162 374
161 375
160 375
159 376
158 377
157 378
156 378
155 379
154 380
153 381
152 382
151 383
150 384
150 385
149 386
148 386
147 387
146 387
146 388
146 389
145 390
144 391
143 392
143 393
143 394
143 395
143 396
142 397
142 398
142 399
142 400
141 401
141 402
140 403
140 404
140 405
139 406
139 407
138 408
137 409
137 410
136 411
136 412
135 413
135 414
134 415
134 416
133 417
133 418
132 419
131 420
131 421
130 422
129 423
129 424
128 425
127 426
127 427
126 428
126 429
126 430
125 431
125 432
124 433
123 434
122 435
121 436
120 437
119 438
119 439
118 440
117 441
116 442
116 443
115 444
114 445
114 446
113 447
113 448
112 449
111 450
111 451
110 452
109 453
109 454
108 455
108 456
107 457
107 458
107 459
106 460
106 461
105 462
104 463
103 464
102 465
101 466
100 467
99 468
98 469
97 469
97 470
96 471
95 472
94 473
93 474
92 475
93 476
92 477
92 478
91 479
90 478
90 477
90 478
90 479
89 480
89 481
88 482
87 482
87 483
86 484
86 485
86 486
85 487
84 487
84 488
83 489
82 490
81 491
80 492
80 493
79 494
78 495
77 496
77 497
76 498
75 498
74 498
75 499
74 500
73 501
72 502
71 503
71 504
70 505
69 505
68 506
67 507
68 508
68 509
67 510
66 509
67 510
66 511
65 512
64 513
63 514
62 515
61 516
61 517
60 518
59 519
59 520
59 521
59 522
59 523
59 524
59 525
59 526
59 527
59 528
59 529
59 530
59 531
58 532
58 533
58 534
58 535
58 536
58 537
57 538
57 539
57 540
57 541
56 542
56 543
56 544
55 545
55 546
55 547
54 548
54 549
54 550
53 551
53 552
52 553
52 554
51 555
51 556
50 557
50 558
50 559
49 560
49 561
48 562
48 563
47 564
47 565
47 566
46 567
45 568
45 569
44 570
44 571
44 572
43 573
43 574
43 575
42 576
41 576
40 577
40 578
39 579
39 580
39 581
38 582
38 583
37 584
37 585
37 586
36 587
36 588
36 589
36 590
35 591
36 592
35 593
35 594
35 595
35 596
35 597
34 598
34 599
34 600
34 601
33 602
33 603
32 604
32 605
31 606
31 607
30 608
29 609
29 610
29 611
28 612
28 613
27 614
27 615
27 616
27 617
26 618
26 619
25 620
25 621
24 622
24 623
24 624
23 625
23 626
23 627
22 628
23 629
23 630
24 631
24 632
24 633
24 634
24 635
24 636
23 637
23 638
23 639
23 640
22 641
22 642
21 643
21 644
20 645
20 646
20 647
19 648
19 649
19 650
18 651
18 652
18 653
17 654
17 655
17 656
16 657
16 658
16 659
16 660
16 661
15 662
15 663
15 664
15 665
15 666
15 667
15 668
15 669
15 670
15 671
15 672
14 673
14 674
14 675
14 676
14 677
14 678
14 679
14 680
14 681
13 682
13 683
13 684
13 685
12 686
12 687
12 688
11 689
11 690
10 691
10 692
9 693
9 694
8 695
7 696
7 697
6 698
6 699
5 700
5 701
4 702
4 703
3 704
3 705
2 706
2 707
2 708
1 709
1 710
1 711
1 712
1 713
1 714
1 715
1 716
2 716
3 716
4 716
5 716
6 716
7 716
8 715
9 715
10 715
11 714
12 714
13 714
14 714
15 713
16 713
17 712
18 712
19 712
20 711
21 711
22 711
23 710
24 710
25 710
26 710
27 710
28 710
29 709
30 709
31 709
32 709
33 708
34 708
35 708
36 708
37 708
38 707
39 707
40 707
41 706
42 706
43 706
44 705
45 705
46 705
47 705
48 704
49 704
50 704
51 704
52 703
53 703
54 702
55 702
56 702
57 701
58 701
59 700
60 700
61 700
62 699
63 699
64 699
65 698
66 698
67 697
68 697
69 697
70 697
71 697
72 696
73 696
74 697
75 697
76 698
76 699
77 699
78 699
79 699
80 699
81 698
82 697
83 696
84 696
85 695
86 695
87 694
88 693
89 692
90 692
91 691
92 691
93 690
94 690
95 689
96 689
97 688
98 688
99 688
100 688
101 687
102 687
103 687
104 686
105 685
106 685
107 685
108 685
109 684
110 683
111 683
112 683
113 682
114 682
115 681
116 681
117 680
118 680
119 680
120 681
121 682
122 683
123 683
124 683
125 683
126 683
127 682
128 682
129 681
130 681
131 680
132 680
133 679
134 679
135 678
136 678
137 677
138 677
139 676
140 675
141 675
142 674
143 674
144 673
145 672
146 672
147 672
148 671
149 671
150 670
151 670
152 670
153 669
154 669
155 668
156 668
157 667
158 667
159 666
160 666
161 665
162 665
163 664
164 664
165 663
166 662
167 662
168 661
169 660
170 660
171 659
172 658
173 658
174 659
175 660
176 660
177 661
178 661
179 661
180 660
181 659
182 659
183 658
184 657
185 656
186 656
187 655
188 654
189 654
190 653
191 652
192 652
193 651
194 651
195 650
196 650
197 649
198 648
199 648
200 647
201 646
202 646
203 645
204 644
205 644
206 643
207 643
208 642
209 641
210 640
211 640
212 639
213 638
214 638
215 637
216 636
217 636
218 635
219 634
220 633
221 632
222 632
223 632
224 633
225 634
226 635
226 636
227 636
228 637
228 638
229 639
230 639
231 638
232 639
233 638
234 638
235 638
236 638
237 637
238 637
239 636
240 636
241 635
242 635
243 634
244 634
245 633
246 633
247 633
248 632
249 632
250 631
251 632
252 633
253 633
254 632
255 632
256 631
257 630
258 630
259 629
260 629
261 629
262 629
263 629
264 629
265 629
266 628
267 628
268 628
269 628
270 628
271 627
272 627
273 627
274 626
275 626
276 626
277 625
278 625
279 625
280 625
281 624
282 624
283 624
284 624
285 623
286 624
287 625
288 626
289 627
290 628
291 629
292 630
293 631
294 631
295 631
296 631
297 630
298 630
299 629
300 629
301 628
302 628
303 627
304 627
305 626
306 626
307 625
308 624
309 624
310 623
311 623
312 622
313 622
314 621
315 621
316 620
317 620
318 619
319 619
320 618
321 617
322 617
323 616
324 616
325 616
326 617
327 617
328 617
329 616
330 616
331 615
332 614
333 613
334 613
335 613
336 612
337 612
338 611
339 611
340 611
341 610
342 610
343 609
344 608
345 608
346 607
347 607
348 607
349 606
350 606
351 605
352 604
353 604
354 603
355 603
356 602
357 602
358 601
359 600
360 600
360 599
361 598
362 598
363 597
364 596
365 596
366 595
367 594
368 594
369 595
370 596
371 597
372 598
373 598
374 598
375 598
376 597
377 597
378 596
379 595
380 595
381 594
381 593
382 592
383 591
384 590
385 589
386 588
387 587
388 587
389 586
390 586
391 585
392 585
393 584
394 584
395 583
396 583
397 582
398 582
399 581
400 580
401 580
402 579
403 578
404 577
405 576
406 576
407 575
408 574
409 573
410 572
411 572
412 571
413 570
414 570
415 569
416 568
417 567
418 566
419 565
420 564
421 564
422 563
423 562
424 561
425 560
426 560
427 561
428 562
428 563
429 563
430 563
431 563
432 563
433 562
434 561
435 560
436 560
437 559
438 558
439 557
440 556
441 555
442 554
443 553
444 552
445 551
446 550
447 549
448 548
448 547
449 546
450 545
451 544
452 543
453 542
454 542
455 541
456 540
457 540
458 539
459 538
460 538
461 537
462 536
463 535
464 534
465 533
466 533
467 532
468 531
469 531
470 530
471 530
472 529
473 529
474 529
475 528
476 527
477 527
478 527
479 526
480 525
481 525
482 524
483 524
484 523
485 522
486 522
487 521
488 520
489 519
490 519
491 518
492 518
493 517
494 516
495 516
496 515
497 514
498 513
499 512
500 511
501 511
501 510
502 509
503 509
504 509
505 509
506 509
507 509
508 509
509 510
510 510
511 510
512 510
513 509
514 508
515 507
515 506
516 505
517 504
517 503
518 502
519 501
520 500
521 499
522 498
523 497
524 496
525 496
525 495
526 494
527 493
528 492
529 491
530 490
530 489
531 488
532 487
533 486
534 485
535 484
536 483
537 482
538 481
538 480
539 479
540 478
540 477
541 476
541 475
542 474
543 473
544 472
545 471
546 470
547 469
547 468
548 467
549 466
550 465
551 464
552 463
552 462
553 461
554 460
554 459
555 458
556 457
557 456
558 455
558 454
559 453
560 452
561 452
562 453
563 454
564 455
565 455
566 455
567 455
568 454
569 453
570 452
571 451
571 450
572 449
573 448
573 447
574 446
574 445
575 444
575 443
576 442
576 441
577 440
577 439
578 438
579 437
579 436
580 435
581 434
581 433
582 432
583 431
584 430
585 429
586 428
587 427
588 426
588 425
589 424
590 423
591 422
592 421
592 420
593 419
594 418
595 417
596 416
597 416
597 415
598 414
599 413
600 412
601 411
602 410
603 409
604 408
604 407
605 406
606 405
607 404
608 403
608 402
609 401
610 400
611 399
612 398
613 397
614 396
614 395
615 394
616 394
617 394
618 395
619 396
620 396
621 396
622 395
623 394
623 393
624 392
625 391
626 390
626 389
627 388
627 387
628 386
628 385
629 384
629 383
630 382
630 381
631 380
632 379
632 378
633 377
633 376
634 375
635 374
635 373
636 372
636 371
637 370
637 369
638 368
639 367
639 366
640 365
640 364
641 363
642 362
642 361
643 360
644 359
644 358
645 357
645 356
646 355
646 354
647 353
648 352
648 351
649 350
650 349
650 348
651 347
651 346
652 345
652 344
653 343
653 342
654 341
654 340
655 339
656 338
656 337
657 336
658 335
658 334
659 333
659 332
660 331
661 330
661 329
662 328
663 327
664 326
665 325
666 324
666 323
667 322
668 321
668 320
669 319
669 318
670 317
670 316
671 315
671 314
671 313
672 312
672 311
673 310
674 309
675 308
675 307
676 306
676 305
677 304
677 303
678 302
679 301
679 300
679 299
680 298
680 297
681 296
681 295
682 294
682 293
683 292
684 291
684 290
685 289
685 288
686 287
687 286
688 285
688 284
689 283
689 282
690 281
690 280
691 279
692 278
693 277
693 276
693 275
693 274
694 273
694 272
695 271
695 270
695 269
696 268
696 267
697 266
698 265
699 264
700 263
700 262
701 261
702 260
702 259
703 258
704 257
705 256
705 255
706 254
706 253
707 252
708 251
708 250
709 249
709 248
710 247
710 246
711 245
711 244
712 243
712 242
713 241
714 240
714 239
715 238
715 237
716 236
716 235
717 234
718 233
718 232
719 231
719 230
720 229
721 228
721 227
721 226
722 225
722 224
722 223
723 222
723 221
723 220
724 219
724 218
725 217
726 216
726 215
727 214
727 213
727 212
728 211
728 210
729 209
729 208
730 207
731 206
731 205
731 204
732 203
732 202
733 201
733 200
734 199
735 198
735 197
736 196
736 195
737 194
737 193
737 192
738 191
738 190
738 189
739 188
739 187
740 186
741 185
741 184
742 183
742 182
742 181
743 180
743 179
744 178
744 177
744 176
744 175
745 174
745 173
745 172
746 171
746 170
746 169
746 168
746 167
747 166
747 165
747 164
747 163
748 162
748 161
748 160
748 159
749 158
749 157
750 156
750 155
750 154
751 153
751 152
751 151
752 150
752 149
752 148
753 147
753 146
754 145
754 144
755 143
755 142
756 141
757 140
757 139
757 138
758 137
758 136
759 135
759 134
760 133
760 132
761 131
761 130
761 129
762 128
762 127
762 126
763 125
763 124
764 123
764 122
764 121
764 120
765 119
765 118
765 117
765 116
765 115
766 114
766 113
766 112
766 111
766 110
767 109
768 108
768 107
768 106
769 105
769 104
770 103
770 102
770 101
770 100
770 99
771 98
771 97
771 96
771 95
771 94
771 93
770 92
770 91
770 90
770 89
769 88
769 87
769 86
769 85
770 84
770 83
770 82
771 81
771 80
771 79
772 78
772 77
773 76
773 75
773 74
774 73
774 72
775 71
775 70
776 69
776 68
777 67
778 66
778 65
778 64
779 63
779 62
780 61
780 60
781 59
782 58
782 57
783 56
783 55
784 54
784 53
784 52
784 51
783 50
783 49
784 48
784 47
783 46
783 45
782 44
782 43
782 42
783 41
783 40
784 39
785 38
786 38
787 38
788 37
789 37
790 37
791 37
792 36
793 35
794 35
795 34
796 33
797 32
798 31
799 30
799 29
799 28
800 27
800 26
800 25
800 24
800 23
800 22
800 21
800 20
799 19
799 18
799 17
799 16
798 15
798 14
797 13
797 12
796 11
795 11
794 10
794 9
793 8
792 7
791 6
790 5
790 4
789 3
788 3
787 2
786 1
785 1
784 1
783 1
782 1
781 1
780 1
779 1
