220 30
219 31
218 31
218 32
219 33
218 34
217 34
216 34
215 34
214 33
213 33
212 32
211 32
210 32
209 31
208 31
207 32
207 33
207 34
206 35
205 34
204 34
203 34
202 35
201 34
200 34
199 34
198 34
197 34
196 34
196 35
195 36
194 36
193 36
192 36
191 36
190 36
189 36
189 37
188 38
187 38
186 38
185 39
184 38
183 39
182 39
181 38
180 39
179 39
178 39
177 39
176 39
175 39
174 39
173 39
172 39
171 39
170 39
169 39
168 39
167 39
167 40
168 40
169 41
168 42
167 43
166 42
165 42
164 42
163 42
162 42
161 42
160 42
160 43
159 44
158 44
157 44
156 44
155 44
154 45
153 45
152 46
152 47
152 48
151 49
150 49
149 49
148 49
148 50
148 51
147 52
146 52
145 52
144 52
143 52
142 53
141 53
140 53
139 53
138 53
137 53
136 54
135 54
135 55
135 56
136 57
135 58
134 58
133 57
132 58
131 58
130 58
129 58
128 58
127 59
127 60
127 61
126 62
125 62
124 61
123 61
122 61
121 62
120 62
120 63
119 64
119 65
118 66
117 66
116 66
115 66
114 66
113 66
113 67
112 68
111 68
110 68
109 68
108 69
108 70
108 71
107 72
106 72
105 72
104 71
103 71
102 72
101 72
100 72
99 72
98 73
97 73
97 74
97 75
97 76
96 77
95 77
94 77
93 77
92 77
91 77
90 77
89 78
88 78
88 79
88 80
87 81
86 82
85 82
84 82
83 82
82 82
81 83
80 84
81 85
80 86
79 86
78 86
77 87
76 87
75 87
74 88
74 89
73 90
72 90
72 91
72 92
71 93
70 94
69 94
68 95
67 95
66 95
65 96
65 97
64 98
63 98
62 99
62 100
61 101
60 101
59 101
58 102
57 102
57 103
56 104
55 104
54 105
54 106
53 107
52 107
51 107
50 108
49 108
48 108
47 109
46 110
47 111
46 112
45 113
44 113
43 114
43 115
42 116
41 117
41 118
40 119
39 119
38 120
37 120
36 121
36 122
35 123
34 124
33 125
33 126
33 127
33 128
32 129
31 130
30 131
29 131
28 132
29 133
30 134
30 135
30 136
30 137
29 138
29 139
29 140
29 141
29 142
29 143
30 144
31 145
30 146
30 147
31 148
32 149
33 150
33 151
33 152
33 153
34 154
35 155
36 156
37 157
36 158
37 159
38 160
38 161
39 162
40 162
41 163
42 164
42 165
42 166
42 167
43 168
44 169
45 169
46 170
46 171
45 172
46 173
47 174
48 175
49 175
50 175
51 175
52 176
52 177
52 178
52 179
53 180
54 180
55 181
55 182
56 183
57 183
58 184
59 185
59 184
60 183
61 184
62 185
61 186
61 187
62 188
63 189
63 190
64 191
65 191
66 192
67 192
68 193
69 193
70 193
71 194
70 195
70 196
71 197
71 198
72 198
73 199
74 200
75 200
76 201
77 201
78 202
79 203
79 204
80 205
81 206
82 207
82 208
83 209
84 209
85 209
86 210
87 210
88 211
88 212
87 213
88 214
89 214
90 215
91 215
92 215
93 216
94 216
95 216
96 217
97 217
98 218
98 219
99 219
100 220
101 221
101 222
101 223
102 224
103 225
104 225
105 226
106 226
107 227
108 227
109 228
110 229
110 230
111 231
112 231
113 232
114 232
115 232
116 233
117 233
118 233
119 233
120 233
121 233
122 233
123 234
124 235
125 236
125 237
126 238
127 238
128 239
129 239
130 240
131 240
132 241
133 241
134 242
135 242
136 243
137 243
138 243
139 243
140 243
141 243
142 244
142 245
142 246
143 247
144 247
145 247
146 248
147 248
148 248
149 248
150 248
151 248
152 248
153 249
153 250
154 251
155 252
156 252
157 252
158 252
159 253
160 254
161 255
162 254
163 255
164 256
165 256
166 256
167 256
168 255
169 255
170 255
171 256
171 257
172 258
172 259
173 259
174 260
175 260
176 260
177 260
178 260
179 260
180 259
181 259
182 259
183 259
184 260
185 261
186 262
187 262
188 263
189 263
190 263
191 264
192 264
193 264
194 264
195 264
196 264
197 264
198 264
199 264
200 264
201 264
202 264
203 264
204 264
205 264
206 264
207 264
208 264
209 265
209 266
210 266
211 266
212 266
213 265
214 265
215 264
216 264
217 264
218 265
219 266
220 266
221 266
222 266
223 266
224 266
225 266
226 266
227 267
228 267
229 268
230 268
231 268
232 269
233 269
234 269
235 270
236 270
237 270
238 270
239 269
240 269
241 269
242 270
243 269
244 269
245 268
246 268
247 267
248 267
249 266
250 266
251 265
252 265
253 265
254 265
255 265
256 266
257 267
258 267
259 267
260 267
261 267
262 267
263 267
264 267
265 267
266 267
267 267
268 267
269 267
270 267
271 267
272 267
273 267
274 267
275 267
276 267
277 267
278 268
279 268
280 268
281 267
282 267
283 267
284 266
285 266
286 266
287 265
288 265
289 265
290 265
291 265
292 265
293 265
294 265
295 265
296 265
297 265
298 265
299 264
300 264
301 264
302 263
303 263
304 263
305 263
306 263
307 263
308 263
309 263
310 263
311 262
312 262
313 261
314 261
315 260
316 260
317 259
318 259
319 258
320 258
321 259
322 259
323 259
323 258
324 257
325 257
326 256
327 255
328 255
329 254
330 254
331 254
332 254
333 254
334 254
335 254
336 254
337 253
338 253
339 252
340 251
341 251
342 250
343 249
344 248
345 248
346 248
347 248
348 247
349 247
350 247
351 246
352 245
353 244
354 244
354 243
355 242
356 241
357 240
358 239
359 239
360 239
361 238
362 238
363 237
364 236
365 235
366 234
367 233
368 232
368 231
369 230
370 229
371 228
372 228
373 228
374 227
375 226
376 226
377 225
378 224
379 223
379 222
380 221
381 220
381 219
382 218
383 217
384 216
384 215
385 214
386 213
387 214
388 213
389 212
390 211
391 210
392 209
393 208
394 207
395 206
396 205
397 204
398 203
398 202
399 201
400 200
401 199
402 198
403 197
404 197
405 196
406 195
406 194
407 193
407 192
408 191
408 190
409 189
409 188
410 187
410 186
411 185
411 184
412 183
412 182
413 181
413 180
414 179
414 178
415 177
415 176
415 175
416 174
416 173
417 172
418 171
418 170
419 169
420 168
421 167
421 166
422 165
423 164
424 163
425 162
426 161
427 160
428 159
429 158
430 158
431 157
432 157
433 157
434 156
435 155
436 155
437 155
438 155
439 154
440 154
441 154
442 154
443 153
444 153
445 153
446 153
447 153
448 153
449 153
450 153
451 153
452 153
453 153
454 153
455 153
456 152
457 152
458 152
459 152
460 152
461 152
462 152
463 152
464 152
465 152
466 152
467 152
468 152
469 151
470 151
471 151
472 151
473 151
474 151
475 151
476 151
477 151
478 151
479 151
480 150
481 150
482 150
483 150
484 150
485 150
486 150
487 150
488 150
489 150
490 150
491 150
492 149
493 149
494 149
495 149
496 149
497 149
498 149
499 149
500 149
501 149
502 149
503 149
504 149
505 149
506 149
507 149
508 148
509 148
510 148
511 148
512 148
513 148
514 148
515 148
516 148
517 148
518 148
519 148
520 148
521 148
522 148
523 148
524 148
525 148
526 148
527 148
528 148
529 147
530 147
531 147
532 147
533 147
534 147
535 147
536 147
537 147
538 147
539 147
540 147
541 147
542 147
543 147
544 147
545 147
546 147
547 147
548 147
549 147
550 147
551 147
552 147
553 147
554 147
555 147
556 147
557 147
558 147
559 147
560 147
561 147
562 147
563 147
564 147
565 147
566 147
567 147
568 147
569 147
570 147
571 147
572 147
573 147
574 147
575 147
576 147
577 147
578 147
579 147
580 147
581 147
582 147
583 147
584 147
585 147
586 147
587 147
588 147
589 147
590 147
591 147
592 147
593 147
594 147
595 147
596 148
597 148
598 148
599 148
600 148
601 148
602 148
603 148
604 148
605 148
606 148
607 148
608 148
609 148
610 148
611 148
612 148
613 149
614 149
615 149
616 149
617 149
618 149
619 149
620 149
621 149
622 149
623 149
624 149
625 149
626 149
627 149
628 149
629 150
630 150
631 150
632 150
633 150
634 150
635 150
636 150
637 150
638 150
639 150
640 150
641 151
642 151
643 151
644 151
645 151
646 151
647 151
648 151
649 151
650 151
651 152
652 152
653 152
654 152
655 152
656 152
657 152
658 152
659 153
660 153
661 153
662 153
663 153
664 153
665 153
666 153
667 153
668 153
669 154
670 154
671 154
672 154
673 154
674 154
675 154
676 154
677 154
678 154
679 155
680 155
681 155
682 155
683 155
684 155
685 155
686 155
687 155
688 155
689 155
690 156
691 156
692 156
693 156
694 156
695 156
696 156
697 156
698 156
699 156
700 156
701 156
702 156
703 157
704 157
705 157
706 157
707 157
708 157
709 157
710 157
711 157
712 157
713 157
714 157
715 158
716 158
717 158
718 158
719 158
720 158
721 158
722 158
723 158
724 158
725 158
726 158
727 158
728 158
729 159
730 159
731 159
732 159
733 159
734 159
735 159
736 159
737 159
738 159
739 159
740 160
741 160
742 160
743 160
744 160
745 160
746 160
747 160
748 161
749 161
750 161
751 161
752 161
753 161
754 162
755 162
756 162
757 162
758 162
759 163
760 163
761 163
762 164
763 164
764 164
765 165
766 165
767 165
768 166
769 166
770 167
771 167
772 168
773 169
774 169
775 170
776 170
777 169
777 168
778 167
778 166
778 165
778 164
778 163
778 162
779 161
778 160
777 160
776 160
775 159
774 159
773 158
772 157
771 157
772 158
771 159
770 159
769 158
768 158
767 157
766 157
765 157
764 157
763 157
762 156
761 156
760 156
759 156
758 155
757 155
756 155
755 155
754 155
753 155
752 154
751 154
750 154
749 154
748 154
747 154
746 154
745 154
744 154
743 154
742 154
741 154
740 153
739 153
738 153
737 153
736 153
735 153
734 153
733 153
732 153
731 153
730 153
729 153
728 153
727 153
726 153
725 152
724 152
723 152
722 152
721 152
720 152
719 152
718 152
717 152
716 152
715 152
714 152
713 152
712 152
711 152
710 152
709 152
708 152
707 152
706 152
705 151
704 151
703 151
702 151
701 151
700 151
699 151
698 151
697 151
696 150
695 150
694 150
693 150
692 150
691 150
690 150
689 150
688 150
687 149
686 149
685 149
684 149
683 149
682 149
681 149
680 149
679 149
678 149
677 149
676 149
675 149
674 149
673 149
672 149
671 148
670 148
669 148
668 148
667 148
666 148
665 148
664 148
663 148
662 147
661 147
660 147
659 147
658 147
657 147
656 147
655 146
654 147
653 147
652 146
651 146
650 146
649 146
648 146
647 146
646 146
645 146
644 146
643 145
642 145
641 145
640 145
639 145
638 145
637 145
636 144
635 144
634 144
633 145
632 144
631 144
630 144
629 144
628 144
627 144
626 144
625 144
624 144
623 144
622 144
621 144
620 144
619 144
618 143
617 143
616 143
615 143
614 143
613 143
612 143
611 143
610 143
609 143
608 143
607 143
606 143
605 143
604 143
603 143
602 143
601 142
600 142
599 142
598 142
597 142
596 142
595 142
594 142
593 142
592 142
591 142
590 142
589 142
588 142
587 141
586 141
585 141
584 141
583 141
582 141
581 141
580 141
579 141
578 141
577 141
576 141
575 141
574 141
573 141
572 141
571 141
570 141
569 141
568 141
567 141
566 141
565 141
564 141
563 141
562 140
561 140
560 141
559 141
558 141
557 141
556 141
555 141
554 141
553 141
552 141
551 141
550 141
549 141
548 141
547 141
546 141
545 141
544 141
543 141
542 141
541 141
540 141
539 141
538 141
537 141
536 141
535 141
534 141
533 141
532 141
531 141
530 141
529 141
528 141
527 141
526 141
525 141
524 141
523 141
522 141
521 141
520 141
519 141
518 141
517 141
516 141
515 141
514 141
513 142
512 142
511 142
510 142
509 142
508 142
507 142
506 142
505 142
504 142
503 142
502 142
501 142
500 142
499 142
498 142
497 142
496 142
495 142
494 143
493 143
492 143
491 143
490 143
489 143
488 143
487 143
486 143
485 143
484 143
483 143
482 143
481 143
480 143
479 143
478 143
477 143
476 144
475 144
474 144
473 144
472 144
471 144
470 144
469 144
468 144
467 144
466 144
465 145
464 145
463 145
462 145
461 145
460 145
459 145
458 145
457 145
456 145
455 145
454 145
453 145
452 145
451 145
450 145
449 145
448 145
447 145
446 145
445 145
444 145
443 145
442 145
441 144
440 144
439 144
438 143
437 143
436 142
435 142
434 141
433 141
432 140
431 140
430 140
429 139
428 139
427 138
426 138
425 137
424 136
423 135
422 135
421 134
420 133
419 132
419 131
418 130
417 129
416 128
415 127
415 126
414 125
413 124
413 123
412 122
411 121
411 120
410 119
409 118
409 117
408 116
408 115
407 114
406 113
405 112
405 111
404 110
404 109
403 108
403 107
402 106
402 105
401 104
401 103
400 102
399 101
398 100
398 101
397 102
396 101
396 100
395 99
394 98
394 97
393 96
392 95
392 94
391 93
390 92
389 91
389 90
388 89
387 88
386 87
386 86
385 85
384 84
383 83
382 83
381 82
380 81
380 80
379 79
379 78
378 77
377 77
376 77
375 77
374 76
373 75
372 74
371 73
371 72
370 71
369 70
369 69
368 68
367 67
366 66
365 65
364 64
363 63
362 62
361 61
360 60
359 60
358 60
358 61
358 62
357 63
356 62
356 61
355 61
354 60
353 59
352 58
351 57
350 56
349 55
348 54
347 53
346 52
345 52
344 51
343 50
342 49
341 49
340 49
339 49
339 50
339 51
338 52
337 51
336 50
335 50
334 49
333 48
332 47
331 47
330 46
329 45
329 46
328 47
327 47
326 46
325 45
324 44
323 44
322 43
321 42
320 41
319 41
318 40
317 40
316 40
315 40
314 41
315 42
314 43
313 43
312 42
311 42
310 41
309 40
308 40
307 40
306 40
305 41
304 41
303 40
302 39
301 38
300 37
299 37
298 36
297 36
296 36
295 36
294 36
293 36
293 37
292 38
291 38
290 37
289 37
288 36
287 36
286 36
285 35
284 35
283 35
282 34
281 34
281 35
280 36
279 35
278 35
277 35
276 35
275 34
275 35
274 36
273 36
272 36
271 35
270 35
269 35
268 34
267 34
266 34
265 33
264 33
263 33
262 33
261 33
260 34
261 35
260 36
259 36
258 36
257 35
256 35
255 35
254 36
253 35
252 35
251 35
250 35
249 35
248 35
247 36
246 37
245 36
244 36
243 35
242 34
241 34
240 34
239 35
238 34
237 33
236 33
235 33
234 32
233 32
233 33
232 34
231 34
230 34
229 34
228 34
227 33
226 33
225 32
224 32
223 31
222 31
221 30
220 30
