527 122
526 123
525 123
524 123
523 123
522 123
521 123
520 123
519 123
518 123
517 123
516 123
515 123
514 123
513 123
512 124
511 124
510 124
509 124
508 124
507 124
506 124
505 124
504 124
503 124
502 124
501 124
500 124
499 124
498 124
497 124
496 124
495 124
494 124
493 124
492 124
491 124
490 124
489 124
488 124
487 124
486 124
485 124
484 124
483 124
482 124
481 124
480 124
479 124
478 124
477 124
476 124
475 124
474 124
473 124
472 124
471 124
470 124
469 124
468 124
467 124
466 124
465 124
464 125
463 125
462 125
461 125
460 125
459 125
458 126
457 126
456 126
455 126
454 126
453 126
452 126
451 127
450 127
449 127
448 127
447 128
446 128
445 128
444 128
443 128
442 128
441 129
440 129
439 129
438 129
437 129
436 129
435 129
434 129
433 129
432 130
431 130
430 130
429 130
428 130
427 130
426 130
425 130
424 130
423 130
422 130
421 130
420 130
419 130
418 130
417 130
416 130
415 131
414 131
413 131
412 131
411 131
410 131
409 132
408 132
407 132
406 133
405 133
404 133
403 133
402 133
401 134
400 134
399 135
398 135
397 135
396 136
395 136
394 136
393 136
392 137
391 137
390 137
389 138
388 138
387 139
386 139
385 139
384 139
383 139
382 139
381 139
380 139
379 140
378 140
377 140
376 140
375 140
374 140
373 140
372 140
371 140
370 140
369 140
368 140
367 140
366 140
365 140
364 141
363 141
362 141
361 141
360 141
359 141
358 141
357 141
356 141
355 142
354 142
353 142
352 142
351 142
350 142
349 142
348 142
347 143
346 143
345 143
344 143
343 144
342 144
341 144
340 144
339 144
338 145
337 145
336 145
335 146
334 146
333 147
332 147
331 147
330 147
329 148
328 148
327 148
326 148
325 148
324 148
323 148
322 148
321 148
320 148
319 148
318 148
317 148
316 148
315 149
314 150
313 150
312 150
311 150
310 150
309 150
308 150
307 151
306 151
305 151
304 151
303 151
302 151
301 151
300 152
299 152
298 152
297 152
296 152
295 152
294 152
293 153
292 153
291 154
290 154
289 154
288 154
287 153
286 153
285 154
284 153
283 153
282 153
281 153
280 153
279 153
278 153
277 154
276 154
275 154
274 154
273 154
272 154
271 154
270 154
269 154
268 154
267 155
266 155
265 155
264 155
263 155
262 155
261 156
260 156
259 157
258 157
257 157
256 157
255 157
254 158
253 158
252 158
251 158
250 158
249 159
248 159
247 159
246 159
245 160
244 160
243 160
242 160
241 160
240 161
239 161
238 161
237 161
236 162
235 162
234 162
233 163
232 163
231 163
230 163
229 164
228 164
227 164
226 164
225 164
224 165
223 165
222 165
221 165
220 165
219 166
218 166
217 166
216 166
215 166
214 166
213 166
212 166
211 166
210 167
209 167
208 167
207 167
206 167
205 167
204 167
203 167
202 167
201 167
200 168
199 168
198 168
197 168
196 168
195 169
194 169
193 169
192 169
191 169
190 169
189 169
188 169
187 169
186 170
185 170
184 170
183 170
182 170
181 170
180 171
179 171
178 171
177 171
176 171
175 171
174 171
173 171
172 171
171 172
170 172
169 172
168 173
167 173
166 173
165 173
164 173
163 174
162 174
161 174
160 174
159 175
158 175
157 175
156 175
155 175
154 175
153 175
152 176
151 176
150 177
149 177
148 177
147 177
146 177
145 178
144 178
143 179
142 179
141 179
140 179
139 180
138 180
137 180
136 181
135 181
134 181
133 181
132 182
131 183
130 183
129 183
128 184
127 184
126 185
125 185
124 185
123 186
122 186
121 187
120 187
119 187
118 188
117 188
116 189
115 189
114 189
113 189
112 189
111 189
110 189
109 190
108 190
107 190
106 189
105 189
104 189
103 190
104 191
104 192
104 193
105 194
106 195
107 196
108 197
109 198
109 199
110 200
111 201
112 202
112 203
113 204
114 205
114 206
115 207
116 208
116 209
117 210
118 211
119 212
119 213
120 214
121 215
121 216
122 217
123 218
123 219
124 220
125 221
126 222
126 223
127 224
128 225
128 226
129 227
130 228
131 229
131 230
132 230
133 231
133 232
134 232
135 233
136 234
137 235
138 236
139 237
140 238
141 239
142 240
143 241
144 242
145 242
146 243
147 244
148 245
149 246
150 246
151 247
152 248
153 249
154 249
155 250
156 251
157 251
158 252
159 253
160 254
161 254
162 255
163 256
164 256
165 257
166 257
167 258
168 258
169 259
170 260
171 260
172 261
173 261
174 262
175 262
176 262
177 263
178 264
179 264
180 265
181 265
182 266
183 266
184 267
185 267
186 268
187 268
188 269
189 269
190 270
191 270
192 271
193 271
194 272
195 272
196 273
197 273
198 274
199 274
200 275
201 275
202 276
203 276
204 277
205 277
206 278
207 278
208 279
209 279
210 280
211 281
212 281
213 282
214 282
215 282
216 283
217 283
218 283
219 284
220 284
221 285
222 285
223 285
224 286
225 286
226 286
227 286
228 287
229 287
230 288
231 288
232 288
233 289
234 289
235 289
236 290
237 290
238 290
239 291
240 291
241 291
242 292
243 292
244 292
245 293
246 293
247 293
248 293
249 294
250 294
251 294
252 295
253 295
254 295
255 296
256 296
257 296
258 297
259 297
260 297
261 298
262 298
263 298
264 299
265 299
266 299
267 300
268 300
269 300
270 301
271 301
272 301
273 302
274 302
275 302
276 302
277 303
278 303
279 303
280 303
281 304
282 304
283 304
284 304
285 305
286 305
287 305
288 306
289 306
290 306
291 307
292 307
293 307
294 308
295 308
296 308
297 309
298 309
299 309
300 310
301 310
302 310
303 310
304 311
305 311
306 311
307 312
308 312
309 312
310 313
311 313
312 313
313 313
314 313
315 314
316 314
317 314
318 314
319 314
320 314
321 314
322 314
323 315
324 315
325 315
326 315
327 315
328 315
329 315
330 315
331 315
332 316
333 316
334 316
335 316
336 316
337 316
338 316
339 316
340 317
341 317
342 317
343 317
344 317
345 317
346 317
347 318
348 318
349 318
350 318
351 318
352 318
353 319
354 319
355 319
356 319
357 319
358 320
359 320
360 320
361 320
362 321
363 321
364 321
365 321
366 321
367 322
368 322
369 322
370 322
371 322
372 323
373 323
374 323
375 323
376 323
377 323
378 323
379 323
380 324
381 324
382 324
383 324
384 324
385 324
386 324
387 325
388 325
389 325
390 325
391 325
392 325
393 325
394 325
395 325
396 325
397 325
398 325
399 324
400 324
401 324
402 324
403 324
404 324
405 324
406 324
407 324
408 324
409 323
410 323
411 323
412 323
413 323
414 323
415 323
416 323
417 322
418 322
419 322
420 322
421 322
422 322
423 321
424 321
425 321
426 321
427 321
428 321
429 321
430 321
431 321
432 320
433 320
434 320
435 320
436 320
437 320
438 320
439 320
440 320
441 320
442 320
443 320
444 319
445 319
446 319
447 319
448 319
449 319
450 319
451 318
452 318
453 318
454 318
455 318
456 318
457 318
458 318
459 318
460 318
461 318
462 317
463 317
464 317
465 317
466 317
467 317
468 317
469 316
470 316
471 316
472 316
473 316
474 316
475 316
476 316
477 316
478 315
479 315
480 315
481 315
482 315
483 315
484 315
485 315
486 314
487 314
488 314
489 314
490 314
491 314
492 314
493 314
494 313
495 313
496 313
497 313
498 313
499 313
500 313
501 313
502 313
503 312
504 312
505 312
506 312
507 312
508 312
509 312
510 311
511 311
512 311
513 311
514 311
515 311
516 310
517 310
518 310
519 310
520 310
521 309
522 309
523 309
524 309
525 308
526 308
527 308
528 308
529 308
530 307
531 307
532 307
533 307
534 307
535 306
536 306
537 305
538 305
539 305
540 305
541 304
542 304
543 304
544 304
545 303
546 303
547 303
548 302
549 302
550 302
551 301
552 301
553 301
554 300
555 300
556 300
557 300
558 299
559 299
560 298
561 298
562 298
563 297
564 297
565 296
566 296
567 295
568 295
569 295
570 294
571 294
572 294
573 293
574 293
575 292
576 292
577 292
578 291
579 291
580 291
581 290
582 290
583 289
584 289
585 288
586 288
587 287
588 286
589 286
590 286
591 285
592 285
593 284
594 284
595 283
596 283
597 282
598 282
599 281
600 281
601 280
602 280
603 280
604 279
605 278
606 278
607 278
608 277
609 277
610 277
611 276
612 276
613 275
614 274
615 274
616 273
617 273
618 272
619 272
620 271
621 270
622 269
623 269
624 268
625 268
626 267
627 266
628 266
629 265
630 265
631 264
632 263
633 262
634 261
635 261
636 261
637 260
638 259
639 258
640 257
641 256
642 256
643 255
644 254
645 254
646 253
647 252
648 251
649 251
650 251
651 250
651 249
652 248
653 247
654 247
655 246
656 246
657 245
657 244
658 243
659 242
660 242
661 241
662 240
663 240
663 239
663 238
664 237
665 237
666 236
667 235
668 234
669 233
670 232
671 232
672 231
672 230
673 229
674 228
674 227
675 226
676 225
677 225
678 224
679 224
679 223
679 222
679 221
680 220
681 220
681 219
682 218
683 217
684 216
684 215
685 214
686 213
686 212
687 211
688 210
689 209
690 208
691 207
692 206
693 206
694 205
695 205
696 205
697 204
698 204
699 203
700 203
701 203
702 202
703 202
704 202
705 202
706 201
707 201
708 201
709 201
710 200
711 200
712 199
713 199
714 199
715 198
716 198
717 198
718 197
719 196
720 195
720 194
720 193
720 192
720 191
720 190
720 189
720 188
719 188
719 189
718 190
717 190
716 189
716 188
716 187
717 186
717 185
716 184
716 183
715 183
714 184
713 183
712 183
711 184
710 184
709 184
708 184
707 185
706 184
705 183
704 183
703 184
702 185
701 185
700 185
699 185
698 185
697 185
696 185
695 184
694 184
693 184
692 183
691 183
690 182
689 181
689 180
688 179
688 178
687 177
686 176
686 175
685 174
684 173
684 172
683 171
682 170
681 169
681 168
680 168
679 167
678 166
677 165
676 164
675 163
674 163
673 162
672 161
671 160
670 159
669 159
668 158
667 157
666 156
665 156
664 155
663 154
662 153
661 153
660 153
659 152
658 152
657 151
656 151
655 150
654 150
653 149
652 149
651 149
650 148
649 148
648 147
647 147
646 146
645 146
644 146
643 145
642 145
641 144
640 144
639 144
638 143
637 143
636 143
635 143
634 142
633 142
632 141
631 141
630 140
629 140
628 139
627 139
626 139
625 139
624 138
623 138
622 138
621 137
620 137
619 137
618 136
617 136
616 136
615 136
614 135
613 135
612 135
611 135
610 134
609 134
608 134
607 133
606 133
605 133
604 133
603 133
602 132
601 132
600 132
599 132
598 132
597 131
596 131
595 131
594 130
593 130
592 130
591 130
590 130
589 130
588 130
587 129
586 129
585 129
584 128
583 128
582 128
581 128
580 128
579 127
578 127
577 127
576 126
575 126
574 126
573 126
572 126
571 126
570 126
569 126
568 125
567 125
566 125
565 125
564 124
563 124
562 124
561 124
560 124
559 124
558 124
557 124
556 124
555 124
554 124
553 123
552 123
551 123
550 123
549 123
548 123
547 123
546 123
545 123
544 123
543 123
542 123
541 123
540 123
539 123
538 122
537 122
536 122
535 123
534 123
533 123
532 123
531 123
530 123
529 122
528 122
527 122
