219 129
218 130
217 130
216 130
215 130
214 130
213 130
212 130
211 131
210 131
209 131
208 132
207 132
206 132
205 132
204 132
203 133
202 133
201 133
200 133
199 134
198 134
197 134
196 134
195 135
194 136
193 137
193 138
193 139
193 140
192 141
192 142
192 143
192 144
192 145
192 146
193 147
193 148
193 149
193 150
193 151
193 152
193 153
194 154
194 155
194 156
194 157
194 158
194 159
194 160
194 161
194 162
194 163
194 164
194 165
194 166
194 167
194 168
195 169
195 170
195 171
195 172
195 173
195 174
195 175
195 176
194 177
194 178
193 179
192 180
192 181
191 182
191 183
191 184
191 185
191 186
190 187
191 188
191 189
191 190
191 191
191 192
191 193
192 194
192 195
192 196
192 197
193 198
193 199
193 200
194 201
194 202
195 203
196 204
196 205
197 206
197 207
198 208
199 209
200 210
201 211
201 212
202 212
203 213
204 214
205 215
205 216
206 217
207 218
208 219
209 220
210 221
211 221
212 222
213 223
214 224
215 224
216 225
217 226
218 227
219 228
220 229
221 230
222 231
223 231
224 232
225 233
226 234
227 234
228 235
229 236
230 237
231 238
232 238
233 239
234 240
235 240
236 241
237 242
238 243
239 244
240 245
241 246
242 246
243 247
244 248
245 249
246 250
247 250
248 251
249 252
250 253
251 254
252 255
253 255
254 256
255 256
256 256
257 256
258 256
259 256
260 256
261 257
261 258
262 259
262 260
261 261
260 262
259 262
258 262
257 262
256 262
255 262
254 262
253 261
252 261
251 261
250 261
249 261
248 260
247 260
246 260
245 260
244 259
243 259
242 259
241 259
240 258
239 258
238 258
237 258
236 257
235 257
234 257
233 257
232 256
231 256
230 256
229 255
228 255
227 255
226 254
225 254
224 254
223 253
222 253
221 253
220 252
219 252
218 251
217 251
216 250
215 250
214 250
213 250
212 249
211 249
210 249
209 249
208 248
207 248
206 248
205 247
204 247
203 247
202 246
201 246
200 245
199 245
198 245
197 244
196 244
195 244
194 243
193 243
192 242
191 242
190 241
189 241
188 240
187 240
186 240
185 240
184 239
183 239
182 239
181 238
180 238
179 238
178 238
177 238
176 238
175 238
174 238
173 238
172 238
171 237
170 237
169 237
168 237
167 237
166 237
165 237
164 237
163 237
162 237
161 237
160 236
159 236
158 236
157 236
156 237
155 237
154 237
153 237
152 237
151 237
150 237
149 237
148 237
147 238
146 238
145 239
144 239
143 239
142 240
141 240
140 241
139 241
138 240
137 240
136 240
135 240
134 240
133 240
132 241
131 241
130 241
129 241
128 242
127 242
126 242
125 243
124 244
124 245
124 246
123 247
123 248
123 249
123 250
123 251
123 252
123 253
123 254
123 255
123 256
123 257
124 258
124 259
124 260
125 261
125 262
125 263
125 264
126 265
126 266
126 267
126 268
126 269
126 270
126 271
126 272
125 273
124 273
123 274
122 275
121 275
120 276
119 276
118 276
117 277
116 277
115 277
114 278
113 278
112 278
111 278
110 279
109 279
108 279
107 280
106 280
105 281
104 281
103 282
102 283
101 283
100 284
99 285
98 286
97 287
96 288
95 289
95 290
95 291
94 292
94 293
93 294
92 294
91 295
90 296
90 297
90 298
90 299
90 300
90 301
89 302
89 303
88 304
87 305
87 306
86 307
85 308
84 308
84 309
83 310
82 311
81 312
81 313
80 314
79 315
79 316
78 317
78 318
78 319
77 320
77 321
76 322
75 323
75 324
74 325
74 326
74 327
73 328
73 329
72 330
72 331
71 332
71 333
71 334
71 335
71 336
70 337
70 338
70 339
70 340
71 341
71 342
72 343
72 344
73 345
74 346
75 347
75 348
76 349
77 349
78 350
79 351
80 352
81 353
82 354
83 354
84 355
85 356
86 357
87 357
88 358
89 358
90 359
91 360
91 361
92 361
93 362
94 363
95 363
96 363
97 363
98 363
99 363
100 363
101 364
102 364
103 365
103 366
103 367
104 368
105 368
106 368
107 369
108 369
109 369
110 369
111 370
112 370
113 371
114 371
115 372
116 373
117 374
117 375
117 376
117 377
116 378
116 379
116 380
115 381
115 382
115 383
115 384
115 385
114 386
114 387
114 388
114 389
115 390
115 391
115 392
116 393
116 394
117 395
118 395
119 396
120 397
121 397
122 397
123 397
124 398
125 398
126 398
127 399
128 399
129 399
130 399
131 400
132 400
133 400
134 400
135 400
136 400
137 400
138 400
139 400
140 400
141 400
142 400
143 400
144 400
145 401
146 401
147 401
148 401
149 401
150 401
151 401
152 401
153 401
154 401
155 401
156 401
157 401
158 401
159 401
160 401
161 401
162 401
163 401
164 401
165 401
166 401
167 401
168 401
169 401
170 401
171 401
172 401
173 401
174 400
175 400
176 400
177 400
178 400
179 399
180 399
181 399
182 399
183 398
184 398
185 398
186 397
187 397
188 396
189 396
190 396
191 395
192 395
193 394
194 394
195 394
196 393
197 393
198 393
199 392
200 392
201 391
202 391
203 391
204 390
205 390
206 390
207 390
208 389
209 389
210 389
211 389
212 389
213 389
214 389
215 388
216 388
217 388
218 388
219 387
220 387
221 387
222 387
223 387
224 387
225 386
226 386
227 386
228 386
229 385
230 385
231 385
232 385
233 384
234 384
235 384
236 384
237 383
238 383
239 383
240 382
241 382
242 382
243 381
244 381
245 381
246 381
247 381
248 380
249 380
250 380
251 380
252 380
253 380
254 380
255 379
256 379
257 379
258 379
259 379
260 379
261 379
262 379
263 380
262 381
261 382
260 383
259 384
258 385
257 386
256 387
255 388
254 389
253 390
252 391
252 392
251 393
250 394
249 395
249 396
248 397
247 398
247 399
247 400
246 401
245 402
245 403
244 404
243 405
242 406
242 407
241 408
240 409
239 410
238 410
237 411
236 412
235 413
234 414
233 415
232 416
232 417
231 418
230 419
229 420
228 421
227 422
226 423
225 424
225 425
224 426
223 427
222 428
222 429
221 430
221 431
220 432
219 433
219 434
219 435
218 436
218 437
218 438
217 439
217 440
217 441
217 442
216 443
216 444
216 445
216 446
216 447
216 448
215 449
216 450
216 451
216 452
216 453
216 454
216 455
216 456
216 457
216 458
216 459
216 460
216 461
216 462
216 463
216 464
216 465
216 466
216 467
216 468
216 469
216 470
216 471
216 472
217 473
217 474
217 475
217 476
217 477
217 478
216 479
216 480
216 481
216 482
216 483
216 484
216 485
216 486
216 487
216 488
216 489
216 490
217 491
217 492
217 493
217 494
217 495
217 496
218 497
218 498
218 499
219 500
219 501
219 502
220 503
221 504
222 504
223 505
224 505
225 505
226 506
227 506
228 506
229 506
230 506
231 506
232 506
233 506
234 506
235 506
236 506
237 506
238 505
239 505
240 505
241 505
242 505
243 504
244 504
245 504
246 503
247 503
248 503
249 503
250 502
251 502
252 502
253 501
254 501
255 501
256 500
257 500
258 500
259 499
260 499
261 498
262 498
263 497
264 497
265 497
266 496
267 496
268 496
269 495
270 495
271 495
272 495
273 494
274 494
275 494
276 494
277 494
278 494
279 494
280 495
281 496
282 496
283 497
284 498
285 499
286 500
287 501
288 501
289 501
290 501
291 502
292 502
293 502
294 502
295 501
296 501
297 501
298 500
299 500
300 500
301 499
302 498
303 497
304 497
305 496
306 496
307 495
308 494
309 494
310 493
311 492
312 491
313 490
314 490
314 489
315 488
316 487
317 486
318 485
319 484
320 483
320 482
321 481
322 480
323 479
324 478
325 477
326 476
327 475
327 474
328 473
329 472
330 471
331 470
331 469
332 468
333 468
333 467
334 466
335 465
336 464
337 463
338 463
339 462
340 462
341 462
342 462
343 463
344 463
345 464
346 465
347 465
348 466
349 467
350 468
351 469
352 470
353 471
354 471
355 471
356 471
357 471
358 471
359 471
360 471
361 470
362 469
363 469
363 468
364 467
365 466
365 465
366 464
366 463
367 462
368 461
368 460
369 459
370 458
371 457
371 456
372 455
373 454
373 453
374 452
375 451
376 450
377 449
378 448
379 447
380 446
380 445
381 444
382 443
383 442
383 441
384 440
384 439
385 438
386 437
387 436
387 435
388 434
389 433
389 432
389 431
390 430
390 429
391 428
391 427
392 426
392 425
393 424
393 423
393 422
394 421
394 420
395 419
395 418
395 417
396 416
396 415
397 414
397 413
397 412
398 411
398 410
398 409
399 408
399 407
400 406
400 405
400 404
400 403
401 402
401 401
402 400
402 399
402 398
402 397
402 396
403 395
403 394
403 393
404 392
404 391
404 390
404 389
404 388
405 387
405 386
405 385
405 384
405 383
406 382
406 381
406 380
406 379
406 378
406 377
406 376
406 375
406 374
406 373
406 372
406 371
407 370
406 369
406 368
406 367
406 366
406 365
406 364
406 363
406 362
406 361
406 360
406 359
406 358
406 357
406 356
406 355
406 354
406 353
405 352
405 351
405 350
405 349
405 348
404 347
404 346
404 345
404 344
403 343
403 342
402 341
402 340
401 339
400 338
399 337
398 336
397 335
396 334
395 333
394 332
393 331
392 330
391 329
390 328
389 327
388 326
387 326
386 325
385 324
384 324
383 323
383 322
382 322
381 321
380 320
379 319
378 318
379 317
380 317
381 316
382 316
383 315
384 315
385 315
386 315
387 315
388 315
389 315
390 315
391 315
392 315
393 315
394 315
395 315
396 315
397 315
398 315
399 315
400 315
401 315
402 315
403 315
404 315
405 315
406 315
407 315
408 315
409 315
410 315
411 315
412 315
413 315
414 315
415 315
416 315
417 316
418 316
419 316
420 316
421 316
422 316
423 316
424 316
425 316
426 316
427 317
428 317
429 317
430 317
431 317
432 317
433 317
434 318
435 318
436 318
437 318
438 318
439 318
440 318
441 318
442 318
443 318
444 319
445 319
446 319
447 319
448 319
449 320
450 320
451 320
452 320
453 320
454 320
455 320
456 320
457 320
458 320
459 320
460 320
461 320
462 320
463 320
464 321
465 321
466 321
467 321
468 321
469 321
470 321
471 321
472 321
473 321
474 321
475 321
476 321
477 321
478 321
479 321
480 321
481 321
482 321
483 321
484 321
485 321
486 321
487 321
488 321
489 321
490 321
491 321
492 321
493 320
494 320
495 320
496 320
497 320
498 320
499 320
500 320
501 320
502 320
503 320
504 320
505 320
506 320
507 320
508 320
509 320
510 320
511 320
512 320
513 320
514 319
515 319
516 319
517 319
518 319
519 319
520 319
521 319
522 319
523 319
524 319
525 319
526 319
527 319
528 319
529 319
530 319
531 319
532 318
533 318
534 318
535 318
536 318
537 318
538 318
539 318
540 318
541 318
542 318
543 318
544 318
545 318
546 318
547 318
548 318
549 317
550 317
551 317
552 317
553 317
554 317
555 317
556 317
557 317
558 317
559 317
560 317
561 317
562 317
563 317
564 316
565 316
566 316
567 316
568 316
569 316
570 316
571 316
572 316
573 316
574 316
575 316
576 316
577 316
578 316
579 316
580 316
581 316
582 316
583 315
584 315
585 315
586 315
587 315
588 315
589 315
590 314
591 314
592 314
593 314
594 314
595 313
596 313
597 313
598 313
599 312
600 312
601 312
602 311
603 311
604 311
605 311
606 310
607 310
608 309
609 308
610 308
611 307
612 307
613 307
614 306
614 305
614 304
615 303
616 303
616 302
616 301
617 300
617 299
617 298
616 297
616 296
617 295
617 294
618 293
618 292
618 291
617 292
616 292
615 293
615 294
614 295
614 296
613 297
612 298
611 298
610 298
609 298
608 299
607 299
606 300
605 300
604 301
603 302
602 303
603 304
602 305
601 305
600 304
599 305
598 306
597 306
596 307
595 307
594 307
593 308
592 308
591 308
590 308
589 308
588 309
587 309
586 309
585 309
584 310
583 310
582 310
581 310
580 311
579 311
578 311
577 311
576 312
575 312
574 312
573 312
572 312
571 312
570 313
569 313
568 313
567 313
566 313
565 313
564 313
563 313
562 313
561 313
560 314
559 314
558 314
557 314
556 314
555 314
554 314
553 314
552 314
551 314
550 314
549 314
548 315
547 315
546 315
545 315
544 315
543 315
542 315
541 315
540 315
539 315
538 315
537 315
536 315
535 315
534 315
533 315
532 316
531 316
530 316
529 316
528 316
527 316
526 316
525 316
524 316
523 316
522 317
521 317
520 317
519 317
518 317
517 317
516 317
515 317
514 317
513 317
512 317
511 317
510 317
509 317
508 317
507 318
506 318
505 318
504 318
503 318
502 318
501 318
500 318
499 318
498 318
497 318
496 318
495 318
494 318
493 318
492 318
491 318
490 318
489 318
488 318
487 318
486 318
485 318
484 318
483 318
482 318
481 318
480 318
479 318
478 318
477 318
476 318
475 318
474 318
473 318
472 318
471 318
470 318
469 318
468 318
467 318
466 318
465 318
464 317
463 317
462 317
461 317
460 317
459 317
458 317
457 317
456 317
455 317
454 317
453 317
452 317
451 317
450 317
449 316
448 316
447 316
446 316
445 316
444 316
443 315
442 315
441 315
440 315
439 315
438 315
437 315
436 315
435 314
434 314
433 314
432 314
431 314
430 314
429 314
428 314
427 313
426 313
425 313
424 313
423 313
422 313
421 313
420 312
419 312
418 312
417 312
416 312
415 312
414 311
413 311
412 312
411 311
410 311
409 311
408 311
407 311
406 311
405 311
404 311
403 311
402 310
401 309
400 308
401 307
402 306
403 305
404 304
405 303
406 302
407 301
408 300
408 299
409 298
409 297
410 296
411 295
411 294
412 293
412 292
413 291
413 290
414 289
414 288
415 287
416 286
416 285
417 284
418 283
418 282
419 281
420 280
420 279
421 278
421 277
422 276
422 275
423 274
423 273
423 272
424 271
424 270
425 269
425 268
425 267
426 266
426 265
426 264
426 263
426 262
426 261
426 260
427 259
427 258
427 257
427 256
427 255
427 254
428 253
428 252
428 251
428 250
428 249
428 248
428 247
428 246
428 245
428 244
428 243
428 242
428 241
428 240
428 239
428 238
428 237
428 236
428 235
427 234
427 233
427 232
426 231
426 230
426 229
426 228
425 227
425 226
425 225
424 224
423 223
423 222
423 221
422 220
422 219
421 218
420 217
420 216
419 215
418 214
417 213
416 212
416 211
416 210
415 209
415 208
415 207
415 206
415 205
415 204
415 203
414 202
413 201
412 200
411 200
410 199
409 199
408 199
407 199
406 199
405 199
404 199
403 199
402 199
401 200
400 200
399 200
398 200
397 201
396 201
395 202
394 203
393 203
392 204
391 205
390 205
389 206
388 207
387 208
386 209
385 210
384 211
384 212
383 213
382 214
381 215
381 216
380 217
379 218
378 219
378 220
377 221
376 222
375 223
374 224
373 224
372 225
371 225
370 225
369 225
368 225
367 225
366 224
365 223
364 223
363 222
363 221
362 221
361 220
361 219
360 218
359 217
359 216
358 215
358 214
358 213
357 212
357 211
357 210
357 209
357 208
357 207
357 206
356 205
356 204
356 203
355 202
355 201
355 200
355 199
354 198
354 197
354 196
353 195
353 194
352 193
352 192
351 191
351 190
351 189
350 188
350 187
350 186
349 185
349 184
348 183
348 182
347 181
346 180
346 179
345 178
344 177
343 176
343 175
342 174
341 173
341 172
340 171
340 170
339 169
338 168
338 167
337 166
337 165
336 164
335 163
335 162
334 161
333 160
333 159
332 158
331 157
330 156
330 155
329 154
328 153
327 152
326 151
325 150
324 149
323 148
322 147
321 146
320 145
319 144
318 143
317 143
316 142
315 141
314 140
313 140
312 139
311 138
310 138
309 138
308 137
307 137
306 138
305 138
304 139
303 139
302 139
301 140
300 140
299 141
298 142
297 142
296 143
295 143
294 144
293 144
292 145
291 145
290 145
289 145
288 145
287 145
286 145
285 145
284 144
283 144
282 143
281 143
280 142
279 142
278 142
277 141
276 141
275 141
274 140
273 140
272 140
271 139
270 139
269 139
268 138
267 138
266 138
265 137
264 136
263 136
262 136
261 135
260 135
259 134
258 134
257 134
256 133
255 133
254 133
253 133
252 133
251 133
250 133
249 133
248 134
247 134
246 135
245 135
244 135
243 135
242 135
241 134
240 133
239 132
239 131
238 131
237 131
236 131
235 130
234 130
233 130
232 129
231 129
230 129
229 129
228 129
227 129
226 129
225 129
224 129
223 129
222 129
221 129
220 129
219 129
