266 64
265 65
264 65
263 65
262 65
261 65
260 65
259 66
258 66
257 66
256 67
255 67
254 67
253 67
252 68
251 68
250 68
249 69
248 69
247 70
246 70
245 70
244 71
243 71
242 72
241 72
240 72
239 73
238 73
237 73
236 74
235 74
234 75
233 75
232 75
231 76
230 76
229 76
228 76
227 76
226 77
225 77
224 77
223 77
222 77
221 77
220 77
219 77
218 78
217 78
216 78
215 78
214 78
213 78
212 78
211 79
210 79
209 80
208 81
207 81
206 82
205 82
204 82
203 83
202 83
201 83
200 84
199 84
198 84
197 84
196 84
195 84
194 85
193 85
192 85
191 85
190 85
189 85
188 85
187 85
186 84
185 84
184 84
183 84
182 84
181 84
180 84
179 84
178 84
177 84
176 83
175 83
174 83
173 83
172 83
171 82
170 82
169 82
168 82
167 82
166 82
165 81
164 81
163 81
162 81
161 81
160 81
159 80
158 80
157 80
156 80
155 80
154 79
153 79
152 79
151 79
150 79
149 79
148 79
147 79
146 79
145 79
144 79
143 79
142 79
141 79
140 79
139 79
138 79
137 79
136 79
135 79
134 79
133 80
132 80
131 80
130 80
129 80
128 81
127 81
126 81
125 82
124 82
123 83
122 83
121 83
120 83
119 83
118 84
117 84
116 84
115 85
114 85
113 86
112 86
111 86
110 87
109 87
108 87
107 88
106 88
105 88
104 88
103 89
102 89
101 89
100 89
99 90
98 90
97 90
96 90
95 90
94 91
93 91
92 91
91 91
90 91
89 91
88 92
87 92
86 92
85 92
84 92
83 92
82 92
81 92
80 92
79 92
78 93
77 93
76 94
76 95
75 96
75 97
75 98
75 99
75 100
75 101
75 102
75 103
75 104
75 105
76 106
76 107
77 108
77 109
78 110
78 111
79 112
79 113
80 114
80 115
81 116
82 117
83 118
83 119
83 120
84 121
85 122
85 123
86 124
87 125
88 126
89 127
90 128
91 129
91 130
92 131
93 132
93 133
94 133
95 134
96 134
97 135
98 136
98 137
99 138
100 138
101 139
101 140
102 140
103 141
104 142
105 142
106 143
107 144
108 144
109 145
110 145
111 146
112 146
113 147
114 148
115 148
116 149
117 149
118 150
119 150
120 151
121 151
122 152
123 152
124 153
125 153
126 154
127 154
128 154
129 155
130 155
131 156
132 156
133 157
134 157
135 158
136 158
137 158
138 159
139 160
140 160
141 160
142 160
143 161
144 161
145 161
146 162
147 162
148 162
149 163
150 163
151 163
152 163
153 164
154 164
155 164
156 164
157 164
158 164
159 164
160 164
161 164
162 164
163 164
164 164
165 164
166 165
167 165
168 165
169 165
170 165
171 165
172 165
173 165
174 165
175 165
176 165
177 165
178 165
179 165
180 165
181 165
182 166
183 166
184 166
185 166
186 166
187 166
188 166
189 166
190 166
191 166
192 167
193 167
194 167
195 168
196 168
197 168
198 169
199 169
200 169
201 170
202 171
203 171
204 172
205 172
206 173
207 174
208 174
209 175
210 175
211 175
212 176
213 176
214 176
215 176
216 177
217 177
218 177
219 177
220 177
221 177
222 177
223 177
224 177
225 177
226 178
227 178
228 178
229 178
230 178
231 178
232 178
233 178
234 178
235 179
236 179
237 179
238 179
239 179
240 179
241 180
242 180
243 180
244 180
245 180
246 180
247 181
248 181
249 181
250 181
251 181
252 182
253 182
254 182
255 182
256 182
257 183
258 183
259 183
260 183
261 183
262 184
263 184
264 184
265 184
266 184
267 185
268 185
269 185
270 185
271 185
272 186
273 186
274 186
275 186
276 187
277 187
278 187
279 187
280 187
281 187
282 188
283 188
284 188
285 188
286 188
287 188
288 189
289 189
290 189
291 189
292 189
293 190
294 190
295 190
296 190
297 191
298 191
299 191
300 192
301 192
302 192
303 192
304 193
305 193
306 193
307 193
308 193
309 194
310 194
311 194
312 194
313 194
314 194
315 195
316 195
317 195
318 195
319 195
320 195
321 195
322 195
323 195
324 195
325 195
326 196
327 196
328 196
329 196
330 196
331 196
332 196
333 196
334 196
335 196
336 195
337 195
338 195
339 195
340 195
341 195
342 195
343 195
344 195
345 195
346 195
347 195
348 195
349 195
350 195
351 195
352 195
353 195
354 195
355 195
356 195
357 195
358 195
359 195
360 195
361 195
362 195
363 195
364 195
365 195
366 195
367 195
368 195
369 195
370 195
371 195
372 195
373 195
374 195
375 195
376 195
377 195
378 195
379 195
380 195
381 195
382 195
383 195
384 195
385 195
386 195
387 195
388 195
389 195
390 195
391 195
392 195
393 195
394 195
395 195
396 195
397 195
398 195
399 195
400 195
401 195
402 195
403 195
404 196
405 196
406 196
407 196
408 196
409 196
410 196
411 196
412 196
413 196
414 196
415 196
416 196
417 196
418 196
419 196
420 196
421 196
422 196
423 196
424 196
425 196
426 196
427 196
428 195
429 195
430 195
431 195
432 195
433 195
434 195
435 195
436 195
437 195
438 195
439 195
440 195
441 194
442 194
443 194
444 194
445 194
446 194
447 194
448 194
449 194
450 194
451 194
452 194
453 193
454 193
455 193
456 193
457 193
458 193
459 193
460 193
461 193
462 193
463 193
464 193
465 193
466 193
467 192
468 192
469 192
470 192
471 192
472 192
473 192
474 192
475 192
476 192
477 192
478 192
479 192
480 192
481 192
482 192
483 191
484 191
485 191
486 191
487 191
488 191
489 191
490 191
491 191
492 191
493 191
494 190
495 190
496 190
497 190
498 190
499 189
500 189
501 189
502 189
503 189
504 189
505 189
506 188
507 188
508 188
509 188
510 188
511 187
512 187
513 187
514 187
515 186
516 186
517 186
518 186
519 185
520 185
521 185
522 184
523 184
524 184
525 184
526 183
527 183
528 183
529 182
530 182
531 182
532 182
533 181
534 181
535 181
536 181
537 180
538 180
539 180
540 179
541 179
542 179
543 178
544 178
545 178
546 177
547 177
548 177
549 177
550 176
551 176
552 176
553 176
554 176
555 175
556 175
557 175
558 174
559 174
560 174
561 174
562 174
563 174
564 174
565 173
566 173
567 173
568 173
569 173
570 173
571 172
572 172
573 172
574 172
575 172
576 172
577 172
578 172
579 172
580 171
581 171
582 171
583 171
584 170
585 170
586 170
587 169
588 169
589 168
590 168
591 168
592 168
593 168
594 167
595 166
596 166
597 166
598 166
599 165
600 165
601 164
602 164
603 164
604 163
605 163
606 163
607 162
608 162
609 162
610 161
611 160
612 160
613 160
614 160
615 160
615 159
616 158
617 158
618 158
619 158
620 158
621 157
622 157
623 156
624 156
625 156
626 155
627 155
628 155
629 154
630 154
631 154
632 153
633 152
634 152
635 152
636 151
637 151
638 151
639 150
640 150
641 149
642 149
643 148
644 148
645 148
646 147
647 147
648 146
649 146
650 145
651 145
652 145
653 144
654 144
655 143
656 143
657 142
658 141
659 141
660 141
661 140
662 140
663 140
664 139
665 138
666 138
667 137
668 137
669 136
670 136
671 135
672 134
673 134
674 133
675 133
676 132
677 132
678 131
679 130
680 130
681 129
682 128
683 128
684 127
685 126
686 126
687 126
688 126
689 125
690 124
691 124
692 123
693 123
694 122
695 122
696 121
697 120
698 120
699 120
700 119
701 119
702 118
703 117
704 117
705 116
706 115
707 114
707 113
708 112
707 111
707 110
706 109
706 108
705 107
704 107
703 107
702 107
701 107
700 107
699 107
698 107
697 107
696 107
695 107
694 107
693 107
692 107
691 107
690 107
689 106
688 106
687 106
686 105
685 105
684 104
683 104
682 104
681 103
680 104
679 103
678 103
677 103
676 103
675 103
674 102
673 102
672 102
671 102
670 102
669 101
668 101
667 101
666 101
665 101
664 101
663 101
662 101
661 101
660 100
659 100
658 100
657 100
656 100
655 99
654 99
653 99
652 99
651 99
650 99
649 99
648 99
647 98
646 98
645 98
644 98
643 98
642 98
641 98
640 98
639 97
638 97
637 97
636 97
635 97
634 97
633 97
632 97
631 97
630 97
629 97
628 96
627 96
626 96
625 96
624 96
623 96
622 96
621 96
620 96
619 96
618 96
617 96
616 96
615 96
614 96
613 96
612 96
611 96
610 96
609 96
608 96
607 96
606 96
605 96
604 96
603 96
602 96
601 96
600 96
599 96
598 96
597 96
596 96
595 96
594 96
593 96
592 96
591 96
590 97
589 97
588 97
587 96
586 96
585 96
584 96
583 95
582 95
581 95
580 95
579 95
578 95
577 95
576 94
575 94
574 94
573 94
572 94
571 94
570 93
569 93
568 93
567 93
566 93
565 93
564 93
563 92
562 92
561 92
560 92
559 92
558 92
557 92
556 92
555 91
554 91
553 91
552 91
551 91
550 91
549 91
548 91
547 91
546 91
545 91
544 91
543 91
542 90
541 90
540 90
539 90
538 90
537 90
536 90
535 90
534 90
533 89
532 89
531 89
530 89
529 89
528 89
527 89
526 89
525 89
524 88
523 88
522 88
521 88
520 88
519 88
518 88
517 88
516 87
515 87
514 87
513 87
512 87
511 87
510 86
509 86
508 86
507 86
506 86
505 86
504 85
503 85
502 85
501 85
500 85
499 85
498 85
497 84
496 84
495 84
494 84
493 84
492 83
491 83
490 83
489 83
488 83
487 83
486 83
485 82
484 82
483 82
482 82
481 82
480 82
479 82
478 82
477 82
476 82
475 82
474 81
473 81
472 81
471 81
470 81
469 81
468 81
467 81
466 81
465 81
464 81
463 81
462 81
461 81
460 81
459 81
458 81
457 81
456 80
455 80
454 80
453 80
452 80
451 80
450 80
449 80
448 80
447 80
446 80
445 80
444 80
443 79
442 79
441 79
440 79
439 79
438 79
437 79
436 79
435 79
434 79
433 79
432 80
431 79
430 79
429 80
428 79
427 80
426 80
425 80
424 80
423 80
422 80
421 80
420 80
419 81
418 81
417 81
416 81
415 81
414 81
413 81
412 81
411 81
410 81
409 81
408 81
407 81
406 81
405 81
404 81
403 81
402 81
401 81
400 81
399 81
398 81
397 81
396 81
395 81
394 81
393 81
392 81
391 81
390 81
389 81
388 81
387 81
386 81
385 81
384 81
383 81
382 81
381 81
380 80
379 80
378 80
377 80
376 80
375 80
374 80
373 80
372 79
371 79
370 79
369 79
368 79
367 79
366 79
365 78
364 78
363 78
362 78
361 77
360 77
359 77
358 77
357 77
356 76
355 76
354 76
353 76
352 75
351 75
350 74
349 74
348 74
347 74
346 73
345 73
344 73
343 72
342 72
341 72
340 72
339 71
338 71
337 71
336 71
335 70
334 70
333 70
332 70
331 69
330 69
329 69
328 69
327 68
326 68
325 68
324 68
323 68
322 67
321 67
320 67
319 67
318 67
317 67
316 67
315 67
314 67
313 67
312 66
311 66
310 66
309 66
308 66
307 66
306 66
305 66
304 66
303 66
302 66
301 65
300 65
299 65
298 65
297 65
296 65
295 65
294 65
293 65
292 65
291 65
290 64
289 64
288 64
287 64
286 64
285 64
284 64
283 64
282 64
281 64
280 64
279 64
278 64
277 64
276 64
275 64
274 64
273 64
272 64
271 64
270 64
269 64
268 64
267 64
266 64
