70 277
70 278
70 279
70 280
70 281
71 281
72 281
73 281
74 281
75 281
76 281
77 281
78 281
79 281
80 281
81 281
82 281
83 281
84 282
85 282
86 282
87 282
88 282
89 282
90 282
91 282
92 282
93 282
94 282
95 282
96 282
97 282
98 282
99 282
100 283
101 283
102 284
103 284
104 284
105 284
106 284
107 284
108 284
109 284
110 284
111 284
112 284
113 284
114 284
115 284
116 284
117 284
118 284
119 284
120 284
121 284
122 284
123 285
124 285
125 286
126 286
127 286
128 287
129 287
130 287
131 287
132 287
133 288
134 288
135 289
136 289
137 289
138 289
139 289
140 289
141 289
142 289
143 289
144 289
145 289
146 289
147 288
148 288
149 288
150 288
151 288
152 288
153 288
154 288
155 288
156 288
157 288
158 288
159 287
160 287
161 288
162 288
163 289
164 289
165 289
166 289
167 289
168 289
169 289
170 289
171 289
172 289
173 289
174 288
175 288
176 288
177 288
178 288
179 288
180 288
181 288
182 287
183 287
184 287
185 287
186 287
187 287
188 287
189 287
190 287
191 286
192 286
193 286
194 286
195 285
196 285
197 285
198 285
199 285
200 285
201 285
202 285
203 284
204 284
205 284
206 284
207 284
208 284
209 283
210 283
211 282
212 282
213 281
214 281
215 281
216 280
217 280
218 280
219 279
220 279
221 278
222 278
223 277
224 277
225 277
226 276
227 276
228 276
229 276
230 275
231 274
232 273
233 272
234 271
235 271
236 270
237 269
238 268
239 267
240 266
241 265
242 264
243 263
244 262
245 261
246 261
247 260
248 259
249 259
250 258
251 257
252 257
253 256
254 255
255 255
256 254
257 253
258 252
259 252
260 251
261 251
262 250
263 249
264 248
265 247
266 246
267 246
268 245
269 245
270 244
271 243
271 242
272 241
273 241
274 240
275 240
276 239
277 239
278 239
279 239
280 239
281 239
282 239
283 239
284 239
285 240
286 241
287 242
286 243
285 244
284 245
283 245
282 246
281 246
280 246
279 247
278 247
277 248
276 248
275 249
274 249
273 250
272 250
271 251
270 251
269 252
268 252
267 253
266 253
265 254
264 255
263 256
262 257
261 258
260 258
259 259
258 260
257 261
256 262
255 263
254 264
253 265
252 266
251 267
250 267
249 268
248 269
247 270
246 271
246 272
245 273
245 274
244 275
243 276
243 277
242 278
242 279
241 280
240 281
239 282
238 283
238 284
237 285
236 286
235 286
234 287
233 288
233 289
232 290
232 291
231 292
231 293
230 294
230 295
229 296
228 297
228 298
228 299
227 300
227 301
226 302
226 303
225 304
225 305
224 306
224 307
223 308
222 309
221 310
220 311
220 312
220 313
220 314
220 315
219 316
219 317
218 318
218 319
217 320
217 321
216 322
216 323
216 324
216 325
216 326
216 327
216 328
216 329
216 330
216 331
216 332
215 333
215 334
214 335
214 336
213 337
213 338
213 339
212 340
212 341
212 342
212 343
212 344
212 345
212 346
212 347
212 348
212 349
212 350
212 351
213 352
213 353
212 354
212 355
211 356
211 357
210 358
210 359
209 360
209 361
209 362
209 363
209 364
209 365
209 366
209 367
209 368
209 369
209 370
209 371
208 372
208 373
208 374
208 375
208 376
208 377
208 378
208 379
208 380
208 381
207 382
207 383
207 384
206 385
206 386
206 387
206 388
206 389
206 390
206 391
206 392
206 393
206 394
206 395
206 396
206 397
207 397
208 397
209 397
210 397
211 397
212 397
213 397
214 397
215 396
216 396
217 395
218 394
219 394
220 393
221 393
222 392
223 392
224 391
225 391
226 390
227 390
228 390
229 389
230 389
231 388
232 387
233 386
234 385
235 384
236 384
237 383
238 383
239 382
240 382
241 381
242 381
243 380
244 379
245 378
246 378
247 377
248 377
249 376
250 375
251 374
252 373
252 372
253 371
254 370
255 369
256 368
257 367
258 367
259 366
260 366
261 365
262 365
263 364
264 363
264 362
265 361
265 360
266 359
267 358
268 357
269 356
270 355
271 354
272 353
272 352
273 351
274 350
275 349
276 348
277 347
278 346
278 345
279 344
279 343
280 342
281 341
282 341
283 340
283 339
283 338
284 337
284 336
285 335
285 334
286 333
286 332
287 331
287 330
288 329
288 328
288 327
288 326
289 325
289 324
289 323
290 322
290 321
290 320
290 319
291 318
291 317
291 316
292 315
292 314
293 313
293 312
293 311
293 310
293 309
293 308
293 307
294 306
294 305
294 304
294 303
294 302
294 301
295 300
295 299
295 298
295 297
296 296
296 295
296 294
296 293
296 292
297 291
297 290
297 289
297 288
297 287
297 286
298 285
298 284
298 283
298 282
298 281
298 280
299 279
299 278
299 277
299 276
299 275
299 274
300 273
300 272
300 271
300 270
300 269
300 268
301 267
301 266
301 265
301 264
302 263
302 262
302 261
302 260
303 259
303 258
303 257
303 256
304 255
304 254
304 253
304 252
305 251
305 250
305 249
306 248
306 247
307 246
307 245
308 244
309 243
310 242
311 242
312 241
313 241
314 240
315 240
316 240
317 240
318 240
319 240
320 240
321 240
322 240
323 240
324 241
325 241
326 241
327 241
328 241
329 241
330 241
331 241
332 241
333 241
334 241
335 241
336 242
337 242
338 242
339 242
340 242
341 242
342 242
343 242
344 242
345 242
346 242
347 242
348 242
349 242
350 243
351 243
352 243
353 243
354 243
355 243
356 243
357 243
358 243
359 243
360 243
361 243
362 243
363 243
364 243
365 243
366 243
367 243
368 243
369 243
370 243
371 243
372 243
373 243
374 243
375 243
376 243
377 243
378 244
379 244
380 244
381 244
382 244
383 244
384 244
385 244
386 244
387 244
388 245
389 245
390 246
391 247
392 248
392 249
391 250
390 251
389 252
388 253
387 253
386 254
385 254
384 255
383 256
382 257
381 257
380 258
379 258
378 259
377 259
376 260
375 261
374 262
373 262
372 263
371 263
370 264
369 265
368 265
367 266
366 267
365 268
364 269
363 270
362 271
361 272
360 273
360 274
359 275
358 276
357 277
357 278
356 279
356 280
355 281
355 282
354 283
354 284
353 285
352 285
352 286
352 287
352 288
352 289
351 290
351 291
351 292
351 293
350 294
350 295
350 296
349 297
349 298
348 299
348 300
347 301
347 302
346 303
346 304
346 305
346 306
346 307
346 308
345 309
345 310
345 311
344 312
344 313
344 314
344 315
344 316
344 317
344 318
344 319
344 320
344 321
344 322
344 323
345 324
345 325
345 326
344 327
344 328
344 329
343 330
343 331
343 332
343 333
343 334
343 335
343 336
343 337
343 338
343 339
343 340
343 341
343 342
344 343
344 344
344 345
344 346
344 347
344 348
344 349
344 350
344 351
344 352
344 353
344 354
344 355
344 356
344 357
344 358
344 359
344 360
344 361
344 362
344 363
344 364
344 365
344 366
345 367
345 368
346 369
345 370
345 371
345 372
344 373
344 374
344 375
344 376
344 377
344 378
344 379
344 380
344 381
344 382
345 383
345 384
346 385
346 386
346 387
346 388
346 389
346 390
346 391
346 392
346 393
347 394
347 395
348 396
348 397
348 398
348 399
348 400
348 401
348 402
348 403
349 404
350 405
350 406
351 407
351 408
352 409
352 410
352 411
352 412
352 413
353 414
354 415
354 416
355 417
355 418
356 419
356 420
356 421
357 422
357 423
357 424
357 425
357 426
358 427
358 428
359 429
360 429
361 429
362 429
363 429
364 429
365 429
365 428
366 427
366 426
367 425
368 424
369 423
370 422
371 421
372 420
372 419
373 418
373 417
374 416
375 415
376 414
377 413
378 412
378 411
379 410
379 409
380 408
380 407
381 406
381 405
382 404
382 403
382 402
382 401
382 400
382 399
383 398
383 397
384 396
384 395
385 394
385 393
386 392
387 392
387 391
387 390
387 389
387 388
387 387
387 386
388 385
388 384
389 383
389 382
390 381
391 380
391 379
391 378
391 377
391 376
392 375
392 374
393 373
393 372
394 371
394 370
394 369
394 368
395 367
395 366
395 365
395 364
396 363
396 362
397 361
397 360
397 359
397 358
398 357
398 356
399 355
399 354
400 353
400 352
400 351
400 350
401 349
401 348
402 347
402 346
403 345
404 344
404 343
404 342
405 341
405 340
405 339
405 338
405 337
405 336
405 335
405 334
405 333
405 332
405 331
405 330
405 329
406 328
406 327
406 326
406 325
407 324
407 323
408 322
408 321
408 320
408 319
408 318
408 317
408 316
408 315
408 314
408 313
408 312
408 311
408 310
408 309
408 308
408 307
408 306
408 305
408 304
408 303
408 302
408 301
408 300
408 299
408 298
408 297
408 296
408 295
408 294
408 293
408 292
408 291
408 290
408 289
407 288
407 287
407 286
407 285
407 284
407 283
407 282
407 281
407 280
407 279
407 278
407 277
406 276
406 275
406 274
406 273
406 272
405 271
405 270
405 269
405 268
405 267
405 266
404 265
404 264
404 263
404 262
404 261
403 260
403 259
403 258
403 257
403 256
403 255
404 254
404 253
405 252
405 251
406 250
407 249
408 249
409 248
410 248
411 247
412 247
413 247
414 246
415 246
416 246
417 246
418 246
419 246
420 246
421 245
422 245
423 244
424 244
425 244
426 244
427 244
428 244
429 244
430 244
431 244
432 244
433 244
434 244
435 243
436 243
437 243
438 243
439 243
440 243
441 243
442 243
443 243
444 243
445 243
446 243
447 243
448 243
449 243
450 243
451 243
452 243
453 243
454 243
455 243
456 243
457 243
458 243
459 243
460 243
461 243
462 243
463 243
464 243
465 243
466 243
467 243
468 243
469 243
470 242
471 242
472 242
473 242
474 242
475 242
476 242
477 242
478 242
479 242
480 242
481 242
482 242
483 241
484 241
485 241
486 241
487 241
488 241
489 241
490 241
491 241
492 241
493 241
494 240
495 240
496 240
497 240
498 240
499 240
500 240
501 240
502 240
503 240
504 240
505 240
506 240
507 240
508 240
509 240
510 239
511 239
512 239
513 239
514 239
515 240
516 240
517 241
518 242
519 243
519 244
519 245
518 246
518 247
518 248
517 249
517 250
516 251
516 252
515 253
515 254
514 255
513 256
513 257
512 258
512 259
511 260
511 261
511 262
510 263
510 264
510 265
509 266
509 267
509 268
508 269
508 270
508 271
508 272
508 273
508 274
508 275
508 276
508 277
508 278
508 279
508 280
508 281
508 282
508 283
508 284
508 285
508 286
508 287
508 288
508 289
508 290
508 291
508 292
509 293
509 294
509 295
509 296
509 297
510 298
511 299
512 300
512 301
513 302
513 303
514 304
514 305
515 306
515 307
515 308
516 309
517 309
518 310
519 310
520 311
521 312
521 313
522 314
523 315
523 316
524 317
524 318
525 319
525 320
526 321
526 322
527 322
528 323
529 323
530 324
531 324
532 325
533 325
534 326
535 327
536 328
537 329
538 330
539 331
540 332
541 333
542 333
543 334
544 334
545 335
546 335
547 336
548 337
549 338
550 339
550 340
551 341
552 342
553 342
554 343
555 343
556 344
557 344
558 345
559 345
560 346
561 347
562 348
563 349
564 350
565 350
566 351
567 351
568 352
569 352
570 353
571 353
572 354
573 355
574 355
575 356
576 356
577 357
578 357
579 358
580 358
581 358
582 358
583 358
583 357
583 356
583 355
583 354
583 353
583 352
583 351
582 350
582 349
582 348
581 347
581 346
580 345
580 344
580 343
580 342
580 341
580 340
579 339
579 338
578 337
578 336
577 335
577 334
576 333
576 332
576 331
576 330
576 329
576 328
576 327
575 326
575 325
575 324
575 323
574 322
574 321
573 320
573 319
572 318
572 317
571 316
571 315
571 314
571 313
570 312
569 311
569 310
568 309
568 308
567 307
567 306
566 305
566 304
566 303
566 302
566 301
566 300
565 299
564 298
564 297
563 296
563 295
562 294
562 293
561 292
561 291
561 290
561 289
561 288
560 287
560 286
559 285
559 284
559 283
558 282
558 281
557 280
557 279
556 278
556 277
555 276
554 275
554 274
553 273
553 272
552 271
551 270
550 269
549 269
548 268
548 267
547 266
546 265
546 264
545 263
544 262
543 261
542 260
541 259
540 258
539 257
538 256
537 255
536 254
535 254
534 253
533 252
532 251
531 250
530 249
529 248
528 247
528 246
527 245
527 244
527 243
528 242
529 241
530 241
531 240
532 240
533 239
534 239
535 238
536 238
537 238
538 237
539 237
540 237
541 237
542 237
543 237
544 236
545 236
546 236
547 236
548 236
549 236
550 235
551 235
552 235
553 235
554 235
555 234
556 234
557 234
558 234
559 234
560 233
561 233
562 233
563 233
564 233
565 233
566 232
567 232
568 232
569 232
570 232
571 232
572 231
573 231
574 231
575 231
576 230
577 230
578 230
579 230
580 230
581 229
582 229
583 229
584 229
585 229
586 229
587 229
588 228
589 228
590 228
591 228
592 228
593 228
594 227
595 227
596 227
597 227
598 226
599 226
600 226
601 226
602 226
603 225
604 225
605 225
606 224
607 224
608 224
609 224
610 223
611 223
612 223
613 223
614 223
615 222
616 222
617 222
618 222
619 221
620 221
621 221
622 220
623 220
624 220
625 219
626 219
627 219
628 219
629 218
630 218
631 218
632 218
633 218
634 217
635 217
636 216
637 216
638 216
639 216
640 215
641 215
642 214
643 214
644 214
645 213
646 213
647 213
648 213
649 213
650 213
651 212
652 212
653 211
654 211
655 210
656 210
657 210
658 209
659 209
660 209
661 209
662 209
663 208
664 208
665 208
666 208
667 207
668 207
669 207
670 206
671 206
672 205
673 205
674 205
675 205
676 204
677 204
678 203
679 203
680 203
681 203
682 203
683 203
683 202
683 201
683 200
683 199
683 198
683 197
683 196
683 195
683 194
683 193
682 193
681 193
680 193
679 193
678 193
677 193
676 193
675 193
674 193
673 193
672 193
671 194
670 194
669 195
668 195
667 195
666 195
665 196
664 196
663 196
662 197
661 197
660 198
659 198
658 199
657 199
656 200
655 200
654 201
653 201
652 202
651 202
650 203
649 203
648 204
647 204
646 204
645 204
644 205
643 205
642 205
641 206
640 206
639 207
638 207
637 207
636 208
635 208
634 208
633 209
632 209
631 209
630 210
629 210
628 211
627 211
626 211
625 212
624 212
623 212
622 212
621 213
620 213
619 214
618 214
617 214
616 214
615 214
614 215
613 215
612 216
611 216
610 216
609 216
608 217
607 217
606 218
605 218
604 218
603 218
602 219
601 219
600 219
599 219
598 220
597 220
596 220
595 221
594 221
593 221
592 221
591 222
590 222
589 222
588 222
587 222
586 223
585 223
584 224
583 224
582 224
581 224
580 224
579 224
578 225
577 225
576 225
575 225
574 225
573 225
572 226
571 226
570 226
569 226
568 226
567 227
566 227
565 227
564 227
563 227
562 227
561 228
560 228
559 228
558 228
557 228
556 228
555 229
554 229
553 229
552 229
551 229
550 230
549 230
548 230
547 230
546 230
545 230
544 230
543 230
542 231
541 231
540 231
539 231
538 231
537 231
536 232
535 232
534 232
533 232
532 232
531 231
530 231
529 230
528 230
527 229
526 229
525 228
524 227
523 227
522 226
521 225
521 224
520 223
520 222
519 221
519 220
518 219
518 218
517 217
517 216
516 215
516 214
516 213
515 212
515 211
515 210
514 209
514 208
514 207
514 206
513 205
513 204
513 203
512 202
512 201
512 200
512 199
512 198
512 197
511 196
511 195
511 194
511 193
511 192
510 191
510 190
510 189
509 188
509 187
509 186
509 185
509 184
508 183
508 182
508 181
508 180
508 179
507 178
507 177
506 176
506 175
505 174
505 173
504 172
504 171
504 170
503 169
502 168
501 167
500 166
499 165
499 164
498 163
498 162
497 161
497 160
496 159
496 158
495 157
495 156
494 155
494 154
493 153
493 152
492 151
491 150
491 149
490 148
490 147
489 146
489 145
488 144
488 143
487 142
487 141
486 140
485 139
485 138
484 137
484 136
483 135
483 134
482 133
482 132
481 131
481 130
480 129
480 128
479 127
478 126
477 125
476 124
475 123
475 122
474 121
473 120
472 119
471 119
470 118
470 117
469 116
469 115
468 114
468 113
467 112
467 111
466 111
465 111
464 111
464 112
464 113
464 114
463 115
463 116
463 117
463 118
462 119
462 120
461 121
461 122
460 123
460 124
460 125
460 126
460 127
460 128
460 129
460 130
460 131
460 132
461 133
461 134
461 135
461 136
461 137
461 138
461 139
461 140
461 141
461 142
460 143
460 144
460 145
460 146
460 147
460 148
460 149
460 150
460 151
460 152
460 153
460 154
460 155
460 156
461 157
461 158
461 159
461 160
462 161
462 162
462 163
463 164
463 165
462 166
462 167
462 168
462 169
462 170
462 171
462 172
462 173
462 174
462 175
462 176
462 177
463 178
463 179
464 180
464 181
465 182
465 183
466 184
466 185
466 186
466 187
466 188
466 189
466 190
466 191
466 192
466 193
467 194
467 195
468 196
468 197
468 198
469 199
469 200
470 201
470 202
470 203
470 204
470 205
470 206
471 207
472 208
472 209
473 210
473 211
474 212
475 213
476 214
477 215
478 216
479 217
480 217
481 218
482 218
483 219
484 220
485 220
486 221
487 221
488 222
489 223
490 224
491 224
492 224
493 225
494 225
495 225
496 226
497 226
498 226
499 226
500 227
501 227
502 227
503 227
504 228
505 228
506 229
507 229
508 230
509 231
510 232
509 233
508 234
507 235
506 235
505 236
504 236
503 236
502 236
501 236
500 236
499 236
498 236
497 236
496 236
495 237
494 237
493 237
492 237
491 237
490 237
489 237
488 237
487 237
486 237
485 238
484 238
483 238
482 238
481 238
480 238
479 238
478 238
477 238
476 238
475 238
474 238
473 239
472 239
471 239
470 239
469 239
468 239
467 239
466 239
465 239
464 239
463 240
462 240
461 240
460 240
459 240
458 240
457 240
456 240
455 240
454 240
453 240
452 240
451 240
450 240
449 240
448 240
447 240
446 240
445 240
444 240
443 240
442 240
441 241
440 241
439 241
438 241
437 241
436 241
435 241
434 241
433 241
432 240
431 240
430 240
429 240
428 240
427 240
426 240
425 240
424 240
423 240
422 240
421 240
420 240
419 240
418 240
417 240
416 240
415 240
414 240
413 240
412 240
411 239
410 239
409 238
408 238
407 237
406 236
406 235
405 234
405 233
404 232
404 231
403 230
403 229
403 228
402 227
402 226
401 225
401 224
401 223
400 222
400 221
400 220
400 219
399 218
399 217
399 216
398 215
398 214
398 213
398 212
398 211
397 210
397 209
397 208
397 207
396 206
396 205
396 204
396 203
396 202
395 201
395 200
395 199
394 198
394 197
394 196
393 195
393 194
392 193
392 192
392 191
392 190
391 189
391 188
391 187
391 186
390 185
390 184
389 183
389 182
389 181
388 180
387 179
386 178
385 177
385 176
384 175
383 174
382 173
382 172
381 171
381 170
380 169
379 168
379 167
378 166
377 165
376 164
376 163
375 162
375 161
374 160
374 159
373 158
373 157
372 156
371 155
370 154
369 153
368 153
367 152
366 151
365 150
365 149
364 148
363 147
362 146
361 145
360 144
359 143
359 142
358 141
357 140
357 139
356 138
355 138
354 138
353 137
352 137
351 136
350 136
349 135
348 134
347 133
346 132
345 131
344 130
343 129
342 129
341 128
340 127
339 126
338 126
337 125
336 124
335 123
334 123
333 122
332 122
331 121
330 121
329 120
328 119
327 118
326 117
325 116
324 116
323 115
322 114
321 114
320 113
319 113
318 112
317 112
316 111
315 110
314 109
313 108
312 107
311 106
310 105
309 105
308 104
307 104
306 104
305 104
304 104
303 103
302 103
301 102
300 102
299 102
298 102
297 101
296 101
295 100
294 100
293 99
292 99
291 98
290 97
289 97
288 97
287 97
286 97
286 98
286 99
286 100
286 101
286 102
286 103
286 104
286 105
286 106
287 107
287 108
287 109
288 110
288 111
288 112
288 113
289 114
289 115
290 116
290 117
290 118
290 119
291 120
291 121
292 122
292 123
292 124
292 125
292 126
292 127
292 128
292 129
292 130
292 131
292 132
293 133
293 134
294 135
294 136
295 137
296 138
296 139
297 140
297 141
298 142
298 143
299 144
299 145
299 146
299 147
299 148
299 149
300 150
301 151
301 152
302 153
302 154
303 155
303 156
304 157
304 158
305 159
305 160
306 161
306 162
307 163
307 164
307 165
307 166
307 167
307 168
307 169
307 170
307 171
307 172
307 173
308 174
309 175
310 176
310 177
311 178
311 179
312 180
312 181
313 182
313 183
313 184
314 185
315 186
316 187
317 188
318 189
319 190
320 191
320 192
321 193
322 194
322 195
323 196
323 197
324 198
324 199
325 200
325 201
325 202
325 203
325 204
325 205
326 206
327 207
328 208
329 209
329 210
330 211
331 212
332 213
333 214
334 215
335 215
336 216
337 217
338 218
339 219
340 220
341 221
342 221
343 222
344 223
345 224
346 224
347 225
348 226
349 227
350 227
351 228
352 228
353 229
354 229
355 230
356 230
357 231
358 231
359 232
360 232
361 232
362 233
363 233
364 234
365 235
366 236
365 237
364 238
363 239
362 239
361 240
360 240
359 240
358 240
357 239
356 239
355 239
354 239
353 239
352 239
351 239
350 239
349 239
348 239
347 239
346 239
345 238
344 238
343 238
342 238
341 238
340 238
339 238
338 238
337 238
336 237
335 237
334 237
333 237
332 237
331 237
330 237
329 237
328 237
327 236
326 236
325 236
324 236
323 236
322 236
321 236
320 235
319 235
318 235
317 235
316 235
315 235
314 235
313 234
312 234
311 233
310 233
309 232
308 232
307 231
307 230
306 229
306 228
305 227
305 226
305 225
305 224
304 223
304 222
304 221
304 220
304 219
304 218
303 217
303 216
303 215
303 214
302 213
302 212
302 211
302 210
301 209
301 208
301 207
301 206
301 205
300 204
300 203
300 202
300 201
300 200
299 199
299 198
299 197
299 196
298 195
298 194
298 193
298 192
297 191
297 190
297 189
297 188
297 187
297 186
296 185
296 184
296 183
296 182
295 181
295 180
294 179
294 178
293 177
293 176
292 175
292 174
291 173
291 172
290 171
290 170
289 169
289 168
288 167
288 166
287 165
287 164
287 163
286 162
286 161
285 160
284 159
283 158
282 158
281 157
280 156
280 155
279 154
278 153
278 152
277 151
276 150
276 149
275 148
274 147
273 146
272 145
271 144
270 143
270 142
269 141
268 140
268 139
267 138
267 137
266 136
265 135
265 134
264 133
264 132
263 131
263 130
262 129
262 128
261 127
260 127
259 126
258 126
257 125
256 125
255 124
254 123
254 122
253 121
252 120
251 119
250 118
249 117
248 116
248 115
247 114
247 113
246 112
246 111
245 110
244 110
243 109
242 109
241 108
240 108
239 107
238 106
237 105
236 104
235 103
234 102
233 101
232 101
231 100
230 100
229 99
228 99
227 98
226 97
225 96
224 95
223 94
222 94
221 93
220 93
219 92
218 92
217 91
216 91
215 90
214 90
213 89
212 89
211 88
210 87
209 86
208 85
207 84
206 84
205 83
204 82
203 81
202 80
201 79
200 79
199 79
198 79
198 80
198 81
198 82
198 83
198 84
198 85
198 86
198 87
198 88
199 89
199 90
199 91
199 92
200 93
200 94
200 95
200 96
200 97
200 98
200 99
201 100
201 101
201 102
201 103
201 104
201 105
201 106
201 107
201 108
201 109
201 110
202 111
202 112
202 113
202 114
202 115
202 116
203 117
203 118
204 119
204 120
204 121
204 122
204 123
204 124
204 125
204 126
204 127
204 128
204 129
204 130
204 131
204 132
204 133
205 134
205 135
205 136
205 137
205 138
206 139
206 140
207 141
207 142
207 143
207 144
207 145
207 146
207 147
208 148
208 149
209 150
209 151
210 152
210 153
210 154
211 155
211 156
212 157
212 158
213 159
213 160
213 161
213 162
213 163
213 164
214 165
214 166
215 167
215 168
216 169
217 169
218 170
218 171
219 172
219 173
220 174
221 175
222 176
223 177
223 178
224 179
224 180
225 181
225 182
226 183
226 184
226 185
226 186
227 187
227 188
228 189
228 190
229 191
230 192
230 193
231 194
232 195
233 196
234 197
234 198
235 199
235 200
236 201
237 202
238 202
239 203
240 204
241 204
242 205
243 206
244 207
244 208
245 209
246 210
247 210
248 211
249 212
250 213
251 213
252 214
253 215
253 216
254 217
255 218
256 218
257 219
258 220
259 221
260 222
261 222
262 223
263 224
264 225
265 226
266 227
267 227
268 228
269 228
270 229
271 229
272 230
273 231
274 232
273 233
272 234
271 235
270 235
269 235
268 235
267 235
266 235
265 235
264 235
263 234
262 234
261 234
260 233
259 233
258 233
257 232
256 232
255 232
254 231
253 231
252 231
251 230
250 230
249 229
248 229
247 229
246 228
245 228
244 227
243 227
242 226
241 226
240 225
239 225
238 225
237 224
236 224
235 224
234 224
233 223
232 223
231 222
230 222
229 221
228 221
227 220
226 220
225 220
224 220
223 220
222 219
221 219
220 219
219 219
218 219
217 219
216 219
215 219
214 219
213 219
212 218
211 218
210 218
209 217
208 217
207 217
206 217
205 217
204 217
203 217
202 217
201 217
200 217
199 217
198 217
197 217
196 216
195 216
194 216
193 216
192 216
191 216
190 216
189 216
188 216
187 216
186 216
185 217
184 217
183 218
182 218
181 219
180 219
179 219
178 219
177 219
176 219
175 219
174 219
173 219
172 219
171 220
170 220
169 221
168 221
167 222
166 222
165 222
164 222
163 222
162 222
161 222
160 222
159 222
158 223
157 223
156 224
155 224
154 225
153 225
152 226
151 226
150 226
149 227
148 227
147 228
146 228
145 229
144 229
143 229
142 230
141 230
140 230
139 231
139 232
138 233
137 233
136 234
135 234
134 235
133 235
132 236
131 236
130 236
129 236
128 236
127 237
126 237
125 238
124 238
123 239
122 240
121 241
120 241
119 242
118 243
117 244
116 245
115 245
114 246
113 246
112 247
111 247
110 247
109 248
108 249
107 249
106 250
105 250
104 251
103 252
102 253
101 254
100 254
99 255
98 255
97 256
96 256
95 256
94 257
93 258
92 259
91 260
90 261
89 262
88 262
87 263
86 264
85 265
84 266
83 266
82 267
81 268
80 269
79 270
78 270
77 271
76 272
75 273
74 274
73 275
72 276
71 277
70 277
