304 73
304 74
304 75
304 76
304 77
304 78
304 79
304 80
304 81
304 82
304 83
304 84
304 85
304 86
304 87
305 88
305 89
305 90
305 91
305 92
306 93
306 94
306 95
306 96
307 97
307 98
307 99
306 100
305 99
304 99
303 98
302 97
301 97
300 96
299 96
298 95
297 94
296 94
295 93
294 93
293 93
292 92
291 92
290 91
289 91
288 90
287 90
286 90
285 90
284 89
283 89
282 89
281 89
280 89
279 89
278 88
277 88
276 88
275 88
274 88
273 88
272 88
271 88
270 88
269 88
268 89
267 89
266 89
265 89
264 89
263 89
262 89
261 90
260 90
259 90
258 90
257 91
256 91
255 92
254 92
253 93
252 93
251 94
250 94
249 95
248 95
247 95
246 96
245 96
244 97
243 97
242 97
242 98
243 99
244 100
245 101
245 102
246 103
247 104
247 105
248 106
248 107
248 108
249 109
249 110
250 111
250 112
250 113
251 114
251 115
252 116
252 117
253 118
253 119
254 120
255 121
255 122
256 123
257 124
258 125
259 126
258 127
258 128
257 129
256 129
255 130
255 131
256 132
257 133
258 134
258 135
259 136
260 137
261 137
262 138
263 139
264 140
265 141
266 142
267 143
268 144
269 144
270 145
270 146
271 147
272 148
273 149
274 150
275 151
276 152
277 153
278 154
279 155
280 155
281 156
282 157
283 158
284 159
285 159
286 160
287 161
288 162
289 163
290 163
291 164
292 165
293 166
294 167
295 168
296 169
297 169
298 170
299 171
300 172
301 173
302 173
303 174
304 175
305 176
306 176
307 177
308 178
309 179
310 180
311 181
312 181
313 182
314 183
315 184
316 185
317 186
318 186
319 187
320 188
321 189
322 190
323 191
324 192
325 193
326 194
327 195
328 195
329 196
330 197
331 198
332 199
333 200
334 200
335 201
336 202
337 203
338 203
339 204
340 204
341 205
342 206
343 207
344 208
345 208
346 209
347 210
348 210
349 211
350 212
351 212
352 213
353 214
354 214
355 215
356 216
357 216
358 217
359 218
360 218
361 219
362 220
363 221
364 222
365 223
366 223
367 224
368 225
369 226
370 227
371 228
372 229
373 229
374 230
375 231
376 232
377 232
378 233
379 234
380 235
381 235
382 236
383 237
384 238
385 239
386 239
387 240
388 240
389 241
390 241
391 242
392 243
393 243
394 244
395 244
396 245
396 246
395 247
394 247
393 247
392 247
391 247
390 246
389 246
388 246
387 246
386 246
385 246
384 246
383 246
382 246
381 246
380 245
379 245
378 245
377 245
376 245
375 245
374 245
373 244
372 244
371 244
370 244
369 244
368 243
367 243
366 243
365 243
364 243
363 243
362 243
361 242
360 242
359 242
358 242
357 242
356 242
355 242
354 242
353 241
352 241
351 241
350 241
349 241
348 240
347 240
346 240
345 240
344 239
343 239
342 239
341 238
340 238
339 238
338 238
337 237
336 237
335 237
334 236
333 236
332 236
331 235
330 235
329 235
328 235
327 234
326 234
325 234
324 234
323 234
322 233
321 233
320 233
319 233
318 233
317 233
316 233
315 232
314 232
313 232
312 231
311 231
310 231
309 231
308 231
307 231
306 230
305 230
304 230
303 230
302 229
301 229
300 229
299 229
298 229
297 229
296 228
295 228
294 228
293 227
292 227
291 227
290 227
289 227
288 227
287 226
286 226
285 226
284 226
283 226
282 226
281 226
280 225
279 225
278 225
277 225
276 225
275 224
274 224
273 224
272 224
271 223
270 223
269 223
268 223
267 222
266 222
265 222
264 222
263 222
262 221
261 221
260 221
259 221
258 221
257 221
256 220
255 220
254 220
253 220
252 220
251 219
250 219
249 219
248 218
247 218
246 218
245 218
244 217
243 217
242 217
241 217
240 216
239 216
238 216
237 215
236 215
235 214
234 214
233 213
232 213
231 212
230 212
229 211
228 211
227 210
226 210
225 209
224 209
223 208
222 208
221 208
220 207
219 207
218 206
217 206
216 206
215 205
214 205
213 205
212 204
211 204
210 204
209 204
208 204
207 203
206 203
205 203
204 203
203 203
202 203
201 203
200 203
199 203
198 202
197 202
196 202
195 202
194 202
193 202
192 202
191 202
190 202
189 202
188 202
187 202
186 202
185 202
184 202
183 201
182 201
181 201
180 201
179 201
178 200
177 200
176 200
175 199
174 199
173 200
172 199
171 199
170 199
169 199
168 200
167 200
166 200
165 200
164 200
163 200
162 200
161 201
160 201
159 201
158 201
157 201
156 202
155 202
154 202
153 202
152 202
151 203
150 203
149 203
149 204
149 205
150 206
150 207
151 208
151 209
152 210
152 211
153 212
152 213
151 213
150 213
149 213
148 213
147 213
146 213
145 213
144 213
143 213
142 213
141 213
140 213
139 214
138 214
137 215
136 215
135 216
134 216
133 217
132 217
131 218
130 219
129 220
128 220
127 221
126 222
125 222
124 223
123 224
122 225
122 226
123 227
124 228
125 229
126 230
127 230
128 230
129 231
130 232
131 232
132 233
133 234
134 235
135 236
136 237
137 237
138 238
139 239
140 239
141 240
142 241
143 241
144 242
145 242
146 243
147 243
148 244
149 244
150 245
151 245
152 246
153 246
154 247
155 248
156 249
157 249
158 250
159 251
160 251
161 252
162 252
163 253
164 254
165 254
166 255
167 256
168 256
169 257
170 257
171 258
172 258
173 259
174 259
175 259
176 260
177 260
178 261
179 261
180 262
181 262
182 262
183 263
184 263
185 263
186 264
187 264
188 264
189 264
190 265
191 265
192 265
193 266
194 266
195 267
196 267
197 268
198 268
199 268
200 269
201 269
202 270
203 270
204 271
205 271
206 272
206 273
205 274
204 274
203 274
202 274
201 274
200 274
199 274
198 274
197 274
196 274
195 274
194 274
193 274
192 274
191 274
190 274
189 274
188 274
187 274
186 274
185 274
184 274
183 274
182 274
181 274
180 274
179 274
178 274
177 274
176 274
175 274
174 275
173 275
172 275
171 275
170 275
169 275
168 275
167 276
166 276
165 276
164 276
163 276
162 276
161 277
160 277
159 277
158 277
157 277
156 277
155 277
154 277
153 277
152 277
151 278
150 278
149 278
148 278
147 278
146 278
145 279
144 279
143 279
142 279
141 280
140 280
139 280
138 281
137 281
136 282
135 282
134 283
133 284
132 284
131 284
130 285
129 286
128 286
127 287
126 288
125 288
124 289
123 289
122 290
121 291
120 291
119 292
118 293
117 293
116 294
115 295
114 296
113 297
112 298
112 299
111 300
110 301
109 302
108 303
108 304
107 305
107 306
107 307
106 308
106 309
105 310
105 311
105 312
105 313
104 314
104 315
104 316
104 317
103 318
103 319
102 320
101 321
102 322
103 323
103 324
104 324
105 325
106 325
107 326
108 326
109 327
110 328
111 329
112 330
113 331
114 332
114 333
114 334
114 335
115 336
116 336
117 337
118 337
119 338
120 338
121 339
122 339
123 339
124 340
125 340
126 340
127 341
128 341
129 341
130 341
131 341
132 341
133 342
134 342
135 342
136 342
137 342
138 342
139 342
140 342
141 342
142 342
143 342
144 342
145 342
146 342
147 342
148 342
149 342
150 343
151 343
152 343
153 343
154 343
155 343
156 343
157 343
158 343
159 343
160 343
161 343
162 343
163 343
164 342
165 342
166 342
167 342
168 342
169 342
170 342
171 341
172 341
173 341
174 341
175 341
176 341
177 340
178 340
179 340
180 339
181 339
182 339
183 340
182 341
181 341
180 342
179 343
178 344
177 345
176 346
175 347
174 347
173 348
172 349
171 350
170 351
169 352
168 353
167 354
166 355
165 356
165 357
164 358
163 359
162 360
162 361
161 362
161 363
161 364
160 365
160 366
160 367
159 368
159 369
159 370
158 371
158 372
158 373
158 374
158 375
157 376
157 377
157 378
156 379
156 380
156 381
155 382
155 383
154 384
154 385
155 386
156 386
157 386
158 386
159 387
159 388
160 389
161 389
162 389
163 390
164 390
165 390
166 390
167 390
168 390
169 391
170 391
171 391
172 391
173 391
174 391
175 391
176 391
177 391
178 390
179 390
180 390
181 390
182 390
183 390
184 389
185 389
186 389
187 388
188 388
189 388
190 388
191 388
192 387
193 387
194 387
195 387
196 386
197 386
198 386
199 386
200 386
201 386
202 386
203 386
204 386
205 386
206 386
207 386
208 386
209 385
210 385
211 385
212 385
213 385
214 385
215 385
216 385
217 385
218 385
219 384
220 384
221 384
222 384
223 384
224 384
225 383
226 383
227 383
228 383
229 382
230 382
231 382
232 382
233 381
234 381
235 381
236 380
237 380
238 380
239 380
240 379
241 379
242 378
243 378
244 378
245 377
246 377
247 377
248 376
249 376
250 375
251 374
252 374
253 373
254 372
254 371
253 370
252 370
251 369
250 369
249 368
248 367
247 366
246 365
245 364
244 364
243 363
242 363
241 362
240 361
239 360
238 359
237 358
236 358
235 357
234 356
234 355
233 354
232 353
231 352
230 351
229 350
229 349
228 348
228 347
227 346
227 345
227 344
226 343
226 342
226 341
226 340
226 339
226 338
226 337
226 336
227 335
228 335
229 334
230 334
231 334
232 334
233 334
234 334
235 334
236 334
237 334
238 334
239 334
240 334
241 334
242 334
243 334
244 334
245 334
246 334
247 334
248 334
249 334
250 333
251 333
252 332
253 332
254 332
255 331
256 331
257 331
258 331
259 330
260 330
261 330
262 330
263 330
264 330
265 330
266 330
267 331
268 331
269 331
270 332
271 332
272 333
273 334
274 335
275 336
276 336
277 337
278 337
279 338
280 339
281 340
282 341
283 341
284 342
285 343
286 344
287 345
288 346
289 347
290 348
291 349
292 350
293 351
294 352
295 353
296 353
297 354
298 354
299 354
300 353
301 353
302 353
303 352
304 352
305 352
306 351
307 350
308 350
309 350
310 349
311 348
312 348
313 348
314 347
315 347
316 346
317 346
318 346
319 345
320 344
321 344
322 343
323 343
324 343
325 342
326 342
327 341
328 341
329 341
330 340
331 340
332 339
333 339
334 338
335 338
336 338
337 337
338 337
339 336
340 336
341 336
342 335
343 335
344 334
345 334
346 334
347 333
348 333
349 332
350 332
351 331
352 331
353 330
354 330
355 329
356 329
357 328
358 328
359 327
360 327
361 327
362 326
363 326
364 325
365 325
366 325
367 324
368 324
369 323
370 323
371 323
372 322
373 322
374 321
375 321
376 320
377 320
378 320
379 319
380 318
381 318
382 318
383 317
384 316
385 316
386 316
387 315
388 315
389 314
390 314
391 313
392 313
393 313
394 312
395 312
396 312
397 311
398 311
399 311
400 310
401 310
402 309
403 309
404 309
405 308
406 308
407 308
408 307
409 307
410 307
411 306
412 307
412 308
412 309
412 310
411 311
410 312
410 313
409 314
409 315
408 316
407 317
407 318
406 319
405 320
404 321
404 322
403 323
402 324
401 325
400 326
399 327
399 328
398 329
397 330
396 331
396 332
395 333
394 334
394 335
393 336
392 337
392 338
391 339
390 340
389 341
388 342
387 343
387 344
386 345
385 346
384 347
384 348
383 349
382 350
381 351
381 352
380 353
379 354
378 355
377 356
376 357
375 358
375 359
374 360
373 361
372 362
371 363
371 364
370 365
369 366
368 367
368 368
367 369
366 370
365 371
364 372
363 373
362 374
361 375
361 376
360 377
359 378
358 379
357 380
357 381
356 382
356 383
355 384
354 385
354 386
353 387
353 388
352 389
351 390
351 391
350 392
350 393
349 394
348 395
347 396
347 397
346 398
345 399
344 400
343 401
343 402
342 403
341 404
340 405
340 406
339 407
338 408
337 409
337 410
336 411
336 412
335 413
334 414
334 415
333 416
332 417
332 418
332 419
331 420
331 421
331 422
330 423
329 424
329 425
328 426
328 427
327 428
326 429
326 430
325 431
325 432
324 433
324 434
323 435
322 436
322 437
322 438
321 439
321 440
320 441
320 442
320 443
319 444
319 445
319 446
318 447
318 448
317 449
317 450
317 451
316 452
316 453
315 454
315 455
314 456
314 457
313 458
312 459
312 460
311 461
311 462
310 463
310 464
309 465
309 466
308 467
308 468
308 469
307 470
307 471
307 472
306 473
306 474
306 475
305 476
305 477
305 478
304 479
304 480
304 481
304 482
303 483
303 484
303 485
303 486
302 487
302 488
302 489
302 490
302 491
302 492
302 493
301 494
300 495
300 496
299 497
299 498
298 499
298 500
298 501
299 501
300 501
301 501
302 501
303 502
304 502
305 502
306 502
307 502
308 502
309 502
310 502
311 502
312 502
313 502
314 502
315 502
316 503
317 503
318 503
319 502
320 502
321 502
322 502
323 502
324 502
325 501
326 501
327 500
328 500
329 500
330 499
331 499
332 498
333 497
334 497
335 496
336 495
337 495
338 494
339 494
340 493
341 492
342 491
343 491
344 490
345 489
346 489
347 489
348 488
349 489
349 490
349 491
349 492
349 493
349 494
349 495
349 496
349 497
349 498
349 499
350 500
350 501
350 502
350 503
350 504
350 505
350 506
351 506
352 506
353 506
354 506
355 506
356 506
357 506
358 505
359 505
360 505
361 504
362 504
363 503
364 503
365 503
366 502
367 502
368 501
369 501
370 501
371 500
372 500
373 499
374 499
375 499
376 498
377 498
378 497
379 496
380 496
381 495
382 494
383 493
384 492
385 491
386 491
387 490
388 489
389 488
390 488
391 487
392 486
393 486
394 487
395 487
396 487
397 486
398 486
399 486
400 485
401 484
401 483
402 482
403 481
404 480
405 480
405 479
406 478
407 477
408 476
409 475
410 474
411 474
412 473
413 472
414 471
415 470
416 469
417 468
418 467
419 466
420 466
421 465
422 464
423 463
424 462
425 462
426 461
427 460
428 459
429 458
430 457
431 456
432 455
433 454
434 453
435 452
436 451
437 450
438 449
438 448
439 447
440 446
441 445
441 444
442 443
443 442
443 441
444 440
445 439
446 438
446 437
447 436
448 435
449 434
450 433
451 432
452 431
452 430
453 429
454 428
455 427
456 426
456 425
457 424
458 424
458 423
459 422
460 421
460 420
461 419
462 418
462 417
463 416
464 415
465 414
466 413
467 412
468 411
468 410
469 409
470 408
471 407
471 406
472 405
473 404
473 403
474 402
474 401
475 400
476 399
476 398
477 397
477 396
478 395
479 394
479 393
480 392
481 391
481 390
482 389
482 388
483 387
484 386
484 385
485 384
485 383
486 382
486 381
487 380
488 379
489 378
490 377
490 376
491 375
492 374
492 373
492 372
493 371
493 370
493 369
494 368
494 367
495 366
495 365
495 364
496 363
496 362
496 361
496 360
497 359
497 358
497 357
498 356
499 355
499 354
500 353
500 352
501 351
501 350
502 349
503 348
503 347
504 346
504 345
505 344
506 343
506 342
506 341
507 340
508 339
508 338
508 337
509 336
510 335
510 334
511 333
511 332
512 331
513 330
513 329
514 328
515 327
515 326
515 325
516 324
517 323
517 322
518 321
519 321
519 320
520 319
521 318
521 317
522 316
523 315
524 314
525 313
525 312
526 311
527 310
528 309
528 308
529 307
530 306
531 305
532 304
533 303
534 303
533 302
534 301
535 300
535 299
536 298
537 297
538 296
539 295
539 294
540 293
541 292
542 291
543 290
544 289
545 288
546 287
547 286
548 285
549 284
550 283
551 282
552 281
553 280
554 279
555 278
556 277
557 276
558 275
559 274
560 274
561 273
562 272
563 271
564 270
565 270
566 270
566 269
567 268
568 267
569 267
570 266
571 265
572 264
573 264
573 263
574 262
575 262
576 262
576 261
577 260
578 260
579 259
580 259
581 258
582 258
583 257
584 257
585 256
586 256
587 255
588 255
589 254
590 254
591 253
592 252
593 252
594 251
595 250
596 250
597 249
598 249
599 248
600 247
601 247
602 247
603 246
604 246
605 245
606 245
607 244
608 244
609 243
610 243
611 242
612 242
613 241
614 241
615 240
616 240
617 240
618 239
619 239
620 238
621 238
622 237
623 237
624 236
625 236
626 236
627 235
628 235
629 234
630 234
631 233
632 233
633 232
634 232
635 231
636 231
637 230
638 230
639 230
640 229
641 229
642 229
643 228
644 228
645 227
646 227
647 227
648 226
649 225
650 225
651 225
652 224
653 224
654 224
655 224
656 223
657 223
658 222
659 222
660 221
661 221
662 221
663 221
664 220
665 220
666 219
667 219
668 219
669 218
670 218
671 218
672 218
673 217
674 217
675 216
676 216
677 216
678 215
679 215
680 214
681 214
682 214
683 213
684 213
685 213
686 213
687 212
688 212
689 212
690 211
691 211
692 210
693 210
694 210
695 209
696 209
697 208
698 208
699 208
700 207
701 207
702 206
703 206
704 206
705 206
706 205
707 205
708 205
709 204
710 204
711 204
712 203
713 203
714 203
715 202
716 202
717 202
718 201
719 201
720 201
721 201
722 200
723 200
724 200
725 200
726 200
727 199
728 199
729 199
730 199
731 199
732 199
733 199
734 198
735 198
736 198
737 198
737 197
737 196
736 195
736 194
737 193
737 192
737 191
738 190
737 189
737 188
737 187
737 186
738 185
737 184
736 183
736 182
735 181
735 180
734 180
733 181
732 180
731 181
731 182
731 183
730 184
729 185
728 185
728 186
727 187
726 187
725 188
724 189
723 189
722 189
721 190
720 191
719 191
718 192
717 192
716 192
715 193
714 193
713 193
712 193
713 194
712 195
711 195
710 195
709 195
708 195
708 196
707 197
706 196
705 196
704 197
703 197
702 197
701 197
700 198
699 198
698 198
697 198
696 199
695 199
694 199
693 199
692 200
691 200
690 200
689 201
688 201
687 201
686 202
685 202
684 202
683 203
682 203
681 203
680 204
679 204
678 204
677 205
676 205
675 205
674 206
673 206
672 206
671 207
670 207
669 207
668 207
667 208
666 208
665 209
664 209
663 209
662 210
661 210
660 210
659 211
658 211
657 211
656 211
655 212
654 212
653 212
652 213
651 213
650 213
649 214
648 214
647 214
646 215
645 215
644 215
643 216
642 216
641 216
640 217
639 217
638 217
637 218
636 218
635 218
634 219
633 219
632 219
631 220
630 220
629 221
628 221
627 221
626 222
625 222
624 222
623 223
622 223
621 223
620 224
619 224
618 224
617 224
616 225
615 225
614 225
613 225
612 225
611 226
610 226
609 226
608 226
607 227
606 227
605 227
604 227
603 228
602 228
601 228
600 228
599 228
598 229
597 229
596 229
595 229
594 229
593 229
592 229
591 230
590 230
589 230
588 230
587 230
586 230
585 230
584 230
583 230
582 230
581 230
580 230
579 230
578 230
577 230
576 230
575 230
574 229
573 229
572 229
571 229
570 229
569 229
568 229
567 229
566 229
565 229
564 229
563 229
562 228
561 228
560 228
559 228
558 228
557 227
556 227
555 227
554 227
553 227
552 226
551 226
550 226
549 226
548 226
547 226
546 225
545 225
544 225
543 225
542 224
541 224
540 223
539 223
538 223
537 223
536 222
535 222
534 221
533 221
532 221
531 220
530 220
529 220
528 219
527 219
526 218
525 218
524 218
523 217
522 216
521 216
520 215
519 214
518 213
517 213
516 212
515 211
514 211
513 210
512 209
511 208
510 207
509 206
508 205
507 204
506 204
505 203
504 202
503 201
502 200
501 199
500 198
499 197
498 196
497 196
496 195
495 194
494 193
493 192
492 192
491 191
490 190
489 189
488 189
487 188
486 187
485 187
484 186
483 185
482 184
481 184
480 183
479 182
478 182
477 181
476 180
475 179
474 179
473 178
472 177
471 176
470 176
469 175
468 174
467 173
466 173
465 172
464 171
463 170
462 170
461 169
460 168
459 168
458 167
457 166
456 165
455 165
454 164
453 163
452 162
451 161
450 161
449 160
448 159
447 158
446 157
445 156
444 155
443 154
442 153
441 153
440 152
439 151
438 150
437 149
436 148
435 147
434 146
433 145
432 144
431 143
430 143
429 142
428 141
427 140
426 139
425 138
424 137
423 136
423 135
422 134
421 134
420 133
419 132
418 131
417 130
416 129
415 128
414 128
413 127
412 126
411 125
410 125
409 124
408 124
407 123
406 122
405 122
404 121
403 121
402 121
401 120
400 120
399 120
398 119
397 119
396 118
395 118
394 117
393 116
392 115
391 114
390 113
389 112
388 111
387 110
386 109
385 109
384 108
383 107
382 106
381 105
380 104
379 103
378 103
377 102
376 101
375 101
374 100
373 99
372 98
371 98
370 97
369 96
368 95
367 94
366 94
365 93
364 92
363 91
362 91
361 90
360 89
359 88
358 88
357 87
356 86
355 86
354 85
353 85
352 84
351 84
350 84
349 83
348 83
347 82
346 82
345 82
344 81
343 81
342 80
341 80
340 80
339 79
338 79
337 78
336 78
335 78
334 77
333 77
332 76
331 76
330 76
329 75
328 75
327 75
326 75
325 75
324 75
323 75
322 75
321 75
320 75
319 75
318 75
317 75
316 74
315 74
314 74
313 74
312 74
311 74
310 74
309 74
308 74
307 74
306 73
305 73
304 73
