131 276
131 277
132 277
133 277
134 277
135 277
136 277
137 277
138 278
139 278
140 278
141 278
142 278
143 279
144 279
145 279
146 280
147 280
148 280
149 280
150 281
151 281
152 281
153 282
154 282
155 283
156 283
157 283
158 284
159 284
160 285
161 285
162 286
163 286
164 287
165 287
166 287
167 288
168 288
169 289
170 289
171 289
172 290
173 290
174 290
175 290
176 291
177 291
178 291
179 291
180 292
181 292
182 292
183 292
184 292
185 292
186 292
187 292
188 293
189 293
190 294
191 294
192 295
193 295
194 296
195 297
196 297
197 298
198 299
199 300
200 301
201 302
201 303
201 304
201 305
201 306
201 307
201 308
201 309
201 310
201 311
201 312
202 312
203 313
204 313
205 314
206 315
207 315
208 316
209 317
210 317
211 318
212 319
213 319
214 320
215 320
216 321
217 321
218 322
219 323
220 323
221 324
222 325
223 325
224 326
225 327
226 327
227 328
228 328
229 329
230 330
231 330
232 331
233 332
234 332
235 333
236 334
237 335
237 336
238 337
239 338
240 339
241 339
242 340
243 340
244 340
245 340
246 341
247 341
248 341
249 342
250 342
251 342
252 342
253 343
254 343
255 343
256 343
257 343
258 343
259 344
260 344
261 344
262 344
263 344
264 345
265 345
266 346
267 346
268 347
269 347
270 348
271 349
272 350
273 350
274 351
274 352
275 353
275 354
275 355
274 356
274 357
274 358
274 359
274 360
274 361
274 362
274 363
274 364
275 364
276 364
277 364
278 364
279 365
280 365
281 365
282 365
283 365
284 365
285 365
286 365
287 365
288 365
289 365
290 365
291 365
292 365
293 365
294 365
295 365
296 365
297 366
298 366
299 366
300 366
301 366
302 366
303 366
304 366
305 366
306 366
307 366
308 366
309 366
310 366
311 366
312 367
313 367
314 367
315 367
316 367
317 367
318 368
319 368
320 369
321 369
322 370
323 370
324 371
325 372
326 373
326 374
327 375
327 376
327 377
327 378
327 379
327 380
327 381
327 382
327 383
328 383
329 383
330 383
331 383
332 383
333 383
334 383
335 383
336 383
337 383
338 383
339 383
340 383
341 383
342 383
343 382
344 382
345 382
346 382
347 382
348 382
349 381
350 381
351 380
352 380
353 380
354 380
355 380
356 380
357 380
358 380
359 379
360 379
361 379
362 379
363 379
364 379
365 379
366 379
367 379
368 378
369 378
370 378
371 378
372 378
373 378
374 378
375 377
376 377
377 377
378 378
379 378
380 379
381 380
381 381
382 382
382 383
382 384
382 385
382 386
382 387
382 388
383 388
384 388
385 388
386 388
387 388
388 388
389 388
390 388
391 387
392 387
393 387
394 387
395 387
396 387
397 387
398 386
399 386
400 386
401 386
402 386
403 386
404 386
405 386
406 386
407 385
408 385
409 385
410 384
411 384
412 384
413 383
414 383
415 383
416 383
417 383
418 382
419 382
420 382
421 381
422 381
423 380
424 380
425 380
426 380
427 380
428 380
429 379
430 379
431 379
432 379
433 378
434 378
435 378
436 379
437 379
438 380
439 381
439 382
440 383
440 384
441 385
442 385
443 385
444 385
445 385
446 385
447 385
448 385
449 385
450 384
451 384
452 384
453 383
454 383
455 382
456 382
457 382
458 382
459 382
460 382
461 381
462 381
463 381
464 381
465 380
466 380
467 379
468 379
469 378
470 378
471 378
472 378
473 378
474 378
475 377
476 377
477 377
478 376
479 376
480 376
481 375
482 375
483 375
484 375
485 374
486 374
487 373
488 373
489 373
490 373
491 373
492 372
493 372
494 372
495 372
496 372
497 371
498 371
499 370
500 370
501 370
502 370
503 370
504 370
505 370
506 369
507 369
508 369
509 369
510 369
511 369
512 369
513 369
514 369
515 369
516 368
517 368
518 368
519 368
520 368
521 367
522 367
523 367
524 367
525 367
526 367
527 366
528 366
529 365
530 365
531 365
532 365
533 364
534 364
535 364
536 363
537 363
538 362
539 362
540 362
541 362
542 362
543 362
544 362
545 362
546 361
547 361
548 361
549 361
550 360
551 360
552 359
553 359
554 359
555 359
556 358
557 358
558 357
559 357
560 357
561 357
562 357
563 357
564 356
565 356
566 356
567 356
568 355
569 355
570 354
571 354
572 353
573 353
574 353
575 352
576 352
577 352
578 351
579 351
580 351
581 351
582 351
583 350
584 350
585 349
586 349
587 348
588 348
589 347
590 347
591 347
592 346
593 346
594 346
595 345
596 345
597 345
598 344
599 343
600 342
601 341
602 340
603 339
603 338
604 337
605 336
606 335
607 334
608 333
608 332
609 331
609 330
610 329
611 328
612 327
612 326
613 325
613 324
614 323
614 322
615 321
616 321
616 320
616 319
616 318
617 317
617 316
617 315
618 314
618 313
618 312
618 311
618 310
618 309
618 308
618 307
618 306
618 305
618 304
618 303
618 302
619 301
619 300
620 299
620 298
621 297
621 296
622 295
623 294
623 293
624 292
624 291
625 290
625 289
626 288
627 287
628 287
629 286
630 286
631 285
632 285
633 285
634 285
635 285
636 285
637 285
638 285
639 285
640 285
641 285
642 285
643 285
644 285
645 285
646 285
647 286
648 286
649 287
650 287
651 287
652 288
653 288
654 289
655 289
656 290
657 290
658 291
659 291
660 291
661 291
662 292
663 292
664 293
665 293
666 293
667 294
668 294
669 295
670 295
671 296
672 297
673 297
674 297
675 298
676 298
677 299
678 299
679 299
680 299
681 299
682 299
683 299
684 299
685 299
685 298
685 297
685 296
685 295
685 294
685 293
685 292
685 291
685 290
685 289
685 288
685 287
684 287
683 287
682 286
681 286
680 285
679 285
678 284
677 284
676 284
675 284
674 283
673 283
672 282
671 282
670 281
669 280
668 279
667 279
666 278
665 278
664 277
663 277
662 276
661 276
660 276
659 276
658 276
657 276
656 275
655 275
654 275
653 275
652 275
651 275
650 275
649 275
648 274
647 274
646 274
645 274
644 274
643 274
642 274
641 274
640 274
639 274
638 274
637 274
636 274
635 275
634 275
633 275
632 275
631 275
630 275
629 275
628 275
627 275
626 275
625 275
624 275
623 275
622 274
621 274
620 273
619 273
618 272
617 271
617 270
616 269
615 268
615 267
614 266
614 265
613 264
614 263
614 262
614 261
614 260
614 259
614 258
614 257
614 256
614 255
614 254
614 253
614 252
614 251
614 250
613 249
613 248
612 247
612 246
612 245
612 244
612 243
612 242
612 241
612 240
612 239
611 238
611 237
611 236
611 235
611 234
611 233
611 232
611 231
610 230
609 230
608 229
608 228
607 227
606 226
606 225
605 224
604 223
603 222
602 221
601 220
600 219
599 218
598 217
597 217
596 216
595 216
594 216
593 215
592 215
591 214
590 214
589 213
588 212
587 211
586 210
585 209
584 208
583 208
582 208
581 207
580 207
579 207
578 207
577 207
576 206
575 206
574 206
573 206
572 205
571 205
570 205
569 205
568 204
567 204
566 204
565 204
564 203
563 203
562 203
561 202
560 202
559 202
558 201
557 201
556 201
555 200
554 200
553 200
552 200
551 199
550 199
549 198
548 198
547 197
546 197
545 197
544 196
543 196
542 196
541 195
540 195
539 195
538 194
537 194
536 194
535 194
534 193
533 193
532 192
531 192
530 191
529 191
528 190
527 190
526 190
525 189
524 189
523 188
522 188
521 188
520 187
519 187
518 186
517 186
516 185
515 185
514 185
513 184
512 184
511 183
510 183
509 182
508 182
507 181
506 181
505 180
504 180
503 179
502 179
501 178
500 177
499 177
498 176
497 175
496 174
495 174
494 173
493 172
492 171
491 171
490 170
489 170
488 169
487 169
486 169
485 169
484 168
483 168
482 167
481 167
480 166
479 166
478 165
477 165
476 164
475 163
474 163
473 162
472 162
471 162
470 162
469 162
468 162
467 162
466 162
465 162
465 163
464 164
464 165
463 166
463 167
462 168
461 169
460 169
459 170
458 170
457 171
456 171
455 171
454 171
453 171
452 170
451 170
450 170
449 170
448 170
447 170
446 169
445 169
444 169
443 169
442 169
441 169
440 169
439 169
438 169
437 169
436 169
435 169
434 169
433 169
432 169
431 169
430 169
429 169
428 169
427 169
426 169
425 169
424 169
423 169
422 169
421 169
420 169
419 168
418 168
417 168
416 167
415 167
414 167
413 167
412 167
411 167
410 166
409 166
408 166
407 166
406 166
405 165
404 165
403 165
402 165
401 165
400 164
399 164
398 164
397 164
396 164
395 164
394 164
393 163
392 163
391 163
390 163
389 163
388 163
387 163
386 163
385 163
384 163
383 163
382 163
381 163
380 163
379 163
378 163
377 163
376 163
375 163
374 163
373 163
372 163
371 163
370 163
369 163
368 163
367 163
366 163
365 163
364 163
363 163
362 163
361 163
360 164
359 164
358 165
357 165
356 166
355 166
354 167
353 167
352 168
351 168
350 168
349 168
348 168
347 169
346 169
345 169
344 169
343 169
342 169
341 169
340 170
339 170
338 170
337 170
336 170
335 170
334 170
333 170
332 170
331 170
330 170
329 171
328 171
327 171
326 171
325 171
324 171
323 171
322 171
321 171
320 171
319 171
318 171
317 172
316 172
315 172
314 172
313 172
312 172
311 172
310 173
309 173
308 173
307 173
306 173
305 173
304 174
303 174
302 174
301 175
300 176
299 177
298 178
297 179
296 180
295 181
294 182
293 182
292 183
291 184
290 184
289 185
288 185
287 186
286 186
285 187
284 187
283 187
282 188
281 188
280 189
279 189
278 189
277 189
276 190
275 190
274 190
273 191
272 191
271 191
270 191
269 191
268 191
267 192
266 192
265 192
264 192
263 192
262 192
261 192
260 192
259 192
258 192
257 192
256 192
255 192
254 192
253 192
252 192
251 193
250 193
249 193
248 194
247 194
246 194
245 194
244 194
243 194
242 194
241 194
240 194
239 194
238 194
237 194
236 194
235 194
234 195
233 195
232 195
231 195
231 196
231 197
231 198
231 199
231 200
231 201
231 202
231 203
231 204
232 205
232 206
232 207
232 208
231 209
230 210
229 210
228 211
227 211
226 212
225 212
224 213
223 213
222 213
221 214
220 214
219 215
218 215
217 216
216 216
215 216
214 216
213 217
212 217
211 217
210 217
209 218
208 218
207 218
206 218
205 219
204 219
203 219
202 220
201 220
200 220
199 221
198 222
197 223
196 223
196 224
196 225
196 226
196 227
195 228
195 229
194 230
194 231
193 232
193 233
192 234
191 235
190 235
189 236
188 237
187 238
186 238
185 239
184 240
183 241
182 242
181 243
180 243
179 244
178 245
177 246
176 246
175 247
174 248
173 249
172 250
172 251
171 252
170 253
169 254
168 254
167 255
166 255
165 256
164 256
163 257
162 257
161 257
160 258
159 259
158 260
157 260
156 261
155 262
154 262
153 263
152 264
151 265
150 265
149 266
148 266
147 267
146 267
145 268
144 268
143 268
142 269
141 270
140 270
139 271
138 271
137 272
136 272
135 273
134 274
133 275
132 275
131 276
