316 32
315 33
314 33
313 33
314 33
315 34
315 35
314 36
313 36
312 36
311 35
310 35
309 35
308 35
307 35
306 35
305 35
304 35
303 35
302 35
301 35
300 35
299 35
298 35
297 35
296 35
295 35
294 36
293 36
292 36
291 37
292 37
293 38
292 39
291 40
290 40
289 39
288 39
287 40
286 40
285 40
284 40
283 40
282 40
281 40
280 40
279 40
278 40
277 40
276 40
275 40
274 41
273 41
272 41
271 41
270 42
269 42
268 43
267 43
267 44
268 44
269 44
270 44
271 45
270 46
269 46
268 46
267 47
266 47
265 47
264 47
263 47
262 47
261 48
260 48
259 48
258 48
257 49
256 49
255 49
254 49
253 49
252 49
251 49
250 49
249 50
248 50
247 51
246 51
247 51
248 52
249 53
248 54
247 55
246 55
245 54
244 55
243 55
242 55
241 55
240 55
239 55
238 55
237 55
236 56
235 56
234 56
233 56
232 57
231 57
230 58
229 58
228 58
227 59
226 59
225 60
224 60
223 61
222 62
221 62
222 62
223 62
224 63
223 64
222 65
221 65
220 65
219 66
218 66
217 66
216 67
215 67
214 68
213 68
212 68
211 69
210 69
209 70
208 70
207 71
206 71
205 72
204 72
203 73
202 74
201 74
200 75
200 76
200 77
201 78
200 79
199 79
198 79
197 79
196 80
195 80
194 80
193 81
193 82
192 83
191 83
190 83
189 83
188 84
187 84
186 85
185 85
184 86
183 86
182 87
181 87
180 88
179 89
178 90
177 91
177 92
178 92
179 93
178 94
177 94
176 94
175 94
174 95
173 95
172 96
171 96
170 97
169 97
168 98
167 98
166 99
165 100
164 100
163 101
162 101
161 102
161 103
162 103
163 103
164 104
163 105
162 105
161 106
160 106
159 106
158 107
157 107
156 108
155 108
154 108
153 109
152 109
151 110
150 111
149 112
149 113
150 114
149 115
148 116
147 116
146 117
145 117
144 118
143 119
142 119
141 120
140 120
139 121
138 121
137 122
136 122
135 123
134 124
133 124
132 125
131 126
132 126
133 127
132 128
131 129
130 129
129 129
128 129
127 130
126 130
125 131
124 131
123 132
124 132
125 133
124 134
123 134
122 134
121 135
120 135
119 136
118 136
117 137
116 138
115 139
114 140
113 140
112 140
111 141
110 141
109 142
108 142
107 143
106 143
105 144
104 145
103 145
102 146
102 147
101 148
100 149
99 149
98 149
97 150
96 150
95 150
94 151
93 151
92 151
91 152
90 152
89 152
88 153
87 153
86 153
85 154
84 154
83 155
82 155
81 155
80 156
79 156
78 156
77 157
76 157
75 157
74 158
73 158
72 159
71 159
70 160
69 160
68 160
67 161
66 162
65 163
65 164
64 165
64 166
64 167
65 167
66 167
67 168
66 169
65 169
64 169
65 170
66 171
67 172
68 173
69 173
70 174
71 174
72 175
73 175
74 176
75 176
76 177
77 177
78 178
79 178
80 178
81 179
82 179
83 180
84 180
85 180
86 181
87 181
88 181
89 182
90 182
91 182
92 183
93 183
94 183
95 184
96 184
97 184
98 185
99 185
100 186
101 187
102 187
103 188
104 189
105 189
106 189
107 190
106 191
105 191
106 192
107 193
108 193
109 194
109 195
110 195
111 196
112 196
113 197
114 198
115 198
116 199
117 200
118 200
119 201
119 202
119 203
120 204
121 205
122 205
123 206
124 207
125 208
126 208
127 209
128 210
129 210
130 210
131 211
132 211
133 212
134 213
134 214
135 215
136 216
137 217
138 218
139 218
140 219
141 220
142 220
143 221
144 222
145 223
146 224
147 224
148 225
149 225
150 226
151 226
152 227
152 228
151 229
150 229
150 230
151 231
152 231
153 232
154 233
155 234
156 234
157 235
158 236
159 237
160 238
161 238
162 239
163 240
164 240
165 240
166 240
167 241
167 242
166 243
165 243
164 242
165 243
165 244
166 245
167 246
168 247
169 248
170 248
171 249
172 250
173 251
173 252
174 253
174 254
174 255
175 256
176 256
177 257
178 258
179 259
180 260
181 260
182 261
183 262
184 262
185 263
186 263
187 264
188 265
187 266
186 266
185 266
184 266
185 267
186 268
187 269
188 270
189 271
190 271
191 272
192 273
193 273
194 274
195 274
196 275
195 276
195 277
196 277
197 278
198 278
199 279
200 279
201 280
202 281
203 281
204 282
205 283
205 284
204 285
203 285
202 285
203 286
204 287
205 288
206 288
207 289
208 289
209 290
209 291
210 291
211 291
212 292
211 293
212 292
213 293
214 293
215 294
216 295
217 295
218 295
219 295
220 296
219 297
218 297
217 297
217 298
218 299
219 299
220 300
221 301
222 302
223 303
224 303
225 304
226 305
227 305
228 305
229 306
228 307
227 307
228 308
229 309
230 310
231 311
232 311
233 312
234 312
235 313
236 313
237 314
238 314
239 315
240 316
241 317
242 317
243 317
244 318
245 319
246 319
247 319
248 320
249 320
250 321
251 322
252 323
253 324
254 324
255 324
256 325
256 326
257 327
258 327
259 327
260 328
261 328
262 328
263 329
264 330
264 331
265 331
266 331
267 332
268 332
269 332
270 332
271 333
272 333
273 333
274 333
275 334
276 334
277 334
278 334
279 334
280 335
281 335
282 336
283 337
284 337
285 338
286 338
287 338
288 339
289 339
290 340
289 341
290 341
291 341
292 341
293 342
294 342
295 342
296 342
297 342
298 342
299 343
300 343
301 343
302 343
303 343
304 344
305 344
306 344
307 344
308 344
309 344
310 345
311 345
312 345
313 346
314 346
315 347
316 347
317 347
318 348
319 348
320 348
321 348
322 348
323 348
324 348
325 348
326 348
327 348
328 348
329 349
330 349
331 349
332 349
333 349
334 350
335 350
336 351
337 351
338 351
339 351
340 351
341 351
342 351
343 351
344 351
345 350
346 350
347 350
348 350
349 350
350 350
351 349
352 349
353 349
354 349
355 349
356 349
357 349
358 349
359 349
360 349
361 349
362 349
363 349
364 349
365 349
366 349
367 349
368 349
369 349
370 348
371 348
372 348
373 348
374 348
375 348
376 348
377 349
378 349
379 349
380 349
381 349
382 348
383 348
384 348
385 348
386 348
387 347
388 347
389 347
390 347
391 346
392 346
393 346
394 345
395 345
396 345
397 345
398 345
399 345
400 344
401 345
402 345
403 345
404 345
405 345
406 345
407 345
408 345
409 345
410 345
411 344
412 344
413 344
414 344
415 344
416 344
417 344
418 343
419 343
420 343
421 343
422 343
423 343
424 343
425 343
426 344
427 344
428 344
429 343
430 343
431 343
432 343
433 343
434 342
435 342
436 342
437 341
438 341
439 340
440 340
441 340
442 339
443 339
444 338
445 338
446 338
447 337
448 337
449 337
450 337
451 337
452 336
453 336
454 336
455 336
456 336
457 336
458 336
459 336
460 336
461 335
462 335
463 335
464 335
465 335
466 335
467 335
468 334
469 334
470 334
471 334
472 333
473 333
474 333
475 332
476 332
477 331
478 331
479 330
480 330
481 329
482 329
483 328
484 328
485 328
486 327
487 327
488 326
489 326
490 326
491 325
492 325
493 325
494 324
495 324
496 323
497 322
498 322
499 321
500 320
501 320
502 319
503 319
504 318
505 317
506 318
507 318
508 319
509 319
510 318
511 318
512 318
513 317
514 317
515 316
516 316
517 315
518 315
519 314
520 314
521 313
522 313
523 312
524 311
525 311
526 310
527 309
528 309
529 308
530 307
531 306
532 306
533 305
534 305
534 304
535 303
536 304
537 304
538 304
539 303
540 303
540 302
541 301
542 301
543 300
544 300
545 299
546 298
547 297
548 297
549 296
550 295
551 295
552 294
553 294
554 294
555 294
556 294
557 293
558 292
559 292
560 291
561 290
562 289
563 288
564 287
565 287
566 286
567 285
568 284
569 283
570 283
571 282
572 281
572 280
573 279
574 279
575 278
576 279
575 278
576 277
577 277
578 277
579 277
580 276
581 275
582 274
583 273
584 272
585 271
586 270
587 269
588 268
589 267
589 266
590 265
591 265
592 264
593 263
593 262
594 261
595 261
596 261
597 260
598 259
598 258
599 257
600 256
600 255
601 254
602 253
603 252
603 251
604 250
605 249
605 248
606 247
607 246
608 245
608 244
609 243
610 242
610 241
611 240
612 239
613 238
614 237
615 236
615 235
616 234
617 233
618 232
619 231
619 230
620 229
621 228
622 227
623 226
624 225
625 224
626 223
627 223
628 223
629 222
630 222
631 221
632 221
633 220
634 221
635 221
636 221
637 221
638 221
639 221
640 221
641 221
642 222
643 222
644 222
645 222
646 223
647 223
648 223
649 224
650 224
651 224
652 225
653 225
654 225
655 226
656 226
657 227
658 227
659 227
660 228
661 228
662 228
663 229
664 229
665 229
666 230
667 230
668 230
669 231
670 231
671 231
672 231
673 232
674 232
675 232
676 233
677 233
678 233
679 234
680 234
681 234
682 234
683 235
684 235
685 235
686 235
687 236
688 236
689 236
690 236
691 237
692 237
693 237
694 237
695 237
696 237
697 237
698 238
699 238
700 238
701 238
702 238
703 238
704 238
705 238
706 238
707 238
708 238
709 238
710 239
711 239
712 239
713 239
714 239
715 239
716 239
717 239
718 239
719 239
720 239
721 239
722 239
723 239
724 239
725 239
726 240
727 240
728 240
729 240
730 240
731 241
732 241
732 240
732 239
732 238
732 237
733 236
733 235
733 234
733 233
734 232
735 231
736 231
735 230
734 230
733 230
733 231
732 232
731 232
732 233
731 234
730 234
729 235
728 234
728 233
727 234
726 234
725 234
724 234
723 233
722 234
721 233
720 233
719 233
718 233
717 233
716 233
715 233
714 233
713 233
712 233
711 232
710 232
709 232
708 233
707 233
706 233
705 233
704 233
703 233
702 233
701 232
702 231
701 232
700 232
699 232
698 232
697 232
696 231
696 232
695 233
694 232
693 231
692 232
691 232
690 232
689 232
688 231
687 231
686 231
685 231
684 230
683 230
682 230
681 230
680 230
679 230
678 229
677 229
676 229
675 229
674 228
673 228
672 228
671 228
670 228
669 227
668 227
667 227
666 226
665 226
664 226
663 226
662 225
661 225
660 225
659 224
658 224
657 224
656 224
655 224
654 223
653 223
652 223
651 222
650 222
649 222
648 221
647 221
646 221
645 221
644 220
643 220
642 220
641 219
640 219
639 219
638 219
637 218
638 217
639 217
640 217
641 217
642 217
643 217
644 217
645 218
646 218
647 218
648 218
649 218
650 218
651 218
650 218
649 217
648 217
647 217
646 216
647 215
648 215
649 215
648 215
647 215
646 215
645 214
644 214
643 214
642 213
641 213
640 212
639 212
638 211
637 211
636 211
635 210
634 210
633 209
632 209
631 210
630 209
630 208
630 207
629 207
628 206
627 206
626 205
625 205
624 204
623 203
622 203
621 202
620 201
619 200
618 200
617 199
616 198
615 197
614 196
614 195
613 194
613 193
612 192
611 191
611 190
611 189
610 188
610 187
609 186
609 185
609 184
608 183
608 182
607 181
607 180
607 179
606 178
605 177
604 178
603 177
602 176
602 175
601 174
600 173
599 172
599 171
598 170
597 169
596 168
595 167
594 166
593 165
592 164
591 164
590 163
589 162
589 161
588 160
588 159
587 158
586 157
585 156
584 155
583 154
583 153
582 153
581 152
580 151
580 150
579 150
578 149
578 148
577 147
576 146
575 145
574 144
573 143
573 142
572 141
571 141
570 140
569 139
569 138
568 137
567 136
566 135
565 135
564 136
563 135
562 134
561 133
560 132
559 131
558 131
557 130
556 129
555 128
554 127
553 126
552 125
551 124
550 123
549 123
548 122
547 121
546 120
545 119
544 118
543 117
542 116
541 116
540 115
539 114
538 113
537 113
536 114
535 113
534 112
533 111
533 110
532 109
531 108
530 107
529 106
528 105
527 104
526 103
525 102
524 101
523 101
522 100
521 99
520 99
519 98
518 98
517 97
516 97
515 97
516 97
517 98
517 99
517 100
516 101
515 100
514 99
513 98
512 98
511 97
510 96
509 95
508 95
507 94
506 93
505 92
504 91
503 90
502 89
501 88
500 87
499 86
498 86
497 85
496 84
495 84
494 83
493 83
492 83
491 82
490 82
489 82
490 83
489 84
488 84
487 83
486 83
485 82
484 81
483 81
482 80
481 80
480 79
479 78
478 78
477 77
476 77
475 76
474 75
473 75
472 74
471 73
470 73
469 72
468 72
467 71
466 71
465 70
464 70
465 71
466 72
466 73
465 74
464 73
463 72
462 72
461 71
460 71
459 70
458 70
457 69
456 69
455 69
454 68
453 67
452 67
451 66
450 66
449 65
448 65
447 64
446 64
445 63
444 63
443 63
444 64
445 65
444 66
443 66
442 66
441 65
440 64
439 64
438 64
437 63
436 63
435 63
434 62
433 61
432 61
431 60
430 60
429 60
428 59
427 58
426 58
425 58
424 58
423 58
424 59
425 60
424 61
423 61
422 60
421 60
420 59
419 58
418 58
417 58
416 57
415 57
414 56
413 56
412 55
411 55
410 54
409 54
408 54
407 53
406 54
405 54
404 53
403 53
402 53
401 52
400 52
399 52
398 52
397 51
396 51
395 50
394 50
393 49
392 49
391 49
390 49
389 49
388 48
387 48
386 48
385 49
384 49
383 49
382 48
381 48
380 47
379 47
378 46
377 46
376 45
375 45
374 45
373 44
372 43
371 43
370 43
369 43
368 43
367 43
366 44
365 43
364 43
363 42
362 42
361 41
360 41
359 40
358 39
357 39
356 39
355 38
354 38
353 38
352 37
351 37
350 37
349 36
348 36
347 36
346 36
345 36
346 37
347 38
346 39
345 39
344 38
343 38
342 37
341 37
340 37
339 36
338 36
337 36
336 36
335 37
334 36
333 36
332 35
331 35
330 35
329 35
328 34
327 34
326 34
325 34
324 34
323 34
322 33
321 33
320 33
319 33
318 32
317 32
316 32
