97 246
97 247
97 248
97 249
97 250
97 251
97 252
97 253
97 254
97 255
97 256
98 257
98 258
99 259
100 260
101 261
102 262
102 263
103 264
103 265
104 266
105 267
106 268
107 269
108 270
109 270
110 271
111 271
112 272
113 273
113 274
114 275
114 276
115 277
115 278
116 279
116 280
117 281
117 282
117 283
118 284
118 285
118 286
118 287
118 288
118 289
119 290
120 290
121 291
122 292
123 293
124 294
125 295
126 296
126 297
127 298
128 299
129 300
130 301
131 302
131 303
132 304
133 305
134 306
135 307
136 308
136 309
137 310
137 311
138 312
139 313
140 314
140 315
141 316
142 317
142 318
143 319
143 320
144 321
144 322
145 323
145 324
145 325
146 326
146 327
147 328
147 329
147 330
148 331
148 332
148 333
148 334
149 335
150 336
151 337
152 338
153 339
154 340
155 341
156 342
157 343
158 344
159 345
160 346
161 346
162 347
163 348
164 349
165 350
166 351
167 351
168 351
169 352
170 352
171 353
172 353
173 353
174 353
175 354
176 354
177 355
178 355
179 356
180 356
181 357
181 358
182 359
183 359
184 359
185 360
186 360
187 360
188 360
189 360
190 360
191 360
192 361
193 361
194 361
195 361
196 361
197 361
198 361
199 361
200 362
201 362
202 362
203 362
204 362
205 362
206 362
207 362
208 362
209 362
210 363
211 363
212 363
213 363
214 363
215 363
216 364
217 364
218 364
219 364
220 364
221 365
222 365
223 365
224 366
225 366
226 367
227 367
228 368
228 369
229 370
229 371
230 372
230 373
230 374
230 375
230 376
229 377
229 378
229 379
229 380
229 381
229 382
229 383
228 384
228 385
228 386
228 387
228 388
228 389
227 390
227 391
227 392
227 393
226 394
226 395
226 396
226 397
226 398
226 399
226 400
226 401
226 402
226 403
226 404
226 405
226 406
226 407
226 408
226 409
227 410
227 411
228 412
228 413
229 414
229 415
230 416
230 417
231 418
231 419
232 420
232 421
233 422
233 423
233 424
233 425
234 426
234 427
234 428
234 429
234 430
234 431
235 432
235 433
235 434
235 435
236 436
236 437
237 438
237 439
238 440
238 441
239 442
239 443
239 444
239 445
240 446
240 447
240 448
240 449
240 450
240 451
240 452
240 453
240 454
240 455
240 456
240 457
240 458
240 459
241 460
242 460
243 460
244 460
245 460
246 460
247 461
248 461
249 462
250 462
251 463
252 463
253 464
254 465
255 465
256 465
257 465
258 465
259 465
260 465
261 465
262 465
263 465
264 466
265 466
266 466
267 466
268 466
269 466
270 466
271 467
272 467
273 468
274 468
275 469
275 470
276 470
277 470
278 470
279 470
280 470
281 470
282 470
283 470
284 470
285 470
286 470
287 470
288 470
289 470
290 470
291 470
292 470
293 470
294 470
295 470
296 470
297 470
298 470
299 470
300 470
301 470
302 469
303 470
304 470
305 470
306 471
307 471
308 472
309 472
310 473
311 473
312 474
313 474
314 475
315 475
316 476
317 476
318 477
319 477
320 477
321 477
322 477
323 477
324 477
325 477
326 477
327 477
328 477
329 476
330 476
331 476
332 476
333 475
334 475
335 475
336 475
337 475
338 475
339 474
340 474
341 474
342 474
343 474
344 473
345 473
346 473
347 473
348 472
349 472
350 471
351 471
352 471
353 470
354 470
355 470
356 470
357 469
358 468
359 468
360 467
361 467
362 466
363 466
364 465
365 465
366 465
367 465
368 465
369 465
370 465
371 465
372 464
373 463
374 463
375 462
376 461
377 461
378 460
379 460
380 459
381 459
382 458
383 457
384 457
385 456
386 455
387 454
388 454
389 453
390 452
391 451
392 450
393 450
394 449
395 448
396 447
397 446
398 446
399 445
400 444
401 443
402 442
403 441
404 441
405 440
406 439
407 438
408 437
409 436
410 436
411 435
412 434
413 433
414 432
415 431
416 430
417 430
418 429
419 429
420 428
421 428
422 429
423 429
424 429
425 429
426 429
427 429
428 429
429 429
430 429
431 429
432 429
433 429
434 429
435 428
436 428
437 427
438 426
439 426
440 425
441 424
442 423
443 423
444 422
445 421
446 421
447 420
448 420
449 419
450 419
451 418
452 418
453 418
454 417
455 416
455 415
456 414
457 413
458 412
459 411
459 410
460 409
460 408
461 407
462 406
462 405
463 404
464 403
465 402
466 402
467 401
468 401
469 400
470 400
471 400
472 400
473 400
474 399
474 398
475 397
476 396
476 395
477 394
478 393
478 392
478 391
479 390
479 389
479 388
479 387
480 386
480 385
480 384
481 383
481 382
482 381
482 380
482 379
483 378
483 377
483 376
483 375
484 374
484 373
484 372
485 371
485 370
485 369
485 368
486 367
486 366
486 365
487 364
487 363
487 362
487 361
488 360
488 359
488 358
489 357
489 356
490 355
490 354
491 353
492 353
493 352
494 352
495 351
495 350
495 349
495 348
496 347
496 346
496 345
496 344
496 343
496 342
496 341
496 340
496 339
496 338
496 337
496 336
496 335
496 334
496 333
496 332
496 331
496 330
496 329
496 328
496 327
496 326
496 325
496 324
496 323
495 322
495 321
495 320
494 319
494 318
493 317
493 316
492 315
492 314
491 313
491 312
491 311
490 310
490 309
490 308
490 307
490 306
490 305
490 304
490 303
490 302
489 301
489 300
489 299
489 298
488 297
488 296
487 295
487 294
486 293
486 292
485 291
485 290
484 289
484 288
485 287
486 286
487 285
488 285
489 284
490 284
491 283
492 283
493 283
494 283
495 283
496 282
497 282
498 282
499 282
500 281
501 281
502 281
503 281
504 281
505 280
506 280
507 280
508 280
509 279
510 279
511 279
512 279
513 278
514 278
515 278
516 278
517 278
518 277
519 277
520 277
521 276
522 276
523 276
524 276
525 275
526 275
527 275
528 274
529 274
530 274
531 274
532 273
533 273
534 273
535 273
536 272
537 272
538 272
539 272
540 271
541 271
542 271
543 271
544 270
545 270
546 270
547 269
548 269
549 269
550 269
551 268
552 268
553 268
554 268
555 267
556 267
557 267
558 266
559 266
560 266
561 266
562 265
563 265
564 265
565 265
566 264
567 264
568 264
569 263
570 263
571 263
572 263
573 263
574 262
575 262
576 262
577 261
578 261
579 261
580 261
581 261
582 260
583 260
584 260
585 260
586 260
587 259
588 259
589 259
590 258
591 258
592 258
593 258
594 257
595 257
596 257
597 257
598 257
599 256
600 256
601 256
602 256
603 256
604 255
605 255
606 255
607 255
608 255
609 255
610 255
611 254
612 254
613 254
614 254
615 254
616 254
617 254
618 253
619 253
620 253
621 253
622 253
623 253
624 253
625 252
626 252
627 252
628 252
629 252
630 252
631 252
632 252
633 251
634 251
635 251
636 251
637 251
638 251
639 251
640 251
641 251
642 251
643 251
644 251
645 251
646 251
647 250
648 250
649 250
650 250
651 250
652 250
653 250
654 250
655 250
656 250
657 250
658 250
659 250
660 250
661 250
662 250
663 250
664 250
665 250
666 250
667 250
668 250
669 250
670 250
671 250
672 250
673 251
674 251
675 251
676 251
677 251
678 251
679 251
680 251
681 251
682 251
683 251
684 251
684 250
684 249
685 248
685 247
685 246
685 245
685 244
685 243
685 242
685 241
684 241
683 241
682 241
681 241
680 241
679 241
678 241
677 241
676 241
675 241
674 241
673 242
672 242
671 242
670 242
669 242
668 242
667 242
666 242
665 243
664 243
663 243
662 243
661 243
660 243
659 244
658 244
657 244
656 244
655 244
654 245
653 245
652 245
651 245
650 245
649 245
648 245
647 245
646 245
645 245
644 246
643 246
642 246
641 246
640 246
639 246
638 246
637 246
636 246
635 246
634 246
633 247
632 247
631 247
630 247
629 247
628 247
627 247
626 247
625 247
624 247
623 247
622 247
621 247
620 247
619 247
618 248
617 248
616 248
615 248
614 248
613 248
612 248
611 248
610 249
609 249
608 249
607 249
606 249
605 249
604 250
603 250
602 250
601 250
600 250
599 250
598 250
597 251
596 251
595 251
594 251
593 251
592 251
591 251
590 252
589 252
588 252
587 252
586 252
585 253
584 253
583 253
582 253
581 254
580 254
579 254
578 254
577 254
576 255
575 255
574 255
573 255
572 255
571 256
570 256
569 256
568 257
567 257
566 257
565 257
564 257
563 258
562 258
561 258
560 258
559 259
558 259
557 259
556 259
555 260
554 260
553 260
552 261
551 261
550 261
549 261
548 262
547 262
546 262
545 262
544 262
543 263
542 263
541 263
540 264
539 264
538 264
537 265
536 265
535 265
534 265
533 266
532 266
531 266
530 266
529 267
528 267
527 267
526 268
525 268
524 268
523 268
522 268
521 269
520 269
519 269
518 270
517 270
516 270
515 270
514 271
513 271
512 271
511 271
510 272
509 272
508 272
507 272
506 273
505 273
504 273
503 273
502 274
501 274
500 274
499 274
498 274
497 275
496 275
495 275
494 275
493 275
492 275
491 274
490 273
489 272
489 271
490 270
490 269
491 268
492 267
493 266
494 265
494 264
495 263
496 262
496 261
497 260
497 259
498 258
498 257
499 256
499 255
500 254
501 253
502 252
502 251
503 250
504 249
504 248
504 247
504 246
504 245
504 244
505 243
505 242
505 241
506 240
506 239
507 238
507 237
508 236
508 235
508 234
508 233
509 232
509 231
509 230
510 229
510 228
510 227
510 226
510 225
510 224
510 223
510 222
510 221
510 220
510 219
510 218
510 217
510 216
510 215
510 214
510 213
510 212
510 211
510 210
510 209
510 208
510 207
509 206
509 205
509 204
508 203
508 202
507 202
506 202
505 202
504 202
503 202
502 201
501 201
500 200
499 200
498 199
497 198
497 197
496 196
496 195
495 194
495 193
495 192
495 191
495 190
495 189
495 188
495 187
495 186
495 185
495 184
495 183
495 182
495 181
495 180
495 179
495 178
494 177
494 176
494 175
494 174
494 173
494 172
493 171
493 170
493 169
492 168
492 167
492 166
491 165
491 164
491 163
491 162
491 161
491 160
490 159
490 158
490 157
490 156
490 155
490 154
490 153
490 152
489 151
489 150
489 149
489 148
488 147
488 146
487 145
487 144
486 143
486 142
485 141
485 140
485 139
484 139
483 139
482 138
481 138
480 137
479 137
478 136
478 135
477 134
477 133
476 132
476 131
476 130
475 129
475 128
475 127
475 126
474 125
473 124
473 123
472 122
471 121
470 120
469 119
468 118
467 117
466 116
465 116
464 115
463 115
462 114
461 114
460 113
459 113
458 112
457 111
456 110
455 109
454 108
453 107
452 106
451 106
450 105
449 104
448 103
447 102
446 101
445 100
444 100
443 100
442 100
441 100
440 100
439 100
438 100
437 100
436 100
435 100
434 100
433 100
432 100
431 101
430 101
429 101
428 101
427 101
426 100
425 100
424 99
423 99
422 98
421 98
420 97
419 97
418 96
417 95
416 94
415 93
414 93
413 92
412 91
411 90
410 89
409 88
408 87
407 86
406 85
405 84
404 83
403 82
402 81
401 80
400 79
399 78
398 78
397 77
396 76
395 76
394 75
393 74
392 73
391 72
390 72
389 71
388 70
387 69
386 68
385 67
384 67
383 67
382 66
381 66
380 65
379 65
378 64
377 64
376 63
375 62
374 61
373 61
372 60
371 59
370 58
369 57
368 57
367 56
366 55
365 55
364 54
363 54
362 54
361 54
360 54
359 54
358 53
357 53
356 53
355 52
354 52
353 51
352 51
351 51
350 50
349 50
348 50
347 49
346 49
345 49
344 48
343 48
342 48
341 48
340 48
339 48
338 48
337 48
336 48
335 48
334 48
333 48
332 48
331 48
330 48
329 48
328 49
327 49
326 50
325 50
324 51
323 51
322 52
321 52
320 53
319 53
318 54
317 54
316 54
315 54
314 54
313 54
312 54
311 54
310 54
309 54
308 54
307 54
306 54
305 54
304 54
303 54
302 54
301 54
300 54
299 54
298 54
297 54
296 54
295 54
294 54
293 54
292 54
291 54
290 54
289 54
288 54
287 54
286 54
285 54
284 54
283 54
282 54
281 54
280 54
279 54
278 54
277 55
277 56
276 57
275 58
274 58
273 59
272 59
271 60
270 60
269 61
268 61
267 61
266 61
265 62
264 62
263 62
262 62
261 62
260 62
259 62
258 62
257 62
256 63
255 63
254 63
253 63
252 63
252 64
251 65
251 66
251 67
250 68
250 69
250 70
249 71
249 72
248 73
248 74
247 75
246 76
245 77
244 77
244 78
244 79
244 80
243 81
243 82
243 83
242 84
242 85
242 86
241 87
241 88
241 89
240 90
240 91
240 92
240 93
239 94
239 95
238 96
238 97
237 98
237 99
236 100
236 101
235 102
234 103
233 104
233 105
232 106
231 107
231 108
231 109
231 110
231 111
231 112
231 113
231 114
231 115
231 116
231 117
231 118
231 119
231 120
231 121
231 122
232 123
232 124
232 125
232 126
232 127
232 128
232 129
232 130
232 131
232 132
232 133
232 134
231 135
231 136
231 137
231 138
231 139
230 140
230 141
229 142
229 143
228 144
228 145
227 146
226 146
225 147
224 147
223 148
222 148
221 148
220 148
219 149
218 149
217 149
216 149
215 149
214 149
213 149
212 149
211 150
210 150
209 150
208 150
207 150
206 151
205 151
204 151
203 151
202 151
201 152
200 152
199 152
198 152
197 152
196 153
195 153
194 153
193 153
192 154
191 154
190 154
189 154
188 155
188 156
187 157
186 158
185 159
184 159
183 160
182 160
181 161
180 161
179 162
178 162
177 162
176 162
175 163
174 163
173 163
172 164
171 164
170 165
169 165
168 165
167 165
166 166
165 166
164 167
163 167
162 168
161 168
160 169
159 169
158 170
157 170
156 170
155 171
154 171
153 172
152 173
152 174
152 175
151 176
151 177
150 178
150 179
149 180
149 181
148 182
148 183
147 184
147 185
146 186
146 187
145 188
145 189
144 190
143 191
142 192
141 193
140 194
139 195
138 196
137 197
136 198
135 199
134 200
133 201
132 202
131 203
130 204
129 205
128 206
127 207
126 208
125 208
124 209
123 210
122 210
121 211
120 211
119 212
118 213
117 214
117 215
117 216
117 217
117 218
117 219
117 220
117 221
117 222
117 223
116 224
116 225
115 226
115 227
114 228
113 229
112 229
111 230
110 231
109 232
108 233
107 233
106 234
106 235
105 236
105 237
104 238
104 239
103 240
102 241
101 242
100 243
99 244
98 245
97 246
