205 29
204 30
203 30
202 30
201 30
200 31
199 31
198 31
197 32
196 31
195 31
194 31
193 31
192 31
191 31
190 31
189 31
188 31
187 31
186 31
185 31
184 31
183 31
182 31
181 31
180 32
179 32
178 32
177 32
176 32
175 33
174 33
173 33
172 33
171 33
170 33
169 33
168 33
167 34
166 34
165 34
164 34
163 34
162 35
161 35
160 36
159 36
158 36
157 36
156 36
155 36
154 36
153 37
152 37
151 37
150 37
149 38
148 38
147 38
146 39
145 39
144 40
143 40
142 40
141 40
140 41
139 41
138 42
137 42
136 43
135 44
134 44
133 45
132 45
131 45
130 46
129 46
128 47
127 48
126 48
125 49
124 50
123 50
122 51
121 52
120 52
119 53
118 53
117 54
116 55
115 56
114 56
113 57
112 58
111 59
110 60
109 61
108 62
107 62
106 63
105 64
104 65
103 65
102 66
101 67
100 68
99 69
98 70
97 71
96 72
95 73
94 73
93 74
92 75
91 76
90 77
89 78
88 79
88 80
87 81
86 82
85 83
84 84
84 85
83 86
82 87
81 88
81 89
80 90
79 91
79 92
78 93
78 94
77 95
76 96
76 97
75 98
75 99
74 100
74 101
74 102
74 103
73 104
72 104
72 105
71 106
71 107
70 108
69 109
69 110
68 111
68 112
67 113
66 114
66 115
66 116
65 117
65 118
65 119
64 120
64 121
63 122
63 123
63 124
63 125
62 126
61 127
61 128
61 129
60 130
60 131
60 132
60 133
59 134
59 135
59 136
59 137
59 138
58 139
58 140
58 141
57 142
57 143
57 144
57 145
56 146
56 147
55 148
55 149
55 150
55 151
54 152
54 153
53 154
52 155
52 156
51 157
50 158
50 159
49 160
48 161
48 162
47 163
46 164
46 165
46 166
45 167
44 168
44 169
44 170
43 171
42 172
42 173
42 174
42 175
41 176
41 177
41 178
41 179
41 180
42 181
42 182
42 183
42 184
43 185
43 186
43 187
43 188
43 189
43 190
44 191
44 192
44 193
45 194
46 195
46 196
46 197
46 198
46 199
46 200
46 201
47 202
47 203
48 204
48 205
48 206
48 207
48 208
48 209
48 210
48 211
49 212
49 213
49 214
49 215
49 216
49 217
49 218
49 219
49 220
50 221
50 222
50 223
50 224
51 225
51 226
51 227
51 228
51 229
51 230
52 231
52 232
53 233
52 234
53 235
53 236
53 237
53 238
53 239
54 240
54 241
54 242
54 243
54 244
55 245
55 246
55 247
55 248
56 249
56 250
56 251
57 252
57 253
57 254
58 255
58 256
58 257
59 258
59 259
59 260
60 261
60 262
60 263
61 264
61 265
62 266
62 267
62 268
63 269
63 270
64 271
64 272
64 273
65 274
65 275
66 276
66 277
66 278
67 279
67 280
68 281
69 282
69 283
70 284
70 285
70 286
71 287
72 288
72 289
73 290
73 291
74 292
75 293
75 294
76 295
77 296
77 297
78 298
79 299
79 300
80 301
81 302
81 303
82 304
83 305
84 306
85 307
86 308
86 309
87 310
88 311
88 312
89 312
90 313
90 314
91 315
92 316
93 317
94 318
95 319
95 320
96 321
97 322
98 323
99 324
100 325
101 326
102 327
103 328
104 329
105 330
106 331
107 332
108 332
109 333
110 334
111 335
112 336
113 336
114 337
115 338
116 339
117 339
118 340
119 341
120 342
121 343
122 343
123 344
124 345
125 345
126 346
127 347
128 348
129 348
130 349
131 350
132 350
133 351
134 352
135 352
136 353
137 354
138 354
139 355
140 355
141 356
142 356
143 357
144 357
145 358
146 358
147 359
148 359
149 359
150 360
151 360
152 360
153 361
154 361
155 362
156 362
157 362
158 363
159 363
160 363
161 364
162 364
163 365
164 365
165 365
166 365
167 366
168 366
169 366
170 367
171 367
172 367
173 368
174 368
175 368
176 368
177 369
178 369
179 369
180 370
181 370
182 370
183 371
184 371
185 371
186 371
187 371
188 372
189 372
190 372
191 372
192 372
193 372
194 373
195 373
196 373
197 373
198 373
199 374
200 374
201 374
202 374
203 374
204 374
205 374
206 374
207 374
208 375
209 375
210 375
211 375
212 375
213 375
214 375
215 375
216 375
217 375
218 375
219 375
220 375
221 375
222 376
223 376
224 376
225 376
226 376
227 376
228 376
229 376
230 376
231 376
232 376
233 375
234 375
235 375
236 375
237 375
238 375
239 375
240 375
241 375
242 375
243 375
244 374
245 374
246 374
247 374
248 374
249 374
250 374
251 374
252 374
253 373
254 373
255 373
256 373
257 373
258 373
259 373
260 373
261 373
262 373
263 372
264 372
265 372
266 372
267 372
268 372
269 372
270 372
271 372
272 372
273 372
274 372
275 372
276 372
277 372
278 372
279 371
280 371
281 371
282 371
283 371
284 371
285 370
286 370
287 370
288 370
289 369
290 369
291 369
292 368
293 368
294 368
295 368
296 367
297 367
298 367
299 366
300 366
301 366
302 365
303 365
304 365
305 364
306 364
307 364
308 364
309 363
310 363
311 363
312 363
313 362
314 362
315 362
316 362
317 362
318 361
319 361
320 361
321 361
322 360
323 360
324 360
325 360
326 360
327 359
328 359
329 359
330 359
331 359
332 359
333 359
334 359
335 359
336 359
337 359
338 359
339 358
340 358
341 358
342 358
343 358
344 358
345 358
346 358
347 358
348 358
349 358
350 358
351 358
352 358
353 357
354 357
355 357
356 357
357 357
358 357
359 357
360 357
361 357
362 357
363 357
364 357
365 357
366 356
367 356
368 356
369 356
370 356
371 356
372 356
373 356
374 355
375 355
376 355
377 355
378 354
379 354
380 354
381 354
382 354
383 353
384 353
385 353
386 353
387 353
388 352
389 352
390 352
391 352
392 352
393 351
394 351
395 351
396 351
397 351
398 350
399 350
400 350
401 350
402 349
403 349
404 349
405 348
406 348
407 348
408 348
409 347
410 347
411 347
412 346
413 346
414 346
415 345
416 345
417 345
418 344
419 344
420 344
421 343
422 343
423 343
424 342
425 342
426 342
427 341
428 341
429 340
430 340
431 339
432 339
433 339
434 338
435 337
436 337
437 337
438 336
439 336
440 335
441 335
442 335
443 334
444 334
445 334
446 333
447 332
448 332
449 332
450 331
451 331
452 330
453 330
454 330
455 329
456 329
457 328
458 328
459 327
460 327
461 327
462 326
463 326
464 326
465 325
466 325
467 325
468 324
469 324
470 323
471 323
472 323
473 322
474 322
475 322
476 321
477 321
478 321
479 320
480 320
481 320
482 320
483 319
484 319
485 318
486 318
487 318
488 317
489 317
490 316
491 316
492 315
493 315
494 314
495 314
496 314
497 313
498 313
499 312
500 312
501 311
502 311
503 310
504 310
505 310
506 310
507 309
508 309
509 308
510 308
511 308
512 307
513 307
514 307
515 306
516 306
517 306
518 305
519 305
520 304
521 304
522 304
523 303
524 303
525 302
526 302
527 302
528 301
529 301
530 300
531 300
532 300
533 299
534 299
535 299
536 298
537 298
538 298
539 297
540 297
541 296
542 296
543 296
544 296
545 295
546 295
547 294
548 294
549 294
550 294
551 293
552 293
553 293
554 292
555 292
556 291
557 291
558 290
559 290
560 290
561 289
562 289
563 288
564 288
565 287
566 287
567 286
568 286
569 286
570 286
571 285
572 285
573 285
574 285
575 284
576 284
577 284
578 283
579 283
580 283
581 282
582 282
583 282
584 282
585 281
586 281
587 280
588 280
589 280
590 280
591 279
592 279
593 278
594 278
595 278
596 278
597 277
598 277
599 277
600 276
601 276
602 276
603 275
604 275
605 275
606 274
607 274
608 274
609 273
610 273
611 273
612 272
613 272
614 272
615 272
616 271
617 271
618 271
619 270
620 270
621 270
622 270
623 270
624 269
625 269
626 269
627 269
628 269
629 269
630 268
631 268
632 268
633 268
634 268
635 267
636 267
637 267
638 267
639 267
640 267
641 267
642 267
643 266
644 266
645 266
646 266
647 266
648 266
649 266
650 266
651 266
652 266
653 266
654 266
655 266
656 266
657 266
658 266
659 266
660 266
661 266
662 266
663 266
664 266
665 266
666 266
667 266
668 266
669 266
670 266
671 266
672 266
673 266
674 266
675 266
676 266
677 266
678 266
679 266
680 266
681 267
682 267
683 267
684 267
685 267
686 267
687 267
688 267
689 267
690 267
691 267
692 267
693 268
694 268
695 268
696 268
697 268
698 268
699 268
700 268
701 268
702 268
703 268
704 268
705 268
706 269
707 269
708 269
709 269
710 269
711 269
712 269
713 269
714 269
715 269
716 270
717 270
718 270
719 270
720 270
721 270
722 270
723 270
724 270
725 270
726 270
727 270
728 270
729 271
730 271
731 271
732 271
733 271
734 272
735 272
736 272
737 272
738 272
739 272
740 273
741 273
742 273
743 273
744 273
745 273
746 273
747 273
748 273
749 273
750 273
751 273
752 272
753 272
754 271
755 270
755 269
755 268
754 267
753 266
753 265
753 264
752 263
752 262
752 261
751 260
750 259
750 258
749 257
750 256
751 256
752 257
752 258
752 257
751 256
751 255
750 254
750 253
749 252
749 251
750 250
751 251
752 252
752 251
752 250
751 249
751 248
750 247
750 246
749 246
748 246
747 245
746 245
745 246
744 246
743 246
742 246
741 246
740 246
739 246
738 246
737 246
736 246
735 246
734 246
733 246
732 246
731 246
730 246
729 246
728 247
727 246
726 246
725 246
724 246
723 246
722 246
721 246
720 246
719 246
718 246
717 246
716 246
715 246
714 245
713 245
712 245
711 245
710 245
709 245
708 245
707 245
706 245
705 245
704 244
703 244
702 244
701 244
700 244
699 244
698 244
697 244
696 244
695 244
694 243
693 243
692 243
691 243
690 243
689 243
688 243
687 243
686 242
685 242
684 242
683 242
682 242
681 242
680 242
679 242
678 241
677 241
676 241
675 241
674 241
673 241
672 241
671 241
670 240
669 240
668 240
667 240
666 240
665 239
664 239
663 239
662 239
661 238
660 238
659 238
658 238
657 238
656 237
655 237
654 237
653 236
652 236
651 236
650 235
649 235
648 235
647 234
646 233
645 233
644 233
643 232
642 232
641 232
640 231
639 231
638 230
637 230
636 229
635 229
634 228
633 228
632 228
631 227
630 227
629 226
628 226
627 225
626 225
625 224
624 224
623 223
622 223
621 222
620 222
619 221
618 221
617 221
616 220
615 219
614 219
613 218
612 218
611 218
610 217
609 217
608 216
607 216
606 216
605 215
604 215
603 215
602 214
601 214
600 213
599 213
598 212
597 212
596 212
595 211
594 211
593 211
592 210
591 210
590 209
589 209
588 208
587 208
586 207
585 207
584 206
583 206
582 205
581 205
580 204
579 204
578 203
577 203
576 202
575 202
574 201
573 201
572 200
571 200
570 199
569 199
568 198
567 198
566 198
565 197
564 197
563 197
562 196
561 195
560 195
559 194
558 193
557 193
556 192
555 191
554 191
553 191
552 190
551 190
550 190
549 189
548 188
547 187
546 186
545 186
544 185
543 185
542 184
541 184
540 183
539 183
538 183
537 183
536 182
536 181
535 181
534 180
533 179
532 179
531 178
530 177
529 176
528 176
527 175
526 174
525 174
524 173
523 173
522 172
521 171
520 170
519 169
518 168
517 167
516 167
515 166
514 166
513 165
512 164
511 163
510 163
509 162
508 162
507 162
506 161
506 160
505 159
504 158
503 158
502 157
501 156
500 155
499 155
498 154
497 154
496 153
495 152
495 151
494 150
493 149
492 149
491 148
490 147
489 146
488 145
487 144
486 144
485 143
484 142
483 141
482 141
481 141
480 140
479 139
479 138
478 138
477 137
476 136
475 136
474 135
473 134
472 134
471 134
470 133
469 132
469 131
468 131
467 130
467 129
466 128
465 127
464 127
463 126
462 126
461 125
460 124
459 123
458 123
457 122
456 122
455 122
454 121
454 120
453 119
452 118
451 118
450 117
450 116
449 116
448 115
447 114
446 114
445 113
444 112
443 112
442 111
441 111
440 110
439 109
438 108
437 107
436 107
435 106
434 105
433 105
432 104
431 103
430 103
429 102
428 101
427 101
426 100
425 99
424 99
423 98
422 98
421 97
420 96
419 95
418 94
417 93
416 93
415 92
414 92
413 91
412 90
411 90
410 89
409 89
408 89
407 88
407 87
406 87
405 86
404 86
403 86
402 85
401 84
400 83
399 82
398 82
397 81
396 81
395 80
394 79
393 78
392 78
391 77
390 76
389 76
388 76
387 75
386 74
385 74
384 73
383 73
382 73
381 73
380 72
380 71
379 70
378 70
377 69
376 68
375 67
374 67
373 66
372 66
371 66
370 65
369 64
368 64
367 64
366 63
365 63
364 62
363 62
362 62
361 61
360 60
359 59
358 58
357 58
356 57
355 57
354 56
353 55
352 55
351 55
350 54
349 54
348 54
347 54
346 53
345 52
344 52
343 51
342 51
341 51
340 50
339 50
338 50
337 50
336 49
335 49
334 48
333 48
332 48
331 47
330 47
329 47
328 46
327 46
326 46
325 46
324 45
323 45
322 44
321 44
320 44
319 44
318 43
317 43
316 43
315 43
314 42
313 42
312 42
311 42
310 42
309 42
308 42
307 42
306 41
305 40
304 39
303 39
302 38
301 38
300 38
299 38
298 37
297 37
296 37
295 37
294 37
293 36
292 36
291 35
290 35
289 35
288 35
287 35
286 34
285 35
284 34
283 34
282 34
281 34
280 34
279 34
278 33
277 33
276 34
275 34
274 33
273 33
272 32
271 32
270 32
269 32
268 32
267 31
266 31
265 31
264 31
263 31
262 30
261 30
260 31
259 31
258 30
257 30
256 31
255 31
254 31
253 31
252 30
251 31
250 31
249 32
248 31
247 30
246 30
245 30
244 29
243 29
242 29
241 29
240 29
239 29
238 29
237 29
236 29
235 29
234 29
233 29
232 29
231 29
230 29
229 29
228 29
227 29
226 29
225 29
224 29
223 30
222 30
221 30
220 30
219 30
218 30
217 30
216 29
215 30
214 29
213 29
212 29
211 29
210 29
209 29
208 29
207 29
206 29
205 29
