236 46
236 47
236 48
237 49
237 50
237 51
237 52
236 53
236 54
236 55
236 56
236 57
236 58
236 59
236 60
236 61
236 62
236 63
236 64
235 65
236 66
235 67
235 68
235 69
235 70
235 71
235 72
235 73
236 74
236 75
236 76
236 77
237 78
237 79
237 80
237 81
237 82
237 83
238 84
238 85
238 86
238 87
238 88
239 89
239 90
239 91
240 92
240 93
240 94
240 95
239 96
238 95
237 95
237 96
237 97
237 98
237 99
237 100
238 101
238 102
238 103
239 104
239 105
239 106
239 107
240 108
240 109
241 110
241 111
241 112
242 113
242 114
242 115
243 116
243 117
244 118
244 119
245 120
245 121
246 122
246 123
247 124
247 125
248 126
248 127
249 128
249 129
250 130
250 131
251 132
251 133
252 134
252 135
252 136
253 137
254 138
254 139
255 140
255 141
255 142
256 143
256 144
257 145
257 146
257 147
257 148
258 149
258 150
259 151
259 152
260 153
260 154
261 155
261 156
262 157
262 158
263 159
263 160
264 161
264 162
265 163
265 164
266 165
266 166
267 167
267 168
268 169
268 170
269 171
269 172
270 173
270 174
271 175
271 176
271 177
272 178
272 179
272 180
273 181
273 182
273 183
274 184
274 185
275 186
275 187
276 188
276 189
276 190
277 191
277 192
277 193
277 194
278 195
278 196
278 197
278 198
278 199
278 200
278 201
277 202
276 202
275 202
274 202
273 202
272 202
271 201
270 201
269 201
268 201
267 200
266 200
265 200
264 199
263 199
262 198
261 198
260 197
259 197
258 196
257 196
256 195
255 195
254 194
253 194
252 193
251 193
250 193
249 192
248 191
247 191
246 190
245 190
244 189
243 189
242 188
241 188
240 187
239 186
238 185
237 185
236 184
235 184
234 183
233 182
232 182
231 181
230 180
229 180
228 179
227 178
226 177
225 177
224 176
223 175
222 174
221 173
220 173
219 172
218 171
217 170
216 169
215 169
214 168
213 167
212 166
211 165
210 165
209 164
208 163
207 162
206 162
205 161
204 161
203 161
202 160
201 159
200 158
199 157
198 156
197 156
196 155
196 154
195 154
194 153
193 152
192 151
191 151
190 150
189 149
188 148
187 148
186 147
185 147
184 147
183 147
182 146
181 146
180 145
179 145
178 144
177 144
176 143
175 142
174 142
173 142
172 142
171 141
170 141
169 140
168 140
167 140
166 139
165 139
164 139
163 138
162 138
161 138
160 137
159 137
158 137
157 136
156 136
155 135
154 135
153 134
152 133
151 133
151 134
151 135
151 136
151 137
150 138
149 138
148 138
147 137
146 137
145 136
144 136
143 135
142 135
141 135
140 134
139 134
138 134
137 133
136 133
135 133
134 133
133 132
132 132
131 132
130 131
129 131
128 131
127 132
127 133
126 134
125 134
124 134
123 134
122 134
121 134
120 134
119 133
118 133
117 133
116 133
115 133
115 134
116 135
116 136
116 137
116 138
116 139
116 140
116 141
116 142
116 143
116 144
116 145
116 146
116 147
117 148
117 149
117 150
117 151
117 152
117 153
117 154
117 155
117 156
118 157
118 158
118 159
118 160
119 161
119 162
120 163
120 164
121 165
121 166
121 167
121 168
122 169
122 170
123 171
124 172
124 173
125 174
125 175
126 176
127 177
127 178
128 179
129 180
130 181
130 182
131 183
132 184
133 185
134 186
134 187
135 188
136 189
137 190
137 191
138 192
139 193
140 194
140 195
141 196
142 197
143 198
143 199
144 200
145 201
145 202
146 203
147 204
147 205
146 206
145 206
144 207
143 207
142 208
141 208
140 208
139 208
138 208
137 208
136 208
135 208
134 209
133 209
132 209
131 209
130 209
129 209
128 209
127 209
126 209
125 209
124 209
123 209
122 209
121 209
120 209
119 209
118 209
117 209
116 209
115 209
114 209
113 209
112 210
111 210
110 210
109 210
108 210
107 210
106 211
105 211
104 211
103 211
102 211
101 212
100 212
99 212
98 212
97 213
96 213
95 213
94 213
93 214
92 214
91 214
90 215
89 215
88 215
87 216
86 216
85 217
84 217
83 217
82 218
81 218
80 219
79 220
78 221
77 222
76 222
75 223
74 224
73 225
72 226
71 227
70 228
69 229
68 230
68 231
67 232
66 233
66 234
66 235
67 236
68 237
67 238
66 239
65 239
64 240
63 240
62 241
61 241
61 242
61 243
62 244
63 245
63 246
64 247
64 248
64 249
64 250
65 251
65 252
66 253
66 254
67 255
68 256
69 257
70 258
70 259
71 260
72 261
72 262
71 263
70 264
69 265
69 266
69 267
70 268
70 269
71 270
72 270
73 271
74 272
75 273
75 274
76 275
77 276
78 277
79 277
80 278
81 278
82 279
83 280
84 280
85 281
86 281
87 282
88 283
89 284
90 285
91 285
92 286
93 286
94 287
95 287
96 287
97 288
98 288
99 288
100 289
101 289
102 289
103 290
104 290
105 291
106 291
107 291
108 292
109 292
110 292
111 292
112 292
113 292
114 293
115 293
116 293
117 293
118 293
119 293
120 293
121 294
122 294
123 294
124 294
125 294
126 294
127 294
128 294
129 294
130 294
131 294
132 294
133 294
134 294
135 294
136 294
137 294
138 294
139 294
140 293
141 293
142 293
143 293
144 293
145 293
146 293
147 293
148 293
149 293
150 293
151 293
152 293
153 292
154 292
155 292
156 292
157 292
158 292
159 292
160 292
161 292
162 293
162 294
162 295
162 296
161 297
160 298
159 299
158 299
158 300
157 301
156 301
155 302
154 303
154 304
153 305
152 305
151 306
150 307
149 308
148 309
147 310
146 311
145 312
145 313
144 314
144 315
143 316
142 316
141 317
140 317
139 318
138 319
137 320
136 321
135 322
134 323
133 324
132 325
131 326
130 327
129 328
128 329
127 330
126 331
125 332
125 333
124 334
123 335
123 336
122 337
122 338
121 339
121 340
120 341
120 342
119 343
119 344
118 345
118 346
117 347
116 348
115 349
115 350
114 351
113 352
112 353
113 354
114 355
115 356
116 356
117 357
118 358
119 358
120 358
121 359
122 360
123 360
124 361
125 361
126 361
127 362
128 362
129 363
130 364
130 365
131 366
131 367
132 367
133 368
134 369
135 369
136 369
137 370
138 370
139 370
140 370
141 371
142 371
143 371
144 371
145 371
146 371
147 372
148 372
149 372
150 371
151 371
152 371
153 371
154 371
155 371
156 371
157 371
158 371
159 370
160 370
161 370
162 370
163 370
164 370
165 370
166 370
167 371
168 371
169 371
170 371
171 371
172 371
173 371
174 371
175 371
176 371
177 370
178 370
179 370
180 370
181 370
182 369
183 369
184 369
185 369
186 368
187 368
188 368
189 368
190 367
191 367
192 367
193 367
194 366
195 366
196 366
197 366
198 365
199 365
200 365
201 364
202 364
203 363
204 363
205 363
206 362
207 362
208 362
209 361
210 361
211 361
212 360
213 360
214 359
215 359
216 358
217 358
218 358
219 357
220 357
221 356
222 356
223 356
224 355
225 355
226 354
227 354
228 353
229 353
230 352
231 352
232 352
233 351
234 350
235 349
236 349
237 348
238 348
239 347
240 347
241 346
242 345
243 345
244 344
245 343
246 343
247 342
248 341
249 341
250 340
251 339
252 339
253 338
254 337
255 337
256 336
257 335
258 335
259 334
260 333
261 332
262 331
263 331
264 330
265 329
266 328
267 328
268 327
269 326
270 326
271 325
272 324
273 324
274 323
275 322
276 322
277 321
278 320
279 320
280 319
281 319
282 318
283 318
284 317
285 317
286 316
287 316
288 316
289 315
290 315
291 315
292 315
293 315
294 314
295 314
296 314
297 314
298 314
299 313
300 313
301 313
302 313
303 313
304 313
305 313
306 313
307 313
308 313
309 314
309 315
309 316
308 317
308 318
307 319
307 320
306 321
306 322
306 323
305 324
305 325
304 326
303 327
303 328
302 329
302 330
301 331
301 332
300 333
300 334
299 335
298 336
298 337
297 338
297 339
296 340
295 341
294 342
294 343
294 344
293 345
292 346
291 347
291 348
290 349
290 350
289 351
289 352
288 353
287 354
286 355
286 356
285 357
285 358
284 359
283 360
283 361
282 362
281 363
281 364
280 365
280 366
279 367
278 368
277 369
277 370
276 371
276 372
275 373
274 374
274 375
273 376
272 377
272 378
271 379
270 380
270 381
269 382
269 383
268 384
267 385
266 386
266 387
265 388
264 389
264 390
263 391
262 392
262 393
261 394
260 395
260 396
259 397
259 398
258 399
257 400
257 401
256 402
256 403
256 404
255 405
255 406
254 407
254 408
254 409
254 410
254 411
254 412
254 413
253 414
253 415
252 416
252 417
251 418
250 419
250 420
249 421
248 422
248 423
247 424
246 425
246 426
245 427
245 428
244 429
244 430
244 431
243 432
242 433
242 434
242 435
243 436
244 436
245 437
245 438
245 439
244 440
243 441
243 442
243 443
242 444
241 445
241 446
241 447
240 448
240 449
239 450
239 451
239 452
239 453
238 454
238 455
238 456
237 457
237 458
237 459
236 460
236 461
236 462
235 463
235 464
235 465
236 466
236 467
236 468
236 469
236 470
235 471
235 472
235 473
235 474
235 475
235 476
235 477
235 478
235 479
235 480
235 481
235 482
234 483
234 484
233 485
233 486
233 487
232 488
233 488
234 488
235 488
236 487
237 487
238 487
239 487
240 487
241 486
242 486
243 486
244 486
245 486
246 485
247 485
248 485
249 485
250 486
251 487
252 487
253 486
254 486
255 486
256 485
257 485
258 484
259 484
260 483
261 482
262 482
263 481
264 481
265 480
266 479
267 479
268 479
269 478
270 479
271 480
271 481
271 482
272 482
273 481
274 480
275 480
276 479
277 479
278 478
279 477
280 477
281 476
282 476
283 475
284 475
285 474
286 473
287 473
288 472
289 471
290 470
291 469
292 469
293 468
293 467
294 466
295 465
296 464
296 463
297 462
298 461
298 460
299 459
300 458
300 457
301 456
302 455
303 454
304 453
305 452
306 452
307 452
308 452
309 452
310 453
311 454
311 455
312 456
313 457
313 458
314 459
315 460
315 461
316 462
316 463
316 464
317 465
318 464
319 463
320 462
320 461
321 460
322 459
323 458
324 457
325 456
326 455
326 454
327 453
328 452
329 451
329 450
330 449
331 448
331 447
332 446
333 445
333 444
334 443
334 442
335 441
336 440
337 439
338 438
339 437
340 436
341 435
342 434
342 433
343 432
343 431
344 430
344 429
345 428
346 427
347 426
347 425
348 424
349 423
350 422
351 421
352 422
353 423
353 424
354 425
355 425
356 424
357 424
358 423
359 422
360 421
361 420
361 419
362 418
362 417
363 416
363 415
364 414
364 413
364 412
364 411
364 410
363 409
363 408
364 407
365 407
366 406
367 406
368 405
369 405
370 404
371 403
372 402
373 401
374 400
375 399
376 398
376 397
377 396
378 396
378 395
379 394
380 394
380 393
381 392
382 391
382 390
383 389
384 388
384 387
385 386
386 385
387 384
388 383
388 382
389 381
390 380
391 379
392 378
392 377
393 376
394 375
395 374
395 373
396 372
396 371
397 370
398 369
399 368
400 367
400 366
401 365
402 364
402 363
403 362
404 361
405 360
405 359
406 358
407 357
408 356
409 355
410 354
410 353
411 352
412 351
412 350
413 349
413 348
414 347
415 346
415 345
416 344
417 343
417 342
418 341
419 340
420 339
421 338
422 337
422 336
423 335
424 334
424 333
425 332
426 331
427 330
427 329
428 328
428 327
429 326
430 325
430 324
431 323
432 322
432 321
433 320
433 319
434 318
435 317
435 316
436 315
437 314
437 313
437 312
438 311
439 310
440 309
441 308
442 307
443 306
443 305
444 304
445 303
446 302
447 301
448 300
449 299
450 298
451 297
452 297
452 296
453 295
454 294
455 294
456 293
457 292
458 292
459 291
460 290
461 289
462 289
463 288
464 288
465 287
466 286
467 286
468 286
469 285
470 285
471 284
472 284
473 284
474 283
475 283
476 282
477 282
478 282
479 282
480 281
481 281
482 281
483 280
484 280
485 280
486 280
487 280
488 279
489 279
490 279
491 278
492 278
493 278
494 278
495 278
496 278
497 277
498 277
499 277
500 277
501 277
502 276
503 276
504 276
505 276
506 276
507 275
508 275
509 275
510 275
511 275
512 275
513 275
514 275
515 274
516 274
517 274
518 274
519 274
520 274
521 274
522 274
523 273
524 273
525 273
526 273
527 273
528 273
529 273
530 272
531 272
532 272
533 272
534 272
535 272
536 272
537 271
538 271
539 271
540 271
541 271
542 271
543 271
544 271
545 271
546 270
547 270
548 270
549 270
550 270
551 270
552 269
553 269
554 269
555 269
556 268
557 268
558 268
559 268
560 268
561 268
562 267
563 267
564 267
565 267
566 267
567 267
568 266
569 266
570 266
571 266
572 266
573 265
574 265
575 265
576 265
577 265
578 264
579 264
580 264
581 264
582 264
583 264
584 263
585 263
586 263
587 263
588 263
589 263
590 262
591 262
592 262
593 262
594 262
595 262
596 262
597 261
598 261
599 261
600 261
601 261
602 260
603 260
604 260
605 260
606 260
607 260
608 259
609 259
610 259
611 259
612 259
613 259
614 258
615 258
616 258
617 258
618 257
619 257
620 257
621 257
622 257
623 257
624 256
625 256
626 256
627 256
628 256
629 255
630 255
631 255
632 255
633 255
634 254
635 254
636 254
637 254
638 254
639 253
640 253
641 253
642 253
643 253
644 253
645 252
646 252
647 252
648 252
649 252
650 251
651 251
652 251
653 251
654 250
655 250
656 250
657 250
658 249
659 249
660 249
661 249
662 249
663 249
664 248
665 248
666 248
667 248
668 248
669 247
670 247
671 247
672 246
673 246
674 246
675 246
676 246
677 246
678 245
679 245
680 245
681 245
682 245
683 244
684 244
685 244
686 244
687 244
688 243
689 243
690 243
691 243
692 242
693 242
694 242
695 242
696 242
697 241
698 241
699 241
700 240
701 240
702 240
703 239
704 239
705 239
706 239
707 238
708 238
709 238
710 237
711 237
712 236
713 236
714 236
715 235
716 235
717 235
718 234
719 234
720 233
721 233
722 232
723 232
724 232
725 231
726 231
727 230
728 230
729 229
730 228
731 228
732 228
733 227
734 227
735 227
736 226
737 226
738 225
739 225
740 224
741 224
742 224
743 223
744 222
744 221
745 220
746 220
747 219
747 218
747 217
748 216
748 215
747 214
746 213
746 212
746 211
745 210
745 209
746 208
745 208
744 209
743 210
742 211
741 211
740 211
739 212
738 212
737 213
736 214
735 215
734 215
733 216
732 216
731 217
730 218
729 218
728 218
727 219
726 219
725 220
724 221
723 222
722 222
721 223
720 223
719 224
718 224
717 225
716 225
715 226
714 226
713 226
712 227
711 227
710 228
709 228
708 229
707 229
706 229
705 230
704 230
703 230
702 231
701 231
700 231
699 232
698 232
697 232
696 232
695 233
694 233
693 233
692 233
691 233
690 234
689 234
688 234
687 234
686 235
685 235
684 235
683 235
682 236
681 236
680 236
679 236
678 237
677 237
676 237
675 237
674 238
673 238
672 238
671 238
670 239
669 239
668 239
667 239
666 240
665 240
664 240
663 240
662 240
661 241
660 241
659 241
658 241
657 241
656 241
655 242
654 242
653 242
652 242
651 242
650 243
649 243
648 243
647 244
646 244
645 244
644 244
643 244
642 244
641 245
640 245
639 245
638 245
637 245
636 246
635 246
634 246
633 246
632 246
631 247
630 247
629 247
628 247
627 247
626 248
625 248
624 248
623 248
622 248
621 248
620 249
619 249
618 249
617 249
616 249
615 250
614 250
613 250
612 250
611 250
610 250
609 250
608 251
607 251
606 251
605 251
604 251
603 252
602 252
601 252
600 252
599 252
598 252
597 253
596 253
595 253
594 253
593 253
592 254
591 254
590 254
589 254
588 254
587 254
586 254
585 255
584 255
583 255
582 255
581 255
580 255
579 255
578 255
577 256
576 256
575 256
574 256
573 256
572 257
571 257
570 257
569 257
568 257
567 257
566 257
565 257
564 258
563 258
562 258
561 258
560 258
559 259
558 259
557 259
556 259
555 259
554 259
553 259
552 260
551 260
550 260
549 260
548 260
547 260
546 260
545 260
544 261
543 261
542 261
541 261
540 261
539 261
538 261
537 262
536 262
535 262
534 262
533 262
532 262
531 262
530 262
529 262
528 263
527 263
526 263
525 263
524 263
523 263
522 263
521 263
520 263
519 264
518 264
517 264
516 264
515 264
514 264
513 264
512 264
511 264
510 264
509 264
508 265
507 265
506 265
505 265
504 265
503 265
502 266
501 266
500 266
499 266
498 266
497 266
496 266
495 266
494 266
493 266
492 266
491 266
490 266
489 266
488 266
487 266
486 265
485 265
484 265
483 265
482 264
481 264
480 264
479 264
478 264
477 263
476 263
475 264
475 265
474 266
473 267
473 268
472 269
471 269
470 269
469 269
468 269
467 269
466 268
465 268
464 268
463 268
462 268
461 267
460 267
459 266
458 265
457 264
456 263
455 262
454 262
453 262
452 262
451 261
450 261
449 260
448 259
447 259
446 258
445 257
444 256
443 255
443 254
444 253
444 252
445 251
445 250
445 249
445 248
444 247
443 246
442 245
441 244
440 243
439 243
438 242
437 241
436 240
436 239
435 239
434 238
434 237
433 236
432 235
431 234
430 233
429 232
429 231
428 230
427 229
426 228
426 227
425 226
424 225
424 224
423 223
423 222
422 221
421 220
421 219
420 218
419 217
418 216
418 215
417 214
416 213
415 212
415 211
414 210
413 209
412 208
411 207
410 206
410 205
409 204
409 203
408 202
408 201
407 200
407 199
406 198
406 197
405 196
404 195
404 194
403 193
403 192
402 191
402 190
401 189
401 188
400 187
400 186
399 185
399 184
398 183
397 182
396 182
395 182
394 181
393 181
392 180
392 179
391 178
390 177
390 176
390 175
391 174
391 173
391 172
390 171
390 170
389 169
389 168
388 167
387 166
387 165
386 164
385 163
384 162
384 161
383 160
383 159
382 158
381 157
381 156
380 155
379 154
379 153
378 152
377 151
377 150
376 149
376 148
375 147
374 146
374 145
373 144
373 145
372 146
371 146
370 145
369 144
368 143
367 142
367 141
366 140
365 139
364 138
364 137
363 136
362 135
362 134
361 133
360 132
359 131
358 130
357 129
356 129
355 128
354 127
354 126
353 125
352 124
352 123
351 122
350 121
350 120
349 119
348 118
348 117
347 116
347 115
346 114
346 113
345 112
345 111
344 110
344 109
343 108
343 107
343 106
342 106
341 107
340 108
339 108
338 109
337 109
336 109
335 108
335 107
334 106
334 105
333 104
333 103
332 102
332 101
332 100
332 99
331 98
331 97
330 96
330 95
330 94
329 93
329 92
329 91
328 90
328 89
327 88
327 87
327 86
326 85
326 84
325 83
324 84
323 85
322 84
321 83
321 82
320 81
320 80
319 79
318 78
318 77
317 76
316 75
315 74
314 73
314 72
313 71
312 70
312 71
312 72
311 73
310 74
309 75
308 76
307 77
307 78
306 79
305 80
304 81
304 82
303 83
302 84
302 85
301 86
300 87
299 86
299 85
298 84
297 83
297 82
296 81
295 80
295 79
294 78
293 77
293 76
292 75
292 74
291 73
290 72
290 71
289 70
288 69
287 68
286 67
285 66
284 65
283 64
282 63
281 62
280 61
279 60
278 60
277 59
276 58
275 57
274 57
273 57
273 58
273 59
272 60
271 61
270 61
269 60
268 59
267 58
267 57
266 56
265 56
264 55
263 54
262 53
261 53
260 52
259 51
258 51
257 50
256 49
255 49
254 48
253 47
252 47
252 48
251 49
250 50
249 50
248 49
247 48
246 48
245 47
244 47
243 47
242 46
241 46
240 46
239 46
238 46
237 46
236 46
