290 40
289 41
288 41
287 41
286 41
285 41
284 41
283 42
282 42
281 42
280 42
279 42
278 42
277 42
276 43
275 43
274 43
273 43
272 43
271 44
270 44
269 44
268 44
267 44
266 45
265 45
264 45
263 45
262 46
261 46
260 46
259 46
258 47
257 47
256 47
255 47
254 48
253 48
252 48
251 49
250 49
249 49
248 50
247 50
246 50
245 51
244 51
243 51
242 52
241 52
240 52
239 52
238 53
237 53
236 54
235 54
234 54
233 55
232 55
231 56
230 56
229 56
228 57
227 57
226 57
225 58
224 58
223 59
222 59
221 60
220 60
219 60
218 61
217 61
216 62
215 62
214 63
213 63
212 64
211 64
210 65
209 65
208 65
207 66
206 66
205 67
204 67
203 68
202 68
201 69
200 69
199 70
198 70
197 71
196 71
195 72
194 72
193 73
192 73
191 74
190 74
189 74
188 75
187 75
186 76
185 76
184 76
183 77
182 77
181 77
180 78
179 78
178 79
177 79
176 80
175 80
174 81
173 81
172 81
171 82
170 82
169 82
168 83
167 83
166 84
165 84
164 85
163 85
162 86
161 86
160 86
159 87
158 87
157 87
156 88
155 88
154 89
153 89
152 90
151 90
150 91
149 91
148 91
147 92
146 92
145 93
144 93
143 94
142 94
141 94
140 95
139 95
138 96
137 96
136 97
135 97
134 98
133 98
132 99
131 99
130 100
129 100
128 100
127 101
126 102
125 102
124 103
123 103
122 104
121 105
120 105
119 106
118 107
117 107
116 108
115 109
114 109
113 110
112 110
111 111
110 112
109 113
108 113
107 114
106 115
105 116
104 117
103 117
102 118
101 119
100 120
99 121
98 121
97 122
96 123
95 124
94 125
93 126
92 127
91 128
90 129
89 129
88 130
87 131
86 132
85 133
84 133
83 134
82 135
81 135
80 136
79 137
78 138
77 139
76 140
75 140
74 141
73 142
72 143
71 143
70 144
69 145
68 146
67 147
66 148
66 149
65 150
64 151
63 152
62 153
61 154
60 155
59 155
58 156
57 157
56 157
55 158
54 158
53 159
52 159
51 159
50 160
49 160
48 160
47 161
46 161
45 161
44 161
43 162
42 162
41 162
40 163
39 163
38 164
38 165
38 166
38 167
39 168
40 168
41 169
42 169
43 169
44 170
45 170
46 170
47 171
48 171
49 171
50 172
51 172
52 173
53 173
54 174
55 175
56 175
57 176
58 177
59 178
60 178
61 179
61 180
62 180
63 181
64 182
65 183
65 184
66 185
67 186
67 187
68 188
69 189
69 190
69 191
70 192
70 193
71 194
71 195
71 196
72 197
72 198
73 199
73 200
74 201
74 202
75 203
76 204
77 205
77 206
78 207
78 208
79 209
80 210
81 211
81 212
82 213
83 214
84 215
85 216
86 217
87 218
88 219
89 220
90 221
91 222
92 223
93 224
94 225
95 226
96 227
97 228
98 229
99 229
100 230
101 231
102 232
103 233
104 234
105 235
106 236
107 236
108 237
109 238
110 239
111 240
112 240
113 241
114 242
115 243
116 243
117 244
118 244
119 245
120 245
121 246
122 246
123 247
124 248
125 248
126 249
127 249
128 250
129 250
130 251
131 252
132 252
133 253
134 253
135 254
136 254
137 255
138 255
139 256
140 256
141 257
142 257
143 258
144 258
145 259
146 259
147 260
148 260
149 261
150 261
151 262
152 263
153 263
154 264
155 264
156 265
157 265
158 266
159 266
160 267
161 267
162 268
163 268
164 269
165 269
166 270
167 270
168 271
169 271
170 272
171 272
172 272
173 273
174 273
175 274
176 274
177 275
178 275
179 276
180 276
181 277
182 277
183 277
184 278
185 279
186 279
187 279
188 280
189 280
190 280
191 281
192 281
193 282
194 282
195 282
196 283
197 283
198 283
199 284
200 284
201 284
202 284
203 285
204 285
205 285
206 286
207 286
208 286
209 287
210 287
211 287
212 288
213 288
214 288
215 288
216 289
217 289
218 289
219 290
220 290
221 291
222 291
223 291
224 291
225 292
226 292
227 292
228 292
229 293
230 293
231 293
232 293
233 294
234 294
235 294
236 294
237 295
238 295
239 295
240 295
241 295
242 295
243 296
244 296
245 296
246 296
247 296
248 296
249 296
250 297
251 297
252 297
253 297
254 297
255 297
256 297
257 298
258 298
259 298
260 298
261 298
262 298
263 298
264 298
265 299
266 299
267 299
268 299
269 299
270 299
271 299
272 299
273 300
274 300
275 300
276 300
277 300
278 300
279 300
280 300
281 301
282 301
283 301
284 301
285 301
286 301
287 301
288 301
289 301
290 301
291 301
292 302
293 302
294 302
295 302
296 302
297 302
298 302
299 302
300 302
301 302
302 302
303 302
304 302
305 302
306 302
307 302
308 302
309 302
310 302
311 302
312 302
313 302
314 302
315 302
316 301
317 301
318 301
319 301
320 301
321 301
322 301
323 301
324 302
325 302
326 302
327 302
328 302
329 302
330 302
331 302
332 302
333 302
334 302
335 303
336 303
337 303
338 303
339 303
340 304
341 304
342 304
343 304
344 304
345 304
346 304
347 304
348 304
349 305
350 305
351 305
352 305
353 305
354 305
355 305
356 305
357 305
358 305
359 305
360 305
361 304
362 304
363 304
364 304
365 304
366 304
367 304
368 304
369 304
370 304
371 304
372 304
373 304
374 304
375 304
376 304
377 304
378 304
379 304
380 304
381 303
382 303
383 303
384 303
385 303
386 303
387 303
388 303
389 302
390 302
391 302
392 302
393 302
394 302
395 302
396 301
397 301
398 301
399 301
400 301
401 301
402 300
403 300
404 300
405 300
406 300
407 300
408 300
409 299
410 299
411 299
412 299
413 299
414 298
415 298
416 298
417 298
418 297
419 297
420 297
421 297
422 297
423 296
424 296
425 296
426 296
427 296
428 296
429 296
430 296
431 296
432 296
433 295
434 295
435 295
436 295
437 295
438 295
439 295
440 295
441 294
442 294
443 294
444 294
445 294
446 293
447 293
448 293
449 293
450 292
451 292
452 292
453 292
454 291
455 291
456 291
457 290
458 290
459 290
460 290
461 289
462 289
463 289
464 288
465 288
466 288
467 287
468 287
469 287
470 286
471 286
472 286
473 285
474 285
475 285
476 284
477 284
478 284
479 283
480 283
481 283
482 283
483 282
484 282
485 282
486 281
487 281
488 281
489 281
490 280
491 280
492 280
493 280
494 279
495 279
496 279
497 278
498 278
499 278
500 277
501 277
502 277
503 276
504 276
505 276
506 275
507 275
508 275
509 274
510 274
511 274
512 273
513 273
514 272
515 272
516 272
517 271
518 271
519 271
520 270
521 270
522 270
523 269
524 269
525 268
526 268
527 268
528 267
529 267
530 266
531 266
532 266
533 265
534 265
535 264
536 264
537 264
538 263
539 263
540 262
541 262
542 262
543 261
544 261
545 260
546 260
547 259
548 258
549 258
550 257
551 257
552 256
553 255
554 255
555 254
556 254
557 253
558 252
559 252
560 251
561 250
562 250
563 249
564 249
565 248
566 247
567 247
568 246
569 246
570 245
571 244
572 244
573 243
574 242
575 242
576 241
577 240
578 240
579 239
580 239
581 238
582 237
583 237
584 236
585 235
586 235
587 234
588 233
589 233
590 232
591 231
592 231
593 230
594 229
595 229
596 228
597 227
598 227
599 226
600 225
601 224
602 224
603 223
604 222
605 222
606 221
607 220
608 220
609 219
610 218
611 218
612 217
613 216
614 215
615 215
616 214
617 213
618 213
619 212
620 211
621 210
622 210
623 209
624 208
625 207
626 206
627 206
628 205
629 204
630 203
631 203
632 202
633 201
634 200
635 199
636 198
637 197
638 196
639 195
640 194
641 193
642 192
643 192
644 191
645 190
646 189
647 188
648 187
649 186
650 185
651 184
652 183
653 182
654 181
655 180
656 179
657 178
658 177
659 176
660 176
661 175
662 174
663 173
664 172
665 171
666 170
667 169
667 168
668 167
669 166
670 166
671 165
672 164
672 163
673 162
674 162
675 161
676 160
677 159
678 159
679 158
680 158
681 157
682 157
683 156
684 156
685 156
686 156
687 156
688 156
689 155
690 155
691 155
692 155
693 155
694 155
695 155
696 155
697 155
698 155
699 155
700 155
701 155
702 155
703 155
704 155
705 155
706 155
707 155
708 155
709 155
710 155
711 155
712 155
713 155
714 155
715 155
716 155
717 155
718 155
719 155
720 155
721 155
722 155
723 155
724 155
725 155
726 155
727 155
728 155
729 155
730 156
731 156
732 156
733 156
734 156
735 156
736 156
737 156
738 156
739 156
740 156
741 156
742 156
743 156
744 156
745 156
746 156
747 156
748 156
749 156
750 155
751 154
752 154
753 153
754 153
754 152
754 151
755 150
754 149
753 148
753 147
754 146
754 145
754 144
754 143
753 142
753 141
752 140
752 139
751 139
750 139
749 139
748 139
747 139
746 139
745 139
744 139
743 139
742 140
741 140
740 140
739 140
738 140
737 140
736 140
735 140
734 140
733 140
732 140
731 140
730 140
729 140
728 140
727 140
726 140
725 140
724 140
723 140
722 140
721 140
720 140
719 140
718 140
717 140
716 140
715 140
714 140
713 140
712 140
711 140
710 140
709 140
708 140
707 140
706 140
705 140
704 140
703 140
702 141
701 141
700 141
699 141
698 141
697 141
696 141
695 141
694 141
693 141
692 141
691 141
690 140
689 140
688 140
687 140
686 140
685 139
684 139
683 139
682 139
681 139
680 139
679 139
678 139
677 138
676 138
675 138
674 138
673 137
672 137
671 137
670 136
669 136
668 135
667 135
666 134
665 134
664 133
663 132
662 132
661 131
660 131
659 130
658 129
657 129
656 128
655 127
654 127
653 126
652 126
651 125
650 124
649 124
648 123
647 122
646 122
645 121
644 120
643 120
642 119
641 118
640 118
639 117
638 117
637 116
636 115
635 114
634 114
633 113
632 113
631 112
630 112
629 111
628 110
627 110
626 109
625 108
624 108
623 107
622 107
621 106
620 105
619 105
618 104
617 104
616 103
615 102
614 102
613 101
612 101
611 100
610 99
609 99
608 98
607 98
606 97
605 97
604 96
603 96
602 95
601 95
600 94
599 93
598 93
597 92
596 92
595 91
594 91
593 90
592 90
591 89
590 89
589 88
588 88
587 87
586 87
585 86
584 86
583 85
582 85
581 84
580 84
579 84
578 83
577 83
576 82
575 82
574 82
573 81
572 81
571 81
570 80
569 80
568 79
567 79
566 78
565 78
564 78
563 77
562 77
561 77
560 76
559 76
558 76
557 75
556 75
555 74
554 74
553 74
552 73
551 73
550 72
549 72
548 72
547 71
546 71
545 71
544 70
543 70
542 69
541 69
540 69
539 68
538 68
537 67
536 67
535 67
534 66
533 66
532 65
531 65
530 65
529 64
528 64
527 64
526 63
525 63
524 62
523 62
522 62
521 61
520 61
519 61
518 60
517 60
516 59
515 59
514 59
513 58
512 58
511 58
510 57
509 57
508 57
507 56
506 56
505 56
504 55
503 55
502 54
501 54
500 54
499 53
498 53
497 53
496 53
495 52
494 52
493 52
492 51
491 51
490 51
489 51
488 50
487 50
486 50
485 49
484 49
483 49
482 49
481 49
480 49
479 48
478 48
477 48
476 48
475 48
474 47
473 47
472 47
471 47
470 47
469 46
468 46
467 46
466 46
465 46
464 45
463 45
462 45
461 45
460 45
459 45
458 45
457 45
456 45
455 45
454 45
453 45
452 44
451 44
450 44
449 44
448 44
447 44
446 44
445 44
444 43
443 43
442 43
441 43
440 43
439 43
438 43
437 43
436 43
435 43
434 43
433 43
432 43
431 43
430 43
429 43
428 43
427 43
426 43
425 43
424 44
423 44
422 44
421 44
420 44
419 44
418 44
417 44
416 44
415 44
414 44
413 44
412 44
411 44
410 44
409 44
408 44
407 43
406 43
405 43
404 43
403 43
402 43
401 43
400 43
399 43
398 42
397 42
396 42
395 42
394 42
393 42
392 42
391 42
390 42
389 42
388 41
387 41
386 41
385 41
384 41
383 41
382 41
381 41
380 41
379 41
378 41
377 41
376 41
375 40
374 40
373 40
372 40
371 40
370 40
369 40
368 40
367 40
366 40
365 40
364 40
363 40
362 40
361 40
360 40
359 40
358 40
357 40
356 40
355 40
354 40
353 40
352 40
351 40
350 40
349 40
348 40
347 40
346 40
345 40
344 40
343 40
342 41
341 41
340 41
339 41
338 41
337 41
336 41
335 41
334 41
333 41
332 41
331 41
330 41
329 41
328 41
327 41
326 40
325 40
324 40
323 40
322 40
321 40
320 40
319 40
318 40
317 40
316 40
315 40
314 40
313 40
312 40
311 40
310 40
309 40
308 40
307 40
306 40
305 40
304 40
303 40
302 40
301 40
300 40
299 40
298 40
297 40
296 40
295 40
294 40
293 40
292 40
291 40
290 40
