188 36
187 37
186 37
185 37
184 37
183 37
182 37
181 37
180 38
179 38
178 39
177 40
176 40
175 40
174 40
173 40
172 41
171 42
170 43
169 44
169 45
168 46
167 47
166 48
166 49
165 50
164 51
164 52
164 53
164 54
163 55
163 56
163 57
163 58
162 59
162 60
161 61
161 62
161 63
160 64
160 65
160 66
159 67
159 68
159 69
159 70
159 71
159 72
158 73
158 74
157 75
157 76
157 77
157 78
157 79
156 80
156 81
156 82
156 83
156 84
156 85
156 86
155 87
155 88
155 89
155 90
155 91
155 92
155 93
156 94
156 95
156 96
156 97
156 98
157 99
157 100
157 101
157 102
157 103
157 104
157 105
157 106
158 107
158 108
158 109
158 110
158 111
159 112
159 113
159 114
159 115
159 116
159 117
160 118
160 119
160 120
160 121
161 122
161 123
161 124
161 125
162 126
162 127
162 128
162 129
163 130
163 131
163 132
164 133
164 134
165 135
165 136
165 137
166 138
166 139
166 140
166 141
167 142
168 142
169 143
168 144
168 145
168 146
168 147
169 148
169 149
170 150
171 150
172 151
171 152
170 152
171 152
172 153
172 154
172 155
173 156
173 157
174 158
174 159
175 160
175 161
175 162
175 163
175 164
176 165
176 166
176 167
176 168
177 169
177 170
177 171
177 172
177 173
178 174
178 175
179 176
179 177
180 178
180 179
181 180
181 181
181 182
182 183
182 184
183 185
183 186
184 187
184 188
185 189
185 190
186 191
186 192
186 193
187 194
187 195
188 196
188 197
189 198
189 199
190 200
190 201
191 202
191 203
192 204
193 205
193 206
194 207
194 208
195 209
196 210
197 211
198 212
199 213
200 214
200 215
201 216
202 217
203 218
203 219
204 220
205 221
206 222
206 223
207 224
208 225
209 226
210 227
211 228
212 229
213 230
214 231
215 232
216 232
217 233
218 234
219 235
220 236
221 236
222 237
223 238
224 238
225 239
226 240
227 241
228 242
229 242
230 243
231 243
232 244
233 244
234 245
233 246
234 246
235 245
236 245
237 246
236 247
236 248
237 247
238 247
239 248
239 249
240 249
241 250
242 250
243 251
244 252
245 252
246 252
247 252
248 253
249 254
250 254
251 255
252 255
253 256
254 256
255 256
256 257
257 258
258 258
259 258
260 259
261 259
262 260
263 260
264 261
265 261
266 262
267 262
268 263
269 263
270 263
271 264
272 264
273 264
274 265
275 265
276 266
277 266
278 266
279 267
280 267
281 267
282 267
283 268
284 269
285 269
286 269
287 269
288 270
289 270
290 271
291 271
292 271
293 272
294 272
295 272
296 273
297 273
298 274
299 274
300 274
301 275
302 275
303 275
304 276
305 277
306 277
307 276
308 277
309 278
310 278
311 278
312 279
313 279
314 279
315 280
316 280
317 280
318 280
319 281
320 281
321 281
322 281
323 282
324 282
325 282
326 283
327 283
328 284
329 284
330 284
331 284
332 285
333 285
334 285
335 286
336 286
337 286
338 286
339 287
340 287
341 288
342 288
343 288
344 288
345 289
346 289
347 289
348 290
349 290
350 290
351 291
352 291
353 291
354 292
355 293
354 294
353 294
352 294
351 295
350 295
349 295
348 295
347 294
346 294
345 293
344 293
343 293
342 293
341 292
340 292
339 292
338 292
337 292
336 292
335 292
334 292
333 292
332 292
331 292
330 293
329 293
328 293
327 293
326 293
325 293
324 293
323 293
322 293
321 293
320 293
319 293
318 293
317 293
316 294
315 294
314 294
313 294
312 294
311 294
310 294
309 294
308 294
307 294
306 294
305 294
304 294
303 294
302 294
301 294
300 294
299 294
298 294
297 294
296 294
295 294
294 295
293 295
292 295
291 294
290 294
289 294
288 294
287 294
286 294
285 294
284 294
283 294
282 295
281 295
280 295
279 295
278 295
277 295
276 295
275 295
274 295
273 295
272 296
271 296
270 296
269 296
268 296
267 296
266 296
265 297
264 297
263 297
262 297
261 297
260 297
259 297
258 297
257 297
256 297
255 297
254 298
253 298
252 298
251 298
250 298
249 298
248 299
247 299
246 299
245 299
244 299
243 299
242 299
241 299
240 300
239 300
238 300
237 300
236 300
235 300
234 300
233 300
232 301
231 301
230 301
229 301
228 301
227 301
226 301
225 302
224 301
223 301
222 302
221 302
220 302
219 302
218 303
217 303
216 303
215 303
214 303
213 303
212 304
211 304
210 305
209 305
208 305
207 305
206 305
205 305
204 305
203 305
202 305
201 306
200 306
199 306
198 307
197 307
196 307
195 308
194 308
193 309
192 309
191 309
190 310
189 310
188 310
187 311
186 311
185 311
184 312
183 312
182 312
181 313
180 313
179 313
178 314
177 314
176 315
175 315
174 316
173 316
172 316
171 317
170 317
169 318
168 318
167 319
166 319
165 320
164 320
163 321
162 321
161 322
160 322
159 323
158 323
157 324
156 324
155 325
154 325
153 326
152 327
151 327
150 328
149 328
148 329
147 330
146 331
145 332
144 333
143 333
142 334
141 335
140 336
139 337
138 338
137 339
136 340
135 341
134 342
133 343
132 344
132 345
131 346
130 347
130 348
129 349
128 350
128 351
127 352
126 353
125 354
124 355
124 356
123 357
123 358
122 359
121 360
120 361
119 362
119 363
118 364
117 365
116 366
116 367
115 368
115 369
114 370
114 371
113 372
113 373
112 374
112 375
111 376
110 377
110 378
109 379
109 380
109 381
108 382
108 383
107 384
106 385
106 386
105 387
105 388
104 389
104 390
103 391
102 392
102 393
102 394
101 395
101 396
101 397
100 398
99 399
99 400
99 401
98 402
98 403
98 404
97 405
97 406
96 407
97 408
96 409
95 409
95 410
94 411
94 412
93 413
93 414
92 415
92 416
91 417
91 418
90 419
90 420
89 421
89 422
88 423
88 424
87 425
87 426
86 427
86 428
86 429
86 430
86 431
85 432
85 433
85 434
84 435
84 436
84 437
84 438
83 439
83 440
83 441
83 442
83 443
83 444
83 445
83 446
82 447
82 448
82 449
82 450
82 451
81 452
82 453
81 454
81 455
81 456
81 457
81 458
81 459
81 460
81 461
81 462
81 463
81 464
81 465
81 466
81 467
81 468
81 469
81 470
81 471
82 472
82 473
82 474
82 475
83 476
83 477
83 478
83 479
83 480
83 481
84 482
84 483
84 484
84 485
85 486
85 487
85 488
85 489
85 490
86 491
87 492
88 493
88 494
88 495
89 496
90 497
91 498
92 499
92 500
93 501
94 501
95 502
95 503
95 504
95 505
95 504
96 503
97 503
98 503
99 504
100 504
101 505
101 506
102 506
103 507
104 508
105 508
106 508
107 508
108 508
109 508
110 508
111 508
112 508
113 508
114 508
115 508
116 507
117 507
118 507
119 507
120 507
121 506
122 506
123 506
124 506
125 505
126 505
127 505
128 505
129 504
130 504
131 504
132 503
133 503
134 503
135 503
136 502
137 502
138 502
139 502
140 501
141 500
142 500
143 499
144 499
145 498
146 498
147 498
148 497
149 497
149 496
150 495
151 496
151 495
152 494
153 495
152 494
153 493
154 493
155 494
156 493
157 492
158 492
159 491
160 491
161 491
162 491
163 490
164 490
165 490
166 489
167 489
168 489
169 488
170 488
171 488
172 488
173 488
174 488
175 488
176 487
177 487
178 487
179 487
180 487
181 487
182 487
183 487
184 487
185 488
186 487
187 488
188 488
189 488
190 488
191 488
192 488
193 488
194 488
195 488
196 488
197 488
198 488
199 488
200 488
201 488
202 488
203 488
204 488
205 488
206 488
207 488
208 488
209 488
210 488
211 488
212 488
213 488
214 488
215 487
216 487
217 487
218 487
219 487
220 486
221 486
222 486
223 486
224 485
225 485
226 485
227 485
228 484
229 484
230 483
231 483
232 482
233 482
234 481
235 481
236 481
237 480
238 480
238 479
239 478
240 479
241 478
242 477
243 476
244 476
245 476
245 475
246 474
247 474
248 473
249 473
250 473
251 472
252 472
253 471
254 471
255 470
255 469
256 468
257 468
258 467
259 466
260 466
261 465
262 464
263 463
264 463
265 464
266 463
265 462
266 461
267 461
267 460
268 459
269 459
270 458
271 457
272 456
273 455
274 454
275 453
276 452
277 451
278 450
279 449
280 448
281 448
282 447
283 446
284 445
285 444
286 444
287 445
287 446
286 447
287 447
288 448
288 449
289 450
289 451
289 452
290 453
290 454
290 455
290 456
290 457
290 458
291 459
291 460
291 461
292 462
292 463
292 464
292 465
293 466
293 467
293 468
293 469
294 470
294 471
294 472
295 473
295 474
295 475
295 476
296 477
296 478
296 479
296 480
297 481
297 482
297 483
297 484
298 485
298 486
298 487
298 488
298 489
298 490
298 491
299 492
299 493
299 494
299 495
298 496
299 497
299 498
298 499
298 500
299 501
299 502
299 503
299 504
299 505
299 506
299 507
299 508
298 509
298 510
299 511
299 512
299 513
299 514
299 515
299 516
299 517
299 518
299 519
299 520
299 521
299 522
299 523
299 524
300 525
300 526
300 527
300 528
301 529
301 530
301 531
301 532
301 533
301 534
302 535
302 536
302 537
302 538
303 539
303 540
303 541
303 542
303 543
303 544
304 545
304 546
305 547
305 548
305 549
306 550
306 551
306 552
307 553
307 554
307 555
308 556
308 557
309 558
309 559
310 560
310 561
310 562
311 563
312 564
312 565
312 566
313 567
314 568
315 569
315 570
316 571
316 572
317 573
318 574
319 575
319 576
320 577
321 578
322 579
323 580
323 581
324 582
325 583
326 584
327 585
327 586
328 586
329 587
330 588
331 589
332 590
333 590
334 591
335 592
336 592
337 593
338 594
339 595
340 595
341 595
342 596
343 596
344 596
345 597
346 597
347 598
348 598
349 598
350 598
351 598
352 598
353 598
354 598
355 597
356 597
357 597
358 597
359 597
360 597
361 596
362 596
363 595
364 595
365 595
366 595
367 594
368 594
369 593
370 593
371 592
372 592
373 591
374 591
375 590
376 589
377 589
378 588
379 587
380 586
381 585
382 584
383 583
384 582
385 581
386 580
387 579
388 579
389 578
390 577
391 576
392 576
393 575
394 574
395 573
395 572
396 571
397 571
397 570
398 569
399 568
400 567
400 566
401 565
402 564
402 563
403 562
404 561
404 560
405 559
406 558
406 557
407 556
408 555
409 554
410 553
410 552
411 551
412 550
413 549
413 548
414 547
415 547
415 546
415 545
416 544
417 543
417 542
417 541
418 540
419 539
419 538
420 537
420 536
421 535
422 534
422 533
423 532
423 531
424 530
425 529
425 528
426 527
426 526
427 525
428 524
428 523
428 522
429 521
429 520
429 519
430 518
430 517
430 516
431 515
431 514
431 513
432 512
432 511
433 510
433 509
433 508
433 507
434 506
434 505
434 504
435 503
435 502
435 501
435 500
435 499
436 498
436 497
437 496
437 495
437 494
438 493
439 492
439 491
439 490
440 489
440 488
441 487
441 486
442 485
442 484
442 483
442 482
442 481
442 480
442 479
442 478
443 477
443 476
443 475
443 474
443 473
443 472
443 471
443 470
444 469
444 468
444 467
444 466
444 465
444 464
444 463
444 462
444 461
444 460
444 459
444 458
444 457
444 456
444 455
444 454
444 453
444 452
444 451
444 450
444 449
444 448
444 447
444 446
444 445
443 444
443 443
443 442
443 441
443 440
443 439
442 438
442 437
442 436
442 435
442 434
442 433
442 432
441 431
441 430
441 429
441 428
441 427
440 426
440 425
440 424
439 423
439 422
439 421
438 420
438 419
438 418
437 417
437 416
437 415
436 414
436 413
436 412
435 411
435 410
434 409
434 408
434 407
433 406
433 405
432 404
432 403
431 402
431 401
430 400
430 399
429 398
429 397
428 396
427 395
427 394
426 393
426 392
425 391
424 390
423 389
423 388
422 387
421 386
421 385
420 384
419 383
418 382
417 381
416 380
415 379
415 378
414 377
413 376
412 375
411 374
410 373
410 372
409 371
408 370
407 369
406 368
405 367
405 366
404 365
403 364
403 363
402 362
401 361
400 360
400 359
399 358
398 357
397 356
396 355
396 354
395 353
394 352
393 351
392 350
391 349
390 348
390 347
389 346
388 345
387 344
386 343
385 342
384 341
383 340
382 339
381 338
380 337
379 336
378 335
377 334
376 333
376 332
375 331
374 330
373 329
373 328
372 327
371 326
371 325
370 324
369 323
368 322
367 321
366 320
366 319
365 318
364 317
364 316
363 315
363 314
362 313
362 312
361 311
360 310
360 309
359 308
358 307
358 306
359 305
360 305
361 304
362 303
363 303
364 302
365 302
366 302
367 302
368 302
369 301
370 301
371 301
372 301
373 301
374 301
375 301
376 301
377 301
378 301
379 301
380 301
381 301
382 301
383 301
384 301
385 301
386 301
387 301
388 301
389 301
390 301
391 301
392 301
393 302
394 302
395 302
396 302
397 302
398 302
399 302
400 302
401 302
402 302
403 302
404 302
405 302
406 302
407 302
408 302
409 302
410 302
411 303
412 303
413 303
414 303
415 303
416 303
417 303
418 303
419 303
420 303
421 303
422 303
423 304
424 303
425 304
426 304
427 303
428 304
429 304
430 304
431 304
432 304
433 304
434 304
435 304
436 304
437 304
438 304
439 304
440 304
441 305
442 305
443 305
444 305
445 305
446 305
447 305
448 305
449 305
450 305
451 305
452 305
453 305
454 305
455 305
456 305
457 306
458 306
459 306
460 306
461 306
462 306
463 306
464 306
465 306
466 306
467 306
468 306
469 306
470 307
471 307
472 307
473 307
474 307
475 307
476 307
477 307
478 307
479 307
480 308
481 308
482 308
483 308
484 308
485 308
486 308
487 308
488 308
489 308
490 308
491 308
492 309
493 309
494 309
495 309
496 309
497 309
498 309
499 310
500 310
501 310
502 310
503 310
504 310
505 310
506 310
507 311
508 311
509 311
510 311
511 311
512 311
513 311
514 312
515 312
516 312
517 312
518 312
519 312
520 312
521 312
522 312
523 313
524 313
525 313
526 313
527 313
528 314
529 314
530 314
531 314
532 314
533 314
534 314
535 314
536 315
537 314
538 315
539 315
540 315
541 316
542 316
543 316
544 316
545 316
546 316
547 316
548 316
549 316
550 316
551 317
552 317
553 317
554 316
555 317
555 318
556 317
557 317
558 318
559 318
560 318
561 318
562 319
563 319
564 319
565 319
566 320
567 320
568 319
569 320
570 320
571 320
572 321
573 321
574 321
575 321
576 321
577 322
578 321
579 321
580 322
581 322
582 323
583 323
584 323
585 323
586 324
587 324
588 324
589 324
590 325
591 324
592 324
593 324
594 324
595 325
596 325
597 325
598 326
599 326
600 326
601 327
602 327
603 327
604 327
605 327
606 328
607 328
608 328
609 329
610 328
611 329
612 329
613 328
614 329
615 330
616 330
617 330
616 329
615 329
614 329
613 328
612 328
611 328
610 328
609 327
608 328
607 327
606 327
605 326
604 326
603 326
602 326
601 326
600 325
599 325
598 326
597 325
596 324
595 324
594 324
593 324
592 323
591 323
590 323
589 323
588 323
587 322
586 322
585 322
584 322
583 322
582 321
581 321
580 321
579 321
578 321
577 320
576 320
575 320
574 320
573 320
572 319
571 320
570 320
569 319
568 318
567 318
566 318
565 318
564 318
563 317
562 317
561 317
560 317
559 317
558 316
557 316
556 316
555 316
554 316
553 315
552 315
551 315
550 315
549 315
548 314
547 314
546 314
545 314
544 314
543 314
542 313
541 313
540 313
539 313
538 313
537 313
536 313
535 312
534 312
533 312
532 312
531 312
530 312
529 312
528 311
527 311
526 311
525 311
524 311
523 311
522 311
521 310
520 310
519 310
518 310
517 310
516 310
515 310
514 310
513 309
512 309
511 309
510 309
509 309
508 309
507 308
506 308
505 308
504 308
503 308
502 308
501 308
500 308
499 308
498 307
497 307
496 307
495 307
494 307
493 307
492 307
491 307
490 307
489 307
488 306
487 306
486 306
485 306
484 306
483 306
482 306
481 306
480 305
479 305
478 305
477 305
476 305
475 305
474 305
473 305
472 305
471 305
470 305
469 304
468 305
467 305
466 304
465 304
464 304
463 304
462 304
461 304
460 304
459 304
458 304
457 304
456 303
457 302
458 302
459 302
460 302
461 302
462 302
463 302
464 302
465 302
466 302
467 302
468 302
469 302
470 302
471 302
472 302
473 302
474 302
475 303
476 303
477 303
478 303
479 303
480 303
481 303
482 303
483 303
484 303
485 304
486 304
487 304
488 304
489 304
490 304
491 304
492 304
493 304
494 304
495 305
496 305
497 305
498 305
499 305
500 305
501 305
502 305
503 306
504 306
505 306
506 306
507 306
508 306
509 306
510 307
511 307
512 307
513 307
514 307
515 307
516 307
517 307
518 308
519 308
520 308
521 308
522 308
523 308
524 308
525 309
526 308
527 309
528 309
529 309
530 309
531 309
532 310
533 310
534 310
535 310
536 310
537 310
538 310
539 310
540 311
541 311
542 311
543 311
544 311
545 312
546 312
547 312
548 312
549 312
550 312
551 313
552 313
553 313
554 313
555 313
556 313
557 314
558 314
559 314
560 314
561 315
562 315
563 315
564 315
565 315
566 316
567 316
568 316
569 316
570 316
571 317
572 317
573 317
574 317
575 317
576 318
577 318
578 318
579 318
580 318
581 319
582 319
583 319
584 319
585 320
586 320
587 320
588 320
589 320
590 321
591 321
592 321
593 321
594 321
595 322
596 322
597 322
598 322
599 322
600 323
601 323
602 323
603 323
604 324
605 324
606 324
607 325
608 325
609 325
610 325
611 325
612 326
613 326
614 326
615 326
616 326
617 327
618 327
619 327
620 328
621 328
622 328
623 328
624 329
625 329
626 329
627 329
628 330
629 330
630 330
631 331
632 331
633 331
634 331
635 331
636 332
637 332
638 332
639 333
640 333
641 333
642 334
643 334
644 334
645 334
646 335
647 335
648 335
649 336
650 336
651 336
652 336
653 337
654 337
655 337
656 338
657 338
658 338
659 339
660 339
661 339
662 339
663 340
664 340
665 340
666 341
667 341
668 341
669 341
670 342
671 342
672 342
673 343
674 343
675 343
676 343
677 344
678 344
679 344
680 345
681 345
682 345
683 346
684 346
685 346
686 347
687 347
688 347
689 348
690 348
691 348
692 348
693 349
694 349
695 349
696 350
697 350
698 350
699 351
700 351
701 351
702 352
703 352
704 352
705 353
706 353
707 353
708 354
709 354
710 354
711 355
712 355
713 355
714 355
715 356
716 356
717 356
718 357
719 357
720 357
721 358
722 358
723 358
724 358
725 359
726 359
727 360
728 359
729 360
730 360
731 361
732 361
733 361
734 361
735 362
736 362
737 362
738 363
739 363
740 363
741 364
740 365
739 365
738 365
737 365
736 365
735 364
734 364
734 365
735 365
736 366
737 366
738 365
739 366
740 367
741 367
742 368
743 368
744 368
745 368
746 369
747 369
748 370
749 370
750 370
751 370
752 370
753 371
754 371
755 371
756 372
757 372
758 373
759 373
760 373
761 373
762 374
763 374
764 374
765 374
766 374
767 374
768 374
769 373
770 373
771 373
772 372
773 372
774 371
775 371
776 370
776 369
777 368
778 368
779 368
779 367
780 366
780 365
781 364
781 363
782 362
782 361
783 360
784 360
784 359
783 358
782 358
783 358
784 359
783 360
782 360
781 360
780 359
779 358
780 357
779 357
778 358
777 357
777 356
777 355
777 354
778 353
779 353
780 354
781 354
782 354
781 354
780 353
779 353
778 353
777 353
776 352
775 353
774 354
773 355
773 356
772 357
771 358
770 359
769 359
768 359
767 360
766 360
765 360
764 360
763 360
762 360
761 360
760 360
759 361
758 361
757 361
756 361
755 361
754 360
753 360
752 360
751 360
750 359
749 359
748 359
747 359
746 358
745 358
744 358
743 358
742 358
741 357
740 357
739 357
738 356
737 356
736 356
735 356
734 355
733 355
732 355
731 354
730 354
729 354
728 353
727 353
726 353
725 353
724 352
723 352
722 352
721 351
720 351
719 351
718 350
717 350
716 350
715 349
714 349
713 349
712 348
711 348
710 348
709 347
708 347
707 347
706 347
705 347
704 346
703 346
702 345
701 345
700 345
699 345
698 344
697 344
696 343
695 343
694 343
693 343
692 343
691 342
690 342
689 342
688 341
687 341
686 341
685 340
684 340
683 340
682 340
681 339
680 339
679 339
678 338
677 338
676 338
675 338
674 337
673 337
672 337
671 336
670 336
669 336
668 335
667 335
666 335
665 335
664 334
663 334
662 334
661 333
660 333
659 332
658 332
657 332
656 332
655 331
654 331
653 331
652 330
651 330
650 330
649 329
648 329
647 329
646 329
645 329
644 328
643 328
642 328
641 327
640 327
639 327
638 327
637 326
636 326
635 326
634 325
633 325
632 325
631 325
630 324
629 324
628 324
627 324
626 323
625 323
624 323
623 323
622 322
621 322
620 322
619 321
618 321
617 321
616 321
615 321
614 320
613 320
612 320
611 320
610 319
609 320
608 319
607 319
606 318
605 318
604 318
603 318
602 317
601 317
600 317
599 317
598 317
597 316
596 316
595 316
594 316
593 315
592 315
591 315
590 314
589 314
588 314
587 314
586 314
585 313
584 313
583 313
582 313
581 313
580 312
579 312
578 312
577 312
576 311
575 311
574 311
573 311
572 311
571 311
570 310
569 310
568 310
567 310
566 310
565 310
564 309
563 309
562 309
561 308
560 308
559 308
558 307
557 307
556 308
555 307
554 307
553 307
552 307
551 307
550 306
549 306
548 306
547 306
546 306
545 306
544 306
543 305
542 305
541 305
540 305
539 305
538 305
537 305
536 305
535 305
534 304
533 304
532 304
531 304
530 304
529 304
528 303
527 303
526 303
525 303
524 303
523 303
522 303
521 303
520 302
519 302
518 302
517 302
516 302
515 302
514 302
513 302
512 301
511 301
510 301
509 301
508 301
507 301
506 301
505 300
504 300
503 300
502 300
501 300
500 300
499 300
498 300
497 300
496 299
495 299
494 299
493 299
492 299
491 299
490 299
489 299
488 298
487 298
486 298
485 298
484 298
483 298
482 298
481 298
480 298
479 298
478 298
477 298
476 297
475 297
474 297
473 297
472 297
471 297
470 297
469 297
468 297
467 297
466 297
465 297
464 297
463 296
462 296
461 296
460 296
459 296
458 296
457 296
456 296
455 296
454 296
453 296
452 296
451 296
450 296
449 296
448 296
447 296
446 296
445 295
444 295
443 295
442 295
441 295
440 296
439 295
438 295
437 295
436 295
435 295
434 295
433 295
432 295
431 295
430 295
429 295
428 295
427 295
426 295
425 295
424 295
423 294
422 294
421 294
420 294
419 294
418 294
417 294
416 294
415 294
414 294
413 294
412 294
411 294
410 294
409 294
408 294
407 294
406 294
405 294
404 294
403 294
402 294
401 293
400 293
399 294
398 294
397 294
396 294
395 294
394 293
393 293
392 293
391 293
390 293
389 293
388 293
387 293
386 293
385 293
384 293
383 293
382 293
381 293
380 293
379 293
378 293
377 293
376 293
375 293
374 293
373 293
372 293
371 293
370 293
369 293
368 293
367 293
366 292
365 293
364 293
363 292
364 291
363 291
362 290
361 289
360 289
359 288
359 287
358 286
358 285
357 284
357 283
357 282
357 281
358 280
358 279
358 278
358 277
358 276
358 275
357 274
358 273
358 272
358 271
358 270
358 269
358 268
358 267
358 266
358 265
358 264
358 263
358 262
358 261
358 260
358 259
358 258
358 257
359 256
358 255
358 254
359 253
359 252
359 251
359 250
359 249
359 248
359 247
359 246
359 245
359 244
359 243
359 242
360 241
360 240
360 239
360 238
360 237
360 236
360 235
360 234
360 233
360 232
360 231
360 230
360 229
360 228
360 227
360 226
360 225
360 224
360 223
360 222
360 221
360 220
360 219
361 218
361 217
361 216
361 215
361 214
360 213
360 212
361 211
361 210
361 209
361 208
360 207
360 206
360 205
361 204
361 203
360 202
360 201
360 200
360 199
360 198
360 197
360 196
360 195
360 194
360 193
359 192
359 191
359 190
359 189
359 188
359 187
359 186
359 185
359 184
359 183
359 182
359 181
358 180
358 179
358 178
358 177
358 176
358 175
357 174
357 173
357 172
357 171
357 170
357 169
356 168
356 167
356 166
356 165
355 164
355 163
355 162
354 161
354 160
354 159
354 158
353 157
353 156
353 155
352 154
352 153
352 152
352 151
351 150
351 149
351 148
350 147
350 146
350 145
349 144
349 143
349 142
348 141
348 140
347 139
347 138
346 137
346 136
345 135
345 134
344 133
344 132
343 131
343 130
342 129
341 128
341 127
340 126
339 125
338 124
337 123
336 122
335 121
335 120
334 119
333 118
333 117
332 116
331 115
330 114
329 113
328 112
327 111
326 110
325 109
324 108
323 107
323 106
322 105
321 104
320 103
319 102
318 101
317 100
316 99
315 98
314 97
313 96
312 95
312 94
311 93
310 92
309 91
308 90
307 89
306 89
305 88
304 87
303 86
302 85
301 84
300 84
299 83
298 82
297 81
296 80
295 80
294 79
294 78
293 78
292 77
291 76
290 75
289 74
288 74
287 73
286 72
285 71
284 71
283 70
282 69
281 69
280 68
279 68
278 67
277 66
276 65
275 64
274 63
273 62
272 62
271 61
270 60
269 60
268 59
267 58
266 57
265 57
264 56
263 55
262 54
261 53
260 53
259 52
258 52
257 51
256 51
255 50
254 50
253 49
252 49
251 48
250 48
249 48
248 47
247 47
246 47
245 47
244 47
243 46
242 46
241 46
240 45
239 45
238 45
237 45
236 45
235 45
234 44
233 44
232 43
231 43
230 43
229 42
228 42
227 42
226 42
225 41
224 41
223 41
222 40
221 40
220 40
219 39
218 39
217 39
216 39
215 38
214 38
213 38
212 38
211 38
210 38
209 38
208 37
207 37
206 37
205 37
204 37
203 37
202 36
201 36
200 36
199 36
198 36
197 36
196 36
195 36
194 36
193 36
192 36
191 36
190 36
189 36
188 36
