433 45
432 46
431 46
430 46
429 46
428 46
427 46
426 46
425 46
424 46
423 46
422 46
421 46
420 46
419 46
418 46
417 46
416 46
415 46
414 46
413 46
412 47
411 47
410 47
409 47
408 47
407 47
406 47
405 47
404 47
403 48
402 48
401 48
400 48
399 48
398 49
397 49
396 49
395 49
394 49
393 50
392 50
391 50
390 50
389 51
388 51
387 51
386 51
385 51
384 52
383 52
382 52
381 52
380 52
379 53
378 53
377 53
376 53
375 54
374 54
373 54
372 54
371 54
370 54
369 54
368 55
367 55
366 55
365 55
364 55
363 55
362 55
361 55
360 55
359 55
358 55
357 55
356 55
355 55
354 55
353 56
352 56
351 56
350 56
349 56
348 57
347 57
346 57
345 57
344 58
343 58
342 58
341 58
340 58
339 59
338 59
337 59
336 59
335 59
334 60
333 60
332 60
331 60
330 61
329 61
328 61
327 61
326 62
325 62
324 62
323 62
322 62
321 63
320 63
319 63
318 64
317 64
316 64
315 65
314 65
313 65
312 66
311 66
310 67
309 67
308 68
307 68
306 69
305 69
304 70
303 70
302 71
301 71
300 72
299 72
298 73
297 73
296 74
295 74
294 75
293 76
292 76
291 77
290 77
289 78
288 78
287 79
286 80
285 80
284 80
283 81
282 81
281 82
280 82
279 83
278 84
277 84
276 85
275 85
274 86
273 86
272 87
271 87
270 88
269 88
268 88
267 89
266 89
265 89
264 90
263 90
262 91
261 91
260 92
259 92
258 93
257 93
256 93
255 94
254 94
253 95
252 96
251 96
250 97
249 97
248 98
247 99
246 99
245 100
244 100
243 101
242 101
241 102
240 103
239 103
238 104
237 104
236 105
235 105
234 106
233 107
232 107
231 108
230 108
229 109
228 110
227 110
226 111
225 111
224 112
223 113
222 114
221 114
220 115
219 116
218 116
217 117
216 118
215 119
214 120
213 121
212 122
211 122
210 123
209 124
208 125
207 125
206 126
205 126
204 127
203 128
202 129
201 129
200 130
199 131
198 132
197 133
196 134
195 135
194 136
193 137
192 137
191 138
190 139
189 140
188 140
187 141
186 142
185 142
184 143
183 144
182 145
181 146
180 147
179 148
178 149
177 149
176 150
175 151
174 151
173 152
172 153
171 154
170 155
169 156
168 157
167 158
166 159
166 160
165 161
164 161
164 162
163 163
162 164
161 165
161 166
160 167
159 168
158 169
157 170
156 171
155 172
154 173
153 174
152 174
152 175
151 176
150 177
149 178
148 179
147 180
146 181
145 182
144 183
144 184
143 185
142 186
141 187
141 188
140 189
139 190
139 191
138 192
137 193
136 193
135 194
135 195
134 196
133 197
132 198
132 199
131 200
130 201
129 202
128 203
127 204
126 205
125 205
125 206
124 207
123 208
122 209
121 210
120 211
119 212
118 213
118 214
117 215
116 216
115 217
115 218
114 219
113 220
112 220
111 221
111 222
110 223
109 224
108 225
107 226
106 227
105 228
105 229
104 230
103 231
102 232
101 233
100 234
99 234
98 235
97 235
96 236
95 237
94 237
93 238
92 238
91 239
90 240
89 240
88 241
87 242
86 243
85 244
84 245
83 245
82 246
81 246
80 247
79 247
78 248
77 248
76 248
75 249
74 249
73 250
72 251
71 251
70 252
69 253
68 253
67 254
66 254
65 254
64 254
63 255
62 255
61 255
60 256
59 256
58 256
57 256
56 256
55 257
54 257
53 257
52 257
51 257
50 257
49 258
48 258
47 258
46 258
45 258
44 258
43 258
42 258
41 259
40 259
39 259
38 259
37 259
36 260
35 260
34 261
33 261
33 262
33 263
33 264
33 265
33 266
34 267
35 268
36 269
37 269
38 270
39 270
40 271
41 271
42 271
43 272
44 272
45 272
46 272
47 273
48 273
49 273
50 274
51 274
52 274
53 275
54 275
55 275
56 276
57 276
58 277
59 277
60 278
61 278
62 279
63 279
64 280
65 280
66 281
67 281
68 282
69 282
70 283
71 284
72 284
73 285
74 285
75 285
76 286
77 287
78 288
79 289
80 290
81 291
81 292
81 293
82 294
82 295
83 296
84 297
84 298
85 299
85 300
85 301
85 302
86 303
86 304
87 305
88 306
88 307
89 308
89 309
90 310
90 311
91 312
92 313
92 314
93 315
93 316
94 317
94 318
95 319
95 320
96 320
97 321
97 322
98 323
99 324
99 325
100 326
101 327
102 328
102 329
102 330
103 331
103 332
104 333
104 334
105 335
105 336
106 337
106 338
107 339
107 340
108 341
109 342
109 343
110 344
111 345
111 346
112 347
112 348
113 349
113 350
114 351
115 352
116 353
116 354
117 355
118 356
119 357
120 358
120 359
121 360
122 361
122 362
123 363
123 364
124 365
124 366
125 367
125 368
125 369
126 370
126 371
127 372
127 373
128 374
129 375
129 376
130 377
131 378
132 379
132 380
133 381
134 382
134 383
135 384
136 385
136 386
137 387
137 388
138 389
138 390
139 391
140 392
140 393
141 394
142 395
142 396
143 397
143 398
144 399
144 400
145 401
145 402
145 403
146 404
147 405
147 406
148 407
149 408
150 409
151 410
152 411
153 412
154 413
154 414
155 415
156 416
157 417
157 418
158 419
159 420
160 421
161 422
162 423
163 424
163 425
164 425
165 426
166 427
167 428
168 429
168 430
169 431
170 432
171 433
172 434
173 435
174 436
174 437
175 438
176 439
177 440
178 441
179 442
180 443
181 444
182 445
183 446
184 447
184 448
185 448
186 449
186 450
187 451
188 452
189 453
190 454
191 455
192 456
193 457
194 458
194 459
195 459
196 460
196 461
197 462
198 463
199 464
200 465
201 466
202 467
203 468
204 469
205 470
206 471
207 472
208 473
209 474
210 475
211 476
212 477
213 478
214 478
215 479
216 480
217 480
218 481
219 481
220 482
221 483
222 484
223 484
224 485
225 486
226 486
227 486
228 487
229 488
230 488
231 489
232 489
233 490
234 490
235 491
236 492
237 492
238 493
239 493
240 494
241 495
242 496
243 496
244 497
245 497
246 498
247 499
248 500
249 500
250 501
251 502
252 502
253 503
254 503
255 504
256 505
257 505
258 506
259 506
260 506
261 507
262 507
263 508
264 508
265 509
266 509
267 510
268 510
269 511
270 511
271 512
272 512
273 512
274 513
275 513
276 513
277 514
278 514
279 515
280 515
281 515
282 516
283 516
284 516
285 517
286 517
287 518
288 518
289 519
290 519
291 519
292 520
293 520
294 520
295 521
296 521
297 521
298 522
299 522
300 523
301 523
302 523
303 524
304 524
305 525
306 525
307 525
308 526
309 526
310 526
311 527
312 527
313 528
314 528
315 528
316 528
317 529
318 529
319 529
320 530
321 530
322 531
323 531
324 531
325 532
326 532
327 532
328 532
329 533
330 533
331 533
332 534
333 534
334 534
335 534
336 535
337 535
338 535
339 535
340 536
341 536
342 536
343 537
344 537
345 537
346 538
347 538
348 538
349 539
350 539
351 539
352 539
353 540
354 540
355 540
356 540
357 541
358 541
359 541
360 541
361 541
362 542
363 542
364 542
365 542
366 542
367 542
368 542
369 543
370 543
371 543
372 543
373 543
374 543
375 543
376 543
377 544
378 544
379 544
380 544
381 544
382 544
383 544
384 544
385 544
386 544
387 545
388 545
389 545
390 545
391 545
392 545
393 545
394 545
395 545
396 545
397 545
398 545
399 545
400 545
401 545
402 546
403 546
404 546
405 546
406 546
407 546
408 546
409 546
410 546
411 546
412 546
413 546
414 546
415 546
416 546
417 546
418 547
419 547
420 547
421 547
422 547
423 547
424 547
425 547
426 547
427 547
428 547
429 547
430 547
431 547
432 547
433 547
434 547
435 547
436 547
437 547
438 547
439 547
440 547
441 547
442 547
443 547
444 547
445 547
446 547
447 547
448 547
449 547
450 547
451 547
452 547
453 547
454 547
455 546
456 546
457 546
458 546
459 546
460 546
461 546
462 546
463 546
464 546
465 546
466 546
467 546
468 546
469 545
470 545
471 545
472 545
473 545
474 545
475 544
476 544
477 544
478 544
479 543
480 543
481 543
482 543
483 542
484 542
485 542
486 542
487 542
488 542
489 541
490 541
491 541
492 541
493 540
494 540
495 540
496 539
497 539
498 539
499 539
500 538
501 538
502 538
503 538
504 537
505 537
506 536
507 536
508 535
509 535
510 534
511 534
512 534
513 533
514 533
515 533
516 532
517 532
518 532
519 531
520 531
521 530
522 530
523 530
524 529
525 529
526 528
527 527
528 527
529 526
530 526
531 525
532 525
533 524
534 523
535 523
536 522
537 522
538 521
539 520
540 520
541 519
542 518
543 518
544 517
545 516
545 515
546 514
547 514
548 513
549 512
550 512
551 511
552 510
553 510
554 509
555 508
556 507
557 507
558 506
559 505
560 505
561 504
562 503
563 503
564 502
565 501
566 500
567 499
567 498
568 497
569 497
570 496
571 495
572 494
573 493
574 492
575 491
576 490
576 489
577 488
578 488
578 487
579 486
580 486
581 486
581 485
582 484
583 483
584 482
585 481
586 480
587 479
587 478
588 477
589 477
590 476
591 475
592 475
592 474
593 473
594 472
595 471
596 470
596 469
597 468
598 467
599 466
600 465
601 464
602 463
602 462
603 461
604 460
605 459
606 458
606 457
607 456
608 455
609 454
610 453
610 452
611 451
612 450
612 449
613 448
614 447
614 446
615 445
616 444
616 443
617 442
617 441
618 440
619 439
619 438
620 437
621 436
621 435
622 434
622 433
623 432
624 431
624 430
624 429
625 428
625 427
626 426
626 425
627 424
627 423
628 422
628 421
629 420
630 419
630 418
631 417
631 416
632 415
632 414
633 413
633 412
634 411
634 410
634 409
635 408
635 407
636 406
636 405
636 404
637 403
637 402
637 401
638 400
638 399
638 398
639 397
639 396
640 395
640 394
640 393
641 392
641 391
642 390
642 389
643 388
643 387
644 386
644 385
644 384
645 383
645 382
646 381
646 380
647 379
648 378
648 377
649 376
649 375
650 374
650 373
651 372
651 371
652 370
652 369
653 368
654 367
654 366
655 365
655 364
656 363
656 362
656 361
656 360
657 359
657 358
658 357
658 356
659 355
659 354
659 353
660 352
661 351
661 350
661 349
662 348
662 347
663 346
663 345
664 344
665 343
665 342
666 341
667 340
668 339
669 338
670 338
671 337
672 336
673 335
673 334
674 333
675 333
676 332
676 331
677 330
678 329
679 328
680 327
681 326
682 325
683 325
684 324
684 323
685 322
686 321
687 321
688 320
689 319
690 318
691 318
692 317
693 317
694 316
695 315
696 315
697 314
698 314
699 313
700 313
701 312
702 312
703 311
704 311
705 310
706 310
707 310
708 309
709 309
710 309
711 308
712 308
713 308
714 307
715 307
716 307
717 306
718 306
719 306
720 305
721 305
722 305
723 305
724 304
725 304
726 304
727 304
728 303
729 303
730 303
731 303
732 302
733 302
734 302
735 302
736 302
737 301
738 301
739 301
740 301
741 300
742 300
743 300
744 300
745 299
746 299
747 299
748 298
749 298
750 297
751 297
752 297
753 296
753 295
754 294
754 293
755 292
755 291
754 290
754 289
753 288
753 287
752 286
752 285
752 284
753 283
752 282
752 281
752 280
751 280
750 279
749 279
748 279
747 280
746 280
745 280
744 280
743 280
742 281
741 281
740 281
739 281
738 281
737 282
736 282
735 282
734 282
733 282
732 283
731 283
730 283
729 283
728 283
727 284
726 284
725 284
724 284
723 285
722 285
721 285
720 285
719 285
718 285
717 285
716 286
715 286
714 286
713 286
712 286
711 286
710 286
709 286
708 286
707 286
706 285
705 285
704 285
703 285
702 284
701 284
700 283
699 283
698 283
697 282
696 282
695 281
694 281
693 280
692 280
691 279
690 278
689 278
688 277
687 277
686 276
685 275
684 274
683 274
682 273
681 273
680 272
679 271
678 270
677 269
676 268
675 267
674 266
673 266
672 265
671 264
670 263
669 262
668 261
667 260
666 260
665 259
665 258
664 257
663 256
662 255
661 254
660 253
660 252
659 251
658 250
658 249
657 248
657 247
656 246
656 245
655 244
654 243
654 242
653 241
653 240
652 239
652 238
652 237
652 236
652 235
652 234
652 233
652 232
652 231
652 230
652 229
651 228
651 227
651 226
651 225
650 224
650 223
650 222
650 221
649 220
649 219
649 218
648 217
648 216
648 215
648 214
647 213
647 212
647 211
647 210
647 209
646 208
646 207
646 206
646 205
645 204
645 203
645 202
644 201
644 200
644 199
643 198
643 197
642 196
642 195
642 194
641 193
641 192
640 191
640 190
640 189
639 188
639 187
638 186
638 185
638 184
637 183
637 182
637 181
636 180
636 179
636 178
636 177
635 176
635 175
635 174
635 173
635 172
634 171
634 170
634 169
633 168
633 167
633 166
633 165
632 164
632 163
632 162
631 161
631 160
630 159
630 158
629 157
629 156
628 155
628 154
627 153
627 152
626 151
625 150
625 149
624 148
623 147
623 146
622 145
621 144
621 143
620 142
620 141
619 140
619 139
618 138
617 137
617 136
616 135
615 134
615 133
614 132
613 131
613 130
612 129
611 128
611 127
610 126
609 125
608 124
608 123
607 122
606 121
605 120
605 119
604 118
603 117
602 116
601 115
600 114
600 113
599 113
598 112
597 111
596 110
595 109
594 108
593 107
592 106
591 105
590 104
589 103
588 102
587 102
586 101
585 100
584 99
583 99
582 98
581 97
580 97
579 96
578 95
577 94
576 93
575 93
574 92
573 91
572 91
571 90
570 89
569 89
568 88
567 88
566 87
565 86
564 86
563 85
562 85
561 84
560 83
559 83
558 82
557 81
556 81
555 80
554 80
553 79
552 79
551 78
550 78
549 77
548 77
547 76
546 76
545 75
544 74
543 74
542 73
541 73
540 72
539 72
538 71
537 71
536 70
535 70
534 69
533 69
532 68
531 68
530 67
529 67
528 66
527 66
526 65
525 65
524 64
523 64
522 64
521 63
520 63
519 62
518 62
517 62
516 61
515 61
514 61
513 60
512 60
511 60
510 60
509 60
508 59
507 59
506 59
505 59
504 58
503 58
502 58
501 57
500 57
499 57
498 57
497 56
496 56
495 56
494 56
493 56
492 56
491 55
490 55
489 55
488 55
487 55
486 55
485 54
484 54
483 54
482 54
481 54
480 54
479 54
478 54
477 54
476 53
475 53
474 53
473 53
472 53
471 53
470 52
469 52
468 51
467 51
466 51
465 51
464 50
463 50
462 50
461 49
460 49
459 49
458 48
457 48
456 48
455 48
454 47
453 47
452 47
451 47
450 47
449 47
448 46
447 46
446 46
445 46
444 46
443 46
442 46
441 46
440 46
439 46
438 45
437 45
436 45
435 45
434 45
433 45
