161 251
161 252
161 253
161 254
161 255
161 256
161 257
161 258
161 259
161 260
161 261
161 262
161 263
161 264
161 265
161 266
161 267
161 268
161 269
161 270
161 271
161 272
161 273
162 274
162 275
163 276
164 277
165 278
166 279
167 280
168 281
169 282
170 282
171 283
172 283
173 284
174 284
175 284
176 284
177 284
178 285
179 285
180 285
181 285
182 286
183 286
184 286
185 286
186 286
187 286
188 286
189 286
190 287
191 287
192 287
193 287
194 287
195 287
196 287
197 287
198 287
199 287
200 287
201 287
202 287
203 287
204 287
205 287
206 287
207 287
208 287
209 287
210 287
211 287
212 287
213 287
214 287
215 287
216 287
217 287
218 287
219 287
220 287
221 287
222 287
223 287
224 287
225 287
226 287
227 287
228 287
229 287
230 287
231 287
232 287
233 287
234 287
235 287
236 287
237 287
238 287
239 287
240 287
241 287
242 287
243 287
244 287
245 287
246 287
247 287
248 287
249 287
250 287
251 286
252 286
253 286
254 286
255 286
256 286
257 286
258 286
259 286
260 286
261 285
262 285
263 285
264 285
265 285
266 285
267 285
268 284
269 284
270 284
271 284
272 284
273 284
274 284
275 283
276 283
277 283
278 283
279 283
280 283
281 283
282 283
283 283
284 282
285 282
286 282
287 282
288 282
289 282
290 282
291 281
292 281
293 281
294 281
295 281
296 281
297 281
298 280
299 280
300 280
301 280
302 280
303 280
304 279
305 279
306 279
307 279
308 279
309 279
310 279
311 279
312 279
313 279
314 278
315 278
316 278
317 278
318 278
319 278
320 278
321 278
322 278
323 278
324 278
325 278
326 278
327 278
328 278
329 278
330 277
331 277
332 277
333 277
334 277
335 277
336 277
337 277
338 277
339 276
340 276
341 276
342 276
343 276
344 276
345 276
346 276
347 276
348 276
349 276
350 276
351 276
352 276
353 276
354 277
355 277
356 277
357 277
358 277
359 278
360 278
361 278
362 278
363 279
364 279
365 279
366 279
367 280
368 280
369 280
370 280
371 281
372 281
373 281
374 282
375 282
376 282
377 282
378 283
379 283
380 284
381 284
382 285
383 285
384 286
385 286
386 287
387 287
388 288
389 288
390 289
391 290
392 290
393 291
394 292
395 293
396 293
397 294
398 295
399 296
399 297
400 298
401 299
401 300
402 301
402 302
403 303
404 304
404 305
405 306
405 307
406 308
406 309
407 310
407 311
408 312
408 313
409 314
409 315
410 316
410 317
411 318
411 319
412 320
412 321
412 322
412 323
413 324
413 325
414 326
414 327
414 328
414 329
415 330
415 331
415 332
415 333
415 334
415 335
416 336
416 337
416 338
416 339
416 340
416 341
417 342
417 343
417 344
417 345
417 346
418 347
418 348
418 349
418 350
419 351
419 352
419 353
419 354
420 355
420 356
420 357
420 358
420 359
421 360
421 361
421 362
421 363
422 364
422 365
422 366
422 367
423 368
423 369
423 370
423 371
424 372
424 373
425 374
425 375
425 376
425 377
425 378
426 379
426 380
426 381
427 382
427 383
427 384
428 385
428 386
428 387
429 388
429 389
429 390
429 391
430 392
430 393
430 394
431 395
431 396
431 397
432 398
432 399
432 400
432 401
433 402
433 403
434 404
434 405
434 406
434 407
435 408
435 409
435 410
435 411
436 412
436 413
437 414
437 415
437 416
438 417
438 418
438 419
439 420
439 421
440 422
440 423
440 424
440 425
441 426
441 427
441 428
442 429
442 430
442 431
443 432
443 433
443 434
444 435
444 436
444 437
444 438
445 439
445 440
445 441
446 442
446 443
447 444
447 445
447 446
447 447
448 448
448 449
448 450
448 451
449 452
449 453
449 454
450 455
450 456
450 457
450 458
450 459
451 460
451 461
451 462
451 463
452 464
452 465
452 466
452 467
452 468
452 469
453 470
453 471
453 472
453 473
453 474
453 475
453 476
453 477
453 478
453 479
453 480
453 481
453 482
454 483
454 484
454 485
455 485
456 485
457 485
458 485
459 485
460 485
461 485
462 484
463 484
464 484
465 484
466 484
466 483
466 482
466 481
466 480
466 479
466 478
466 477
466 476
466 475
466 474
466 473
466 472
466 471
465 470
465 469
465 468
464 467
464 466
464 465
463 464
463 463
463 462
462 461
462 460
462 459
461 458
461 457
461 456
460 455
460 454
460 453
460 452
459 451
459 450
459 449
458 448
458 447
458 446
457 445
457 444
457 443
457 442
456 441
456 440
456 439
455 438
455 437
455 436
455 435
454 434
454 433
454 432
453 431
453 430
453 429
452 428
452 427
452 426
452 425
452 424
451 423
451 422
451 421
450 420
450 419
450 418
450 417
449 416
449 415
448 414
448 413
448 412
448 411
447 410
447 409
447 408
447 407
446 406
446 405
446 404
446 403
445 402
445 401
445 400
444 399
444 398
444 397
444 396
443 395
443 394
443 393
442 392
442 391
442 390
441 389
441 388
441 387
440 386
440 385
440 384
439 383
439 382
439 381
438 380
438 379
438 378
437 377
437 376
437 375
437 374
436 373
436 372
436 371
435 370
435 369
435 368
435 367
434 366
434 365
434 364
434 363
434 362
433 361
433 360
432 359
432 358
432 357
431 356
431 355
431 354
431 353
430 352
430 351
430 350
430 349
429 348
429 347
429 346
428 345
428 344
428 343
428 342
428 341
427 340
427 339
427 338
427 337
427 336
426 335
426 334
426 333
426 332
426 331
426 330
425 329
425 328
425 327
425 326
425 325
424 324
424 323
424 322
424 321
424 320
423 319
423 318
423 317
423 316
423 315
424 314
424 313
424 312
424 311
425 310
425 309
426 308
426 307
427 306
427 305
428 304
428 303
429 302
430 301
430 300
431 299
432 298
433 297
434 296
435 295
436 295
437 294
438 294
439 293
440 293
441 292
442 291
443 291
444 290
445 290
446 289
447 289
448 288
449 288
450 287
451 287
452 286
453 286
454 285
455 285
456 285
457 284
458 284
459 284
460 283
461 283
462 283
463 283
464 283
465 283
466 282
467 282
468 282
469 282
470 282
471 282
472 282
473 282
474 283
475 283
476 283
477 283
478 283
479 283
480 283
481 283
482 283
483 283
484 283
485 283
486 283
487 283
488 283
489 283
490 283
491 283
492 283
493 283
494 284
495 284
496 284
497 284
498 284
499 284
500 284
501 284
502 284
503 284
504 284
505 284
506 285
507 285
508 285
509 285
510 285
511 285
512 285
513 285
514 285
515 285
516 285
517 285
518 285
519 286
520 286
521 286
522 286
523 286
524 286
525 286
526 287
527 287
528 287
529 287
530 287
531 287
532 287
533 287
534 287
535 287
536 287
537 287
538 288
539 288
540 288
541 288
542 288
543 288
544 288
545 288
546 289
547 289
548 289
549 289
550 289
551 290
552 290
553 290
554 290
555 290
556 290
557 291
558 291
559 291
560 291
561 291
562 292
563 292
564 292
565 292
566 293
567 293
568 293
569 293
570 293
571 293
572 294
573 294
574 294
575 294
576 294
577 295
578 295
579 295
580 295
581 295
582 296
583 296
584 296
585 296
586 296
587 296
588 297
589 297
590 297
591 297
592 297
593 297
594 297
595 297
596 298
597 298
598 298
599 298
600 298
601 298
602 298
603 298
604 298
605 299
606 299
607 299
608 299
609 299
610 299
611 299
612 299
613 299
614 299
615 299
616 300
617 300
618 300
619 300
620 300
621 300
622 300
623 300
624 300
625 300
626 300
627 300
628 300
629 300
630 300
631 300
632 300
633 300
634 300
635 300
636 300
637 300
638 299
639 299
640 299
641 299
642 299
643 298
644 298
645 298
646 298
647 298
648 298
649 297
650 297
651 297
652 296
653 296
654 295
655 294
656 293
657 292
658 291
659 290
660 289
661 288
662 287
662 286
662 285
663 284
663 283
663 282
663 281
663 280
663 279
663 278
663 277
663 276
663 275
663 274
664 273
664 272
664 271
664 270
665 269
665 268
665 267
665 266
665 265
665 264
665 263
665 262
665 261
665 260
665 259
665 258
665 257
665 256
665 255
665 254
665 253
665 252
664 251
664 250
663 249
663 248
663 247
663 246
663 245
662 244
662 243
662 242
661 241
660 240
659 239
658 239
657 239
656 239
655 239
654 239
653 238
652 238
651 238
650 237
649 237
648 236
647 236
646 235
646 234
645 233
645 232
644 231
644 230
645 229
645 228
645 227
645 226
645 225
645 224
645 223
645 222
645 221
645 220
645 219
645 218
645 217
645 216
645 215
645 214
644 213
644 212
643 211
643 210
643 209
643 208
642 207
642 206
641 205
640 204
639 203
638 202
638 201
637 200
637 199
636 198
636 197
635 196
635 195
635 194
634 193
634 192
634 191
633 190
633 189
632 188
632 187
631 186
631 185
630 184
630 183
629 182
629 181
629 180
629 179
628 178
627 178
626 177
625 177
624 176
624 175
623 174
623 173
622 172
622 171
622 170
622 169
622 168
622 167
622 166
622 165
622 164
622 163
623 162
623 161
623 160
623 159
623 158
623 157
623 156
623 155
623 154
623 153
623 152
623 151
623 150
623 149
623 148
623 147
623 146
623 145
622 144
622 143
621 142
621 141
620 140
620 139
620 138
620 137
620 136
619 135
619 134
619 133
618 132
617 131
617 130
616 129
616 128
615 127
615 126
614 125
613 124
612 123
611 122
610 122
609 121
608 121
607 121
606 121
605 121
604 121
603 121
602 121
601 121
600 121
599 121
598 121
597 121
596 121
595 121
594 121
593 121
592 121
591 121
590 121
589 121
588 121
587 122
586 122
585 122
584 122
583 122
582 121
581 120
580 119
580 118
579 117
579 116
579 115
579 114
579 113
579 112
579 111
578 110
577 109
577 108
576 107
575 106
574 105
573 105
572 104
571 103
570 102
569 101
568 100
567 100
566 100
565 100
564 100
563 100
562 100
561 100
560 100
559 100
558 100
557 100
556 100
555 100
554 100
553 100
552 100
551 100
550 100
549 101
548 101
547 101
546 101
545 102
544 102
543 103
542 103
541 103
540 102
539 102
538 101
537 101
536 100
535 99
535 98
534 97
534 96
533 95
533 94
533 93
533 92
533 91
533 90
533 89
532 88
531 87
530 86
529 85
528 84
527 83
526 82
526 81
525 80
525 79
524 78
524 77
523 76
523 75
522 74
521 73
520 72
519 71
519 70
518 69
517 68
517 67
516 66
515 65
515 64
514 63
513 62
512 61
511 60
510 59
509 58
508 58
507 57
506 57
505 56
504 55
503 55
502 54
501 54
500 54
499 54
498 54
497 54
496 54
495 54
494 54
493 54
492 54
491 54
490 54
489 54
488 54
487 55
486 55
485 55
484 55
483 55
482 54
481 54
480 54
479 54
478 54
477 54
476 54
475 54
474 54
473 54
472 54
471 54
470 54
469 54
468 54
467 54
466 54
465 54
464 54
463 54
462 54
461 54
460 54
459 54
458 54
457 54
456 54
455 55
454 56
453 57
452 57
451 58
450 59
449 59
448 60
447 60
446 61
445 61
444 62
443 62
442 63
441 63
440 63
439 63
438 63
437 63
436 63
435 63
434 63
433 63
432 63
431 63
430 63
429 63
428 63
427 63
426 63
425 63
424 63
423 63
422 63
421 63
420 63
419 63
418 63
417 63
416 63
415 63
414 63
413 63
412 63
411 63
410 63
409 64
408 64
407 64
406 64
405 64
404 64
403 64
402 64
401 64
400 64
399 64
398 64
397 64
396 64
395 64
394 64
393 64
392 64
391 64
390 64
389 64
388 64
387 64
386 64
385 64
384 64
383 64
382 64
381 64
380 65
379 66
378 67
378 68
377 69
376 69
375 70
374 71
373 71
372 72
371 72
370 72
369 72
368 71
367 70
366 69
365 68
364 67
364 66
363 65
362 64
361 63
360 62
359 61
358 60
357 59
356 58
355 57
354 56
353 55
352 54
351 53
350 52
349 51
348 51
347 51
346 51
345 51
344 50
343 50
342 50
341 50
340 50
339 50
338 50
337 50
336 50
335 50
334 50
333 50
332 50
331 50
330 50
329 51
328 51
327 52
326 53
325 54
324 55
324 56
323 57
322 58
321 58
320 59
319 60
318 61
317 62
316 62
315 63
314 63
313 64
312 64
311 65
310 65
309 65
308 65
307 65
306 65
305 65
304 65
303 65
302 65
301 65
300 66
299 67
298 68
297 69
297 70
296 71
296 72
295 73
295 74
294 75
293 76
292 77
291 78
290 79
289 80
288 81
288 82
287 83
286 83
285 84
284 84
283 85
282 85
281 86
280 86
279 87
278 87
277 88
276 88
275 88
274 89
273 89
272 89
271 89
270 89
269 90
268 91
267 92
266 93
266 94
265 95
264 96
263 97
262 97
261 98
260 99
259 100
258 101
257 102
256 102
255 103
254 104
253 104
252 105
251 106
250 107
250 108
249 109
248 110
247 111
246 112
245 113
244 113
243 114
242 114
241 115
240 115
239 116
238 117
237 118
236 119
235 120
234 121
233 122
232 123
231 124
230 125
230 126
229 127
229 128
228 129
228 130
227 131
227 132
226 133
225 134
224 134
223 135
222 135
221 136
220 136
219 137
218 138
217 139
216 140
215 141
214 142
213 142
212 143
211 143
210 144
209 144
208 145
207 145
206 145
205 145
204 145
203 145
202 145
201 146
200 146
199 147
199 148
199 149
199 150
198 151
198 152
198 153
198 154
198 155
198 156
197 157
197 158
196 159
196 160
195 161
195 162
194 163
194 164
193 165
192 165
191 166
190 167
189 167
188 168
187 169
186 170
185 171
184 172
184 173
184 174
184 175
184 176
184 177
184 178
184 179
184 180
184 181
184 182
184 183
184 184
184 185
184 186
184 187
184 188
184 189
184 190
184 191
183 192
183 193
182 194
182 195
181 196
181 197
181 198
180 199
180 200
179 201
179 202
179 203
178 204
178 205
177 206
177 207
177 208
176 209
176 210
176 211
175 212
175 213
175 214
174 215
174 216
173 217
173 218
172 219
172 220
171 221
171 222
170 223
170 224
169 225
169 226
168 227
167 228
167 229
167 230
166 231
166 232
166 233
165 234
165 235
165 236
165 237
165 238
165 239
164 240
164 241
164 242
164 243
164 244
163 245
163 246
163 247
163 248
162 249
162 250
161 251
