468 29
468 30
468 31
467 32
467 33
467 34
467 35
467 36
466 37
465 37
465 38
466 39
466 40
465 41
464 42
463 42
462 42
461 42
460 43
460 44
459 45
458 44
457 43
456 43
455 44
454 45
453 46
452 47
451 47
450 46
449 45
448 44
447 43
446 42
445 42
444 41
443 40
442 41
441 42
440 43
439 43
438 42
437 41
437 40
436 39
435 40
434 41
433 41
432 40
431 40
430 40
429 39
428 39
427 39
427 40
427 41
427 42
426 43
425 44
424 44
424 45
423 46
422 47
421 47
420 47
419 46
418 46
417 46
416 45
416 44
415 43
414 42
413 41
412 42
411 43
410 44
409 43
408 42
408 41
407 40
407 39
406 38
405 37
404 37
403 38
402 39
401 38
400 37
399 36
398 36
397 35
396 35
395 35
394 35
393 35
393 36
392 37
392 38
391 39
390 39
389 39
388 39
388 40
387 41
386 41
385 40
384 39
383 38
382 38
381 38
380 37
379 36
378 35
378 34
377 34
376 34
375 35
374 36
373 37
372 37
371 36
371 35
370 34
369 33
369 32
368 32
367 33
366 33
365 33
364 32
363 32
362 31
361 30
360 30
359 30
358 30
357 31
357 32
356 33
355 33
354 34
353 35
353 36
352 37
351 37
350 36
349 35
348 34
347 33
346 33
345 33
344 34
343 33
342 32
341 31
340 31
339 31
338 30
337 30
336 30
336 31
336 32
336 33
336 34
335 35
334 36
334 37
333 38
332 38
331 37
330 37
329 36
328 35
327 35
326 34
325 34
324 33
323 33
323 34
322 35
322 36
321 37
320 37
319 36
318 36
317 35
316 34
315 34
314 34
313 33
312 33
311 33
310 33
309 33
308 33
308 34
308 35
308 36
308 37
309 38
309 39
309 40
309 41
310 42
309 43
308 44
307 44
306 45
306 46
306 47
307 48
307 49
308 50
308 51
308 52
309 53
309 54
309 55
308 56
307 56
306 57
305 57
304 58
303 59
303 60
303 61
304 62
304 63
304 64
303 65
302 65
302 66
302 67
302 68
302 69
302 70
301 71
300 70
299 70
298 69
297 70
297 71
296 72
295 73
295 74
294 75
293 75
292 75
291 75
290 74
289 74
288 74
287 74
286 75
285 75
284 74
283 74
282 74
281 74
280 74
279 74
279 75
279 76
279 77
279 78
279 79
278 80
277 81
277 82
276 83
275 83
274 83
273 83
272 83
271 82
270 82
269 81
268 82
268 83
267 84
266 85
265 85
264 84
263 83
262 83
261 83
260 84
259 84
258 83
257 83
256 83
255 83
254 83
253 83
253 84
253 85
253 86
253 87
252 88
252 89
251 90
250 90
249 89
248 89
247 89
246 88
245 88
244 89
243 90
242 90
241 90
240 89
239 89
238 89
237 90
236 90
235 90
235 91
235 92
235 93
235 94
235 95
235 96
234 97
233 97
232 97
231 97
230 96
229 96
228 96
227 96
226 96
225 97
225 98
224 99
223 99
222 99
221 99
220 99
219 99
218 99
217 100
216 100
215 101
215 102
216 103
216 104
217 105
218 106
219 107
219 108
220 109
221 110
221 111
222 112
221 113
220 114
219 115
218 116
218 117
219 118
220 119
221 120
221 121
222 122
223 123
224 124
224 125
223 126
223 127
222 128
221 129
220 129
220 130
221 131
221 132
222 133
223 134
224 135
223 136
223 137
222 138
221 139
220 139
219 140
218 141
217 141
216 141
215 141
215 142
215 143
215 144
215 145
215 146
215 147
214 148
214 149
213 150
212 150
211 150
210 151
209 151
208 151
207 152
206 153
205 153
204 153
203 153
202 154
201 154
201 155
201 156
201 157
201 158
200 159
199 160
198 160
197 160
196 160
195 161
194 161
193 161
192 162
191 163
190 164
189 165
189 166
189 167
190 168
191 168
192 169
193 170
194 171
195 172
196 172
197 173
197 174
196 175
196 176
196 177
197 178
198 179
199 180
200 180
201 181
202 182
203 182
204 183
204 184
204 185
203 186
202 187
202 188
203 189
204 190
205 190
206 191
206 192
207 193
207 194
206 195
205 195
204 194
203 194
202 194
201 194
200 194
199 194
198 194
198 195
198 196
198 197
197 198
196 198
195 198
194 198
193 198
192 198
191 198
190 199
189 199
188 199
187 199
187 200
188 201
188 202
188 203
188 204
189 205
189 206
190 207
190 208
191 209
191 210
190 211
189 212
188 212
188 213
188 214
188 215
188 216
188 217
189 218
189 219
188 220
187 221
186 222
185 222
184 222
183 223
182 223
182 224
182 225
182 226
181 227
180 227
179 228
178 228
177 227
176 227
175 227
174 226
173 227
173 228
173 229
173 230
172 231
171 231
170 230
169 230
168 230
167 230
166 230
165 231
164 231
163 231
162 231
162 232
162 233
163 234
164 235
164 236
164 237
165 238
165 239
164 240
163 240
162 240
161 241
162 242
162 243
162 244
162 245
161 246
160 246
159 246
158 246
157 246
156 247
156 248
155 249
154 249
153 248
152 249
152 250
151 251
150 251
149 250
148 250
147 250
146 250
145 250
144 251
143 251
142 251
143 252
143 253
143 254
143 255
142 256
143 257
143 258
142 259
141 260
140 260
139 260
138 260
137 259
136 259
135 260
134 261
133 261
132 261
131 261
130 260
129 260
128 259
127 259
126 260
125 260
124 260
123 260
122 260
121 260
120 261
119 261
119 262
118 263
117 264
117 265
116 266
115 266
114 266
113 266
112 266
111 265
110 265
109 265
108 264
107 264
106 265
105 266
104 266
103 265
102 265
101 265
100 264
99 264
98 265
97 265
96 265
95 265
94 265
93 265
92 265
92 266
92 267
92 268
92 269
92 270
91 271
90 272
89 272
88 271
87 271
86 271
85 271
84 271
83 270
82 270
81 271
80 271
79 271
78 270
77 270
76 269
75 269
74 269
73 269
72 269
71 269
71 270
71 271
70 272
70 273
69 274
68 274
67 274
66 274
65 274
64 274
63 274
62 273
61 273
60 273
59 273
58 273
57 273
56 273
55 273
54 274
54 275
54 276
53 277
52 278
51 278
50 278
49 278
48 278
47 278
46 277
45 277
44 277
43 277
43 278
42 279
42 280
41 281
40 281
39 281
38 282
37 282
36 282
35 283
35 284
35 285
35 286
36 287
37 288
38 289
39 290
39 291
39 292
40 292
41 293
42 293
43 294
44 294
45 294
46 295
47 296
48 297
49 297
50 297
51 297
52 297
53 297
54 297
55 298
56 299
56 300
57 300
58 300
59 300
60 300
61 301
62 301
63 301
64 301
65 300
66 300
67 300
68 300
69 300
70 300
71 300
72 301
73 302
74 303
75 303
76 303
77 303
78 303
79 303
80 304
81 303
82 304
83 304
84 304
85 304
86 304
87 304
88 304
89 304
90 304
91 305
92 306
92 307
93 308
94 308
95 309
96 309
97 309
98 309
99 309
100 309
101 309
102 310
103 310
104 310
105 310
106 310
107 310
108 310
109 310
110 310
111 310
112 311
113 311
114 312
115 313
116 314
116 315
117 316
118 316
119 316
120 316
121 317
122 317
123 317
124 317
125 317
126 317
127 318
128 318
129 318
130 318
131 317
132 317
133 318
134 319
135 320
136 320
137 320
138 321
139 322
140 322
141 323
141 324
141 325
141 326
140 327
141 327
142 327
143 328
144 328
145 328
146 328
147 328
148 328
149 329
149 330
150 331
151 331
152 330
153 330
154 330
155 329
156 329
157 330
157 331
157 332
157 333
157 334
157 335
158 336
159 337
160 338
159 339
158 340
157 341
156 342
155 343
154 343
155 344
156 345
157 345
158 346
159 346
160 347
161 347
162 347
163 348
163 349
163 350
164 350
165 351
166 351
167 351
168 351
169 351
170 351
171 352
171 353
171 354
171 355
170 356
170 357
169 358
169 359
170 359
171 360
172 361
172 362
171 363
170 364
169 365
169 366
169 367
170 368
171 369
172 370
172 371
173 372
173 373
173 374
172 375
171 375
170 376
169 377
168 378
167 379
167 380
168 381
169 382
169 383
169 384
168 385
167 386
167 387
166 388
166 389
165 390
165 391
166 391
167 392
168 392
169 393
170 393
171 393
172 394
173 394
174 395
175 396
175 397
175 398
176 398
177 399
178 400
179 400
180 400
181 401
182 401
183 401
184 402
185 403
185 404
185 405
184 406
184 407
185 408
186 408
187 409
188 409
189 410
189 411
189 412
189 413
188 414
187 415
186 416
186 417
187 418
188 419
189 420
189 421
189 422
188 423
188 424
189 425
188 426
187 427
186 428
185 428
184 429
183 430
183 431
183 432
184 432
185 433
185 434
186 435
185 436
184 437
183 438
182 439
182 440
181 441
180 442
179 443
179 444
180 445
181 446
182 446
183 447
184 447
185 448
186 448
187 448
188 448
189 449
190 449
191 449
192 449
193 450
193 451
193 452
194 453
195 453
196 453
197 454
198 454
199 454
200 454
201 454
202 454
203 454
204 455
205 456
206 457
206 458
206 459
207 460
208 460
209 460
210 460
211 460
212 460
213 460
214 460
215 460
216 460
217 461
217 462
218 463
219 463
220 463
221 464
222 464
223 464
224 464
225 464
226 464
227 464
228 465
229 466
229 467
229 468
229 469
229 470
230 471
231 471
232 472
233 472
234 473
235 473
236 473
237 474
238 474
239 475
240 475
241 475
242 475
243 476
244 477
245 478
245 479
246 480
247 480
248 481
249 482
249 483
249 484
249 485
249 486
249 487
249 488
249 489
249 490
249 491
249 492
250 492
251 493
252 494
253 495
254 496
255 497
255 498
254 499
254 500
254 501
255 502
255 503
255 504
255 505
255 506
254 507
254 508
254 509
255 509
256 509
257 509
258 509
259 509
260 509
261 509
262 509
263 508
264 508
265 508
266 508
267 508
268 508
269 509
270 509
271 509
272 509
273 509
274 509
275 509
276 509
277 509
278 509
279 509
280 509
281 510
282 510
283 510
284 510
285 510
286 510
287 510
288 510
289 510
290 510
291 510
292 510
293 510
294 510
295 511
296 511
297 512
298 513
298 514
298 515
299 516
300 516
301 516
302 516
303 516
304 515
305 515
306 515
307 515
308 515
309 515
310 514
311 514
312 514
313 514
314 514
315 515
316 515
317 515
318 515
319 515
320 514
321 514
322 514
323 514
324 514
325 514
326 515
327 515
328 515
329 514
330 514
331 514
332 514
333 513
334 513
335 513
336 512
337 513
338 513
339 513
340 512
341 511
342 510
343 509
344 509
345 508
346 508
347 509
348 510
349 510
350 509
351 509
352 508
353 508
354 508
355 509
356 510
357 510
358 510
359 510
360 510
361 510
362 510
363 509
364 509
365 509
366 509
367 509
368 509
369 509
370 509
371 509
372 509
373 509
374 509
375 509
376 509
377 509
378 509
379 509
380 508
381 509
382 510
382 511
382 512
382 513
382 514
382 515
382 516
383 517
383 518
384 519
385 520
386 520
387 520
388 520
389 520
390 520
391 520
392 521
393 521
394 521
395 521
396 521
397 521
398 521
399 521
400 521
401 522
402 523
403 523
404 523
405 523
406 523
407 523
408 523
409 523
410 522
411 522
412 523
413 523
414 523
415 522
416 522
417 522
418 522
419 522
420 522
421 523
422 524
423 525
423 526
423 527
424 527
425 526
426 526
427 525
428 525
429 524
430 524
431 523
432 523
433 523
434 523
435 523
436 523
437 523
438 523
439 522
440 521
441 521
442 521
443 520
444 520
445 520
446 520
447 520
448 520
449 520
450 519
451 519
452 519
453 519
454 518
455 518
456 518
457 517
458 516
459 516
460 516
461 515
462 515
463 514
464 513
465 512
466 512
467 511
468 512
469 512
470 512
471 511
472 511
473 510
474 510
475 509
476 509
477 509
478 509
479 508
480 508
481 509
482 509
483 509
484 508
485 508
486 507
487 507
488 506
489 506
490 506
490 505
491 504
492 503
493 504
494 504
495 504
496 504
496 503
497 502
498 501
499 500
500 499
501 498
502 498
503 497
504 497
505 497
506 497
507 496
508 496
509 495
510 495
511 495
512 494
513 494
514 494
515 494
516 494
517 494
518 494
519 495
520 495
521 495
522 495
523 494
524 494
525 494
526 493
527 493
528 492
529 492
530 492
531 492
532 491
532 490
533 489
534 488
535 488
536 488
537 488
538 488
539 488
540 487
540 486
541 485
542 484
543 483
544 483
545 483
546 482
547 482
548 482
549 481
550 481
551 480
552 480
553 480
554 480
555 480
556 480
557 481
558 481
559 481
560 482
561 483
561 484
562 485
562 486
563 486
564 486
565 486
566 486
567 485
568 485
569 485
570 484
571 484
572 484
573 484
574 484
575 483
576 483
577 482
578 482
579 481
580 482
581 482
582 481
583 481
584 480
585 480
586 480
587 479
588 479
589 479
590 478
591 478
592 478
593 477
594 477
595 477
596 477
597 476
598 476
599 476
600 476
601 475
602 474
603 473
604 472
605 471
606 470
607 470
608 469
609 469
610 468
611 468
612 468
613 467
614 467
615 466
616 465
617 464
618 464
619 464
620 464
621 463
622 463
623 463
624 463
625 463
626 463
627 463
628 462
629 461
630 460
631 459
632 458
633 458
634 457
635 457
636 456
637 456
638 455
639 454
639 453
640 452
641 451
642 450
643 449
644 449
645 449
646 449
647 448
647 447
648 446
648 445
649 444
650 444
651 443
652 442
653 442
654 441
655 441
656 441
657 440
658 440
659 440
660 441
661 441
662 441
663 441
664 440
664 439
665 438
666 437
667 436
668 435
669 435
670 435
670 434
671 433
671 432
672 431
673 431
674 431
675 430
676 429
676 428
677 427
677 426
678 425
679 424
680 423
681 423
681 422
682 421
683 422
684 422
685 421
685 420
685 419
686 418
687 417
688 416
688 415
689 414
690 414
691 414
692 414
693 413
694 413
695 413
696 413
697 413
698 413
699 413
700 413
701 414
702 413
703 412
703 411
704 410
704 409
705 408
705 407
706 406
707 406
708 406
709 405
709 404
710 403
710 402
711 401
711 400
712 399
713 398
714 398
715 398
716 399
717 398
717 397
717 396
717 395
717 394
717 393
718 392
718 391
718 390
718 389
718 388
718 387
719 386
719 385
719 384
720 383
720 382
721 381
722 380
723 380
724 380
725 380
726 379
726 378
726 377
726 376
726 375
726 374
726 373
727 372
727 371
727 370
727 369
727 368
726 367
727 366
728 365
729 365
729 364
729 363
729 362
728 361
728 360
728 359
728 358
728 357
728 356
729 355
730 354
731 353
732 353
733 352
733 351
733 350
732 349
732 348
732 347
731 346
731 345
732 344
733 344
732 343
732 342
731 341
730 340
730 339
729 338
730 337
730 336
731 335
730 334
729 333
728 332
727 331
726 330
725 329
725 328
724 327
725 326
726 325
726 324
726 323
726 322
725 321
724 321
723 320
722 319
721 318
720 317
719 316
718 316
717 316
716 315
715 314
715 313
716 312
715 312
714 311
713 310
712 310
711 310
710 310
709 309
708 308
709 307
710 307
711 307
712 307
713 306
714 307
715 307
716 306
717 306
718 306
719 306
720 306
721 306
722 306
723 306
724 306
725 306
726 306
727 306
728 306
729 306
730 306
731 306
732 305
733 305
734 305
735 305
736 305
737 305
738 305
739 304
740 304
741 304
742 304
743 304
744 304
745 304
746 303
747 303
748 303
749 302
750 302
751 302
752 302
753 301
754 301
755 301
756 301
757 300
758 300
759 300
760 300
761 300
762 300
763 300
764 300
765 300
766 300
767 300
768 299
769 299
770 298
770 297
770 296
770 295
771 294
770 293
770 292
769 291
768 291
767 290
768 289
767 289
766 289
765 289
764 289
763 289
762 289
761 289
760 289
759 290
758 290
757 290
756 291
755 291
754 291
753 292
752 292
751 292
750 293
749 293
748 293
747 293
746 293
745 294
744 294
743 294
742 294
741 294
740 295
739 295
738 295
737 295
736 295
735 295
734 296
733 296
732 296
731 296
730 296
729 296
728 297
727 297
726 297
725 297
724 297
723 297
722 297
721 297
720 297
719 297
718 297
717 297
716 297
715 298
714 298
713 298
712 298
711 298
710 298
709 298
708 298
707 298
706 298
705 298
704 298
703 298
702 298
701 298
700 298
699 298
698 298
697 298
696 297
695 296
694 297
693 298
692 298
691 297
690 296
691 295
692 294
693 294
694 293
695 293
696 292
697 291
698 291
699 290
700 290
701 290
702 289
703 288
704 288
705 287
706 286
707 286
708 285
709 284
710 283
710 282
710 281
709 280
710 279
711 278
712 277
713 276
713 275
713 274
714 273
715 272
716 271
717 270
717 269
717 268
718 267
718 266
718 265
717 265
716 264
715 263
715 262
716 261
717 260
718 259
719 258
720 257
721 256
721 255
722 254
723 253
723 252
724 251
724 250
724 249
723 248
722 248
721 247
721 246
721 245
722 244
722 243
723 242
723 241
724 240
723 239
722 239
721 238
721 237
721 236
721 235
721 234
721 233
721 232
721 231
721 230
721 229
720 228
719 229
718 229
717 229
716 229
715 228
714 227
713 226
713 225
713 224
713 223
714 222
714 221
714 220
713 219
713 218
713 217
713 216
713 215
713 214
713 213
712 213
711 212
710 212
709 211
709 210
709 209
710 208
710 207
710 206
710 205
710 204
711 203
710 203
709 203
708 202
707 201
707 200
707 199
707 198
707 197
707 196
707 195
706 194
706 193
705 192
705 191
704 190
703 191
702 191
701 192
700 192
699 192
698 192
697 191
697 190
696 189
696 188
696 187
695 187
694 187
693 186
692 185
693 184
693 183
693 182
692 181
692 180
691 179
690 178
690 177
689 177
688 177
687 178
686 178
685 177
684 176
684 175
684 174
684 173
683 172
683 171
682 170
682 169
681 168
680 167
679 167
678 168
677 168
676 168
675 167
675 166
674 165
673 164
673 163
672 162
672 161
671 162
670 162
669 162
668 161
667 160
666 159
665 159
664 159
663 158
662 157
661 157
660 156
659 155
659 154
658 153
658 152
657 151
656 151
655 152
654 152
653 152
652 152
651 152
650 151
650 150
650 149
650 148
649 147
649 146
649 145
649 144
648 143
648 142
648 141
647 140
647 139
646 138
645 138
644 138
643 139
642 138
641 137
641 136
641 135
641 134
640 133
640 132
640 131
640 130
639 130
638 130
637 130
636 129
636 128
635 127
635 126
634 125
633 124
633 123
633 122
632 122
631 123
630 124
629 125
628 125
627 126
626 125
625 124
624 124
623 124
622 123
622 122
621 121
621 120
620 120
619 120
618 119
618 118
618 117
617 116
617 115
616 114
616 113
616 112
616 111
615 111
614 111
613 111
612 111
611 111
610 111
609 110
609 109
608 108
608 107
608 106
607 105
607 104
607 103
607 102
607 101
607 100
607 99
607 98
606 97
605 96
604 97
603 97
602 97
601 97
600 96
600 95
600 94
600 93
599 92
599 91
598 91
597 91
596 90
595 89
595 88
594 87
593 86
593 85
592 84
591 83
590 84
589 85
589 86
588 87
587 87
586 87
585 87
584 87
583 88
582 88
581 87
581 86
580 85
580 84
579 83
578 84
577 84
576 83
576 82
576 81
575 80
575 79
574 78
574 77
573 77
572 78
571 78
570 79
569 78
568 77
568 76
567 75
567 74
567 73
566 72
566 71
565 70
565 69
564 68
563 69
562 70
561 70
560 69
560 68
560 67
560 66
559 65
558 65
557 66
556 65
556 64
555 63
554 62
553 61
552 60
551 61
550 62
550 63
549 64
548 64
547 64
546 64
545 65
544 65
543 64
543 63
542 62
542 61
541 60
541 59
540 58
540 57
540 56
539 55
538 55
537 56
536 56
535 56
534 56
533 56
532 55
532 54
531 53
531 52
530 51
530 50
529 49
528 49
527 48
526 47
526 46
525 45
524 45
523 44
522 44
521 45
520 46
519 47
518 48
517 48
516 47
515 46
515 45
514 44
513 43
512 42
511 41
510 41
509 42
508 42
507 41
506 40
506 39
505 38
504 37
503 36
502 35
501 35
500 36
499 37
498 38
497 39
496 39
495 38
494 37
493 36
492 37
491 36
490 35
490 34
489 33
488 33
487 32
486 32
485 33
484 34
483 35
482 36
481 35
480 34
480 33
479 32
478 31
477 32
476 32
475 32
474 31
473 31
472 30
471 30
470 30
469 29
468 29
