491 83
490 84
489 84
488 84
487 85
486 85
485 85
484 85
483 85
482 85
481 84
480 84
479 84
479 85
478 86
477 86
476 86
475 87
474 87
473 88
472 88
471 88
470 89
469 89
468 90
467 91
466 91
465 92
464 93
463 94
463 95
462 96
461 97
461 98
460 99
460 100
459 101
459 102
459 103
459 104
458 105
458 106
458 107
457 108
457 109
457 110
457 111
457 112
457 113
456 114
456 115
456 116
456 117
456 118
456 119
456 120
456 121
457 122
457 123
457 124
457 125
457 126
457 127
457 128
457 129
457 130
457 131
458 132
458 133
458 134
458 135
458 136
459 137
459 138
460 139
460 140
460 141
460 142
461 143
461 144
461 145
462 146
462 147
462 148
462 149
463 150
464 151
464 152
464 153
465 154
465 155
465 156
466 157
467 158
467 159
468 160
468 161
468 162
469 163
469 164
469 165
469 166
470 167
470 168
471 169
471 170
471 171
471 172
471 173
471 174
472 175
472 176
473 177
473 178
473 179
473 180
474 181
474 182
474 183
474 184
475 185
475 186
475 187
475 188
476 189
476 190
476 191
476 192
476 193
476 194
477 195
477 196
477 197
477 198
477 199
477 200
477 201
478 202
478 203
478 204
479 205
479 206
479 207
479 208
479 209
479 210
479 211
479 212
479 213
479 214
480 215
480 216
480 217
480 218
481 219
481 220
481 221
481 222
482 223
482 224
482 225
482 226
483 227
483 228
483 229
483 230
484 231
485 232
485 233
485 234
486 235
486 236
486 237
487 238
488 239
488 240
489 241
490 242
490 243
491 244
491 245
491 246
492 247
492 248
493 249
493 250
493 251
494 252
495 253
496 254
496 255
497 256
498 257
498 258
499 259
500 260
501 261
502 262
503 263
503 264
504 264
505 265
505 266
506 266
507 267
507 268
508 269
509 270
510 271
511 272
512 272
513 273
514 274
515 275
516 276
517 277
518 278
519 278
520 279
521 280
522 280
523 281
524 281
525 282
526 283
527 283
528 284
529 284
530 285
531 285
532 286
533 287
534 287
535 288
536 288
537 289
538 289
539 290
540 291
541 291
542 292
543 292
544 293
545 293
546 294
547 294
548 295
549 295
550 296
551 296
552 297
553 298
554 298
555 299
556 300
557 300
558 301
559 301
560 302
561 303
562 303
563 304
564 304
565 305
566 306
567 306
568 307
569 307
570 308
571 309
572 309
573 310
574 310
575 311
576 312
577 312
578 313
579 313
580 313
581 314
582 315
583 315
584 316
585 316
586 317
587 317
588 318
589 318
590 319
591 319
592 320
593 320
594 321
595 321
596 322
597 322
598 323
599 324
600 325
601 326
600 327
599 327
598 327
597 327
596 327
595 327
594 327
593 327
592 326
591 326
590 326
589 326
588 326
587 326
586 326
585 326
584 326
583 326
582 326
581 325
580 325
579 325
578 325
577 325
576 325
575 325
574 324
573 324
572 324
571 324
570 324
569 324
568 324
567 323
566 323
565 323
564 323
563 323
562 323
561 323
560 323
559 323
558 323
557 323
556 323
555 323
554 323
553 322
552 322
551 322
550 322
549 322
548 322
547 322
546 322
545 322
544 322
543 322
542 322
541 322
540 322
539 322
538 321
537 321
536 321
535 321
534 321
533 321
532 321
531 321
530 321
529 321
528 321
527 321
526 321
525 321
524 321
523 321
522 321
521 321
520 321
519 321
518 321
517 321
516 321
515 321
514 320
513 320
512 320
511 320
510 320
509 320
508 320
507 320
506 320
505 319
504 320
503 320
502 320
501 320
500 320
499 320
498 319
498 318
498 317
497 316
497 315
497 314
497 313
497 312
496 311
496 310
496 309
496 308
495 307
495 306
495 305
495 304
494 303
494 302
494 301
494 300
494 299
493 298
493 297
493 296
493 295
493 294
493 293
493 292
493 291
492 290
492 289
492 288
492 287
492 286
492 285
492 284
491 283
491 282
491 281
491 280
491 279
491 278
491 277
491 276
491 275
491 274
490 273
490 272
490 271
490 270
490 269
490 268
489 267
489 266
489 265
489 264
489 263
488 262
488 261
488 260
488 259
488 258
488 257
487 256
487 255
487 254
487 253
486 252
486 251
486 250
486 249
485 248
485 247
484 246
484 245
484 244
483 243
483 242
482 241
481 240
481 239
481 238
480 237
480 236
480 235
479 234
479 233
478 232
478 231
477 230
476 229
476 228
475 227
475 226
474 225
474 224
473 223
472 222
472 221
471 220
470 219
470 218
469 217
468 216
468 215
467 214
466 213
465 212
464 211
464 210
463 209
463 208
462 207
461 206
461 205
460 204
459 203
459 202
458 201
457 200
456 199
455 198
455 197
454 196
453 195
452 194
451 193
450 192
449 191
448 190
447 189
446 188
445 187
444 186
443 185
442 185
441 184
440 183
439 183
438 182
437 181
436 180
435 180
434 179
433 178
432 177
431 176
430 175
429 175
428 174
427 173
426 172
425 172
424 171
423 170
422 170
421 169
420 168
419 168
418 167
417 167
416 166
415 165
414 165
413 164
412 164
411 163
410 163
409 162
408 161
407 161
406 160
405 160
404 159
403 159
402 159
401 158
400 158
399 157
398 157
397 157
396 156
395 156
394 155
393 155
392 155
391 154
390 154
389 153
388 153
387 152
386 152
385 151
384 151
383 150
382 150
381 149
380 149
379 148
378 148
377 147
376 147
375 146
374 146
373 146
372 145
371 145
370 145
369 145
368 144
367 144
366 144
365 144
364 143
363 143
362 143
361 143
360 143
359 142
358 142
357 142
356 142
355 142
354 142
353 142
352 141
351 141
350 141
349 141
348 141
347 141
346 141
345 140
344 140
343 140
342 140
341 139
340 139
339 139
338 138
337 138
336 138
335 138
334 138
333 138
332 138
331 138
330 137
329 137
328 137
327 137
326 137
325 137
324 137
323 137
322 137
321 136
320 136
319 136
318 136
317 136
316 136
315 136
314 136
313 136
312 135
311 135
310 135
309 135
308 135
307 135
306 135
305 135
304 135
303 135
302 135
301 136
300 136
299 136
298 136
297 136
296 136
295 136
294 136
293 136
292 136
291 136
290 136
289 136
288 137
287 137
286 137
285 137
284 138
283 138
282 138
281 138
280 138
279 139
278 139
277 139
276 139
275 139
274 139
273 139
272 139
271 140
270 140
269 140
268 140
267 140
266 141
265 141
264 141
263 141
262 142
261 142
260 142
259 143
258 143
257 143
256 144
255 144
254 144
253 145
252 145
251 146
250 146
249 146
248 147
247 148
246 149
245 150
244 151
243 152
243 153
242 154
242 155
242 156
242 157
242 158
241 159
240 160
239 160
238 160
237 161
237 162
238 163
238 164
237 165
236 166
236 167
235 168
234 169
234 170
234 171
233 172
233 173
233 174
233 175
233 176
233 177
233 178
233 179
233 180
233 181
234 182
234 183
234 184
234 185
235 186
236 187
236 188
237 189
237 190
237 191
237 192
238 193
239 194
240 195
240 196
241 197
242 198
243 199
244 200
245 200
246 201
247 202
248 203
249 203
250 204
251 205
252 205
253 206
254 207
255 207
256 208
257 209
258 210
259 210
260 210
261 211
262 211
263 211
264 212
265 213
266 213
267 214
268 215
269 216
270 216
271 217
272 218
273 218
274 218
275 219
276 219
277 220
277 221
278 221
279 222
280 222
281 223
282 224
283 224
284 225
285 225
286 226
287 227
288 227
289 228
290 228
291 229
292 230
293 230
294 231
295 232
296 233
297 233
298 234
299 235
300 235
301 236
302 236
303 237
304 237
305 238
306 239
307 239
308 240
309 240
310 241
311 242
312 243
313 244
314 244
315 245
316 246
317 246
318 247
319 247
320 248
321 248
322 248
323 249
324 250
325 250
326 251
327 251
328 252
329 253
330 253
331 254
331 255
332 256
333 257
334 257
335 258
335 259
336 260
337 261
337 262
338 262
339 263
340 264
341 265
342 266
343 267
344 268
345 269
346 270
347 270
348 271
349 271
350 272
351 273
352 273
353 274
354 274
355 275
356 275
357 276
358 276
359 277
360 277
361 278
362 278
363 278
364 279
365 279
366 279
367 280
368 280
369 280
370 281
371 281
372 282
373 282
374 283
375 283
376 283
377 284
378 284
379 285
380 285
381 286
382 286
383 286
384 287
385 287
386 288
387 288
388 288
389 289
390 289
391 289
392 290
393 290
394 290
395 291
396 291
397 291
398 292
399 292
400 292
401 292
402 293
403 293
404 293
405 293
406 294
407 294
408 294
409 295
410 295
411 295
412 296
413 296
414 296
415 297
416 297
417 297
418 298
419 298
420 298
421 299
422 299
423 299
424 300
425 300
426 301
427 301
428 302
429 302
430 302
431 303
432 304
433 304
434 304
435 305
436 305
437 306
438 306
439 306
440 307
441 307
442 308
443 308
444 308
445 309
446 309
447 309
448 310
449 310
450 311
451 311
452 311
453 312
454 312
455 312
456 313
457 313
458 314
459 314
460 314
461 314
462 315
463 315
464 316
465 316
466 317
467 317
468 318
469 318
470 318
471 319
472 319
473 320
474 320
475 321
476 321
477 322
478 323
478 324
477 325
476 325
475 325
474 325
473 325
472 325
471 325
470 325
469 325
468 325
467 325
466 325
465 325
464 325
463 325
462 325
461 325
460 325
459 325
458 325
457 325
456 325
455 325
454 325
453 325
452 325
451 325
450 325
449 325
448 325
447 325
446 325
445 325
444 325
443 325
442 325
441 325
440 325
439 325
438 325
437 325
436 325
435 325
434 325
433 325
432 326
431 326
430 326
429 326
428 326
427 326
426 326
425 326
424 326
423 327
422 327
421 327
420 327
419 327
418 327
417 327
416 328
415 328
414 328
413 328
412 328
411 328
410 328
409 329
408 329
407 329
406 329
405 329
404 329
403 329
402 329
401 329
400 330
399 330
398 330
397 330
396 331
395 331
394 331
393 331
392 331
391 332
390 332
389 332
388 332
387 332
386 332
385 333
384 333
383 333
382 333
381 333
380 333
379 333
378 333
377 333
376 334
375 334
374 334
373 335
372 335
371 336
370 336
369 336
368 335
368 334
367 333
367 332
367 331
366 330
366 329
365 328
365 327
364 326
364 325
363 324
363 323
362 322
362 321
361 320
361 319
360 318
360 317
359 316
359 315
358 314
357 313
356 312
356 311
355 310
355 309
354 308
354 307
353 306
352 305
351 304
351 303
350 302
349 301
348 300
348 299
347 298
346 297
345 296
344 295
343 294
342 293
341 292
340 291
339 290
339 289
338 289
337 288
336 287
335 286
334 285
333 284
332 283
331 282
330 281
329 280
328 280
327 279
326 278
325 277
324 276
323 275
322 274
321 273
320 273
319 272
318 271
317 270
316 270
315 269
314 268
313 268
312 267
311 266
310 266
309 265
308 264
307 263
306 263
305 262
304 262
303 261
302 260
301 260
300 259
299 259
298 258
297 258
296 257
295 257
294 256
293 256
292 255
291 255
290 255
289 254
288 254
287 253
286 253
285 253
284 252
283 252
282 251
281 251
280 251
279 250
278 250
277 250
276 249
275 249
274 249
273 248
272 248
271 248
270 248
269 247
268 247
267 247
266 247
265 247
264 246
263 246
262 246
261 246
260 246
259 246
258 246
257 246
256 246
255 246
254 246
253 246
252 246
251 245
250 245
249 245
248 245
247 245
246 245
245 246
244 245
243 245
242 245
241 245
240 245
239 245
238 245
237 246
236 246
235 246
234 246
233 246
232 246
231 246
230 246
229 246
228 246
227 246
226 246
225 246
224 246
223 246
222 246
221 247
220 247
219 247
218 247
217 247
216 248
215 248
214 248
213 248
212 249
211 249
210 249
209 249
208 249
207 250
206 250
205 250
204 250
203 250
202 250
201 251
200 251
199 251
198 251
197 251
196 252
195 252
194 252
193 252
192 253
191 253
190 253
189 253
188 254
187 254
186 254
185 254
184 255
183 255
182 255
181 255
180 256
179 256
178 256
177 257
176 257
175 258
174 258
173 258
172 258
171 259
170 259
169 260
168 260
167 261
166 261
165 261
164 261
163 262
162 262
161 262
160 263
159 263
158 264
157 264
156 264
155 265
154 265
153 265
152 266
151 266
150 266
149 267
148 267
147 267
146 267
145 268
144 268
143 269
142 269
141 269
140 270
139 270
138 271
137 271
136 271
135 272
134 272
133 273
132 273
131 274
130 274
129 275
128 276
127 276
126 277
125 277
124 278
123 279
122 279
121 280
120 281
119 281
118 282
117 283
116 284
115 285
114 285
113 286
112 287
111 287
110 288
109 288
108 289
107 289
106 289
105 290
104 290
103 291
102 291
101 292
100 293
99 293
98 294
97 295
96 295
95 296
94 297
93 297
92 298
91 299
90 299
89 300
88 301
87 301
86 302
85 303
84 304
83 304
82 305
81 306
80 307
79 308
78 309
77 310
77 311
76 312
75 313
75 314
74 315
73 316
73 317
72 318
72 319
71 320
71 321
70 322
70 323
70 324
70 325
70 326
70 327
70 328
69 329
69 330
68 331
67 331
66 332
65 333
64 334
65 335
66 336
67 337
68 338
68 339
68 340
68 341
68 342
68 343
68 344
68 345
69 346
69 347
70 348
71 349
71 350
72 351
72 352
72 353
73 354
74 355
74 356
74 357
75 358
76 359
76 360
77 360
78 361
79 362
80 363
81 364
82 365
83 366
84 366
85 367
86 367
87 368
88 368
89 368
90 368
91 368
92 369
93 369
94 369
95 369
96 370
97 370
98 370
99 370
100 370
101 370
102 371
103 371
104 371
105 371
106 371
107 371
108 371
109 371
110 371
111 371
112 371
113 371
114 371
115 371
116 371
117 372
118 372
119 372
120 372
121 372
122 372
123 372
124 372
125 372
126 372
127 372
128 372
129 372
130 372
131 373
132 373
133 373
134 373
135 373
136 373
137 373
138 373
139 373
140 373
141 373
142 374
143 374
144 374
145 374
146 374
147 374
148 374
149 374
150 374
151 374
152 374
153 375
154 375
155 375
156 375
157 375
158 375
159 375
160 375
161 375
162 375
163 375
164 375
165 375
166 376
167 376
168 376
169 376
170 376
171 376
172 376
173 376
174 376
175 376
176 376
177 377
178 377
179 377
180 377
181 377
182 377
183 377
184 377
185 378
186 378
187 378
188 378
189 378
190 378
191 378
192 378
193 378
194 378
195 378
196 378
197 378
198 378
199 378
200 378
201 377
202 377
203 377
204 377
205 377
206 377
207 377
208 376
209 376
210 376
211 376
212 376
213 376
214 376
215 375
216 375
217 375
218 375
219 375
220 375
221 374
222 374
223 374
224 374
225 374
226 374
227 374
228 374
229 373
230 373
231 373
232 373
233 372
234 372
235 372
236 372
237 371
238 371
239 371
240 371
241 370
242 369
243 369
244 369
245 369
246 368
247 368
248 368
249 367
250 367
251 367
252 366
253 366
254 366
255 366
256 366
257 365
258 365
259 365
260 364
261 364
262 364
263 364
264 364
265 363
266 363
267 363
268 363
269 363
270 363
271 363
272 362
273 362
274 362
275 362
276 362
277 361
278 361
279 361
280 361
281 361
282 360
283 360
284 360
285 360
286 360
287 359
288 359
289 359
290 359
291 359
292 359
293 358
294 358
295 358
296 358
297 358
298 358
299 357
300 357
301 357
302 357
303 357
304 357
305 356
306 356
307 356
308 356
309 356
310 355
311 355
312 355
313 355
314 354
315 354
316 354
317 354
318 353
319 353
320 353
321 353
322 353
323 352
324 352
325 352
326 352
327 352
328 352
329 351
330 351
331 351
332 350
333 350
334 350
335 350
336 350
337 349
338 349
339 349
340 349
341 349
342 349
343 348
344 348
345 348
346 348
347 348
348 348
349 348
350 348
351 348
352 348
353 348
354 348
355 348
356 349
357 349
358 349
359 350
359 351
358 352
357 353
356 353
355 354
354 354
353 355
352 356
351 356
350 357
349 357
348 358
347 358
346 359
345 359
344 360
343 360
342 361
341 361
340 362
339 362
338 363
337 363
336 364
335 365
334 365
333 365
332 366
331 366
330 367
329 368
328 368
327 369
326 369
325 370
324 370
323 371
322 371
321 372
320 372
319 373
318 373
317 374
316 374
315 375
314 375
313 376
312 377
311 377
310 378
309 378
308 379
307 379
306 380
305 380
304 381
303 381
302 381
301 382
300 382
299 383
298 383
297 384
296 384
295 385
294 385
293 385
292 386
291 386
290 387
289 388
288 388
287 388
286 389
285 389
284 390
283 390
282 391
281 391
280 391
279 392
278 392
277 393
276 393
275 393
274 393
273 394
272 394
271 395
270 395
269 395
268 396
267 396
266 396
265 397
264 397
263 398
262 398
261 399
260 399
259 400
258 400
257 401
256 401
255 402
254 402
253 403
252 403
251 404
250 404
249 405
248 405
247 406
246 406
245 407
244 407
243 408
242 408
241 409
240 409
239 410
238 411
237 411
236 412
235 413
234 414
233 414
232 415
231 416
230 417
229 418
228 419
227 420
226 421
225 422
224 423
223 423
222 424
221 424
220 425
219 426
218 426
217 427
216 428
215 428
214 429
213 429
212 430
211 431
210 431
209 432
208 432
207 433
206 433
205 433
204 433
203 434
202 434
201 435
200 435
199 436
198 436
197 437
196 437
195 438
194 439
193 439
192 440
191 441
190 441
189 442
188 443
187 443
186 444
185 445
184 446
183 446
182 447
181 448
180 449
179 450
178 450
177 451
176 452
175 453
174 454
173 454
172 455
171 456
170 457
169 458
168 459
167 460
166 461
165 462
164 462
163 463
162 464
161 465
160 466
160 467
159 468
158 469
157 470
156 471
155 472
154 473
153 473
152 474
151 475
150 476
149 477
148 478
148 479
147 480
146 481
145 481
145 482
144 483
143 483
142 484
141 485
141 486
140 487
139 488
138 489
137 489
136 490
135 491
134 492
133 493
132 494
131 495
130 495
129 496
128 497
127 498
126 499
126 500
125 501
124 502
123 503
123 504
122 505
122 506
121 507
121 508
120 509
120 510
120 511
120 512
119 513
119 514
119 515
118 516
118 517
118 518
118 519
118 520
118 521
118 522
118 523
118 524
119 525
119 526
119 527
119 528
119 529
119 530
119 531
119 532
118 533
117 534
116 534
117 534
118 534
119 534
120 534
121 535
120 536
121 537
122 538
123 538
124 539
125 540
126 540
127 541
128 542
129 543
130 543
131 544
132 545
133 545
134 546
135 546
136 547
137 547
138 548
139 548
140 548
141 549
142 549
143 549
144 549
145 549
146 550
147 550
148 550
149 550
150 550
151 550
152 550
153 550
154 550
155 550
156 550
157 550
158 550
159 550
160 550
161 550
162 550
163 550
164 550
165 550
166 550
167 550
168 550
169 550
170 550
171 550
172 550
173 550
174 550
175 550
176 550
177 550
178 550
179 550
180 550
181 550
182 550
183 550
184 550
185 550
186 550
187 550
188 550
189 550
190 550
191 550
192 550
193 550
194 550
195 550
196 550
197 550
198 550
199 550
200 550
201 550
202 550
203 549
204 549
205 549
206 549
207 549
208 549
209 549
210 549
211 549
212 549
213 549
214 548
215 548
216 548
217 548
218 548
219 547
220 547
221 547
222 546
223 546
224 545
225 545
226 544
227 544
228 544
229 543
230 543
231 542
232 542
233 542
234 541
235 541
236 540
237 540
238 540
239 539
240 539
241 538
242 538
243 537
244 537
245 536
246 536
247 536
248 535
249 535
250 534
251 534
252 533
253 533
254 532
255 532
256 532
257 531
258 531
259 530
260 530
261 530
262 529
263 529
264 529
265 528
266 528
267 528
268 528
269 527
270 527
271 527
272 526
273 526
274 526
275 525
276 525
277 524
278 524
279 524
280 523
281 522
282 522
283 521
284 521
285 520
286 520
287 520
288 519
289 518
290 518
291 517
292 517
293 516
294 515
295 515
296 514
297 514
298 513
299 512
300 511
301 510
302 510
303 509
304 508
305 507
306 506
307 506
308 505
309 504
309 503
310 502
311 502
312 501
313 500
314 499
314 498
315 497
316 496
317 495
318 494
318 493
319 492
320 491
321 490
321 489
322 488
323 487
324 486
325 485
326 484
327 483
327 482
328 481
329 480
330 480
331 479
331 478
332 477
333 476
334 475
335 474
336 473
336 472
337 471
337 470
338 469
339 468
339 467
340 466
340 465
341 464
342 463
342 462
342 461
343 460
343 459
344 458
344 457
345 456
345 455
345 454
346 453
346 452
346 451
347 450
347 449
348 448
348 447
348 446
349 445
349 444
350 443
350 442
351 441
351 440
352 439
352 438
353 437
353 436
354 435
355 434
355 433
356 432
356 431
357 430
357 429
358 428
358 427
359 426
359 425
359 424
360 423
360 422
361 421
361 420
361 419
362 418
362 417
362 416
363 415
363 414
363 413
364 412
364 411
364 410
365 409
365 408
365 407
366 406
366 405
366 404
366 403
367 402
367 401
367 400
367 399
368 398
368 397
368 396
368 395
369 394
369 393
369 392
369 391
369 390
369 389
370 388
370 387
370 386
370 385
370 384
370 383
370 382
370 381
371 380
371 379
371 378
371 377
371 376
371 375
371 374
371 373
371 372
371 371
372 370
372 369
372 368
372 367
372 366
372 365
372 364
373 363
373 362
374 361
375 360
376 360
377 360
378 360
379 360
380 359
381 359
382 359
383 359
384 359
385 359
386 358
387 358
388 358
389 358
390 358
391 358
392 358
393 357
394 357
395 357
396 357
397 357
398 356
399 356
400 356
401 356
402 356
403 356
404 356
405 355
406 355
407 355
408 355
409 354
410 354
411 354
412 354
413 354
414 354
415 353
416 353
417 353
418 353
419 353
420 353
421 352
422 352
423 352
424 352
425 352
426 352
427 351
428 351
429 351
430 351
431 351
432 350
433 350
434 350
435 350
436 350
437 349
438 349
439 349
440 349
441 349
442 349
443 348
444 348
445 348
446 348
447 347
448 347
449 347
450 347
451 347
452 346
453 346
454 346
455 346
456 346
457 347
457 348
457 349
456 350
456 351
455 352
454 353
453 354
453 355
452 356
451 357
450 358
449 359
449 360
448 361
447 362
446 363
445 364
444 365
444 366
443 367
442 368
441 369
440 370
439 370
439 371
438 372
437 372
437 373
436 374
435 374
434 375
434 376
433 377
432 378
431 379
430 380
429 381
428 382
427 383
426 384
425 385
425 386
424 387
423 388
422 389
421 390
421 391
420 392
419 393
418 393
418 394
417 395
416 396
415 397
415 398
414 399
413 400
412 401
411 402
410 403
409 404
408 405
407 406
407 407
406 408
405 409
404 410
403 411
402 412
401 413
400 414
399 415
398 416
397 417
396 418
395 419
394 420
393 420
392 421
391 422
390 423
389 424
388 424
387 425
386 426
385 427
384 428
383 428
382 429
381 430
380 431
379 432
378 433
377 433
376 434
375 435
374 436
373 437
372 438
371 439
370 440
369 441
368 442
367 443
366 444
365 445
364 446
363 447
362 448
362 449
361 450
360 451
359 452
359 453
358 454
358 455
357 456
357 457
356 458
356 459
355 460
355 461
354 462
354 463
353 464
353 465
352 466
352 467
352 468
351 469
351 470
350 471
350 472
350 473
349 474
348 475
348 476
348 477
347 478
347 479
347 480
346 481
346 482
345 483
345 484
345 485
344 486
344 487
343 488
343 489
342 490
341 491
341 492
340 493
340 494
339 495
339 496
338 497
337 498
337 499
336 500
336 501
336 502
335 503
335 504
334 505
333 506
333 507
332 508
331 509
331 510
330 511
330 512
329 513
329 514
328 515
327 516
327 517
326 518
326 519
325 520
325 521
324 522
324 523
323 524
322 525
321 526
321 527
320 528
319 529
318 530
317 531
317 532
316 533
315 534
315 535
314 536
313 537
312 538
311 539
311 540
310 541
310 542
309 543
308 544
307 545
307 546
306 547
306 548
305 549
305 550
304 551
303 552
303 553
302 554
302 555
301 556
301 557
300 558
300 559
300 560
299 561
299 562
298 563
298 564
297 565
297 566
297 567
296 568
296 569
295 570
295 571
295 572
294 573
294 574
294 575
294 576
293 577
293 578
293 579
293 580
293 581
293 582
293 583
292 584
292 585
292 586
292 587
292 588
292 589
292 590
292 591
293 592
293 593
293 594
293 595
294 596
294 597
295 598
295 599
296 600
297 601
298 602
298 603
299 603
300 604
300 605
301 605
302 606
303 606
304 607
304 608
304 609
304 610
305 609
306 609
307 609
308 609
309 609
310 609
311 609
312 610
313 611
314 612
315 613
316 613
317 614
318 614
319 615
320 615
321 615
322 616
323 616
324 616
325 616
326 616
327 616
328 616
329 616
330 616
331 616
332 616
333 616
334 616
335 616
336 615
337 615
338 615
339 615
340 615
341 614
342 614
343 614
344 613
345 613
346 613
347 613
348 612
349 612
350 612
351 611
352 611
353 610
354 610
355 610
356 609
357 609
358 608
359 608
360 608
361 607
362 607
363 607
364 606
365 606
366 606
367 605
368 605
369 605
370 604
371 604
372 603
373 603
374 603
375 602
376 601
377 601
378 600
379 600
380 599
381 599
382 598
383 597
384 597
385 596
386 595
387 594
388 594
389 593
390 593
391 592
392 591
393 591
394 590
395 589
396 588
397 588
398 587
399 587
400 586
401 585
402 584
403 584
404 583
405 582
406 582
407 581
408 581
409 580
410 579
411 578
412 578
413 577
414 576
415 575
416 575
416 574
417 573
418 573
419 572
420 571
421 570
422 569
423 568
424 567
425 566
426 565
427 564
428 563
428 562
429 561
430 560
431 560
431 559
432 558
433 557
434 556
435 555
436 554
437 553
438 552
439 551
439 550
440 549
441 548
442 547
442 546
443 545
444 544
444 543
445 542
446 541
447 540
447 539
448 538
449 537
449 536
450 535
451 534
451 533
452 532
453 531
453 530
454 529
454 528
455 527
455 526
456 525
457 524
457 523
458 522
458 521
459 520
459 519
460 518
460 517
461 516
461 515
462 514
462 513
463 512
463 511
464 510
464 509
465 508
465 507
466 506
466 505
467 504
467 503
468 502
468 501
469 500
469 499
470 498
470 497
471 496
471 495
472 494
472 493
473 492
473 491
474 490
474 489
475 488
476 487
476 486
477 485
477 484
478 483
479 482
479 481
480 480
480 479
481 478
481 477
482 476
482 475
483 474
483 473
483 472
484 471
484 470
485 469
485 468
486 467
486 466
486 465
487 464
487 463
487 462
488 461
488 460
488 459
489 458
489 457
489 456
489 455
489 454
490 453
490 452
490 451
490 450
490 449
491 448
491 447
491 446
491 445
491 444
492 443
492 442
492 441
492 440
492 439
492 438
492 437
492 436
492 435
493 434
493 433
493 432
493 431
493 430
493 429
493 428
493 427
493 426
493 425
493 424
493 423
493 422
493 421
493 420
493 419
493 418
493 417
492 416
492 415
492 414
492 413
492 412
492 411
492 410
492 409
491 408
491 407
491 406
491 405
491 404
491 403
491 402
490 401
490 400
490 399
490 398
489 397
489 396
489 395
489 394
489 393
489 392
488 391
488 390
488 389
488 388
487 387
487 386
487 385
487 384
486 383
486 382
486 381
486 380
485 379
485 378
485 377
484 376
484 375
484 374
483 373
483 372
483 371
483 370
482 369
482 368
482 367
481 366
481 365
481 364
481 363
481 362
480 361
480 360
480 359
480 358
480 357
479 356
479 355
479 354
479 353
479 352
479 351
479 350
479 349
480 348
481 347
482 347
483 347
484 347
485 347
486 347
487 347
488 347
489 347
490 347
491 346
492 346
493 346
494 346
495 346
496 346
497 346
498 346
499 346
500 346
501 346
502 346
503 346
504 346
505 346
506 346
507 346
508 346
509 346
510 346
511 346
512 346
513 346
514 346
515 346
516 346
517 346
518 346
519 346
520 346
521 346
522 346
523 346
524 346
525 346
526 346
527 346
528 346
529 346
530 346
531 346
532 346
533 346
534 346
535 346
536 346
537 346
538 346
539 346
540 346
541 346
542 346
543 346
544 346
545 347
546 347
547 347
548 347
549 347
550 347
551 347
552 347
553 347
554 347
555 347
556 347
557 347
558 347
559 347
560 347
561 347
562 347
563 347
564 347
565 347
566 347
567 347
568 347
569 348
570 348
571 348
572 348
573 348
574 348
575 348
576 348
577 348
578 348
579 348
580 348
581 348
582 348
583 348
584 348
585 348
586 348
587 348
588 348
589 348
590 348
591 348
592 348
593 348
594 348
595 348
596 348
597 348
598 349
599 350
599 351
598 352
597 353
596 354
596 355
595 356
594 357
593 358
593 359
592 360
591 361
590 361
590 362
589 363
588 364
587 365
586 366
585 367
584 368
583 369
582 370
581 371
580 372
579 372
578 373
577 374
576 375
575 376
574 377
573 377
572 378
571 379
570 380
569 381
568 382
567 383
566 384
565 385
564 386
563 387
562 388
561 389
561 390
560 391
559 392
558 393
557 394
556 395
555 396
555 397
554 398
553 399
552 400
551 401
550 402
549 403
549 404
548 405
547 406
546 407
545 408
545 409
544 410
543 411
542 412
542 413
541 414
540 415
540 416
539 417
538 418
538 419
537 420
537 421
536 422
535 423
535 424
534 425
533 426
533 427
532 428
531 429
530 430
530 431
529 432
528 433
528 434
527 435
527 436
526 437
525 438
525 439
524 440
524 441
523 442
523 443
522 444
522 445
521 446
521 447
520 448
520 449
519 450
518 451
518 452
517 453
517 454
516 455
516 456
515 457
515 458
514 459
514 460
514 461
513 462
513 463
513 464
512 465
512 466
511 467
511 468
511 469
510 470
510 471
510 472
509 473
509 474
509 475
508 476
508 477
508 478
508 479
507 480
507 481
507 482
506 483
506 484
506 485
506 486
505 487
505 488
505 489
505 490
504 491
504 492
504 493
504 494
504 495
504 496
503 497
503 498
503 499
503 500
503 501
503 502
503 503
503 504
503 505
503 506
503 507
502 508
502 509
502 510
502 511
502 512
502 513
502 514
502 515
502 516
502 517
502 518
502 519
502 520
502 521
502 522
502 523
503 524
503 525
503 526
503 527
503 528
503 529
503 530
503 531
504 532
504 533
504 534
504 535
504 536
505 537
505 538
504 539
505 540
504 541
504 542
504 543
504 544
504 545
503 546
503 547
503 548
503 549
502 550
502 551
502 552
502 553
501 554
501 555
501 556
501 557
500 558
500 559
500 560
500 561
499 562
499 563
499 564
498 565
498 566
497 567
497 568
496 569
496 570
496 571
496 572
495 573
495 574
495 575
495 576
494 577
494 578
494 579
494 580
494 581
494 582
493 583
493 584
493 585
493 586
493 587
493 588
493 589
493 590
492 591
492 592
492 593
492 594
492 595
492 596
492 597
492 598
492 599
492 600
492 601
492 602
492 603
493 604
493 605
493 606
493 607
494 608
494 609
494 610
495 611
495 612
496 613
497 614
497 615
497 616
498 617
498 618
499 619
499 620
500 621
501 622
502 623
502 624
503 625
504 626
505 626
506 627
507 628
508 629
509 629
510 630
511 630
512 630
513 631
514 631
515 631
516 631
517 631
518 631
519 631
520 632
521 632
522 632
523 632
524 632
525 631
525 630
526 629
527 628
528 628
529 627
530 627
531 627
532 627
533 626
534 626
535 626
536 625
537 625
538 624
539 624
540 624
541 623
542 622
543 622
544 621
545 621
546 620
547 620
548 619
549 618
550 617
551 617
552 616
553 615
554 614
555 613
556 613
557 612
558 611
559 610
560 609
561 608
562 607
563 607
564 606
565 605
566 604
567 603
568 602
568 601
569 600
570 600
570 599
571 598
572 597
573 596
574 595
575 594
576 593
577 592
578 591
579 590
579 589
580 588
581 587
582 586
582 585
583 584
584 583
585 582
586 581
587 580
587 579
588 578
589 577
590 576
590 575
591 574
592 573
592 572
593 571
594 570
595 569
595 568
596 567
597 566
597 565
598 564
598 563
599 562
600 561
600 560
601 559
601 558
601 557
602 556
603 555
603 554
603 553
604 552
604 551
605 550
605 549
606 548
606 547
607 546
607 545
607 544
608 543
608 542
608 541
609 540
609 539
609 538
610 537
610 536
611 535
611 534
611 533
612 532
612 531
612 530
613 529
613 528
613 527
614 526
614 525
614 524
614 523
615 522
615 521
615 520
615 519
616 518
616 517
616 516
616 515
617 514
617 513
617 512
617 511
617 510
618 509
618 508
618 507
618 506
618 505
619 504
619 503
619 502
619 501
619 500
619 499
620 498
620 497
620 496
620 495
620 494
620 493
620 492
621 491
621 490
621 489
621 488
621 487
621 486
621 485
621 484
622 483
622 482
622 481
622 480
622 479
622 478
622 477
623 476
623 475
623 474
623 473
623 472
623 471
623 470
623 469
623 468
623 467
623 466
623 465
623 464
623 463
623 462
623 461
623 460
623 459
623 458
623 457
623 456
623 455
623 454
623 453
623 452
622 451
622 450
622 449
622 448
622 447
622 446
622 445
622 444
622 443
622 442
622 441
622 440
621 439
621 438
621 437
621 436
621 435
621 434
620 433
620 432
620 431
620 430
620 429
620 428
619 427
619 426
619 425
619 424
618 423
618 422
618 421
618 420
618 419
617 418
617 417
617 416
617 415
617 414
616 413
616 412
616 411
616 410
615 409
615 408
615 407
615 406
614 405
614 404
614 403
614 402
613 401
613 400
613 399
613 398
612 397
612 396
612 395
611 394
611 393
611 392
611 391
611 390
610 389
610 388
610 387
610 386
610 385
610 384
610 383
610 382
610 381
610 380
610 379
610 378
610 377
611 376
611 375
611 374
611 373
611 372
612 371
612 370
612 369
612 368
612 367
613 366
613 365
613 364
613 363
614 362
614 361
614 360
615 359
615 358
615 357
615 356
615 355
616 354
616 353
617 352
618 352
619 352
620 351
621 351
622 351
623 351
624 351
625 351
626 351
627 351
628 351
629 351
630 351
631 351
632 350
633 350
634 350
635 350
636 350
637 350
638 350
639 350
640 350
641 350
642 350
643 350
644 350
645 350
646 351
647 351
648 351
649 351
650 351
651 351
652 351
653 351
654 351
655 351
656 351
657 351
658 351
659 351
660 351
661 352
662 352
663 352
664 352
665 352
666 352
667 352
668 352
669 352
670 352
671 352
672 352
673 352
674 352
675 352
676 352
677 352
678 352
679 352
680 352
681 352
682 352
683 352
684 352
685 352
686 352
687 352
688 352
689 352
690 353
691 353
692 353
693 353
694 353
695 353
696 353
697 353
698 353
699 353
700 353
701 354
702 354
703 354
704 354
705 354
706 354
707 354
708 354
709 355
710 355
711 355
712 355
713 355
714 355
715 355
716 355
717 355
718 355
719 355
720 355
721 355
722 355
723 356
724 356
725 356
726 356
727 356
728 356
729 356
730 356
731 356
732 356
733 356
734 356
735 357
736 357
737 357
738 357
739 357
740 357
741 357
742 357
743 357
744 357
745 357
746 357
747 356
748 355
749 354
750 354
751 353
752 352
752 351
752 350
752 349
753 348
754 347
753 346
752 345
751 344
751 343
750 342
749 342
748 342
747 342
746 342
745 342
744 342
743 341
742 341
741 341
740 341
739 341
738 341
737 341
736 341
735 341
734 341
733 341
732 341
731 341
730 341
729 341
728 341
727 341
726 341
725 341
724 341
723 341
722 341
721 341
720 340
719 340
718 340
717 340
716 340
715 340
714 340
713 340
712 340
711 340
710 340
709 340
708 339
707 339
706 339
705 339
704 339
703 339
702 339
701 339
700 339
699 338
698 338
697 338
696 338
695 338
694 338
693 338
692 338
691 338
690 338
689 338
688 338
687 337
686 337
685 337
684 337
683 337
682 337
681 337
680 337
679 337
678 337
677 336
676 336
675 336
674 336
673 336
672 336
671 336
670 336
669 336
668 335
667 335
666 335
665 335
664 335
663 335
662 334
661 334
660 334
659 334
658 334
657 334
656 334
655 334
654 333
653 333
652 333
651 333
650 333
649 333
648 333
647 332
646 332
645 332
644 332
643 332
642 332
641 332
640 332
639 332
638 331
637 331
636 331
635 331
634 330
633 330
632 329
631 329
630 328
629 328
628 328
627 327
626 327
625 327
624 326
623 326
622 325
622 324
622 323
621 322
621 321
620 320
620 319
619 318
619 317
619 316
618 315
618 314
617 313
617 312
617 311
616 310
616 309
615 308
615 307
615 306
615 305
614 304
614 303
614 302
614 301
613 300
613 299
613 298
612 297
612 296
612 295
612 294
612 293
611 292
611 291
611 290
611 289
611 288
611 287
611 286
611 285
611 284
610 283
610 282
610 281
610 280
610 279
610 278
610 277
610 276
610 275
610 274
609 273
609 272
609 271
609 270
609 269
609 268
609 267
609 266
609 265
609 264
609 263
609 262
608 261
608 260
608 259
608 258
608 257
608 256
608 255
607 254
607 253
607 252
607 251
607 250
607 249
607 248
606 247
606 246
606 245
606 244
606 243
605 242
605 241
605 240
605 239
605 238
605 237
604 236
604 235
604 234
604 233
603 232
603 231
603 230
603 229
603 228
603 227
602 226
602 225
602 224
602 223
602 222
601 221
601 220
601 219
601 218
601 217
600 216
600 215
600 214
599 213
599 212
599 211
599 210
598 209
598 208
598 207
597 206
597 205
597 204
596 203
596 202
596 201
596 200
595 199
595 198
595 197
595 196
594 195
594 194
594 193
593 192
593 191
593 190
592 189
592 188
592 187
591 186
591 185
591 184
590 183
590 182
590 181
589 180
589 179
589 178
588 177
588 176
588 175
587 174
587 173
586 172
586 171
585 170
585 169
585 168
584 167
584 166
583 165
583 164
582 163
582 162
581 161
580 160
580 159
579 158
579 157
578 156
577 155
577 154
576 153
575 152
575 151
574 150
573 149
573 148
572 147
571 146
571 145
570 144
569 143
569 142
568 141
567 140
567 139
566 138
565 137
565 136
564 135
563 134
563 133
562 132
561 131
561 130
560 129
559 128
558 127
557 126
556 125
556 124
555 123
554 122
553 121
552 120
551 119
550 118
549 117
548 116
547 115
546 114
545 113
544 112
543 111
543 110
542 109
541 109
540 108
539 107
538 106
537 105
536 104
535 103
534 102
533 101
532 100
531 99
530 98
529 97
528 97
527 96
526 95
525 95
524 94
523 93
522 92
521 92
520 91
519 90
518 90
517 89
516 88
515 88
514 87
513 87
512 86
511 86
510 85
509 85
508 85
507 84
506 84
505 84
504 83
503 83
502 83
501 83
500 83
499 83
498 83
497 83
496 83
495 83
494 83
493 83
492 83
491 83
