237 64
236 65
235 65
234 65
233 66
232 66
231 67
230 68
230 69
229 70
229 71
228 72
228 73
228 74
227 75
227 76
227 77
227 78
226 79
226 80
226 81
225 82
225 83
225 84
225 85
224 86
224 87
223 88
223 89
223 90
223 91
222 92
222 93
222 94
221 95
221 96
221 97
221 98
221 99
221 100
220 101
220 102
220 103
220 104
220 105
220 106
219 107
219 108
219 109
218 110
218 111
218 112
217 113
217 114
217 115
216 116
216 117
216 118
216 119
215 120
215 121
215 122
215 123
214 124
214 125
214 126
214 127
214 128
213 129
213 130
213 131
213 132
213 133
213 134
213 135
213 136
213 137
213 138
213 139
213 140
213 141
213 142
213 143
213 144
213 145
213 146
213 147
213 148
213 149
213 150
213 151
213 152
213 153
213 154
214 155
214 156
214 157
214 158
214 159
214 160
214 161
213 162
213 163
213 164
213 165
212 166
212 167
212 168
212 169
212 170
212 171
212 172
213 173
213 174
213 175
213 176
213 177
213 178
213 179
213 180
213 181
213 182
214 183
214 184
214 185
214 186
214 187
215 188
215 189
215 190
215 191
216 192
216 193
216 194
217 195
217 196
217 197
217 198
218 199
218 200
218 201
218 202
219 203
219 204
219 205
220 206
220 207
220 208
221 209
221 210
221 211
221 212
222 213
222 214
222 215
222 216
223 217
223 218
224 219
224 220
224 221
225 222
225 223
226 224
226 225
227 226
227 227
228 228
228 229
228 230
229 231
229 232
229 233
229 234
228 235
227 236
226 237
225 237
224 237
223 237
222 237
221 237
220 237
219 238
218 238
217 238
216 238
215 238
214 238
213 238
212 238
211 238
210 238
209 239
208 239
207 239
206 239
205 239
204 239
203 239
202 240
201 240
200 240
199 240
198 240
197 240
196 240
195 240
194 240
193 240
192 240
191 240
190 240
189 240
188 240
187 240
186 241
185 241
184 241
183 241
182 241
181 241
180 241
179 241
178 241
177 242
176 242
175 242
174 242
173 242
172 242
171 242
170 243
169 243
168 243
167 243
166 243
165 243
164 243
163 243
162 244
161 244
160 244
159 244
158 245
157 245
156 246
155 246
154 247
153 248
153 249
152 250
151 251
150 251
149 252
148 252
147 253
146 253
145 253
144 254
143 255
142 255
141 256
140 256
139 257
138 257
137 257
136 258
135 258
134 258
133 259
132 259
131 260
130 260
129 261
128 261
127 262
126 263
125 263
124 264
123 264
122 265
121 265
120 266
119 267
118 267
117 268
116 268
115 269
114 269
113 270
112 270
111 271
110 271
109 272
108 272
107 273
106 273
105 274
104 275
103 276
102 277
101 277
100 278
99 279
98 280
97 281
97 282
96 283
95 284
94 285
93 286
92 287
91 287
90 288
89 289
88 290
87 291
86 292
85 293
84 294
83 295
82 296
81 297
80 298
79 299
78 300
77 300
77 301
76 302
75 303
74 304
73 305
73 306
72 307
71 308
70 309
69 310
69 311
68 312
67 313
66 314
66 315
66 316
66 317
66 318
66 319
66 320
66 321
66 322
66 323
66 324
66 325
65 326
65 327
65 328
64 329
64 330
64 331
64 332
64 333
64 334
64 335
64 336
65 337
65 338
65 339
66 340
67 341
67 342
68 343
69 344
69 345
70 346
71 347
72 348
73 349
74 350
75 351
76 352
77 353
78 354
79 355
80 356
81 357
81 358
82 359
83 360
84 361
84 362
85 363
86 364
87 365
88 365
89 366
90 367
91 368
92 369
93 370
94 371
95 372
96 373
96 374
97 375
97 376
98 377
99 378
100 379
101 380
102 381
103 381
104 382
105 383
106 383
107 384
108 384
109 384
110 385
111 385
112 385
113 386
114 386
115 386
116 386
117 386
118 386
119 386
120 386
121 387
122 387
123 387
124 388
125 388
126 389
127 389
128 390
129 391
130 392
131 392
132 393
133 394
134 394
135 395
136 395
137 396
138 396
139 397
140 398
141 399
142 399
143 400
144 400
145 400
146 401
147 402
148 402
149 403
150 403
151 404
152 404
153 405
154 405
155 405
156 406
157 406
158 406
159 407
160 407
161 408
162 408
163 409
164 409
165 410
166 410
167 410
168 411
169 411
170 412
171 412
172 412
173 413
174 413
175 414
176 414
177 414
178 414
179 414
180 414
181 415
182 415
183 415
184 415
185 416
186 416
187 416
188 416
189 416
190 416
191 416
192 417
193 417
194 417
195 417
196 418
197 418
198 418
199 418
200 418
201 418
202 418
203 419
204 419
205 419
206 419
207 419
208 419
209 420
210 420
211 420
212 420
213 420
214 421
215 421
216 421
217 421
218 421
219 422
220 422
221 422
222 422
223 422
224 423
225 423
226 423
227 423
228 424
229 424
230 424
231 425
232 425
233 426
233 427
232 428
232 429
232 430
231 431
231 432
231 433
230 434
230 435
230 436
230 437
230 438
230 439
229 440
229 441
229 442
229 443
229 444
229 445
229 446
228 447
228 448
228 449
228 450
228 451
228 452
228 453
228 454
228 455
228 456
227 457
227 458
227 459
227 460
227 461
227 462
226 463
226 464
226 465
226 466
226 467
226 468
226 469
226 470
226 471
226 472
226 473
226 474
226 475
226 476
226 477
225 478
225 479
225 480
225 481
225 482
225 483
225 484
225 485
224 486
224 487
224 488
224 489
224 490
224 491
224 492
224 493
223 494
223 495
223 496
223 497
223 498
223 499
223 500
223 501
223 502
223 503
223 504
224 505
224 506
224 507
224 508
225 509
225 510
226 511
226 512
227 513
227 514
228 514
229 515
229 516
229 517
230 518
231 519
231 520
231 521
232 522
232 523
233 524
233 525
233 526
234 527
234 528
234 529
234 530
235 531
235 532
235 533
235 534
236 535
236 536
236 537
236 538
237 539
237 540
237 541
237 542
238 543
238 544
239 545
239 546
239 547
239 548
240 549
240 550
240 551
241 552
241 553
241 554
241 555
242 556
242 557
242 558
242 559
243 560
243 561
244 562
244 563
244 564
245 565
245 566
246 567
246 568
246 569
246 570
247 571
247 572
247 573
247 574
247 575
248 576
248 577
248 578
248 579
248 580
249 581
249 582
249 583
250 584
251 585
251 586
252 587
252 588
253 589
253 590
254 591
255 592
256 593
256 594
257 595
258 595
259 596
260 596
261 597
262 597
263 597
264 597
265 597
266 597
267 597
268 597
269 597
270 597
271 597
272 597
273 596
274 596
275 596
276 596
277 595
278 595
279 595
280 594
281 594
282 594
283 593
284 593
285 593
286 592
287 592
288 592
289 591
290 590
291 590
292 589
293 589
294 588
295 588
296 587
297 586
298 586
299 586
300 585
301 585
302 584
303 583
304 583
305 582
306 581
307 580
308 579
309 578
310 577
311 576
312 576
313 575
314 574
314 573
315 572
316 571
317 570
318 570
319 569
320 568
320 567
321 566
322 566
322 565
323 564
324 564
325 563
326 562
326 561
327 560
328 561
329 560
330 559
330 558
331 557
332 556
333 555
334 554
335 554
336 553
336 552
337 551
338 550
339 549
340 548
341 547
342 546
342 545
343 544
344 543
344 542
345 541
346 540
346 539
347 538
348 537
348 536
349 535
349 534
350 533
350 532
350 531
351 530
351 529
352 528
352 527
353 526
354 525
355 524
356 523
357 522
357 521
358 520
359 519
359 518
360 517
360 516
361 515
362 514
362 513
363 512
364 511
364 510
365 509
366 508
366 507
367 506
368 505
368 504
369 503
369 502
370 501
371 500
371 499
372 498
373 497
373 496
374 495
374 494
375 493
376 492
376 491
377 490
377 489
378 488
378 487
379 486
380 485
380 484
381 483
381 482
382 481
382 480
382 479
383 478
383 477
384 476
384 475
384 474
384 473
385 472
385 471
385 470
386 469
386 468
386 467
387 466
387 465
388 464
388 463
388 462
388 461
389 460
389 459
390 458
390 457
390 456
391 455
391 454
391 453
392 452
392 451
393 450
393 449
394 448
394 447
394 446
394 445
395 444
395 443
395 442
395 441
395 440
395 439
395 438
396 437
396 436
396 435
396 434
396 433
397 432
397 431
397 430
398 429
398 428
398 427
398 426
398 425
398 424
398 423
398 422
398 421
398 420
398 419
399 418
399 417
399 416
399 415
399 414
400 413
400 412
400 411
400 410
401 409
401 408
401 407
401 406
401 405
401 404
401 403
401 402
401 401
401 400
401 399
401 398
402 397
402 396
402 395
402 394
402 393
402 392
402 391
402 390
402 389
402 388
402 387
402 386
402 385
401 384
401 383
401 382
401 381
401 380
401 379
401 378
401 377
401 376
401 375
401 374
401 373
401 372
401 371
401 370
401 369
401 368
401 367
401 366
400 365
400 364
400 363
400 362
400 361
400 360
400 359
400 358
399 357
399 356
399 355
399 354
399 353
399 352
398 351
398 350
398 349
397 348
397 347
396 346
396 345
396 344
395 343
394 342
394 341
393 340
392 339
391 338
391 337
390 336
389 335
389 334
389 333
390 332
391 332
392 332
393 332
394 332
395 332
396 332
397 332
398 332
399 332
400 332
401 332
402 332
403 332
404 332
405 332
406 332
407 332
408 332
409 332
410 332
411 332
412 332
413 332
414 332
415 332
416 332
417 332
418 332
419 332
420 332
421 332
422 332
423 332
424 332
425 332
426 332
427 332
428 332
429 332
430 332
431 332
432 332
433 332
434 331
435 331
436 331
437 331
438 331
439 331
440 331
441 331
442 331
443 331
444 331
445 331
446 331
447 331
448 331
449 331
450 331
451 331
452 331
453 331
454 331
455 331
456 331
457 331
458 331
459 330
460 330
461 330
462 330
463 330
464 330
465 330
466 330
467 331
468 331
469 331
470 331
471 331
472 331
473 331
474 331
475 331
476 331
477 331
478 331
479 331
480 331
481 331
482 331
483 331
484 331
485 331
486 331
487 331
488 331
489 331
490 331
491 331
492 331
493 331
494 331
495 331
496 332
497 332
498 332
499 332
500 332
501 332
502 332
503 332
504 332
505 332
506 332
507 333
508 333
509 333
510 333
511 333
512 333
513 333
514 333
515 333
516 333
517 333
518 334
519 334
520 334
521 334
522 334
523 334
524 334
525 334
526 334
527 334
528 334
529 335
530 335
531 335
532 335
533 335
534 335
535 335
536 335
537 336
538 336
539 336
540 336
541 336
542 336
543 336
544 336
545 336
546 336
547 337
548 337
549 337
550 337
551 337
552 337
553 337
554 338
555 338
556 338
557 338
558 338
559 338
560 338
561 339
562 339
563 339
564 339
565 339
566 339
567 339
568 339
569 340
570 340
571 340
572 340
573 340
574 340
575 340
576 340
577 341
578 341
579 341
580 341
581 341
582 341
583 341
584 342
585 342
586 342
587 342
588 342
589 342
590 342
591 342
592 343
593 343
594 343
595 343
596 343
597 343
598 344
599 344
600 344
601 344
602 344
603 345
604 345
605 345
606 345
607 345
608 345
609 346
610 346
611 346
612 346
613 346
614 346
615 346
616 347
617 347
618 347
619 347
620 347
621 347
622 348
623 348
624 348
625 348
626 348
627 349
628 349
629 349
630 349
631 349
632 350
633 350
634 350
635 350
636 350
637 350
638 351
639 351
640 351
641 352
642 352
643 352
644 352
645 352
646 352
647 353
648 353
649 353
650 353
651 354
652 354
653 354
654 354
655 355
656 355
657 355
658 355
659 356
660 356
661 356
662 356
663 357
664 357
665 357
666 357
667 358
668 358
669 358
670 358
671 359
672 359
673 359
674 360
675 360
676 360
677 360
678 361
679 361
680 361
681 362
682 362
683 362
684 363
685 363
686 363
687 364
688 364
689 365
690 365
691 365
692 366
693 366
694 366
695 367
696 367
697 368
698 368
699 369
700 369
701 370
702 370
703 371
704 372
705 373
706 373
707 374
708 375
709 376
710 377
711 378
712 378
713 379
714 380
715 381
716 381
717 381
718 381
718 380
718 379
719 378
719 377
719 376
720 375
721 374
722 373
723 372
724 372
725 372
725 371
726 370
727 370
728 370
729 371
730 370
730 369
730 368
729 367
728 366
727 366
726 365
725 364
724 364
723 363
722 363
721 362
720 362
719 362
718 361
717 361
716 361
715 361
714 360
713 360
712 360
711 359
710 359
709 359
708 358
707 358
706 358
705 357
704 357
703 357
702 356
701 356
700 356
699 356
698 355
697 355
696 355
695 355
694 355
693 354
692 354
691 354
690 354
689 354
688 353
687 353
686 353
685 353
684 353
683 352
682 352
681 352
680 352
679 352
678 351
677 351
676 351
675 351
674 350
673 350
672 350
671 350
670 350
669 349
668 349
667 349
666 349
665 349
664 349
663 348
662 348
661 348
660 348
659 348
658 347
657 347
656 347
655 347
654 346
653 346
652 346
651 346
650 346
649 345
648 345
647 345
646 345
645 345
644 345
643 344
642 344
641 344
640 344
639 343
638 343
637 343
636 343
635 343
634 343
633 343
632 342
631 342
630 342
629 342
628 341
627 341
626 341
625 341
624 341
623 341
622 341
621 340
620 340
619 340
618 340
617 340
616 340
615 340
614 340
613 339
612 339
611 339
610 339
609 339
608 338
607 338
606 338
605 338
604 338
603 338
602 337
601 337
600 337
599 337
598 337
597 337
596 337
595 336
594 336
593 336
592 336
591 336
590 336
589 336
588 335
587 335
586 335
585 335
584 335
583 335
582 335
581 334
580 334
579 334
578 334
577 334
576 334
575 334
574 334
573 333
572 333
571 333
570 333
569 333
568 333
567 333
566 332
565 332
564 332
563 332
562 332
561 332
560 332
559 332
558 331
557 331
556 331
555 331
554 331
553 331
552 331
551 331
550 330
549 330
548 330
547 330
546 330
545 330
544 330
543 330
542 329
541 329
540 329
539 329
538 329
537 329
536 329
535 329
534 329
533 329
532 329
531 328
530 328
529 328
528 328
527 328
526 328
525 328
524 328
523 328
522 327
521 327
520 327
519 327
518 327
517 327
516 327
515 327
514 327
513 327
512 327
511 327
510 327
509 327
508 326
507 326
506 326
505 326
504 326
503 326
502 326
501 326
500 326
499 326
498 326
497 326
496 325
495 325
494 325
493 325
492 325
491 325
490 325
489 325
488 325
487 325
486 325
485 325
484 325
483 325
482 325
481 325
480 324
479 324
478 324
477 324
476 324
475 324
474 324
473 324
472 324
471 324
470 324
469 324
468 324
467 324
466 324
465 324
464 324
463 324
462 324
461 324
460 324
459 324
458 324
457 324
456 324
455 324
454 324
453 324
452 324
451 324
450 324
449 324
448 324
447 324
446 324
445 324
444 324
443 324
442 324
441 325
440 325
439 325
438 325
437 325
436 325
435 325
434 325
433 325
432 325
431 325
430 325
429 325
428 325
427 325
426 325
425 325
424 325
423 325
422 325
421 325
420 325
419 325
418 325
417 325
416 325
415 325
414 325
413 325
412 325
411 325
410 325
409 325
408 325
407 325
406 325
405 325
404 325
403 325
402 325
401 325
400 325
399 325
398 324
397 324
396 324
395 324
394 324
393 324
392 324
391 324
390 324
389 323
388 323
387 323
386 322
385 322
384 321
385 320
386 320
386 319
387 318
388 318
389 317
390 316
391 315
392 314
393 313
394 312
394 311
395 310
395 309
396 308
396 307
397 306
397 305
398 304
398 303
399 302
399 301
399 300
400 299
400 298
401 297
401 296
401 295
402 294
402 293
402 292
402 291
403 290
403 289
403 288
403 287
403 286
403 285
404 284
404 283
404 282
404 281
404 280
404 279
404 278
404 277
404 276
404 275
404 274
404 273
404 272
403 271
403 270
403 269
403 268
403 267
403 266
403 265
402 264
402 263
402 262
402 261
402 260
402 259
401 258
401 257
401 256
401 255
400 254
400 253
400 252
399 251
399 250
399 249
398 248
398 247
397 246
397 245
397 244
396 243
396 242
395 241
395 240
394 239
394 238
394 237
394 236
393 235
393 234
393 233
392 232
392 231
392 230
392 229
392 228
392 227
391 226
391 225
391 224
391 223
390 222
390 221
390 220
389 219
389 218
389 217
388 216
388 215
388 214
387 213
387 212
387 211
386 210
386 209
386 208
385 207
385 206
385 205
385 204
384 203
384 202
384 201
383 200
383 199
382 198
382 197
382 196
382 195
381 194
381 193
380 192
380 191
379 190
379 189
378 188
378 187
377 186
377 185
376 184
376 183
375 182
375 181
375 180
374 179
374 178
373 177
373 176
372 175
371 174
370 173
370 172
369 171
369 170
368 169
368 168
367 167
367 166
367 165
366 164
366 163
365 162
365 161
364 160
364 159
363 158
362 157
362 156
361 155
360 154
360 153
359 152
358 151
358 150
357 149
357 148
356 147
356 146
355 145
354 144
353 143
353 142
352 141
351 140
350 139
350 138
349 138
348 137
347 136
347 135
346 134
345 133
344 132
343 131
342 130
342 129
341 128
340 127
340 126
339 125
339 124
338 123
337 122
336 121
336 120
335 119
334 118
333 117
332 116
331 115
330 114
329 113
328 112
327 111
326 110
325 109
324 108
323 107
323 106
322 105
321 104
320 103
319 102
318 102
317 101
316 100
315 99
314 98
314 97
313 96
312 95
312 94
311 93
310 92
309 91
308 90
307 89
306 88
305 88
304 87
303 86
302 86
301 85
300 85
299 84
298 84
297 83
296 82
295 81
294 80
293 80
292 79
291 78
290 78
289 77
288 76
287 76
286 75
285 75
284 74
283 74
282 73
281 73
280 73
279 72
278 72
277 71
276 71
275 71
274 70
273 70
272 70
271 69
270 69
269 69
268 68
267 68
266 68
265 68
264 67
263 67
262 67
261 67
260 66
259 66
258 66
257 66
256 66
255 65
254 65
253 65
252 65
251 64
250 64
249 64
248 64
247 64
246 64
245 64
244 64
243 64
242 64
241 64
240 64
239 64
238 64
237 64
