441 72
440 73
439 73
438 73
437 73
436 73
435 73
434 73
433 73
432 73
431 73
430 73
429 73
428 73
427 73
426 73
425 73
424 73
423 73
422 73
421 73
420 73
419 73
418 73
417 73
416 73
415 73
414 73
413 73
412 73
411 73
410 73
409 73
408 74
407 74
406 74
405 74
404 74
403 74
402 74
401 74
400 75
399 75
398 75
397 75
396 75
395 75
394 75
393 75
392 76
391 76
390 76
389 76
388 76
387 76
386 76
385 76
384 76
383 76
382 77
381 77
380 77
379 77
378 77
377 77
376 77
375 77
374 78
373 78
372 78
371 78
370 78
369 78
368 78
367 78
366 78
365 78
364 79
363 79
362 79
361 79
360 79
359 79
358 79
357 79
356 79
355 80
354 80
353 80
352 80
351 80
350 80
349 80
348 80
347 80
346 81
345 81
344 81
343 81
342 81
341 81
340 81
339 81
338 81
337 82
336 82
335 82
334 82
333 82
332 82
331 83
330 83
329 83
328 83
327 83
326 83
325 83
324 84
323 84
322 84
321 84
320 84
319 84
318 84
317 85
316 85
315 85
314 85
313 85
312 85
311 86
310 86
309 86
308 86
307 86
306 87
305 87
304 87
303 87
302 87
301 87
300 88
299 88
298 88
297 88
296 89
295 89
294 89
293 89
292 89
291 90
290 90
289 90
288 90
287 90
286 90
285 91
284 91
283 91
282 92
281 92
280 92
279 92
278 93
277 93
276 93
275 93
274 93
273 94
272 94
271 94
270 94
269 94
268 95
267 95
266 95
265 95
264 95
263 96
262 96
261 96
260 96
259 97
258 97
257 97
256 97
255 98
254 98
253 98
252 98
251 99
250 99
249 99
248 99
247 100
246 100
245 100
244 101
243 101
242 101
241 101
240 101
239 102
238 102
237 102
236 103
235 103
234 103
233 103
232 104
231 104
230 104
229 104
228 104
227 105
226 105
225 105
224 106
223 106
222 107
221 107
220 107
219 107
218 108
217 108
216 109
215 109
214 109
213 110
212 110
211 110
210 111
209 111
208 112
207 112
206 112
205 113
204 113
203 113
202 114
201 114
200 115
199 115
198 115
197 116
196 116
195 117
194 117
193 118
192 118
191 118
190 119
189 119
188 120
187 120
186 121
185 121
184 122
183 122
182 123
181 123
180 123
179 124
178 124
177 125
176 125
175 125
174 126
173 126
172 126
171 127
170 127
169 128
168 128
167 128
166 129
165 129
164 129
163 130
162 130
161 131
160 131
159 132
158 132
157 133
156 133
155 134
154 134
153 134
152 135
151 135
150 135
149 135
148 136
147 137
146 137
145 137
144 138
143 139
142 139
141 139
140 140
139 140
138 141
137 141
136 142
135 142
134 143
133 143
132 144
131 144
130 145
129 146
128 146
127 147
126 147
125 148
124 148
123 149
122 150
121 151
120 151
119 151
118 152
117 153
116 153
115 154
114 155
113 155
112 156
111 157
110 157
109 158
108 159
107 160
106 161
105 161
104 162
103 163
102 163
101 164
100 165
99 166
98 166
97 167
96 168
95 168
94 169
93 170
92 171
91 171
90 172
89 173
88 173
87 174
86 174
85 175
84 176
83 176
82 177
81 177
80 178
79 179
78 179
77 180
76 181
75 182
74 183
73 184
72 185
71 185
70 186
69 187
69 188
68 189
67 189
66 190
66 191
65 192
64 193
64 194
63 195
63 196
62 197
61 198
61 199
61 200
62 201
62 202
63 203
64 204
65 205
66 205
67 206
68 207
69 207
70 208
71 208
72 209
73 209
74 210
75 210
76 211
77 211
78 211
79 211
80 212
81 212
82 212
83 213
84 213
85 213
86 213
87 214
88 214
89 215
90 215
91 215
92 215
93 216
94 216
95 216
96 217
97 217
98 218
99 218
100 218
101 218
102 219
103 219
104 220
105 220
106 220
107 221
108 221
109 221
110 222
111 222
112 222
113 223
114 223
115 223
116 224
117 224
118 224
119 225
120 225
121 226
122 226
123 227
124 227
125 228
126 229
127 229
128 230
129 230
130 231
131 231
132 232
133 232
134 233
135 233
136 234
137 234
138 235
139 236
140 236
141 237
142 237
143 238
144 238
145 239
146 239
147 240
148 240
149 240
150 241
151 241
152 242
153 242
154 243
155 243
156 244
157 244
158 245
159 245
160 245
161 246
162 246
163 246
164 247
165 247
166 248
167 248
168 248
169 249
170 249
171 250
172 250
173 250
174 251
175 251
176 251
177 252
178 252
179 253
180 253
181 253
182 254
183 254
184 255
185 255
186 255
187 256
188 256
189 256
190 257
191 257
192 257
193 258
194 258
195 259
196 259
197 260
198 260
199 260
200 261
201 261
202 261
203 261
204 262
205 262
206 262
207 262
208 263
209 263
210 263
211 263
212 264
213 264
214 264
215 264
216 265
217 265
218 265
219 265
220 266
221 266
222 266
223 267
224 267
225 267
226 268
227 268
228 268
229 269
230 269
231 269
232 269
233 270
234 270
235 270
236 271
237 271
238 271
239 272
240 272
241 272
242 273
243 273
244 273
245 273
246 274
247 274
248 274
249 274
250 275
251 275
252 275
253 275
254 275
255 276
256 276
257 276
258 276
259 277
260 277
261 277
262 278
263 278
264 278
265 278
266 278
267 279
268 279
269 279
270 279
271 280
272 280
273 280
274 280
275 281
276 281
277 281
278 281
279 282
280 282
281 282
282 282
283 282
284 283
285 283
286 283
287 283
288 283
289 284
290 284
291 284
292 284
293 284
294 285
295 285
296 285
297 285
298 285
299 285
300 286
301 286
302 286
303 286
304 286
305 286
306 287
307 287
308 287
309 287
310 287
311 287
312 288
313 288
314 288
315 288
316 288
317 289
318 289
319 289
320 289
321 289
322 290
323 290
324 290
325 290
326 290
327 290
328 291
329 291
330 291
331 291
332 291
333 291
334 292
335 292
336 292
337 292
338 292
339 292
340 293
341 293
342 293
343 293
344 293
345 293
346 293
347 294
348 294
349 294
350 294
351 294
352 294
353 294
354 295
355 295
356 295
357 295
358 295
359 295
360 295
361 295
362 295
363 295
364 295
365 296
366 296
367 296
368 295
369 296
370 296
371 296
372 296
373 296
374 296
375 295
376 295
377 295
378 295
379 295
380 295
381 295
382 295
383 295
384 295
385 295
386 295
387 295
388 294
389 294
390 294
391 294
392 294
393 294
394 294
395 294
396 294
397 294
398 294
399 294
400 293
401 293
402 293
403 293
404 293
405 293
406 293
407 293
408 293
409 292
410 292
411 292
412 292
413 292
414 292
415 292
416 292
417 292
418 291
419 291
420 291
421 291
422 291
423 291
424 291
425 291
426 291
427 291
428 290
429 290
430 290
431 290
432 290
433 290
434 289
435 289
436 289
437 289
438 289
439 289
440 289
441 289
442 289
443 288
444 288
445 288
446 288
447 288
448 288
449 288
450 288
451 288
452 287
453 287
454 287
455 287
456 287
457 286
458 286
459 286
460 286
461 286
462 286
463 286
464 286
465 286
466 285
467 285
468 285
469 285
470 285
471 284
472 284
473 284
474 284
475 283
476 283
477 283
478 283
479 282
480 282
481 282
482 282
483 281
484 281
485 281
486 280
487 280
488 280
489 280
490 279
491 279
492 278
493 278
494 278
495 277
496 277
497 277
498 276
499 276
500 276
501 275
502 275
503 274
504 274
505 273
506 273
507 272
508 272
509 272
510 271
511 271
512 270
513 270
514 269
515 269
516 269
517 268
518 268
519 267
520 267
521 266
522 266
523 266
524 265
525 265
526 264
527 264
528 264
529 263
530 263
531 262
532 262
533 261
534 261
535 260
536 260
537 260
538 259
539 258
540 258
541 257
542 257
543 256
544 256
545 256
546 255
547 254
548 254
549 254
550 253
551 253
552 252
553 252
554 251
555 251
556 250
557 250
558 249
559 249
560 248
561 248
562 247
563 246
564 246
565 246
566 245
567 245
568 244
569 243
570 243
571 242
572 242
573 241
574 240
575 240
576 240
577 239
578 238
579 238
580 237
581 237
582 236
583 236
584 235
585 235
586 234
587 233
588 233
589 232
590 232
591 231
592 230
593 230
594 229
595 228
596 228
597 227
598 227
599 226
600 226
601 225
602 224
603 224
604 223
605 223
606 222
607 221
608 221
609 220
610 219
611 218
612 218
613 217
614 217
615 216
616 215
617 214
618 214
619 213
620 212
621 211
622 210
623 209
624 208
625 208
625 207
626 206
627 206
627 205
628 204
629 203
630 203
631 202
632 201
633 200
634 199
635 198
636 197
636 196
637 195
638 195
639 194
639 193
640 192
640 191
641 190
642 189
643 188
644 188
644 187
645 186
646 185
647 184
647 183
648 182
649 181
650 181
651 180
652 179
653 178
654 177
655 176
656 176
657 175
658 174
659 173
660 173
661 172
662 172
663 171
664 171
665 170
666 170
667 170
668 170
669 170
670 169
671 169
672 169
673 169
674 168
675 168
676 168
677 168
678 168
679 168
680 168
681 168
682 167
683 167
684 167
685 167
686 167
687 167
688 167
689 167
690 167
691 167
692 167
693 167
694 167
695 167
696 167
697 167
698 167
699 167
700 167
701 167
702 167
703 167
704 167
705 167
706 167
707 168
708 168
709 168
710 168
711 168
712 168
713 168
714 168
715 169
716 169
717 169
718 169
719 169
720 169
721 170
722 170
723 170
724 170
725 170
726 170
727 170
728 169
729 169
730 168
731 168
732 167
733 166
733 165
733 164
734 163
734 162
734 161
734 160
734 159
733 158
732 158
731 158
730 157
729 156
728 156
727 156
726 155
725 155
724 154
723 154
722 154
721 153
720 153
719 153
718 152
717 152
716 152
715 151
714 151
713 151
712 150
711 150
710 150
709 150
708 149
707 149
706 149
705 149
704 148
703 148
702 148
701 148
700 148
699 148
698 147
697 147
696 147
695 147
694 147
693 146
692 146
691 146
690 146
689 146
688 146
687 145
686 145
685 145
684 145
683 145
682 145
681 145
680 145
679 145
678 144
677 144
676 144
675 144
674 144
673 144
672 143
671 143
670 143
669 143
668 142
667 141
666 141
665 141
664 140
663 139
662 139
661 138
660 137
659 137
658 136
657 135
656 134
655 133
654 132
653 131
652 130
651 129
650 128
649 128
648 127
647 126
646 125
645 124
644 124
643 123
642 122
641 122
640 121
639 120
638 120
637 119
636 119
635 118
634 117
633 116
632 116
631 115
630 115
629 114
628 113
627 113
626 112
625 112
624 111
623 110
622 110
621 109
620 109
619 108
618 108
617 107
616 107
615 106
614 105
613 105
612 104
611 104
610 104
609 103
608 103
607 102
606 102
605 101
604 101
603 100
602 100
601 100
600 99
599 99
598 98
597 98
596 98
595 98
594 97
593 97
592 96
591 96
590 96
589 95
588 95
587 95
586 94
585 94
584 94
583 93
582 93
581 93
580 92
579 92
578 92
577 92
576 91
575 91
574 90
573 90
572 90
571 90
570 89
569 89
568 89
567 89
566 88
565 88
564 88
563 87
562 87
561 87
560 87
559 86
558 86
557 86
556 85
555 85
554 85
553 85
552 84
551 84
550 84
549 84
548 84
547 83
546 83
545 83
544 82
543 82
542 82
541 82
540 81
539 81
538 81
537 81
536 81
535 80
534 80
533 80
532 80
531 79
530 79
529 79
528 79
527 79
526 79
525 79
524 79
523 78
522 78
521 78
520 78
519 78
518 78
517 78
516 78
515 78
514 78
513 78
512 77
511 77
510 77
509 77
508 77
507 77
506 77
505 77
504 76
503 76
502 76
501 76
500 76
499 76
498 76
497 76
496 76
495 76
494 76
493 76
492 75
491 75
490 75
489 75
488 75
487 74
486 74
485 74
484 74
483 74
482 74
481 74
480 74
479 74
478 74
477 74
476 74
475 74
474 73
473 73
472 73
471 73
470 73
469 73
468 73
467 73
466 73
465 73
464 73
463 73
462 73
461 73
460 73
459 73
458 73
457 73
456 73
455 73
454 73
453 73
452 73
451 73
450 72
449 72
448 72
447 72
446 72
445 72
444 72
443 73
442 73
441 72
