335 23
334 24
333 24
332 25
331 24
330 25
329 25
328 25
327 25
326 25
325 25
324 25
323 25
322 25
321 25
320 26
319 27
318 26
317 26
316 27
315 27
314 27
313 27
312 27
311 28
310 27
309 28
308 28
307 29
306 28
305 28
304 27
303 27
302 27
301 27
300 27
299 28
298 27
297 28
296 28
295 28
294 28
293 29
292 29
291 29
290 29
289 30
288 30
288 31
287 32
286 31
285 31
284 31
283 31
283 32
284 33
283 34
282 34
281 33
281 32
280 33
279 34
278 34
277 34
276 35
275 35
274 35
273 34
272 35
271 35
270 35
269 35
268 35
267 35
266 35
265 35
264 36
264 37
264 38
264 39
263 40
262 41
261 41
260 42
259 42
258 43
257 43
256 44
255 44
254 45
253 45
252 46
251 47
250 48
249 48
248 49
247 50
246 49
245 49
244 49
243 49
242 49
241 49
240 49
239 49
238 49
237 50
236 50
235 50
234 51
233 51
232 52
231 53
230 53
229 53
228 54
227 55
226 54
225 55
224 56
223 57
222 57
221 58
220 58
219 59
218 59
217 59
216 59
215 59
214 59
213 60
212 60
211 60
210 61
210 62
210 63
210 64
209 65
208 66
207 67
206 68
205 69
204 69
203 70
202 70
201 71
200 72
199 73
198 74
197 74
196 74
195 74
194 75
193 75
192 76
191 76
190 77
189 77
188 78
187 79
186 80
185 80
184 81
183 81
182 82
181 82
181 83
180 84
179 84
178 85
177 86
176 86
175 87
174 87
173 87
172 88
171 88
170 88
169 89
168 88
167 89
167 90
167 91
167 92
167 93
166 94
165 95
164 96
163 97
162 98
161 98
160 99
159 100
158 100
158 101
157 102
156 102
155 103
154 103
153 104
152 104
151 105
150 105
149 106
148 107
147 107
146 108
145 109
144 110
143 110
142 111
141 112
140 113
139 114
138 115
137 116
136 116
135 117
134 117
133 117
132 117
131 118
130 118
129 118
128 118
127 119
127 120
128 120
129 121
128 122
127 123
127 124
126 125
125 126
124 127
123 128
122 129
121 130
121 131
120 132
119 132
118 133
117 134
116 135
115 136
114 136
113 137
112 138
111 139
110 140
109 141
108 141
108 142
107 143
106 143
105 144
104 145
103 146
102 146
101 147
100 147
99 147
98 148
98 149
98 150
98 151
98 152
98 153
98 154
98 155
97 156
96 157
96 158
96 159
95 160
94 161
93 161
92 162
91 163
90 163
89 164
88 164
87 165
86 166
85 167
84 167
83 168
82 169
81 170
80 170
79 171
78 171
77 171
76 171
75 172
75 173
75 174
75 175
74 176
74 177
73 178
73 179
72 180
72 181
71 182
70 183
69 184
68 185
67 185
66 186
65 187
64 188
63 189
63 190
62 191
61 191
60 191
59 192
58 193
57 193
56 194
55 194
54 195
53 196
52 196
51 196
50 197
49 198
48 199
47 199
46 200
45 201
44 201
43 202
43 203
42 204
41 205
40 206
39 207
40 208
41 208
42 209
43 210
44 210
45 211
46 211
47 212
48 212
49 213
50 213
51 213
52 213
53 213
54 213
55 213
56 213
57 214
58 214
59 214
60 215
61 215
62 215
63 216
64 216
65 216
66 216
67 217
68 217
69 217
70 218
71 218
72 219
73 220
73 221
73 222
73 223
74 224
75 224
76 224
77 225
78 226
79 226
80 226
81 227
82 228
82 227
83 226
84 227
85 228
86 228
87 229
88 230
89 231
90 232
91 233
92 234
93 235
92 236
92 237
93 238
93 239
94 239
95 239
96 239
97 240
98 240
99 240
100 241
101 242
102 242
103 243
104 244
105 244
106 245
107 246
108 246
109 247
110 247
111 247
112 248
113 249
114 250
115 251
116 252
117 253
117 254
118 255
118 256
118 257
118 258
118 259
119 260
120 260
121 261
122 261
123 261
124 261
125 261
126 262
127 263
128 264
129 264
130 265
131 265
132 266
133 267
134 267
135 268
136 268
137 269
138 269
139 270
139 271
140 272
141 272
142 272
143 272
144 273
145 272
146 273
147 273
148 274
149 275
150 276
150 277
151 278
151 279
151 280
150 281
150 282
151 282
152 283
153 283
154 283
155 283
156 283
157 283
158 283
159 284
160 284
161 285
161 286
162 286
163 287
164 287
165 288
166 288
167 289
168 289
169 290
170 291
171 291
172 292
173 292
174 293
174 294
175 294
176 295
177 295
178 295
179 296
180 295
181 296
182 296
183 297
184 298
185 299
186 300
187 301
188 302
188 303
189 304
190 305
190 306
190 307
190 308
191 308
192 308
193 309
194 309
195 309
196 309
197 309
198 309
199 309
200 309
201 310
202 310
203 311
204 311
205 312
206 312
207 312
208 312
209 313
210 313
211 313
212 313
213 313
214 313
215 314
216 314
217 315
218 316
219 317
220 318
221 319
221 320
222 321
221 322
221 323
222 324
223 325
224 325
225 325
226 325
227 326
228 326
229 326
230 326
231 327
232 328
233 329
234 330
235 330
236 331
237 332
238 332
239 333
240 334
241 334
242 335
243 335
244 336
245 336
246 337
247 337
248 338
249 339
250 338
251 339
252 339
253 340
254 340
255 341
256 341
257 341
258 341
259 341
260 342
261 342
262 343
263 344
264 343
265 344
266 345
267 345
268 346
269 347
269 348
269 349
269 350
269 351
270 352
271 353
272 353
273 354
274 354
275 354
276 354
277 354
278 354
279 354
280 354
281 355
282 355
283 355
284 355
285 356
286 356
287 357
288 357
289 357
290 357
291 358
292 358
293 358
294 359
295 359
296 359
297 359
298 359
299 359
300 359
301 359
302 359
303 359
304 359
305 359
306 359
307 359
308 359
309 359
310 359
311 359
312 358
313 358
314 358
315 358
316 358
317 358
318 358
319 358
320 359
321 359
322 359
323 359
324 360
325 360
326 360
327 361
328 361
329 361
330 362
331 362
332 362
333 363
334 363
335 363
336 363
337 364
337 365
338 366
339 366
340 366
341 366
342 366
343 366
344 366
345 367
346 367
347 367
348 367
349 368
350 368
351 369
352 369
353 369
354 370
355 370
356 371
357 371
358 371
359 372
360 372
361 372
362 372
363 372
364 373
365 373
366 373
367 373
368 373
369 373
370 373
371 372
372 372
373 372
374 372
375 372
376 372
377 372
378 371
379 371
380 371
381 371
382 371
383 370
384 370
385 370
386 370
387 370
388 370
389 370
390 370
391 370
392 370
393 370
394 370
395 369
396 370
397 370
398 370
399 370
400 370
401 370
402 370
403 370
404 370
405 370
406 371
407 371
408 371
409 372
410 372
411 372
412 372
413 372
414 371
415 371
416 371
417 371
418 371
419 371
420 371
421 370
422 370
423 370
424 369
425 369
426 369
427 368
428 368
429 368
430 368
431 367
432 367
433 367
434 366
435 366
436 366
437 366
438 365
439 365
440 365
441 364
442 364
443 364
444 363
445 363
446 362
447 362
448 363
449 362
450 362
451 362
452 361
453 361
454 361
455 360
456 360
457 360
458 360
459 359
460 359
461 359
462 358
463 358
464 358
465 357
466 357
467 357
468 357
469 356
470 356
471 356
472 355
473 355
473 354
474 353
475 353
476 353
477 353
478 353
479 353
480 352
481 352
482 352
483 352
484 352
485 351
486 351
487 351
488 350
489 350
490 349
491 349
492 349
493 349
494 349
495 349
496 348
497 348
498 348
499 347
500 347
501 347
502 347
503 346
504 346
505 345
506 345
507 344
508 344
509 343
510 343
511 342
512 342
513 341
514 341
515 340
516 340
517 339
518 339
519 339
520 338
521 338
522 337
523 336
524 335
525 335
526 334
527 333
528 332
529 331
530 331
531 330
532 330
533 329
534 329
535 328
536 328
537 328
538 327
539 326
540 326
541 325
542 325
543 325
544 324
545 323
546 323
547 322
548 321
549 321
550 320
551 320
552 319
553 318
554 317
555 317
556 317
557 316
558 316
559 316
560 315
561 314
562 314
563 314
564 313
565 313
566 312
567 312
568 312
569 311
570 311
571 311
572 312
573 311
574 311
575 310
576 310
577 310
578 310
579 310
580 310
581 309
582 309
583 309
584 308
585 308
586 307
587 307
588 306
589 306
590 305
591 304
592 304
593 303
594 302
595 302
596 301
597 300
598 300
599 299
600 298
601 297
602 297
603 296
604 295
605 295
606 294
607 293
608 292
609 292
610 291
611 290
612 290
613 289
614 288
615 288
616 287
617 286
618 286
619 285
620 285
620 284
621 283
622 283
623 282
624 282
625 281
626 281
627 280
628 279
629 279
630 278
631 277
632 277
633 276
634 276
635 275
636 274
637 274
638 273
639 272
640 272
641 271
642 270
643 270
644 269
645 268
646 268
647 267
648 267
649 266
650 266
651 265
652 264
653 264
654 263
655 263
656 263
657 262
658 262
659 261
660 260
661 260
662 259
663 259
664 258
665 257
666 257
667 256
668 255
669 254
670 253
671 253
672 252
673 251
674 250
675 249
676 249
677 248
678 248
679 248
680 248
681 248
682 248
683 248
684 248
685 248
686 248
687 247
688 247
689 247
690 247
691 247
692 247
693 247
694 247
695 247
696 247
697 247
698 247
699 247
700 247
701 248
702 248
703 248
704 248
705 248
706 248
707 248
708 248
709 248
710 248
711 248
712 248
713 248
714 248
715 248
716 248
717 248
718 249
719 249
720 249
721 249
722 249
723 249
724 249
725 248
726 248
727 248
728 248
729 248
730 248
731 248
732 248
733 248
734 248
735 248
736 248
737 248
738 248
739 248
740 248
741 248
742 249
743 249
744 249
745 249
746 249
747 249
748 249
749 250
750 250
751 250
752 250
753 250
754 250
755 250
756 249
757 249
758 249
758 248
757 247
757 246
756 246
755 245
756 244
756 243
757 242
757 241
757 240
756 240
755 240
754 241
753 240
752 239
751 239
750 239
750 240
749 241
748 240
747 240
746 239
745 239
744 238
743 238
743 239
742 240
741 240
740 240
739 239
740 238
739 238
738 238
737 238
736 239
735 239
734 239
733 238
732 238
731 238
730 239
729 239
728 239
727 239
726 239
725 239
724 239
723 239
722 239
721 239
720 239
719 239
718 239
717 239
716 239
715 239
714 239
713 239
712 239
711 239
710 239
709 239
708 239
707 239
706 239
705 239
704 239
703 239
702 239
701 239
700 239
699 239
698 239
697 239
696 238
695 238
694 238
693 238
692 238
691 238
690 238
689 238
688 238
687 238
686 238
685 237
684 237
683 237
682 237
681 237
680 236
679 236
678 235
677 234
676 233
675 232
674 231
674 230
673 229
672 228
672 227
671 226
670 225
670 224
669 223
669 222
668 221
668 220
667 219
667 218
666 217
666 216
666 215
665 214
665 213
664 212
664 211
663 210
663 209
662 208
662 207
661 206
661 205
660 204
659 203
658 202
658 201
657 200
657 199
656 198
655 197
655 196
655 195
654 195
653 194
653 193
652 192
651 191
651 190
650 189
649 188
649 187
648 186
648 185
647 184
646 183
646 182
645 181
645 180
644 179
643 179
642 178
642 177
641 177
640 176
639 175
638 174
638 173
637 172
636 171
636 170
635 169
635 168
634 167
633 166
633 165
632 164
632 163
631 162
631 161
630 160
629 159
628 158
628 157
627 156
626 155
626 154
625 153
624 152
624 151
623 150
622 149
621 148
620 147
619 146
618 145
617 144
616 143
615 143
614 143
613 142
612 141
611 141
610 141
609 140
608 139
607 139
606 139
605 138
604 137
603 136
602 135
601 134
600 133
599 132
598 131
597 130
596 129
595 128
594 127
593 126
592 125
591 125
590 124
589 123
588 122
587 121
586 120
585 120
584 119
583 118
582 117
581 116
580 115
579 114
578 114
577 113
576 112
575 111
574 110
573 109
572 109
571 108
570 107
569 106
568 105
567 104
566 103
565 103
564 102
563 101
562 100
561 99
560 98
559 97
558 97
557 97
556 96
555 95
554 94
553 94
552 93
551 92
550 91
549 90
548 90
547 90
546 89
545 89
544 88
543 87
542 86
541 86
540 85
539 84
538 83
537 83
536 82
535 81
534 81
533 81
532 80
531 79
530 79
529 78
528 78
527 77
526 77
525 77
524 77
523 76
522 75
521 74
520 74
519 73
518 72
517 72
516 72
515 71
514 71
513 71
512 70
511 69
510 68
509 68
508 67
507 67
506 66
505 66
504 65
503 65
502 65
501 64
500 63
499 63
498 63
497 62
496 62
495 61
494 61
493 61
492 61
491 60
490 60
489 59
488 59
487 58
486 58
485 58
484 57
483 56
482 56
481 56
480 55
479 55
478 54
477 55
476 54
475 53
474 52
473 51
472 50
471 50
470 49
469 48
468 48
467 47
466 47
465 46
464 45
463 45
462 44
461 44
460 44
459 43
458 42
457 41
456 41
455 40
454 41
453 40
452 39
451 39
450 38
449 38
448 38
447 37
446 37
445 36
444 36
443 35
442 36
441 35
440 35
439 34
438 34
437 33
436 32
435 32
434 32
433 31
432 31
431 31
430 31
429 30
428 30
427 29
426 29
425 28
424 28
423 28
422 27
421 27
420 27
419 27
418 27
417 27
416 27
415 27
414 27
413 27
412 27
411 27
410 28
409 27
408 27
407 27
406 27
405 27
404 27
403 27
402 27
401 27
400 27
399 27
398 27
397 27
396 27
395 27
394 27
393 27
392 26
391 26
390 26
389 26
388 25
387 25
386 25
385 25
384 25
383 25
382 25
381 25
380 25
379 25
378 25
377 26
376 25
375 25
374 25
373 26
372 26
371 26
370 26
369 26
368 25
367 25
366 25
365 25
364 25
363 26
362 25
361 25
360 25
359 25
358 25
357 25
356 25
355 25
354 25
353 25
352 25
351 26
350 25
349 25
348 25
347 24
346 24
345 24
344 24
343 23
342 23
341 23
340 23
339 23
338 23
337 23
336 23
335 23
