440 17
439 18
438 18
437 18
436 18
435 18
434 18
433 18
432 18
431 18
430 18
429 18
428 18
427 18
426 18
425 18
424 18
423 18
422 18
421 18
420 18
419 18
418 18
417 18
416 18
415 18
414 18
413 18
412 18
411 18
410 18
409 18
408 19
407 19
406 19
405 19
404 19
403 19
402 19
401 19
400 19
399 19
398 19
397 19
396 19
395 20
394 20
393 20
392 20
391 20
390 20
389 21
388 21
387 21
386 21
385 21
384 22
383 22
382 22
381 22
380 22
379 22
378 23
377 23
376 23
375 24
374 24
373 24
372 25
371 25
370 25
369 25
368 25
367 26
366 26
365 26
364 26
363 27
362 27
361 27
360 27
359 27
358 27
357 27
356 28
355 28
354 28
353 28
352 28
351 29
350 29
349 29
348 29
347 29
346 30
345 30
344 30
343 30
342 30
341 31
340 31
339 31
338 31
337 31
336 32
335 32
334 32
333 32
332 33
331 33
330 33
329 33
328 34
327 34
326 34
325 35
324 35
323 35
322 35
321 35
320 36
319 36
318 36
317 36
316 37
315 37
314 37
313 38
312 38
311 38
310 39
309 39
308 39
307 40
306 40
305 40
304 41
303 41
302 42
301 42
300 42
299 43
298 43
297 44
296 44
295 45
294 45
293 45
292 46
291 46
290 47
289 47
288 47
287 48
286 48
285 49
284 49
283 49
282 50
281 50
280 50
279 51
278 51
277 52
276 52
275 53
274 53
273 54
272 54
271 54
270 55
269 55
268 56
267 56
266 56
265 57
264 57
263 58
262 58
261 58
260 59
259 59
258 60
257 60
256 60
255 61
254 61
253 62
252 62
251 62
250 63
249 63
248 64
247 65
246 65
245 66
244 66
243 67
242 67
241 68
240 69
239 70
238 70
237 71
236 71
235 72
234 72
233 73
232 73
231 74
230 74
229 75
228 75
227 76
226 76
225 77
224 78
223 78
222 79
221 79
220 80
219 80
218 81
217 81
216 82
215 82
214 83
213 84
212 85
211 85
210 86
209 87
208 88
207 88
206 89
205 90
204 91
203 92
202 93
201 93
200 94
199 95
198 96
197 97
196 98
195 99
194 100
193 101
192 102
191 103
190 104
189 105
188 105
187 106
186 107
185 108
184 109
183 110
182 111
181 112
180 113
179 114
178 114
177 115
176 116
175 117
174 118
173 119
172 120
171 121
170 122
169 123
168 124
167 125
166 126
165 127
164 128
163 129
162 130
161 130
161 131
160 132
159 133
158 133
157 134
156 135
155 136
154 137
153 138
152 139
151 140
150 141
149 142
148 143
147 144
146 145
145 146
144 147
143 148
143 149
142 150
141 151
140 152
139 153
138 154
137 155
136 156
135 157
134 158
133 159
133 160
132 161
131 162
130 163
129 164
128 165
128 166
127 167
126 168
125 169
124 170
123 171
123 172
122 173
121 174
120 175
120 176
119 177
118 178
117 179
117 180
116 181
115 182
115 183
114 184
113 185
113 186
112 187
111 188
110 189
110 190
109 191
108 192
108 193
107 194
106 195
106 196
105 197
105 198
104 199
104 200
103 201
103 202
102 203
102 204
101 205
101 206
100 207
100 208
99 209
98 210
98 211
97 212
97 213
96 214
96 215
95 216
95 217
94 218
93 219
93 220
92 221
92 222
91 223
91 224
90 225
89 226
89 227
88 228
88 229
87 230
87 231
86 232
86 233
85 234
85 235
85 236
84 237
84 238
83 239
83 240
82 241
82 242
81 243
81 244
81 245
80 246
80 247
79 248
79 249
78 250
78 251
77 252
77 253
77 254
76 255
76 256
75 257
75 258
74 259
74 260
74 261
73 262
73 263
73 264
72 265
72 266
71 267
71 268
71 269
71 270
70 271
70 272
69 273
68 274
68 275
67 276
67 277
66 278
66 279
65 280
65 281
64 282
64 283
63 284
62 285
62 286
61 287
60 288
60 289
59 290
58 291
57 292
56 293
55 294
54 295
53 296
52 297
51 298
50 299
49 299
48 300
47 301
46 302
45 302
44 303
43 304
42 304
41 305
40 306
39 306
38 307
37 308
36 309
35 310
34 310
33 311
32 312
31 312
30 313
29 313
28 314
27 315
27 316
26 317
26 318
26 319
26 320
26 321
27 322
28 323
29 324
30 324
31 324
32 325
33 325
34 325
35 325
36 325
37 326
38 326
39 326
40 326
41 326
42 326
43 326
44 326
45 326
46 326
47 326
48 327
49 327
50 327
51 327
52 328
53 328
54 328
55 329
56 329
57 330
58 330
59 331
60 331
61 332
62 333
63 333
64 334
65 335
66 335
67 336
68 336
69 337
70 338
71 339
72 340
73 340
74 341
75 342
76 343
77 344
78 345
79 346
80 347
81 348
82 349
83 350
84 351
85 352
86 353
87 354
88 355
89 356
90 357
91 358
92 359
93 360
93 361
94 362
95 363
96 364
97 365
98 366
99 367
100 368
101 369
102 370
103 371
104 372
105 373
105 374
106 375
107 376
108 377
109 378
109 379
110 380
111 381
112 382
113 383
113 384
114 384
115 385
115 386
116 387
117 388
118 389
119 390
120 391
121 392
122 393
123 394
123 395
124 396
125 397
125 398
126 399
127 400
128 401
129 402
129 403
129 404
129 405
130 405
131 405
132 406
132 407
133 408
133 409
134 410
135 411
136 412
137 413
138 414
139 415
139 416
140 417
141 418
142 419
143 420
143 421
144 422
145 423
146 423
147 424
147 425
148 426
149 427
150 428
151 429
152 430
153 431
153 432
154 432
155 433
155 434
156 435
157 436
158 436
159 437
160 438
160 439
161 440
161 441
162 442
163 442
164 443
165 444
165 445
166 446
167 447
168 448
169 448
170 449
171 450
172 451
173 452
174 453
175 454
176 454
177 455
178 456
179 457
180 458
181 459
182 460
183 461
184 462
185 463
186 464
187 464
188 465
189 466
190 467
191 468
192 469
193 470
194 471
195 472
196 472
197 473
198 474
199 475
200 475
201 476
202 477
203 478
204 479
205 479
206 480
207 481
208 482
209 483
210 484
211 485
212 485
213 486
214 487
215 488
216 489
217 490
218 490
219 491
220 492
221 493
222 494
223 495
224 496
225 497
226 497
227 498
228 499
229 500
230 501
231 502
232 502
233 503
234 504
235 504
236 505
237 506
238 506
239 507
240 508
241 509
242 509
243 509
244 510
245 511
246 511
247 512
248 512
249 513
250 513
251 514
252 515
253 515
254 515
255 516
256 516
257 517
258 517
259 517
260 518
261 518
262 518
263 519
264 519
265 520
266 520
267 520
268 521
269 521
270 522
271 522
272 523
273 523
274 523
275 524
276 524
277 525
278 525
279 525
280 526
281 526
282 526
283 527
284 527
285 528
286 528
287 528
288 529
289 529
290 529
291 530
292 530
293 530
294 531
295 531
296 531
297 532
298 532
299 532
300 533
301 533
302 533
303 534
304 534
305 535
306 535
307 535
308 535
309 536
310 536
311 536
312 537
313 537
314 537
315 538
316 538
317 538
318 538
319 539
320 539
321 539
322 539
323 539
324 539
325 540
326 540
327 540
328 540
329 540
330 540
331 540
332 540
333 540
334 540
335 540
336 540
337 541
338 541
339 541
340 541
341 541
342 541
343 541
344 541
345 541
346 541
347 541
348 541
349 541
350 541
351 541
352 541
353 541
354 541
355 542
356 542
357 542
358 542
359 542
360 542
361 542
362 542
363 542
364 542
365 542
366 542
367 543
368 543
369 543
370 543
371 543
372 543
373 543
374 543
375 543
376 543
377 543
378 543
379 543
380 543
381 543
382 543
383 543
384 544
385 544
386 544
387 544
388 544
389 544
390 544
391 544
392 545
393 545
394 545
395 545
396 545
397 545
398 546
399 546
400 546
401 546
402 546
403 546
404 547
405 547
406 547
407 547
408 547
409 547
410 547
411 547
412 547
413 547
414 547
415 547
416 547
417 547
418 547
419 547
420 546
421 546
422 546
423 546
424 546
425 546
426 546
427 546
428 546
429 546
430 546
431 545
432 545
433 545
434 545
435 545
436 545
437 545
438 545
439 545
440 545
441 545
442 545
443 544
444 544
445 544
446 544
447 544
448 544
449 544
450 544
451 544
452 544
453 544
454 544
455 543
456 543
457 543
458 543
459 543
460 543
461 543
462 543
463 543
464 543
465 543
466 543
467 543
468 543
469 542
470 542
471 542
472 542
473 542
474 542
475 541
476 541
477 541
478 540
479 540
480 540
481 539
482 538
483 538
484 538
485 538
486 537
487 537
488 537
489 536
490 536
491 535
492 534
493 534
494 534
495 533
496 533
497 532
498 532
499 532
500 531
501 531
502 530
503 529
504 529
505 529
506 528
507 528
508 527
509 526
510 526
511 526
512 525
513 525
514 525
515 524
516 524
517 523
518 523
519 522
520 522
521 522
522 521
523 521
524 520
525 520
526 520
527 519
528 519
529 518
530 517
531 517
532 516
533 516
534 515
535 514
536 514
537 513
538 513
539 512
540 511
541 511
542 510
543 510
544 509
545 509
546 508
547 508
548 507
549 506
550 506
551 505
552 505
553 504
554 503
555 503
556 502
557 502
558 501
559 501
560 500
561 500
562 499
563 498
564 498
565 497
566 497
567 496
568 496
569 495
570 495
571 494
572 493
573 493
574 492
575 491
576 491
577 490
578 489
579 489
580 488
581 488
582 487
583 486
584 485
585 485
586 484
587 484
588 483
589 482
590 482
591 481
592 480
593 480
594 479
595 479
596 478
597 477
598 476
599 476
600 475
601 474
602 474
602 473
603 472
604 472
605 471
606 470
607 469
608 468
609 467
610 466
611 465
612 464
613 463
614 463
615 462
616 461
617 460
618 460
619 459
620 458
621 458
621 457
622 456
623 456
624 455
625 454
626 453
627 452
628 451
629 451
630 450
631 449
632 448
633 447
634 446
635 445
636 444
637 443
638 442
639 441
640 440
641 439
642 438
643 437
644 436
645 435
646 434
647 433
648 432
649 431
650 430
651 429
651 428
652 427
653 426
653 425
654 424
655 423
656 422
657 421
657 420
658 419
659 418
660 417
661 416
662 415
662 414
663 413
664 412
664 411
665 410
666 409
667 408
667 407
668 406
669 405
670 404
670 403
671 402
672 401
672 400
673 399
674 398
674 397
675 396
676 395
676 394
677 393
677 392
678 391
678 390
679 389
679 388
680 387
680 386
680 385
681 384
681 383
682 382
682 381
683 380
683 379
683 378
684 377
684 376
685 375
685 374
686 373
687 372
687 371
688 370
688 369
689 368
689 367
690 366
690 365
690 364
691 363
692 362
692 361
692 360
693 359
693 358
693 357
693 356
694 355
694 354
694 353
694 352
695 351
695 350
695 349
695 348
696 347
696 346
696 345
696 344
696 343
697 342
697 341
697 340
697 339
698 338
698 337
698 336
698 335
698 334
698 333
698 332
699 331
699 330
699 329
699 328
699 327
699 326
699 325
699 324
699 323
699 322
699 321
699 320
699 319
699 318
700 317
699 316
699 315
699 314
699 313
699 312
699 311
699 310
699 309
699 308
699 307
698 306
698 305
698 304
698 303
698 302
697 301
697 300
697 299
697 298
696 297
696 296
696 295
696 294
696 293
696 292
696 291
696 290
696 289
696 288
696 287
697 286
697 285
697 284
698 283
698 282
699 281
699 280
700 279
700 278
701 277
702 276
703 275
704 274
705 273
706 272
707 271
708 271
709 270
710 270
711 270
712 269
713 269
714 269
715 269
716 268
717 268
718 268
719 268
720 268
721 268
722 268
723 268
724 268
725 268
726 268
727 268
728 268
729 268
730 268
731 268
732 269
733 269
734 268
735 268
736 268
737 268
738 268
739 268
740 268
741 268
742 268
743 268
744 268
745 268
746 268
747 268
748 268
749 268
750 268
751 268
752 268
753 268
754 268
755 268
756 268
757 267
758 267
759 266
760 266
761 265
762 264
763 264
764 263
765 263
765 262
764 261
763 260
763 259
763 258
763 257
763 256
762 255
762 254
762 253
762 252
761 251
760 250
760 249
759 248
758 247
757 247
756 247
755 246
754 246
753 246
752 246
751 246
750 246
749 246
748 246
747 246
746 246
745 246
744 246
743 246
742 246
741 246
740 246
739 245
738 245
737 245
736 245
735 245
734 245
733 245
732 245
731 245
730 245
729 245
728 245
727 244
726 244
725 244
724 244
723 244
722 244
721 244
720 243
719 243
718 242
717 242
716 242
715 241
714 241
713 241
712 240
711 240
710 239
709 239
708 238
707 238
706 237
705 236
704 235
703 235
702 234
701 233
700 232
699 231
698 230
698 229
697 228
697 227
697 226
696 225
696 224
696 223
696 222
696 221
696 220
696 219
697 218
697 217
697 216
697 215
698 214
698 213
698 212
699 211
699 210
699 209
700 208
700 207
700 206
700 205
700 204
700 203
700 202
700 201
700 200
700 199
700 198
700 197
700 196
700 195
700 194
700 193
700 192
700 191
699 190
699 189
699 188
699 187
699 186
699 185
699 184
699 183
699 182
699 181
698 180
698 179
698 178
698 177
698 176
698 175
698 174
698 173
698 172
697 171
697 170
697 169
697 168
696 167
696 166
696 165
696 164
695 163
695 162
695 161
694 160
694 159
694 158
693 157
693 156
692 155
692 154
692 153
691 152
691 151
690 150
690 149
689 148
689 147
688 146
688 145
688 144
687 143
687 142
686 141
686 140
686 139
685 138
685 137
684 136
684 135
684 134
683 133
682 132
682 131
681 130
681 129
680 128
680 127
679 126
679 125
678 124
678 123
677 122
677 121
676 120
676 119
675 118
674 117
674 116
673 115
673 114
672 113
671 112
671 111
670 110
669 109
668 108
668 107
667 106
666 105
666 104
665 103
664 102
664 101
663 100
662 99
662 98
661 97
660 96
659 95
658 94
657 93
656 92
655 91
654 90
653 89
652 88
651 87
650 86
649 85
648 84
647 83
646 82
645 82
644 81
643 80
642 79
641 78
640 78
639 77
638 76
637 75
636 74
635 73
634 72
633 72
632 71
631 70
630 69
629 68
628 67
627 67
626 66
625 65
624 65
623 64
622 63
621 63
620 62
619 61
618 61
617 60
616 59
615 59
614 58
613 57
612 56
611 55
610 55
609 54
608 53
607 53
606 52
605 52
604 51
603 50
602 50
601 49
600 49
599 49
598 48
597 48
596 47
595 47
594 46
593 46
592 46
591 45
590 45
589 44
588 44
587 43
586 43
585 42
584 42
583 42
582 41
581 41
580 40
579 40
578 39
577 39
576 38
575 38
574 38
573 37
572 37
571 37
570 36
569 36
568 36
567 35
566 35
565 35
564 34
563 34
562 34
561 33
560 33
559 33
558 33
557 33
556 32
555 32
554 32
553 32
552 31
551 31
550 31
549 30
548 30
547 30
546 30
545 29
544 29
543 29
542 28
541 28
540 28
539 28
538 27
537 27
536 27
535 27
534 27
533 27
532 26
531 26
530 26
529 26
528 26
527 25
526 25
525 25
524 25
523 25
522 24
521 24
520 24
519 24
518 24
517 24
516 24
515 24
514 24
513 24
512 24
511 24
510 24
509 23
508 23
507 23
506 23
505 23
504 23
503 23
502 23
501 23
500 23
499 22
498 22
497 22
496 22
495 22
494 22
493 22
492 22
491 22
490 22
489 22
488 21
487 21
486 21
485 21
484 21
483 21
482 21
481 21
480 20
479 20
478 20
477 20
476 20
475 20
474 20
473 20
472 20
471 20
470 20
469 20
468 20
467 19
466 19
465 19
464 19
463 19
462 19
461 18
460 18
459 18
458 18
457 18
456 18
455 18
454 18
453 18
452 18
451 18
450 18
449 18
448 18
447 17
446 17
445 17
444 18
443 18
442 18
441 17
440 17
