216 23
216 24
217 25
217 26
217 27
217 28
217 29
217 30
217 31
217 32
217 33
218 34
218 35
218 36
218 37
219 38
219 39
219 40
220 41
220 42
220 43
220 44
220 45
220 46
221 47
221 48
221 49
222 50
222 51
222 52
222 53
221 54
220 54
219 54
218 54
218 55
218 56
219 57
219 58
220 59
220 60
220 61
221 62
221 63
221 64
222 65
222 66
222 67
222 68
223 69
223 70
223 71
223 72
222 73
221 73
221 74
221 75
222 76
222 77
223 78
223 79
223 80
224 81
224 82
224 83
224 84
225 85
225 86
225 87
225 88
226 89
225 90
224 90
223 90
223 91
224 92
224 93
224 94
225 95
225 96
225 97
226 98
226 99
226 100
226 101
227 102
227 103
227 104
227 105
227 106
228 107
228 108
229 109
229 110
230 111
230 112
231 113
231 114
231 115
230 116
229 116
229 117
229 118
230 119
230 120
231 121
231 122
232 123
232 124
232 125
233 126
233 127
233 128
233 129
234 130
234 131
234 132
235 133
235 134
235 135
234 136
235 137
235 138
236 139
236 140
236 141
237 142
237 143
238 144
238 145
238 146
237 147
238 148
238 149
239 150
239 151
240 152
240 153
240 154
240 155
241 156
241 157
241 158
241 159
242 160
242 161
242 162
243 163
243 164
243 165
242 166
243 167
243 168
244 169
244 170
245 171
245 172
246 173
246 174
246 175
247 176
247 177
247 178
248 179
248 180
249 181
249 182
249 183
250 184
250 185
250 186
251 187
251 188
252 189
252 190
253 191
253 192
254 193
254 194
255 195
255 196
256 197
256 198
256 199
257 200
258 201
258 202
259 203
260 204
260 205
261 206
262 207
262 208
263 209
264 210
265 211
266 212
267 213
268 214
268 215
269 216
270 217
271 218
272 219
273 220
274 221
275 222
275 223
276 223
277 224
277 225
278 226
279 227
280 227
281 228
282 229
283 230
284 230
285 231
285 232
286 232
287 233
287 234
288 234
289 235
290 236
291 237
292 238
293 239
294 240
294 241
295 241
296 242
297 243
298 244
299 245
300 246
301 247
302 248
303 249
304 250
305 251
306 252
305 253
304 254
303 254
302 255
301 255
300 255
299 255
298 255
297 255
296 255
295 255
294 255
293 255
292 255
291 255
290 255
289 255
288 255
287 255
286 255
285 254
284 254
283 254
282 253
281 253
280 253
279 252
278 252
277 252
276 252
275 251
274 251
273 251
272 251
271 250
270 250
269 250
268 250
267 249
266 249
265 249
264 249
263 248
262 248
261 248
260 247
259 247
258 247
257 246
256 246
255 245
254 245
253 245
252 244
251 244
250 244
249 243
248 243
247 243
246 243
245 242
244 242
243 242
242 242
241 241
240 241
239 241
238 241
237 240
236 240
235 240
234 240
233 239
232 239
231 239
230 239
229 239
228 238
227 238
226 238
225 238
224 238
223 238
222 237
221 237
220 237
219 236
218 236
217 236
216 236
215 235
214 235
213 235
212 234
211 234
210 234
209 233
208 233
207 233
206 233
205 232
204 232
203 231
202 231
201 231
200 231
199 231
198 231
197 230
196 230
195 230
194 230
193 230
192 229
191 229
190 229
189 229
188 229
187 228
186 228
185 228
184 228
183 227
182 227
181 226
180 226
179 227
178 227
177 227
176 227
175 227
174 227
173 227
172 227
171 227
170 226
169 226
168 227
167 227
166 226
165 226
164 226
163 226
162 226
162 227
161 228
160 228
159 228
158 228
157 228
156 228
155 228
154 228
153 228
152 229
151 229
150 229
149 229
148 229
147 229
146 229
145 229
144 229
143 230
142 230
141 230
140 231
139 231
138 231
137 231
136 231
135 230
135 231
134 232
133 233
132 233
131 233
130 233
129 234
128 234
127 234
126 235
125 235
124 235
123 235
122 235
121 235
120 235
119 236
118 237
117 237
116 237
115 238
114 238
113 238
112 237
111 238
111 239
110 240
109 240
108 240
107 241
106 241
105 241
104 241
103 241
102 241
101 241
100 241
100 242
100 243
99 244
98 245
97 245
96 245
95 245
94 246
93 246
92 246
91 246
90 246
89 246
88 246
87 247
86 247
85 247
84 247
83 247
82 247
81 247
81 248
80 249
79 249
78 250
77 250
76 250
75 250
74 250
73 251
72 250
71 250
71 251
70 252
69 252
68 252
67 252
66 252
65 253
64 253
63 253
62 253
61 253
60 253
59 253
58 253
57 253
57 254
56 255
55 256
54 256
53 256
52 257
51 257
50 257
49 257
48 258
47 258
46 258
45 258
44 258
43 258
42 259
41 259
40 259
39 260
38 260
37 260
36 260
35 260
34 260
33 261
32 261
31 261
30 262
29 262
28 262
27 262
26 262
25 262
24 263
23 263
22 263
21 263
20 264
19 264
20 264
21 264
22 265
23 265
24 265
25 265
26 265
27 265
28 266
29 266
30 266
31 266
32 266
33 267
34 267
35 268
36 268
37 269
38 269
39 269
40 269
41 269
42 269
43 269
44 269
45 269
46 269
47 269
48 269
49 270
50 270
51 270
52 270
53 270
54 270
55 270
56 270
57 270
58 270
59 270
60 271
61 272
61 273
61 274
62 274
63 274
64 274
65 274
66 274
67 274
68 274
69 274
70 275
71 275
72 275
73 275
74 275
75 275
76 276
77 277
77 278
78 278
79 279
80 279
81 279
82 279
83 279
84 279
85 279
86 279
87 280
88 281
89 281
90 282
91 282
92 282
93 282
94 282
95 282
96 282
97 282
98 283
99 283
100 283
101 283
102 283
103 283
104 284
105 285
106 286
107 286
108 286
109 286
110 286
111 286
112 286
113 286
114 286
115 287
116 287
117 287
118 288
118 289
119 289
120 289
121 289
122 289
123 289
124 289
125 289
126 289
127 289
128 289
129 290
130 291
131 291
132 291
133 291
134 291
135 291
136 291
137 291
138 291
139 291
140 291
141 291
142 291
143 291
144 292
145 292
146 292
147 291
148 291
149 291
150 292
151 292
152 293
153 293
154 293
155 293
156 293
157 293
158 294
159 294
160 294
161 294
162 294
163 294
164 294
165 294
166 295
167 296
168 296
169 296
170 296
171 296
172 296
173 295
174 295
175 295
176 295
177 295
178 295
179 295
180 295
181 295
182 295
183 295
184 295
185 295
186 294
187 294
188 294
189 294
190 294
191 294
192 294
193 294
194 294
195 294
196 293
197 293
198 293
199 292
200 292
201 292
202 292
203 291
204 291
205 291
206 291
207 291
208 290
209 290
210 290
211 290
212 290
213 289
214 289
215 289
216 288
217 288
218 288
219 288
220 287
221 287
222 286
223 286
224 286
225 285
226 285
227 284
228 284
229 284
230 284
231 283
232 283
233 283
234 283
235 282
236 282
237 282
238 282
239 281
240 281
241 281
242 281
243 280
244 280
245 280
246 279
247 279
248 279
249 278
250 278
251 277
252 277
253 277
254 276
255 276
256 276
257 275
258 275
259 274
260 274
261 274
262 273
263 273
264 272
265 272
266 272
267 271
268 270
269 270
270 270
271 269
272 269
273 268
274 268
275 268
276 267
277 267
278 266
279 266
280 265
281 265
282 264
283 264
284 264
285 263
286 263
287 262
288 262
289 262
290 261
291 261
292 261
293 261
294 260
295 260
296 260
297 260
298 260
299 260
300 260
301 260
302 259
303 259
304 260
304 261
303 262
302 263
301 264
300 265
299 265
298 266
297 267
296 268
295 269
294 269
293 270
292 271
291 272
290 273
289 273
288 274
287 275
286 276
285 277
284 278
283 278
282 279
281 280
280 281
280 282
279 283
278 284
277 285
276 286
275 287
274 288
273 289
272 290
271 291
270 292
269 293
268 294
267 295
266 296
265 297
264 298
264 299
263 300
262 301
261 302
260 303
259 304
258 305
257 306
257 307
256 308
255 309
254 310
253 311
253 312
252 313
251 314
251 315
250 316
249 317
249 318
248 319
247 320
247 321
247 322
247 323
247 324
246 325
246 326
245 327
245 328
245 329
244 330
244 331
243 332
242 333
242 334
241 335
241 336
240 337
240 338
239 339
238 340
238 341
237 342
237 343
236 344
235 345
236 346
236 347
235 348
235 349
234 350
234 351
233 352
233 353
232 354
232 355
232 356
232 357
232 358
231 359
231 360
230 361
230 362
229 363
229 364
229 365
228 366
228 367
227 368
227 369
227 370
227 371
228 372
228 373
228 374
228 375
228 376
228 377
227 378
227 379
227 380
226 381
226 382
226 383
225 384
225 385
225 386
224 387
224 388
224 389
223 390
223 391
224 392
224 393
224 394
224 395
224 396
224 397
224 398
224 399
224 400
224 401
223 402
223 403
223 404
223 405
222 406
222 407
222 408
222 409
222 410
221 411
221 412
221 413
222 414
222 415
222 416
223 417
223 418
222 419
222 420
222 421
222 422
222 423
222 424
222 425
222 426
222 427
222 428
222 429
222 430
222 431
222 432
221 433
221 434
221 435
221 436
221 437
221 438
222 439
222 440
222 441
222 442
222 443
221 444
221 445
221 446
221 447
221 448
220 449
220 450
220 451
220 452
220 453
219 454
219 455
219 456
219 457
219 458
219 459
219 460
219 461
219 462
219 463
218 464
218 465
219 465
220 466
220 467
220 468
220 469
219 470
219 471
219 472
219 473
219 474
219 475
219 476
219 477
219 478
219 479
218 480
218 481
218 482
217 483
217 484
217 485
217 486
217 487
217 488
217 489
217 490
218 490
219 489
220 488
220 487
221 486
221 485
222 484
223 483
224 482
225 482
225 481
226 480
227 479
227 478
227 477
228 476
228 475
229 474
230 473
231 472
231 471
232 470
232 469
233 468
233 467
234 466
234 465
235 464
236 463
237 463
238 463
239 464
240 464
241 463
241 462
241 461
242 460
242 459
243 458
243 457
244 456
244 455
245 454
246 453
246 452
247 451
248 450
249 449
250 448
251 449
252 450
253 449
253 448
254 447
254 446
255 445
255 444
256 443
256 442
257 441
257 440
258 439
259 438
259 437
260 436
261 436
261 435
262 434
263 433
264 432
264 431
264 430
264 429
264 428
265 427
265 426
266 425
266 424
267 423
267 422
268 421
268 420
269 419
270 418
270 417
271 416
271 415
271 414
272 413
273 412
274 411
275 410
276 409
276 408
276 407
277 406
277 405
277 404
278 403
278 402
278 401
279 400
280 399
280 398
281 397
282 396
282 395
283 394
283 393
284 392
284 391
285 390
285 389
286 388
287 387
287 386
287 385
287 384
287 383
288 382
288 381
288 380
289 379
290 378
290 377
290 376
291 375
291 374
292 373
292 372
292 371
293 370
294 369
295 368
295 367
296 366
296 365
297 364
297 363
298 362
298 361
298 360
298 359
298 358
299 357
299 356
299 355
299 354
300 353
300 352
300 351
301 350
301 349
301 348
302 347
302 346
303 345
303 344
303 343
304 342
304 341
304 340
305 339
305 338
305 337
306 336
306 335
307 334
307 333
307 332
308 331
308 330
308 329
308 328
308 327
309 326
309 325
309 324
309 323
309 322
310 321
310 320
310 319
310 318
311 317
311 316
311 315
311 314
311 313
312 312
312 311
312 310
312 309
312 308
312 307
312 306
312 305
313 304
313 303
313 302
313 301
313 300
313 299
313 298
313 297
313 296
313 295
313 294
313 293
313 292
313 291
313 290
313 289
313 288
313 287
313 286
313 285
313 284
313 283
313 282
313 281
313 280
313 279
313 278
313 277
313 276
312 275
312 274
312 273
312 272
312 271
312 270
312 269
312 268
312 267
312 266
312 265
311 264
311 263
311 262
312 261
313 260
314 260
315 260
316 260
317 260
318 260
319 260
320 260
321 260
322 260
323 260
324 260
325 260
326 260
327 261
328 261
329 261
330 261
331 261
332 261
333 261
334 261
335 261
336 261
337 262
338 262
339 262
340 262
341 262
342 262
343 262
344 263
345 263
346 263
347 263
348 263
349 263
350 263
351 263
352 263
353 264
354 264
355 264
356 264
357 264
358 264
359 264
360 264
361 264
362 264
363 264
364 264
365 264
366 265
367 265
368 265
369 265
370 265
371 265
372 265
373 265
374 265
375 265
376 265
377 265
378 265
379 265
380 265
381 265
382 265
383 265
384 265
385 265
386 266
387 266
388 266
389 266
390 266
391 266
392 266
393 266
394 266
395 266
396 266
397 266
398 266
399 266
400 267
400 268
400 269
400 270
399 271
399 272
398 273
398 274
397 275
396 276
396 277
395 278
395 279
394 280
393 281
392 282
392 283
391 284
391 285
390 286
389 287
389 288
388 289
388 290
387 291
386 292
386 293
385 294
384 295
384 296
383 297
383 298
382 299
382 300
381 301
380 302
380 303
379 304
378 305
378 306
377 307
377 308
377 309
376 310
376 311
375 312
375 313
375 314
374 315
374 316
374 317
373 318
373 319
373 320
372 321
372 322
372 323
371 324
371 325
371 326
370 327
370 328
369 329
370 330
370 331
370 332
369 333
369 334
369 335
369 336
369 337
369 338
368 339
368 340
368 341
368 342
368 343
368 344
368 345
368 346
367 347
367 348
367 349
368 350
368 351
368 352
368 353
368 354
368 355
368 356
368 357
368 358
368 359
367 360
367 361
367 362
367 363
368 363
369 364
369 365
369 366
369 367
369 368
369 369
369 370
369 371
369 372
369 373
369 374
370 375
370 376
370 377
370 378
370 379
370 380
370 381
370 382
370 383
370 384
369 385
369 386
369 387
370 387
371 388
371 389
371 390
372 391
372 392
372 393
372 394
372 395
372 396
372 397
372 398
372 399
372 400
372 401
373 401
374 402
374 403
374 404
375 405
375 406
375 407
375 408
376 409
376 410
376 411
376 412
376 413
376 414
376 415
376 416
376 417
376 418
376 419
376 420
376 421
377 421
378 422
378 423
378 424
379 425
379 426
379 427
379 428
379 429
379 430
380 431
380 432
380 433
380 434
381 434
382 435
382 436
383 437
383 438
384 439
384 440
384 441
384 442
384 443
384 444
384 445
384 446
384 447
384 448
384 449
384 450
384 451
384 452
384 453
384 454
385 454
386 455
386 456
386 457
386 458
387 459
387 460
387 461
387 462
387 463
387 464
388 464
389 465
389 466
389 467
390 468
390 469
390 470
391 471
391 472
391 473
391 474
391 475
391 476
390 477
390 478
390 479
390 480
390 481
390 482
391 482
392 481
393 482
394 482
395 483
395 484
396 485
396 486
396 487
396 488
396 489
396 490
397 491
397 492
397 493
397 494
397 495
397 496
398 497
399 498
399 499
399 500
399 501
400 502
400 503
400 504
401 505
401 506
402 507
402 508
403 509
403 510
404 511
405 511
405 510
406 509
406 508
406 507
406 506
406 505
406 504
406 503
406 502
407 501
407 500
407 499
407 498
407 497
407 496
407 495
407 494
407 493
407 492
407 491
407 490
407 489
407 488
408 487
408 486
408 485
409 484
409 483
409 482
410 481
411 481
412 481
412 480
412 479
412 478
412 477
412 476
412 475
412 474
412 473
413 472
413 471
413 470
414 469
415 468
415 467
415 466
415 465
415 464
415 463
416 462
416 461
417 460
417 459
418 458
419 458
420 457
421 456
421 455
421 454
421 453
421 452
421 451
421 450
421 449
422 448
422 447
422 446
422 445
422 444
422 443
423 442
424 442
424 441
425 440
426 441
427 442
427 443
428 442
429 443
429 444
429 445
429 446
429 447
428 448
428 449
427 450
427 451
427 452
426 453
427 454
427 455
427 456
427 457
427 458
427 459
427 460
427 461
427 462
427 463
426 464
426 465
427 466
427 467
428 467
428 466
429 465
430 464
431 463
431 462
432 461
433 460
433 459
434 458
435 457
435 456
436 455
437 454
438 453
439 452
440 452
441 452
442 451
443 450
443 449
444 448
444 447
445 446
446 445
447 444
448 443
449 442
450 442
451 442
451 441
452 440
452 439
453 438
453 437
454 436
454 435
455 434
456 433
457 432
457 431
458 430
459 429
460 428
460 427
461 426
462 425
463 424
464 423
465 423
466 423
466 422
467 421
467 420
467 419
468 418
468 417
469 416
469 415
470 414
471 413
472 413
472 412
472 411
473 410
473 409
474 408
474 407
475 406
475 405
476 404
477 403
477 402
478 401
479 400
480 400
481 401
482 401
483 400
483 399
483 398
483 397
484 396
484 395
484 394
485 393
485 392
486 391
486 390
486 389
487 388
488 387
488 386
489 385
490 384
491 383
491 382
491 381
492 380
492 379
492 378
493 377
493 376
494 375
494 374
494 373
495 372
496 371
497 370
497 369
497 368
497 367
497 366
497 365
498 364
498 363
498 362
498 361
499 360
499 359
499 358
500 357
500 356
500 355
500 354
500 353
501 352
501 351
501 350
501 349
501 348
501 347
502 346
502 345
502 344
502 343
503 342
504 341
504 340
504 339
504 338
504 337
504 336
504 335
504 334
504 333
504 332
504 331
504 330
504 329
503 328
503 327
503 326
503 325
503 324
503 323
503 322
503 321
503 320
503 319
502 318
502 317
502 316
502 315
502 314
502 313
502 312
502 311
501 310
501 309
501 308
501 307
500 306
500 305
500 304
500 303
500 302
499 301
499 300
499 299
499 298
498 297
498 296
498 295
498 294
498 293
497 292
497 291
497 290
497 289
496 288
496 287
496 286
495 285
495 284
495 283
494 282
494 281
493 280
493 279
493 278
492 277
492 276
492 275
491 274
491 273
491 272
491 271
490 270
491 269
492 268
493 268
494 268
495 268
496 267
497 267
498 267
499 267
500 267
501 267
502 267
503 267
504 267
505 267
506 267
507 267
508 267
509 267
510 267
511 267
512 267
513 267
514 267
515 267
516 267
517 267
518 267
519 267
520 267
521 267
522 267
523 267
524 267
525 267
526 267
527 267
528 267
529 267
530 267
531 267
532 267
533 267
534 267
535 267
536 267
537 267
538 267
539 267
540 267
541 267
542 267
543 267
544 267
545 267
546 267
547 267
548 267
549 267
550 267
551 267
552 267
553 267
554 267
555 267
556 267
557 267
558 267
559 267
560 267
561 268
561 269
561 270
560 271
559 272
558 273
558 274
557 275
556 276
555 277
554 278
554 279
553 280
552 281
551 282
550 283
549 284
548 285
547 286
546 287
545 288
544 289
543 290
543 291
542 292
541 293
540 294
540 295
539 296
538 297
537 298
536 299
535 300
535 301
534 302
533 303
532 304
531 305
530 306
530 307
530 308
529 309
529 310
528 311
528 312
528 313
527 314
527 315
527 316
526 317
526 318
525 319
525 320
525 321
525 322
525 323
525 324
525 325
524 326
524 327
524 328
523 329
523 330
523 331
523 332
523 333
523 334
523 335
523 336
523 337
522 338
522 339
522 340
522 341
522 342
522 343
523 342
524 343
524 344
524 345
524 346
524 347
524 348
524 349
523 350
523 351
523 352
523 353
523 354
523 355
523 356
522 357
522 358
522 359
523 359
524 360
524 361
524 362
524 363
524 364
524 365
524 366
524 367
524 368
524 369
524 370
524 371
524 372
524 373
524 374
524 375
524 376
524 377
524 378
524 379
524 380
524 381
524 382
524 383
524 384
525 385
525 386
525 387
525 388
525 389
525 390
525 391
525 392
526 393
526 394
525 395
525 396
525 397
525 398
525 399
525 400
525 401
525 402
525 403
525 404
525 405
525 406
525 407
525 408
525 409
525 410
525 411
525 412
525 413
525 414
524 415
524 416
524 417
524 418
524 419
524 420
524 421
524 422
525 421
526 421
527 420
528 419
528 418
529 417
530 416
531 415
532 414
533 413
534 412
535 412
535 411
536 410
536 409
537 408
538 407
538 406
539 405
540 404
540 403
541 402
541 401
542 400
543 400
544 399
545 400
546 400
547 399
548 398
548 397
548 396
549 395
549 394
550 393
550 392
551 391
552 390
552 389
553 388
553 387
554 386
555 385
556 384
557 383
558 382
559 382
559 381
559 380
560 379
560 378
560 377
561 376
561 375
561 374
561 373
562 372
562 371
563 370
563 369
564 368
565 367
565 366
565 365
566 364
566 363
567 362
568 361
569 360
570 360
570 359
570 358
571 357
571 356
571 355
572 354
572 353
572 352
573 351
574 350
574 349
574 348
574 347
575 346
575 345
575 344
576 343
576 342
576 341
577 340
578 339
579 339
579 338
579 337
579 336
579 335
579 334
579 333
579 332
579 331
580 330
580 329
580 328
580 327
580 326
580 325
580 324
580 323
580 322
580 321
580 320
580 319
580 318
580 317
580 316
580 315
579 314
579 313
579 312
579 311
578 310
578 309
578 308
577 307
577 306
577 305
576 304
576 303
576 302
575 301
575 300
574 299
574 298
574 297
573 296
573 295
572 294
572 293
571 292
571 291
570 290
570 289
569 288
569 287
569 286
568 285
568 284
568 283
567 282
567 281
567 280
566 279
566 278
566 277
566 276
566 275
566 274
566 273
566 272
566 271
566 270
567 269
568 268
569 268
570 268
571 267
572 267
573 267
574 267
575 267
576 267
577 267
578 267
579 267
580 267
581 266
582 266
583 266
584 266
585 266
586 266
587 266
588 266
589 266
590 266
591 266
592 266
593 266
594 266
595 266
596 266
597 266
598 266
599 266
600 266
601 265
602 265
603 265
604 265
605 265
606 265
607 265
608 265
609 265
610 265
611 265
612 265
613 265
614 265
615 265
616 265
617 264
618 264
619 264
620 264
621 264
622 264
623 264
624 264
625 264
626 264
627 264
628 264
629 264
630 263
631 263
632 263
633 263
634 263
635 263
636 263
637 263
638 263
639 263
640 263
641 263
642 263
643 262
644 262
645 262
646 262
647 262
648 262
649 262
650 262
651 262
652 262
653 262
654 261
655 261
656 261
657 261
658 261
659 261
660 261
661 261
662 261
663 261
664 261
665 261
666 261
667 261
668 261
669 260
670 260
671 260
672 260
673 260
674 260
675 260
676 260
677 260
678 260
679 260
680 260
681 259
682 259
683 259
684 259
685 259
686 259
687 259
688 259
689 258
690 258
691 258
692 258
693 258
694 258
695 258
696 257
697 257
698 257
699 257
700 257
701 257
702 257
703 257
704 257
705 257
706 257
707 256
708 256
709 256
710 256
711 256
712 256
713 256
714 256
715 256
716 256
717 255
718 255
719 255
720 255
721 255
722 255
723 254
724 254
725 253
726 252
727 251
727 250
726 249
726 248
726 247
726 246
726 245
726 244
726 243
725 243
724 243
723 243
722 244
721 244
720 244
719 244
718 245
717 245
716 245
715 246
714 246
713 246
712 247
711 247
710 248
709 248
708 248
707 248
706 249
705 249
704 249
703 250
702 250
701 250
700 250
699 250
698 251
697 251
696 251
695 251
694 251
693 251
692 251
691 251
690 252
689 252
688 252
687 252
686 252
685 252
684 252
683 252
682 253
681 253
680 253
679 253
678 253
677 253
676 253
675 253
674 253
673 254
672 254
671 254
670 254
669 254
668 254
667 254
666 254
665 254
664 254
663 255
662 255
661 255
660 255
659 255
658 255
657 255
656 255
655 255
654 255
653 256
652 256
651 256
650 256
649 256
648 256
647 256
646 256
645 256
644 256
643 257
642 257
641 257
640 257
639 257
638 257
637 257
636 257
635 257
634 257
633 258
632 258
631 258
630 258
629 258
628 258
627 258
626 258
625 258
624 259
623 259
622 259
621 259
620 259
619 259
618 259
617 259
616 259
615 259
614 259
613 260
612 260
611 260
610 260
609 260
608 260
607 260
606 260
605 260
604 260
603 260
602 260
601 261
600 261
599 261
598 261
597 261
596 261
595 261
594 261
593 261
592 261
591 261
590 261
589 261
588 261
587 261
586 261
585 261
584 261
583 261
582 261
581 261
580 261
579 261
578 261
577 261
576 261
575 261
574 261
573 261
572 260
571 260
570 259
569 258
568 257
568 256
568 255
568 254
568 253
568 252
568 251
569 250
569 249
569 248
569 247
570 246
570 245
570 244
570 243
571 242
571 241
571 240
572 239
572 238
572 237
572 236
573 235
573 234
573 233
573 232
573 231
573 230
574 229
574 228
574 227
574 226
574 225
574 224
574 223
574 222
574 221
574 220
574 219
574 218
574 217
574 216
574 215
573 214
573 213
573 212
573 211
573 210
573 209
573 208
573 207
573 206
572 205
572 204
571 203
571 202
571 201
570 200
570 199
570 198
569 197
569 196
569 195
568 194
568 193
567 192
567 191
566 191
565 190
564 189
564 188
563 187
562 186
561 185
561 184
560 183
559 182
559 181
558 180
557 179
557 178
556 177
555 177
554 176
553 176
552 175
552 174
551 173
550 172
549 171
548 171
547 170
546 169
545 168
544 167
544 166
543 165
542 164
541 163
540 162
539 161
538 161
537 160
537 159
536 158
535 157
534 156
533 155
532 154
531 153
530 152
529 151
529 152
529 153
529 154
529 155
529 156
530 157
530 158
530 159
530 160
530 161
530 162
530 163
530 164
530 165
531 166
531 167
531 168
531 169
531 170
531 171
531 172
532 173
532 174
532 175
532 176
532 177
532 178
532 179
532 180
532 181
532 182
532 183
532 184
532 185
532 186
532 187
532 188
531 189
531 190
531 191
531 192
531 193
531 194
531 195
531 196
531 197
531 198
531 199
531 200
531 201
531 202
531 203
531 204
531 205
531 206
531 207
531 208
531 209
531 210
531 211
531 212
531 213
532 214
532 215
532 216
533 217
533 218
533 219
533 220
533 221
534 222
534 223
535 224
536 225
536 226
537 227
537 228
537 229
538 230
538 231
539 232
540 233
540 234
541 235
542 236
543 237
543 238
544 239
545 240
545 241
546 241
547 242
548 243
549 244
550 244
551 245
551 246
552 246
553 247
554 248
554 249
555 249
556 250
557 251
558 252
559 253
560 254
561 255
562 256
563 256
564 257
564 258
565 259
565 260
564 261
563 261
562 261
561 261
560 262
559 262
558 262
557 262
556 262
555 262
554 262
553 262
552 262
551 262
550 262
549 262
548 262
547 262
546 262
545 262
544 262
543 262
542 262
541 262
540 262
539 262
538 262
537 262
536 262
535 262
534 262
533 262
532 262
531 262
530 262
529 262
528 262
527 262
526 262
525 262
524 262
523 262
522 262
521 262
520 262
519 262
518 262
517 262
516 262
515 262
514 262
513 262
512 262
511 262
510 262
509 262
508 262
507 262
506 262
505 262
504 262
503 262
502 262
501 262
500 262
499 261
498 261
497 261
496 261
495 261
494 261
493 260
492 259
492 258
492 257
492 256
492 255
492 254
492 253
492 252
493 251
493 250
493 249
493 248
493 247
493 246
494 245
494 244
494 243
494 242
495 241
495 240
495 239
495 238
496 237
496 236
496 235
496 234
496 233
496 232
496 231
496 230
496 229
496 228
496 227
497 226
497 225
497 224
497 223
497 222
497 221
497 220
497 219
497 218
497 217
497 216
497 215
497 214
497 213
496 212
496 211
496 210
496 209
496 208
496 207
496 206
495 205
495 204
495 203
495 202
495 201
495 200
495 199
494 198
494 197
494 196
494 195
493 194
493 193
493 192
493 191
493 190
493 189
492 188
492 187
492 186
492 185
491 184
491 183
491 182
490 181
489 180
489 179
489 178
489 177
488 176
488 175
488 174
488 173
487 172
487 171
486 170
485 169
485 168
484 167
484 166
484 165
483 164
483 163
482 162
481 161
481 160
480 159
480 158
479 157
478 156
478 155
477 155
476 155
475 154
475 153
474 152
474 151
473 150
473 149
472 148
472 147
471 147
470 148
469 147
468 146
468 145
467 144
466 143
466 142
465 141
464 140
464 139
463 138
463 137
462 137
461 137
460 137
459 136
458 135
458 134
457 133
456 132
456 131
455 130
454 129
453 128
453 127
452 126
451 125
450 124
449 124
448 124
447 123
446 122
445 121
444 120
444 119
443 118
442 117
442 116
441 115
441 114
440 113
439 114
438 114
437 113
436 112
435 111
434 110
433 109
432 108
432 107
431 106
430 105
430 104
429 104
428 104
427 103
426 103
425 102
424 101
423 100
422 99
421 98
420 97
419 96
418 95
417 94
416 93
415 92
415 93
415 94
415 95
415 96
416 97
416 98
416 99
416 100
417 101
417 102
417 103
417 104
418 105
418 106
418 107
418 108
419 109
419 110
419 111
419 112
420 113
420 114
420 115
420 116
420 117
420 118
420 119
420 120
419 121
419 122
419 123
419 124
419 125
419 126
420 127
420 128
420 129
421 130
421 131
421 132
421 133
421 134
421 135
422 136
422 137
423 138
423 139
423 140
423 141
423 142
423 143
423 144
424 145
425 146
425 147
426 148
426 149
426 150
426 151
426 152
426 153
427 154
427 155
427 156
427 157
427 158
428 159
428 160
428 161
429 162
429 163
429 164
428 165
427 165
427 166
428 167
428 168
428 169
428 170
429 171
429 172
430 173
430 174
431 175
431 176
431 177
431 178
431 179
432 180
432 181
432 182
433 183
433 184
433 185
434 186
434 187
435 188
435 189
434 190
434 191
434 192
435 193
435 194
436 195
436 196
437 197
437 198
438 199
438 200
439 201
439 202
440 203
440 204
441 205
441 206
441 207
442 208
443 209
443 210
444 211
444 212
445 213
446 214
446 215
447 216
448 217
448 218
449 219
449 220
450 221
450 222
451 223
452 224
452 225
453 226
454 227
454 228
455 229
456 230
457 231
458 232
458 233
459 234
460 235
461 236
462 237
463 238
464 239
465 239
466 240
467 241
468 242
469 243
470 244
471 245
472 246
473 246
474 247
474 248
475 249
476 249
477 250
478 251
479 252
480 252
481 253
482 254
483 255
484 255
485 256
486 257
486 258
487 259
487 260
486 261
485 261
484 261
483 261
482 261
481 261
480 261
479 261
478 261
477 261
476 261
475 261
474 261
473 261
472 261
471 261
470 261
469 260
468 260
467 260
466 260
465 260
464 260
463 260
462 260
461 260
460 260
459 260
458 260
457 260
456 260
455 260
454 260
453 260
452 259
451 259
450 259
449 259
448 259
447 259
446 259
445 259
444 259
443 259
442 259
441 259
440 259
439 259
438 259
437 259
436 260
435 260
434 260
433 260
432 260
431 260
430 260
429 260
428 260
427 260
426 260
425 260
424 260
423 260
422 260
421 260
420 260
419 260
418 260
417 260
416 261
415 261
414 261
413 261
412 261
411 261
410 261
409 260
408 260
407 260
406 260
405 259
405 258
404 257
404 256
404 255
404 254
404 253
404 252
404 251
404 250
404 249
404 248
404 247
404 246
404 245
404 244
404 243
404 242
404 241
404 240
404 239
404 238
404 237
404 236
404 235
405 234
405 233
405 232
405 231
405 230
405 229
405 228
405 227
406 226
406 225
406 224
406 223
406 222
406 221
406 220
406 219
406 218
406 217
406 216
406 215
406 214
406 213
406 212
406 211
406 210
406 209
406 208
406 207
406 206
406 205
406 204
406 203
406 202
406 201
406 200
406 199
406 198
406 197
406 196
406 195
406 194
406 193
405 192
405 191
405 190
405 189
405 188
405 187
405 186
404 185
404 184
404 183
404 182
403 181
403 180
403 179
403 178
403 177
403 176
402 176
401 175
401 174
401 173
400 172
400 171
400 170
399 169
399 168
399 167
398 166
398 165
398 164
398 163
397 162
397 161
396 160
396 159
395 158
395 157
395 156
394 155
394 154
393 153
393 152
392 151
392 150
391 150
390 149
389 148
389 147
388 146
388 145
387 144
387 143
387 142
386 141
386 140
385 139
385 138
384 137
384 136
383 135
383 134
383 133
382 132
382 131
381 131
380 130
379 129
379 128
379 127
378 126
378 125
378 124
377 123
377 122
376 121
376 120
375 119
375 118
375 117
374 116
374 115
373 115
372 115
371 114
371 113
370 112
370 111
369 110
369 109
368 108
368 107
367 106
367 105
366 104
365 103
365 102
365 101
364 100
364 99
364 98
363 97
363 96
363 95
363 94
362 94
361 94
360 93
360 92
360 91
359 90
359 89
358 88
358 87
357 86
357 85
356 84
356 83
355 82
355 81
354 80
354 79
354 78
353 77
353 76
353 75
353 74
352 73
351 74
350 74
349 73
348 72
348 71
347 70
346 69
346 68
345 67
345 66
345 65
344 64
344 63
344 62
343 62
342 63
341 62
340 61
340 60
339 59
339 58
338 57
338 56
337 55
337 54
336 53
336 52
335 51
335 50
335 49
334 48
334 47
333 48
332 47
332 46
331 45
331 44
330 43
330 42
329 41
329 40
328 39
328 38
327 37
326 36
325 35
325 36
325 37
325 38
325 39
325 40
325 41
325 42
325 43
325 44
325 45
325 46
325 47
326 48
326 49
326 50
326 51
325 52
324 53
325 54
325 55
325 56
325 57
325 58
325 59
325 60
325 61
325 62
325 63
325 64
326 65
325 66
324 66
324 67
324 68
325 69
325 70
325 71
325 72
325 73
325 74
325 75
325 76
325 77
325 78
325 79
325 80
325 81
325 82
324 83
324 84
324 85
325 86
325 87
326 88
326 89
326 90
326 91
326 92
326 93
327 94
327 95
327 96
328 97
328 98
328 99
328 100
328 101
328 102
327 103
326 102
325 103
326 104
326 105
326 106
326 107
326 108
326 109
326 110
326 111
326 112
326 113
326 114
327 115
327 116
327 117
328 118
328 119
329 120
329 121
329 122
329 123
329 124
329 125
328 126
327 126
328 127
328 128
328 129
328 130
329 131
329 132
329 133
330 134
330 135
330 136
330 137
330 138
330 139
331 140
331 141
332 142
332 143
332 144
332 145
333 146
333 147
332 148
331 148
331 149
332 150
332 151
332 152
333 153
333 154
333 155
334 156
334 157
334 158
334 159
334 160
334 161
334 162
334 163
335 164
335 165
334 166
334 167
334 168
334 169
335 170
335 171
336 172
336 173
337 174
337 175
337 176
338 177
338 178
338 179
338 180
338 181
338 182
339 183
339 184
340 185
340 186
340 187
340 188
340 189
340 190
340 191
341 192
341 193
341 194
342 195
342 196
342 197
343 198
342 199
342 200
343 201
343 202
344 203
345 204
346 205
346 206
347 207
348 208
348 209
349 210
350 211
350 212
351 213
352 214
353 215
353 216
354 217
354 218
355 219
356 220
357 221
358 222
358 223
359 224
360 225
361 226
362 227
362 228
363 229
364 230
365 231
366 232
367 233
368 234
369 235
370 236
371 237
372 238
373 239
374 240
375 241
376 242
377 242
378 243
379 244
380 245
381 246
382 246
383 247
384 248
385 248
386 249
387 249
388 250
389 250
390 251
391 251
392 252
393 252
394 253
395 253
396 254
397 255
397 256
398 256
399 257
400 258
400 259
399 260
398 261
397 261
396 261
395 261
394 261
393 261
392 261
391 261
390 261
389 261
388 261
387 261
386 261
385 261
384 261
383 261
382 261
381 261
380 261
379 261
378 261
377 261
376 261
375 261
374 261
373 261
372 261
371 261
370 260
369 260
368 260
367 260
366 260
365 260
364 260
363 260
362 260
361 260
360 260
359 260
358 259
357 259
356 259
355 259
354 259
353 259
352 259
351 259
350 259
349 259
348 259
347 259
346 258
345 258
344 258
343 258
342 258
341 258
340 258
339 258
338 258
337 258
336 257
335 257
334 257
333 257
332 257
331 257
330 257
329 257
328 257
327 257
326 256
325 256
324 256
323 256
322 256
321 256
320 256
319 256
318 255
317 255
316 255
315 255
314 255
313 254
312 253
311 252
311 251
311 250
311 249
311 248
311 247
311 246
310 245
310 244
310 243
310 242
310 241
310 240
310 239
310 238
310 237
310 236
310 235
310 234
310 233
311 232
311 231
311 230
311 229
311 228
311 227
311 226
311 225
311 224
311 223
311 222
312 221
312 220
312 219
312 218
312 217
311 216
311 215
311 214
311 213
311 212
311 211
311 210
311 209
311 208
311 207
311 206
311 205
311 204
311 203
311 202
311 201
310 200
310 199
310 198
310 197
310 196
310 195
310 194
310 193
309 192
309 191
309 190
309 189
309 188
309 187
308 186
308 185
308 184
308 183
308 182
307 181
307 180
307 179
307 178
307 177
306 176
306 175
306 174
305 173
305 172
305 171
304 170
304 169
304 168
304 167
303 166
303 165
303 164
302 163
302 162
301 161
301 160
301 159
301 158
300 157
300 156
300 155
299 154
299 153
299 152
299 151
299 150
298 149
298 148
298 147
298 146
298 145
297 144
297 143
297 142
297 141
297 140
297 139
296 138
296 137
295 138
294 137
294 136
293 135
293 134
292 133
292 132
291 131
291 130
290 129
290 128
289 127
289 126
288 125
288 124
288 123
287 122
287 121
286 121
285 121
284 120
284 119
283 118
283 117
282 116
282 115
281 114
281 113
280 112
280 111
280 110
280 109
279 108
278 108
277 109
276 108
276 107
276 106
275 105
274 104
274 103
273 102
273 101
272 100
272 99
271 98
271 97
270 96
270 95
269 94
269 93
268 92
268 91
267 91
266 92
265 91
264 90
264 89
263 88
262 87
262 86
261 85
261 84
261 83
260 82
260 81
259 80
258 79
257 78
257 77
256 76
256 75
255 74
255 73
254 72
254 71
253 70
252 70
251 70
250 69
250 68
249 67
248 66
248 65
247 64
246 63
246 62
245 61
245 60
244 59
244 58
243 57
243 58
242 59
241 59
240 58
240 57
239 57
238 56
238 55
237 54
236 53
236 52
235 51
235 50
235 49
234 49
233 48
232 47
232 46
232 45
231 44
231 43
230 42
230 41
229 41
228 42
227 41
227 40
226 39
226 38
225 37
225 36
224 35
223 34
223 33
222 32
221 31
221 30
220 29
220 28
219 27
219 26
218 25
217 24
216 23
