283 43
282 44
281 44
280 44
279 44
278 44
277 44
276 44
275 45
274 45
273 45
272 45
271 45
270 45
269 45
268 45
267 45
266 45
265 45
264 45
263 45
262 45
261 45
260 45
259 45
258 45
257 45
256 45
255 45
254 45
253 45
252 45
251 45
250 45
249 45
248 45
247 46
246 46
245 46
244 46
243 46
242 46
241 46
240 46
239 46
238 46
237 46
236 46
235 46
234 46
233 46
232 46
231 46
230 46
229 46
228 46
227 46
226 46
225 46
224 46
223 46
222 46
221 46
220 46
219 46
218 47
217 47
216 47
215 47
214 47
213 47
212 48
211 48
210 48
209 48
208 48
207 48
206 48
205 48
204 48
203 48
202 49
201 49
200 49
199 49
198 49
197 49
196 49
195 50
194 50
193 50
192 50
191 51
190 51
189 51
188 51
187 51
186 51
185 51
184 52
183 52
182 52
181 52
180 52
179 53
178 53
177 53
176 53
175 54
174 54
173 55
172 55
171 55
170 56
169 56
168 57
167 57
166 58
165 59
164 59
163 59
162 60
161 60
160 61
159 61
158 62
157 62
156 63
155 64
154 64
153 65
152 66
151 66
150 67
149 68
148 68
147 69
146 69
145 70
144 71
143 71
142 72
141 72
140 73
139 74
138 75
137 75
136 76
135 76
134 77
133 78
132 79
131 79
130 80
129 81
128 82
127 83
126 84
125 84
124 85
123 86
122 87
121 88
120 89
120 90
119 91
118 92
117 93
116 94
115 95
114 96
114 97
113 98
112 99
111 100
111 101
110 102
109 103
108 104
108 105
107 106
106 107
105 108
105 109
104 110
104 111
103 112
102 113
102 114
101 115
101 116
100 117
100 118
99 119
99 120
98 121
98 122
97 123
96 124
96 125
95 126
95 127
94 128
93 129
93 130
93 131
92 132
91 133
91 134
90 135
90 136
89 137
89 138
88 139
88 140
87 141
87 142
86 143
86 144
85 145
85 146
84 147
84 148
83 149
82 150
82 151
81 152
81 153
81 154
80 155
80 156
79 157
79 158
78 159
78 160
77 161
77 162
76 163
76 164
76 165
75 166
75 167
75 168
74 169
74 170
74 171
73 172
73 173
73 174
72 175
72 176
72 177
71 178
71 179
71 180
70 181
70 182
70 183
69 184
69 185
69 186
68 187
68 188
68 189
68 190
67 191
67 192
67 193
66 194
66 195
66 196
65 197
65 198
65 199
65 200
65 201
64 202
64 203
64 204
64 205
63 206
63 207
63 208
63 209
62 210
62 211
62 212
62 213
62 214
61 215
61 216
61 217
61 218
61 219
61 220
61 221
61 222
61 223
61 224
61 225
61 226
61 227
61 228
61 229
61 230
61 231
61 232
60 233
60 234
60 235
60 236
60 237
60 238
60 239
60 240
60 241
60 242
60 243
60 244
60 245
61 246
61 247
61 248
61 249
61 250
61 251
61 252
61 253
61 254
61 255
62 256
62 257
62 258
62 259
62 260
62 261
63 262
63 263
63 264
63 265
63 266
64 267
64 268
64 269
64 270
65 271
65 272
65 273
66 274
66 275
66 276
67 277
67 278
68 279
68 280
68 281
68 282
69 283
69 284
69 285
70 286
70 287
70 288
71 289
71 290
72 291
72 292
72 293
72 294
73 295
73 296
74 297
74 298
74 299
74 300
75 301
75 302
76 303
76 304
76 305
77 306
77 307
78 308
78 309
79 310
79 311
80 312
80 313
81 314
81 315
82 316
82 317
83 318
84 319
84 320
85 321
85 322
86 323
86 324
87 325
88 326
89 327
89 328
90 329
90 330
91 331
92 332
93 333
93 334
94 335
95 336
96 337
96 338
97 339
98 340
99 341
100 342
101 343
102 344
103 345
104 346
105 347
106 347
107 348
108 349
109 350
110 350
111 351
112 352
113 353
114 353
115 354
116 354
117 355
118 356
119 356
120 357
121 357
122 358
123 358
124 359
125 359
126 359
127 360
128 361
129 362
130 362
131 363
132 363
133 364
134 364
135 365
136 366
137 366
138 367
139 367
140 368
141 368
142 369
143 370
144 370
145 371
146 371
147 372
148 373
149 373
150 374
151 374
152 375
153 375
154 376
155 376
156 377
157 377
158 378
159 378
160 379
161 379
162 380
163 380
164 380
165 381
166 381
167 381
168 381
169 382
170 382
171 382
172 383
173 383
174 383
175 384
176 384
177 384
178 384
179 384
180 385
181 385
182 385
183 385
184 386
185 386
186 386
187 387
188 387
189 387
190 388
191 388
192 388
193 389
194 389
195 389
196 389
197 390
198 390
199 390
200 390
201 391
202 391
203 391
204 391
205 391
206 392
207 392
208 392
209 392
210 392
211 392
212 392
213 392
214 393
215 393
216 393
217 393
218 393
219 393
220 394
221 394
222 394
223 394
224 394
225 394
226 394
227 395
228 395
229 395
230 395
231 395
232 395
233 395
234 395
235 395
236 395
237 395
238 395
239 395
240 395
241 395
242 395
243 395
244 395
245 395
246 395
247 395
248 395
249 395
250 395
251 395
252 395
253 395
254 395
255 394
256 394
257 394
258 394
259 394
260 394
261 394
262 394
263 394
264 393
265 393
266 393
267 393
268 393
269 393
270 393
271 393
272 393
273 393
274 393
275 392
276 392
277 392
278 392
279 392
280 391
281 391
282 391
283 391
284 391
285 390
286 390
287 390
288 390
289 390
290 390
291 389
292 389
293 389
294 389
295 389
296 389
297 388
298 388
299 388
300 388
301 388
302 387
303 387
304 387
305 387
306 387
307 387
308 386
309 386
310 386
311 386
312 386
313 386
314 386
315 386
316 386
317 385
318 385
319 385
320 385
321 385
322 385
323 384
324 384
325 384
326 384
327 384
328 383
329 383
330 383
331 383
332 383
333 383
334 383
335 383
336 382
337 382
338 382
339 382
340 382
341 382
342 381
343 381
344 381
345 381
346 381
347 380
348 380
349 380
350 380
351 380
352 379
353 379
354 379
355 379
356 378
357 378
358 378
359 378
360 378
361 377
362 377
363 377
364 377
365 377
366 376
367 376
368 376
369 376
370 375
371 375
372 375
373 374
374 374
375 374
376 374
377 373
378 373
379 373
380 372
381 372
382 372
383 371
384 371
385 370
386 370
387 370
388 369
389 369
390 369
391 369
392 368
393 368
394 368
395 367
396 367
397 367
398 366
399 366
400 365
401 365
402 364
403 364
404 364
405 364
406 363
407 363
408 363
409 362
410 362
411 362
412 361
413 361
414 361
415 360
416 360
417 360
418 359
419 359
420 359
421 359
422 358
423 358
424 358
425 357
426 357
427 357
428 356
429 356
430 356
431 355
432 355
433 355
434 354
435 354
436 353
437 353
438 353
439 352
440 352
441 352
442 351
443 351
444 351
445 350
446 350
447 350
448 349
449 349
450 348
451 348
452 347
453 347
454 347
455 346
456 346
457 346
458 345
459 345
460 345
461 344
462 344
463 344
464 343
465 343
466 342
467 342
468 341
469 341
470 341
471 340
472 340
473 339
474 339
475 339
476 338
477 338
478 337
479 337
480 337
481 336
482 336
483 335
484 335
485 334
486 334
487 334
488 333
489 333
490 333
491 332
492 332
493 331
494 331
495 331
496 330
497 330
498 329
499 329
500 329
501 328
502 328
503 327
504 326
505 326
506 325
507 325
508 324
509 324
510 323
511 323
512 322
513 322
514 321
515 321
516 320
517 320
518 320
519 319
520 318
521 318
522 317
523 317
524 316
525 315
526 315
527 314
528 314
529 313
530 313
531 312
532 312
533 312
534 311
535 311
536 310
537 310
538 309
539 309
540 308
541 307
542 307
543 306
544 306
545 305
546 304
547 304
548 303
549 303
550 303
551 302
552 302
553 301
554 301
555 300
556 300
557 299
558 299
559 298
560 298
561 297
562 297
563 296
564 296
565 295
566 295
567 294
568 294
569 293
570 293
571 292
572 292
573 291
574 290
575 290
576 290
577 289
578 288
579 288
580 287
581 287
582 286
583 285
584 285
585 284
586 284
587 283
588 283
589 282
590 282
591 281
592 280
593 279
594 279
595 278
596 278
597 277
598 276
599 276
600 276
601 275
602 274
603 274
604 273
605 272
606 272
607 271
608 270
609 270
610 269
611 268
612 268
613 267
614 267
615 266
616 265
617 265
618 264
619 263
620 262
621 262
622 261
623 261
624 260
625 259
626 259
627 258
628 258
629 257
630 256
631 256
632 256
633 255
634 254
635 254
636 253
637 253
638 253
639 252
640 252
641 251
642 251
643 250
644 250
645 250
646 249
647 249
648 248
649 248
650 248
651 247
652 247
653 246
654 246
655 246
656 246
657 245
658 245
659 245
660 245
661 245
662 244
663 244
664 244
665 244
666 244
667 243
668 243
669 243
670 243
671 243
672 243
673 243
674 243
675 242
676 242
677 242
678 242
679 242
680 242
681 242
682 242
683 242
684 241
685 241
686 241
687 241
688 241
689 241
690 241
691 241
692 241
693 241
694 240
695 240
696 240
697 240
698 240
699 239
700 239
701 238
702 238
703 237
704 236
705 235
706 234
707 234
708 233
709 232
710 231
711 231
712 230
712 229
712 228
712 227
712 226
712 225
711 224
711 223
710 222
709 221
708 221
707 220
706 220
705 219
704 219
703 218
702 218
701 218
700 217
699 218
698 218
697 218
696 217
695 217
694 217
693 217
692 217
691 217
690 217
689 217
688 217
687 217
686 217
685 217
684 217
683 217
682 217
681 217
680 217
679 217
678 217
677 217
676 217
675 217
674 217
673 217
672 216
671 216
670 216
669 216
668 216
667 216
666 216
665 216
664 215
663 215
662 215
661 215
660 214
659 214
658 214
657 214
656 213
655 213
654 213
653 212
652 212
651 211
650 211
649 210
648 210
647 209
646 209
645 208
644 207
643 207
642 206
641 205
640 204
639 204
638 203
637 203
636 202
635 201
634 201
633 200
632 199
631 199
630 198
629 197
628 197
627 196
626 196
625 195
624 195
623 194
622 193
621 192
620 192
619 191
618 190
617 190
616 189
615 189
614 188
613 187
612 187
611 186
610 186
609 185
608 185
607 184
606 183
605 183
604 183
603 182
602 181
601 180
600 180
599 180
598 179
597 179
596 178
595 178
594 177
593 177
592 176
591 175
590 175
589 175
588 174
587 173
587 172
586 172
585 171
584 170
583 170
582 170
581 170
580 169
579 168
578 167
577 166
576 166
575 166
574 165
573 165
572 164
571 164
570 163
569 162
568 162
567 161
566 160
565 160
564 160
563 159
562 159
561 158
560 157
559 157
558 156
557 155
556 154
555 154
554 153
553 153
552 152
551 151
550 151
549 150
548 149
547 148
546 148
545 148
544 147
543 147
542 146
541 145
540 145
539 144
538 144
537 143
536 143
535 142
534 142
533 142
532 141
531 140
530 139
529 139
528 139
527 139
526 139
525 138
524 137
523 137
522 136
521 136
520 135
519 135
518 134
517 133
516 132
515 132
514 132
513 131
512 130
511 129
510 129
509 129
508 128
507 127
506 127
505 126
504 127
503 127
502 126
501 125
500 124
499 123
498 122
497 122
496 121
495 121
494 120
493 120
492 119
491 118
490 117
489 117
488 116
487 116
486 115
485 115
484 114
483 114
482 114
481 113
480 112
480 111
479 110
478 110
477 109
476 109
475 109
474 108
473 107
472 107
471 107
470 107
469 106
468 106
467 105
466 105
465 104
464 103
463 102
462 102
461 101
460 100
459 100
458 99
457 98
456 97
455 96
454 96
453 95
452 94
451 94
450 94
449 93
448 93
447 92
447 91
446 91
445 90
444 90
443 89
442 88
441 88
440 87
439 87
438 86
437 85
436 85
435 85
434 84
433 83
432 82
431 81
430 81
429 81
428 80
427 80
426 79
425 78
424 78
423 78
422 77
421 77
420 76
419 75
418 75
417 74
416 74
415 73
414 73
413 72
412 72
411 71
410 71
409 70
408 69
407 69
406 68
405 68
404 67
403 67
402 66
401 66
400 65
399 65
398 65
397 65
396 64
395 64
394 63
393 63
392 62
391 61
390 61
389 60
388 60
387 59
386 59
385 58
384 58
383 58
382 57
381 57
380 57
379 56
378 56
377 56
376 55
375 55
374 54
373 54
372 54
371 54
370 54
369 54
368 53
367 53
366 53
365 53
364 52
363 52
362 52
361 51
360 50
359 50
358 50
357 50
356 49
355 49
354 49
353 48
352 48
351 48
350 48
349 48
348 47
347 47
346 47
345 47
344 47
343 47
342 46
341 46
340 46
339 46
338 46
337 45
336 45
335 45
334 45
333 45
332 45
331 45
330 45
329 45
328 45
327 45
326 45
325 44
324 44
323 44
322 44
321 44
320 44
319 44
318 44
317 45
316 45
315 45
314 45
313 45
312 45
311 44
310 44
309 44
308 43
307 43
306 43
305 43
304 43
303 43
302 43
301 43
300 43
299 43
298 43
297 43
296 43
295 43
294 43
293 43
292 44
291 44
290 43
289 43
288 43
287 43
286 43
285 43
284 43
283 43
