422 40
422 41
422 42
422 43
422 44
422 45
422 46
421 47
420 46
419 46
418 45
417 45
416 45
415 44
414 44
413 44
412 43
411 43
410 42
409 42
408 42
407 42
406 41
405 41
404 41
403 41
402 41
402 42
402 43
403 44
402 45
402 46
402 47
402 48
402 49
402 50
402 51
401 52
400 52
399 51
398 51
397 50
396 50
395 50
394 49
393 49
392 49
391 48
390 49
389 48
388 48
387 48
386 48
385 48
384 47
383 47
382 47
381 47
380 47
381 48
380 49
379 49
378 48
379 49
379 50
378 51
378 52
378 53
379 54
379 55
379 56
378 57
377 57
376 57
375 56
374 56
373 55
372 54
371 54
370 53
369 53
368 52
367 52
366 52
365 51
364 51
363 51
362 52
361 52
360 51
361 50
360 51
360 52
361 53
360 54
361 55
361 56
361 57
362 58
361 59
360 59
359 58
358 57
357 57
356 56
355 56
354 56
353 55
352 55
351 55
350 55
349 55
348 56
347 56
346 55
347 56
347 57
347 58
346 59
345 58
344 58
343 58
342 58
341 57
340 57
339 57
338 58
337 57
336 57
335 57
334 57
333 57
332 57
333 58
333 59
334 60
334 61
334 62
335 63
334 64
334 65
335 66
334 67
333 67
332 66
331 65
330 65
329 64
328 64
327 63
326 63
325 63
324 63
323 62
322 62
321 62
320 62
319 63
318 63
317 63
316 63
317 63
318 64
317 65
317 66
318 67
318 68
319 69
318 70
317 70
316 70
315 70
314 69
313 69
312 69
311 69
310 69
309 69
308 69
307 69
306 68
305 68
304 68
303 68
302 67
301 67
300 67
300 68
299 69
298 69
297 68
297 67
297 68
297 69
297 70
298 70
299 71
298 72
298 73
298 74
299 75
299 76
299 77
300 78
301 79
302 79
303 80
302 81
301 82
300 81
299 80
298 80
297 79
296 79
295 78
294 78
293 78
292 78
291 78
290 78
289 78
288 78
287 78
286 77
285 77
284 78
283 78
282 77
281 77
280 77
279 77
279 78
280 79
281 80
281 81
281 82
282 83
282 84
281 85
280 85
279 85
278 85
277 85
276 85
275 85
274 86
273 87
274 88
274 89
273 90
272 89
271 89
270 89
269 89
268 89
267 89
266 90
265 90
264 90
263 90
262 90
261 90
260 90
260 91
261 92
261 93
262 94
262 95
262 96
263 97
263 98
262 99
261 99
260 99
259 98
258 98
257 98
256 98
255 98
254 98
253 98
252 98
251 98
250 97
249 97
248 97
248 98
249 98
250 99
250 100
249 101
248 101
247 101
246 101
245 101
244 101
243 101
242 101
241 102
240 102
239 103
238 103
237 104
236 105
237 105
238 106
237 107
238 108
238 109
238 110
239 111
240 112
239 113
238 113
237 113
236 113
235 113
234 113
233 113
232 113
231 114
230 114
229 114
228 114
227 114
226 115
225 115
224 115
223 115
222 115
221 115
220 116
219 116
218 116
217 117
218 118
218 119
219 120
220 121
221 122
222 123
221 124
220 124
219 124
218 124
217 124
216 124
215 124
214 124
213 124
212 125
211 124
210 124
209 124
208 124
207 124
206 125
205 126
204 125
205 126
205 127
206 128
207 129
207 130
206 131
205 130
204 130
203 130
202 130
201 131
200 131
199 132
198 132
197 132
196 132
195 133
194 134
193 134
193 135
194 135
195 136
194 137
193 137
192 137
191 136
191 135
190 136
191 136
192 137
193 138
193 139
194 140
194 141
195 142
196 143
196 144
195 145
194 145
193 145
192 146
191 146
190 147
189 148
188 148
187 149
186 149
185 150
184 150
183 150
182 151
181 151
180 152
180 153
180 154
181 155
181 156
182 157
183 158
183 159
184 160
184 161
185 162
186 162
187 163
186 164
185 164
184 164
183 164
182 165
181 165
180 165
179 165
178 165
177 166
176 166
175 166
174 166
173 167
172 167
171 167
170 168
170 169
169 170
169 171
170 172
170 173
171 174
172 174
173 175
173 176
172 177
171 177
170 177
169 177
168 177
167 178
166 178
165 179
164 179
163 179
162 180
161 180
160 180
159 181
158 181
157 182
158 183
158 184
159 185
159 186
160 187
161 188
161 189
162 190
163 191
164 192
165 193
164 194
163 194
162 194
161 194
160 194
159 194
158 195
157 195
156 195
155 195
154 195
153 196
152 196
151 197
150 197
149 198
148 199
147 199
146 200
147 201
147 202
146 203
147 204
148 205
149 206
150 207
151 208
150 209
149 210
148 210
147 211
146 211
146 212
145 213
144 213
143 213
142 214
143 215
143 216
144 217
143 218
142 218
141 219
140 219
139 220
138 221
137 221
136 221
135 222
134 223
133 224
134 224
135 225
134 226
133 226
132 226
133 227
134 228
134 229
134 230
135 231
136 232
136 233
137 234
138 235
137 236
136 236
135 237
134 237
133 238
132 238
131 238
130 239
129 240
128 240
127 241
126 241
125 242
124 243
123 244
122 244
121 245
122 246
122 247
121 248
120 248
121 249
121 250
121 251
122 252
123 253
124 254
124 255
123 256
122 257
121 257
120 257
119 257
118 258
117 258
116 259
115 259
114 260
113 260
112 261
111 262
110 263
109 263
109 264
108 265
107 266
106 266
105 267
104 268
103 269
103 270
103 271
102 272
102 273
103 272
104 273
104 274
103 275
104 275
105 275
106 276
107 277
106 278
105 278
104 279
103 279
102 280
101 280
100 281
99 281
98 281
97 282
97 283
96 284
95 284
95 285
94 286
94 287
94 288
93 289
92 289
91 289
90 289
89 289
88 290
87 290
86 290
85 291
84 291
83 292
82 292
81 292
80 292
79 292
78 293
77 293
76 293
75 294
74 294
73 294
72 294
71 294
70 295
69 295
68 295
67 295
66 295
65 295
64 296
63 296
62 296
61 297
60 297
59 297
58 297
57 297
56 297
55 297
54 298
53 297
52 297
51 297
50 298
49 298
48 298
47 299
46 299
45 300
44 300
43 301
42 302
41 303
40 303
39 304
38 305
39 306
40 306
41 307
40 308
41 309
42 310
43 311
44 311
45 312
46 312
47 313
48 314
49 314
50 315
51 315
52 315
53 315
54 316
55 316
56 316
57 316
58 317
59 317
60 317
61 317
62 317
63 318
64 318
65 318
66 319
67 319
68 319
69 319
70 319
71 319
72 320
73 320
74 320
75 320
76 321
77 321
78 321
79 322
80 322
81 322
82 323
83 323
84 323
85 324
86 324
87 324
88 325
89 325
90 325
91 325
92 325
93 325
94 326
93 327
92 328
93 329
94 330
95 331
96 332
97 332
98 333
99 333
100 333
101 334
102 334
103 334
104 334
105 334
106 335
107 335
108 335
109 335
110 335
111 335
112 335
113 336
112 337
111 338
110 338
110 339
111 340
110 341
109 341
110 342
110 343
111 344
112 345
113 346
114 347
115 347
116 348
117 348
118 349
119 350
120 350
121 350
122 351
123 352
124 352
125 352
126 353
125 354
125 355
124 356
123 357
123 358
122 359
122 360
121 361
120 362
121 363
122 363
123 364
124 365
125 366
126 366
127 367
128 368
129 369
130 370
131 370
132 371
133 370
134 371
134 372
133 373
134 374
135 375
136 375
137 376
137 377
137 378
138 379
139 380
140 380
141 381
142 382
143 383
142 384
141 384
140 384
139 384
138 385
137 386
136 387
135 388
134 389
135 389
136 390
135 391
134 392
135 392
136 393
136 394
137 395
138 395
139 396
140 397
141 398
142 398
143 399
144 399
145 400
144 401
144 402
145 403
146 404
147 404
148 404
149 405
150 405
151 405
152 405
153 406
154 406
155 406
156 407
155 408
154 409
153 409
153 410
152 411
151 412
150 413
150 414
151 415
152 415
153 416
154 416
155 416
156 417
157 417
158 417
159 417
160 417
161 418
161 419
160 420
159 420
158 421
157 422
156 423
155 423
155 424
156 425
155 424
156 423
157 423
158 424
158 425
158 426
157 427
157 428
158 428
159 429
159 430
160 430
161 431
162 432
163 432
164 433
165 433
166 434
166 435
167 434
168 434
169 434
170 435
169 436
168 436
167 437
166 437
166 438
167 439
168 439
169 440
170 441
171 441
172 441
173 441
174 441
175 442
174 443
175 443
176 444
177 444
178 445
177 446
177 447
176 448
176 449
176 450
177 450
178 451
179 452
180 452
181 453
182 453
183 454
184 454
185 454
186 455
187 455
188 455
189 456
190 456
191 455
192 456
193 457
192 458
191 458
190 459
190 460
189 461
189 462
189 463
189 464
188 465
189 466
190 467
191 468
192 469
193 470
194 470
195 471
196 472
197 472
198 473
199 474
200 474
201 475
202 475
203 476
204 477
205 478
206 478
207 478
208 478
209 479
209 480
209 481
208 482
208 483
208 484
209 484
210 484
211 485
210 486
209 486
208 486
209 487
210 487
211 488
212 488
213 489
214 489
215 490
214 491
215 491
216 491
217 492
218 492
219 492
220 493
221 493
222 494
223 493
224 494
224 495
224 496
225 496
226 496
227 496
228 496
229 496
230 497
231 497
232 498
232 499
233 499
234 499
235 499
236 500
237 500
238 501
239 501
240 501
241 502
242 502
243 501
244 502
245 502
246 503
246 504
247 503
248 504
249 503
250 502
251 502
252 502
253 502
254 502
255 501
256 501
257 502
257 503
257 504
257 505
257 506
256 507
256 508
257 509
257 510
258 510
259 510
260 510
261 510
262 510
263 510
264 510
265 510
266 510
267 510
268 510
269 510
270 509
271 510
272 510
273 510
274 510
275 510
276 509
277 509
278 509
279 510
279 511
278 512
278 513
279 514
278 515
278 516
277 517
278 517
279 517
280 517
281 518
282 518
283 518
284 519
283 520
282 520
283 520
284 520
285 520
286 520
287 520
288 520
289 520
290 520
291 520
292 520
293 521
294 521
295 521
296 521
297 521
298 521
299 521
300 521
301 521
302 521
303 521
304 521
305 521
306 521
307 522
306 523
306 524
306 525
307 526
306 527
305 527
306 528
307 527
308 527
309 527
310 527
311 527
312 527
313 528
314 528
315 529
316 530
317 530
318 530
319 529
320 529
321 529
322 529
323 528
324 528
325 528
326 528
327 528
328 527
329 528
330 527
331 528
331 529
331 530
332 531
333 531
334 531
335 531
336 531
337 531
338 531
339 531
340 531
341 531
342 531
343 531
344 531
345 531
346 530
347 530
348 530
349 530
350 530
351 529
352 529
353 529
354 528
355 528
356 527
357 528
357 529
357 530
357 531
358 532
358 533
358 534
359 535
359 536
360 537
361 537
362 538
363 538
364 538
365 538
366 538
367 538
368 538
369 538
370 538
371 538
372 538
373 538
374 538
375 539
376 539
377 539
378 539
379 539
380 539
381 539
382 539
383 539
384 539
385 539
386 539
387 539
388 539
389 539
390 539
391 539
392 538
393 538
394 538
395 538
396 538
397 538
398 537
399 537
400 538
401 538
402 539
402 540
402 541
403 540
404 540
405 541
406 541
407 542
408 541
409 542
410 541
411 541
412 541
413 540
414 540
415 540
416 540
417 540
418 539
419 539
420 539
421 540
422 541
423 541
424 541
425 541
426 540
427 540
428 539
429 539
429 538
430 537
431 537
432 536
433 535
434 535
435 534
436 533
437 533
438 534
438 535
439 536
439 537
439 538
440 538
441 538
442 538
443 538
444 538
445 538
446 537
447 537
448 536
449 536
450 535
451 534
452 534
453 533
454 533
455 532
456 531
457 531
458 530
459 530
460 530
461 531
462 532
463 533
464 532
465 533
465 532
466 531
467 531
468 530
469 529
470 528
471 527
472 526
473 526
474 526
475 526
476 527
477 527
478 528
478 529
477 530
476 530
477 530
478 529
479 529
480 528
481 528
482 527
483 527
484 526
485 525
486 525
487 524
488 524
489 523
490 522
491 521
492 520
493 519
494 518
495 518
496 517
497 517
498 517
499 517
500 517
501 516
502 517
503 518
504 517
505 517
506 516
507 516
508 516
508 515
509 514
510 514
511 514
512 513
513 512
514 512
515 511
516 511
517 510
518 510
519 509
520 508
521 508
522 508
523 507
524 507
524 506
525 505
526 505
527 504
528 504
529 503
529 502
530 501
531 502
532 501
533 501
534 501
535 500
536 500
537 500
538 500
539 500
540 499
541 499
541 498
542 497
543 496
544 496
545 495
546 494
547 494
548 494
547 494
546 493
547 492
548 492
549 492
550 492
551 491
552 490
553 490
554 489
555 489
556 488
557 488
558 488
557 487
558 486
559 486
560 486
561 485
562 484
563 483
564 483
564 482
565 481
565 480
566 479
567 478
567 477
567 476
568 475
568 474
568 473
569 472
570 472
571 472
572 473
573 474
574 473
575 473
576 472
577 471
578 470
579 469
580 468
581 467
582 466
582 465
583 464
584 463
584 462
585 461
585 460
586 459
586 458
587 457
588 456
589 456
590 456
591 457
591 458
592 458
593 458
594 457
595 457
596 456
597 455
598 454
599 453
600 453
600 452
601 451
602 451
602 450
603 449
603 448
604 447
605 446
606 445
607 445
608 445
609 445
610 445
611 445
612 444
613 443
614 442
614 441
615 440
615 439
616 438
616 437
616 436
616 435
616 434
616 433
616 432
617 431
617 430
617 429
617 428
617 427
616 426
617 425
618 425
619 425
620 425
621 425
622 425
623 424
623 423
624 422
625 421
625 420
625 419
625 418
625 417
625 416
626 415
626 414
626 413
626 412
626 411
626 410
626 409
626 408
627 407
628 407
629 407
630 407
631 407
632 406
632 405
632 404
633 403
633 402
633 401
633 400
633 399
633 398
633 397
633 396
633 395
633 394
633 393
633 392
633 391
633 390
633 389
633 388
633 387
633 386
632 385
632 384
632 383
631 382
630 381
631 380
631 379
631 378
631 377
631 376
631 375
631 374
630 373
630 372
630 371
630 370
630 369
629 368
629 367
628 366
627 365
627 364
627 363
626 362
625 361
624 360
624 359
623 358
622 357
622 356
621 355
621 354
620 353
619 352
619 351
618 350
617 349
616 348
615 347
615 346
614 345
614 344
613 343
613 342
612 341
612 340
611 339
611 338
610 337
609 336
608 335
607 334
606 333
605 332
604 331
603 330
602 329
601 328
600 327
600 326
599 325
598 324
597 323
596 322
595 321
594 321
593 320
592 321
591 320
591 319
591 318
590 318
589 317
588 317
587 316
586 315
585 315
584 314
583 313
582 313
581 312
580 312
579 311
578 311
577 310
576 310
575 309
574 309
573 308
572 308
571 307
570 307
569 306
568 306
567 305
566 305
565 304
564 304
563 303
562 303
561 302
562 301
563 301
564 301
565 301
566 301
567 301
568 301
569 301
570 301
571 301
572 301
573 301
574 301
575 301
576 301
577 301
578 301
579 302
580 302
581 302
582 302
583 302
584 302
585 302
586 302
587 302
588 302
589 302
590 303
591 303
592 303
593 303
594 303
595 303
596 303
597 303
598 303
599 303
600 303
601 304
602 304
603 304
604 304
605 304
606 304
607 304
608 304
609 303
610 304
611 304
612 304
613 305
614 305
615 305
616 305
617 305
618 305
619 305
620 305
621 305
622 305
623 305
624 305
625 305
626 305
627 305
628 305
629 305
630 305
631 305
632 305
633 305
634 305
635 305
636 305
637 305
638 305
639 305
640 305
641 305
642 305
643 305
644 305
645 305
646 305
647 305
648 305
649 305
650 305
651 305
652 305
653 305
654 305
655 305
656 305
657 305
658 305
659 305
660 305
661 305
662 305
663 305
664 305
665 305
666 305
667 305
668 305
669 305
670 305
671 305
672 305
673 305
674 305
675 305
676 305
677 304
678 304
679 304
680 305
681 304
682 304
683 304
684 304
685 304
686 304
687 304
688 304
689 304
690 304
691 304
692 304
693 304
694 304
695 305
696 304
697 305
698 305
699 305
700 305
701 305
702 305
703 305
704 305
705 305
706 305
707 305
708 305
709 305
710 305
711 305
712 305
713 305
714 305
715 305
716 305
717 305
718 305
719 305
720 305
721 305
722 305
723 305
724 305
725 305
726 305
727 305
728 305
729 305
730 305
731 305
732 304
733 304
734 304
735 304
736 304
737 304
738 304
739 304
740 304
741 304
742 303
743 303
744 303
745 302
746 302
747 302
748 302
749 301
750 301
751 300
752 300
753 299
754 299
755 298
756 298
756 297
757 296
758 295
759 295
759 294
760 293
761 293
762 292
762 291
763 290
763 289
764 288
764 287
764 286
764 285
764 284
764 283
763 282
762 282
761 281
760 280
760 279
759 278
758 278
759 279
758 280
757 280
756 279
756 278
755 279
754 278
753 278
754 279
754 280
754 281
754 282
753 283
754 284
753 285
752 285
751 285
750 286
749 287
748 287
747 287
746 288
745 288
744 289
743 289
742 289
741 289
740 290
739 290
738 290
737 290
736 291
735 291
734 291
733 291
732 291
731 291
730 291
729 291
728 291
727 291
726 292
725 292
724 292
723 292
722 292
721 292
720 292
719 292
718 292
717 292
716 292
715 292
714 292
713 293
712 293
711 293
710 292
710 293
709 294
708 294
707 293
707 292
706 293
705 294
704 295
703 294
702 294
701 294
700 294
699 294
699 295
698 296
697 295
696 296
695 296
694 296
693 296
692 296
691 296
690 296
689 296
688 296
687 296
686 296
685 296
684 296
683 296
682 297
681 296
680 296
679 296
678 297
677 296
676 296
675 296
674 295
675 294
676 294
677 294
678 294
677 294
676 294
675 293
674 294
674 295
673 296
672 296
671 296
670 297
669 297
668 296
667 296
668 296
669 297
669 298
668 299
667 299
666 298
665 298
664 297
663 297
662 298
661 299
660 298
660 297
660 296
659 296
660 297
659 298
658 298
657 299
656 298
656 297
655 297
654 297
653 297
652 297
651 297
650 297
649 297
648 297
647 296
648 295
647 296
646 295
645 295
644 295
643 295
642 295
641 295
640 295
639 296
638 296
638 297
637 298
636 298
635 298
634 298
633 298
632 298
631 298
630 298
629 298
628 298
627 297
626 297
625 296
626 295
627 295
628 295
627 295
626 295
625 296
624 295
623 295
622 295
623 295
624 295
625 296
624 297
623 297
622 297
621 297
620 298
619 298
618 297
619 296
618 296
617 296
616 295
616 294
615 294
614 294
614 295
613 296
612 296
611 296
610 296
609 296
608 296
607 296
606 295
606 294
605 294
604 295
603 296
602 295
601 295
600 294
599 294
598 294
597 295
596 295
595 295
594 294
593 295
592 295
591 294
592 293
592 292
591 293
590 294
589 294
588 294
587 294
586 293
586 292
586 291
585 291
584 291
583 291
583 292
582 293
581 293
580 292
580 291
579 292
578 291
577 291
576 290
575 290
574 290
573 290
572 290
573 290
574 290
575 291
574 292
573 292
572 292
571 292
570 291
570 290
570 289
569 289
568 290
567 289
566 289
565 289
564 289
563 289
562 290
561 289
560 289
559 289
558 288
557 288
556 288
555 288
554 287
555 286
556 285
557 284
558 283
559 282
559 281
560 280
561 279
562 278
563 277
564 276
564 275
565 274
565 273
566 272
567 271
567 270
568 269
568 268
569 267
569 266
570 265
571 264
571 263
572 262
572 261
573 260
574 259
574 258
575 257
576 256
576 255
577 254
577 253
577 252
578 251
578 250
579 249
579 248
579 247
580 246
580 245
580 244
581 243
581 242
582 241
582 240
582 239
582 238
583 237
583 236
583 235
584 234
584 233
584 232
584 231
585 230
585 229
585 228
585 227
585 226
585 225
586 224
586 223
586 222
586 221
587 220
587 219
587 218
587 217
587 216
588 215
588 214
588 213
588 212
588 211
588 210
588 209
588 208
588 207
588 206
588 205
588 204
589 203
589 202
589 201
589 200
590 199
589 198
589 197
589 196
590 195
590 194
590 193
590 192
590 191
591 190
591 189
591 188
591 187
591 186
591 185
590 184
590 183
591 182
591 181
590 180
590 179
590 178
590 177
590 176
589 175
589 174
589 173
589 172
589 171
588 170
588 169
589 168
589 167
589 166
589 165
589 164
589 163
589 162
588 161
588 160
588 159
588 158
589 157
588 156
588 155
588 154
587 154
586 153
586 152
587 151
588 151
587 150
587 149
587 148
587 147
586 147
585 146
584 146
583 146
582 145
583 144
583 143
583 142
583 141
583 140
583 139
583 138
583 137
582 136
582 135
582 134
582 133
582 132
581 131
581 130
581 129
581 128
580 127
580 126
579 125
578 124
577 124
576 124
575 125
574 124
574 123
575 122
575 121
574 120
574 119
573 118
573 117
572 116
571 115
571 114
570 113
569 112
569 111
568 110
567 109
567 108
566 107
565 106
565 105
564 104
563 103
562 103
561 102
560 103
559 103
558 104
558 105
557 106
557 107
556 108
555 107
555 106
555 105
555 104
554 103
554 102
553 101
553 100
552 99
551 98
551 97
550 96
549 95
549 94
548 93
547 92
546 91
545 90
544 89
543 88
542 87
542 86
541 86
540 85
539 84
538 83
537 84
536 84
535 85
534 86
534 87
534 88
533 89
532 88
531 87
531 86
530 85
530 84
529 83
529 82
528 81
528 80
527 79
527 78
526 77
525 76
525 75
524 74
524 73
523 73
523 74
522 75
522 76
521 77
520 78
519 77
519 76
519 75
518 74
518 73
517 72
516 71
515 70
515 69
514 68
513 68
512 67
511 66
510 66
509 65
508 64
507 64
506 64
505 63
504 62
504 61
503 61
502 60
501 60
500 60
499 59
498 58
498 59
498 60
498 61
497 62
496 63
496 64
495 65
494 66
493 65
493 64
492 63
492 62
491 61
491 60
490 59
489 58
489 57
488 56
487 55
486 56
485 55
485 54
484 54
484 55
484 56
483 57
482 56
482 55
481 54
480 53
479 52
478 52
477 51
476 51
475 50
474 49
473 49
472 49
471 48
470 48
469 48
468 48
467 47
467 48
466 49
466 50
465 51
465 52
464 53
463 54
462 54
461 53
461 52
460 51
459 51
458 50
457 49
456 49
455 48
454 47
453 46
452 46
451 45
450 44
449 44
448 43
447 43
446 42
445 42
444 42
445 43
444 44
443 44
443 45
442 46
441 47
440 47
439 46
438 45
437 44
436 43
435 43
434 42
433 42
432 41
431 41
430 40
429 40
428 40
427 40
426 40
425 40
424 40
423 40
422 40
