361 23
360 24
360 25
359 26
358 27
357 26
356 26
355 26
354 26
353 26
352 25
351 25
351 26
350 27
349 27
348 26
347 26
346 26
345 25
344 25
343 25
343 26
342 27
342 28
341 29
340 29
339 29
338 29
337 29
336 29
335 29
334 29
333 29
332 29
331 29
330 29
329 29
329 30
328 31
327 32
326 33
325 33
324 32
323 32
322 32
321 32
320 32
319 32
318 32
317 33
317 34
317 35
316 36
316 37
315 38
314 38
313 38
312 38
311 38
310 38
309 38
308 38
307 38
306 38
305 39
304 40
303 40
302 40
301 40
300 39
299 39
298 39
297 39
296 40
296 41
295 42
295 43
294 44
293 44
292 43
291 44
290 44
289 44
288 44
287 44
287 45
286 46
285 46
284 46
283 46
282 46
281 46
280 46
279 46
279 47
279 48
279 49
278 50
278 51
278 52
277 53
276 53
275 53
274 53
273 53
272 53
271 53
270 53
269 54
268 54
267 54
266 54
265 54
264 54
263 54
263 55
263 56
262 57
262 58
261 59
260 59
259 59
258 58
257 58
256 58
255 58
254 58
253 57
252 57
251 57
250 58
250 59
250 60
249 61
249 62
248 63
247 63
246 63
245 63
244 63
243 63
242 63
241 64
240 64
239 64
238 64
237 64
236 64
235 65
235 66
234 67
234 68
233 69
232 69
231 69
230 69
229 69
228 69
227 69
226 70
225 70
224 70
223 70
223 71
223 72
222 73
222 74
222 75
221 76
220 76
219 76
218 76
217 76
216 76
215 77
214 77
213 77
212 77
211 78
210 78
210 79
210 80
209 81
209 82
208 83
207 83
206 84
205 84
204 84
203 84
202 84
201 85
200 85
199 86
198 86
198 87
198 88
197 89
197 90
196 91
196 92
195 93
194 93
193 93
192 94
191 94
190 94
189 94
188 94
187 94
186 94
185 95
184 95
184 96
183 97
183 98
183 99
182 100
182 101
181 102
180 102
179 102
178 102
177 102
176 102
175 102
174 103
173 103
172 104
171 104
170 105
169 105
168 105
167 106
167 107
166 108
166 109
166 110
165 111
164 112
163 112
162 112
161 113
160 113
159 114
158 114
158 115
158 116
158 117
157 118
156 118
155 119
155 120
154 121
153 122
152 122
151 122
150 123
150 124
150 125
150 126
149 127
148 127
147 128
146 128
145 128
144 129
143 129
142 130
141 130
140 130
139 131
138 131
137 132
136 133
136 134
135 135
135 136
134 137
133 138
132 138
131 138
130 138
129 139
128 139
127 140
126 140
125 141
124 141
124 142
124 143
123 144
122 145
121 146
120 146
119 146
119 147
118 148
117 149
116 149
115 149
114 150
113 150
112 150
111 151
111 152
111 153
110 154
109 155
108 155
107 155
106 155
105 155
104 156
103 156
102 157
101 158
100 158
99 159
99 160
98 161
97 161
96 162
95 161
94 162
93 162
92 163
91 164
90 164
89 164
88 165
87 165
86 166
85 167
84 167
83 167
82 167
81 167
80 168
79 168
78 168
77 168
76 168
75 169
74 169
73 170
72 170
71 170
70 170
69 170
68 170
67 170
66 170
65 170
64 170
63 170
62 170
61 171
60 171
59 172
58 172
57 173
56 173
55 174
54 175
53 176
53 177
53 178
53 179
53 180
54 181
55 181
56 181
57 181
56 180
57 179
57 178
58 177
59 177
60 177
61 178
62 178
63 178
64 179
65 180
66 180
67 180
68 180
69 181
70 181
71 181
72 182
73 183
74 183
75 184
76 184
77 185
78 185
79 186
80 187
81 187
82 188
83 189
84 189
85 190
86 191
87 191
88 192
89 192
90 193
90 194
91 194
92 195
93 195
94 196
95 196
96 196
97 197
98 197
99 198
100 198
101 199
102 199
103 199
104 200
105 200
106 200
107 201
107 202
106 203
106 204
106 205
107 206
108 206
109 207
110 208
111 208
112 208
113 209
114 210
114 211
115 212
115 213
116 214
117 215
118 216
119 217
120 218
121 219
122 219
123 220
124 221
125 222
125 223
125 224
125 225
125 226
126 227
126 228
127 229
128 230
129 230
130 231
131 232
132 232
133 233
134 233
135 234
136 234
137 235
138 236
138 237
139 238
140 239
141 240
142 241
143 241
144 242
145 243
146 243
147 243
148 244
149 244
150 244
151 245
151 246
152 247
152 248
152 249
152 250
153 251
154 252
155 253
156 253
157 254
158 255
159 255
160 256
161 257
161 258
161 259
161 260
162 261
163 262
164 263
165 264
166 264
167 265
168 266
169 267
170 268
171 268
172 269
173 269
174 270
175 270
176 271
176 272
176 273
176 274
176 275
176 276
176 277
177 278
178 279
179 280
180 280
181 280
182 280
183 281
184 281
185 281
186 281
187 281
188 282
189 282
190 282
191 283
192 284
192 285
192 286
192 287
192 288
191 289
192 290
193 291
194 292
195 292
196 293
197 293
198 294
199 294
200 295
201 295
202 295
203 296
204 297
204 298
204 299
204 300
205 300
206 301
207 301
208 302
209 302
210 302
211 303
212 303
213 304
214 304
215 304
216 305
217 306
217 307
217 308
218 309
218 310
218 311
219 312
220 312
221 312
222 312
223 313
224 313
225 314
226 314
227 314
228 314
229 315
230 315
231 315
232 315
233 316
234 317
234 318
234 319
235 320
235 321
235 322
236 322
237 323
238 323
239 323
240 324
241 324
242 324
243 324
244 324
245 324
246 325
247 326
247 327
248 328
249 328
250 329
251 329
252 329
253 330
254 330
255 330
256 330
257 331
258 331
259 332
260 333
260 334
260 335
260 336
261 337
262 338
263 338
264 339
265 339
266 340
267 340
268 340
269 341
270 341
271 341
272 341
273 341
274 342
275 343
276 344
276 345
276 346
277 347
277 348
278 349
279 349
280 349
281 349
282 349
283 349
284 349
285 349
286 349
287 349
288 349
289 349
290 349
291 350
292 351
292 352
293 353
294 354
294 355
295 355
296 356
297 356
298 356
299 356
300 356
301 356
302 356
303 356
304 356
305 356
306 357
307 357
308 357
309 357
310 356
311 356
312 356
313 356
314 357
315 358
315 359
315 360
316 360
317 360
318 360
319 360
320 360
321 360
322 360
323 359
324 359
325 359
326 360
327 360
328 360
329 360
330 360
331 360
332 360
333 360
334 360
335 360
336 360
337 360
338 360
339 361
340 361
341 361
342 362
343 362
344 362
345 362
346 362
347 362
348 362
349 362
350 362
351 362
352 362
353 362
354 361
355 361
356 361
357 362
358 362
359 363
360 362
361 362
362 362
363 361
364 361
365 361
366 360
367 360
368 360
369 360
370 361
371 361
372 361
373 361
374 361
375 361
376 360
377 360
378 360
379 359
380 359
381 359
382 359
383 359
384 359
385 360
386 360
387 360
388 360
389 360
390 360
391 359
392 359
393 359
394 359
395 358
396 358
397 358
398 358
399 358
400 357
401 357
402 357
403 356
404 356
405 356
406 356
407 356
408 355
409 355
410 354
411 353
412 353
413 353
414 353
415 352
416 352
417 352
418 351
419 350
420 350
421 350
422 349
423 349
424 349
425 349
426 349
427 349
428 348
429 348
430 347
431 347
432 346
433 346
434 346
435 346
436 346
437 345
438 345
439 345
440 344
441 344
442 343
443 342
444 342
445 341
446 341
447 340
448 339
449 339
450 339
451 339
452 339
453 338
454 337
455 337
456 336
457 336
458 336
459 335
460 334
461 333
462 332
463 331
464 330
465 330
466 329
467 329
468 328
469 327
470 326
471 325
472 324
473 324
474 323
475 322
476 322
477 321
478 320
479 319
480 318
481 317
482 317
483 316
484 315
484 314
485 313
486 312
487 311
488 310
489 310
490 309
491 308
491 307
492 306
493 305
494 304
495 304
495 303
496 302
497 301
498 300
499 299
500 298
501 297
501 296
502 295
503 294
504 294
504 293
505 292
506 291
507 290
507 289
508 288
508 287
509 286
510 285
511 284
511 283
512 282
513 281
514 280
515 279
516 278
517 277
517 276
518 275
519 274
519 273
520 272
521 272
521 271
522 270
523 269
524 268
524 267
525 266
526 265
527 264
527 263
528 262
528 261
529 260
530 259
531 258
531 257
531 256
532 255
532 254
533 253
533 252
534 251
535 251
535 250
535 249
535 248
536 247
536 246
536 245
536 244
537 243
537 242
538 241
538 240
539 239
540 238
540 237
540 236
541 235
541 234
542 233
542 232
543 231
543 230
544 229
544 228
545 227
545 226
545 225
546 224
547 223
547 222
547 221
548 220
548 219
548 218
549 217
549 216
549 215
550 214
550 213
551 212
551 211
551 210
551 209
551 208
551 207
552 206
552 205
552 204
553 203
553 202
553 201
554 200
554 199
554 198
554 197
554 196
555 195
555 194
555 193
556 192
556 191
556 190
556 189
556 188
557 187
557 186
557 185
557 184
558 183
558 182
558 181
558 180
558 179
558 178
558 177
558 176
558 175
558 174
559 173
559 172
559 171
559 170
559 169
559 168
559 167
558 166
558 165
558 164
558 163
558 162
559 161
559 160
560 159
561 159
562 159
563 158
564 158
565 157
566 157
567 156
568 155
569 155
570 154
571 154
572 154
573 153
574 153
575 152
576 151
577 151
578 151
579 150
580 150
581 149
582 149
583 148
584 148
585 147
586 147
587 146
588 146
589 145
590 145
591 144
592 144
593 143
594 143
595 142
596 142
597 142
598 141
599 140
600 140
601 139
602 139
603 139
604 138
605 138
606 137
607 137
608 136
609 136
610 136
611 135
612 135
613 134
614 134
615 134
616 133
617 132
618 132
619 132
620 131
621 131
622 130
623 130
624 129
625 129
626 128
627 128
628 127
629 127
630 127
631 126
632 126
633 125
634 125
635 125
636 124
637 124
638 124
639 123
640 123
641 122
642 122
643 122
644 121
645 121
646 121
647 120
648 120
649 119
650 119
651 119
652 118
653 118
654 118
655 117
656 117
657 117
658 116
659 116
660 116
661 116
662 115
663 115
664 115
665 114
666 114
667 114
668 113
669 113
670 113
671 112
672 112
673 112
674 112
675 111
676 111
677 111
678 111
679 110
680 110
681 110
682 110
683 110
684 109
685 109
686 109
687 109
688 109
689 108
690 108
691 108
692 107
693 107
694 107
695 107
696 107
697 106
698 106
699 106
700 106
701 106
702 106
703 105
704 105
705 105
706 105
707 105
708 105
709 105
710 104
711 104
712 104
713 104
714 104
715 104
716 103
717 103
718 103
719 103
720 103
721 102
722 102
723 102
724 102
725 102
726 102
727 101
728 101
729 101
730 101
731 101
732 101
733 101
734 100
735 100
736 100
737 100
738 100
739 99
740 99
741 99
742 99
743 99
744 99
745 99
746 99
747 99
748 98
749 98
750 98
751 98
752 98
753 98
754 98
755 98
756 98
757 97
758 97
759 97
760 97
761 96
762 96
763 95
764 95
765 95
766 95
766 94
767 93
768 93
769 93
769 92
769 91
769 90
768 90
767 90
766 90
765 90
764 90
763 90
762 89
761 90
760 89
759 89
758 89
757 89
756 89
755 89
754 89
753 89
752 89
751 89
750 89
749 89
748 90
747 90
746 90
745 90
744 90
743 90
742 90
741 90
740 91
739 91
738 91
737 91
736 91
735 91
734 91
733 92
732 92
731 92
730 92
729 92
728 92
727 92
726 93
725 93
724 93
723 93
722 93
721 93
720 94
719 94
718 94
717 94
716 94
715 94
714 94
713 95
712 95
711 95
710 95
709 95
708 95
707 96
706 96
705 96
704 96
703 97
702 97
701 97
700 97
699 97
698 97
697 97
696 98
695 98
694 98
693 98
692 99
691 99
690 99
689 99
688 99
687 100
686 100
685 100
684 100
683 100
682 101
681 101
680 101
679 101
678 102
677 102
676 102
675 102
674 103
673 103
672 103
671 104
670 104
669 104
668 104
667 105
666 105
665 105
664 105
663 105
662 106
661 106
660 106
659 106
658 107
657 107
656 107
655 108
654 108
653 108
652 109
651 109
650 110
649 110
648 110
647 111
646 111
645 112
644 112
643 112
642 113
641 113
640 113
639 114
638 114
637 115
636 115
635 116
634 116
633 116
632 117
631 117
630 118
629 118
628 118
627 119
626 119
625 120
624 120
623 121
622 121
621 121
620 122
619 122
618 123
617 123
616 123
615 124
614 124
613 125
612 125
611 126
610 127
609 127
608 127
607 128
606 128
605 129
604 129
603 130
602 130
601 131
600 131
599 132
598 132
597 132
596 133
595 133
594 134
593 135
592 135
591 135
590 136
589 136
588 137
587 137
586 138
585 138
584 139
583 139
582 140
581 140
580 141
579 141
578 142
577 142
576 143
575 143
574 144
573 144
572 145
571 145
570 146
569 146
568 146
567 147
566 147
565 148
564 148
563 149
562 150
561 150
560 151
559 151
558 151
557 152
556 152
555 152
554 152
553 152
552 151
551 150
550 150
549 149
549 148
548 148
547 147
546 146
545 146
544 145
543 144
542 144
541 143
540 143
539 142
538 141
537 140
537 139
537 138
537 137
537 136
537 135
536 134
536 133
535 132
534 131
534 130
533 129
533 128
532 127
531 126
531 125
531 124
530 123
530 122
529 122
528 121
529 120
528 119
528 118
527 117
526 116
525 115
524 114
524 113
523 112
522 111
521 110
520 109
521 108
522 107
522 106
522 105
522 104
521 103
520 102
520 101
520 100
519 99
519 98
519 97
518 96
518 95
518 94
517 93
517 92
517 91
516 90
516 89
515 88
514 87
513 86
512 85
512 84
512 83
511 82
511 81
510 80
510 79
509 79
508 78
508 77
508 76
507 75
506 75
505 74
505 73
504 72
504 71
504 70
503 70
502 71
501 70
501 69
500 68
499 67
499 66
498 66
497 66
496 65
496 64
495 63
494 63
493 64
492 63
492 62
492 61
491 60
490 59
489 58
489 57
488 57
487 57
486 57
485 57
484 56
483 55
482 54
481 53
480 53
479 52
478 51
477 51
476 50
476 49
475 50
474 50
473 50
472 49
471 48
470 47
469 46
468 46
467 46
466 46
465 47
464 46
464 45
463 44
462 44
461 43
460 43
459 43
458 43
457 42
456 41
455 40
454 39
453 39
452 40
451 40
450 40
449 39
448 38
447 38
446 37
445 37
444 36
443 36
442 36
441 37
440 37
439 36
438 35
437 35
436 34
435 33
435 34
434 35
433 35
432 34
431 34
430 33
429 33
428 33
427 32
426 32
425 33
424 32
423 32
422 31
421 30
420 30
419 30
418 30
417 31
416 32
415 32
414 31
413 30
412 30
411 29
410 29
409 29
408 28
407 28
406 27
406 28
405 29
404 29
403 29
402 28
401 28
400 27
399 27
398 26
397 27
396 28
395 28
394 27
393 27
392 26
391 26
390 26
389 26
388 25
387 25
386 24
385 24
385 25
384 26
383 26
382 26
381 25
380 25
379 25
378 25
377 24
376 24
375 24
374 23
373 24
372 25
371 26
370 26
369 25
368 25
367 24
366 24
365 24
364 24
363 24
362 23
361 23
