440 41
440 42
440 43
439 44
438 45
438 46
437 47
436 48
435 49
434 50
433 51
432 52
431 53
430 54
429 55
428 56
427 57
427 58
426 59
425 60
425 61
424 62
424 63
423 64
422 65
422 66
421 67
421 68
420 69
419 70
418 71
417 72
417 73
416 74
416 75
415 76
414 77
414 78
413 79
412 80
411 79
410 78
410 77
409 76
408 75
407 74
406 73
405 72
405 71
404 70
403 69
402 68
402 67
401 66
400 65
399 64
398 63
397 62
396 61
395 60
394 59
393 58
392 57
391 57
390 56
389 55
388 55
387 54
386 54
385 53
384 53
383 53
382 53
381 52
380 52
379 52
378 52
377 52
376 52
375 52
374 52
373 52
372 52
371 52
370 52
369 53
368 53
367 54
366 54
365 54
364 55
363 55
362 56
361 56
360 57
359 58
358 58
357 59
356 59
355 60
354 61
353 61
352 62
352 63
351 64
350 64
349 65
348 66
348 67
347 68
346 69
346 70
345 71
344 72
344 73
343 74
342 75
342 76
341 77
340 78
340 79
339 80
339 81
338 82
337 83
337 84
337 85
336 86
336 87
335 88
335 89
334 90
334 91
333 92
333 93
333 94
332 95
332 96
332 97
331 98
331 99
331 100
330 101
330 102
330 103
329 104
329 105
328 106
328 107
328 108
328 109
327 110
327 111
327 112
327 113
327 114
327 115
326 116
326 117
326 118
326 119
326 120
326 121
326 122
326 123
326 124
326 125
326 126
326 127
326 128
325 129
325 130
324 131
324 132
323 133
323 134
322 135
322 136
321 137
321 138
320 139
320 140
320 141
319 142
319 143
318 144
318 145
317 146
317 147
317 148
316 149
316 150
316 151
315 152
315 153
314 154
313 155
312 154
312 153
312 152
312 151
312 150
311 149
311 148
311 147
311 146
311 145
311 144
310 143
310 142
310 141
310 140
310 139
310 138
310 137
310 136
310 135
310 134
310 133
310 132
310 131
309 130
309 129
309 128
309 127
309 126
309 125
309 124
309 123
309 122
309 121
308 120
308 119
308 118
308 117
308 116
308 115
307 114
307 113
307 112
306 111
306 110
306 109
305 108
305 107
304 106
303 105
303 104
302 103
302 102
301 101
301 100
300 99
300 98
299 97
298 96
298 95
297 94
297 93
297 92
296 91
296 90
295 89
295 88
295 87
294 86
294 85
294 84
294 83
293 82
293 81
293 80
293 79
292 78
292 77
291 76
291 75
290 74
289 73
288 72
288 71
287 70
286 69
285 68
285 67
284 66
283 65
283 64
282 63
282 62
281 61
280 60
279 59
278 58
278 57
277 56
276 55
275 54
274 54
273 53
272 52
271 51
270 50
269 50
268 49
267 49
266 48
265 47
264 47
263 46
262 46
261 45
260 45
259 45
258 44
257 44
256 44
255 44
254 44
253 44
252 44
251 44
250 45
249 45
249 46
249 47
248 48
247 49
247 50
246 51
245 52
245 53
244 54
243 54
242 55
241 55
240 55
239 56
238 56
237 56
236 57
235 57
234 58
233 58
232 59
231 60
230 60
229 61
228 62
227 63
226 64
225 65
224 66
224 67
223 68
223 69
222 70
222 71
221 72
220 73
220 74
219 75
218 76
218 77
217 78
217 79
217 80
216 81
216 82
215 83
215 84
215 85
215 86
215 87
214 88
214 89
214 90
214 91
214 92
214 93
214 94
214 95
213 96
213 97
213 98
213 99
212 100
212 101
212 102
211 103
211 104
211 105
211 106
211 107
210 108
210 109
210 110
210 111
210 112
210 113
210 114
210 115
210 116
210 117
210 118
210 119
210 120
209 121
209 122
209 123
209 124
209 125
209 126
209 127
209 128
209 129
209 130
209 131
209 132
209 133
208 134
208 135
209 136
208 137
208 138
208 139
208 140
208 141
208 142
208 143
208 144
208 145
208 146
209 147
209 148
209 149
209 150
209 151
209 152
209 153
209 154
210 155
210 156
211 157
211 158
211 159
212 160
212 161
212 162
212 163
212 164
212 165
212 166
212 167
212 168
212 169
212 170
212 171
213 172
213 173
213 174
214 175
214 176
215 177
215 178
215 179
215 180
214 181
214 182
215 183
215 184
215 185
216 186
216 187
217 188
217 189
217 190
218 191
218 192
219 193
219 194
219 195
220 196
221 197
221 198
222 199
222 200
223 201
224 202
224 203
225 204
226 205
226 206
227 207
227 208
228 209
229 210
230 211
230 212
231 213
232 214
232 215
233 216
234 217
235 218
235 219
236 220
236 221
237 222
238 223
239 224
240 225
241 226
242 227
243 228
244 229
245 230
246 231
247 232
248 232
249 233
250 234
251 235
252 236
253 236
254 237
255 237
256 238
257 238
258 239
259 239
260 239
261 240
262 240
263 241
264 241
265 241
266 241
267 242
268 242
269 242
270 242
271 243
272 243
273 243
274 244
275 245
276 246
276 247
275 248
274 248
273 248
272 248
271 248
270 248
269 248
268 248
267 248
266 247
265 247
264 247
263 247
262 247
261 247
260 247
259 246
258 246
257 246
256 246
255 246
254 246
253 246
252 246
251 246
250 246
249 245
248 245
247 245
246 245
245 245
244 245
243 245
242 245
241 245
240 244
239 244
238 244
237 244
236 244
235 244
234 244
233 244
232 244
231 244
230 244
229 244
228 244
227 244
226 244
225 243
224 243
223 243
222 243
221 243
220 243
219 243
218 243
217 242
216 242
215 242
214 241
213 241
212 240
211 239
210 238
210 237
209 237
208 236
208 235
207 234
206 233
206 232
205 231
204 230
204 229
203 228
203 227
202 226
202 225
202 224
201 223
201 222
200 221
200 220
199 219
199 218
198 217
198 216
197 215
196 214
195 213
195 212
194 211
193 210
192 209
191 208
190 207
189 206
188 205
187 205
186 204
185 203
184 203
183 202
182 201
181 200
180 200
179 199
178 198
177 198
176 197
175 196
174 196
173 195
172 194
171 193
170 193
169 192
168 192
167 191
166 191
165 190
164 190
163 189
162 189
161 188
160 188
159 188
158 187
157 187
156 187
155 186
154 186
153 185
152 185
151 185
150 185
149 185
148 185
147 184
146 184
145 184
144 184
143 184
142 184
141 185
140 185
139 184
138 184
137 184
136 183
135 183
134 183
133 183
132 182
131 182
130 182
129 181
128 181
127 181
126 181
125 181
124 181
123 181
122 181
121 181
120 180
119 181
118 181
117 181
116 181
115 181
114 181
113 181
112 181
111 181
110 181
109 181
108 181
107 181
106 181
105 181
104 182
103 182
102 182
101 182
100 181
99 181
98 181
97 181
96 182
95 182
94 182
93 182
92 183
91 183
90 184
89 184
88 184
87 185
86 185
85 186
84 186
83 187
82 187
81 188
80 188
79 189
78 189
77 189
76 190
75 190
74 191
73 191
72 191
71 192
70 192
69 193
68 193
67 194
66 194
65 195
64 196
63 196
62 196
61 197
60 198
59 198
58 199
57 200
56 201
55 202
54 203
53 204
52 205
51 206
50 207
50 208
49 209
49 210
48 211
48 212
47 213
46 214
46 215
45 216
44 217
44 218
43 219
43 220
43 221
42 222
42 223
42 224
42 225
41 226
41 227
42 228
42 229
42 230
41 231
41 232
41 233
41 234
41 235
41 236
41 237
42 238
42 239
42 240
43 241
44 242
44 243
45 244
45 245
46 245
47 246
48 247
49 248
49 249
50 250
50 251
51 252
52 253
53 254
54 255
55 256
56 256
57 257
58 258
59 258
60 259
61 259
62 260
63 260
64 261
65 262
66 263
67 264
68 264
69 265
70 266
71 267
72 267
73 268
74 268
75 269
76 269
77 270
78 270
79 270
80 270
81 271
82 271
83 272
84 272
85 273
86 273
87 274
88 274
89 275
90 275
91 276
92 276
93 277
94 277
95 277
96 278
97 278
98 278
99 279
100 279
101 279
102 280
103 280
104 280
105 281
106 281
107 281
108 282
109 282
110 283
111 283
112 283
113 283
114 284
115 284
116 284
117 285
118 285
119 285
120 285
121 285
122 285
123 285
124 285
125 285
126 285
127 285
128 285
129 285
130 285
131 285
132 285
133 285
134 284
135 284
136 284
137 284
138 284
139 284
140 284
141 284
142 284
143 284
144 284
145 284
146 283
147 283
148 283
149 283
150 282
151 282
152 282
153 282
154 282
155 281
156 281
157 281
158 281
159 281
160 280
161 281
162 281
163 282
162 283
161 284
160 285
159 286
158 287
157 288
157 289
156 290
155 291
154 292
153 293
153 294
152 295
151 296
150 297
150 298
149 299
149 300
148 301
148 302
147 303
147 304
146 305
146 306
145 307
145 308
144 309
143 310
143 311
142 312
141 313
141 314
140 315
139 316
139 317
138 318
137 319
136 320
136 321
135 322
135 323
135 324
134 325
134 326
133 327
133 328
132 329
132 330
132 331
131 332
131 333
131 334
130 335
130 336
129 337
129 338
128 339
128 340
127 341
127 342
127 343
126 344
126 345
126 346
126 347
126 348
126 349
126 350
126 351
125 352
125 353
125 354
125 355
124 356
124 357
124 358
124 359
124 360
123 361
123 362
123 363
123 364
123 365
123 366
123 367
122 368
122 369
123 370
123 371
123 372
122 373
122 374
121 375
121 376
120 377
120 378
120 379
119 380
119 381
119 382
119 383
118 384
118 385
118 386
118 387
118 388
118 389
118 390
118 391
118 392
118 393
118 394
118 395
118 396
118 397
118 398
119 399
119 400
119 401
120 402
120 403
121 403
122 404
123 405
124 406
125 406
126 407
126 408
125 409
124 410
123 411
123 412
124 412
125 412
126 413
127 413
128 414
129 414
130 415
131 416
132 417
133 417
134 418
135 419
136 419
137 420
138 420
139 421
140 421
141 421
142 421
143 421
144 422
145 422
146 422
147 422
148 423
149 423
150 423
151 423
152 423
153 423
154 424
155 424
156 424
157 424
158 424
159 424
160 424
161 424
162 424
163 424
164 424
165 424
166 424
167 424
168 424
169 424
170 424
171 423
172 423
173 423
174 423
175 422
176 421
177 421
178 420
179 420
180 419
181 418
182 417
183 417
184 416
185 416
186 416
187 416
188 416
189 416
190 415
191 415
192 415
193 414
194 413
195 413
196 412
197 412
198 411
199 411
200 410
201 410
202 409
203 408
204 407
205 406
206 406
207 405
208 404
209 403
210 402
210 401
211 400
212 400
212 399
213 398
213 397
214 396
215 395
216 394
217 394
218 393
219 392
220 392
221 391
222 391
223 390
224 390
225 390
226 389
227 388
228 388
229 388
230 387
231 386
232 386
233 385
234 384
235 383
236 383
237 382
238 381
239 380
240 379
241 378
242 378
243 377
244 376
245 375
246 375
247 374
248 374
248 373
249 372
250 371
251 370
252 369
253 368
254 367
255 366
256 365
257 364
257 363
258 362
259 361
260 360
261 359
262 358
262 357
263 356
263 355
264 354
264 353
265 352
266 351
267 350
267 349
268 348
268 347
269 346
270 345
271 344
272 343
272 342
273 341
273 340
274 339
274 338
275 337
276 336
277 335
277 334
278 333
278 332
279 331
280 330
281 331
281 332
281 333
280 334
280 335
280 336
280 337
280 338
279 339
279 340
279 341
279 342
278 343
278 344
278 345
278 346
277 347
277 348
276 349
276 350
276 351
276 352
275 353
275 354
275 355
274 356
274 357
274 358
273 359
273 360
273 361
273 362
272 363
272 364
272 365
271 366
271 367
272 368
272 369
272 370
272 371
271 372
271 373
272 374
271 375
271 376
271 377
271 378
271 379
271 380
271 381
271 382
270 383
270 384
270 385
270 386
270 387
270 388
270 389
270 390
269 391
269 392
269 393
269 394
269 395
269 396
269 397
269 398
269 399
270 400
270 401
270 402
270 403
270 404
270 405
270 406
270 407
270 408
270 409
270 410
270 411
270 412
269 413
270 414
270 415
270 416
270 417
270 418
270 419
270 420
270 421
271 422
271 423
271 424
271 425
272 426
272 427
272 428
273 429
273 430
273 431
273 432
274 433
275 434
275 435
275 436
276 437
276 438
277 439
278 440
278 441
279 442
280 443
280 444
281 445
281 446
282 447
283 448
284 449
284 450
285 451
286 452
287 453
287 454
288 455
289 456
290 457
290 458
290 459
291 460
292 460
293 460
294 460
295 460
296 460
297 460
298 460
299 460
300 460
301 460
302 459
303 459
304 459
305 459
306 459
307 459
308 459
309 459
310 459
311 459
312 459
313 459
314 459
315 459
316 458
317 458
318 458
319 458
320 457
321 456
322 456
323 455
324 455
325 454
326 454
327 453
328 453
329 452
330 452
331 452
332 452
333 451
334 451
335 451
336 451
337 450
338 450
339 450
340 449
341 448
342 448
343 447
344 446
345 445
346 444
347 443
348 442
349 441
350 440
351 439
352 439
353 438
354 437
355 436
356 435
357 434
358 433
359 432
360 431
361 430
362 430
362 429
363 428
364 427
365 426
365 425
366 424
367 423
368 422
368 421
369 420
369 419
370 418
371 417
371 416
372 415
372 414
373 413
373 412
373 411
374 410
374 409
375 408
375 407
376 406
376 405
377 404
377 403
378 402
379 401
380 400
380 399
381 398
381 397
382 396
382 395
383 394
384 393
384 392
385 391
385 390
386 389
386 388
387 387
388 386
388 385
388 384
389 383
389 382
390 381
390 380
391 379
391 378
392 377
392 376
393 375
393 374
394 373
394 372
395 371
395 370
395 369
396 368
396 367
397 366
397 365
397 364
398 363
398 362
398 361
399 360
399 359
399 358
399 357
400 356
400 355
400 354
400 353
401 352
401 351
401 350
401 349
401 348
402 347
402 346
402 345
402 344
402 343
403 342
403 341
403 340
403 339
403 338
403 337
403 336
403 335
404 334
405 335
405 336
406 337
406 338
406 339
407 340
407 341
407 342
408 343
408 344
409 345
409 346
409 347
410 348
410 349
410 350
411 351
411 352
411 353
411 354
411 355
412 356
412 357
412 358
412 359
412 360
412 361
413 362
413 363
413 364
413 365
413 366
414 367
414 368
414 369
414 370
414 371
415 372
415 373
415 374
415 375
415 376
416 377
416 378
416 379
417 380
417 381
417 382
417 383
417 384
418 385
418 386
418 387
418 388
418 389
418 390
418 391
418 392
419 393
419 394
419 395
420 396
420 397
420 398
421 399
421 400
421 401
422 402
422 403
422 404
423 405
423 406
423 407
423 408
424 409
424 410
424 411
424 412
425 413
425 414
426 415
426 416
426 417
427 418
428 419
428 420
429 421
429 422
430 423
431 424
431 425
431 426
432 427
432 428
433 429
433 430
434 431
434 432
435 433
436 434
436 435
437 436
437 437
438 438
439 439
440 440
441 441
442 442
443 442
444 443
445 444
446 445
447 445
448 446
449 446
450 447
451 447
452 448
453 449
453 450
454 451
455 452
456 453
457 454
457 455
458 455
459 454
460 454
461 453
462 453
463 452
464 452
465 451
466 451
467 450
468 450
469 449
470 449
471 448
472 448
473 447
474 446
475 445
476 444
477 443
478 443
479 442
480 441
480 440
481 439
482 439
482 438
483 437
484 436
485 435
486 434
486 433
487 432
488 431
489 430
490 430
490 429
491 428
492 427
493 426
494 425
495 424
496 423
497 422
498 421
499 421
499 420
500 419
501 418
502 418
502 417
503 416
503 415
504 414
504 413
505 412
505 411
506 410
506 409
507 408
507 407
507 406
508 405
508 404
508 403
508 402
508 401
509 400
509 399
509 398
510 397
510 396
510 395
511 394
511 393
512 392
512 391
513 390
513 389
513 388
514 387
514 386
514 385
515 384
515 383
515 382
516 381
516 380
516 379
517 378
517 377
517 376
517 375
517 374
518 373
518 372
518 371
518 370
518 369
518 368
519 367
519 366
519 365
519 364
519 363
519 362
519 361
519 360
519 359
519 358
519 357
519 356
519 355
519 354
519 353
518 352
518 351
518 350
518 349
518 348
518 347
518 346
518 345
517 344
517 343
517 342
517 341
517 340
517 339
516 338
516 337
516 336
516 335
515 334
515 333
515 332
515 331
514 330
514 329
513 328
513 327
513 326
513 325
512 324
512 323
512 322
512 321
511 320
511 319
511 318
511 317
511 316
510 315
510 314
510 313
509 312
509 311
509 310
509 309
509 308
509 307
509 306
509 305
508 304
508 303
508 302
508 301
508 300
508 299
508 298
508 297
507 296
507 295
507 294
506 293
506 292
505 291
505 290
504 289
504 288
503 287
503 286
503 285
502 284
502 283
501 282
501 281
500 280
500 279
499 278
498 277
497 276
496 275
496 274
495 274
494 273
494 272
493 271
492 270
491 269
490 268
489 268
488 267
487 267
486 266
485 266
484 265
483 265
482 264
481 263
481 262
481 261
482 260
483 259
484 259
485 259
486 259
487 259
488 259
489 259
490 259
491 259
492 259
493 259
494 259
495 259
496 259
497 259
498 259
499 259
500 259
501 259
502 259
503 259
504 259
505 259
506 259
507 259
508 259
509 259
510 259
511 259
512 259
513 259
514 259
515 259
516 259
517 259
518 259
519 259
520 259
521 259
522 259
523 259
524 259
525 259
526 259
527 259
528 259
529 259
530 259
531 259
532 259
533 259
534 259
535 259
536 259
537 260
538 260
539 260
540 260
541 260
542 260
543 260
544 260
545 260
546 260
547 260
548 260
549 260
550 260
551 260
552 260
553 260
554 260
555 260
556 260
557 260
558 260
559 260
560 260
561 260
562 260
563 260
564 260
565 260
566 261
567 261
568 261
569 261
570 261
571 262
572 263
572 264
572 265
572 266
572 267
572 268
572 269
572 270
572 271
572 272
572 273
572 274
571 275
571 276
571 277
570 278
570 279
570 280
570 281
569 282
569 283
569 284
569 285
569 286
568 287
568 288
568 289
568 290
568 291
568 292
568 293
568 294
568 295
568 296
568 297
569 298
569 299
569 300
569 301
570 302
570 303
570 304
571 305
572 306
572 307
573 308
574 309
575 310
575 311
576 311
577 312
578 313
579 313
580 314
581 314
582 315
583 315
584 315
585 315
586 316
587 316
588 316
589 317
590 317
591 317
592 318
593 318
594 319
595 319
596 320
597 320
598 321
599 322
600 323
601 324
602 325
603 326
604 327
604 328
605 329
606 330
607 331
608 332
609 333
609 334
610 334
611 335
612 336
613 337
614 338
615 338
616 339
617 340
618 340
619 341
620 342
621 342
622 343
623 344
624 345
625 345
626 346
627 346
628 347
629 347
630 348
631 348
632 349
633 349
634 349
635 350
636 350
637 350
638 351
639 351
640 351
641 352
642 352
643 353
644 353
645 354
646 354
647 355
648 355
649 355
650 356
651 356
652 357
653 357
654 358
655 358
656 358
657 359
658 359
659 359
660 359
661 359
662 360
663 360
664 360
665 360
666 360
667 360
668 361
669 361
670 361
671 361
672 361
673 361
674 361
675 361
676 361
677 361
678 361
679 361
680 360
681 360
682 360
683 360
684 360
685 359
686 359
687 359
688 359
689 358
690 358
691 357
692 357
693 356
694 356
695 355
696 355
697 354
698 353
699 353
700 352
701 351
701 350
702 349
702 348
702 347
702 346
702 345
702 344
703 343
703 342
703 341
703 340
703 339
703 338
703 337
703 336
703 335
702 334
702 333
702 332
702 331
701 330
701 329
701 328
700 327
700 326
700 325
699 324
699 323
699 322
698 321
698 320
697 319
697 318
696 317
696 316
695 315
694 314
694 313
693 312
692 311
691 310
690 309
690 308
689 307
688 306
687 305
686 304
685 303
684 302
684 301
683 300
682 299
681 298
680 297
679 296
678 295
677 294
676 293
675 292
674 291
674 290
673 289
672 288
671 287
670 286
669 285
669 284
668 283
667 282
666 281
666 280
665 279
664 278
664 277
663 277
662 276
661 275
660 274
659 274
658 273
657 272
656 271
655 270
654 269
653 268
653 267
654 266
653 265
654 264
655 263
656 263
657 262
658 262
659 262
660 262
661 262
662 262
663 262
664 262
665 262
666 262
667 262
668 262
669 262
670 262
671 262
672 262
673 262
674 262
675 262
676 262
677 262
678 262
679 262
680 262
681 262
682 262
683 262
684 262
685 262
686 262
687 262
688 262
689 262
690 262
691 262
692 262
693 262
694 262
695 262
696 262
697 261
698 261
699 261
700 261
701 261
702 261
703 261
704 261
705 261
706 261
707 261
708 261
709 261
710 261
711 261
712 261
713 261
714 261
715 261
716 261
717 261
718 261
719 261
720 261
721 261
722 261
723 261
724 261
725 261
726 261
727 261
728 261
729 260
730 261
731 261
732 260
733 260
734 260
735 260
736 260
737 260
738 260
739 260
740 260
741 260
742 260
743 260
744 260
745 260
746 260
747 260
748 260
749 260
750 260
751 260
752 260
753 260
754 260
755 260
756 260
757 261
758 261
759 261
760 261
761 262
762 262
763 262
764 262
765 262
766 262
767 262
768 262
769 261
770 261
771 260
771 259
772 258
773 257
774 256
774 255
774 254
774 253
773 252
772 252
771 251
770 251
769 250
768 250
767 250
766 250
765 250
764 250
763 250
762 250
761 250
760 250
759 250
758 251
757 251
756 251
755 252
754 252
753 252
752 252
751 252
750 252
749 252
748 252
747 252
746 252
745 252
744 253
743 253
742 253
741 253
740 253
739 253
738 253
737 253
736 253
735 253
734 253
733 254
732 254
731 254
730 254
729 254
728 254
727 254
726 254
725 254
724 254
723 254
722 254
721 254
720 254
719 254
718 254
717 254
716 254
715 254
714 255
713 255
712 255
711 255
710 255
709 255
708 255
707 255
706 255
705 255
704 255
703 255
702 255
701 255
700 255
699 255
698 255
697 255
696 255
695 255
694 255
693 255
692 255
691 255
690 255
689 255
688 256
687 255
686 255
685 255
684 256
683 256
682 256
681 256
680 256
679 256
678 256
677 256
676 256
675 256
674 256
673 256
672 256
671 256
670 256
669 256
668 256
667 256
666 256
665 256
664 256
663 256
662 256
661 256
660 256
659 256
658 256
657 256
656 256
655 256
654 256
653 256
652 256
651 256
650 256
649 256
648 256
647 256
646 256
645 256
644 256
643 256
642 255
641 254
640 253
639 253
638 252
637 251
636 251
635 251
634 250
633 250
632 250
631 249
630 249
629 248
628 248
627 248
626 248
625 247
624 247
623 247
622 247
621 247
620 247
619 247
618 247
617 247
616 247
615 247
614 246
613 245
613 244
612 243
613 242
613 241
614 240
615 239
615 238
616 237
617 236
618 235
618 234
619 233
620 232
621 231
621 230
622 229
623 228
623 227
623 226
623 225
623 224
623 223
623 222
623 221
624 220
624 219
625 218
626 217
627 216
627 215
628 214
629 213
629 212
630 211
631 210
631 209
632 208
633 207
633 206
633 205
634 204
634 203
635 202
635 201
636 200
636 199
637 198
637 197
637 196
637 195
638 194
638 193
638 192
638 191
638 190
638 189
638 188
638 187
638 186
638 185
638 184
638 183
638 182
638 181
638 180
638 179
637 178
637 177
637 176
636 175
636 174
635 173
635 172
634 171
634 170
634 169
633 168
633 167
632 166
632 165
631 164
631 163
630 162
629 161
628 160
628 159
628 158
628 157
629 156
629 155
629 154
629 153
629 152
629 151
629 150
629 149
630 148
630 147
630 146
630 145
630 144
630 143
630 142
630 141
630 140
630 139
629 138
629 137
629 136
628 135
628 134
628 133
627 132
627 131
627 130
627 129
626 128
626 127
626 126
626 125
625 124
625 123
624 122
624 121
624 120
623 119
623 118
623 117
622 116
622 115
621 114
621 113
621 112
620 111
620 110
620 109
619 108
619 107
618 106
617 105
617 104
616 103
615 102
614 101
613 100
612 99
612 98
611 98
610 97
609 96
608 96
607 95
606 94
605 93
604 93
603 92
602 91
601 91
600 90
599 89
598 89
597 88
596 87
596 88
595 89
594 89
593 90
592 91
591 92
590 93
589 94
588 94
587 95
586 95
585 96
584 97
583 98
582 98
581 99
580 100
579 101
578 101
577 102
576 103
575 104
575 105
574 106
573 107
572 108
571 109
570 110
569 111
569 112
568 113
567 114
566 115
566 116
565 117
565 118
564 119
563 120
563 121
563 122
562 123
561 124
561 125
560 126
560 127
560 128
559 129
559 130
558 131
558 132
558 133
558 134
558 135
559 136
558 137
558 138
557 139
556 140
556 141
555 142
555 143
554 144
553 145
553 146
552 147
552 148
551 149
551 150
550 151
550 152
549 153
548 154
548 155
548 156
547 157
547 158
547 159
546 160
546 161
546 162
546 163
545 164
545 165
544 166
544 167
544 168
543 169
543 170
543 171
543 172
543 173
543 174
542 175
542 176
541 177
541 178
540 179
540 180
540 181
539 182
539 183
539 184
539 185
538 186
538 187
538 188
538 189
538 190
537 191
537 192
537 193
536 194
536 195
535 196
534 197
533 198
533 199
532 200
532 201
531 202
531 203
531 204
530 205
530 206
530 207
530 208
530 209
530 210
529 211
529 212
529 213
529 214
530 215
530 216
530 217
530 218
530 219
530 220
530 221
530 222
531 223
531 224
531 225
532 226
532 227
532 228
533 229
533 230
534 231
535 232
535 233
536 234
536 235
537 236
538 237
539 238
539 239
540 239
541 240
542 241
543 242
544 242
545 243
546 243
547 243
548 243
549 244
550 244
551 244
552 244
553 244
554 245
555 246
556 246
557 246
558 247
559 248
560 248
561 248
562 248
563 249
564 249
565 249
566 249
567 249
568 249
569 250
570 251
570 252
570 253
569 254
568 254
567 254
566 254
565 255
564 255
563 254
562 254
561 254
560 254
559 254
558 254
557 254
556 254
555 254
554 254
553 254
552 254
551 254
550 254
549 254
548 254
547 254
546 254
545 254
544 254
543 254
542 254
541 254
540 254
539 254
538 254
537 254
536 254
535 254
534 254
533 254
532 254
531 254
530 254
529 254
528 253
527 253
526 253
525 253
524 253
523 253
522 253
521 253
520 253
519 253
518 253
517 253
516 253
515 253
514 253
513 253
512 253
511 253
510 253
509 253
508 253
507 253
506 253
505 253
504 253
503 253
502 253
501 253
500 253
499 253
498 253
497 253
496 253
495 253
494 252
493 252
492 252
491 252
490 252
489 252
488 252
487 252
486 252
485 251
484 251
483 250
482 249
482 248
483 247
484 248
485 248
486 247
487 246
488 245
489 245
490 244
491 243
492 242
493 241
494 241
495 240
496 240
496 239
497 238
498 238
498 237
499 236
499 235
500 234
500 233
501 232
502 231
502 230
503 229
504 228
504 227
505 226
506 225
507 224
508 223
509 222
509 221
510 220
511 220
511 219
511 218
512 217
513 216
513 215
514 214
514 213
515 212
515 211
516 210
516 209
516 208
517 207
517 206
517 205
517 204
518 203
518 202
518 201
518 200
519 199
519 198
519 197
519 196
519 195
519 194
519 193
519 192
519 191
519 190
519 189
520 188
520 187
520 186
520 185
520 184
520 183
520 182
520 181
520 180
520 179
520 178
520 177
520 176
520 175
520 174
520 173
520 172
520 171
520 170
520 169
520 168
519 167
519 166
519 165
519 164
519 163
519 162
518 161
518 160
518 159
517 158
517 157
517 156
516 155
516 154
516 153
516 152
516 151
516 150
516 149
515 148
515 147
514 146
514 145
514 144
514 143
514 142
515 141
515 140
515 139
515 138
515 137
515 136
515 135
515 134
515 133
515 132
515 131
514 130
514 129
514 128
514 127
513 126
513 125
513 124
512 123
512 122
512 121
512 120
511 119
511 118
511 117
511 116
511 115
511 114
511 113
511 112
510 111
510 110
510 109
510 108
509 107
509 106
508 105
508 104
507 103
507 102
506 101
506 100
506 99
505 98
504 97
504 96
503 95
502 94
502 93
501 92
500 91
499 90
498 89
498 88
497 87
496 86
496 85
495 84
494 83
493 82
492 81
491 80
491 79
491 78
490 77
490 76
489 75
489 74
488 73
488 72
487 71
487 70
486 69
485 68
485 67
484 66
483 65
482 64
481 63
480 62
479 61
479 60
478 60
477 59
477 58
476 57
475 57
474 56
474 55
473 55
472 54
471 53
470 52
469 51
468 51
467 50
466 50
465 49
464 49
463 48
462 48
461 47
460 47
459 47
458 46
457 46
456 46
455 45
454 45
453 45
452 45
451 45
450 44
449 44
448 44
447 44
446 43
445 43
444 42
443 42
442 42
441 41
440 41
