321 76
320 77
319 77
318 77
317 78
316 79
315 79
314 80
313 80
312 81
311 82
310 83
310 84
309 85
309 86
308 87
307 88
306 89
305 89
304 90
303 90
302 90
301 90
300 90
299 90
298 90
297 90
296 90
295 91
294 91
293 91
292 92
291 92
290 92
289 93
288 93
287 93
286 93
285 93
284 94
283 94
282 94
281 94
280 95
279 95
278 95
277 95
276 95
275 95
274 96
273 96
272 96
271 96
270 96
269 97
268 97
267 97
266 97
265 97
264 97
263 98
262 98
261 98
260 98
259 99
258 99
257 99
257 100
256 101
255 102
254 102
253 103
252 104
251 105
250 105
249 105
248 105
247 105
246 106
245 106
244 106
243 106
242 106
241 105
240 105
239 105
238 105
237 105
236 105
235 106
234 106
233 106
232 106
231 106
230 106
229 106
228 107
227 107
226 108
225 109
224 109
223 110
222 111
221 112
221 113
220 114
219 115
218 116
217 117
216 118
215 118
214 118
213 119
212 119
211 119
210 119
209 119
208 119
207 119
206 119
205 119
204 119
203 120
202 120
201 120
200 120
199 120
198 120
197 121
196 121
195 122
194 123
193 124
192 125
191 126
190 127
189 128
188 128
187 129
186 130
185 130
185 131
184 132
183 132
182 133
182 134
181 135
181 136
181 137
180 138
179 139
179 140
178 141
177 142
177 143
176 144
175 145
174 146
174 147
173 148
172 149
171 150
171 151
170 152
169 153
169 154
168 155
167 156
166 157
165 158
165 159
164 160
164 161
164 162
163 163
163 164
162 165
161 165
160 166
159 167
158 168
157 169
157 170
156 171
155 172
154 173
153 174
152 174
151 175
150 176
149 177
148 178
147 178
146 179
146 180
145 181
145 182
144 183
144 184
143 185
142 186
141 187
141 188
141 189
140 190
140 191
140 192
140 193
140 194
139 195
139 196
139 197
138 198
138 199
137 200
137 201
137 202
136 203
136 204
135 205
135 206
135 207
134 208
134 209
134 210
134 211
134 212
134 213
134 214
134 215
134 216
133 217
133 218
132 219
132 220
132 221
133 222
133 223
133 224
133 225
133 226
132 227
131 228
130 228
129 228
128 228
127 228
126 228
125 228
124 228
123 228
122 228
121 228
120 229
119 229
118 229
117 229
116 228
115 228
114 228
113 228
112 228
111 228
110 228
109 228
108 229
107 229
106 229
105 229
104 230
103 230
102 231
101 231
101 232
100 233
99 234
99 235
98 236
98 237
97 238
96 239
95 240
94 240
93 240
92 240
91 240
90 240
89 240
88 240
87 240
86 241
85 241
84 241
83 242
82 242
81 243
80 244
79 244
78 245
77 246
76 247
75 247
74 248
73 249
72 249
71 250
70 251
69 252
68 253
67 254
66 255
65 255
64 256
63 257
63 258
62 259
61 260
61 261
61 262
60 263
59 264
58 265
58 266
57 267
57 268
57 269
57 270
57 271
56 272
56 273
56 274
55 275
55 276
54 277
54 278
53 279
52 280
52 281
51 282
51 283
50 284
50 285
50 286
50 287
50 288
50 289
51 290
51 291
51 292
52 293
52 294
52 295
52 296
52 297
52 298
52 299
52 300
52 301
52 302
51 303
51 304
51 305
51 306
51 307
51 308
51 309
51 310
51 311
52 312
52 313
52 314
53 315
53 316
53 317
54 318
54 319
54 320
54 321
55 322
56 323
57 324
58 325
58 326
59 327
60 328
61 329
62 330
63 331
64 331
65 332
66 332
67 333
68 333
69 334
70 334
71 334
72 335
73 336
74 336
75 337
76 337
77 338
78 338
79 339
80 340
81 340
82 340
83 341
84 341
85 341
86 342
87 342
88 342
89 342
90 342
91 343
92 343
93 343
94 344
95 344
96 345
97 345
98 346
99 347
100 347
101 348
101 349
102 350
102 351
102 352
102 353
101 354
101 355
100 356
99 357
98 358
97 359
96 360
95 361
94 361
93 362
92 362
91 362
90 363
89 363
88 363
87 363
86 363
85 364
84 364
83 364
82 365
81 365
80 366
79 367
79 368
78 369
77 370
77 371
76 372
75 373
75 374
75 375
75 376
75 377
75 378
75 379
75 380
74 381
74 382
74 383
74 384
74 385
74 386
74 387
74 388
75 389
75 390
75 391
75 392
74 393
74 394
74 395
74 396
73 397
72 398
71 399
70 400
70 401
69 402
68 403
67 403
66 404
65 405
65 406
64 407
64 408
64 409
64 410
63 411
63 412
63 413
62 414
61 415
60 416
59 417
59 418
58 419
57 420
56 421
55 422
55 423
54 424
53 425
53 426
52 427
52 428
52 429
52 430
51 431
51 432
51 433
51 434
51 435
51 436
51 437
51 438
51 439
52 440
53 441
54 442
55 443
56 444
57 444
58 445
59 445
60 446
61 446
62 446
63 447
64 447
65 448
66 448
67 449
68 450
68 451
69 452
69 453
69 454
69 455
68 456
67 457
67 458
66 459
66 460
66 461
65 462
65 463
65 464
64 465
63 466
63 467
62 468
62 469
62 470
62 471
63 472
64 473
64 474
65 475
65 476
65 477
65 478
66 479
66 480
67 481
68 482
69 482
70 483
71 484
71 485
71 486
71 487
71 488
71 489
71 490
71 491
71 492
71 493
71 494
71 495
72 496
72 497
72 498
73 499
73 500
73 501
74 502
75 503
75 504
76 505
76 506
76 507
77 508
77 509
77 510
76 511
76 512
75 513
75 514
75 515
75 516
76 517
77 518
78 519
79 520
80 520
81 521
81 522
82 523
83 524
84 524
85 525
86 525
87 525
88 526
89 526
90 526
91 527
92 527
93 527
94 527
95 528
96 529
97 530
97 531
97 532
96 533
95 534
94 534
93 535
92 536
92 537
92 538
92 539
92 540
92 541
92 542
93 543
93 544
94 545
95 546
95 547
96 548
97 549
97 550
98 551
98 552
99 552
100 553
101 554
102 555
103 555
104 556
105 556
106 557
107 558
107 559
108 560
109 561
109 562
110 563
111 564
112 565
113 566
113 567
114 568
115 569
115 570
116 571
116 572
117 573
117 574
118 575
118 576
118 577
119 578
119 579
119 580
120 581
121 582
122 583
122 584
123 585
124 586
125 586
126 587
127 587
128 588
129 589
130 590
131 591
131 592
132 593
132 594
132 595
131 596
131 597
131 598
131 599
131 600
130 601
130 602
130 603
130 604
129 605
129 606
129 607
129 608
129 609
129 610
130 611
130 612
131 613
132 614
132 615
133 615
134 616
135 617
136 618
137 618
138 619
139 619
140 619
141 620
142 621
143 621
144 622
145 623
146 624
147 624
148 625
149 626
150 626
151 627
152 627
153 628
154 628
155 629
156 629
157 630
158 631
159 632
160 632
161 633
162 633
163 633
164 634
165 634
166 634
167 635
168 635
169 636
170 636
171 636
172 636
173 637
174 637
175 637
176 637
177 638
178 638
179 638
180 638
181 638
182 638
183 639
184 639
185 639
186 639
187 640
188 640
189 641
190 641
191 641
192 642
193 643
194 644
195 645
196 646
197 647
198 648
199 648
200 649
201 650
202 650
203 651
204 652
205 652
206 653
207 654
208 654
209 655
210 656
210 657
211 658
212 659
212 660
213 661
214 662
215 662
216 662
217 663
218 663
219 663
220 663
221 662
222 662
223 662
224 662
225 662
226 662
227 662
228 663
229 663
230 663
231 663
232 664
233 664
234 665
235 666
236 667
237 668
237 669
237 670
237 671
238 672
239 673
240 673
241 674
242 674
243 674
244 674
245 674
246 674
247 674
248 674
249 675
250 675
251 675
252 675
253 675
254 675
255 675
256 676
257 676
258 676
259 676
260 677
261 677
262 677
263 677
264 678
265 678
266 678
267 679
267 680
268 681
268 682
268 683
268 684
269 685
269 686
269 687
270 688
269 689
269 690
269 691
269 692
270 693
270 694
271 695
271 696
271 697
271 698
271 699
271 700
272 701
272 702
272 703
273 704
273 705
274 706
274 707
275 708
276 709
277 710
278 711
279 712
280 712
281 713
282 714
283 715
284 716
285 717
286 718
287 719
288 720
289 720
290 721
291 722
292 723
293 724
294 724
295 725
296 726
297 726
298 727
299 728
300 729
301 730
302 731
303 731
304 732
305 732
306 732
307 732
308 732
309 732
310 732
311 732
312 731
313 731
314 731
315 730
316 730
317 729
318 729
319 728
320 727
321 726
322 726
323 725
324 724
325 724
325 723
326 722
327 721
328 720
328 719
329 718
329 717
330 716
330 715
331 714
332 713
333 712
333 711
334 710
335 710
335 709
336 708
336 707
337 706
337 705
338 704
338 703
338 702
338 701
339 700
339 699
339 698
339 697
340 696
340 695
340 694
341 693
341 692
341 691
342 690
342 689
342 688
342 687
342 686
343 685
343 684
343 683
343 682
344 681
344 680
344 679
345 678
345 677
345 676
345 675
346 674
346 673
346 672
346 671
347 670
347 669
347 668
347 667
348 666
348 665
348 664
348 663
349 662
349 661
349 660
349 659
349 658
350 657
350 656
350 655
350 654
350 653
351 652
351 651
351 650
351 649
352 648
352 647
352 646
352 645
353 644
353 643
354 642
354 641
354 640
354 639
355 638
355 637
355 636
356 635
356 634
356 633
357 632
357 631
358 630
358 629
358 628
359 627
359 626
359 625
360 624
360 623
360 622
360 621
361 620
361 619
361 618
362 617
362 616
362 615
363 614
363 613
363 612
364 611
364 610
364 609
365 608
365 607
365 606
365 605
366 604
366 603
366 602
366 601
366 600
366 599
367 598
367 597
367 596
367 595
368 594
368 593
368 592
368 591
368 590
368 589
369 588
369 587
369 586
369 585
369 584
370 583
370 582
370 581
370 580
370 579
370 578
370 577
370 576
370 575
370 574
370 573
370 572
370 571
370 570
370 569
370 568
370 567
370 566
370 565
370 564
370 563
370 562
370 561
370 560
370 559
370 558
370 557
370 556
370 555
370 554
370 553
371 552
371 551
371 550
371 549
371 548
371 547
371 546
371 545
371 544
371 543
371 542
371 541
370 540
370 539
370 538
370 537
370 536
370 535
370 534
370 533
370 532
371 531
371 530
371 529
371 528
371 527
371 526
371 525
371 524
372 523
372 522
372 521
372 520
372 519
372 518
372 517
372 516
372 515
372 514
372 513
372 512
372 511
372 510
372 509
372 508
373 507
373 506
373 505
373 504
373 503
374 502
374 501
374 500
374 499
374 498
375 497
375 496
375 495
375 494
375 493
375 492
375 491
375 490
375 489
375 488
375 487
375 486
375 485
376 484
376 483
376 482
376 481
376 480
377 479
377 478
377 477
377 476
378 475
378 474
378 473
378 472
379 471
379 470
379 469
380 468
380 467
380 466
380 465
381 464
381 463
381 462
382 461
382 460
383 459
383 458
384 457
384 456
384 455
385 454
385 453
386 452
386 451
386 450
387 449
387 448
388 447
388 446
388 445
389 444
390 443
390 442
391 441
391 440
392 439
393 438
394 437
394 436
395 435
395 434
396 433
397 432
398 431
399 430
400 429
401 428
402 427
403 426
404 425
405 424
406 423
407 422
408 422
409 421
410 420
411 420
412 419
413 418
414 418
415 417
416 417
417 416
418 416
419 416
420 416
421 416
422 415
423 415
424 415
425 415
426 414
427 414
428 414
429 413
430 413
431 413
432 412
433 412
434 412
435 412
436 411
437 411
438 411
439 411
440 410
441 410
442 410
443 410
444 410
445 410
446 409
447 409
448 409
449 409
450 409
451 409
452 409
453 408
454 408
455 408
456 408
457 408
458 408
459 407
460 407
461 407
462 407
463 407
464 406
465 406
466 406
467 406
468 406
469 406
470 406
471 406
472 405
473 405
474 405
475 405
476 405
477 405
478 405
479 405
480 405
481 405
482 405
483 405
484 405
485 405
486 405
487 405
488 405
489 404
490 404
491 404
492 404
493 404
494 404
495 404
496 404
497 404
498 403
499 403
500 403
501 403
502 403
503 403
504 402
505 402
506 402
507 402
508 402
509 401
510 401
511 401
512 401
513 401
514 400
515 400
516 400
517 400
518 399
519 399
520 399
521 399
522 399
523 398
524 398
525 398
526 397
527 397
528 397
529 396
530 396
531 396
532 395
533 395
534 395
535 395
536 394
537 394
538 394
539 393
540 393
541 393
542 392
543 392
544 392
545 391
546 391
547 391
548 390
549 390
550 390
551 390
552 389
553 389
554 389
555 388
556 388
557 388
558 387
559 387
560 387
561 386
562 386
563 386
564 385
565 385
566 385
567 385
568 384
569 384
570 384
571 383
572 383
573 383
574 382
575 382
576 382
577 382
578 382
579 381
580 381
581 381
582 381
583 381
584 381
585 381
586 381
587 380
588 380
589 380
590 380
591 380
592 380
593 380
594 380
595 381
596 381
597 381
598 381
599 381
600 381
601 381
602 381
603 380
604 379
605 378
605 377
605 376
606 375
607 375
607 374
608 373
608 372
608 371
608 370
608 369
608 368
608 367
608 366
607 365
606 364
606 363
605 362
604 361
603 360
602 360
601 360
600 361
599 361
598 361
597 361
596 361
595 361
594 361
593 362
592 362
591 362
590 363
589 363
588 363
587 364
586 364
585 364
584 365
583 366
582 366
581 366
580 367
579 367
578 368
577 368
576 368
575 369
574 369
573 369
572 370
571 370
570 370
569 371
568 371
567 371
566 372
565 372
564 373
563 373
562 373
561 374
560 374
559 375
558 375
557 375
556 376
555 376
554 376
553 376
552 377
551 377
550 377
549 378
548 378
547 378
546 379
545 379
544 380
543 380
542 380
541 381
540 381
539 381
538 382
537 382
536 382
535 382
534 383
533 383
532 383
531 384
530 384
529 384
528 385
527 385
526 385
525 385
524 386
523 386
522 386
521 386
520 387
519 387
518 388
517 388
516 388
515 389
514 389
513 389
512 389
511 390
510 390
509 390
508 390
507 391
506 391
505 391
504 391
503 392
502 392
501 392
500 392
499 393
498 393
497 393
496 393
495 393
494 393
493 394
492 394
491 394
490 394
489 394
488 394
487 395
486 395
485 395
484 395
483 395
482 395
481 395
480 395
479 395
478 396
477 396
476 396
475 396
474 396
473 396
472 396
471 396
470 396
469 396
468 396
467 396
466 396
465 397
464 397
463 397
462 397
461 397
460 397
459 397
458 397
457 397
456 397
455 397
454 397
453 397
452 397
451 397
450 398
449 398
448 398
447 398
446 398
445 398
444 398
443 398
442 398
441 398
440 398
439 397
438 397
437 397
436 397
435 397
434 397
433 397
432 396
431 396
430 396
429 396
428 395
427 395
426 394
425 394
424 393
423 393
422 393
421 392
420 392
419 391
418 391
417 391
416 390
415 390
414 390
413 389
412 389
411 389
410 389
409 388
408 388
407 387
406 386
405 385
404 384
403 383
402 382
401 381
400 380
399 379
398 378
397 377
396 376
395 375
395 374
394 373
394 372
393 371
393 370
393 369
392 368
392 367
392 366
391 365
391 364
390 363
390 362
390 361
389 360
389 359
389 358
389 357
388 356
388 355
388 354
388 353
388 352
387 351
387 350
387 349
387 348
387 347
387 346
386 345
386 344
386 343
386 342
386 341
386 340
386 339
386 338
386 337
385 336
385 335
385 334
385 333
385 332
385 331
385 330
385 329
385 328
385 327
385 326
385 325
385 324
385 323
384 322
384 321
384 320
384 319
384 318
384 317
384 316
384 315
384 314
383 313
383 312
383 311
383 310
383 309
383 308
383 307
383 306
383 305
383 304
383 303
383 302
383 301
383 300
383 299
383 298
383 297
383 296
383 295
383 294
383 293
383 292
383 291
383 290
383 289
383 288
383 287
383 286
384 285
384 284
384 283
384 282
384 281
384 280
384 279
385 278
385 277
385 276
385 275
385 274
385 273
385 272
385 271
385 270
385 269
385 268
386 267
386 266
386 265
386 264
386 263
386 262
386 261
386 260
386 259
386 258
387 257
387 256
387 255
387 254
388 253
388 252
388 251
388 250
388 249
388 248
389 247
389 246
389 245
389 244
389 243
389 242
389 241
389 240
390 239
390 238
390 237
390 236
390 235
390 234
390 233
390 232
390 231
390 230
390 229
390 228
390 227
391 226
391 225
391 224
391 223
391 222
391 221
391 220
391 219
391 218
392 217
392 216
392 215
392 214
392 213
392 212
392 211
392 210
392 209
393 208
393 207
393 206
393 205
393 204
393 203
393 202
393 201
393 200
393 199
393 198
393 197
393 196
394 195
394 194
394 193
394 192
394 191
394 190
394 189
394 188
394 187
394 186
394 185
394 184
394 183
394 182
394 181
394 180
394 179
394 178
394 177
394 176
394 175
394 174
393 173
393 172
393 171
393 170
393 169
393 168
393 167
393 166
393 165
393 164
393 163
392 162
392 161
392 160
392 159
392 158
392 157
392 156
391 155
391 154
391 153
391 152
391 151
391 150
390 149
390 148
390 147
390 146
390 145
390 144
390 143
390 142
389 141
389 140
389 139
389 138
389 137
388 136
388 135
388 134
388 133
388 132
388 131
388 130
387 129
388 128
387 127
387 126
387 125
387 124
387 123
387 122
387 121
386 120
386 119
386 118
386 117
386 116
385 115
385 114
384 113
383 112
383 111
382 110
381 109
380 108
379 107
379 106
378 105
378 104
378 103
377 102
377 101
376 100
376 99
375 98
375 97
374 96
373 95
373 94
372 93
371 92
370 91
370 90
369 89
368 88
367 87
366 86
365 86
364 85
363 85
362 84
361 83
360 83
359 82
358 82
357 81
356 81
355 81
354 81
353 81
352 80
351 79
350 79
349 79
348 78
347 78
346 78
345 78
344 79
343 79
342 79
341 79
340 79
339 79
338 78
337 78
336 78
335 78
334 78
333 77
332 77
331 77
330 76
329 76
328 76
327 76
326 76
325 76
324 76
323 76
322 76
321 76
