29 335
29 336
29 337
30 337
31 337
32 338
33 338
34 338
35 338
36 338
37 338
38 338
39 339
40 339
41 339
42 339
43 339
44 339
45 340
46 340
47 340
48 340
49 341
50 341
51 341
52 341
53 342
54 342
55 342
56 342
57 343
58 343
59 343
60 343
61 343
62 344
63 344
64 344
65 345
66 345
67 345
68 345
69 345
70 345
71 345
72 345
73 345
74 345
75 345
76 345
77 345
78 346
79 346
80 347
81 347
82 348
82 349
83 350
84 350
85 350
86 350
87 350
88 350
89 350
90 350
91 350
92 351
93 351
94 352
94 353
95 354
96 354
97 354
98 355
99 355
100 355
101 356
102 356
103 356
104 357
105 357
106 357
107 357
108 357
109 357
110 357
111 357
112 357
113 357
114 357
115 357
116 357
117 358
118 358
119 359
120 359
121 360
122 361
123 362
124 362
125 362
126 363
127 363
128 364
129 364
130 365
130 366
131 367
131 368
132 369
132 370
131 371
131 372
130 373
130 374
129 375
128 375
128 376
128 377
128 378
129 378
130 378
131 378
132 378
133 378
134 377
135 376
136 376
137 375
138 376
139 377
140 378
140 379
141 380
141 381
141 382
141 383
141 384
140 385
140 386
140 387
140 388
140 389
140 390
140 391
140 392
140 393
140 394
140 395
140 396
140 397
140 398
140 399
140 400
140 401
139 402
139 403
138 404
138 405
138 406
138 407
138 408
138 409
138 410
138 411
139 412
139 413
140 414
140 415
140 416
140 417
140 418
140 419
140 420
140 421
140 422
141 423
142 424
142 425
143 426
143 427
144 428
144 429
145 430
145 431
145 432
145 433
145 434
145 435
146 436
146 437
146 438
146 439
146 440
146 441
146 442
146 443
147 443
148 443
149 443
150 443
151 442
152 441
153 440
154 439
154 438
155 437
155 436
156 435
156 434
157 433
158 432
159 431
160 431
161 430
162 429
163 428
164 427
165 427
166 426
167 425
168 424
169 423
170 422
171 421
172 420
172 419
173 418
174 417
175 416
175 415
176 414
176 413
177 412
178 411
178 410
179 409
179 408
180 407
180 406
181 405
181 404
182 403
182 402
183 401
183 400
184 399
184 398
185 397
186 396
186 395
187 394
188 393
189 393
190 393
191 394
192 395
192 396
193 397
193 398
194 399
194 400
194 401
194 402
195 403
195 404
195 405
195 406
195 407
196 408
196 409
196 410
196 411
197 412
197 413
197 414
197 415
197 416
197 417
198 418
198 419
199 420
199 421
200 422
200 423
200 424
200 425
200 426
201 427
201 428
201 429
202 430
202 431
202 432
203 433
203 434
204 435
204 436
204 437
204 438
204 439
204 440
204 441
205 442
205 443
205 444
205 445
205 446
205 447
205 448
206 449
206 450
206 451
206 452
206 453
206 454
206 455
207 455
208 455
209 455
210 454
210 453
211 452
211 451
211 450
212 449
212 448
213 447
213 446
214 445
214 444
215 443
215 442
216 441
216 440
217 439
217 438
218 437
218 436
219 435
219 434
220 433
221 432
222 431
222 430
223 429
224 428
225 427
226 426
226 425
227 424
228 423
229 422
230 421
230 420
231 419
232 418
232 417
233 416
233 415
234 414
234 413
235 412
236 411
237 410
238 411
239 412
240 413
240 414
241 415
241 416
241 417
241 418
242 419
242 420
242 421
242 422
242 423
242 424
243 425
243 426
243 427
243 428
244 429
244 430
244 431
245 432
245 433
246 434
246 435
246 436
247 437
247 438
247 439
247 440
247 441
247 442
247 443
247 444
247 445
247 446
247 447
247 448
247 449
247 450
246 451
246 452
246 453
246 454
245 455
245 456
245 457
245 458
245 459
245 460
245 461
245 462
245 463
246 463
247 463
248 463
249 462
249 461
250 460
251 459
251 458
252 457
252 456
253 455
253 454
254 453
254 452
255 451
255 450
256 449
257 448
258 447
259 446
260 445
261 444
262 443
263 442
264 441
265 440
266 439
266 438
267 437
268 436
268 435
269 434
270 433
270 432
271 431
272 430
272 429
273 428
273 427
274 426
274 425
275 424
276 423
277 422
278 421
278 420
279 419
279 418
280 417
280 416
281 415
281 414
282 413
283 412
283 411
284 410
284 409
284 408
285 407
285 406
285 405
286 404
286 403
287 402
287 401
287 400
288 399
288 398
288 397
289 396
289 395
290 394
290 393
290 392
291 391
291 390
291 389
292 388
292 387
292 386
292 385
293 384
293 383
293 382
294 381
294 380
294 379
295 378
295 377
296 376
296 375
297 374
298 373
299 372
300 373
301 374
302 375
302 376
303 377
303 378
303 379
303 380
303 381
303 382
303 383
303 384
303 385
303 386
303 387
303 388
303 389
303 390
303 391
303 392
303 393
303 394
303 395
303 396
303 397
303 398
303 399
303 400
303 401
303 402
303 403
303 404
304 405
304 406
304 407
304 408
305 409
305 410
305 411
306 412
306 413
306 414
306 415
307 416
307 417
307 418
307 419
307 420
307 421
308 422
308 423
308 424
309 425
309 426
309 427
310 428
310 429
310 430
310 431
311 432
311 433
311 434
312 435
312 436
313 437
313 438
314 439
314 440
315 441
315 442
316 443
316 444
317 445
317 446
318 447
318 448
319 449
319 450
320 451
320 452
320 453
321 454
321 455
322 456
322 457
322 458
322 459
322 460
323 461
323 462
323 463
323 464
323 465
323 466
323 467
323 468
324 468
325 468
326 468
326 467
327 466
327 465
327 464
327 463
327 462
327 461
328 460
328 459
328 458
329 457
329 456
329 455
330 454
330 453
331 452
331 451
332 450
332 449
333 448
333 447
334 446
335 445
335 444
336 443
337 442
338 441
339 440
340 439
340 438
341 437
342 436
343 435
343 434
344 433
344 432
345 431
345 430
346 429
346 428
347 427
347 426
348 425
348 424
349 423
349 422
350 421
350 420
350 419
351 418
351 417
351 416
352 415
352 414
353 413
353 412
354 411
354 410
354 409
355 408
355 407
355 406
356 405
356 404
356 403
356 402
357 401
357 400
357 399
358 398
358 397
358 396
358 395
358 394
359 393
359 392
359 391
359 390
360 389
360 388
361 387
362 386
363 385
364 386
365 387
366 388
366 389
367 390
367 391
367 392
367 393
367 394
367 395
367 396
367 397
367 398
368 399
368 400
368 401
368 402
368 403
369 404
369 405
370 406
370 407
371 408
371 409
371 410
372 411
372 412
373 413
373 414
373 415
374 416
374 417
375 418
375 419
375 420
375 421
376 422
376 423
377 424
377 425
378 426
378 427
378 428
379 429
380 430
381 430
382 431
383 432
384 433
385 434
386 435
386 436
387 437
387 438
388 439
389 440
389 441
390 442
390 443
391 444
391 445
392 446
392 447
392 448
393 449
393 450
393 451
393 452
394 453
394 454
394 455
395 455
396 455
397 455
398 455
399 455
400 455
400 454
400 453
401 452
401 451
401 450
401 449
402 448
402 447
402 446
403 445
403 444
403 443
404 442
404 441
404 440
405 439
405 438
405 437
405 436
405 435
405 434
406 433
406 432
406 431
407 430
407 429
407 428
407 427
408 426
408 425
409 424
409 423
410 422
410 421
411 420
411 419
412 418
412 417
413 416
414 415
415 414
416 413
416 412
417 411
418 410
419 410
420 409
421 409
422 408
423 408
424 409
425 409
426 410
427 410
428 411
429 412
429 413
430 414
430 415
431 416
431 417
432 418
432 419
433 420
433 421
434 422
434 423
435 424
435 425
436 426
437 427
437 428
438 429
438 430
439 431
439 432
440 433
441 434
442 435
442 436
443 437
444 438
444 439
445 440
445 441
446 442
446 443
447 444
447 445
448 446
448 447
449 448
449 449
450 450
450 451
451 452
451 453
452 454
453 455
454 455
455 456
456 456
457 456
458 456
459 456
459 455
459 454
459 453
459 452
459 451
459 450
459 449
459 448
459 447
459 446
458 445
458 444
457 443
457 442
456 441
456 440
456 439
455 438
455 437
455 436
455 435
455 434
456 433
456 432
456 431
457 430
457 429
458 428
458 427
459 426
459 425
460 424
460 423
461 422
461 421
462 420
463 419
463 418
464 417
464 416
465 415
466 414
466 413
467 412
467 411
468 410
468 409
468 408
469 407
469 406
469 405
470 404
470 403
471 402
471 401
472 400
472 399
473 398
473 397
474 396
474 395
475 394
475 393
475 392
475 391
476 390
476 389
476 388
476 387
476 386
477 385
477 384
477 383
477 382
478 381
478 380
478 379
478 378
478 377
478 376
478 375
478 374
478 373
478 372
478 371
479 370
479 369
479 368
479 367
479 366
480 365
480 364
480 363
480 362
480 361
480 360
480 359
480 358
481 357
481 356
481 355
481 354
482 353
482 352
483 351
483 350
483 349
483 348
483 347
483 346
483 345
483 344
483 343
483 342
483 341
483 340
483 339
483 338
483 337
483 336
482 335
482 334
481 333
481 332
481 331
480 330
480 329
480 328
479 327
479 326
479 325
478 324
477 323
476 322
475 321
474 320
473 319
473 318
473 317
474 316
475 315
476 314
477 314
478 313
479 313
480 313
481 313
482 313
483 313
484 313
485 313
486 314
487 314
488 314
489 314
490 314
491 314
492 314
493 314
494 314
495 314
496 314
497 314
498 314
499 314
500 314
501 314
502 314
503 314
504 315
505 315
506 315
507 316
508 316
509 317
510 318
511 319
511 320
510 321
510 322
510 323
510 324
510 325
509 326
509 327
509 328
508 329
508 330
507 331
507 332
506 333
506 334
506 335
506 336
506 337
506 338
506 339
506 340
506 341
506 342
506 343
507 344
507 345
507 346
507 347
507 348
507 349
507 350
507 351
507 352
507 353
507 354
507 355
507 356
507 357
507 358
507 359
507 360
507 361
507 362
507 363
507 364
507 365
507 366
508 367
508 368
508 369
508 370
508 371
508 372
509 373
509 374
509 375
510 376
510 377
510 378
510 379
510 380
510 381
510 382
511 383
511 384
511 385
512 386
512 387
513 388
513 389
514 390
514 391
514 392
514 393
515 394
515 395
516 396
516 397
517 398
517 399
518 400
518 401
519 402
520 403
520 404
521 405
521 406
522 407
522 408
523 409
524 410
525 411
526 412
526 413
527 414
528 415
529 416
530 416
531 417
531 418
532 419
533 420
534 421
535 422
535 423
536 424
537 425
537 426
538 427
538 428
539 429
539 430
540 431
541 432
541 433
542 434
543 435
543 436
544 437
545 438
545 439
546 440
546 441
547 442
547 443
548 444
548 445
549 446
549 447
550 447
551 447
552 447
553 447
553 446
553 445
553 444
553 443
553 442
553 441
553 440
553 439
552 438
552 437
552 436
551 435
551 434
551 433
550 432
550 431
550 430
550 429
550 428
550 427
551 426
551 425
551 424
551 423
551 422
552 421
552 420
552 419
553 418
553 417
553 416
553 415
553 414
554 413
554 412
554 411
555 410
555 409
555 408
556 407
556 406
556 405
556 404
556 403
557 402
557 401
557 400
557 399
557 398
558 397
558 396
558 395
559 394
559 393
559 392
559 391
559 390
560 389
560 388
560 387
560 386
561 385
561 384
561 383
561 382
561 381
561 380
562 379
562 378
562 377
562 376
562 375
562 374
562 373
562 372
562 371
562 370
562 369
563 368
563 367
563 366
563 365
563 364
563 363
563 362
563 361
563 360
563 359
563 358
563 357
563 356
563 355
563 354
563 353
563 352
563 351
563 350
562 349
562 348
562 347
562 346
562 345
562 344
562 343
562 342
562 341
562 340
562 339
562 338
562 337
562 336
562 335
562 334
562 333
562 332
561 331
561 330
560 329
559 328
558 327
557 326
556 325
556 324
557 323
558 322
559 321
560 322
561 322
562 322
563 322
564 322
565 322
566 322
567 322
568 322
569 322
570 322
571 322
572 322
573 322
574 322
575 322
576 322
577 322
578 322
579 322
580 322
581 322
582 322
583 322
584 322
585 323
586 323
587 323
588 323
589 323
590 323
591 323
592 323
593 324
594 324
595 324
596 324
597 324
598 324
599 324
600 325
601 325
602 325
603 325
604 325
605 325
606 325
607 325
608 326
609 326
610 326
611 326
612 326
613 326
614 326
615 326
616 326
617 327
618 327
619 327
620 327
621 327
622 327
623 327
624 327
625 327
626 328
627 328
628 328
629 328
630 328
631 328
632 328
633 328
634 329
635 329
636 329
637 329
638 329
639 329
640 329
641 329
642 329
643 329
644 330
645 330
646 330
647 330
648 330
649 330
650 330
651 330
652 330
653 331
654 331
655 331
656 331
657 331
658 331
659 331
660 331
661 331
662 332
663 332
664 332
665 332
666 332
667 332
668 332
669 333
670 333
671 333
672 333
673 334
674 334
675 335
676 336
677 337
678 337
679 336
680 336
681 335
682 335
683 335
683 334
683 333
683 332
683 331
683 330
683 329
683 328
683 327
683 326
683 325
682 325
681 325
680 325
679 325
678 325
677 325
676 325
675 325
674 325
673 325
672 325
671 325
670 325
669 325
668 326
667 326
666 326
665 326
664 326
663 327
662 327
661 327
660 327
659 327
658 327
657 327
656 327
655 326
654 326
653 326
652 326
651 326
650 326
649 326
648 326
647 326
646 326
645 326
644 326
643 326
642 325
641 325
640 325
639 325
638 325
637 325
636 325
635 325
634 325
633 325
632 324
631 324
630 324
629 324
628 324
627 324
626 324
625 324
624 324
623 323
622 323
621 323
620 323
619 323
618 323
617 323
616 323
615 323
614 323
613 323
612 322
611 322
610 322
609 322
608 322
607 321
606 321
605 321
604 321
603 321
602 321
601 321
600 321
599 321
598 321
597 320
596 320
595 320
594 320
593 320
592 320
591 320
590 320
589 320
588 319
587 319
586 319
585 319
584 319
583 319
582 318
581 318
580 318
579 318
578 318
577 318
576 318
575 317
574 317
573 316
572 315
571 314
572 313
572 312
573 311
574 310
575 309
576 308
576 307
576 306
576 305
577 304
577 303
578 302
578 301
579 300
579 299
580 298
581 297
582 296
583 295
584 294
585 293
586 292
586 291
587 290
587 289
588 288
589 287
589 286
589 285
589 284
590 283
590 282
590 281
590 280
590 279
590 278
591 277
591 276
591 275
591 274
592 273
592 272
592 271
592 270
592 269
592 268
592 267
592 266
592 265
592 264
593 263
593 262
593 261
593 260
593 259
593 258
593 257
593 256
593 255
593 254
593 253
593 252
593 251
593 250
593 249
593 248
593 247
593 246
593 245
593 244
593 243
593 242
593 241
593 240
593 239
593 238
593 237
593 236
593 235
593 234
593 233
593 232
593 231
593 230
593 229
592 228
592 227
592 226
592 225
592 224
592 223
592 222
592 221
592 220
592 219
592 218
592 217
592 216
592 215
591 214
591 213
591 212
591 211
591 210
591 209
591 208
591 207
591 206
591 205
591 204
591 203
592 202
592 201
592 200
592 199
592 198
593 197
593 196
593 195
593 194
593 193
593 192
593 191
593 190
593 189
593 188
593 187
593 186
593 185
592 185
591 185
590 185
589 185
588 185
587 186
587 187
586 188
585 189
585 190
584 191
583 192
583 193
582 194
581 195
581 196
580 197
580 198
579 199
578 200
577 201
576 202
575 203
574 204
573 205
572 206
571 207
570 208
569 209
569 210
568 211
567 212
566 213
566 214
565 215
564 216
563 217
562 218
561 219
560 220
559 220
558 221
557 222
556 223
555 224
554 225
553 226
552 227
551 228
550 229
549 230
548 231
547 232
546 233
546 234
545 235
544 236
543 237
542 238
541 239
541 240
540 241
539 242
539 243
538 244
537 245
537 246
536 247
535 248
534 249
534 250
533 251
532 252
531 253
530 254
529 255
529 256
528 257
527 258
527 259
527 260
526 261
526 262
525 263
525 264
524 265
524 266
524 267
523 268
523 269
523 270
522 271
522 272
522 273
522 274
522 275
522 276
522 277
521 278
521 279
521 280
521 281
521 282
521 283
521 284
521 285
521 286
521 287
521 288
521 289
521 290
521 291
521 292
521 293
521 294
521 295
521 296
521 297
521 298
521 299
521 300
521 301
521 302
522 303
522 304
521 305
521 306
520 307
520 308
519 309
518 309
517 310
516 310
515 311
514 311
513 311
512 311
511 311
510 311
509 311
508 311
507 311
506 311
505 311
504 311
503 311
502 311
501 311
500 311
499 311
498 310
497 310
496 310
495 309
494 309
493 308
492 307
491 306
491 305
492 304
492 303
493 302
494 301
495 300
496 299
496 298
496 297
496 296
496 295
496 294
496 293
496 292
496 291
496 290
496 289
497 288
497 287
498 286
498 285
499 284
499 283
500 282
500 281
500 280
501 279
501 278
502 277
502 276
502 275
502 274
502 273
503 272
503 271
503 270
503 269
503 268
503 267
503 266
503 265
503 264
503 263
503 262
503 261
503 260
503 259
503 258
503 257
504 256
504 255
504 254
504 253
504 252
504 251
504 250
504 249
504 248
504 247
504 246
504 245
504 244
504 243
504 242
504 241
504 240
504 239
504 238
504 237
504 236
504 235
504 234
504 233
504 232
504 231
504 230
504 229
504 228
504 227
504 226
504 225
504 224
504 223
503 222
503 221
503 220
503 219
503 218
503 217
503 216
503 215
503 214
503 213
503 212
503 211
503 210
503 209
503 208
502 207
502 206
502 205
502 204
502 203
502 202
501 201
501 200
501 199
501 198
501 197
501 196
501 195
501 194
501 193
501 192
501 191
501 190
501 189
500 188
500 187
500 186
499 185
499 184
499 183
499 182
499 181
499 180
499 179
499 178
499 177
499 176
499 175
499 174
499 173
499 172
499 171
499 170
500 169
500 168
500 167
500 166
500 165
501 164
501 163
501 162
501 161
501 160
501 159
501 158
501 157
501 156
501 155
501 154
501 153
501 152
501 151
500 151
499 151
498 151
498 152
497 153
497 154
496 155
496 156
495 157
495 158
494 159
494 160
493 161
493 162
492 163
492 164
491 165
491 166
490 167
490 168
489 169
488 170
488 171
487 172
487 173
486 174
485 175
485 176
484 177
483 178
483 179
482 180
481 181
481 182
480 183
480 184
479 185
478 186
477 187
476 188
476 189
475 190
474 191
473 192
473 193
472 194
472 195
471 196
471 197
470 198
469 199
469 200
468 201
467 202
467 203
466 204
466 205
465 206
465 207
464 208
464 209
463 210
463 211
462 212
462 213
462 214
461 215
461 216
460 217
460 218
460 219
459 220
459 221
458 222
458 223
457 224
457 225
456 226
456 227
456 228
456 229
455 230
455 231
455 232
454 233
454 234
454 235
454 236
454 237
454 238
453 239
453 240
453 241
452 242
452 243
452 244
451 245
451 246
451 247
451 248
451 249
450 250
450 251
450 252
450 253
450 254
449 255
449 256
449 257
449 258
448 259
448 260
448 261
447 262
447 263
447 264
446 265
446 266
446 267
446 268
445 269
445 270
445 271
445 272
445 273
445 274
445 275
445 276
445 277
445 278
445 279
445 280
445 281
445 282
445 283
445 284
445 285
445 286
445 287
445 288
445 289
445 290
445 291
445 292
446 293
446 294
447 295
447 296
448 297
448 298
448 299
448 300
449 301
450 302
450 303
451 304
451 305
450 306
449 307
448 308
447 308
446 309
445 309
444 309
443 309
442 309
441 309
440 309
439 309
438 309
437 309
436 309
435 309
434 309
433 309
432 309
431 309
430 309
429 310
428 310
427 310
426 310
425 309
424 309
423 309
422 308
421 308
420 307
419 306
418 305
418 304
419 303
419 302
420 301
421 300
422 299
423 298
424 297
425 296
426 295
426 294
427 293
428 292
428 291
429 290
429 289
429 288
429 287
429 286
429 285
429 284
429 283
429 282
429 281
429 280
429 279
429 278
429 277
428 276
428 275
427 274
427 273
426 272
426 271
426 270
426 269
426 268
426 267
426 266
426 265
426 264
426 263
426 262
426 261
426 260
426 259
426 258
426 257
426 256
425 255
425 254
425 253
425 252
425 251
425 250
425 249
425 248
425 247
425 246
425 245
425 244
425 243
425 242
425 241
425 240
425 239
425 238
425 237
425 236
425 235
425 234
425 233
425 232
425 231
424 230
424 229
424 228
424 227
424 226
424 225
424 224
423 223
423 222
423 221
423 220
422 219
422 218
422 217
422 216
421 215
421 214
420 213
420 212
419 211
418 210
418 209
417 208
416 207
416 206
415 205
415 204
414 203
414 202
413 201
413 200
412 199
412 198
412 197
411 196
411 195
411 194
411 193
411 192
410 191
410 190
410 189
410 188
410 187
410 186
410 185
410 184
409 183
409 182
408 181
408 180
407 179
407 178
406 177
406 176
405 175
405 174
404 173
404 172
403 171
403 170
402 169
402 168
401 167
401 166
400 165
400 164
399 163
399 162
399 161
398 160
398 159
398 158
397 157
397 156
396 155
396 154
396 153
396 152
395 151
395 150
395 149
394 148
394 147
394 146
394 145
393 144
393 143
393 142
392 141
392 140
392 139
391 138
390 138
389 138
388 138
388 139
388 140
388 141
388 142
388 143
388 144
388 145
388 146
388 147
388 148
389 149
389 150
389 151
389 152
389 153
389 154
388 155
388 156
388 157
388 158
387 159
387 160
387 161
386 162
386 163
385 164
385 165
385 166
384 167
384 168
384 169
383 170
383 171
383 172
382 173
382 174
382 175
381 176
381 177
380 178
380 179
380 180
380 181
379 182
379 183
379 184
378 185
378 186
378 187
378 188
377 189
377 190
377 191
376 192
376 193
376 194
375 195
375 196
375 197
375 198
374 199
374 200
374 201
373 202
373 203
373 204
373 205
372 206
372 207
372 208
371 209
371 210
371 211
371 212
370 213
370 214
370 215
370 216
369 217
369 218
369 219
368 220
368 221
368 222
368 223
368 224
367 225
367 226
367 227
367 228
367 229
367 230
367 231
367 232
367 233
367 234
367 235
367 236
367 237
367 238
367 239
367 240
367 241
367 242
367 243
367 244
367 245
367 246
367 247
367 248
367 249
367 250
368 251
368 252
368 253
368 254
368 255
368 256
368 257
368 258
368 259
368 260
368 261
369 262
369 263
369 264
369 265
370 266
370 267
370 268
370 269
371 270
371 271
371 272
371 273
371 274
371 275
371 276
371 277
371 278
372 279
372 280
371 281
371 282
370 283
369 283
368 284
367 283
366 282
365 281
365 280
364 279
364 278
364 277
363 276
363 275
363 274
362 273
362 272
362 271
362 270
362 269
361 268
361 267
361 266
361 265
360 264
360 263
360 262
360 261
359 260
359 259
359 258
359 257
358 256
358 255
358 254
357 253
357 252
357 251
357 250
357 249
356 248
356 247
356 246
356 245
356 244
356 243
355 242
355 241
355 240
354 239
354 238
353 237
353 236
352 235
352 234
351 233
350 232
350 231
349 230
349 229
348 228
348 227
347 226
346 225
345 224
344 223
343 222
343 221
342 220
342 219
341 218
340 217
340 216
339 215
339 214
338 213
338 212
337 211
337 210
337 209
336 208
336 207
336 206
336 205
336 204
335 203
335 202
334 201
333 200
332 199
332 198
331 197
330 196
329 195
329 194
328 193
328 192
327 191
326 190
326 189
325 188
325 187
324 186
324 185
323 184
323 183
322 182
322 181
321 180
321 179
320 178
320 177
320 176
320 175
320 174
319 173
319 172
319 171
319 170
318 169
318 168
318 167
318 166
318 165
317 164
317 163
317 162
317 161
316 160
316 159
316 158
316 157
316 156
315 156
314 156
314 157
314 158
314 159
314 160
313 161
313 162
313 163
313 164
313 165
313 166
313 167
312 168
312 169
312 170
312 171
312 172
311 173
311 174
311 175
310 176
310 177
310 178
309 179
309 180
309 181
308 182
308 183
308 184
308 185
307 186
307 187
307 188
306 189
306 190
306 191
306 192
306 193
305 194
305 195
305 196
304 197
304 198
304 199
304 200
303 201
303 202
303 203
302 204
302 205
302 206
302 207
301 208
301 209
301 210
301 211
300 212
300 213
300 214
300 215
300 216
300 217
300 218
299 219
299 220
299 221
299 222
299 223
299 224
299 225
299 226
299 227
299 228
299 229
299 230
299 231
299 232
299 233
299 234
299 235
299 236
298 237
297 238
296 239
295 238
294 238
293 237
292 236
292 235
291 234
290 233
289 232
289 231
288 230
287 229
286 228
285 227
285 226
284 225
283 224
282 223
282 222
281 221
280 220
280 219
279 218
278 217
277 216
276 215
275 214
274 213
273 212
272 211
271 210
271 209
270 208
270 207
269 206
269 205
268 204
268 203
267 202
267 201
266 200
265 199
264 198
263 197
262 196
261 195
260 194
259 193
258 192
257 191
256 190
255 189
254 189
253 188
252 187
251 187
250 186
249 185
248 185
247 184
246 183
245 182
244 181
244 180
243 179
242 178
241 177
240 176
239 175
239 174
238 173
237 172
236 171
236 170
235 169
234 168
233 167
232 166
231 165
230 164
229 164
228 164
227 164
226 164
226 165
226 166
226 167
226 168
226 169
227 170
227 171
228 172
228 173
229 174
229 175
230 176
230 177
231 178
231 179
231 180
231 181
231 182
231 183
232 184
232 185
232 186
232 187
233 188
233 189
233 190
234 191
234 192
234 193
234 194
234 195
234 196
234 197
234 198
234 199
234 200
234 201
234 202
234 203
234 204
233 205
233 206
233 207
233 208
233 209
233 210
233 211
233 212
233 213
233 214
233 215
233 216
233 217
233 218
233 219
233 220
233 221
233 222
233 223
233 224
233 225
233 226
233 227
233 228
233 229
233 230
233 231
233 232
232 233
231 234
230 235
229 234
228 234
227 233
227 232
226 231
226 230
225 229
225 228
224 227
224 226
223 225
223 224
223 223
222 222
222 221
222 220
221 219
221 218
220 217
219 216
219 215
218 214
217 213
217 212
216 211
216 210
215 209
215 208
214 207
214 206
213 205
213 204
213 203
212 202
212 201
211 200
211 199
210 198
210 197
210 196
209 195
209 194
208 193
208 192
207 191
206 190
206 189
205 188
204 187
204 186
203 185
203 184
202 183
202 182
201 181
201 180
200 179
200 178
199 177
199 176
198 175
198 174
197 173
197 172
196 171
196 170
196 169
195 168
194 168
193 168
192 168
191 168
190 168
190 169
190 170
190 171
190 172
190 173
190 174
190 175
190 176
190 177
190 178
190 179
190 180
190 181
190 182
189 183
189 184
189 185
189 186
189 187
189 188
189 189
189 190
189 191
189 192
188 193
188 194
188 195
188 196
188 197
188 198
188 199
187 200
187 201
187 202
187 203
187 204
187 205
186 206
186 207
186 208
186 209
186 210
186 211
186 212
186 213
186 214
185 215
185 216
185 217
185 218
185 219
185 220
185 221
185 222
185 223
184 224
184 225
184 226
184 227
184 228
184 229
184 230
184 231
184 232
184 233
184 234
184 235
184 236
184 237
184 238
184 239
184 240
184 241
184 242
184 243
184 244
184 245
184 246
184 247
184 248
184 249
184 250
184 251
184 252
183 253
183 254
182 255
181 256
180 257
179 256
178 256
177 255
176 254
176 253
175 252
174 251
174 250
173 249
172 248
172 247
171 246
171 245
170 244
169 243
168 242
167 241
166 240
165 239
164 238
163 237
162 236
161 235
160 234
159 233
158 232
157 232
156 231
155 230
154 229
153 228
152 227
152 226
151 225
150 224
150 223
149 222
148 221
147 220
146 219
145 218
145 217
144 216
143 215
142 214
141 213
140 212
139 211
138 211
137 210
136 209
135 208
134 207
133 206
132 205
131 204
131 203
130 202
130 201
129 200
128 199
128 198
127 197
126 196
126 195
125 194
125 193
124 192
124 191
123 190
123 189
122 188
122 187
121 186
121 185
121 184
120 183
119 183
118 183
118 184
118 185
118 186
118 187
118 188
118 189
118 190
118 191
118 192
118 193
118 194
118 195
118 196
118 197
118 198
118 199
118 200
118 201
118 202
118 203
118 204
118 205
118 206
118 207
118 208
118 209
118 210
118 211
118 212
118 213
118 214
118 215
119 216
119 217
119 218
119 219
120 220
120 221
120 222
120 223
120 224
120 225
120 226
120 227
120 228
120 229
121 230
121 231
121 232
121 233
121 234
121 235
121 236
121 237
121 238
121 239
121 240
121 241
121 242
121 243
121 244
121 245
121 246
121 247
122 248
122 249
122 250
122 251
122 252
122 253
122 254
122 255
122 256
123 257
123 258
123 259
123 260
123 261
124 262
124 263
124 264
124 265
124 266
125 267
125 268
126 269
126 270
126 271
127 272
127 273
127 274
127 275
128 276
128 277
128 278
129 279
129 280
129 281
129 282
129 283
129 284
129 285
129 286
130 287
131 287
132 288
133 288
134 289
134 290
135 291
135 292
136 293
136 294
136 295
136 296
137 297
138 297
139 298
140 299
141 300
142 301
141 302
140 303
139 304
138 304
137 305
136 305
135 305
134 305
133 305
132 306
131 306
130 306
129 307
129 308
128 309
127 310
126 310
125 311
124 311
123 312
122 312
121 313
120 313
119 313
118 313
117 313
116 313
115 313
114 313
113 313
112 313
111 313
110 313
109 314
108 314
107 314
106 314
105 315
104 315
103 315
102 315
101 315
100 315
99 315
98 315
97 316
96 316
95 316
94 316
93 316
92 316
91 316
90 316
89 316
88 316
87 316
86 316
85 316
84 316
83 316
82 316
81 316
80 316
79 316
78 316
77 316
76 316
75 316
74 317
73 318
72 319
71 320
70 320
69 321
68 322
67 323
66 324
65 325
64 326
63 327
62 328
61 328
60 329
59 330
58 330
57 331
56 331
55 332
54 332
53 333
52 333
51 334
50 334
49 334
48 335
47 335
46 335
45 335
44 335
43 335
42 335
41 336
40 336
39 336
38 335
37 335
36 335
35 335
34 335
33 335
32 335
31 335
30 335
29 335
