190 55
190 56
189 57
189 58
189 59
189 60
189 61
189 62
189 63
189 64
189 65
189 66
189 67
189 68
189 69
189 70
189 71
189 72
188 73
188 74
188 75
188 76
187 77
186 78
185 78
184 79
183 79
182 79
181 79
180 79
180 80
180 81
180 82
181 83
181 84
181 85
181 86
181 87
181 88
181 89
181 90
180 91
180 92
180 93
179 94
179 95
179 96
178 97
177 98
176 99
175 100
174 101
173 101
172 102
171 102
170 102
169 103
168 103
167 103
166 103
165 103
164 103
163 103
162 103
161 103
162 104
163 105
164 106
165 106
166 107
167 108
167 109
168 110
169 111
170 112
170 113
171 114
171 115
172 116
172 117
172 118
173 119
173 120
174 121
174 122
174 123
175 124
175 125
176 126
176 127
177 128
177 129
178 130
178 131
179 132
179 133
179 134
180 135
180 136
180 137
180 138
180 139
180 140
180 141
181 142
181 143
181 144
181 145
182 146
182 147
182 148
182 149
183 150
183 151
184 152
185 153
185 154
185 155
185 156
184 157
183 158
182 158
181 158
180 158
179 158
178 158
177 158
176 158
175 157
174 157
173 157
172 157
171 157
170 157
169 156
168 156
167 156
166 156
165 155
164 155
163 155
162 155
161 154
160 154
159 154
158 153
157 153
156 152
155 152
154 152
153 151
152 151
151 150
150 150
149 149
148 149
147 148
146 148
145 147
144 147
143 146
142 146
141 146
140 146
139 146
138 145
137 145
136 145
135 145
134 144
133 144
132 143
131 143
130 143
129 142
128 142
127 142
126 141
125 141
124 141
123 141
122 140
121 140
120 140
119 140
118 139
117 139
116 139
115 139
114 138
113 138
112 138
111 138
110 138
109 138
108 137
107 137
106 137
105 137
104 137
103 136
102 136
101 136
100 135
99 135
98 134
97 134
96 134
95 133
94 133
93 133
92 132
92 133
93 134
94 135
95 135
96 136
97 137
97 138
98 139
98 140
98 141
99 142
99 143
99 144
99 145
99 146
99 147
98 148
98 149
98 150
98 151
98 152
97 153
97 154
96 155
95 156
94 157
93 157
92 157
91 157
90 157
89 157
88 158
87 158
86 158
85 158
84 158
83 158
82 158
81 158
80 158
79 159
78 159
77 159
76 159
75 159
74 160
73 160
72 160
71 160
70 160
69 160
68 160
67 159
66 159
65 159
64 159
63 159
62 159
61 159
60 159
61 160
62 161
63 162
63 163
64 164
64 165
64 166
63 167
63 168
63 169
62 170
61 171
60 172
59 173
58 173
57 174
56 175
55 175
54 175
53 176
52 176
51 176
50 177
49 177
48 177
47 178
46 178
45 178
44 178
43 178
42 178
41 179
40 179
39 179
38 179
37 179
36 180
37 180
38 180
39 181
40 181
41 182
42 182
43 183
44 183
45 184
46 184
47 185
48 186
49 186
50 187
51 188
52 189
53 189
54 190
55 191
56 192
57 193
58 194
58 195
59 196
60 197
60 198
61 199
61 200
61 201
61 202
61 203
62 204
62 205
62 206
62 207
61 208
61 209
61 210
61 211
60 212
60 213
59 214
58 215
57 215
56 216
55 216
54 217
55 217
56 217
57 217
58 217
59 217
60 217
61 217
62 217
63 217
64 217
65 217
66 218
67 218
68 219
69 219
70 220
71 220
72 221
73 222
74 222
75 223
76 223
77 224
78 224
79 225
80 225
81 226
82 226
83 227
84 227
85 227
86 228
87 228
88 229
89 230
89 231
89 232
89 233
89 234
89 235
89 236
89 237
89 238
89 239
89 240
89 241
89 242
89 243
88 244
88 245
88 246
87 247
87 248
87 249
86 250
86 251
85 252
84 253
84 254
83 255
82 256
81 257
80 258
79 258
78 259
77 260
76 260
75 261
74 261
74 262
75 261
76 261
77 261
78 261
79 261
80 260
81 260
82 260
83 260
84 260
85 260
86 260
87 259
88 259
89 259
90 259
91 259
92 259
93 259
94 260
95 260
96 260
97 260
98 260
99 260
100 261
101 261
102 261
103 261
104 261
105 262
106 262
107 262
108 262
109 263
110 263
111 263
112 263
113 263
114 264
115 264
116 264
117 264
118 264
119 264
120 264
121 264
122 264
123 264
124 263
125 263
126 263
127 263
128 263
129 263
130 263
131 263
132 263
133 263
134 263
135 263
136 263
137 263
138 263
139 263
140 263
141 263
142 263
143 264
144 264
145 264
146 265
147 266
148 267
148 268
148 269
147 270
147 271
147 272
146 273
145 273
144 274
143 274
143 275
142 276
141 276
140 277
139 278
138 279
137 280
136 281
135 281
134 281
133 282
132 283
131 284
130 284
129 285
128 286
127 286
126 287
125 288
124 288
123 289
122 289
121 289
120 290
119 291
118 291
117 292
116 293
115 294
114 294
113 295
112 296
111 296
110 297
109 297
108 298
107 299
106 300
105 300
104 301
103 302
102 302
101 303
100 304
99 304
98 304
97 305
96 305
95 305
94 306
93 306
92 306
91 307
92 307
93 307
94 307
95 307
96 308
97 308
98 308
99 308
100 308
101 309
102 309
103 310
104 310
105 311
105 312
106 313
107 314
108 315
108 316
109 317
109 318
110 319
110 320
110 321
110 322
110 323
110 324
110 325
110 326
109 327
109 328
108 329
107 330
107 331
106 332
105 333
105 334
104 335
104 336
103 337
102 338
101 339
101 340
100 341
99 341
98 342
98 343
97 344
98 344
99 344
100 344
101 345
102 346
102 347
102 348
103 349
103 350
102 351
102 352
102 353
102 354
102 355
101 356
101 357
101 358
100 359
100 360
99 361
99 362
99 363
98 364
97 365
96 366
96 367
95 368
94 369
93 370
93 371
92 372
93 372
94 371
95 371
96 371
97 370
98 369
99 369
100 368
101 368
102 368
103 367
104 367
105 366
106 366
107 365
108 365
109 364
110 364
111 364
112 364
113 363
114 363
115 363
116 363
117 363
118 363
119 364
120 364
121 364
122 364
123 365
124 365
125 366
126 366
127 367
127 368
128 369
128 370
128 371
128 372
128 373
128 374
127 375
127 376
127 377
128 376
129 376
130 375
131 375
132 374
133 374
134 373
135 373
136 373
137 372
138 372
139 372
140 371
141 371
142 371
143 370
144 370
145 370
146 369
147 369
148 368
149 368
150 368
151 368
152 367
153 367
154 367
155 367
156 367
157 367
158 368
159 368
160 368
161 368
162 369
162 370
163 371
164 372
165 373
165 374
166 375
166 376
167 377
167 378
167 379
167 380
168 381
168 382
168 383
168 384
167 385
167 386
167 387
167 388
167 389
166 390
165 391
165 392
165 393
166 392
166 391
167 390
168 389
169 388
170 387
171 386
172 385
173 384
174 383
175 382
176 382
177 381
178 380
179 380
180 379
181 379
182 378
183 377
184 377
185 376
186 375
187 374
188 374
189 373
190 373
191 372
192 372
193 371
194 370
195 369
196 369
197 368
198 367
199 366
200 365
201 364
202 363
203 362
204 361
205 360
206 359
206 358
207 357
207 356
208 355
208 354
208 353
209 352
210 351
211 351
212 350
213 350
214 350
215 349
216 348
217 348
218 348
219 347
220 347
221 348
221 349
222 349
223 350
224 351
225 352
226 353
227 354
227 355
228 356
228 357
229 358
230 359
230 360
231 361
231 362
231 363
231 364
231 365
231 366
231 367
231 368
231 369
231 370
231 371
232 372
232 373
232 374
232 375
233 376
234 377
235 376
236 376
237 375
238 375
239 375
240 376
241 376
242 377
243 378
244 378
245 379
246 380
247 381
247 382
248 383
248 384
248 385
249 386
249 387
249 388
249 389
249 390
249 391
250 392
250 393
250 394
250 395
250 396
250 397
251 398
252 399
251 398
251 397
251 396
251 395
252 394
252 393
252 392
253 391
253 390
253 389
254 388
254 387
255 386
255 385
256 384
257 383
257 382
258 381
259 380
260 379
261 378
262 377
263 376
264 375
265 374
266 373
267 373
268 372
269 371
270 370
271 369
272 368
273 367
274 366
275 365
276 364
277 364
278 363
279 362
280 361
281 360
282 360
283 359
284 359
285 360
286 360
287 361
288 362
289 363
290 364
291 364
292 365
293 366
294 367
295 368
295 369
295 370
296 371
296 372
296 373
297 374
297 375
297 374
297 373
297 372
297 371
297 370
298 369
298 368
298 367
298 366
297 365
297 364
298 363
298 362
298 361
298 360
298 359
298 358
298 357
298 356
298 355
299 354
299 353
299 352
299 351
299 350
299 349
299 348
299 347
300 346
300 345
300 344
300 343
300 342
300 341
300 340
300 339
300 338
301 337
301 336
301 335
301 334
301 333
302 332
302 331
302 330
302 329
303 328
303 327
303 326
304 325
304 324
304 323
305 322
305 321
306 320
306 319
307 318
307 317
308 316
308 315
308 314
309 313
310 314
311 314
312 314
313 315
314 316
315 317
316 317
317 318
318 319
319 319
320 320
321 321
322 321
323 322
324 322
325 323
326 323
327 324
328 325
329 326
330 326
331 327
332 328
333 329
334 329
335 330
336 331
337 332
338 333
339 334
340 335
340 336
341 336
342 337
342 338
343 339
343 340
344 341
345 342
345 343
345 344
345 343
346 342
346 341
346 340
346 339
346 338
345 337
345 336
344 335
344 334
343 333
343 332
343 331
343 330
342 329
342 328
342 327
342 326
341 325
341 324
341 323
341 322
341 321
341 320
341 319
340 318
340 317
340 316
340 315
340 314
340 313
340 312
340 311
340 310
339 309
339 308
339 307
339 306
339 305
339 304
339 303
338 302
338 301
338 300
338 299
337 298
337 297
337 296
336 295
336 294
336 293
335 292
335 291
335 290
335 289
334 288
334 287
334 286
333 285
333 284
332 283
332 282
332 281
331 280
330 279
330 278
329 277
329 276
328 275
328 274
327 273
327 272
326 271
326 270
325 269
324 268
324 267
323 266
322 265
321 264
321 263
320 262
320 261
319 260
318 259
318 258
317 257
317 256
316 255
315 254
315 253
314 252
314 251
313 250
313 249
312 248
312 247
311 246
310 245
310 244
309 243
309 242
308 241
307 240
307 239
306 238
305 237
305 236
304 235
305 234
306 234
307 234
308 234
309 234
310 234
311 234
312 234
313 235
314 235
315 235
316 235
317 235
318 235
319 235
320 235
321 235
322 235
323 235
324 235
325 235
326 235
327 235
328 235
329 236
330 236
331 236
332 236
333 236
334 236
335 236
336 236
337 236
338 236
339 236
340 236
341 236
342 236
343 236
344 236
345 236
346 236
347 236
348 236
349 236
350 236
351 236
352 236
353 236
354 236
355 236
356 236
357 235
358 235
359 235
360 235
361 235
362 235
363 235
364 235
365 235
366 235
367 235
368 235
369 235
370 235
371 235
372 235
373 235
374 235
375 234
376 234
377 234
378 234
379 234
380 234
381 234
382 234
383 234
384 234
385 234
386 234
387 234
388 234
389 234
390 234
391 234
392 234
393 233
394 233
395 233
396 233
397 233
398 233
399 233
400 233
401 233
402 233
403 233
404 233
405 233
406 233
407 233
408 233
409 233
410 233
411 233
412 232
413 232
414 232
415 232
416 232
417 232
418 232
419 232
420 232
421 232
422 232
423 232
424 232
425 232
426 232
427 232
428 232
429 232
430 232
431 232
432 232
433 232
434 232
435 232
436 232
437 232
438 232
439 232
440 232
441 232
442 232
443 232
444 232
445 232
446 232
447 232
448 232
449 232
450 232
451 232
452 232
453 232
454 232
455 232
456 232
457 232
458 232
459 232
460 232
461 232
462 232
463 232
464 232
465 232
466 232
467 232
468 232
469 232
470 232
471 232
472 232
473 232
474 232
475 232
476 232
477 232
478 232
479 232
480 232
481 233
482 233
483 233
484 233
485 233
486 233
487 233
488 233
489 233
490 233
491 233
492 233
493 233
494 233
495 233
496 233
497 233
498 233
499 233
500 233
501 234
502 234
503 234
504 234
505 234
506 234
507 234
508 234
509 234
510 234
511 234
512 234
513 234
514 234
515 234
516 234
517 235
518 235
519 235
520 235
521 235
522 235
523 235
524 235
525 235
526 235
527 235
528 235
529 235
530 236
531 236
532 236
533 236
534 236
535 236
536 236
537 236
538 236
539 236
540 236
541 236
542 237
543 237
544 237
545 237
546 237
547 237
548 237
549 237
550 238
551 238
552 238
553 238
554 238
555 238
556 238
557 238
558 238
559 238
560 239
561 239
562 239
563 239
564 239
565 239
566 239
567 240
568 240
569 240
570 240
571 240
572 240
573 240
574 240
575 240
576 240
577 241
578 241
579 241
580 241
581 241
582 241
583 241
584 242
585 242
586 242
587 242
588 242
589 242
590 242
591 242
592 243
593 243
594 243
595 243
596 243
597 243
598 243
599 244
600 244
601 244
602 244
603 244
604 244
605 244
606 245
607 245
608 245
609 245
610 245
611 245
612 245
613 246
614 246
615 246
616 246
617 246
618 246
619 247
620 247
621 247
622 247
623 247
624 247
625 248
626 248
627 248
628 248
629 248
630 248
631 248
632 249
633 249
634 249
635 249
636 249
637 250
638 250
639 250
640 250
641 250
642 250
643 251
644 251
645 251
646 251
647 251
648 251
649 252
650 252
651 252
652 252
653 252
654 252
655 253
656 253
657 253
658 253
659 253
660 254
661 254
662 254
663 254
664 254
665 254
666 255
667 255
668 255
669 255
670 255
671 256
672 256
673 256
674 256
675 256
676 256
677 257
678 257
679 257
680 257
681 257
682 258
683 258
684 258
685 258
686 258
687 259
688 259
689 259
690 259
691 259
692 259
693 260
694 260
695 260
696 260
697 260
698 260
699 261
700 261
701 261
702 261
703 261
704 261
705 262
706 262
707 262
708 262
709 262
710 263
711 263
712 263
713 263
714 263
715 264
716 264
717 264
718 264
719 264
720 264
721 265
722 265
723 265
724 265
725 265
726 266
727 266
728 266
729 266
730 266
731 267
732 267
733 267
734 267
735 268
736 268
737 268
738 268
739 268
740 269
741 269
742 269
743 270
744 270
745 270
746 270
747 271
748 271
749 272
750 272
751 272
752 272
753 273
754 273
755 273
756 273
757 273
756 272
756 271
756 270
756 269
757 268
757 267
757 266
756 265
756 264
755 264
754 264
753 264
752 264
751 264
750 264
749 264
748 264
747 264
746 264
745 264
744 264
743 264
742 264
741 264
740 263
739 263
738 263
737 263
736 263
735 263
734 262
733 262
732 262
731 262
730 262
729 262
728 262
727 261
726 261
725 261
724 261
723 261
722 261
721 260
720 260
719 260
718 260
717 260
716 260
715 259
714 259
713 259
712 259
711 259
710 259
709 258
708 258
707 258
706 258
705 258
704 258
703 257
702 257
701 257
700 257
699 257
698 256
697 256
696 256
695 256
694 256
693 256
692 256
691 255
690 255
689 255
688 255
687 255
686 255
685 254
684 254
683 254
682 254
681 254
680 253
679 253
678 253
677 253
676 253
675 253
674 252
673 252
672 252
671 252
670 252
669 252
668 251
667 251
666 251
665 251
664 251
663 251
662 251
661 250
660 250
659 250
658 250
657 250
656 249
655 249
654 249
653 249
652 249
651 249
650 248
649 248
648 248
647 248
646 248
645 248
644 247
643 247
642 247
641 247
640 247
639 247
638 246
637 246
636 246
635 246
634 246
633 246
632 245
631 245
630 245
629 245
628 245
627 245
626 244
625 244
624 244
623 244
622 244
621 244
620 244
619 243
618 243
617 243
616 243
615 243
614 243
613 242
612 242
611 242
610 242
609 242
608 242
607 242
606 241
605 241
604 241
603 241
602 241
601 241
600 241
599 241
598 240
597 240
596 240
595 240
594 240
593 240
592 239
591 239
590 239
589 239
588 239
587 239
586 239
585 239
584 239
583 238
582 238
581 238
580 238
579 238
578 238
577 238
576 238
575 237
574 237
573 237
572 237
571 237
570 237
569 237
568 237
567 236
566 236
565 236
564 236
563 236
562 236
561 236
560 236
559 236
558 235
557 235
556 235
555 235
554 235
553 235
552 235
551 235
550 235
549 235
548 235
547 234
546 234
545 234
544 234
543 234
542 234
541 234
540 234
539 233
538 233
537 233
536 233
535 233
534 233
533 233
532 233
531 233
530 233
529 233
528 233
527 232
526 232
525 232
524 232
523 232
522 232
521 232
520 232
519 232
518 232
517 232
516 232
515 232
514 232
513 232
512 231
511 231
510 231
509 231
508 231
507 231
506 231
505 231
504 231
503 231
502 231
501 231
500 231
499 231
498 231
497 231
496 231
495 231
494 230
493 230
492 230
491 230
490 230
489 230
488 230
487 230
486 230
485 230
484 230
483 230
482 230
481 230
480 230
479 230
478 230
477 230
476 230
475 230
474 230
473 230
472 230
471 230
470 230
469 230
468 230
467 230
466 230
465 230
464 229
463 229
462 229
461 229
460 229
459 229
458 229
457 229
456 229
455 229
454 229
453 229
452 229
451 229
450 229
449 229
448 229
447 229
446 229
445 229
444 229
443 229
442 229
441 229
440 229
439 229
438 229
437 229
436 229
435 229
434 229
433 229
432 229
431 229
430 229
429 229
428 229
427 229
426 229
425 229
424 230
423 230
422 230
421 230
420 230
419 230
418 230
417 230
416 230
415 230
414 230
413 230
412 230
411 230
410 230
409 230
408 230
407 230
406 230
405 230
404 230
403 230
402 231
401 231
400 231
399 231
398 231
397 231
396 231
395 231
394 231
393 231
392 231
391 231
390 231
389 231
388 231
387 231
386 231
385 231
384 231
383 232
382 232
381 232
380 232
379 232
378 232
377 232
376 232
375 232
374 232
373 232
372 232
371 232
370 232
369 232
368 232
367 233
366 233
365 233
364 233
363 233
362 233
361 233
360 233
359 233
358 233
357 233
356 233
355 233
354 233
353 233
352 233
351 233
350 233
349 233
348 233
347 233
346 233
345 233
344 233
343 233
342 233
341 233
340 233
339 233
338 233
337 233
336 233
335 233
334 233
333 233
332 233
331 233
330 233
329 233
328 233
327 233
326 232
325 232
324 232
323 232
322 232
321 232
320 232
319 232
318 232
317 232
316 232
315 232
314 231
313 231
312 231
311 231
310 231
309 231
308 231
307 230
306 230
305 230
304 230
303 229
302 229
301 229
300 228
300 227
301 226
302 226
303 225
304 225
305 224
306 224
307 224
308 223
309 223
310 222
311 222
312 221
313 220
314 219
315 218
316 217
317 217
318 216
319 215
320 214
321 214
322 213
323 212
324 212
325 211
326 210
327 210
328 209
329 208
330 207
331 206
332 205
333 204
334 203
335 203
336 202
337 201
338 201
339 200
340 199
341 198
342 197
343 196
343 195
344 194
345 193
346 192
347 191
347 190
348 189
349 188
349 187
350 186
350 185
351 184
352 183
353 182
353 181
354 180
354 179
355 178
355 177
355 176
356 175
356 174
357 173
357 172
358 171
358 170
358 169
359 168
359 167
359 166
360 165
361 164
361 163
362 162
362 161
363 160
363 159
364 158
364 157
365 156
365 155
365 154
366 153
366 152
366 151
365 152
364 153
363 154
362 155
362 156
361 157
360 158
359 158
358 159
357 159
356 160
355 160
354 160
353 160
352 160
351 160
350 161
349 161
348 161
347 161
346 161
345 162
344 162
343 162
342 162
341 163
340 163
339 163
338 163
337 164
336 164
335 164
334 164
333 164
332 165
331 165
330 165
329 165
328 164
327 163
327 162
328 161
329 160
329 159
329 158
329 157
329 156
329 155
329 154
329 153
329 152
329 151
329 150
329 149
330 148
330 147
330 146
330 145
330 144
330 143
331 142
331 141
332 140
332 139
332 138
333 137
333 136
334 135
334 134
334 133
335 132
335 131
336 130
336 129
337 128
337 127
338 126
339 125
339 124
340 123
341 122
342 121
342 120
341 121
340 121
339 121
338 122
337 123
336 123
335 123
334 124
333 124
332 124
331 124
330 124
329 125
328 125
327 125
326 125
325 125
324 124
323 124
322 123
321 122
320 121
319 120
318 119
318 118
317 117
316 116
316 115
315 114
315 113
315 112
315 111
314 110
314 109
313 108
313 107
312 106
311 105
310 104
309 103
309 102
308 101
308 100
308 99
308 98
307 97
307 96
307 95
307 94
306 93
306 92
306 91
306 90
306 89
306 88
306 87
306 86
306 85
306 86
305 87
304 88
304 89
304 90
303 91
303 92
302 93
302 94
301 95
301 96
300 97
299 98
298 99
297 100
296 100
295 101
294 102
293 103
292 103
291 104
290 105
289 105
288 106
287 107
286 108
285 109
284 110
283 111
282 112
281 113
280 114
279 115
278 116
277 117
276 118
275 118
274 119
273 120
273 121
272 122
271 122
270 121
269 120
268 119
268 118
267 117
266 116
266 115
265 114
265 113
264 112
264 111
264 110
263 109
263 108
262 107
262 106
261 105
261 104
261 103
260 102
260 101
259 100
259 99
258 98
258 97
258 96
257 95
257 94
257 93
256 92
256 91
255 90
255 89
254 88
253 87
253 86
252 85
252 84
251 83
251 82
250 81
249 80
249 79
248 78
248 77
248 76
248 75
247 74
247 73
247 72
246 71
246 72
246 73
246 74
245 75
245 76
244 77
244 78
243 79
242 80
241 81
240 82
239 83
238 84
237 84
236 84
235 84
234 84
233 83
232 83
231 83
230 82
229 82
228 81
227 80
226 79
226 78
225 77
224 76
223 75
222 74
222 73
221 72
220 71
220 70
219 69
219 68
218 67
218 66
217 66
216 67
216 68
215 69
215 70
214 71
213 72
212 72
211 72
210 72
209 72
208 72
207 72
206 72
205 72
204 71
203 71
202 70
201 69
200 68
199 67
198 66
197 65
196 64
195 63
194 62
194 61
193 60
192 59
192 58
191 57
191 56
190 55
