148 268
148 269
148 270
148 271
148 272
148 273
148 274
148 275
148 276
148 277
148 278
148 279
148 280
148 281
148 282
148 283
148 284
148 285
148 286
149 287
149 288
150 289
150 290
151 291
151 292
151 293
151 294
151 295
150 296
150 297
150 298
150 299
150 300
150 301
150 302
150 303
150 304
150 305
150 306
150 307
150 308
150 309
150 310
150 311
150 312
150 313
150 314
151 315
151 316
152 317
152 318
153 319
153 320
153 321
154 322
154 323
154 324
154 325
154 326
154 327
154 328
154 329
154 330
154 331
155 332
156 333
157 334
157 335
158 336
159 337
160 338
161 338
162 339
162 340
163 341
164 342
164 343
165 344
165 345
166 346
166 347
167 348
167 349
167 350
167 351
167 352
168 353
168 354
169 355
170 356
171 357
172 358
172 359
173 360
174 361
175 362
175 363
176 364
176 365
177 366
177 367
178 368
178 369
178 370
179 371
179 372
179 373
179 374
179 375
179 376
178 377
178 378
178 379
177 380
177 381
177 382
177 383
177 384
177 385
177 386
177 387
177 388
177 389
177 390
177 391
177 392
177 393
177 394
177 395
177 396
177 397
177 398
177 399
178 400
178 401
178 402
178 403
178 404
179 405
180 406
181 406
182 407
183 407
184 408
185 408
186 409
187 409
188 410
189 411
189 412
190 413
190 414
191 415
191 416
192 417
192 418
193 419
193 420
194 421
194 422
195 423
195 424
195 425
196 426
197 426
198 427
199 427
200 427
201 427
202 427
203 427
204 427
205 427
206 427
207 427
208 427
209 427
210 427
211 427
212 428
213 428
214 429
215 430
216 431
216 432
217 433
217 434
217 435
217 436
218 437
218 438
219 439
219 440
220 441
221 442
222 443
223 443
224 444
225 444
226 445
227 445
228 446
229 446
230 447
231 448
232 449
232 450
233 451
233 452
234 453
234 454
235 455
235 456
236 457
237 458
238 458
239 459
240 459
241 459
242 459
243 460
244 460
245 461
246 461
247 462
248 462
249 463
250 463
251 464
252 464
253 465
254 465
255 466
256 466
257 467
258 468
259 469
260 470
261 471
262 471
263 472
264 473
265 473
266 474
267 474
268 475
269 475
270 476
271 477
272 478
273 479
274 480
275 481
276 482
277 482
278 483
279 483
280 484
281 484
282 485
283 485
284 486
285 487
286 488
287 489
288 489
289 489
290 489
291 489
292 489
293 489
294 489
295 489
296 489
297 489
298 489
299 489
300 488
301 488
302 488
303 487
304 487
305 486
306 486
307 486
308 486
309 486
310 486
311 486
312 486
313 486
314 486
315 486
316 485
317 485
318 484
319 483
320 482
321 481
322 480
322 479
323 478
324 477
325 476
326 475
327 474
328 473
329 472
329 471
330 470
330 469
330 468
330 467
330 466
330 465
330 464
330 463
330 462
330 461
330 460
330 459
330 458
330 457
330 456
330 455
330 454
330 453
330 452
330 451
329 450
329 449
329 448
329 447
329 446
329 445
328 444
328 443
328 442
328 441
328 440
328 439
327 438
327 437
327 436
327 435
327 434
327 433
327 432
327 431
327 430
326 429
326 428
326 427
326 426
326 425
326 424
326 423
326 422
326 421
326 420
326 419
325 418
325 417
325 416
325 415
325 414
325 413
325 412
325 411
325 410
325 409
325 408
325 407
324 406
324 405
324 404
324 403
324 402
324 401
324 400
324 399
324 398
324 397
324 396
324 395
324 394
325 393
325 392
325 391
325 390
325 389
325 388
325 387
326 386
326 385
326 384
326 383
326 382
326 381
326 380
327 379
327 378
327 377
327 376
328 375
328 374
328 373
328 372
328 371
329 370
329 369
329 368
330 367
330 366
330 365
331 364
331 363
332 362
332 361
332 360
333 359
333 358
334 357
334 356
335 355
335 354
335 353
336 352
336 351
336 350
337 349
337 348
338 347
338 346
339 345
339 344
340 343
341 342
341 341
342 340
342 339
343 338
343 337
344 336
345 335
345 334
346 333
346 332
347 331
348 330
348 329
349 328
350 327
350 326
351 325
352 324
353 323
353 322
354 321
355 320
356 319
357 318
357 317
358 316
359 315
360 314
361 313
362 312
363 311
364 310
365 309
366 308
367 307
368 306
369 305
370 305
371 304
372 303
373 303
374 302
375 301
376 301
377 300
378 299
379 299
380 298
381 298
382 297
383 297
384 296
385 296
386 295
387 295
388 294
389 294
390 293
391 293
392 292
393 292
394 292
395 291
396 291
397 291
398 290
399 290
400 290
401 290
402 289
403 289
404 289
405 289
406 288
407 288
408 288
409 288
410 288
411 287
412 287
413 287
414 287
415 287
416 287
417 287
418 287
419 287
420 286
421 286
422 286
423 286
424 286
425 286
426 286
427 286
428 286
429 286
430 286
431 286
432 286
433 286
434 286
435 286
436 287
437 287
438 287
439 287
440 287
441 287
442 287
443 287
444 287
445 287
446 287
447 287
448 287
449 287
450 287
451 287
452 287
453 287
454 287
455 287
456 287
457 287
458 287
459 287
460 287
461 287
462 287
463 287
464 287
465 287
466 287
467 287
468 287
469 287
470 287
471 287
472 287
473 287
474 287
475 287
476 287
477 287
478 287
479 287
480 287
481 287
482 287
483 287
484 287
485 287
486 287
487 287
488 287
489 287
490 287
491 287
492 287
493 287
494 287
495 287
496 287
497 287
498 287
499 287
500 287
501 287
502 287
503 287
504 287
505 287
506 286
507 286
508 286
509 286
510 286
511 286
512 286
513 286
514 286
515 286
516 286
517 286
518 286
519 286
520 286
521 286
522 286
523 286
524 286
525 286
526 285
527 285
528 285
529 285
530 285
531 285
532 285
533 285
534 285
535 285
536 285
537 285
538 285
539 285
540 285
541 285
542 284
543 284
544 284
545 284
546 284
547 284
548 284
549 284
550 284
551 284
552 284
553 283
554 283
555 283
556 283
557 283
558 283
559 283
560 283
561 283
562 283
563 283
564 283
565 283
566 282
567 282
568 282
569 282
570 282
571 282
572 282
573 282
574 281
575 281
576 281
577 281
578 281
579 281
580 281
581 281
582 281
583 281
584 281
585 280
586 280
587 280
588 280
589 280
590 280
591 280
592 280
593 279
594 279
595 279
596 279
597 279
598 279
599 279
600 278
601 278
602 278
603 278
604 278
605 278
606 278
607 278
608 278
609 277
610 277
611 277
612 277
613 277
614 277
615 276
616 276
617 276
618 276
619 276
620 276
621 276
622 275
623 275
624 275
625 275
626 275
627 275
628 275
629 275
630 274
631 274
632 274
633 274
634 273
635 273
636 273
637 273
638 272
639 272
640 272
641 272
642 272
643 272
644 271
645 271
646 271
647 271
648 271
649 270
650 270
651 270
652 270
653 270
654 269
655 269
656 269
657 269
658 268
659 268
660 268
661 268
662 267
663 267
664 267
665 267
666 267
667 266
668 266
669 266
670 266
671 265
672 265
673 265
674 265
675 264
676 264
677 264
678 263
679 263
680 263
681 263
682 263
683 262
684 262
685 262
686 261
687 261
688 261
689 260
690 260
691 260
692 259
693 259
694 259
695 259
696 258
697 258
698 257
699 257
700 257
701 256
702 256
703 255
704 255
705 255
706 255
707 255
708 255
708 254
708 253
708 252
708 251
708 250
708 249
708 248
708 247
708 246
708 245
708 244
708 243
708 242
708 241
707 241
706 241
705 241
704 241
703 241
702 241
701 241
700 241
699 241
698 241
697 241
696 241
695 242
694 243
693 244
692 244
691 245
690 246
689 246
688 247
687 248
686 248
685 249
684 249
683 250
682 250
681 251
680 251
679 252
678 252
677 252
676 253
675 253
674 253
673 254
672 254
671 255
670 255
669 255
668 256
667 256
666 256
665 257
664 257
663 257
662 257
661 258
660 258
659 258
658 258
657 259
656 259
655 259
654 259
653 260
652 260
651 260
650 260
649 261
648 261
647 261
646 261
645 262
644 262
643 262
642 262
641 263
640 263
639 263
638 263
637 263
636 264
635 264
634 264
633 264
632 265
631 265
630 265
629 265
628 265
627 266
626 266
625 266
624 266
623 266
622 267
621 267
620 267
619 267
618 267
617 268
616 268
615 268
614 268
613 268
612 268
611 268
610 269
609 269
608 269
607 269
606 269
605 269
604 270
603 270
602 270
601 270
600 270
599 270
598 271
597 271
596 271
595 271
594 271
593 271
592 271
591 272
590 272
589 272
588 272
587 272
586 272
585 272
584 272
583 273
582 273
581 273
580 273
579 273
578 273
577 274
576 274
575 274
574 274
573 274
572 274
571 274
570 274
569 275
568 275
567 275
566 275
565 275
564 275
563 275
562 275
561 276
560 276
559 276
558 276
557 276
556 276
555 276
554 276
553 276
552 276
551 277
550 277
549 277
548 277
547 277
546 277
545 277
544 277
543 277
542 277
541 277
540 277
539 278
538 278
537 278
536 278
535 278
534 278
533 278
532 278
531 278
530 279
529 279
528 279
527 279
526 279
525 279
524 279
523 279
522 279
521 279
520 279
519 279
518 279
517 280
516 280
515 280
514 280
513 280
512 280
511 280
510 280
509 280
508 280
507 280
506 280
505 280
504 280
503 280
502 280
501 280
500 280
499 281
498 281
497 281
496 281
495 281
494 281
493 281
492 281
491 281
490 281
489 281
488 281
487 281
486 281
485 281
484 281
483 281
482 281
481 281
480 281
479 281
478 281
477 281
476 281
475 281
474 281
473 281
472 281
471 281
470 281
469 281
468 281
467 281
466 281
465 281
464 281
463 281
462 281
461 281
460 281
459 281
458 281
457 281
456 281
455 281
454 281
453 281
452 281
451 281
450 281
449 281
448 281
447 281
446 280
445 280
444 280
443 280
442 280
441 280
440 280
439 280
438 280
437 279
436 279
435 279
434 279
433 279
432 279
431 278
430 278
429 278
428 278
427 278
426 278
425 277
424 277
423 277
422 277
421 276
420 276
419 276
418 275
417 275
416 275
415 275
414 274
413 274
412 274
411 273
410 273
409 272
408 272
407 271
406 271
405 270
404 270
403 269
402 269
401 268
400 268
399 267
398 266
397 266
396 265
395 264
394 264
393 263
392 262
391 261
390 260
389 259
388 258
387 258
386 257
386 256
385 255
384 254
383 253
383 252
382 251
381 250
380 249
380 248
379 247
379 246
378 245
378 244
377 243
376 242
376 241
375 240
375 239
374 238
374 237
373 236
373 235
372 234
372 233
371 232
371 231
371 230
370 229
370 228
369 227
369 226
368 225
368 224
368 223
367 222
367 221
367 220
366 219
366 218
365 217
365 216
365 215
365 214
364 213
364 212
364 211
364 210
363 209
363 208
363 207
363 206
363 205
363 204
363 203
363 202
363 201
363 200
363 199
363 198
363 197
363 196
364 195
364 194
364 193
364 192
365 191
365 190
365 189
365 188
366 187
366 186
366 185
366 184
367 183
367 182
367 181
367 180
367 179
368 178
368 177
368 176
369 175
369 174
369 173
370 172
370 171
371 170
371 169
371 168
372 167
372 166
373 165
373 164
373 163
374 162
374 161
375 160
375 159
375 158
376 157
376 156
377 155
377 154
378 153
378 152
379 151
379 150
380 149
380 148
381 147
381 146
382 145
382 144
383 143
383 142
384 141
384 140
385 139
385 138
386 137
386 136
387 135
388 134
388 133
389 132
390 131
390 130
391 129
391 128
392 127
392 126
392 125
393 124
393 123
394 122
394 121
395 120
395 119
396 118
396 117
397 116
398 115
398 114
399 113
399 112
400 111
400 110
401 109
401 108
402 107
402 106
403 105
404 104
404 103
405 102
405 101
406 100
406 99
407 98
407 97
407 96
408 95
408 94
408 93
408 92
409 91
409 90
409 89
409 88
409 87
409 86
409 85
409 84
409 83
409 82
409 81
409 80
409 79
409 78
409 77
409 76
409 75
409 74
408 73
408 72
408 71
408 70
408 69
408 68
408 67
407 66
407 65
407 64
407 63
406 62
405 61
404 61
403 61
402 61
401 60
400 60
399 59
398 59
397 58
396 58
395 57
394 56
393 55
392 54
391 53
390 52
389 51
388 50
387 50
386 50
385 50
384 50
383 50
382 50
381 50
380 50
379 50
378 50
377 50
376 50
375 50
374 50
373 50
372 50
371 50
370 50
369 50
368 50
367 50
366 50
365 50
364 50
363 50
362 51
361 51
360 52
359 52
358 53
357 53
356 54
355 54
354 55
353 54
352 54
351 54
350 54
349 54
348 53
347 53
346 52
345 52
344 52
343 51
342 51
341 51
340 51
339 51
338 51
337 51
336 51
335 51
334 51
333 51
332 51
331 51
330 51
329 51
328 52
327 53
326 54
325 55
325 56
324 57
324 58
323 59
323 60
322 61
322 62
321 63
320 64
319 65
318 65
317 66
316 66
315 65
314 65
313 65
312 64
311 64
310 64
309 64
308 64
307 64
306 64
305 64
304 64
303 64
302 64
301 64
300 64
299 64
298 64
297 64
296 65
295 65
294 65
293 65
292 65
291 65
290 65
289 65
288 66
287 67
286 68
285 69
284 70
283 70
282 71
281 71
280 72
279 72
278 73
277 73
276 73
275 73
274 73
273 73
272 73
271 73
270 74
270 75
269 76
269 77
268 78
268 79
267 80
266 80
265 81
264 81
263 82
262 82
261 83
260 83
259 84
258 84
257 84
256 85
255 86
255 87
254 88
253 89
252 90
251 91
250 92
249 93
248 94
248 95
247 96
246 97
245 98
245 99
244 100
243 101
242 102
241 102
240 103
239 103
238 104
237 104
236 105
235 105
234 106
233 106
232 106
231 106
230 107
229 108
229 109
228 110
227 111
227 112
226 113
225 114
224 115
223 116
222 116
221 117
220 117
219 118
218 118
217 119
216 119
215 120
214 121
213 121
212 122
211 122
210 123
209 124
208 125
207 126
207 127
206 128
206 129
205 130
205 131
204 132
203 133
202 133
201 134
200 134
199 135
198 135
197 136
196 136
195 136
194 136
193 137
192 137
191 138
190 139
189 140
189 141
188 142
187 143
186 144
186 145
185 146
185 147
184 148
184 149
183 150
183 151
182 152
182 153
181 154
180 155
179 156
178 157
177 158
176 159
175 160
175 161
174 162
174 163
173 164
173 165
173 166
173 167
172 168
172 169
172 170
172 171
171 172
171 173
170 174
170 175
170 176
169 177
169 178
168 179
168 180
167 181
167 182
166 183
166 184
165 185
164 186
164 187
163 188
163 189
162 190
162 191
161 192
160 193
159 194
158 195
157 196
156 197
156 198
156 199
156 200
156 201
156 202
156 203
155 204
155 205
155 206
155 207
154 208
154 209
154 210
154 211
154 212
154 213
154 214
154 215
154 216
154 217
154 218
154 219
154 220
154 221
154 222
154 223
154 224
154 225
154 226
154 227
155 228
155 229
155 230
156 231
156 232
156 233
157 234
157 235
158 236
158 237
158 238
159 239
159 240
159 241
159 242
159 243
159 244
159 245
160 246
160 247
161 248
162 249
163 250
164 251
165 252
165 253
166 254
166 255
165 256
164 257
163 258
162 258
161 259
160 259
159 259
158 259
157 259
156 259
155 259
154 260
153 261
152 261
151 262
150 263
150 264
150 265
149 266
149 267
148 268
