297 87
296 88
295 88
295 89
294 90
294 91
294 92
294 93
294 94
295 95
295 96
295 97
295 98
295 99
295 100
295 101
295 102
296 103
296 104
296 105
296 106
297 107
297 108
297 109
297 110
296 111
295 111
294 110
293 110
292 110
291 109
290 109
289 109
288 108
287 108
286 108
285 107
284 107
283 107
282 106
281 106
280 106
279 105
278 105
277 105
276 105
275 104
274 104
273 104
272 104
271 105
270 106
270 107
270 108
271 109
271 110
272 111
273 112
274 113
275 114
276 115
277 115
278 116
279 117
280 118
281 118
282 119
283 120
284 120
285 121
285 122
286 123
287 124
288 125
289 126
290 126
291 127
292 128
293 129
294 130
295 131
296 132
297 133
296 134
295 134
294 135
293 135
292 136
292 137
292 138
292 139
293 140
294 141
295 142
296 143
297 144
298 144
299 145
300 146
301 147
302 148
302 149
301 150
300 151
300 152
300 153
300 154
301 155
302 156
303 157
304 158
305 159
306 160
307 161
308 161
309 162
310 162
311 163
312 163
313 164
314 164
315 164
316 165
317 165
318 165
319 166
320 166
321 167
320 168
319 168
318 168
317 168
316 168
315 168
314 168
313 168
312 167
311 168
310 168
309 168
308 169
307 170
307 171
308 172
308 173
309 174
310 175
311 175
312 176
313 176
314 177
315 177
316 178
317 178
318 179
319 180
319 181
318 182
318 183
318 184
318 185
319 186
320 187
321 188
322 189
323 190
324 190
325 190
326 191
327 192
328 192
329 192
330 193
331 193
332 194
333 194
334 194
335 194
336 194
337 195
338 195
339 195
340 195
341 195
342 195
343 195
344 195
345 195
346 195
347 195
348 195
349 195
350 195
351 194
352 194
353 195
354 196
355 197
355 198
354 199
353 199
352 198
351 198
350 198
349 198
348 198
347 198
346 197
345 197
344 197
343 197
342 197
341 197
340 198
339 198
338 198
337 198
336 198
335 198
334 198
333 199
332 198
331 199
330 199
329 199
328 200
327 200
326 201
326 202
326 203
327 204
328 205
329 206
330 207
330 208
329 209
328 209
328 210
327 211
326 212
325 211
325 210
325 209
325 208
325 207
324 206
324 205
324 204
324 203
323 202
323 201
322 200
322 199
322 198
321 197
320 196
319 195
318 194
317 194
316 195
315 195
315 196
314 197
313 196
312 195
312 194
312 193
311 192
311 191
311 190
310 189
310 188
309 187
309 186
308 185
307 184
306 183
305 183
304 182
303 183
302 183
301 182
300 181
300 180
300 179
299 178
299 177
298 176
298 175
297 174
297 173
296 172
295 171
294 170
293 170
292 169
291 168
291 167
291 166
291 165
290 164
290 163
289 162
289 161
288 160
288 159
287 158
287 157
286 156
285 155
284 155
283 155
282 155
281 155
280 154
280 153
279 152
279 151
279 150
278 149
278 148
277 147
276 146
275 145
274 145
273 145
272 144
271 143
271 142
271 141
271 140
270 139
270 138
270 137
269 136
269 135
268 134
268 133
267 132
267 131
266 130
265 130
264 130
263 131
262 130
261 129
261 128
261 127
261 126
260 125
260 124
259 123
259 122
258 121
258 120
257 119
256 118
255 118
254 118
253 118
252 118
251 117
251 116
251 115
251 114
250 113
250 112
250 111
249 110
249 109
248 108
247 107
246 106
245 105
244 106
243 106
242 106
241 105
241 104
241 103
241 102
240 101
240 100
240 99
240 98
240 97
239 96
239 95
239 94
238 93
238 92
238 91
237 90
236 89
235 89
234 89
233 89
232 90
231 91
231 92
231 93
231 94
231 95
230 96
230 97
230 98
230 99
230 100
230 101
230 102
230 103
230 104
230 105
230 106
230 107
231 108
231 109
231 110
231 111
231 112
230 113
229 112
228 111
227 111
226 110
225 109
224 109
223 108
222 108
221 107
220 106
219 106
218 105
217 105
216 104
215 103
214 103
213 102
212 102
211 101
210 101
209 101
208 101
207 102
206 103
206 104
207 105
207 106
208 107
208 108
209 109
210 110
210 111
211 112
212 113
213 114
214 115
215 116
216 117
215 118
215 119
214 120
215 121
215 122
216 123
217 124
218 125
219 125
220 126
221 127
222 127
223 128
224 129
225 130
225 131
225 132
225 133
226 134
227 135
228 136
229 137
230 138
231 139
232 139
233 140
234 141
234 142
234 143
233 144
233 145
234 146
234 147
235 148
236 149
237 150
238 151
239 152
240 153
241 153
242 154
242 155
242 156
242 157
242 158
242 159
243 160
243 161
244 162
245 163
246 164
247 165
248 165
249 166
250 167
251 167
252 168
253 168
254 169
254 170
253 171
252 171
251 172
250 173
250 174
251 175
251 176
252 177
253 178
254 179
255 180
256 180
257 181
258 181
259 182
260 182
261 183
262 184
261 185
261 186
261 187
262 188
262 189
263 190
264 191
265 191
266 192
267 192
268 193
269 194
270 194
271 195
272 195
273 196
272 197
271 197
270 198
269 199
269 200
269 201
270 202
271 203
272 204
273 204
274 205
275 206
276 206
277 207
278 207
279 208
280 208
281 208
282 209
283 210
283 211
283 212
284 213
284 214
285 215
286 216
287 217
288 217
289 218
290 219
291 219
292 220
293 220
294 220
295 221
296 221
297 222
298 222
299 222
300 223
301 223
302 223
303 223
304 223
305 223
306 224
305 225
304 225
303 225
302 225
301 225
300 225
299 226
298 226
297 226
296 226
295 226
294 227
293 227
292 227
291 228
290 229
290 230
289 231
290 232
291 233
292 233
293 234
294 234
295 235
296 235
297 236
298 236
299 236
300 236
301 236
302 237
303 237
304 237
305 237
306 237
307 237
308 237
309 237
310 237
311 237
312 237
313 238
312 239
311 239
310 239
309 239
308 239
307 240
306 240
305 240
304 240
303 241
302 241
301 242
301 243
301 244
301 245
302 246
303 247
304 247
305 248
306 248
307 248
308 249
309 249
310 249
311 250
312 250
313 250
314 250
315 250
316 250
317 250
318 250
319 250
320 250
321 250
322 250
323 250
324 250
325 250
326 250
327 250
328 250
329 249
330 249
331 249
332 248
333 248
334 247
335 247
336 248
337 249
338 250
338 251
339 252
338 253
337 254
336 254
335 254
334 254
333 254
332 254
331 254
330 254
329 254
328 254
327 254
326 254
325 254
324 254
323 255
322 255
321 255
320 256
319 256
318 256
317 257
316 257
315 258
314 259
314 260
314 261
314 262
315 263
316 264
317 264
318 265
319 265
320 265
321 266
322 266
323 266
324 266
325 266
326 266
327 266
328 267
329 267
330 267
331 267
332 267
333 266
334 266
335 266
336 266
337 266
338 266
339 266
340 265
341 265
342 264
343 264
344 264
345 263
346 262
346 261
347 260
348 261
349 262
349 263
350 264
351 265
351 266
352 267
351 268
350 268
349 268
348 268
347 268
346 268
345 268
344 268
343 268
342 268
341 268
340 268
339 268
338 268
337 269
336 269
335 269
334 269
333 269
332 269
331 269
330 270
329 270
328 271
327 272
327 273
327 274
328 275
329 276
330 277
331 277
332 278
333 278
334 278
335 279
336 279
337 279
338 280
339 280
340 280
341 280
342 280
343 280
344 280
345 280
346 280
347 280
348 280
349 280
350 280
351 280
352 280
353 279
354 279
355 279
356 278
357 278
358 277
359 277
360 276
361 277
362 278
363 279
363 280
364 281
364 282
363 283
362 283
361 283
360 283
359 283
358 283
357 283
356 283
355 283
354 283
353 283
352 283
351 284
350 284
349 284
348 285
347 286
347 287
347 288
348 289
349 290
350 290
351 291
352 291
353 292
354 292
355 293
356 293
357 293
358 293
359 293
360 293
361 293
362 293
363 293
364 293
365 293
366 293
367 292
368 292
369 292
370 291
371 290
372 290
373 291
373 292
374 293
375 294
376 295
376 296
377 297
377 298
377 299
376 300
375 300
374 300
373 300
372 300
371 300
370 300
369 300
368 300
367 300
366 300
365 300
364 300
363 300
362 300
361 300
360 300
359 300
358 300
357 300
356 300
355 300
354 300
353 300
352 300
351 300
350 300
349 300
348 300
347 300
346 300
345 300
344 300
343 300
342 300
341 300
340 300
339 300
338 300
337 300
336 300
335 300
334 300
333 300
332 300
331 299
330 299
329 299
328 299
327 299
326 299
325 299
324 298
323 297
322 296
321 295
321 294
322 293
322 292
322 291
322 290
322 289
322 288
322 287
321 286
321 285
321 284
320 283
320 282
320 281
319 280
318 279
318 278
317 277
316 276
315 275
314 275
313 275
312 275
311 274
311 273
310 272
309 271
309 270
308 269
308 268
307 267
307 266
306 265
305 264
305 263
304 262
303 261
302 260
302 259
302 258
301 257
301 256
301 255
301 254
301 253
300 252
300 251
300 250
299 249
299 248
298 247
298 246
297 245
296 244
295 244
294 243
293 243
292 244
291 245
291 246
290 247
290 248
290 249
290 250
290 251
290 252
290 253
290 254
290 255
290 256
291 257
291 258
291 259
291 260
291 261
291 262
291 263
292 264
292 265
291 266
290 265
289 264
288 263
287 262
287 261
288 260
288 259
288 258
288 257
288 256
288 255
288 254
287 253
287 252
287 251
287 250
286 249
286 248
286 247
285 246
285 245
284 244
284 243
283 242
282 241
282 240
281 239
281 238
280 237
279 236
278 235
277 234
276 233
275 232
275 231
274 230
274 229
273 228
272 227
272 226
271 225
270 224
270 223
269 222
268 221
267 221
266 220
266 219
265 218
265 217
265 216
265 215
265 214
264 213
264 212
264 211
263 210
263 209
262 208
262 207
261 206
260 206
259 206
258 206
257 207
256 207
256 208
255 209
255 210
255 211
255 212
255 213
255 214
254 215
253 214
253 213
253 212
253 211
252 210
252 209
252 208
252 207
251 206
251 205
251 204
250 203
250 202
250 201
249 200
249 199
248 198
247 197
247 196
246 195
245 195
244 195
243 195
242 196
241 197
240 198
239 197
239 196
239 195
238 194
238 193
237 192
237 191
236 190
236 189
235 188
234 187
234 186
233 186
232 186
231 186
230 186
229 187
228 186
228 185
228 184
227 183
227 182
227 181
226 180
226 179
226 178
225 177
225 176
224 175
223 174
222 173
221 173
220 173
219 174
218 173
217 172
217 171
217 170
217 169
216 168
216 167
215 166
215 165
214 164
214 163
214 162
213 161
212 160
211 159
210 159
209 159
208 159
207 158
207 157
207 156
207 155
206 154
206 153
206 152
205 151
205 150
204 149
203 148
202 148
201 148
200 148
199 149
198 150
197 149
197 148
196 147
196 146
196 145
195 144
195 143
195 142
194 141
193 140
193 139
192 138
191 137
190 137
189 137
188 137
187 136
186 135
186 134
186 133
185 132
185 131
184 130
184 129
183 128
183 127
182 126
181 125
180 125
179 125
178 125
177 126
177 127
177 128
176 129
175 128
174 127
173 126
172 125
171 124
170 123
170 122
169 121
169 120
168 119
168 118
168 117
167 116
166 115
166 114
165 113
164 113
163 112
162 113
161 113
161 114
160 115
160 116
160 117
160 118
160 119
160 120
161 121
161 122
161 123
161 124
162 125
162 126
162 127
162 128
163 129
163 130
164 131
165 132
165 133
166 134
167 135
168 136
167 137
166 137
165 136
164 136
163 135
162 135
161 135
160 134
159 134
158 134
157 134
156 133
155 133
154 133
153 133
152 133
151 133
150 133
149 132
148 132
147 132
146 132
145 131
144 131
143 131
142 131
141 132
140 133
140 134
141 135
141 136
142 137
143 137
144 138
145 139
146 140
147 140
148 141
149 142
150 142
151 143
152 143
153 144
154 145
154 146
154 147
154 148
155 149
156 150
157 150
158 151
159 152
160 152
161 153
162 154
163 154
164 155
165 155
166 156
167 156
168 157
167 158
166 159
165 159
164 159
163 160
163 161
163 162
163 163
164 164
165 164
166 165
167 166
168 166
169 167
170 167
171 168
172 168
173 168
174 169
175 169
176 170
175 171
174 171
173 171
172 172
171 173
171 174
171 175
172 176
173 177
174 177
175 178
176 179
177 179
178 180
179 180
180 180
181 181
182 181
183 181
184 181
185 182
186 182
187 182
188 182
189 183
188 184
187 184
186 184
185 185
184 185
183 186
182 187
182 188
183 189
184 190
185 191
186 191
187 192
188 192
189 193
190 193
191 193
192 193
193 194
194 194
195 194
196 195
195 196
194 197
193 197
193 198
192 199
192 200
193 201
193 202
194 203
195 203
196 204
197 204
198 204
199 205
200 205
201 206
202 206
203 206
204 206
205 207
206 208
205 209
204 209
204 210
203 211
203 212
203 213
204 214
205 215
206 215
207 216
208 216
209 217
210 217
211 217
212 218
213 218
214 218
215 218
216 218
217 219
218 219
219 219
220 219
221 219
222 220
223 220
224 220
225 220
226 220
227 220
228 220
229 219
230 219
231 219
232 219
233 219
234 218
235 217
236 217
237 217
238 218
239 219
240 220
239 221
238 221
237 221
236 221
235 221
234 221
233 221
232 221
231 221
230 222
229 222
228 222
227 222
226 222
225 222
224 223
223 223
222 223
221 223
220 224
219 224
218 225
217 225
216 225
216 226
215 227
215 228
215 229
216 230
217 231
218 231
219 232
220 232
221 232
222 232
223 232
224 232
225 232
226 233
227 234
227 235
227 236
228 237
229 238
230 239
231 239
232 240
233 240
234 240
235 241
236 241
237 241
238 242
239 242
240 242
241 242
242 242
243 242
244 243
245 243
246 243
247 243
248 243
249 243
250 243
251 243
252 243
253 243
254 243
255 243
256 242
257 242
258 242
259 241
260 241
261 240
262 241
263 242
264 242
265 243
266 244
265 245
264 245
263 245
262 245
261 245
260 245
259 245
258 245
257 245
256 245
255 245
254 245
253 245
252 245
251 245
250 245
249 246
248 246
247 246
246 246
245 247
244 247
243 247
242 247
241 247
240 248
239 249
239 250
238 251
239 252
240 253
241 254
242 254
243 255
244 255
245 255
246 256
247 256
248 256
249 256
250 257
251 257
252 257
253 257
254 257
255 257
256 257
257 257
258 257
259 257
260 257
261 257
262 257
263 256
264 256
265 256
266 256
267 255
268 255
269 255
270 254
271 254
272 253
273 252
274 252
275 253
276 254
276 255
277 256
278 257
278 258
277 259
276 259
275 259
274 259
273 259
272 259
271 260
270 260
269 260
268 260
267 261
266 261
265 261
264 262
263 262
262 262
261 263
260 263
259 263
258 264
257 264
256 265
255 264
254 263
253 262
252 262
251 261
250 261
249 262
248 262
247 263
247 264
247 265
246 266
246 267
246 268
246 269
246 270
246 271
246 272
246 273
246 274
246 275
246 276
246 277
247 278
247 279
246 280
245 280
244 279
243 278
243 277
244 276
244 275
244 274
244 273
244 272
244 271
244 270
244 269
243 268
243 267
243 266
243 265
242 264
242 263
242 262
241 261
241 260
240 259
240 258
239 257
239 256
238 255
237 254
236 253
235 252
234 251
233 250
232 250
231 250
230 250
229 251
228 250
227 249
227 248
226 247
226 246
225 245
225 244
224 243
223 242
223 241
222 240
221 240
220 239
219 239
218 239
217 240
216 241
216 242
216 243
216 244
216 245
216 246
216 247
216 248
215 249
214 248
214 247
214 246
213 245
213 244
213 243
212 242
212 241
211 240
211 239
211 238
210 237
209 236
209 235
208 234
207 233
206 232
205 231
204 230
203 230
202 229
201 230
200 231
200 232
199 233
200 234
200 235
200 236
200 237
199 238
198 237
198 236
197 235
197 234
196 233
195 232
194 231
194 230
193 229
192 228
191 227
190 227
189 226
188 225
187 225
186 224
185 223
185 222
185 221
184 220
184 219
183 218
183 217
182 216
181 215
181 214
180 213
179 212
178 211
177 211
176 211
175 211
174 212
173 213
172 212
172 211
171 210
171 209
170 208
170 207
169 206
168 205
167 204
167 203
166 203
165 202
164 202
163 202
162 202
162 203
161 204
160 205
159 204
158 203
158 202
157 201
157 200
156 199
155 198
154 197
153 196
152 195
151 194
150 194
149 194
148 194
147 194
146 193
145 192
145 191
144 190
143 189
142 188
142 187
141 187
140 186
139 186
138 186
137 187
136 188
135 187
134 186
134 185
133 184
133 183
132 182
131 181
130 180
129 179
128 178
127 178
126 178
125 178
124 177
124 176
123 175
123 174
122 173
122 172
121 171
120 170
120 169
119 168
118 168
117 167
116 167
115 167
114 168
114 169
114 170
114 171
114 172
113 173
112 174
111 174
110 175
109 175
108 176
107 176
107 177
107 178
106 179
105 179
104 178
103 178
102 178
101 177
100 177
99 177
98 176
97 176
96 176
95 176
94 176
93 175
92 175
91 175
90 175
89 175
88 175
87 175
86 175
85 176
84 176
83 177
83 178
83 179
84 180
85 180
86 181
87 181
88 181
89 181
90 181
91 182
92 183
93 183
94 184
95 185
96 185
97 186
98 186
99 187
100 187
101 187
102 188
103 188
104 189
105 190
104 191
103 191
102 191
101 191
100 191
99 191
98 191
97 191
96 192
95 192
94 192
93 193
93 194
93 195
94 196
95 196
96 197
97 198
98 198
99 198
100 199
101 199
102 200
103 200
104 200
105 200
106 201
107 201
108 201
109 201
110 201
111 202
112 202
113 202
114 202
115 202
116 202
117 203
116 204
115 204
114 204
113 204
112 205
111 205
110 206
109 206
108 207
107 207
106 208
106 209
106 210
107 211
108 212
109 212
110 212
111 213
112 213
113 213
114 213
115 213
116 213
117 214
118 215
119 216
120 217
121 217
122 218
123 218
124 218
125 219
126 219
127 219
128 219
129 219
130 220
131 220
132 220
133 220
134 220
135 221
134 222
133 222
132 223
131 224
130 225
131 226
131 227
132 228
133 228
134 228
135 229
136 229
137 229
138 229
139 229
140 230
141 230
142 230
143 231
143 232
143 233
143 234
143 235
144 236
145 237
146 237
147 237
148 237
149 238
150 238
151 238
152 238
153 238
154 239
155 239
156 239
157 239
158 239
159 239
160 239
161 239
162 240
161 241
160 241
159 242
158 242
157 243
156 243
155 243
154 244
154 245
154 246
154 247
155 248
156 248
157 248
158 249
159 249
160 249
161 249
162 249
163 249
164 249
165 249
166 249
167 249
168 249
169 249
170 249
171 249
172 248
173 248
174 248
175 248
176 248
177 247
178 247
179 247
180 246
181 246
182 245
183 245
184 244
185 243
186 242
187 243
188 244
189 244
190 245
191 246
190 247
189 247
188 247
187 247
186 248
185 248
184 248
183 248
182 249
181 249
180 249
179 250
178 250
177 251
176 251
175 252
174 252
173 253
172 253
171 254
170 254
169 255
168 256
167 257
166 258
165 258
164 258
163 258
162 258
161 258
161 259
161 260
160 261
159 260
158 259
157 258
156 257
155 256
154 255
153 255
152 254
151 253
150 253
149 252
148 252
147 252
146 252
145 252
144 251
143 250
142 250
141 249
140 248
139 248
138 247
137 247
136 247
135 247
134 247
133 248
132 247
132 246
131 245
130 244
129 243
128 242
127 241
126 241
125 241
124 240
123 241
122 241
122 242
122 243
121 244
121 245
122 246
122 247
122 248
122 249
123 250
123 251
123 252
123 253
124 254
124 255
124 256
125 257
125 258
126 259
126 260
127 261
127 262
128 263
129 264
128 265
127 265
126 264
125 264
124 263
123 263
122 262
122 261
122 260
122 259
122 258
121 257
121 256
120 255
119 254
119 253
118 252
117 251
117 250
116 249
115 248
114 248
113 247
112 246
111 245
110 245
109 244
108 244
107 243
106 242
105 242
104 242
103 241
103 240
102 239
101 238
101 237
100 236
99 235
98 234
97 233
96 232
95 231
94 230
93 229
92 229
91 229
90 229
89 229
88 230
88 231
88 232
87 233
86 232
85 231
84 230
83 229
82 228
81 227
80 226
79 225
78 225
77 224
76 223
75 223
74 223
73 223
72 224
71 225
70 224
69 223
68 222
67 221
66 220
65 219
64 219
63 218
62 218
61 218
60 218
59 218
58 219
58 220
58 221
58 222
57 223
56 224
55 225
55 226
55 227
56 228
56 229
57 230
57 231
58 232
59 233
58 234
57 234
56 234
55 234
54 234
53 234
52 234
51 234
50 234
49 234
48 234
47 234
46 234
45 234
44 234
43 234
42 234
41 233
40 234
39 234
38 234
37 234
36 234
35 234
34 234
33 234
32 235
31 235
30 236
30 237
31 238
31 239
32 240
33 240
34 240
35 241
36 241
37 241
38 242
39 242
40 243
41 243
42 243
43 243
44 243
45 244
46 244
47 244
48 244
49 244
50 244
51 244
52 244
53 244
54 244
55 244
56 245
57 244
58 245
58 246
57 247
56 247
55 248
54 248
53 249
52 250
51 251
51 252
52 253
53 254
54 254
55 254
56 254
57 254
58 254
59 254
60 254
61 254
62 254
63 255
62 256
62 257
62 258
63 259
64 260
65 260
66 260
67 260
68 260
69 260
70 260
71 260
72 260
73 260
74 260
75 260
76 260
77 260
78 261
77 262
76 262
75 263
75 264
74 265
75 266
75 267
76 267
77 267
78 268
79 268
80 268
81 268
82 268
83 268
84 268
85 267
86 267
87 267
88 267
89 267
90 267
91 268
91 269
91 270
91 271
91 272
92 273
93 273
94 273
95 274
96 274
97 274
98 274
99 274
100 274
101 274
102 273
103 273
104 274
104 275
104 276
104 277
104 278
105 279
106 279
107 280
108 280
109 280
110 280
111 280
112 280
113 280
114 280
115 280
116 280
117 280
118 280
119 279
120 279
121 279
122 280
121 281
120 282
120 283
119 284
119 285
120 286
120 287
121 287
122 287
123 287
124 287
125 287
126 287
127 287
128 287
129 287
130 287
131 287
132 286
133 286
134 286
135 285
136 285
137 285
138 284
139 284
140 284
141 283
142 283
143 282
144 282
145 281
146 281
147 282
146 283
145 284
144 284
143 285
142 286
141 287
140 288
139 289
138 290
138 291
138 292
138 293
139 294
140 294
141 294
142 294
143 294
144 294
145 294
146 294
147 293
148 293
149 293
150 293
151 292
152 292
153 291
154 291
155 291
156 292
155 293
154 294
153 295
152 296
152 297
152 298
153 299
153 300
152 301
153 300
154 300
155 300
156 301
155 302
155 303
155 304
155 305
155 306
156 307
157 308
158 308
159 309
160 310
159 311
158 311
157 311
156 310
155 310
154 310
153 310
152 310
151 310
150 310
149 309
148 309
147 309
146 310
145 310
144 310
143 310
142 310
141 310
140 311
139 311
138 312
137 313
136 313
135 313
134 313
133 312
132 312
131 312
130 312
129 312
128 312
127 313
126 313
125 313
124 314
124 315
124 316
125 317
126 318
127 319
128 320
129 321
128 322
127 322
126 321
125 321
124 321
123 321
122 321
121 321
120 320
119 320
118 320
117 320
116 320
115 320
114 320
113 321
112 321
111 321
110 321
109 322
108 323
108 324
109 325
109 326
108 327
107 327
106 327
105 327
104 327
103 327
102 327
101 327
100 327
99 327
98 327
97 327
96 328
95 329
94 330
93 330
92 330
91 330
90 330
89 330
88 330
87 330
86 330
85 330
84 330
83 330
82 331
81 332
82 333
82 334
83 335
84 336
85 337
86 337
87 338
86 339
85 339
84 339
83 339
82 339
81 339
80 339
79 339
78 339
77 339
76 339
75 339
74 339
73 339
72 339
71 340
70 340
69 340
68 341
67 342
66 343
65 343
64 343
63 343
62 343
61 343
60 343
59 343
58 343
57 343
56 344
55 344
54 345
54 346
54 347
55 348
56 348
57 349
58 350
57 351
56 351
55 351
54 351
53 351
52 351
51 351
50 352
49 352
48 352
47 352
46 352
45 352
44 353
43 353
42 353
41 353
40 354
39 354
38 354
37 355
37 356
36 357
36 358
35 359
34 360
33 360
32 360
31 361
30 361
29 362
28 362
27 363
26 363
25 364
24 365
24 366
24 367
24 368
25 369
26 369
27 369
28 369
29 369
30 369
31 369
32 369
33 369
34 369
35 369
36 369
37 369
38 369
39 368
40 368
41 368
42 368
43 368
44 368
45 368
46 367
47 367
48 367
49 367
50 366
51 366
52 367
51 368
50 369
49 370
49 371
48 372
48 373
47 374
47 375
46 376
45 377
45 378
44 379
44 380
43 381
43 382
42 383
42 384
41 385
41 386
40 387
39 388
39 389
38 390
38 391
38 392
38 393
38 394
39 395
40 395
41 395
42 395
43 394
44 394
45 393
46 392
47 391
48 390
49 389
50 388
51 387
52 386
53 385
53 384
54 383
55 382
55 381
56 380
57 379
58 380
59 381
59 382
60 382
61 382
62 382
63 381
64 380
65 380
66 379
66 378
67 377
68 376
69 376
70 377
71 377
72 377
73 377
74 376
75 376
76 375
77 374
78 373
79 373
80 372
80 371
81 370
82 369
83 368
84 369
84 370
84 371
85 372
86 373
87 373
88 373
89 372
90 372
91 371
92 370
93 369
94 368
95 367
96 367
97 368
98 368
99 368
100 367
101 367
102 366
103 366
104 365
105 364
106 363
107 362
108 361
109 360
110 359
111 358
112 359
113 360
114 360
115 361
116 360
117 360
118 359
119 359
120 358
121 357
122 356
123 355
124 354
125 353
126 354
126 355
125 356
125 357
125 358
126 359
126 360
127 360
128 360
129 360
130 359
131 359
132 358
133 357
134 356
135 355
136 354
137 353
138 352
139 352
140 352
141 352
142 352
143 352
144 351
145 351
146 350
147 349
148 348
149 347
150 346
151 345
152 344
153 345
153 346
153 347
153 348
153 349
154 349
155 350
156 350
157 349
158 348
159 347
160 346
161 345
162 344
163 344
164 343
165 342
166 341
167 340
168 341
168 342
169 343
170 343
171 342
172 342
173 341
174 341
175 340
176 339
177 338
178 337
179 336
180 335
181 334
182 333
183 334
183 335
182 336
183 337
183 338
184 339
183 340
183 341
183 342
182 343
181 343
180 343
179 343
178 343
177 344
176 344
175 344
174 345
173 346
173 347
173 348
174 349
175 350
176 351
177 351
178 352
179 352
180 353
179 354
178 354
177 354
176 353
175 353
174 353
173 353
172 353
171 353
170 353
169 353
168 354
167 354
166 354
165 354
164 355
163 355
162 355
161 356
161 357
161 358
162 359
163 360
164 361
165 361
166 362
167 362
168 363
167 364
166 364
165 364
164 364
163 364
162 364
161 364
160 364
159 364
158 364
157 364
156 364
155 364
154 365
153 365
152 365
151 366
150 366
149 367
149 368
148 369
149 370
150 371
151 372
152 372
153 372
154 373
153 374
152 374
151 374
150 374
149 374
148 374
147 374
146 375
145 375
144 375
143 375
142 375
141 376
140 376
139 377
138 377
137 378
137 379
137 380
137 381
138 382
138 383
137 384
136 384
135 384
134 384
133 385
132 385
131 385
130 385
129 385
128 386
127 386
126 386
125 387
125 388
125 389
125 390
126 391
127 391
128 392
129 392
130 392
131 392
132 393
133 393
134 393
135 393
136 393
137 393
138 393
139 393
140 393
141 394
140 395
139 395
138 395
137 395
136 395
135 396
134 396
133 397
132 397
131 398
130 399
129 400
128 400
127 401
126 402
125 403
124 404
123 405
122 406
121 407
120 408
119 409
118 409
118 410
117 411
116 412
115 413
114 414
113 415
113 416
112 417
111 418
110 419
109 420
108 421
107 422
106 423
106 424
105 425
104 426
104 427
103 428
102 429
101 430
101 431
100 432
99 433
99 434
98 435
97 435
97 436
96 437
96 438
96 439
95 440
95 441
95 442
96 443
97 444
98 444
99 444
100 444
101 443
102 443
103 442
104 442
105 441
106 440
107 440
108 439
109 438
110 437
111 436
112 435
113 434
113 433
114 432
115 431
116 430
117 431
117 432
117 433
117 434
117 435
117 436
117 437
117 438
117 439
118 440
119 440
120 441
121 440
122 440
123 439
123 438
124 437
125 436
125 435
126 434
126 433
127 432
127 431
128 430
128 429
128 428
128 427
129 426
129 425
129 424
130 423
131 424
131 425
132 426
132 427
133 428
134 428
135 428
136 427
137 426
137 425
138 424
138 423
139 422
140 422
141 422
142 421
143 421
143 420
144 419
145 418
145 417
146 416
147 415
147 414
148 413
148 412
149 411
150 411
151 410
152 410
153 409
154 408
155 407
155 406
156 405
157 404
158 403
159 404
160 405
161 405
162 405
163 405
164 404
165 403
166 402
167 401
168 400
169 399
169 398
170 397
171 396
172 397
173 397
174 397
175 397
176 396
177 395
178 394
179 393
180 392
180 391
181 390
182 389
182 388
183 387
184 386
185 387
186 388
187 389
188 389
189 389
190 388
191 388
191 387
192 386
192 385
193 384
194 383
194 382
195 381
196 380
197 380
198 380
199 379
200 379
201 378
202 377
203 376
203 375
204 374
205 373
206 372
206 371
207 370
207 369
208 368
209 367
210 368
211 368
212 368
213 368
214 367
215 367
215 366
216 365
217 364
217 363
218 362
218 361
219 360
220 359
220 358
221 357
222 357
223 358
223 359
224 360
225 361
226 361
227 361
228 361
229 360
230 359
231 358
232 357
232 356
233 355
234 354
235 353
236 352
237 352
238 353
239 353
240 353
241 353
242 352
243 351
244 350
245 349
245 348
246 347
247 346
247 345
248 344
248 343
249 342
249 341
249 340
249 339
250 338
250 337
250 336
251 335
251 334
251 333
251 332
251 331
251 330
251 329
251 328
251 327
251 326
251 325
250 324
249 323
250 322
251 321
252 320
253 319
254 319
255 320
255 321
254 322
254 323
254 324
254 325
253 326
253 327
253 328
253 329
253 330
253 331
253 332
253 333
253 334
253 335
253 336
253 337
254 338
255 339
256 338
257 338
258 337
259 336
260 335
260 334
261 333
261 332
262 331
262 330
263 329
263 328
263 327
263 326
264 325
264 324
264 323
265 322
266 323
266 324
266 325
267 326
267 327
268 327
269 328
270 327
271 327
271 326
272 325
272 324
273 323
273 322
273 321
274 320
274 319
274 318
274 317
274 316
275 315
275 314
275 313
275 312
274 311
274 310
274 309
273 308
273 307
272 306
272 305
273 304
274 303
275 302
276 302
277 302
278 301
279 301
280 301
281 301
282 301
283 301
284 301
285 301
286 301
287 301
288 301
289 301
290 301
291 301
292 301
293 301
294 301
295 301
296 301
297 301
298 301
299 301
300 301
301 301
302 301
303 301
304 301
305 301
306 301
307 301
308 301
309 301
310 301
311 301
312 301
313 301
314 301
315 301
316 301
317 301
318 302
319 303
319 304
318 305
318 306
317 307
316 308
315 309
314 309
313 308
312 308
311 308
310 308
309 308
308 308
307 308
306 308
305 308
304 308
303 308
302 309
301 309
300 310
299 310
298 310
297 311
296 311
295 312
294 313
293 313
292 314
291 315
291 316
290 317
290 318
290 319
289 320
288 321
287 321
286 321
285 322
284 322
283 323
282 324
281 325
280 326
279 327
279 328
278 329
278 330
277 331
276 331
275 332
274 332
273 333
272 333
271 334
270 334
269 335
268 336
267 336
266 337
265 338
264 339
263 340
262 341
262 342
261 343
260 344
259 344
258 345
257 346
256 346
255 347
254 348
253 349
252 349
252 350
251 351
250 352
249 353
248 353
247 354
246 354
245 355
244 355
243 356
242 356
241 357
240 358
239 359
238 360
237 360
236 360
235 361
234 361
233 361
232 362
231 362
230 362
229 363
228 364
228 365
228 366
228 367
229 368
230 369
229 370
228 370
227 371
226 371
225 371
224 372
223 372
222 372
221 373
220 373
219 374
218 374
217 375
216 376
216 377
216 378
217 379
217 380
218 380
219 381
218 382
217 383
216 383
215 383
214 383
213 384
212 385
211 385
210 385
209 386
208 386
207 387
206 388
205 389
205 390
205 391
206 392
206 393
207 394
206 395
205 396
204 396
203 397
202 398
201 399
200 400
199 400
198 401
197 402
196 402
195 402
194 402
193 403
192 403
191 403
190 404
189 404
188 405
187 405
186 405
185 406
184 407
183 407
183 408
182 409
182 410
181 411
180 412
179 412
178 412
177 413
176 413
175 413
174 414
173 415
172 415
171 416
171 417
171 418
171 419
172 420
173 420
174 421
175 422
174 423
173 423
172 423
171 424
170 424
169 425
168 425
167 426
166 426
165 427
164 428
163 428
162 429
162 430
161 431
160 432
159 433
158 433
157 433
156 434
155 434
154 434
153 435
152 436
151 436
150 437
149 437
148 438
147 439
146 439
146 440
146 441
146 442
146 443
147 443
148 444
149 444
150 444
151 445
150 446
149 447
148 448
148 449
147 450
146 451
146 452
146 453
147 454
148 454
149 454
150 454
151 454
152 454
153 453
154 452
155 452
156 451
157 451
158 450
159 450
160 449
161 449
162 449
163 448
164 448
165 447
166 447
167 446
168 445
169 446
169 447
169 448
168 449
168 450
168 451
168 452
168 453
168 454
167 455
167 456
167 457
167 458
167 459
167 460
167 461
167 462
167 463
167 464
167 465
167 466
167 467
167 468
167 469
167 470
167 471
167 472
167 473
167 474
167 475
167 476
168 477
169 478
170 479
171 479
172 478
173 478
173 477
174 476
174 475
175 474
175 473
175 472
176 471
176 470
176 469
177 468
177 467
177 466
178 465
178 464
178 463
178 462
178 461
178 460
179 459
180 458
181 458
182 458
183 458
184 457
185 456
185 455
186 454
186 453
187 452
187 451
188 450
188 449
188 448
189 447
189 446
189 445
190 444
190 443
190 442
190 441
190 440
191 439
192 440
192 441
192 442
192 443
193 444
193 445
193 446
193 447
194 447
195 448
196 448
197 448
198 447
198 446
199 445
200 444
200 443
200 442
201 441
201 440
201 439
201 438
201 437
202 436
203 435
204 435
205 434
206 433
207 433
208 432
208 431
209 430
210 429
210 428
210 427
211 426
211 425
212 424
213 424
214 425
215 425
216 424
217 424
218 423
219 422
220 421
220 420
221 419
221 418
222 417
222 416
223 415
223 414
223 413
224 412
224 411
224 410
224 409
225 408
226 409
226 410
226 411
226 412
226 413
226 414
226 415
227 416
227 417
228 418
229 419
230 419
231 418
232 417
233 416
234 415
234 414
235 413
235 412
236 411
236 410
237 409
238 410
239 411
240 411
241 411
242 410
243 410
244 409
244 408
245 407
246 408
246 409
246 410
246 411
246 412
246 413
245 414
244 415
243 415
242 415
241 416
240 416
239 417
238 417
237 418
236 419
236 420
237 421
238 422
239 423
240 423
241 423
242 423
243 423
244 424
245 424
246 424
247 424
248 424
249 424
250 424
251 424
252 424
253 423
254 423
255 423
256 423
257 423
258 424
258 425
257 426
256 427
255 428
254 427
253 427
252 426
251 426
250 426
249 426
248 426
247 426
246 426
245 426
244 426
243 426
242 426
241 427
240 427
239 427
238 428
237 428
236 428
235 429
234 429
233 429
232 429
231 429
230 430
229 430
228 431
227 431
226 432
225 433
225 434
225 435
225 436
225 437
224 438
223 438
222 438
221 439
220 439
219 439
218 439
217 440
216 440
215 441
214 441
213 442
212 442
211 443
210 444
209 445
210 446
210 447
210 448
210 449
209 450
208 450
207 450
206 451
205 451
204 452
203 452
202 453
201 453
200 454
199 454
198 455
197 456
196 457
195 458
194 459
193 460
193 461
193 462
193 463
194 464
195 464
196 464
197 464
198 464
199 464
200 464
201 464
202 464
203 464
204 463
205 463
206 463
207 463
208 462
209 462
210 462
211 462
212 462
213 461
214 461
215 461
216 461
217 460
218 460
219 460
220 459
221 459
222 458
223 458
224 459
224 460
223 461
223 462
223 463
222 464
222 465
222 466
222 467
221 468
221 469
221 470
220 471
220 472
220 473
219 474
219 475
219 476
218 477
218 478
218 479
218 480
219 481
220 482
221 482
222 481
223 481
224 480
225 480
226 479
226 478
227 477
228 476
228 475
229 474
229 473
230 472
230 471
230 470
231 469
232 470
232 471
233 472
233 473
234 473
235 473
236 473
237 473
238 472
239 471
240 470
240 469
241 468
241 467
241 466
242 465
242 464
243 463
243 462
243 461
244 460
244 459
244 458
245 457
245 456
245 455
245 454
245 453
245 452
246 451
247 452
247 453
247 454
247 455
247 456
248 457
248 458
248 459
249 460
250 461
251 461
252 461
253 460
254 460
255 459
256 459
257 459
258 459
259 459
260 459
261 459
262 459
263 459
264 459
265 458
266 458
267 458
268 458
269 458
270 458
271 458
272 458
273 459
273 460
272 461
272 462
272 463
271 464
271 465
271 466
271 467
270 468
269 469
269 470
268 471
267 472
266 473
266 474
265 475
265 476
265 477
265 478
264 479
264 480
263 481
262 482
262 483
262 484
262 485
263 486
264 486
265 486
266 486
267 486
268 485
269 485
270 484
271 484
272 483
273 482
274 481
275 481
276 480
277 479
277 478
278 477
279 476
280 475
281 474
282 474
283 475
284 475
285 475
286 474
287 473
288 472
289 471
290 470
291 469
291 468
292 467
292 466
293 465
294 464
294 463
295 462
296 463
297 464
298 464
299 464
300 463
301 462
302 461
303 460
303 459
304 458
305 457
305 456
306 455
306 454
307 453
308 453
309 453
310 453
311 452
312 451
313 450
313 449
314 448
314 447
315 446
316 445
316 444
317 443
318 443
319 444
320 444
321 443
322 443
323 442
324 441
325 440
325 439
326 438
327 437
327 436
328 435
328 434
329 433
330 433
331 434
332 434
333 435
334 434
335 434
336 433
337 432
338 431
338 430
339 429
339 428
340 427
340 426
341 425
342 424
343 424
344 424
345 424
346 423
347 423
347 422
348 421
349 420
350 419
350 418
351 417
351 416
352 415
352 414
352 413
353 412
353 411
353 410
354 409
354 408
354 407
355 406
355 405
355 404
355 403
355 402
355 401
355 400
355 399
355 398
355 397
355 396
355 395
355 394
355 393
354 392
353 391
354 390
355 389
355 388
356 387
357 387
358 388
358 389
358 390
358 391
358 392
358 393
358 394
358 395
358 396
358 397
358 398
358 399
358 400
358 401
358 402
358 403
358 404
359 405
359 406
359 407
360 408
361 409
362 410
363 410
364 409
365 409
366 408
366 407
366 406
367 405
367 404
368 403
368 402
368 401
368 400
369 399
369 398
370 397
370 396
370 395
371 394
372 394
373 393
374 392
375 391
376 391
377 390
378 389
379 388
379 387
380 386
381 385
382 386
382 387
382 388
382 389
382 390
382 391
383 392
384 393
384 394
384 395
383 396
382 396
381 397
380 397
379 398
378 398
377 399
376 399
375 400
374 401
373 401
372 402
372 403
372 404
372 405
372 406
373 407
373 408
373 409
372 410
371 410
370 411
369 412
368 412
367 413
366 413
365 414
364 415
363 416
362 417
362 418
362 419
363 420
364 420
365 421
366 421
367 421
368 422
369 423
368 424
367 424
366 424
365 425
364 425
363 426
362 426
361 427
360 427
359 428
358 429
357 430
356 431
356 432
356 433
356 434
357 435
358 436
359 437
358 438
357 439
356 440
355 440
354 441
353 442
352 443
351 443
350 444
349 445
349 446
348 447
348 448
348 449
348 450
348 451
347 452
346 452
345 453
344 454
343 454
342 455
341 456
340 457
340 458
340 459
340 460
341 461
342 461
343 462
344 462
345 462
346 463
345 464
344 465
343 465
342 466
341 467
340 467
339 468
338 469
337 470
336 471
335 472
335 473
334 474
334 475
334 476
334 477
335 478
335 479
336 480
335 481
334 482
333 483
332 484
331 485
330 486
329 487
328 488
328 489
327 490
326 491
326 492
326 493
325 494
325 495
324 496
324 497
324 498
325 499
325 500
326 500
327 501
328 500
329 500
330 500
331 499
332 498
333 497
334 496
335 495
336 495
337 494
338 494
339 493
340 493
341 492
342 491
343 491
344 490
345 489
346 488
347 488
348 487
349 486
350 485
350 484
351 483
352 484
352 485
352 486
352 487
352 488
352 489
352 490
352 491
352 492
352 493
352 494
352 495
352 496
352 497
352 498
353 499
353 500
353 501
353 502
353 503
353 504
353 505
354 506
354 507
354 508
354 509
354 510
355 511
355 512
356 513
357 514
358 515
359 515
360 515
361 515
361 514
362 513
362 512
363 511
363 510
363 509
364 508
364 507
364 506
364 505
364 504
364 503
364 502
364 501
364 500
364 499
364 498
364 497
364 496
364 495
364 494
364 493
364 492
365 491
366 492
367 492
368 492
369 492
369 491
370 490
370 489
370 488
371 487
371 486
371 485
371 484
372 483
372 482
372 481
372 480
373 479
374 479
375 478
376 478
376 477
377 476
377 475
377 474
377 473
378 472
378 471
378 470
378 469
378 468
378 467
378 466
378 465
378 464
378 463
378 462
378 461
378 460
378 459
378 458
379 457
380 458
380 459
380 460
381 461
381 462
381 463
382 464
383 465
384 465
385 465
386 465
387 464
387 463
388 462
388 461
388 460
389 459
389 458
389 457
389 456
389 455
389 454
390 453
391 452
392 452
393 452
394 451
394 450
395 449
395 448
395 447
396 446
396 445
396 444
396 443
397 442
397 441
397 440
397 439
398 438
399 439
400 440
401 441
402 441
403 441
404 440
404 439
405 438
406 437
406 436
406 435
407 434
407 433
407 432
407 431
407 430
408 429
408 428
409 427
410 427
411 427
412 427
413 427
414 426
414 425
415 424
415 423
416 422
416 421
416 420
416 419
417 418
417 417
417 416
417 415
418 414
419 415
420 416
421 416
422 416
423 415
423 414
424 413
424 412
424 411
425 410
425 409
425 408
425 407
426 406
426 405
426 404
427 403
428 403
429 404
430 404
431 403
432 403
433 402
433 401
434 400
434 399
435 398
435 397
436 396
436 395
436 394
436 393
436 392
436 391
437 390
438 389
439 389
440 390
441 389
442 389
443 388
443 387
444 386
444 385
444 384
445 383
445 382
445 381
446 380
446 379
446 378
446 377
447 376
448 376
449 376
450 376
451 376
452 376
453 375
453 374
454 373
454 372
455 371
455 370
456 369
456 368
456 367
457 366
457 365
457 364
457 363
458 362
459 362
460 362
461 362
462 361
463 360
464 359
464 358
465 357
465 356
466 355
466 354
467 353
467 352
467 351
468 350
468 349
469 348
470 349
471 350
470 351
470 352
470 353
471 354
472 355
473 356
474 356
475 357
476 358
476 359
475 360
474 360
473 361
472 361
471 361
470 362
469 362
468 363
467 363
466 364
465 365
464 365
463 366
462 367
461 367
461 368
460 369
460 370
460 371
460 372
459 373
459 374
458 375
457 376
456 376
455 377
454 377
453 378
453 379
453 380
453 381
453 382
454 383
455 384
454 385
453 386
452 387
451 387
450 388
449 388
448 389
447 390
446 390
445 391
444 392
443 393
443 394
443 395
443 396
444 397
444 398
444 399
443 400
442 401
441 401
440 402
439 402
438 403
437 404
436 404
435 405
434 406
434 407
433 408
433 409
434 410
434 411
435 412
436 413
436 414
435 415
434 415
433 416
432 417
431 417
430 418
429 418
428 419
427 420
426 421
425 422
425 423
425 424
425 425
425 426
426 427
426 428
425 429
424 430
423 431
422 432
421 433
421 434
420 435
420 436
420 437
420 438
419 439
419 440
418 441
417 442
416 443
415 443
414 444
413 445
412 446
411 447
411 448
411 449
411 450
411 451
412 451
413 452
414 452
415 452
416 452
417 452
418 452
419 452
420 451
421 451
422 451
423 451
424 451
425 450
426 450
427 450
428 450
429 450
430 450
431 451
430 452
429 453
428 454
428 455
427 456
427 457
426 458
426 459
426 460
425 461
425 462
424 463
424 464
423 465
423 466
423 467
422 468
422 469
422 470
422 471
421 472
421 473
421 474
421 475
421 476
421 477
421 478
422 479
422 480
422 481
422 482
422 483
422 484
422 485
422 486
422 487
422 488
422 489
422 490
422 491
423 492
423 493
424 493
425 493
426 493
427 493
428 492
429 492
430 493
431 493
432 493
433 492
433 491
434 490
434 489
435 488
435 487
435 486
436 485
436 484
437 483
437 482
437 481
438 480
438 479
439 478
440 479
441 479
442 479
443 478
444 477
444 476
445 475
445 474
445 473
446 472
446 471
446 470
446 469
446 468
447 467
448 467
449 468
450 469
451 470
452 471
453 471
454 471
455 470
456 469
456 468
456 467
456 466
456 465
456 464
456 463
456 462
456 461
456 460
456 459
456 458
457 457
458 457
459 457
460 457
461 456
461 455
461 454
461 453
462 452
462 451
462 450
462 449
463 448
463 447
463 446
463 445
463 444
464 443
465 443
466 442
467 441
468 440
468 439
468 438
469 437
469 436
469 435
469 434
469 433
469 432
470 431
471 431
472 432
473 432
474 432
475 432
476 431
476 430
476 429
477 428
477 427
477 426
478 425
478 424
478 423
478 422
478 421
478 420
479 419
479 418
479 417
479 416
479 415
479 414
480 413
481 414
482 415
483 415
484 414
485 414
486 413
486 412
486 411
486 410
486 409
486 408
486 407
485 406
484 405
484 404
483 403
484 402
485 401
486 400
486 399
487 398
488 399
488 400
489 400
490 401
491 401
492 401
493 400
494 399
494 398
495 397
495 396
496 395
496 394
496 393
497 392
498 392
499 392
500 392
501 392
502 391
503 390
503 389
504 388
504 387
505 386
505 385
505 384
505 383
505 382
506 381
506 380
506 379
507 378
508 379
509 379
510 379
511 378
512 378
513 377
513 376
514 375
514 374
514 373
514 372
515 371
515 370
515 369
515 368
515 367
515 366
516 365
516 364
516 363
516 362
516 361
516 360
516 359
516 358
515 357
515 356
515 355
515 354
516 353
517 354
517 355
517 356
518 357
518 358
518 359
518 360
519 361
519 362
520 363
520 364
521 364
522 365
523 366
524 366
525 366
526 366
527 365
528 364
528 363
529 362
529 361
529 360
530 359
531 360
531 361
532 362
533 363
534 364
535 365
534 366
533 367
532 368
531 368
530 369
529 369
528 369
527 370
526 371
525 372
524 373
524 374
524 375
524 376
524 377
525 378
526 379
527 380
526 381
525 382
524 383
523 383
522 384
521 385
520 385
519 386
518 387
517 388
517 389
516 390
516 391
516 392
516 393
516 394
516 395
515 396
514 397
513 397
512 398
511 399
510 400
509 401
508 402
508 403
508 404
509 405
509 406
510 407
511 407
512 407
513 408
514 409
513 410
512 411
511 412
510 412
509 413
508 414
507 415
506 416
505 417
504 418
504 419
503 420
503 421
503 422
503 423
503 424
504 425
505 426
506 427
505 428
504 429
503 430
502 431
501 432
500 433
499 434
498 435
497 436
497 437
497 438
496 439
496 440
497 441
497 442
498 443
499 444
499 445
498 446
498 447
497 448
496 449
495 449
495 450
494 451
493 452
492 453
492 454
491 455
491 456
491 457
491 458
491 459
492 460
493 460
494 461
495 461
496 460
497 460
498 460
499 460
500 460
501 461
500 462
499 463
498 464
497 465
497 466
497 467
496 468
495 469
495 470
494 471
493 472
492 473
492 474
491 475
490 476
490 477
489 478
489 479
489 480
488 481
488 482
488 483
488 484
488 485
489 486
489 487
490 487
491 488
492 487
493 487
494 487
495 486
496 486
497 485
498 484
499 483
500 482
501 482
502 481
503 480
504 479
505 478
506 477
507 476
508 475
509 474
510 473
511 472
512 471
512 470
513 469
514 468
514 467
515 466
515 465
516 464
516 463
517 462
518 463
518 464
518 465
518 466
518 467
519 468
519 469
519 470
520 471
520 472
521 473
521 474
522 475
522 476
523 477
523 478
524 479
524 480
525 481
526 482
527 483
527 484
528 485
529 486
529 487
530 488
531 489
532 490
533 491
534 492
535 492
536 492
537 491
538 491
538 490
538 489
539 488
539 487
539 486
539 485
538 484
538 483
538 482
538 481
538 480
538 479
538 478
537 477
537 476
537 475
537 474
536 473
536 472
536 471
537 470
538 469
538 468
539 467
539 466
539 465
539 464
539 463
539 462
539 461
538 460
538 459
538 458
538 457
538 456
538 455
538 454
539 453
539 452
540 451
540 450
540 449
541 448
541 447
541 446
541 445
541 444
542 443
542 442
542 441
542 440
542 439
541 438
541 437
541 436
541 435
541 434
541 433
540 432
540 431
540 430
539 429
539 428
538 427
538 426
537 425
537 424
536 423
536 422
537 421
538 422
539 423
540 424
541 425
542 426
542 427
543 428
543 429
544 430
545 431
546 432
547 433
548 434
549 435
550 435
551 436
552 436
553 435
554 434
554 433
554 432
554 431
554 430
554 429
554 428
554 427
553 426
553 425
554 424
555 423
555 422
555 421
556 420
556 419
556 418
556 417
556 416
556 415
555 414
555 413
556 412
556 411
556 410
557 409
558 410
559 411
560 412
561 412
562 412
563 412
564 411
565 410
565 409
565 408
566 407
566 406
566 405
566 404
566 403
567 402
567 401
567 400
568 399
569 399
570 399
571 399
571 398
572 397
572 396
573 395
573 394
573 393
573 392
573 391
573 390
574 389
574 388
574 387
574 386
574 385
574 384
575 383
576 383
577 384
578 384
579 384
580 384
581 384
582 383
583 382
583 381
583 380
584 379
584 378
584 377
584 376
584 375
584 374
584 373
584 372
584 371
584 370
584 369
584 368
584 367
584 366
584 365
583 364
583 363
583 362
583 361
582 360
582 359
581 358
581 357
580 356
580 355
579 354
579 353
580 352
581 353
582 354
582 355
583 356
583 357
584 358
585 359
585 360
586 361
587 362
588 363
589 364
590 365
591 366
592 367
593 367
594 368
595 368
596 369
597 370
597 371
597 372
596 373
595 374
594 375
593 375
592 376
591 377
590 378
589 378
589 379
588 380
587 381
586 382
585 383
585 384
585 385
585 386
585 387
586 388
587 389
588 389
589 389
590 390
591 391
590 392
589 393
588 394
587 395
586 396
585 397
584 398
583 399
583 400
582 401
582 402
581 403
581 404
581 405
581 406
581 407
582 408
583 408
584 409
585 409
586 409
587 409
588 409
589 410
588 411
588 412
587 413
586 414
586 415
585 416
584 417
584 418
583 419
583 420
582 421
582 422
582 423
582 424
582 425
582 426
583 427
584 428
584 429
585 430
584 431
583 432
583 433
582 434
582 435
581 436
581 437
581 438
581 439
581 440
581 441
581 442
581 443
582 444
583 444
584 445
585 445
586 445
587 444
588 443
589 443
590 442
591 441
592 441
593 440
594 439
595 439
596 440
595 441
595 442
594 443
594 444
594 445
593 446
593 447
593 448
593 449
593 450
593 451
594 452
594 453
594 454
594 455
595 456
595 457
596 458
596 459
597 460
598 461
599 462
599 463
600 464
601 465
602 466
603 467
604 467
605 468
606 469
607 469
608 470
609 470
610 470
611 470
612 470
613 469
614 468
614 467
613 466
613 465
613 464
612 463
612 462
611 461
611 460
611 459
610 458
609 457
609 456
608 456
607 456
606 455
605 454
605 453
604 452
605 451
605 450
606 449
607 449
608 448
609 447
610 448
611 449
612 450
613 451
614 452
615 453
616 454
617 455
618 456
619 457
620 458
621 458
622 459
623 460
624 461
625 461
626 462
627 463
628 463
629 463
630 463
631 463
632 462
633 461
633 460
633 459
632 458
633 457
632 456
632 455
632 454
631 453
631 452
630 451
630 450
629 449
629 448
628 447
628 446
627 445
626 444
626 443
626 442
627 441
627 440
627 439
627 438
627 437
627 436
627 435
626 434
626 433
626 432
626 431
625 430
626 429
627 428
628 427
628 426
628 425
628 424
628 423
628 422
628 421
628 420
628 419
628 418
627 417
627 416
626 415
626 414
627 413
628 413
629 413
630 412
631 411
631 410
631 409
631 408
631 407
631 406
631 405
631 404
631 403
631 402
631 401
632 400
633 400
634 400
635 400
636 399
636 398
636 397
637 396
637 395
637 394
637 393
637 392
637 391
637 390
637 389
637 388
637 387
637 386
637 385
636 384
636 383
636 382
636 381
636 380
635 379
635 378
635 377
634 376
634 375
634 374
635 373
636 374
636 375
637 376
638 377
638 378
639 379
640 380
641 381
642 382
642 383
643 383
644 383
645 384
646 384
647 383
648 383
648 382
649 381
649 380
649 379
649 378
649 377
650 376
650 375
649 374
649 373
649 372
649 371
649 370
649 369
648 368
648 367
649 366
650 366
651 366
652 365
652 364
652 363
652 362
652 361
652 360
652 359
652 358
652 357
652 356
651 355
651 354
652 353
653 353
654 354
655 354
656 354
657 354
658 353
659 352
660 351
660 350
660 349
660 348
660 347
660 346
660 345
660 344
660 343
660 342
660 341
660 340
660 339
659 338
659 337
659 336
659 335
659 334
658 333
658 332
659 331
660 332
661 333
661 334
662 334
663 335
664 336
665 337
666 337
667 337
668 337
669 337
670 337
671 336
672 335
672 334
672 333
672 332
672 331
672 330
672 329
672 328
671 327
671 326
671 325
670 324
670 323
669 322
668 321
668 320
667 319
666 318
665 317
665 316
664 315
663 315
662 314
661 313
660 313
659 312
658 311
659 310
660 309
660 308
661 307
662 306
663 305
664 304
665 303
666 303
667 303
668 302
669 302
670 302
671 302
672 302
673 302
674 302
675 302
676 302
677 302
678 302
679 302
680 302
681 301
682 301
683 301
684 301
685 301
686 301
687 301
688 301
689 301
690 301
691 301
692 301
693 301
694 301
695 301
696 301
697 301
698 300
699 300
700 300
701 300
702 300
703 300
704 300
705 300
706 300
707 300
708 300
709 300
710 300
711 300
712 300
713 300
714 300
715 301
716 301
717 301
718 301
719 300
720 300
720 299
720 298
720 297
720 296
719 295
719 294
719 293
719 292
718 292
717 292
716 292
715 293
714 293
713 294
712 294
711 294
710 295
709 295
708 295
707 295
706 296
705 296
704 296
703 296
702 296
701 296
700 296
699 296
698 297
697 297
696 297
695 297
694 297
693 297
692 297
691 297
690 297
689 297
688 297
687 298
686 298
685 298
684 298
683 298
682 298
681 298
680 298
679 298
678 298
677 298
676 298
675 298
674 298
673 298
672 298
671 298
670 298
669 298
668 298
667 298
666 298
665 297
664 296
663 295
663 294
663 293
662 292
663 291
664 291
665 291
666 290
667 290
668 289
669 288
670 287
671 286
671 285
672 284
672 283
673 282
673 281
673 280
673 279
674 278
674 277
674 276
674 275
674 274
674 273
674 272
674 271
673 270
672 269
671 268
671 267
672 266
673 265
673 264
673 263
674 262
674 261
674 260
674 259
674 258
674 257
674 256
674 255
673 254
672 254
671 254
670 254
669 254
668 255
667 255
666 256
665 256
665 257
664 258
663 258
662 259
661 260
660 261
660 262
659 263
658 264
657 265
657 266
656 267
656 268
655 269
654 268
653 267
653 266
653 265
652 264
652 263
652 262
652 261
651 260
652 259
653 258
654 258
655 258
656 257
657 256
658 256
659 255
660 254
661 253
662 252
663 251
664 250
664 249
665 248
665 247
666 246
666 245
667 244
667 243
668 242
668 241
668 240
668 239
669 238
669 237
669 236
669 235
669 234
668 233
668 232
667 232
666 232
665 232
664 232
663 232
662 233
661 234
660 234
659 235
658 236
657 237
657 238
656 239
655 240
654 241
654 242
653 243
653 244
652 245
651 246
651 247
651 248
650 249
650 250
650 251
649 252
648 251
648 250
648 249
647 248
647 247
647 246
647 245
646 244
646 243
646 242
646 241
647 240
648 241
649 241
650 240
651 240
652 239
653 238
654 237
655 236
656 235
657 234
658 233
659 232
660 231
660 230
661 229
662 228
662 227
663 226
663 225
664 224
664 223
664 222
665 221
665 220
665 219
665 218
665 217
666 216
665 215
665 214
665 213
664 212
663 212
662 212
661 212
660 212
659 212
658 213
657 214
656 215
655 216
654 217
654 218
653 219
652 220
651 221
650 222
650 223
649 224
648 225
647 226
647 227
646 228
646 229
645 230
645 231
645 232
645 233
644 234
643 233
643 232
642 231
642 230
642 229
642 228
641 227
641 226
641 225
642 224
643 224
644 224
645 224
646 223
647 222
648 221
649 220
650 219
650 218
651 217
652 216
652 215
653 214
653 213
654 212
654 211
655 210
655 209
655 208
656 207
656 206
656 205
656 204
657 203
657 202
657 201
657 200
657 199
657 198
657 197
657 196
657 195
656 194
655 193
654 193
653 193
652 194
651 194
650 193
650 192
650 191
650 190
650 189
651 188
651 187
651 186
651 185
651 184
652 183
652 182
652 181
651 180
651 179
650 178
649 178
648 178
647 178
646 179
645 180
644 181
643 182
642 183
642 184
641 185
640 186
639 185
639 184
640 183
640 182
641 181
641 180
642 179
642 178
642 177
643 176
643 175
643 174
643 173
643 172
644 171
644 170
644 169
644 168
644 167
644 166
644 165
644 164
644 163
643 162
642 161
641 161
640 161
639 162
638 162
638 163
637 164
636 163
636 162
636 161
637 160
637 159
637 158
637 157
638 156
638 155
638 154
638 153
638 152
638 151
638 150
638 149
638 148
637 147
636 146
635 146
634 146
633 147
632 147
631 148
630 149
629 148
629 147
629 146
629 145
629 144
630 143
630 142
630 141
630 140
630 139
630 138
630 137
630 136
630 135
630 134
629 133
629 132
628 131
628 130
627 130
626 130
625 130
624 130
624 131
623 132
622 131
622 130
622 129
622 128
622 127
622 126
622 125
622 124
622 123
622 122
621 121
621 120
621 119
621 118
621 117
621 116
621 115
620 114
620 113
620 112
620 111
619 110
618 109
618 108
617 108
616 108
615 108
614 109
613 110
613 111
612 112
612 113
612 114
612 115
611 116
611 117
611 118
611 119
610 120
610 121
610 122
610 123
609 124
609 125
609 126
608 127
608 128
608 129
607 130
606 129
606 128
605 127
605 126
604 125
603 124
603 123
602 122
601 121
601 120
600 119
599 118
599 117
598 116
598 115
597 114
596 113
595 112
594 112
593 112
592 112
591 113
590 114
590 115
590 116
590 117
590 118
590 119
590 120
590 121
590 122
591 123
591 124
591 125
591 126
591 127
592 128
592 129
592 130
592 131
593 132
593 133
594 134
594 135
595 136
595 137
596 138
596 139
597 140
597 141
598 142
599 143
600 144
599 145
598 145
597 144
596 144
595 144
594 143
593 143
592 142
591 142
590 142
589 142
588 142
587 142
586 143
586 144
586 145
586 146
586 147
587 148
588 149
588 150
589 151
590 152
591 153
591 154
592 154
593 155
594 156
595 156
596 157
597 158
598 158
599 159
600 159
601 160
602 161
601 162
600 162
599 162
598 162
597 161
596 161
595 161
594 162
593 162
593 163
592 164
592 165
593 166
593 167
594 168
595 169
596 170
597 171
598 172
599 173
600 173
601 174
602 174
603 175
604 176
605 176
606 176
607 177
608 177
609 178
610 178
611 178
612 179
613 179
614 179
615 180
616 180
617 180
618 180
619 180
620 179
621 179
622 180
623 181
623 182
624 183
624 184
625 185
625 186
624 187
623 186
622 186
621 185
620 185
619 184
618 184
617 183
616 183
615 182
614 182
613 182
612 181
611 181
610 181
609 180
608 180
607 180
606 180
605 180
604 180
603 179
602 179
601 179
600 179
599 179
598 180
597 181
597 182
598 183
598 184
599 185
600 186
601 187
602 188
603 189
604 190
604 191
605 191
606 192
607 193
606 194
605 195
604 196
604 197
604 198
604 199
604 200
605 201
606 202
607 203
608 204
609 205
610 206
611 206
612 207
613 207
614 208
615 208
616 209
617 209
618 210
619 210
620 211
621 211
622 211
623 211
624 212
625 212
626 212
627 212
628 212
629 212
630 212
631 212
632 212
633 211
634 211
635 212
635 213
636 214
636 215
636 216
637 217
637 218
637 219
638 220
638 221
637 222
636 221
635 221
634 220
633 220
632 219
631 219
630 218
629 218
628 218
627 218
626 218
625 218
624 218
623 218
622 218
621 218
620 218
619 218
618 218
617 218
616 218
615 218
614 218
613 218
612 218
611 218
610 218
609 219
608 220
607 221
607 222
607 223
608 224
609 225
610 226
611 226
612 227
613 227
614 228
614 229
615 230
615 231
616 232
617 233
617 234
618 235
619 235
620 236
621 237
622 238
623 238
624 239
625 239
626 240
627 240
628 241
627 242
626 242
625 242
624 241
623 242
622 242
621 242
620 243
619 244
618 245
618 246
619 247
619 248
620 249
621 250
622 251
623 252
624 252
625 253
626 254
627 255
627 256
627 257
627 258
628 259
628 260
629 261
629 262
630 263
631 264
632 265
632 266
633 266
634 267
635 268
636 269
637 270
638 271
638 272
638 273
638 274
639 275
639 276
640 277
640 278
641 279
642 280
643 281
644 282
645 283
646 284
647 285
648 285
649 286
650 286
651 287
652 287
653 288
654 288
655 288
656 288
657 288
658 289
658 290
658 291
659 292
659 293
659 294
659 295
659 296
659 297
659 298
658 299
657 299
656 299
655 299
654 299
653 299
652 299
651 300
650 300
649 300
648 300
647 300
646 300
645 300
644 300
643 300
642 300
641 300
640 300
639 300
638 300
637 300
636 300
635 300
634 300
633 300
632 300
631 300
630 300
629 300
628 301
627 301
626 301
625 301
624 301
623 301
622 301
621 301
620 301
619 301
618 301
617 301
616 301
615 301
614 301
613 301
612 301
611 301
610 301
609 301
608 301
607 301
606 301
605 301
604 301
603 300
602 299
601 298
601 297
600 296
600 295
600 294
600 293
601 292
602 292
603 292
604 291
604 290
605 289
606 288
607 287
607 286
607 285
608 284
608 283
608 282
609 281
609 280
609 279
609 278
609 277
609 276
609 275
609 274
609 273
609 272
608 271
607 270
606 269
605 268
605 267
606 266
606 265
607 264
607 263
607 262
608 261
608 260
608 259
608 258
608 257
608 256
608 255
608 254
608 253
608 252
608 251
607 250
606 249
605 249
604 249
603 250
602 250
601 251
600 252
599 253
598 254
598 255
597 256
596 257
596 258
595 259
594 260
594 261
593 262
593 263
592 264
591 265
591 266
590 267
590 268
589 269
588 268
588 267
587 266
587 265
586 264
586 263
585 262
585 261
584 260
584 259
584 258
583 257
583 256
583 255
582 254
582 253
581 252
581 251
581 250
580 249
581 248
582 248
583 248
584 247
585 246
586 246
587 245
588 244
589 243
590 242
591 241
591 240
592 239
593 238
593 237
594 236
594 235
594 234
595 233
595 232
595 231
596 230
596 229
596 228
596 227
596 226
596 225
596 224
596 223
596 222
596 221
595 220
594 220
593 220
592 220
591 220
590 221
589 222
589 223
588 224
587 224
586 225
585 224
585 223
586 222
585 221
585 220
585 219
586 218
587 218
588 217
588 216
589 215
589 214
589 213
589 212
590 211
590 210
590 209
590 208
590 207
590 206
590 205
590 204
589 203
588 203
587 203
586 203
585 204
584 204
583 203
584 202
584 201
585 200
585 199
586 198
586 197
586 196
586 195
587 194
587 193
586 192
586 191
585 191
584 191
583 190
582 191
581 191
580 192
579 193
578 193
577 194
576 195
575 196
574 197
573 198
572 199
571 200
570 201
569 202
569 203
568 204
567 205
567 206
566 207
566 208
566 209
565 210
564 209
564 208
563 207
563 206
563 205
562 204
562 203
562 202
563 201
564 201
565 201
566 200
567 199
568 198
569 197
570 196
570 195
571 194
571 193
572 192
573 191
573 190
574 189
574 188
575 187
575 186
576 185
576 184
576 183
577 182
577 181
577 180
577 179
577 178
578 177
578 176
578 175
578 174
577 173
577 172
577 171
576 171
575 170
575 169
575 168
575 167
576 166
576 165
576 164
577 163
577 162
577 161
577 160
577 159
577 158
576 157
575 156
574 156
573 157
572 157
571 158
570 158
569 159
568 160
568 161
567 162
566 163
565 164
564 165
563 166
562 167
561 168
560 169
559 170
558 171
558 172
557 173
556 174
556 175
555 176
555 177
555 178
555 179
555 180
554 181
553 180
553 179
553 178
552 177
552 176
552 175
551 174
551 173
551 172
550 171
550 170
550 169
551 168
552 168
553 168
554 167
555 166
556 165
557 164
558 163
559 162
560 161
560 160
561 159
561 158
562 157
562 156
563 155
563 154
563 153
563 152
564 151
564 150
564 149
565 148
565 147
565 146
566 145
566 144
566 143
566 142
566 141
566 140
565 139
565 138
564 138
563 138
562 138
561 139
560 140
559 139
559 138
559 137
560 136
560 135
560 134
560 133
561 132
561 131
561 130
561 129
561 128
561 127
560 126
560 125
560 124
559 123
558 123
557 123
556 124
555 125
554 126
553 127
553 128
552 129
551 130
551 131
550 132
549 133
549 134
548 135
547 136
546 137
546 138
545 139
545 140
544 141
544 142
544 143
543 144
542 143
542 142
541 141
541 140
541 139
541 138
541 137
542 136
543 135
544 135
545 134
546 133
546 132
547 131
547 130
548 129
548 128
549 127
549 126
550 125
550 124
550 123
551 122
551 121
552 120
552 119
552 118
552 117
553 116
553 115
553 114
553 113
553 112
553 111
553 110
553 109
553 108
553 107
553 106
553 105
553 104
553 103
553 102
552 101
552 100
552 99
551 98
550 98
549 98
548 99
547 99
547 100
546 101
545 102
545 103
545 104
544 105
544 106
543 107
543 108
542 109
542 110
542 111
541 112
541 113
540 114
540 115
539 116
539 117
538 118
538 119
537 120
536 119
536 118
535 117
534 116
534 115
533 114
532 113
532 112
531 111
530 110
529 109
528 108
528 107
527 106
526 105
525 104
524 103
524 102
523 101
522 100
521 99
520 98
519 97
518 96
517 96
516 96
515 96
514 96
513 97
513 98
513 99
513 100
513 101
514 102
514 103
514 104
515 105
515 106
515 107
516 108
516 109
516 110
517 111
517 112
517 113
518 114
518 115
519 116
520 117
520 118
521 119
522 120
521 121
520 121
519 120
518 120
517 120
516 120
515 121
515 122
514 123
515 124
515 125
515 126
516 127
516 128
517 129
518 130
518 131
519 132
519 133
520 134
521 135
522 136
523 137
524 138
525 138
526 139
527 140
528 141
529 141
530 142
531 143
530 144
529 144
528 143
527 143
526 142
525 142
524 142
523 141
522 141
521 141
520 141
519 141
518 142
517 143
517 144
518 145
518 146
519 147
519 148
520 149
520 150
521 151
522 152
523 153
524 154
525 155
526 156
527 156
528 157
529 158
530 158
531 159
532 159
533 160
534 160
535 160
536 161
537 161
538 161
539 161
540 161
541 162
542 162
543 161
544 161
545 161
546 162
547 163
547 164
547 165
548 166
548 167
548 168
547 169
546 168
545 167
544 167
543 166
542 166
541 165
540 165
539 165
538 165
537 164
536 164
535 164
534 164
533 164
532 164
531 164
530 164
529 164
528 164
527 164
526 164
525 164
524 164
523 164
522 164
521 164
520 165
519 165
518 166
518 167
518 168
519 169
520 170
521 171
522 171
523 172
524 172
525 173
526 173
527 174
528 174
529 174
530 175
531 175
532 176
533 176
534 176
535 177
536 177
537 177
538 177
539 177
540 178
541 178
542 178
543 178
544 178
545 179
546 179
547 178
548 178
549 178
550 177
551 177
552 178
552 179
553 180
553 181
553 182
554 183
554 184
553 185
552 184
551 184
550 183
549 183
548 182
547 182
546 181
545 181
544 181
543 181
542 180
541 180
540 180
539 180
538 180
537 179
536 179
535 179
534 179
533 179
532 179
531 179
530 179
529 179
528 179
527 179
526 179
525 180
524 180
524 181
524 182
524 183
524 184
525 185
526 185
527 186
528 187
529 187
530 188
531 188
532 189
533 190
534 190
535 191
534 192
533 193
533 194
533 195
533 196
533 197
533 198
534 199
534 200
535 201
536 202
537 203
538 204
539 204
540 205
541 206
542 206
543 207
544 207
545 208
546 208
547 209
548 209
549 210
550 210
551 210
552 210
553 211
554 211
555 211
556 211
557 211
558 211
559 211
560 211
561 211
562 211
563 211
564 212
565 213
565 214
565 215
566 216
566 217
566 218
566 219
565 220
564 220
563 220
562 221
561 220
560 220
559 220
558 220
557 219
556 219
555 219
554 220
553 221
552 221
551 221
550 221
550 222
549 223
549 224
549 225
550 226
551 226
552 227
553 227
554 227
555 228
556 228
557 228
558 228
559 229
560 229
561 229
562 229
563 229
564 229
565 229
566 229
567 229
568 229
569 228
570 228
571 229
571 230
572 231
572 232
573 233
573 234
574 235
573 236
572 236
571 235
570 235
569 234
568 234
567 233
566 233
565 233
564 232
563 232
562 232
561 232
560 231
559 231
558 231
557 230
556 230
555 231
554 232
554 233
554 234
554 235
554 236
555 237
555 238
555 239
556 240
556 241
556 242
557 243
556 244
556 245
555 246
554 246
553 246
552 247
551 247
550 248
550 249
550 250
550 251
550 252
551 253
552 253
553 254
554 255
555 255
556 256
557 256
558 257
559 257
560 258
561 258
562 259
561 260
561 261
561 262
561 263
561 264
561 265
562 266
562 267
563 268
564 269
565 270
566 270
567 271
568 272
569 272
570 273
571 273
572 274
573 274
574 274
575 275
575 276
574 277
573 277
572 278
571 279
571 280
571 281
572 282
572 283
573 284
574 285
575 286
576 287
577 287
578 288
579 289
580 289
581 289
582 290
583 290
584 290
585 291
586 291
587 291
588 291
589 291
590 291
591 291
592 291
593 291
594 291
595 291
596 292
596 293
596 294
597 295
597 296
597 297
597 298
598 299
597 300
596 301
595 302
594 302
593 302
592 302
591 302
590 302
589 302
588 302
587 302
586 302
585 302
584 302
583 302
582 302
581 302
580 302
579 302
578 302
577 302
576 302
575 302
574 302
573 302
572 302
571 302
570 302
569 302
568 303
567 303
566 303
565 303
564 303
563 303
562 303
561 303
560 303
559 303
558 303
557 303
556 303
555 303
554 303
553 303
552 303
551 303
550 303
549 302
548 302
547 302
546 301
546 300
545 299
544 298
543 297
543 296
544 295
545 294
546 294
547 293
548 292
548 291
549 290
550 289
550 288
551 287
551 286
552 285
552 284
553 283
553 282
553 281
553 280
553 279
554 278
554 277
554 276
553 275
553 274
553 273
552 272
551 271
550 271
549 271
548 271
547 272
546 273
546 274
545 275
544 276
544 277
543 278
542 279
542 280
541 281
541 282
540 283
540 284
540 285
539 286
539 287
538 288
537 287
536 286
536 285
535 284
535 283
534 282
535 281
536 280
537 279
537 278
538 277
538 276
539 275
539 274
539 273
539 272
539 271
540 270
540 269
540 268
540 267
540 266
540 265
540 264
540 263
539 262
539 261
539 260
539 259
539 258
538 257
538 256
538 255
537 254
536 253
536 252
535 251
534 251
533 251
532 250
532 249
531 248
531 247
531 246
531 245
531 244
531 243
531 242
531 241
530 240
530 239
530 238
530 237
530 236
531 235
531 234
531 233
532 232
532 231
533 230
533 229
533 228
533 227
533 226
533 225
533 224
533 223
533 222
533 221
532 220
532 219
531 218
530 218
529 218
528 218
527 219
526 219
525 220
524 221
523 222
523 223
522 224
521 225
520 226
520 227
519 228
519 229
518 230
517 231
517 232
516 233
516 234
515 235
515 236
515 237
514 238
514 239
514 240
514 241
513 242
512 241
511 240
511 239
510 238
510 237
509 236
509 235
508 234
509 233
510 232
511 232
512 231
513 230
513 229
514 228
515 227
515 226
516 225
516 224
517 223
517 222
517 221
518 220
518 219
518 218
518 217
519 216
519 215
519 214
519 213
519 212
519 211
519 210
519 209
519 208
518 207
518 206
518 205
518 204
518 203
518 202
517 201
516 201
515 201
514 201
513 202
512 203
511 204
511 205
510 206
509 207
508 206
508 205
508 204
508 203
508 202
508 201
508 200
508 199
508 198
509 197
509 196
509 195
509 194
510 193
510 192
510 191
510 190
510 189
510 188
510 187
510 186
510 185
509 184
508 184
507 183
506 184
505 184
504 185
504 186
503 187
502 188
502 189
501 190
500 189
500 188
499 187
498 186
497 185
496 184
495 184
494 185
493 185
492 185
491 186
490 187
490 188
489 189
489 190
489 191
489 192
489 193
489 194
489 195
488 196
487 195
487 194
486 193
485 192
485 191
484 190
484 189
483 188
483 187
482 186
482 185
481 184
481 185
482 186
482 187
483 188
483 189
484 190
484 191
485 192
485 193
484 194
483 193
482 193
481 193
480 193
479 193
478 193
477 193
476 194
476 195
475 196
475 197
475 198
475 199
475 200
475 201
476 202
476 203
477 204
476 205
475 205
474 205
473 205
472 205
471 205
470 205
469 205
468 205
467 205
466 205
465 206
464 207
464 208
463 209
463 210
464 211
465 212
466 212
467 213
468 213
469 214
470 215
471 216
472 217
473 218
474 219
474 220
474 221
473 222
473 223
472 224
472 225
473 226
473 227
474 228
475 229
476 230
477 230
478 231
479 231
480 232
481 232
482 233
483 233
484 234
485 234
486 234
487 235
488 235
489 235
490 236
491 236
492 236
493 236
494 236
495 236
496 236
497 236
498 237
499 237
500 237
501 237
502 236
503 236
504 236
505 236
506 235
507 234
508 235
508 236
509 237
509 238
510 239
510 240
511 241
511 242
510 243
509 243
508 242
507 242
506 241
505 241
504 241
503 241
502 240
501 240
500 240
499 240
498 240
497 240
496 240
495 240
494 240
493 239
492 239
491 239
490 239
489 240
488 239
487 240
486 240
485 240
484 241
483 241
482 242
482 243
483 244
483 245
484 246
485 247
486 248
487 248
488 249
489 250
490 250
491 251
492 252
492 253
492 254
492 255
493 256
493 257
494 258
494 259
495 260
496 261
497 261
498 262
499 263
500 263
501 264
502 265
503 265
504 266
505 267
506 268
506 269
507 270
507 271
508 272
509 273
510 274
511 275
512 275
513 276
514 277
515 278
516 278
517 279
518 279
519 280
520 280
521 281
520 282
519 282
518 283
517 283
516 284
516 285
516 286
516 287
517 288
518 289
519 290
520 291
521 291
522 292
523 293
524 293
525 293
526 294
527 294
528 294
529 294
530 294
531 295
532 295
533 295
534 295
535 294
536 294
537 294
538 294
539 294
540 295
540 296
541 297
542 298
542 299
542 300
542 301
542 302
541 303
540 303
539 303
538 303
537 303
536 303
535 303
534 303
533 303
532 303
531 303
530 303
529 303
528 303
527 303
526 303
525 303
524 303
523 303
522 303
521 303
520 303
519 303
518 303
517 303
516 303
515 303
514 303
513 303
512 303
511 303
510 303
509 303
508 303
507 303
506 303
505 303
504 303
503 303
502 303
501 303
500 303
499 303
498 303
497 303
496 303
495 302
494 301
493 300
492 299
491 298
491 297
491 296
492 295
492 294
492 293
493 292
493 291
493 290
493 289
493 288
493 287
493 286
493 285
493 284
493 283
492 282
492 281
492 280
491 279
491 278
490 277
490 276
489 275
488 274
487 273
486 272
487 271
487 270
487 269
487 268
487 267
487 266
487 265
487 264
487 263
488 262
487 261
487 260
486 260
485 259
484 260
483 260
482 261
481 262
481 263
480 264
480 265
479 266
478 267
478 268
478 269
477 270
477 271
477 272
477 273
477 274
476 275
475 275
474 274
474 273
473 272
472 271
472 270
473 269
474 268
475 267
475 266
475 265
475 264
476 263
476 262
476 261
476 260
476 259
476 258
476 257
476 256
476 255
476 254
476 253
475 252
475 251
475 250
475 249
475 248
475 247
475 246
475 245
475 244
474 243
474 242
473 242
472 242
471 242
470 243
469 244
468 243
468 242
468 241
468 240
468 239
468 238
468 237
468 236
468 235
468 234
468 233
467 232
467 231
467 230
467 229
466 228
466 227
465 226
464 225
463 225
462 225
461 225
460 225
459 226
458 227
458 228
458 229
457 230
456 229
456 228
456 227
456 226
456 225
456 224
456 223
456 222
456 221
456 220
456 219
456 218
456 217
456 216
455 215
455 214
455 213
454 212
454 211
454 210
453 209
453 208
452 207
451 207
450 207
449 207
448 208
447 207
447 206
447 205
447 204
446 203
446 202
446 201
446 200
445 199
445 198
444 197
444 196
443 195
443 194
442 193
441 193
440 192
440 191
440 190
440 189
440 188
440 187
439 186
439 185
439 184
438 183
438 182
437 182
436 181
435 182
434 182
433 183
432 182
432 181
432 180
432 179
432 178
432 177
432 176
432 175
432 174
432 173
432 172
432 171
432 170
432 169
432 168
431 167
431 166
430 165
429 165
428 165
427 166
426 166
425 167
425 168
424 169
424 170
423 171
422 170
422 169
422 168
422 167
422 166
422 165
422 164
422 163
422 162
422 161
422 160
421 159
421 158
421 157
421 156
420 155
420 154
419 153
418 153
417 153
416 153
415 152
415 151
415 150
415 149
415 148
415 147
415 146
414 145
414 144
414 143
413 142
412 141
411 141
410 141
409 140
408 139
408 138
408 137
408 136
408 135
408 134
407 133
407 132
406 131
405 130
404 129
403 129
402 128
402 127
402 126
402 125
402 124
402 123
402 122
402 121
402 120
402 119
402 118
402 117
402 116
402 115
402 114
402 113
402 112
402 111
401 110
401 109
401 108
401 107
400 106
400 105
399 105
398 105
397 105
396 106
395 107
395 108
394 109
394 110
394 111
393 112
393 113
393 114
392 115
392 116
392 117
392 118
391 119
391 120
391 121
390 122
389 121
389 120
388 119
387 118
387 117
386 116
385 115
385 114
384 113
384 112
383 111
383 110
382 109
382 108
381 107
380 106
380 105
380 104
379 103
378 102
377 102
376 102
375 103
374 104
374 105
374 106
374 107
374 108
374 109
374 110
374 111
374 112
374 113
374 114
374 115
374 116
375 117
375 118
375 119
376 120
376 121
377 122
377 123
377 124
378 125
378 126
379 127
380 128
380 129
381 130
382 131
383 132
384 133
385 134
385 135
386 136
385 137
384 137
383 137
382 137
381 136
380 136
379 136
378 136
377 135
376 135
375 135
374 134
373 134
372 134
371 133
370 133
369 133
368 133
367 133
366 134
366 135
366 136
366 137
366 138
367 139
368 140
369 141
370 142
371 142
372 143
373 144
374 144
375 145
376 145
377 146
378 146
379 147
379 148
379 149
378 150
378 151
378 152
378 153
379 154
380 155
381 156
382 157
382 158
383 159
384 160
385 160
386 161
386 162
387 163
386 164
385 164
384 164
383 164
382 165
381 165
381 166
381 167
381 168
382 169
383 170
384 171
385 171
386 172
387 173
388 173
389 174
390 174
391 175
392 175
393 176
394 176
395 177
396 177
397 178
398 178
399 178
400 179
399 180
398 180
397 180
396 180
395 180
394 180
393 180
392 180
391 180
390 180
389 180
388 180
387 181
387 182
387 183
387 184
388 185
388 186
389 187
390 187
391 188
392 188
393 189
394 189
395 190
396 190
397 191
398 191
399 192
400 192
401 192
402 193
403 193
404 193
405 193
406 194
407 194
408 194
409 194
410 194
411 194
412 194
413 194
414 194
415 194
416 194
417 194
418 193
419 193
420 194
420 195
421 196
421 197
422 198
422 199
421 200
420 199
419 199
418 199
417 198
416 198
415 198
414 198
413 198
412 198
411 197
410 197
409 197
408 197
407 197
406 197
405 196
404 196
403 196
402 196
401 196
400 196
399 196
398 197
397 198
397 199
397 200
398 201
399 202
400 203
401 203
402 204
403 205
404 205
405 206
406 206
407 207
408 207
409 207
410 208
411 208
412 209
411 210
410 210
409 210
408 210
407 210
406 210
405 210
404 210
403 211
403 212
402 213
403 214
403 215
404 216
405 216
406 217
407 218
408 218
409 219
410 219
411 219
412 220
413 220
414 220
415 221
416 221
417 221
418 222
419 222
420 222
421 222
422 222
423 222
424 222
425 222
426 222
427 222
428 222
429 222
430 222
431 222
432 222
433 221
434 221
435 220
436 221
437 222
438 223
438 224
439 225
440 226
440 227
439 228
438 227
437 227
436 227
435 227
434 227
433 227
432 227
431 227
430 227
429 227
428 227
427 227
426 227
425 227
424 227
423 227
422 228
421 228
420 228
419 228
418 228
417 228
416 228
415 229
414 228
413 228
412 228
411 228
410 228
409 229
408 230
407 231
406 232
406 233
405 234
405 235
404 236
404 237
403 238
403 239
403 240
402 241
402 242
402 243
401 244
400 245
400 246
400 247
399 248
399 249
398 250
397 249
396 248
395 247
395 246
394 245
394 244
394 243
395 242
396 241
396 240
396 239
396 238
396 237
397 236
397 235
397 234
397 233
397 232
397 231
397 230
397 229
397 228
397 227
397 226
397 225
396 224
396 223
396 222
396 221
396 220
396 219
395 218
395 217
395 216
394 215
394 214
393 213
393 212
392 211
391 210
390 210
389 209
389 208
389 207
389 206
389 205
389 204
389 203
389 202
389 201
388 200
388 199
388 198
387 197
386 197
385 196
384 196
383 196
382 197
381 198
381 199
380 200
380 201
380 202
379 203
379 204
379 205
379 206
378 207
378 208
378 209
378 210
377 211
377 212
377 213
377 214
377 215
377 216
377 217
376 218
376 219
377 220
377 221
376 222
375 222
374 221
374 220
373 219
372 218
372 217
372 216
373 215
374 214
374 213
375 212
375 211
375 210
376 209
376 208
376 207
376 206
376 205
377 204
377 203
377 202
377 201
377 200
377 199
377 198
377 197
377 196
377 195
377 194
376 193
376 192
376 191
376 190
376 189
376 188
375 187
375 186
375 185
374 184
374 183
373 182
372 181
371 181
370 181
369 181
369 182
368 183
368 184
367 185
367 186
366 187
365 186
365 185
365 184
365 183
365 182
365 181
365 180
365 179
365 178
364 177
364 176
364 175
364 174
363 173
363 172
362 171
362 170
361 169
360 168
359 168
358 168
357 168
356 167
356 166
356 165
355 164
355 163
355 162
354 161
354 160
354 159
354 158
354 157
353 156
352 155
351 155
350 155
349 156
348 157
348 158
347 159
347 160
346 161
345 160
345 159
345 158
345 157
345 156
345 155
345 154
344 153
344 152
344 151
343 150
343 149
343 148
342 147
342 146
341 145
341 144
340 143
339 143
338 142
337 141
338 140
337 139
337 138
337 137
337 136
337 135
336 134
336 133
336 132
335 131
335 130
334 129
333 129
332 130
331 130
330 131
329 130
329 129
329 128
329 127
329 126
329 125
328 124
328 123
328 122
328 121
328 120
327 119
327 118
327 117
326 116
325 115
324 115
323 115
322 116
321 115
321 114
321 113
321 112
321 111
320 110
320 109
320 108
320 107
319 106
319 105
318 104
317 103
316 103
315 103
314 104
313 104
312 105
312 106
312 107
311 108
310 108
309 107
309 106
309 105
309 104
308 103
308 102
308 101
307 100
307 99
306 98
306 97
305 96
305 95
304 94
304 93
303 92
302 91
302 90
301 89
300 88
300 87
299 87
298 87
297 87
