430 83
430 84
430 85
430 86
431 87
431 88
431 89
431 90
431 91
431 92
431 93
431 94
431 95
430 96
430 97
429 98
429 99
428 100
428 101
428 102
427 103
426 104
427 105
426 106
425 106
424 107
424 108
423 109
423 110
422 111
421 112
420 113
419 114
418 115
417 116
416 117
415 118
414 118
413 118
412 119
411 119
410 119
409 119
408 120
407 120
406 120
405 120
404 120
403 120
402 120
401 120
400 120
399 120
398 120
397 120
396 119
395 119
394 119
393 119
392 119
391 118
390 118
389 118
388 118
387 117
386 117
385 117
384 117
383 116
382 116
381 116
380 115
379 115
378 114
377 114
376 113
375 112
374 112
373 111
372 111
371 110
370 110
369 109
368 108
367 107
366 107
365 107
364 106
363 105
362 105
361 104
360 103
359 103
358 102
357 101
356 100
355 100
354 99
353 98
352 97
351 96
350 95
349 94
348 93
347 92
346 91
345 90
345 91
345 92
345 93
346 94
346 95
347 96
348 97
349 98
349 99
349 100
349 101
348 102
348 103
348 104
347 105
347 106
347 107
346 108
346 109
346 110
346 111
345 112
345 113
345 114
344 115
344 116
343 117
343 118
342 119
342 120
341 121
341 122
340 123
339 124
339 125
338 126
337 127
336 128
335 129
334 130
333 131
332 132
331 133
330 133
329 134
328 135
327 135
326 136
325 136
324 137
323 137
322 138
321 139
320 139
319 140
318 140
317 141
316 141
315 141
314 142
313 142
312 143
311 143
310 144
309 144
308 145
307 145
306 145
305 145
304 146
303 147
302 147
301 147
300 147
299 148
298 148
297 148
296 149
295 149
294 149
293 150
292 150
291 150
290 150
289 150
288 151
287 151
286 151
285 151
284 151
283 151
282 151
281 151
280 151
279 151
278 151
277 151
276 151
275 151
274 151
273 151
272 152
271 151
270 151
269 151
268 151
267 151
266 151
265 151
264 151
263 151
262 151
261 151
260 151
259 151
258 151
257 151
256 151
255 151
254 151
253 151
252 151
251 151
250 151
249 151
248 151
247 151
246 151
245 151
244 151
244 152
245 152
246 153
247 153
248 153
249 154
250 154
251 154
252 155
253 155
254 156
255 156
256 157
256 158
256 159
256 160
256 161
256 162
257 163
258 163
259 164
259 165
258 166
257 167
257 168
256 169
255 170
254 171
253 172
252 172
252 173
251 174
250 174
249 175
248 176
247 176
246 177
245 178
244 178
243 179
242 180
241 180
240 181
239 181
238 182
237 182
236 183
235 183
234 184
233 184
232 184
231 185
230 185
229 185
228 186
227 186
226 186
225 186
224 187
223 187
222 187
221 187
220 187
219 188
218 188
217 188
216 188
215 188
214 189
213 189
212 189
211 189
210 189
209 189
208 189
207 189
206 189
205 190
204 190
203 190
202 190
201 190
200 190
199 190
198 190
197 189
196 189
195 189
194 189
193 189
192 189
191 189
190 189
189 189
188 189
187 189
186 189
185 189
184 189
183 189
182 189
181 189
182 189
183 190
184 190
185 191
186 191
187 192
188 193
188 194
189 195
189 196
189 197
189 198
189 199
189 200
189 201
189 202
189 203
188 204
188 205
188 206
188 207
187 208
186 209
185 210
184 211
183 212
182 213
181 214
180 215
180 216
179 217
178 218
177 219
176 220
175 221
174 222
174 223
173 224
172 225
171 226
170 227
169 228
168 229
167 230
166 231
165 232
164 233
163 234
162 235
161 236
160 237
160 238
159 239
158 240
157 240
156 241
155 242
154 243
154 244
153 245
152 245
151 246
150 247
149 248
148 249
147 250
146 251
145 252
144 253
143 254
142 254
141 255
140 256
139 257
138 258
137 258
136 259
135 260
134 260
133 261
132 261
131 262
130 262
129 263
128 264
127 264
126 265
125 265
124 265
123 266
122 267
121 267
120 268
119 268
118 269
117 269
116 270
115 270
114 271
113 271
112 272
111 272
110 273
109 273
108 274
107 274
106 274
105 275
104 275
103 275
102 276
101 276
100 276
99 277
98 277
97 277
96 278
95 278
94 278
95 278
96 278
97 278
98 278
99 278
100 278
101 278
102 278
103 278
104 278
105 279
106 279
107 279
108 279
109 279
110 280
111 280
112 280
113 281
114 281
115 282
116 282
117 283
118 283
119 284
120 284
121 284
122 285
123 285
124 286
125 286
126 286
127 287
128 288
129 288
130 289
131 289
132 290
133 290
134 291
135 292
136 292
137 293
138 294
139 294
140 295
141 296
142 296
143 297
144 298
145 299
146 300
147 301
148 302
149 303
149 304
150 305
151 305
152 306
152 307
153 308
153 309
154 310
154 311
155 312
155 313
156 314
157 315
158 316
159 316
160 317
160 318
160 319
161 320
161 321
161 322
161 323
162 322
163 323
163 324
163 325
163 326
163 327
163 328
163 329
164 330
165 331
165 332
165 333
165 334
165 335
164 336
164 337
164 338
163 339
163 340
163 341
163 342
162 343
162 344
161 345
161 346
160 347
160 348
159 349
159 350
158 351
157 352
156 353
155 353
154 353
153 354
152 354
151 354
150 355
149 355
148 356
149 356
150 356
151 356
152 356
153 356
154 356
155 356
156 357
157 357
158 357
159 357
160 358
161 358
162 358
163 358
164 359
165 360
166 360
167 361
168 362
169 363
169 364
169 365
168 366
167 367
167 368
167 369
168 370
167 371
167 372
168 373
169 374
170 375
171 375
172 376
173 377
174 378
175 378
176 378
177 378
178 379
179 379
180 380
181 380
182 380
183 381
184 382
185 383
186 384
187 384
188 384
189 384
190 385
190 386
191 386
192 387
193 388
194 389
195 390
196 391
196 392
195 393
194 393
195 393
196 394
196 395
196 396
195 397
195 398
195 399
195 400
194 401
194 402
194 403
193 404
193 405
193 406
192 407
192 408
191 409
190 410
189 410
188 411
187 412
186 412
185 412
184 413
183 413
182 414
181 414
180 414
179 415
178 415
177 416
178 416
179 416
180 416
181 417
182 418
182 419
182 420
182 421
183 421
184 421
184 420
185 419
185 418
186 417
187 416
188 416
189 416
190 417
191 417
192 417
193 418
194 418
195 418
196 417
197 417
198 417
199 418
200 418
201 418
202 418
203 419
204 419
205 420
205 421
205 422
206 422
207 422
208 422
209 422
210 422
211 422
212 422
213 422
214 423
215 423
216 423
217 423
218 423
219 423
220 423
221 423
222 423
223 424
224 424
225 424
226 425
227 425
228 426
229 426
230 426
231 427
232 427
233 428
234 429
235 429
236 430
237 431
238 431
239 431
240 432
241 432
242 432
243 433
244 434
245 434
246 435
247 435
248 436
249 437
250 437
251 438
252 438
253 439
254 439
255 440
256 440
257 441
258 442
259 443
260 444
261 444
262 445
263 446
264 447
265 448
266 449
267 450
268 451
268 452
269 453
270 454
271 455
272 456
273 457
273 458
273 459
273 460
274 461
274 462
274 463
275 464
275 465
275 466
275 467
275 468
276 469
276 470
276 471
276 472
276 473
276 474
275 475
275 476
274 477
274 478
273 479
273 480
272 481
271 482
270 483
270 484
271 483
272 483
273 482
274 482
275 481
276 480
277 480
278 480
279 480
280 481
281 480
282 480
283 480
284 481
285 481
286 481
287 481
288 481
289 481
290 481
291 481
292 481
293 481
294 481
295 481
296 481
297 481
298 481
299 481
300 481
301 481
302 481
303 481
304 481
305 481
306 481
307 481
308 481
309 481
310 481
311 481
312 481
313 482
314 482
315 482
316 482
317 482
318 482
319 482
320 482
321 482
322 483
323 483
324 483
325 483
326 483
327 484
328 484
329 484
330 484
331 484
332 484
333 484
334 484
335 485
336 485
337 485
338 485
339 485
340 486
341 486
342 486
343 486
344 486
345 486
346 487
347 487
348 487
349 487
350 488
351 488
352 488
353 488
354 489
355 489
356 489
357 490
358 490
359 491
360 491
361 491
362 492
363 493
364 493
365 494
366 494
367 495
368 495
369 495
370 496
371 496
372 497
373 498
374 499
375 499
376 499
377 499
378 500
378 501
379 501
380 502
381 503
382 503
383 504
383 505
383 506
383 507
384 508
384 509
384 510
384 511
383 512
382 513
382 514
382 515
382 516
381 517
380 518
379 519
379 520
378 521
377 522
377 523
377 522
378 521
379 521
380 520
380 519
381 518
382 518
383 517
384 516
385 515
386 514
387 513
388 512
389 512
390 511
391 510
392 510
393 509
394 509
395 508
396 508
397 507
398 507
399 507
400 507
401 506
402 506
403 506
404 506
405 506
406 506
407 506
408 506
409 505
410 505
411 505
412 505
413 505
414 504
415 504
416 504
417 504
418 504
419 504
420 504
421 504
422 504
423 504
424 504
425 504
426 504
427 503
428 503
429 503
430 503
431 503
432 503
433 503
434 503
435 503
436 503
437 503
438 503
439 503
440 502
441 503
442 503
443 503
444 503
445 503
446 503
447 503
448 503
449 503
450 503
451 503
452 503
453 503
454 503
455 503
456 504
457 504
458 504
459 504
460 504
461 504
462 504
463 504
464 505
465 505
466 506
467 506
468 506
469 506
470 507
471 508
472 509
472 510
472 511
472 512
471 513
471 514
471 515
470 516
470 517
470 518
469 519
469 520
468 521
469 521
470 520
470 519
471 518
472 517
473 516
474 515
474 514
475 513
476 512
477 511
478 510
478 509
479 508
480 507
481 506
482 506
483 505
484 504
485 503
486 502
487 501
488 500
489 500
490 499
491 498
492 497
493 497
494 497
495 496
496 496
497 495
498 495
499 495
500 494
501 494
502 494
503 494
504 493
505 493
506 493
507 493
508 493
509 493
510 492
511 492
512 492
513 492
514 491
515 491
516 491
517 491
518 490
519 489
519 488
520 487
521 486
522 485
523 485
524 486
525 485
526 485
527 485
528 486
529 487
529 488
529 489
529 490
529 491
529 492
529 493
530 494
531 494
531 493
530 493
529 492
530 491
530 490
531 489
532 488
533 488
533 487
534 486
534 485
534 484
535 483
535 482
536 481
536 480
537 479
537 478
538 477
539 476
540 475
540 474
541 473
542 472
543 471
544 470
545 469
546 469
547 469
548 468
549 468
550 468
551 467
552 467
553 466
554 466
555 466
556 466
557 465
558 465
559 465
560 465
561 465
562 464
563 464
564 464
565 463
566 463
567 462
568 462
569 461
570 462
571 462
572 463
573 464
573 465
573 466
573 467
573 468
573 469
573 470
573 471
573 472
573 471
574 470
574 469
574 468
575 467
575 466
575 465
576 464
576 463
576 462
576 461
577 460
577 459
577 458
578 457
578 456
579 455
579 454
580 453
580 452
581 451
581 450
581 449
582 448
582 447
583 446
584 445
584 444
584 443
585 442
585 441
586 440
586 439
587 438
587 437
588 436
588 435
589 434
590 433
590 432
591 431
591 430
592 429
593 428
594 427
595 426
596 425
597 424
598 424
598 423
599 422
600 422
601 421
602 420
602 419
603 418
604 418
605 417
605 416
606 415
607 415
607 414
608 413
609 414
609 413
610 412
611 411
611 410
612 409
613 408
614 407
615 407
616 406
617 406
618 406
619 406
620 407
621 408
621 409
621 410
621 411
621 412
621 413
621 414
621 415
621 416
622 415
622 414
623 413
623 412
623 411
624 410
624 409
624 408
624 407
625 406
625 405
626 404
626 403
627 402
627 401
628 400
628 399
628 398
629 397
629 396
630 395
630 394
631 393
631 392
632 391
633 390
633 389
634 388
634 387
635 386
635 385
636 384
636 383
637 382
638 382
638 381
639 380
639 379
640 378
641 377
641 376
642 375
643 374
644 373
644 372
645 371
646 370
647 369
648 368
649 367
650 367
651 366
652 365
653 366
653 367
652 368
653 368
653 367
653 366
653 365
654 364
654 363
655 362
655 361
655 360
656 359
656 358
657 357
657 356
657 355
658 354
659 353
659 352
659 351
660 350
660 349
661 348
661 347
662 346
663 345
663 344
664 343
664 342
665 341
665 340
666 339
666 338
667 337
668 336
668 335
669 334
669 333
670 332
671 331
671 330
672 329
672 328
673 327
674 326
675 325
676 324
677 323
678 322
679 321
680 321
681 320
682 319
683 319
684 318
685 318
686 318
687 318
688 318
689 317
690 317
691 317
692 316
693 316
694 316
695 316
696 315
697 315
698 315
699 314
700 314
701 314
702 314
703 314
704 313
705 313
706 313
707 313
708 313
709 312
710 312
711 312
712 312
713 311
714 311
715 311
716 311
717 311
718 311
719 310
720 310
721 310
722 310
723 310
724 310
725 310
726 310
727 309
728 309
729 309
730 309
731 309
732 309
733 308
734 308
735 308
736 308
736 307
737 306
738 307
739 307
740 306
740 305
741 304
741 303
742 302
742 301
742 300
742 299
742 298
743 297
742 296
742 295
742 294
742 293
742 292
743 291
743 290
743 289
743 288
743 287
744 286
745 285
745 284
744 284
743 284
742 284
741 285
740 285
739 286
738 286
737 286
736 286
735 286
734 287
733 287
732 287
731 288
730 289
729 289
728 289
727 289
726 290
725 290
724 290
723 290
722 290
721 291
720 291
719 291
718 291
717 291
716 292
715 292
714 292
713 292
712 292
711 292
710 292
709 293
708 293
707 293
706 293
705 293
704 293
703 293
702 293
701 293
700 293
699 293
698 294
697 294
696 294
695 294
694 294
693 294
692 294
691 294
690 294
689 293
688 293
687 293
686 292
685 292
684 292
683 291
682 291
681 290
680 289
679 289
678 288
677 287
676 286
675 285
674 284
673 283
672 282
672 281
671 280
670 279
669 278
668 277
667 276
666 275
666 274
665 273
664 272
664 271
663 270
662 269
662 268
661 267
660 266
660 265
659 264
658 263
657 262
657 261
656 260
656 259
655 258
654 257
654 256
653 255
653 254
652 253
652 252
651 251
650 250
650 249
649 248
649 247
649 246
648 245
648 244
648 243
647 242
646 243
645 242
644 241
643 240
642 240
641 239
641 238
640 237
640 236
639 235
638 234
638 233
637 232
637 231
636 230
636 229
635 228
635 227
634 226
634 225
633 224
632 223
632 222
631 221
631 220
631 219
631 218
630 217
630 216
630 215
630 214
629 213
629 212
629 211
629 210
629 211
629 212
628 213
628 214
628 215
628 216
627 217
627 218
626 219
625 219
624 219
623 218
622 218
621 217
621 216
620 215
619 215
618 214
617 213
616 212
616 211
615 211
614 210
614 209
613 208
612 207
611 206
610 205
610 204
609 203
608 202
607 201
607 200
606 199
605 198
604 197
604 196
604 195
603 194
602 193
602 192
601 191
601 190
601 189
600 188
600 187
600 186
599 185
599 184
599 183
598 182
598 181
598 180
598 179
597 178
597 177
597 176
596 175
596 176
596 177
596 178
596 179
595 180
595 181
595 182
594 183
593 184
592 185
591 185
590 185
589 184
588 184
587 184
586 183
585 182
584 182
583 181
582 181
581 180
580 179
579 179
578 178
577 177
576 176
575 176
574 175
573 174
572 173
571 172
570 172
569 171
569 170
568 169
567 168
566 167
565 166
564 165
564 164
563 163
562 162
561 161
561 160
560 159
559 158
559 157
559 156
558 155
557 154
557 153
556 152
556 151
556 150
555 149
555 148
554 147
554 146
554 145
553 144
553 143
553 142
552 141
552 140
552 139
552 138
552 137
551 136
551 135
551 134
550 133
550 132
550 131
550 130
549 130
549 131
550 132
550 133
550 134
550 135
550 136
550 137
550 138
549 139
549 140
548 141
547 142
546 143
545 144
544 144
543 145
542 145
541 145
540 145
539 145
538 145
537 144
536 144
535 144
534 144
533 143
532 143
531 143
530 142
529 141
528 141
527 141
526 140
525 140
524 139
523 139
522 138
521 137
520 136
519 136
518 135
517 135
516 134
515 134
514 134
513 133
513 132
512 133
511 132
511 131
511 130
510 130
509 129
508 129
507 128
506 127
505 127
504 126
504 125
503 125
502 125
501 125
500 124
499 123
498 122
499 121
498 121
497 120
496 119
495 118
494 117
493 116
492 115
491 114
490 113
489 112
488 111
488 110
487 109
486 108
485 107
484 106
483 105
482 104
482 103
481 103
480 102
480 101
479 100
478 99
477 98
476 97
475 96
474 95
473 94
473 93
472 93
473 94
474 95
475 96
474 97
475 98
475 99
476 100
476 101
476 102
476 103
476 104
475 105
475 106
475 107
474 108
473 109
473 110
472 111
471 111
470 112
469 113
468 113
467 113
466 113
465 113
464 113
463 113
462 113
461 113
460 113
459 112
458 112
457 112
456 111
455 110
454 110
453 109
452 108
451 108
450 107
449 106
448 105
447 104
446 103
445 102
444 101
443 101
442 100
442 99
441 98
440 98
439 97
438 96
438 95
437 94
436 93
436 92
435 91
434 90
434 89
433 88
432 87
432 86
431 85
431 84
430 83
