351 121
350 122
349 122
349 123
348 124
347 125
347 126
347 127
346 128
346 129
345 130
344 131
343 132
342 132
341 133
340 133
339 133
338 134
337 134
336 134
335 134
334 135
333 135
332 135
331 135
330 135
329 135
328 135
327 135
326 135
325 135
324 135
323 134
322 134
321 134
320 134
319 133
318 133
317 132
316 132
315 132
314 132
313 131
312 130
311 130
310 130
309 130
308 129
307 129
306 129
305 128
304 128
303 128
302 128
301 128
300 128
299 127
298 127
297 127
296 127
295 128
294 128
293 128
292 129
292 130
291 131
290 132
289 133
289 134
288 135
288 136
287 137
286 138
285 139
284 139
283 140
282 139
281 139
280 138
279 138
278 138
277 138
276 138
275 137
274 138
273 138
272 137
271 137
270 137
269 137
268 137
267 137
266 137
265 137
264 137
263 137
262 137
261 137
260 137
259 137
258 137
257 136
256 136
255 136
254 136
253 136
252 135
251 136
250 135
249 135
248 135
247 135
247 136
246 137
246 138
246 139
246 140
246 141
246 142
246 143
246 144
245 145
244 146
243 147
242 147
241 148
240 148
239 149
238 149
237 149
236 150
235 150
234 151
233 151
232 151
231 151
230 151
229 152
228 152
227 152
226 152
225 152
224 152
223 153
222 153
221 153
220 153
219 153
218 153
217 152
216 152
215 153
214 152
213 152
212 152
211 152
210 152
209 151
208 151
207 151
206 150
205 150
204 150
203 150
202 149
201 150
201 151
200 152
200 153
200 154
200 155
199 156
198 157
197 158
196 159
195 159
194 160
193 160
192 160
191 161
190 161
189 161
188 162
187 162
186 163
185 163
184 163
183 163
182 163
181 164
180 164
179 165
178 165
177 165
176 166
175 166
174 167
173 167
172 167
171 168
170 168
169 168
168 169
167 169
166 169
165 170
164 170
163 170
162 170
161 171
160 171
159 171
158 171
157 171
156 172
155 172
154 172
153 172
152 172
151 172
150 172
149 172
148 172
147 172
146 172
145 172
144 171
143 171
142 171
141 171
140 171
139 170
139 171
139 172
140 172
141 173
142 174
142 175
143 176
144 177
145 178
145 179
146 180
146 181
147 182
147 183
148 183
149 184
149 185
150 186
150 187
150 188
151 189
151 190
152 191
152 192
153 193
154 193
155 194
156 195
156 196
156 197
156 198
157 199
157 200
158 200
159 201
159 202
160 203
160 204
160 205
161 206
161 207
161 208
162 208
163 209
164 210
165 211
166 212
167 213
168 214
169 215
168 216
167 216
168 217
169 216
170 217
170 218
170 219
170 220
170 221
169 222
170 223
171 224
172 225
173 226
173 227
172 228
173 229
173 230
173 231
173 230
174 229
175 230
175 231
175 232
175 233
176 234
176 235
177 236
177 237
177 238
177 239
177 240
177 241
178 242
177 243
177 244
177 245
176 246
175 247
175 248
174 249
173 250
172 250
171 251
170 251
171 252
172 253
173 254
174 254
175 255
176 256
175 257
175 258
176 259
177 260
178 260
179 261
180 262
181 262
182 262
183 263
184 263
185 264
186 264
187 265
188 265
189 266
190 266
191 267
192 267
193 268
194 268
195 269
196 269
197 270
198 270
199 271
200 272
201 272
202 272
203 273
204 273
205 273
206 274
207 274
208 275
209 276
210 276
211 277
212 277
213 278
214 278
215 279
216 279
217 280
218 281
219 281
220 282
221 283
222 283
223 284
224 285
225 286
226 286
227 287
228 288
229 289
230 289
231 290
232 291
233 292
234 293
235 293
236 294
237 295
238 296
239 297
240 298
241 298
242 299
243 299
244 300
244 301
245 302
246 303
246 304
247 305
247 306
247 307
247 308
247 309
246 310
246 311
246 312
246 313
245 314
245 315
244 316
244 317
245 318
246 319
247 319
248 320
249 320
250 321
251 321
252 322
253 322
254 322
255 323
256 323
257 324
258 324
259 324
260 325
261 325
262 324
263 325
263 326
264 327
265 327
266 328
267 328
268 329
269 329
270 330
271 330
272 330
273 331
274 331
275 332
276 332
277 333
278 333
279 334
280 334
281 334
282 335
283 335
284 336
285 336
286 337
287 337
288 338
289 338
290 339
291 339
292 340
293 340
294 341
295 341
296 342
297 342
298 343
299 344
300 344
301 344
302 344
303 345
304 345
305 346
306 346
307 346
308 347
309 347
310 348
311 349
312 350
313 350
314 351
315 351
316 352
317 352
318 352
319 353
320 353
321 353
322 353
323 353
324 353
325 353
326 353
327 353
328 353
329 353
330 353
331 353
332 353
333 353
334 353
335 353
336 353
337 353
338 353
339 352
340 352
341 352
342 352
343 352
344 352
345 353
346 353
347 353
348 353
349 353
350 353
351 353
352 353
353 353
354 353
355 354
356 354
357 354
358 354
359 355
360 355
361 355
362 355
363 355
364 356
365 356
366 356
367 356
368 356
369 356
370 356
371 356
372 357
373 356
374 357
375 357
376 357
377 357
378 357
379 357
380 357
381 357
382 357
383 357
384 357
385 358
386 358
387 358
388 358
389 358
390 358
391 358
392 358
393 358
394 358
395 358
396 359
397 359
398 359
399 359
400 359
401 359
402 360
403 360
404 360
405 360
406 360
407 361
408 361
409 361
410 361
411 362
412 362
413 363
414 363
415 364
416 364
417 365
418 365
419 366
420 366
421 366
422 367
423 367
424 367
425 367
426 367
427 368
428 367
429 367
430 367
431 367
432 367
433 367
434 366
435 366
436 365
437 365
438 365
439 364
440 364
441 364
442 364
443 363
444 363
445 363
446 362
447 362
448 362
449 362
450 361
451 361
452 361
453 361
454 360
455 360
456 360
457 359
458 359
459 359
460 358
461 358
462 358
463 358
464 357
465 357
466 357
467 357
468 357
469 357
470 356
471 356
472 356
473 356
474 356
475 356
476 355
477 355
478 355
479 355
480 355
481 355
482 355
483 355
484 355
485 355
486 355
487 355
488 355
489 355
490 355
491 355
492 355
493 354
494 354
495 354
496 354
497 354
498 353
499 353
500 353
501 353
502 353
503 352
504 352
505 352
506 352
507 351
508 351
509 351
510 350
511 350
512 349
513 348
514 348
515 348
516 348
517 347
518 346
519 346
520 346
521 345
522 345
523 344
524 344
525 343
526 343
527 342
528 342
529 341
530 341
531 341
532 340
533 340
534 339
535 339
536 338
537 338
538 337
539 337
540 336
541 336
542 335
543 335
544 335
545 335
546 334
547 334
548 334
549 333
550 333
551 333
552 332
553 332
554 331
555 331
556 330
557 330
558 330
559 330
560 329
561 328
562 328
563 327
564 327
565 326
566 326
567 325
568 325
569 324
570 324
571 323
572 323
573 322
574 322
575 321
576 320
577 320
578 319
579 318
580 318
581 317
582 316
583 315
584 314
585 314
586 313
587 312
588 311
589 310
589 309
590 308
591 308
591 307
592 306
593 305
594 304
595 303
596 302
597 301
597 300
598 299
599 298
600 297
601 296
601 295
601 294
602 293
602 292
603 291
603 290
604 289
604 288
604 287
604 286
605 285
605 284
606 283
606 282
606 281
607 280
607 279
608 278
608 277
607 276
608 275
609 274
609 273
609 272
609 271
609 270
610 269
611 268
612 269
612 270
612 271
612 272
613 272
614 271
615 271
616 271
617 271
618 271
619 271
620 271
621 271
622 271
623 271
624 271
625 271
626 271
627 271
628 271
629 271
630 271
631 271
632 271
633 271
634 271
635 271
636 271
637 271
638 271
639 271
640 271
641 271
642 271
643 271
644 271
645 271
646 271
647 271
648 272
649 271
650 271
651 271
652 271
653 271
654 271
655 271
656 272
657 271
658 271
659 271
660 271
661 271
662 271
663 271
664 271
665 271
666 271
667 271
668 270
669 270
670 270
671 270
672 270
673 269
674 269
674 268
674 267
674 266
675 265
674 264
675 263
675 262
675 261
675 260
676 259
677 259
677 258
677 257
676 256
676 255
676 254
675 253
675 254
675 255
674 256
673 256
672 255
673 254
672 255
671 254
671 253
671 252
670 252
670 253
670 254
669 255
668 255
667 254
667 253
666 253
665 254
664 255
663 255
662 255
661 254
660 255
659 256
658 256
657 255
656 255
655 255
654 255
653 256
652 256
651 256
650 256
649 256
648 256
647 256
646 256
645 256
644 256
643 256
642 256
641 256
640 256
639 256
638 256
637 256
636 256
635 256
634 256
633 255
632 255
631 256
630 256
629 255
628 255
627 256
626 255
625 255
624 255
623 255
622 255
621 255
620 255
619 254
618 253
617 253
616 252
616 251
615 250
615 249
615 248
616 247
615 246
615 245
615 244
615 243
615 242
615 241
615 240
615 239
615 238
615 237
615 236
614 235
614 234
614 233
614 232
614 231
614 230
614 229
614 228
614 227
614 226
613 225
613 224
613 223
613 222
612 221
611 220
611 219
611 218
611 217
610 216
610 215
609 214
608 213
608 212
607 211
607 210
606 209
605 208
604 207
603 206
602 205
601 204
601 203
600 202
599 202
598 201
597 200
597 199
596 198
595 197
594 196
593 195
592 194
592 193
591 193
590 192
589 191
588 191
587 190
586 189
585 189
584 188
583 188
582 187
581 186
580 186
579 185
578 185
577 185
576 184
575 184
574 183
573 183
572 182
571 182
570 181
569 181
568 180
567 180
566 179
565 179
564 178
563 178
562 177
561 177
560 177
559 176
558 176
557 175
556 175
555 174
554 174
553 174
552 173
551 172
550 172
549 171
548 171
547 171
546 170
545 169
544 169
543 168
542 167
541 166
540 166
539 165
538 164
537 164
536 163
535 162
534 162
533 161
532 160
531 160
530 159
530 158
529 158
528 157
527 156
526 155
525 154
524 153
523 152
522 152
521 152
520 151
519 151
518 151
517 152
516 151
515 151
514 152
513 152
512 152
511 152
510 153
509 153
508 153
507 152
506 152
505 152
504 152
503 152
502 152
501 152
500 151
499 151
498 150
497 150
496 149
495 149
494 148
493 148
492 148
491 147
490 147
489 146
488 145
487 145
486 145
485 145
484 144
483 143
482 143
481 142
480 142
479 141
478 141
477 140
476 140
475 139
474 139
473 138
472 138
471 137
470 137
469 136
468 136
467 136
466 135
465 135
464 134
463 134
462 133
461 133
460 133
459 133
458 133
457 133
456 134
455 134
454 135
453 136
452 136
451 136
450 137
449 137
448 138
447 138
446 138
445 138
444 138
443 138
442 138
441 138
440 138
439 138
438 138
437 138
436 137
435 137
434 137
433 137
432 137
431 136
430 136
429 136
428 136
427 135
426 135
425 135
424 134
423 134
422 134
421 134
420 134
419 133
418 133
417 133
416 133
415 133
414 133
413 132
412 132
411 133
410 133
409 133
408 133
407 133
406 133
405 133
404 133
403 133
402 133
401 133
400 133
399 133
398 132
397 132
396 132
395 132
394 132
393 132
392 131
391 131
390 131
389 131
388 130
387 130
386 130
385 129
384 129
383 129
382 129
381 129
380 129
379 128
378 128
377 128
376 128
375 127
374 127
373 127
372 126
371 126
370 126
369 125
368 124
367 124
366 123
365 123
364 123
363 123
362 122
361 122
360 122
359 122
358 122
357 121
356 121
355 121
354 121
353 121
352 121
351 121
