316 74
315 75
314 75
313 75
312 75
311 75
310 76
309 76
308 76
307 76
306 76
305 76
304 76
303 76
302 77
301 77
300 77
299 77
298 78
297 78
296 78
295 78
294 79
293 79
292 79
291 79
290 80
289 80
288 81
287 81
286 81
285 81
284 81
283 82
282 82
281 82
280 83
279 83
278 84
277 85
276 85
275 85
274 85
273 86
272 86
271 86
270 86
269 87
268 87
267 87
266 88
265 88
264 88
263 88
262 89
261 89
260 89
259 89
258 90
257 90
256 90
255 90
254 91
253 91
252 91
251 91
250 92
249 91
248 91
249 92
248 93
247 93
246 93
245 94
244 94
243 94
242 94
241 95
240 95
239 95
238 96
237 97
236 97
235 98
234 98
233 98
232 98
231 99
230 99
229 99
228 99
227 100
226 101
225 101
224 102
223 102
222 103
221 103
220 104
219 104
218 105
218 106
217 107
216 107
215 108
215 109
214 110
213 110
212 111
211 112
210 112
209 113
208 114
207 114
206 115
205 116
204 117
203 117
202 118
201 119
200 120
199 121
198 122
197 122
196 123
195 124
194 125
193 125
192 126
191 127
190 128
189 128
189 129
188 130
187 130
186 131
185 132
184 133
183 134
182 134
181 135
180 136
179 137
178 137
177 138
176 139
175 139
174 140
173 141
172 142
171 143
170 143
169 144
168 145
167 146
166 147
165 148
165 149
164 150
163 150
162 151
161 152
160 152
159 153
159 154
158 155
158 156
157 157
156 157
155 158
154 159
154 160
153 161
153 162
152 163
152 164
151 165
150 166
149 167
148 168
148 169
148 170
147 171
146 172
145 173
144 173
144 174
144 175
144 176
143 177
142 178
142 179
141 180
140 181
140 182
139 183
139 184
138 185
138 186
137 187
137 188
136 189
135 190
135 191
135 192
135 193
134 194
133 195
132 196
132 197
132 198
131 199
130 200
129 201
129 202
129 203
129 204
128 205
127 206
127 207
126 208
125 207
124 207
125 207
126 208
125 209
125 210
124 211
124 212
123 213
123 214
122 215
122 216
121 217
120 218
120 219
119 220
119 221
118 222
117 223
117 224
117 225
116 226
116 227
116 228
116 229
115 230
115 231
115 232
115 233
115 234
115 235
115 236
115 237
115 238
115 239
115 240
115 241
116 242
116 243
116 244
117 245
117 246
118 247
118 248
119 249
119 250
120 251
120 252
121 253
122 254
123 255
123 256
124 257
125 258
126 259
127 260
127 261
128 262
129 263
130 264
130 265
131 266
132 267
132 268
133 269
134 270
134 271
135 272
136 273
136 274
137 275
138 276
139 277
140 278
141 279
141 280
140 281
141 282
142 283
143 283
144 284
144 285
145 286
145 287
146 287
147 288
148 289
149 289
150 290
151 291
152 292
153 293
154 294
155 295
156 296
157 297
158 298
159 299
160 299
161 300
162 301
163 302
164 302
165 303
166 304
167 305
168 305
169 305
170 306
171 307
172 307
173 308
174 308
175 309
176 309
177 309
178 310
179 310
180 310
181 310
182 311
183 311
184 311
185 312
186 312
187 312
188 312
189 313
190 313
191 313
192 313
193 314
194 314
195 314
196 314
197 314
198 314
199 315
200 315
201 315
202 315
203 315
204 315
205 315
206 315
207 315
208 316
209 316
210 316
211 316
212 316
213 316
214 317
215 317
216 317
217 317
218 317
219 317
220 317
221 317
222 317
223 318
224 318
225 318
226 318
227 318
228 318
229 318
230 318
231 318
232 318
233 318
234 319
235 319
236 319
237 319
238 319
239 319
240 320
241 320
242 320
243 320
244 320
245 321
246 321
247 321
248 321
249 322
250 322
251 322
252 322
253 322
254 323
255 323
256 323
257 324
258 324
259 324
260 325
261 325
262 325
263 326
264 326
265 327
266 327
267 328
268 328
269 328
270 329
271 329
272 329
273 330
274 330
275 330
276 331
277 331
278 331
279 331
280 331
281 331
282 331
283 331
284 331
285 331
286 332
287 332
288 331
289 332
290 332
291 332
292 332
293 332
294 332
295 332
296 332
297 332
298 332
299 332
300 332
301 332
302 332
303 332
304 332
305 332
306 332
307 332
308 332
309 332
310 332
311 332
312 332
313 332
314 332
315 333
316 333
317 333
318 333
319 333
320 333
321 333
322 333
323 333
324 333
325 334
326 334
327 334
328 334
329 334
330 334
331 334
332 335
333 335
334 335
335 335
336 335
337 335
338 335
339 335
340 336
341 336
342 336
343 336
344 336
345 336
346 336
347 336
348 337
349 337
350 337
351 337
352 337
353 337
354 337
355 337
356 337
357 337
358 337
359 337
360 337
361 337
362 336
363 336
364 336
365 336
366 336
367 336
368 336
369 336
370 336
371 336
372 335
373 335
374 335
375 335
376 335
377 335
378 335
379 335
380 334
381 334
382 334
383 334
384 334
385 334
386 334
387 334
388 334
389 334
390 333
391 333
392 333
393 333
394 333
395 333
396 333
397 332
398 332
399 332
400 332
401 332
402 332
403 332
404 332
405 332
406 331
407 331
408 331
409 331
410 331
411 331
412 331
413 331
414 330
415 330
416 330
417 330
418 330
419 330
420 330
421 330
422 330
423 330
424 330
425 330
426 329
427 329
428 329
429 329
430 329
431 329
432 329
433 328
434 328
435 328
436 328
437 328
438 328
439 328
440 327
441 327
442 327
443 326
444 326
445 326
446 326
447 326
448 325
449 325
450 325
451 325
452 324
453 324
454 324
455 324
456 323
457 323
458 323
459 323
460 322
461 322
462 322
463 322
464 322
465 321
466 321
467 321
468 321
469 321
470 321
471 320
472 320
473 320
474 320
475 319
476 319
477 319
478 319
479 319
480 319
481 318
482 318
483 318
484 318
485 317
486 317
487 317
488 317
489 316
490 316
491 316
492 316
493 316
494 315
495 315
496 315
497 314
498 314
499 313
500 313
501 313
502 312
503 312
504 311
505 311
506 310
507 310
508 309
509 309
510 308
511 308
512 307
513 307
514 306
515 306
516 305
517 304
518 304
519 303
520 303
521 302
522 302
523 301
524 300
525 300
526 299
527 299
528 299
529 298
530 297
531 296
532 295
533 295
534 294
535 294
536 293
537 292
538 292
539 291
540 291
541 290
542 289
543 288
544 288
545 287
545 286
546 285
547 285
548 284
549 283
550 283
550 282
551 281
552 280
553 279
554 278
555 277
555 276
555 275
556 274
557 274
557 273
558 272
559 272
560 271
560 270
561 269
562 268
563 267
563 266
564 265
565 264
565 263
566 262
567 261
566 260
567 259
567 258
568 257
568 256
569 255
569 254
570 253
570 252
570 251
571 250
571 249
571 248
572 247
572 246
572 245
572 244
572 243
573 242
573 241
573 240
573 239
573 238
573 237
574 236
574 235
574 234
575 233
576 232
577 231
578 230
579 230
580 229
581 229
582 229
583 229
584 228
585 228
586 228
587 228
588 228
589 228
590 227
591 227
592 227
593 227
594 227
595 227
596 227
597 227
598 227
599 227
600 227
601 227
602 227
603 226
604 226
605 226
606 226
607 226
608 226
609 226
610 226
611 226
612 226
613 226
614 226
615 226
616 226
617 226
618 226
619 226
620 226
621 226
622 226
623 226
624 226
625 226
626 226
627 226
628 226
629 225
630 225
631 225
632 225
633 225
634 225
635 225
636 225
637 225
638 225
639 225
640 225
641 225
642 225
643 225
644 225
645 225
646 225
647 225
648 225
649 225
650 225
651 225
652 225
653 225
654 225
655 225
656 225
657 225
658 225
659 225
660 225
661 225
662 225
663 225
664 225
665 225
666 225
667 225
668 225
669 225
670 225
671 225
672 225
673 225
674 225
675 225
676 225
677 225
678 225
679 225
680 225
681 225
682 225
683 225
684 225
685 225
686 225
687 225
688 225
689 225
690 225
691 225
692 225
693 225
694 224
695 224
696 224
697 223
697 222
696 221
697 220
698 219
699 219
700 219
701 218
701 217
702 216
703 215
702 214
702 213
702 212
702 211
702 210
703 209
704 210
704 211
705 212
706 213
707 213
706 212
705 211
705 210
705 209
704 208
704 207
704 206
704 205
703 204
703 205
703 206
703 207
703 208
703 209
702 210
701 209
701 208
700 208
699 208
698 208
697 208
696 208
695 207
694 207
693 208
692 208
691 208
690 208
689 208
688 207
688 208
687 209
686 209
685 209
684 209
683 209
682 209
681 208
680 209
679 208
678 208
677 208
676 208
675 208
674 209
673 209
672 209
671 209
670 209
669 209
668 209
667 209
666 208
665 208
664 209
663 209
662 209
661 209
660 209
659 209
658 209
657 209
656 210
655 209
654 209
653 209
652 209
651 209
650 209
649 209
648 209
647 210
646 210
645 210
644 209
643 210
642 210
641 209
640 210
639 210
638 210
637 210
636 210
635 210
634 210
633 209
632 210
631 209
630 209
629 210
628 210
627 210
626 210
625 210
624 209
623 209
622 210
621 210
620 210
619 210
618 210
617 210
616 210
615 210
614 210
613 210
612 210
611 211
610 211
609 210
608 210
607 210
606 210
605 210
604 210
603 210
602 211
601 210
600 210
599 210
598 210
597 210
596 209
595 209
594 209
593 209
592 209
591 209
590 208
589 208
588 207
587 206
586 205
586 204
586 203
585 202
586 201
586 200
586 199
586 198
586 197
586 196
586 195
586 194
586 193
586 192
586 191
586 190
586 189
585 188
585 187
585 186
585 185
585 184
584 183
584 182
584 181
584 180
584 179
583 178
583 177
583 176
583 175
582 174
581 173
581 172
581 171
580 170
580 169
580 168
579 167
579 166
578 165
578 164
578 163
577 162
577 161
576 160
576 159
575 158
574 157
574 156
573 155
573 154
572 153
571 152
570 151
569 150
569 149
568 148
567 147
566 146
566 145
565 145
564 144
563 143
562 142
562 141
561 140
560 139
559 138
558 137
557 136
556 135
555 134
554 133
553 132
552 131
551 130
550 130
549 129
548 128
547 128
546 127
546 126
545 125
544 124
543 124
542 124
541 123
541 122
540 121
539 121
538 121
537 120
536 119
536 118
535 117
534 117
533 116
532 115
531 115
530 114
529 113
528 113
527 112
526 112
525 112
524 111
523 111
522 110
521 109
520 109
519 109
518 109
517 108
516 108
515 107
514 107
513 107
512 106
511 106
510 106
509 105
508 105
507 105
506 104
505 104
504 103
503 103
502 103
501 103
500 102
499 102
498 101
497 101
496 100
495 100
494 100
493 101
492 100
491 99
490 98
489 98
488 97
487 97
486 97
485 97
484 96
483 96
482 96
481 95
480 95
479 95
478 94
477 94
476 94
475 94
474 94
473 94
472 93
471 93
470 93
469 93
468 92
467 92
466 92
465 92
464 91
463 91
462 91
461 90
460 90
459 90
458 90
457 90
456 90
455 89
454 89
453 89
452 88
451 88
450 88
449 88
448 88
447 88
446 87
445 87
444 87
443 88
442 87
441 86
440 86
439 86
438 85
437 85
436 85
435 85
434 85
433 85
432 84
431 84
430 84
429 84
428 84
427 84
426 84
425 83
424 83
423 83
422 83
421 83
420 82
419 82
418 82
417 82
416 82
415 82
414 81
413 81
412 81
411 81
410 81
409 80
408 81
407 80
406 80
405 80
404 80
403 80
402 80
401 80
400 80
399 80
398 80
397 79
396 79
395 79
394 79
393 79
392 78
391 78
390 78
389 78
388 78
387 78
386 78
385 78
384 78
383 78
382 78
381 78
380 78
379 78
378 78
377 77
376 77
375 77
374 77
373 77
372 78
371 78
370 78
369 78
368 78
367 78
366 78
365 79
364 79
363 79
362 79
361 79
360 80
359 80
358 80
357 80
356 80
355 80
354 80
353 80
352 80
351 80
350 80
349 80
348 79
347 79
346 79
345 79
344 78
343 77
342 77
341 77
340 76
339 76
338 75
337 75
336 75
335 75
334 75
333 75
332 74
331 74
330 74
329 74
328 74
327 74
326 74
325 74
324 74
323 74
322 74
321 74
320 74
319 74
318 74
317 74
316 74
