399 46
398 47
397 47
396 47
395 47
394 47
393 47
392 47
391 47
390 47
389 47
388 47
387 47
386 47
385 47
384 47
383 47
382 47
381 47
380 47
379 47
378 47
377 47
376 47
375 47
374 47
373 47
372 47
371 47
370 47
369 47
368 48
367 48
366 48
365 48
364 48
363 48
362 48
361 49
360 50
359 50
358 50
357 50
356 50
355 51
354 51
353 51
352 52
351 52
350 52
349 52
348 52
347 53
346 53
345 53
344 53
343 54
342 54
341 54
340 54
339 55
338 55
337 55
336 55
335 55
334 56
333 56
332 56
331 56
330 56
329 56
328 57
327 57
326 57
325 57
324 57
323 58
322 58
321 58
320 58
319 59
318 59
317 59
316 59
315 59
314 59
313 59
312 60
311 60
310 60
309 60
308 60
307 60
306 61
305 61
304 61
303 61
302 61
301 61
300 61
299 62
298 62
297 62
296 62
295 62
294 62
293 62
292 62
291 62
290 62
289 63
288 63
287 63
286 63
285 63
284 63
283 63
282 63
281 63
280 63
279 63
278 63
277 64
276 64
275 64
274 64
273 64
272 64
271 64
270 65
269 65
268 65
267 65
266 65
265 65
264 66
263 66
262 66
261 67
260 67
259 67
258 67
257 67
256 68
255 68
254 68
253 68
252 69
251 69
250 69
249 69
248 69
247 69
246 70
245 70
244 70
243 70
242 71
241 71
240 71
239 71
238 71
237 72
236 72
235 72
234 72
233 73
232 73
231 73
230 74
229 74
228 74
227 74
226 75
225 75
224 75
223 76
222 76
221 76
220 76
219 77
218 77
217 78
216 78
215 78
214 79
213 79
212 79
211 80
210 80
209 80
208 81
207 81
206 81
205 82
204 82
203 82
202 83
201 83
200 84
199 84
198 85
197 85
196 85
195 85
194 86
193 86
192 87
191 87
190 87
189 88
188 88
187 88
186 89
185 89
184 90
183 90
182 91
181 91
180 91
179 92
178 92
177 93
176 93
175 94
174 94
173 94
172 95
171 95
170 96
169 96
168 96
167 97
166 97
165 98
164 98
163 98
162 99
161 99
160 100
159 101
158 101
157 101
156 102
155 102
154 103
153 103
152 104
151 104
150 105
149 105
148 105
147 106
146 106
145 107
144 108
143 108
142 109
141 109
140 110
139 110
138 111
137 111
136 112
135 113
134 113
133 113
132 114
131 114
130 115
129 115
128 116
127 117
126 117
125 118
124 118
123 119
122 119
121 120
120 121
119 122
118 123
117 123
116 124
115 125
114 125
113 126
112 127
111 127
110 128
109 128
108 129
107 130
106 130
105 131
104 132
103 133
102 134
101 135
100 136
99 137
98 138
97 139
96 140
95 140
94 141
93 142
92 143
91 144
90 145
90 146
89 147
88 148
87 149
86 150
85 151
85 152
84 153
83 154
82 155
82 156
82 157
81 158
81 159
80 160
80 161
79 162
79 163
79 164
79 165
79 166
79 167
79 168
80 169
80 170
80 171
80 172
81 173
81 174
81 175
81 176
82 177
82 178
83 179
83 180
84 181
84 182
85 183
85 184
86 185
86 186
86 187
87 188
88 189
89 190
89 191
90 192
91 193
91 194
92 195
93 196
94 197
95 198
96 199
97 200
98 201
99 202
100 203
101 204
102 205
103 206
104 207
105 208
106 209
107 210
108 210
109 211
110 212
111 213
112 213
113 214
113 215
114 215
115 216
116 217
117 217
118 218
119 219
120 220
121 220
122 221
123 222
123 223
124 224
125 225
126 225
127 226
128 227
129 228
130 228
131 229
132 229
133 230
134 230
135 231
136 232
137 233
138 233
139 234
140 234
141 235
142 236
143 236
144 237
145 237
146 238
147 239
148 239
149 239
150 240
151 240
152 241
153 242
154 242
155 242
156 243
157 243
158 244
159 244
160 245
161 245
162 245
163 246
164 246
165 247
166 247
167 247
168 248
169 248
170 248
171 249
172 249
173 250
174 250
175 250
176 251
177 251
178 251
179 252
180 252
181 252
182 253
183 253
184 253
185 254
186 254
187 254
188 255
189 255
190 255
191 255
192 256
193 256
194 256
195 257
196 257
197 258
198 258
199 258
200 259
201 259
202 259
203 260
204 260
205 260
206 261
207 261
208 261
209 262
210 262
211 262
212 263
213 263
214 263
215 263
216 264
217 264
218 264
219 264
220 265
221 265
222 265
223 265
224 265
225 266
226 266
227 266
228 266
229 267
230 267
231 267
232 267
233 267
234 267
235 267
236 267
237 268
238 268
239 268
240 268
241 269
242 269
243 269
244 269
245 270
246 270
247 270
248 270
249 271
250 271
251 271
252 271
253 272
254 272
255 272
256 272
257 273
258 273
259 273
260 273
261 273
262 274
263 274
264 274
265 274
266 274
267 275
268 275
269 275
270 275
271 275
272 276
273 276
274 276
275 276
276 276
277 276
278 277
279 277
280 277
281 277
282 277
283 277
284 278
285 278
286 278
287 278
288 278
289 278
290 279
291 279
292 279
293 279
294 279
295 279
296 279
297 280
298 280
299 280
300 280
301 280
302 280
303 281
304 281
305 281
306 281
307 281
308 282
309 282
310 282
311 282
312 282
313 283
314 283
315 283
316 283
317 283
318 283
319 283
320 284
321 284
322 284
323 284
324 284
325 284
326 285
327 285
328 285
329 285
330 285
331 285
332 285
333 285
334 286
335 286
336 286
337 286
338 286
339 286
340 286
341 286
342 286
343 287
344 287
345 287
346 287
347 287
348 287
349 287
350 287
351 288
352 288
353 288
354 288
355 288
356 288
357 288
358 288
359 288
360 288
361 288
362 288
363 288
364 288
365 288
366 288
367 288
368 288
369 289
370 289
371 289
372 289
373 289
374 289
375 289
376 289
377 289
378 289
379 289
380 290
381 290
382 290
383 290
384 290
385 290
386 290
387 290
388 290
389 290
390 290
391 290
392 290
393 290
394 290
395 290
396 290
397 290
398 291
399 291
400 291
401 291
402 291
403 291
404 291
405 291
406 292
407 292
408 292
409 292
410 292
411 292
412 292
413 292
414 292
415 292
416 292
417 293
418 293
419 293
420 293
421 293
422 293
423 293
424 293
425 293
426 293
427 293
428 293
429 293
430 293
431 293
432 293
433 293
434 293
435 293
436 293
437 293
438 294
439 294
440 293
441 294
442 294
443 294
444 294
445 294
446 294
447 294
448 294
449 294
450 294
451 294
452 294
453 294
454 294
455 294
456 294
457 294
458 294
459 294
460 294
461 294
462 294
463 294
464 294
465 294
466 294
467 294
468 294
469 294
470 294
471 294
472 294
473 294
474 294
475 294
476 294
477 294
478 294
479 294
480 294
481 294
482 294
483 294
484 294
485 294
486 294
487 293
488 293
489 293
490 293
491 293
492 293
493 293
494 293
495 293
496 293
497 293
498 293
499 293
500 293
501 293
502 292
503 292
504 292
505 292
506 292
507 292
508 292
509 292
510 292
511 291
512 291
513 291
514 291
515 291
516 291
517 291
518 291
519 290
520 290
521 290
522 290
523 290
524 289
525 289
526 289
527 289
528 289
529 288
530 288
531 288
532 288
533 288
534 287
535 287
536 287
537 286
538 286
539 286
540 285
541 285
542 285
543 285
544 284
545 284
546 284
547 283
548 283
549 283
550 283
551 282
552 282
553 282
554 281
555 281
556 281
557 280
558 280
559 280
560 279
561 279
562 279
563 279
564 278
565 278
566 277
567 277
568 277
569 276
570 276
571 275
572 275
573 275
574 274
575 274
576 273
577 273
578 272
579 272
580 271
581 271
582 271
583 270
584 270
585 269
586 269
587 268
588 268
589 268
590 267
591 267
592 267
593 266
594 265
595 265
596 265
597 264
598 263
599 262
600 262
601 261
602 261
603 260
604 260
605 259
606 258
607 258
608 257
609 256
610 256
611 255
612 255
613 254
614 253
615 253
616 252
617 252
618 251
619 250
620 250
621 249
622 248
623 247
624 247
625 246
626 245
627 244
628 244
629 243
630 242
631 241
632 240
633 239
634 239
634 238
635 237
635 236
636 235
637 234
638 233
639 232
640 231
641 230
642 229
643 228
644 227
645 226
646 225
646 224
647 223
648 223
649 222
649 221
650 220
651 219
652 218
652 217
652 216
653 215
654 214
654 213
654 212
655 211
655 210
656 209
656 208
657 207
657 206
657 205
658 204
659 203
659 202
660 201
660 200
660 199
661 198
661 197
662 196
662 195
662 194
662 193
663 192
663 191
663 190
663 189
664 188
664 187
664 186
665 185
665 184
666 183
666 182
667 181
668 180
669 180
670 180
671 180
672 180
673 179
674 179
675 179
676 179
677 179
678 179
679 179
680 179
681 178
682 178
683 178
684 178
685 178
686 178
687 178
688 178
689 178
690 178
691 178
692 178
693 178
694 179
695 179
696 179
697 179
698 179
699 179
700 179
701 179
702 179
703 179
704 179
705 179
706 180
707 180
708 180
709 180
710 180
711 181
712 180
713 180
714 180
715 179
716 179
717 179
718 179
719 178
720 178
721 178
722 178
723 178
724 178
725 178
726 177
727 177
728 177
729 177
730 177
731 177
732 177
733 176
734 176
734 175
734 174
734 173
733 172
732 172
731 172
730 171
729 170
728 170
727 169
726 169
725 169
724 168
724 167
723 166
722 165
721 164
720 164
719 163
718 163
717 162
716 162
715 162
714 162
713 162
712 162
711 162
710 162
709 161
708 161
707 161
706 160
705 160
704 160
703 160
702 160
701 160
700 159
699 158
698 159
697 160
696 160
696 161
696 162
696 163
696 164
697 165
697 166
697 167
696 168
695 167
694 166
693 166
692 166
691 166
690 166
689 166
688 167
687 167
686 167
685 167
684 167
683 167
682 167
681 167
680 167
679 166
678 166
677 166
676 166
675 166
674 166
673 166
672 165
671 166
670 165
669 165
668 165
667 164
666 163
665 162
664 161
663 160
663 159
663 158
662 157
662 156
661 155
661 154
661 153
660 152
660 151
659 150
658 149
658 148
658 147
657 146
656 145
655 144
654 143
654 142
653 141
653 140
652 139
652 138
651 137
651 136
650 135
650 134
649 133
648 132
648 131
647 130
646 129
645 128
644 127
644 126
643 125
642 125
641 124
640 123
640 122
639 121
638 120
637 119
636 118
635 117
635 116
634 115
633 114
632 113
632 112
631 111
630 110
629 109
628 108
627 107
626 106
625 106
624 105
624 104
623 103
622 102
621 101
620 100
619 99
618 98
617 98
616 97
615 97
614 96
614 95
613 95
612 94
611 93
610 92
609 91
608 90
607 90
606 89
605 88
604 87
603 87
602 86
601 86
600 85
599 85
598 84
597 84
596 83
595 83
594 82
593 82
592 81
591 80
590 80
589 80
588 79
587 79
586 78
585 78
584 78
583 77
582 77
581 77
580 76
579 76
578 76
577 75
576 75
575 74
574 74
573 74
572 73
571 73
570 72
569 72
568 71
567 71
566 70
565 70
564 70
563 69
562 69
561 68
560 68
559 67
558 67
557 67
556 66
555 66
554 66
553 65
552 65
551 64
550 64
549 64
548 63
547 63
546 62
545 62
544 62
543 61
542 61
541 61
540 60
539 60
538 60
537 59
536 59
535 59
534 58
533 58
532 58
531 58
530 57
529 57
528 57
527 57
526 56
525 56
524 56
523 56
522 55
521 55
520 55
519 55
518 55
517 54
516 54
515 54
514 54
513 54
512 53
511 53
510 53
509 53
508 53
507 52
506 52
505 52
504 52
503 52
502 51
501 51
500 51
499 51
498 50
497 50
496 50
495 50
494 50
493 50
492 50
491 49
490 49
489 49
488 49
487 49
486 49
485 49
484 49
483 49
482 48
481 48
480 48
479 48
478 48
477 48
476 48
475 48
474 48
473 47
472 47
471 47
470 47
469 47
468 47
467 47
466 47
465 47
464 47
463 47
462 47
461 47
460 46
459 46
458 46
457 46
456 46
455 46
454 46
453 46
452 46
451 46
450 46
449 46
448 46
447 46
446 46
445 46
444 46
443 46
442 46
441 46
440 46
439 46
438 46
437 46
436 46
435 46
434 46
433 46
432 46
431 46
430 46
429 46
428 46
427 46
426 46
425 46
424 46
423 46
422 46
421 46
420 46
419 46
418 46
417 46
416 46
415 46
414 46
413 46
412 46
411 46
410 46
409 46
408 46
407 46
406 46
405 46
404 46
403 46
402 46
401 46
400 46
399 46
