351 15
350 16
350 17
350 18
350 19
350 20
350 21
350 22
350 23
350 24
350 25
349 26
349 27
349 28
349 29
348 30
347 31
346 31
345 32
344 33
343 33
342 34
342 35
341 36
340 37
340 38
339 39
338 40
337 41
337 42
336 43
336 44
335 45
335 46
334 47
334 48
333 49
333 50
333 51
333 52
333 53
333 54
333 55
333 56
333 57
333 58
333 59
334 60
334 61
334 62
334 63
334 64
335 65
335 66
336 67
336 68
337 69
338 70
339 71
339 72
340 73
339 74
338 74
337 74
336 74
335 75
334 75
333 75
332 76
331 76
330 77
329 77
328 78
327 79
326 79
325 80
324 81
323 82
322 83
321 84
321 85
320 86
319 87
319 88
318 89
318 90
317 91
316 92
316 93
315 94
314 95
314 96
313 97
313 98
312 99
312 100
312 101
311 102
311 103
311 104
310 105
310 106
310 107
310 108
310 109
310 110
309 111
309 112
309 113
309 114
309 115
308 116
308 117
308 118
307 119
307 120
307 121
307 122
307 123
307 124
307 125
307 126
307 127
307 128
307 129
307 130
307 131
307 132
307 133
306 134
306 135
306 136
306 137
306 138
306 139
306 140
306 141
306 142
306 143
306 144
306 145
306 146
307 147
307 148
307 149
307 150
307 151
307 152
307 153
308 154
308 155
308 156
308 157
308 158
308 159
308 160
308 161
308 162
308 163
308 164
308 165
308 166
309 167
309 168
309 169
309 170
309 171
309 172
309 173
309 174
310 175
310 176
310 177
310 178
310 179
311 180
311 181
311 182
311 183
311 184
311 185
311 186
311 187
311 188
312 189
312 190
312 191
312 192
312 193
312 194
312 195
312 196
312 197
313 198
313 199
313 200
313 201
313 202
314 203
314 204
314 205
314 206
315 207
315 208
315 209
315 210
315 211
315 212
316 213
316 214
316 215
316 216
316 217
317 218
317 219
317 220
317 221
318 222
318 223
318 224
319 225
319 226
319 227
319 228
320 229
320 230
321 231
321 232
321 233
321 234
322 235
322 236
322 237
322 238
323 239
323 240
324 241
324 242
324 243
324 244
325 245
325 246
326 247
326 248
326 249
327 250
327 251
328 252
329 253
329 254
330 255
330 256
331 257
331 258
331 259
332 260
332 261
333 262
333 263
334 264
334 265
335 266
335 267
336 268
337 269
337 270
338 271
338 272
339 273
340 274
340 275
341 276
342 277
342 278
343 279
344 280
345 281
346 282
346 283
347 283
348 284
349 285
350 286
351 287
352 288
353 289
354 290
355 291
356 291
357 292
357 293
358 294
359 295
360 296
361 297
362 298
363 299
364 300
365 301
366 302
367 303
368 304
369 305
370 305
371 306
372 307
373 307
374 308
375 308
376 309
377 309
378 310
379 310
380 311
381 311
382 312
383 312
384 312
385 312
386 313
387 313
388 313
389 314
390 314
391 315
392 315
393 315
394 315
395 316
396 316
397 317
398 317
399 317
400 318
401 319
401 320
402 320
403 321
403 322
403 323
404 324
404 325
404 326
403 327
403 328
403 329
403 330
403 331
403 332
402 333
401 334
400 333
399 333
398 333
397 332
396 332
395 332
394 331
393 331
392 330
391 330
390 329
389 329
388 329
387 328
386 328
385 328
384 327
383 327
382 326
381 326
380 326
379 325
378 325
377 325
376 324
375 324
374 323
373 323
372 323
371 322
370 322
369 321
368 321
367 321
366 320
365 320
364 319
363 319
362 319
361 318
360 318
359 318
358 317
357 317
356 316
355 316
354 315
353 315
352 315
351 314
350 314
349 313
348 313
347 313
346 312
345 312
344 311
343 311
342 311
341 310
340 310
339 309
338 309
337 309
336 308
335 308
334 307
333 307
332 306
331 306
330 305
329 305
328 305
327 304
326 304
325 304
324 303
323 302
322 301
321 300
320 299
319 298
318 297
317 296
317 295
316 294
316 293
315 292
315 291
314 290
314 289
314 288
313 287
313 286
313 285
312 284
312 283
312 282
311 281
311 280
311 279
310 278
310 277
310 276
310 275
309 274
309 273
309 272
308 271
308 270
307 269
307 268
307 267
306 266
306 265
305 264
305 263
304 262
304 261
303 260
303 259
302 258
302 257
301 256
300 255
300 254
299 253
299 252
298 251
298 250
297 249
296 248
296 247
295 246
294 245
293 244
293 243
292 242
291 241
291 240
290 239
289 238
289 237
288 236
287 235
287 234
286 233
285 232
284 231
284 230
283 229
282 228
281 227
280 226
279 225
278 224
277 223
276 222
275 221
275 220
274 219
273 218
272 217
271 216
270 216
269 215
268 214
267 213
266 212
266 211
265 210
264 209
263 208
262 207
261 206
260 205
259 204
258 203
257 202
256 201
255 201
254 200
253 199
252 198
251 198
250 197
249 196
248 195
247 194
246 193
245 192
244 191
243 190
242 190
241 189
240 188
239 187
238 187
237 186
236 186
235 185
234 184
233 183
232 182
231 181
230 180
229 179
228 178
227 178
226 177
225 177
224 176
224 175
223 175
222 174
221 173
220 173
219 172
218 172
217 171
216 171
215 170
214 170
213 169
212 169
211 168
210 168
209 167
208 167
207 166
206 166
205 165
204 165
203 164
202 164
201 163
200 162
199 162
198 161
197 161
196 160
195 160
194 159
193 159
192 158
191 157
190 157
189 156
188 156
187 155
186 155
185 154
184 154
183 154
182 153
181 153
180 153
179 153
178 153
177 153
176 152
175 152
174 152
173 152
172 152
171 152
170 151
169 151
168 151
167 150
166 150
165 149
164 149
163 149
162 148
161 148
160 147
159 147
158 147
157 146
156 146
155 146
154 146
153 146
152 146
151 146
150 146
149 146
148 146
147 146
146 145
145 145
144 145
143 145
142 145
141 144
140 144
139 144
138 143
137 143
136 143
135 143
134 142
133 142
132 142
131 141
130 141
129 141
128 141
127 141
126 141
125 141
124 141
123 141
122 140
121 140
120 140
119 140
118 139
117 139
116 139
115 139
114 139
113 139
112 139
111 139
110 140
109 140
108 140
107 140
106 140
105 140
104 140
103 141
102 141
101 142
100 142
99 142
98 143
97 143
96 143
95 144
94 144
93 144
92 144
91 145
90 145
89 145
88 146
87 146
86 147
85 148
84 148
83 148
82 148
81 149
80 149
79 149
78 149
77 148
76 148
75 148
74 148
73 147
72 147
71 147
70 148
69 148
68 148
67 148
66 148
65 147
64 147
63 147
62 147
61 148
60 148
59 148
58 148
57 148
56 149
55 149
54 150
53 150
52 151
51 152
50 152
49 152
48 153
47 153
46 153
45 153
44 153
43 153
42 152
41 152
40 151
40 152
40 153
40 154
40 155
40 156
40 157
41 158
40 159
40 160
39 161
39 162
38 163
38 164
38 165
38 166
37 167
37 168
37 169
37 170
37 171
36 172
37 173
37 174
36 175
36 176
36 177
36 178
36 179
37 180
37 181
37 182
37 183
36 184
36 185
37 186
37 187
37 188
37 189
38 190
38 191
38 192
39 193
39 194
39 195
40 196
40 197
41 198
41 199
41 200
42 201
42 202
43 203
43 204
43 205
44 206
44 207
45 208
45 209
46 210
46 211
46 212
47 213
47 214
48 215
49 216
49 217
50 218
51 219
52 220
52 221
53 222
53 223
54 224
55 225
55 226
56 227
57 228
58 229
59 230
60 231
60 232
61 233
62 234
63 235
64 236
65 237
65 238
66 239
66 240
67 241
68 242
69 243
69 244
70 245
71 246
71 247
72 248
73 249
73 250
74 251
75 252
76 253
76 254
77 255
78 256
79 256
80 257
81 257
82 258
83 259
84 259
85 259
86 260
87 261
88 262
88 263
89 264
90 265
91 266
92 267
93 268
94 269
95 270
96 271
97 272
98 273
99 273
100 274
101 275
102 276
103 277
104 278
105 279
105 280
106 280
107 281
108 282
109 283
110 283
111 284
112 284
113 285
114 286
115 286
116 287
117 287
118 288
119 288
120 289
121 289
122 290
123 291
124 291
125 292
126 292
127 293
128 293
129 294
130 294
131 295
132 296
133 297
134 297
135 298
136 298
137 298
138 299
139 299
140 299
141 300
142 301
143 301
144 302
145 302
146 303
147 303
148 304
149 304
150 304
151 304
152 305
153 305
154 305
155 306
156 306
157 307
158 307
159 307
160 308
161 308
162 309
163 309
164 310
165 310
166 310
167 311
168 311
169 311
170 311
171 312
172 312
173 312
174 312
175 313
176 313
177 314
178 314
179 314
180 315
181 315
182 315
183 315
184 316
185 316
186 317
187 317
188 317
189 318
190 318
191 319
192 319
193 320
194 320
195 321
196 321
197 321
198 321
199 322
200 322
201 322
202 322
203 322
204 322
205 322
206 323
207 323
208 323
209 323
210 323
211 323
212 323
213 323
214 323
215 323
216 323
217 323
218 323
219 323
220 323
221 323
222 323
223 323
224 323
225 323
226 323
227 323
228 323
229 323
230 323
231 323
232 323
233 323
234 323
235 323
236 323
237 323
238 323
239 323
240 323
241 323
242 323
243 322
244 322
245 322
246 322
247 322
248 322
249 322
250 322
251 322
252 321
253 321
254 321
255 321
256 321
257 320
258 320
259 320
260 320
261 320
262 320
263 320
264 320
265 319
266 319
267 319
268 319
269 318
270 318
271 318
272 318
273 317
274 317
275 317
276 316
277 316
278 316
279 315
280 315
281 315
282 315
283 314
284 314
285 314
286 313
287 313
288 313
289 312
290 312
291 312
292 311
293 311
294 310
295 310
296 310
297 309
298 308
299 308
300 308
301 307
302 307
303 307
304 307
305 306
306 306
307 305
308 305
309 305
310 304
311 304
312 304
313 304
314 303
315 303
316 303
317 303
318 303
319 303
320 303
321 304
322 304
323 305
324 305
325 306
326 306
327 306
328 307
329 307
330 308
331 308
332 309
333 309
334 310
335 310
336 310
337 311
338 311
339 312
340 312
341 312
342 313
343 313
344 314
345 314
346 314
347 315
348 315
349 316
350 316
351 316
352 317
353 317
354 318
355 318
356 318
357 319
358 319
359 320
360 320
361 320
362 321
363 321
364 322
365 322
366 323
367 323
368 323
369 324
370 324
371 325
372 325
373 325
374 326
375 326
376 327
377 327
378 328
379 328
380 328
381 329
382 330
383 330
384 330
385 331
386 331
387 332
388 332
389 333
390 333
391 334
392 335
391 336
390 337
389 338
388 339
387 339
386 340
385 340
384 340
383 340
382 340
381 340
380 340
379 340
378 340
377 339
376 339
375 339
374 338
373 338
372 338
371 337
370 337
369 337
368 336
367 335
366 335
365 335
364 334
363 333
362 333
361 332
360 332
359 331
358 331
357 330
356 330
355 330
354 330
353 329
352 329
351 329
350 328
349 328
348 328
347 328
346 328
345 327
344 327
343 327
342 327
341 327
340 327
339 327
338 327
337 326
336 326
335 326
334 326
333 326
332 326
331 326
330 326
329 326
328 327
327 327
326 327
325 327
324 327
323 327
322 327
321 327
320 327
319 327
318 328
317 328
316 328
315 328
314 328
313 328
312 328
311 329
310 329
309 329
308 329
307 330
306 330
305 330
304 331
303 331
302 331
301 331
300 332
299 332
298 332
297 332
296 333
295 333
294 333
293 333
292 333
291 333
290 334
289 334
288 334
287 334
286 335
285 335
284 336
283 336
282 336
281 336
280 337
279 337
278 337
277 338
276 338
275 339
274 339
273 339
272 340
271 340
270 341
269 341
268 342
267 342
266 343
265 343
264 344
263 345
262 345
261 346
260 346
259 347
258 348
257 348
256 349
255 349
254 350
253 351
252 352
251 353
250 353
249 354
248 355
247 355
246 356
245 356
244 357
243 357
242 357
241 358
240 359
239 359
238 360
237 361
236 361
235 362
234 363
233 364
232 364
231 365
230 366
229 367
228 368
227 369
226 369
225 370
224 371
223 372
222 372
221 373
220 373
219 374
218 375
217 375
216 376
215 376
214 377
213 378
212 378
211 379
210 379
209 380
208 381
207 382
206 382
205 383
204 384
203 385
202 385
201 386
200 386
199 387
198 388
197 389
196 390
195 391
194 391
193 392
192 393
191 394
190 395
189 395
188 396
187 397
186 398
186 399
185 400
184 401
183 402
182 403
181 404
180 405
180 406
179 407
179 408
178 409
178 410
177 411
177 412
177 413
176 414
176 415
176 416
175 417
174 418
174 419
173 420
172 421
171 422
170 423
170 424
169 425
168 426
167 427
167 428
166 429
166 430
165 431
165 432
164 433
164 434
164 435
163 436
162 437
161 438
161 439
160 440
159 441
158 442
158 443
157 444
157 445
156 446
156 447
155 448
155 449
154 450
154 451
153 452
153 453
152 454
152 455
151 456
151 457
151 458
150 459
150 460
149 461
149 462
148 463
148 464
147 465
146 466
146 467
145 468
145 469
144 470
144 471
143 472
143 473
143 474
143 475
142 476
142 477
142 478
141 479
141 480
141 481
140 482
140 483
140 484
140 485
139 486
139 487
139 488
138 489
138 490
137 491
136 492
135 493
135 494
134 495
133 496
133 497
132 498
131 498
130 499
129 500
128 500
129 501
130 501
131 500
132 501
133 502
134 502
135 503
136 503
137 503
138 503
139 503
140 504
141 504
142 504
143 504
144 504
145 505
146 505
147 506
148 506
149 506
150 506
151 506
152 506
153 507
154 507
155 507
156 507
157 507
158 507
159 507
160 507
161 507
162 507
163 508
164 508
165 508
166 508
167 508
168 508
169 508
170 508
171 509
172 509
173 508
174 508
175 508
176 508
177 508
178 508
179 508
180 508
181 508
182 508
183 508
184 508
185 508
186 508
187 508
188 508
189 508
190 508
191 508
192 508
193 508
194 508
195 508
196 508
197 508
198 508
199 508
200 508
201 508
202 508
203 508
204 508
205 508
206 507
207 507
208 507
209 507
210 507
211 506
212 506
213 506
214 506
215 506
216 505
217 505
218 505
219 505
220 505
221 505
222 505
223 505
224 505
225 505
226 505
227 505
228 504
229 504
230 504
231 504
232 504
233 503
234 503
235 503
236 502
237 502
238 502
239 502
240 501
241 501
242 501
243 500
244 500
245 500
246 500
247 499
248 499
249 499
250 498
251 498
252 497
253 497
254 496
255 496
256 496
257 495
258 494
259 494
260 493
261 492
262 492
263 491
264 491
265 491
266 490
267 490
268 489
269 489
270 488
271 488
272 487
273 487
274 486
275 486
276 485
277 485
278 484
279 484
280 483
281 483
282 482
283 481
284 481
285 480
286 479
287 479
288 478
289 477
290 476
291 476
292 475
293 474
294 473
295 472
296 472
297 471
298 470
299 469
300 468
301 467
302 467
303 466
304 465
305 464
306 463
307 463
308 462
309 461
310 460
311 459
312 459
312 458
313 457
314 457
315 456
316 455
316 454
317 453
318 452
319 451
320 450
321 449
322 448
323 448
324 447
324 446
325 445
326 445
327 444
328 443
329 442
330 441
331 440
332 439
333 438
334 437
335 436
336 435
337 434
338 433
339 432
340 432
341 431
342 430
343 429
344 428
345 427
346 426
347 425
348 425
349 424
350 423
351 422
351 421
352 420
353 419
354 418
355 417
356 416
357 415
358 414
359 413
360 412
360 411
361 410
362 410
362 409
363 408
364 408
364 407
365 406
366 405
367 404
368 403
369 402
370 401
371 400
372 399
373 398
373 397
374 396
375 395
376 394
376 393
377 392
377 391
378 390
378 389
379 388
380 387
381 386
381 385
382 384
383 383
384 382
384 381
385 380
386 379
386 378
387 377
388 376
388 375
389 374
389 373
390 372
390 371
391 370
391 369
392 368
392 367
393 366
393 365
393 364
393 363
393 362
394 361
394 360
394 359
394 358
394 357
395 356
395 355
395 354
395 353
395 352
395 351
395 350
395 349
395 348
394 347
395 346
395 345
395 344
395 343
395 342
395 341
396 340
397 339
398 338
399 338
400 338
401 339
402 339
403 339
404 340
405 340
406 340
407 340
408 341
409 341
410 342
411 342
412 342
413 343
414 343
415 343
416 343
417 344
418 344
419 345
420 345
421 346
422 346
423 346
424 347
425 347
426 348
427 348
428 349
429 349
430 349
431 350
432 350
433 350
434 351
435 351
436 351
437 352
438 352
439 353
440 353
441 354
442 354
443 354
444 355
445 355
446 356
447 356
448 356
449 357
450 357
451 358
452 358
453 358
454 359
455 359
456 360
457 360
458 360
459 361
460 361
461 362
462 362
463 362
464 363
465 363
466 364
467 364
468 364
469 365
470 365
471 366
472 366
473 366
474 367
475 367
476 367
477 368
478 368
479 369
480 369
481 370
482 370
483 370
484 371
485 371
486 372
487 372
488 372
489 373
490 373
491 374
492 374
493 374
494 375
495 375
496 375
497 376
498 376
499 377
500 377
501 377
502 378
503 378
504 378
505 379
506 379
507 380
508 380
509 380
510 381
511 381
512 382
513 383
513 384
513 385
513 386
513 387
512 388
512 389
511 390
510 390
509 391
508 391
507 391
506 391
505 391
504 391
503 391
502 391
501 391
500 391
499 391
498 390
497 390
496 390
495 389
494 389
493 389
492 389
491 389
490 389
489 389
488 389
487 389
486 389
485 389
484 389
483 389
482 389
481 389
480 389
479 389
478 389
477 389
476 389
475 389
474 390
473 390
472 390
471 391
470 391
469 391
468 392
467 392
466 393
465 393
464 394
463 394
462 394
461 395
460 395
459 395
458 396
457 396
456 397
455 397
454 398
453 398
452 398
451 399
450 399
449 400
448 400
447 401
446 401
445 402
444 402
443 403
442 403
441 404
440 405
439 406
438 406
437 407
436 408
435 409
434 410
433 410
432 411
431 412
430 413
429 414
428 415
427 415
426 416
425 417
424 418
423 419
422 420
421 421
420 422
420 423
419 424
418 425
417 426
416 427
415 428
414 429
413 430
413 431
412 432
411 433
410 434
410 435
409 436
408 437
407 438
407 439
406 440
405 441
404 442
403 443
403 444
403 445
402 446
401 447
401 448
400 449
400 450
399 451
398 452
398 453
397 454
397 455
396 456
395 457
395 458
394 459
394 460
393 461
393 462
393 463
392 464
392 465
391 466
391 467
391 468
390 469
390 470
390 471
389 472
389 473
388 474
388 475
387 476
387 477
386 478
386 479
386 480
385 481
385 482
385 483
384 484
384 485
384 486
383 487
383 488
383 489
383 490
383 491
383 492
383 493
382 494
382 495
382 496
382 497
382 498
381 499
381 500
381 501
381 502
381 503
381 504
381 505
381 506
381 507
381 508
381 509
381 510
381 511
380 512
379 513
378 513
377 514
377 515
377 516
377 517
377 518
376 519
376 520
376 521
375 522
375 523
375 524
375 525
375 526
374 527
374 528
374 529
374 530
374 531
374 532
374 533
374 534
374 535
375 535
376 535
377 535
378 535
379 536
380 537
381 537
382 537
383 537
384 538
385 539
385 540
385 541
384 542
383 543
383 544
383 545
383 546
382 547
381 547
380 547
379 547
378 547
377 547
376 546
375 546
374 546
374 547
374 548
375 549
374 550
375 551
375 552
375 553
375 554
375 555
376 556
376 557
376 558
376 559
377 560
377 561
377 562
377 563
377 564
378 565
378 566
378 567
378 568
378 569
379 570
379 571
380 572
380 573
380 574
381 575
381 576
381 577
382 578
383 578
384 577
385 576
386 576
387 575
388 575
389 575
390 574
391 574
392 573
393 573
394 573
395 572
396 572
397 572
398 572
399 572
400 572
401 571
402 571
403 571
404 571
405 570
406 570
407 570
408 570
409 570
410 570
411 569
412 569
413 569
414 568
415 568
416 568
417 567
418 566
419 566
420 566
421 565
422 565
423 564
424 564
425 564
426 563
427 563
428 564
429 564
430 564
431 564
432 564
433 563
434 563
435 563
436 562
437 562
438 561
439 561
440 561
441 560
442 560
443 560
444 560
445 560
446 559
447 559
448 559
449 558
450 558
451 558
452 557
453 556
454 556
455 555
456 554
457 553
458 553
459 552
460 551
461 551
462 550
463 549
464 549
465 548
466 548
467 547
468 546
469 545
470 544
471 544
472 543
472 542
473 541
474 541
475 540
476 539
477 538
478 537
479 536
480 535
480 534
481 533
482 532
482 531
483 530
483 529
484 528
485 527
486 526
486 525
487 524
488 523
489 522
489 521
490 520
491 519
492 518
492 517
493 516
494 515
494 514
495 513
495 512
496 511
496 510
497 509
498 508
498 507
499 506
500 505
500 504
500 503
501 502
501 501
502 500
503 499
503 498
504 497
504 496
505 495
505 494
506 493
507 492
508 491
508 490
509 489
510 488
510 487
511 486
511 485
512 484
512 483
513 482
513 481
514 480
514 479
515 478
515 477
516 476
516 475
516 474
517 473
517 472
517 471
518 470
518 469
518 468
518 467
519 466
519 465
519 464
519 463
520 462
520 461
520 460
520 459
520 458
521 457
521 456
521 455
521 454
522 453
522 452
522 451
523 450
523 449
524 448
524 447
525 446
525 445
525 444
525 443
526 442
526 441
526 440
527 439
527 438
528 437
528 436
528 435
528 434
529 433
529 432
529 431
529 430
530 429
530 428
530 427
530 426
530 425
530 424
530 423
530 422
530 421
530 420
530 419
530 418
530 417
531 416
530 415
530 414
530 413
530 412
530 411
529 410
529 409
529 408
529 407
529 406
529 405
529 404
529 403
529 402
528 401
527 400
526 400
525 399
524 398
523 397
522 396
521 395
520 394
520 393
519 392
519 391
519 390
519 389
520 388
521 387
522 387
523 387
524 387
525 388
526 388
527 388
528 388
529 389
530 389
531 389
532 390
533 390
534 390
535 391
536 391
537 391
538 392
539 392
540 392
541 393
542 393
543 393
544 394
545 394
546 394
547 395
548 395
549 396
550 396
551 396
552 397
553 397
554 397
555 398
556 398
557 398
558 399
559 399
560 399
561 400
562 400
563 401
564 401
565 401
566 402
567 402
568 403
569 403
570 403
571 404
572 404
573 404
574 405
575 405
576 405
577 406
578 406
579 406
580 407
581 407
582 408
583 408
584 408
585 409
586 409
587 409
588 410
589 410
590 411
591 411
592 411
593 412
594 412
595 413
596 413
597 413
598 414
599 414
600 415
601 415
602 416
603 416
604 417
604 418
604 419
604 420
603 421
602 422
601 422
600 422
599 423
598 423
597 423
596 424
595 425
594 426
594 427
593 428
593 429
592 430
591 431
590 431
589 432
588 433
588 434
587 435
587 436
587 437
587 438
587 439
588 439
589 440
588 441
587 442
586 442
586 443
586 444
586 443
587 442
588 443
588 444
588 445
588 446
588 447
589 448
589 449
588 450
587 449
586 448
586 449
586 450
586 451
586 452
586 453
586 454
587 455
587 456
588 457
589 458
589 459
589 460
589 461
589 462
590 463
591 464
592 465
593 466
594 467
594 468
594 469
595 468
595 467
596 466
597 465
598 464
599 463
600 464
601 464
602 464
602 463
603 462
604 462
605 462
606 462
607 463
607 464
606 465
606 466
606 467
607 466
608 467
609 468
609 469
610 470
611 471
612 471
613 472
614 471
614 470
615 469
616 469
617 468
618 468
619 467
619 466
619 465
619 464
618 463
618 462
618 461
617 460
617 459
616 458
615 457
614 456
614 455
614 454
614 453
615 452
616 452
617 452
618 452
619 452
620 452
621 452
622 452
623 451
623 450
624 449
625 449
624 448
624 447
625 446
626 446
626 445
626 444
626 443
625 442
625 441
625 440
625 439
624 438
624 437
623 436
623 435
622 434
622 433
621 432
621 431
621 430
620 429
620 428
619 427
618 426
617 425
618 424
619 424
620 424
621 425
622 425
623 425
624 425
625 426
626 426
627 427
628 427
629 427
630 428
631 428
632 428
633 428
634 429
635 430
636 430
637 431
638 431
639 431
640 431
641 432
642 432
643 433
644 433
645 434
646 434
647 434
648 435
649 435
650 436
651 436
652 437
653 437
654 437
655 437
656 438
657 438
658 439
659 439
660 440
661 440
662 441
663 442
664 442
665 443
666 443
667 444
668 444
669 444
670 445
671 445
672 445
673 446
674 446
675 447
676 447
677 448
678 448
679 449
680 449
681 449
682 450
683 450
684 451
685 452
686 452
687 452
688 452
689 453
690 454
691 455
692 455
693 456
694 456
695 457
696 457
697 456
698 457
698 458
699 458
700 459
701 459
702 460
703 460
704 460
705 460
706 461
706 462
707 462
708 463
709 463
710 464
711 464
712 465
713 465
714 466
715 467
716 467
717 468
718 468
719 468
720 468
721 469
720 470
721 470
722 470
723 470
724 471
725 472
726 472
727 473
728 474
729 474
730 475
731 476
732 477
733 477
734 478
735 479
736 480
737 481
738 482
739 482
740 483
741 484
742 485
743 486
744 487
745 488
746 488
747 489
748 489
749 489
750 489
751 490
752 490
753 489
754 488
754 487
754 486
754 485
755 484
755 483
755 482
755 481
755 480
756 479
756 478
756 477
756 476
756 475
756 474
756 473
755 472
755 471
754 470
753 470
752 469
751 469
750 469
749 470
748 469
747 469
746 468
745 468
744 467
743 466
742 466
741 466
740 465
739 465
738 465
737 465
736 464
735 464
734 463
733 463
732 462
731 462
730 461
729 461
728 460
727 460
726 460
725 459
724 459
723 458
722 458
721 458
720 457
719 457
718 456
717 456
716 455
715 455
714 455
713 454
712 454
711 453
710 453
709 453
708 452
707 452
706 451
705 451
704 451
703 450
702 450
701 449
700 449
699 448
698 448
697 448
696 447
695 447
694 446
693 446
692 445
691 445
690 445
689 444
688 444
687 443
686 443
685 442
684 442
683 441
682 441
681 441
680 440
679 440
678 439
677 439
676 438
675 438
674 438
673 437
672 436
671 436
670 436
669 435
668 435
667 435
666 434
665 434
664 433
663 433
662 432
661 432
660 431
659 431
658 431
657 430
656 430
655 429
654 429
653 428
652 428
651 428
650 427
649 427
648 427
647 426
646 426
645 425
644 425
643 425
642 424
641 424
640 423
639 423
638 422
637 421
636 420
635 419
636 418
637 418
638 417
639 417
640 417
641 416
642 416
643 416
644 416
645 416
646 416
647 415
648 415
649 415
650 415
651 415
652 415
653 415
654 414
655 414
656 414
657 414
658 414
659 414
660 413
661 413
662 413
663 412
664 412
665 411
666 411
667 410
668 410
669 410
670 409
671 409
672 408
673 407
674 406
675 406
676 405
677 405
678 404
679 403
680 402
680 401
681 400
682 400
683 399
684 398
685 397
686 396
687 395
688 395
688 394
689 393
690 392
691 391
692 390
693 389
693 388
694 387
694 386
695 385
696 384
696 383
697 382
697 381
697 380
698 379
698 378
698 377
699 376
699 375
699 374
699 373
699 372
699 371
700 370
700 369
699 368
699 367
699 366
699 365
699 364
698 363
697 362
696 361
695 360
694 360
693 359
692 358
691 357
690 357
689 356
688 356
687 355
686 355
685 355
684 354
683 354
682 354
681 354
680 353
679 353
678 353
677 353
676 352
675 352
674 352
673 351
672 350
671 350
670 350
669 350
668 349
667 349
666 349
665 349
664 348
663 348
662 348
661 348
660 348
659 348
658 348
657 348
656 347
655 347
654 347
653 347
652 347
651 347
650 347
649 347
648 346
647 346
646 346
645 346
644 346
643 346
642 346
641 346
640 346
639 346
638 346
637 347
636 347
635 347
634 348
633 348
632 348
631 348
630 349
629 349
628 349
627 349
626 350
625 350
624 351
623 351
622 352
621 352
620 353
619 353
618 354
617 354
616 355
615 356
614 357
613 358
612 359
611 360
610 360
609 361
608 362
607 363
606 364
606 365
605 366
604 367
604 368
603 369
602 370
602 371
601 372
601 373
600 374
600 375
600 376
599 377
599 378
598 379
598 380
598 381
598 382
598 383
598 384
598 385
598 386
599 387
599 388
599 389
600 390
600 391
600 392
601 393
601 394
602 395
603 396
603 397
604 398
605 399
605 400
606 401
607 402
608 403
609 404
610 405
610 406
610 407
610 408
609 409
609 410
608 411
607 411
606 411
605 410
604 410
603 410
602 410
601 409
600 409
599 409
598 408
597 408
596 407
595 407
594 407
593 407
592 406
591 406
590 406
589 406
588 405
587 405
586 404
585 404
584 404
583 403
582 403
581 403
580 402
579 402
578 401
577 401
576 401
575 400
574 400
573 400
572 399
571 399
570 398
569 398
568 397
567 397
566 397
565 396
564 396
563 396
562 395
561 395
560 394
559 394
558 394
557 393
556 393
555 393
554 392
553 392
552 391
551 391
550 390
549 390
548 390
547 389
546 389
545 388
544 388
543 387
542 387
541 387
540 386
539 386
538 385
537 385
536 385
535 384
534 383
533 382
533 381
532 380
532 379
532 378
532 377
532 376
532 375
532 374
532 373
533 372
534 372
535 371
536 371
537 371
538 371
539 371
540 371
541 371
542 371
543 371
544 371
545 370
546 370
547 369
548 369
549 369
550 368
551 368
552 367
553 366
554 366
555 365
556 364
556 363
557 362
558 361
559 360
559 359
560 358
560 357
561 356
561 355
562 354
562 353
563 352
563 351
564 350
565 349
565 348
565 347
565 346
566 345
567 344
567 343
568 342
569 341
570 340
570 339
571 338
571 337
572 336
572 335
573 334
574 333
574 332
575 331
575 330
576 329
576 328
577 327
577 326
578 325
578 324
579 323
579 322
579 321
580 320
581 319
582 318
582 317
583 316
583 315
584 314
584 313
585 312
585 311
585 310
586 309
586 308
586 307
587 306
587 305
588 304
588 303
588 302
588 301
588 300
588 299
589 298
589 297
589 296
590 295
590 294
591 293
591 292
591 291
592 290
592 289
592 288
592 287
593 286
593 285
593 284
594 283
594 282
594 281
594 280
594 279
594 278
594 277
595 276
595 275
595 274
595 273
596 272
596 271
596 270
596 269
596 268
596 267
596 266
596 265
596 264
596 263
596 262
596 261
596 260
596 259
597 258
597 257
597 256
597 255
597 254
596 253
597 252
597 251
597 250
597 249
597 248
597 247
597 246
597 245
597 244
597 243
597 242
597 241
597 240
596 239
596 238
596 237
596 236
596 235
596 234
596 233
596 232
596 231
596 230
596 229
596 228
595 227
595 226
595 225
595 224
595 223
595 222
595 221
595 220
595 219
595 218
594 217
594 216
594 215
594 214
594 213
594 212
594 211
594 210
593 209
593 208
593 207
593 206
593 205
593 204
593 203
593 202
593 201
593 200
593 199
593 198
593 197
592 196
592 195
592 194
592 193
591 192
591 191
591 190
591 189
591 188
590 187
590 186
590 185
590 184
589 183
589 182
589 181
588 180
588 179
588 178
587 177
586 176
586 175
586 174
585 173
585 172
584 171
584 170
583 169
582 168
582 167
581 166
580 165
580 164
579 163
579 162
578 161
577 160
576 159
576 158
575 157
574 156
574 155
573 154
572 153
572 152
571 151
570 150
569 149
568 148
568 147
567 146
567 145
566 145
565 144
565 143
564 142
564 141
563 141
562 140
561 139
560 138
559 138
558 137
557 136
556 135
556 134
555 133
554 132
554 131
553 130
552 129
551 129
550 129
549 130
548 131
547 132
546 133
545 134
544 135
543 135
542 135
541 135
540 135
539 136
538 136
537 136
536 136
535 137
534 138
533 138
532 139
531 139
530 139
529 139
528 140
527 140
526 141
525 141
524 142
523 143
522 143
521 144
520 145
519 145
518 146
517 146
516 147
515 148
514 149
513 150
513 151
512 152
511 153
511 154
510 155
509 156
509 157
508 158
508 159
507 160
506 161
506 162
505 163
504 164
503 165
502 166
502 167
501 168
500 169
499 170
498 171
497 172
496 173
496 174
495 175
495 176
494 177
493 178
492 179
491 180
490 181
489 182
488 183
488 184
487 185
486 186
486 187
485 188
485 189
484 190
484 191
483 192
482 193
481 193
481 194
480 195
479 196
478 197
477 198
477 199
476 200
476 201
475 202
475 203
474 204
474 205
473 206
473 207
472 208
471 209
471 210
470 211
470 212
470 213
469 214
469 215
468 216
468 217
467 218
467 219
467 220
467 221
466 222
466 223
466 224
465 225
465 226
465 227
464 228
464 229
464 230
463 231
463 232
463 233
463 234
462 235
462 236
462 237
461 238
461 239
461 240
460 241
460 242
460 243
459 244
459 245
459 246
458 247
458 248
458 249
458 250
458 251
458 252
458 253
458 254
458 255
458 256
458 257
458 258
458 259
458 260
458 261
458 262
457 263
457 264
457 265
457 266
457 267
457 268
457 269
457 270
457 271
457 272
457 273
457 274
457 275
457 276
457 277
457 278
457 279
457 280
457 281
457 282
457 283
457 284
457 285
457 286
457 287
457 288
457 289
457 290
457 291
458 292
458 293
458 294
459 295
459 296
459 297
459 298
459 299
460 300
460 301
460 302
460 303
460 304
460 305
461 306
461 307
461 308
461 309
462 310
462 311
462 312
463 313
463 314
464 315
464 316
464 317
465 318
465 319
465 320
466 321
466 322
467 323
467 324
467 325
468 326
468 327
468 328
469 329
469 330
469 331
470 332
470 333
471 334
471 335
472 336
472 337
473 338
473 339
474 340
475 341
476 342
477 343
477 344
478 345
479 346
480 347
481 348
482 349
483 350
484 351
485 352
486 353
487 354
488 355
489 356
490 357
491 358
492 359
493 359
494 360
495 360
496 361
497 362
498 362
499 362
500 363
501 363
502 363
503 364
504 364
505 364
506 364
507 365
508 365
509 365
510 365
511 366
512 366
513 366
514 367
515 367
516 367
517 367
518 368
519 368
520 368
521 369
522 369
523 370
523 371
524 372
525 373
525 374
525 375
525 376
525 377
525 378
524 379
523 380
522 380
521 380
520 380
519 379
518 379
517 379
516 379
515 378
514 378
513 377
512 377
511 377
510 376
509 376
508 376
507 375
506 375
505 375
504 374
503 374
502 373
501 373
500 373
499 372
498 372
497 372
496 371
495 371
494 370
493 370
492 370
491 369
490 369
489 369
488 368
487 368
486 367
485 367
484 367
483 366
482 366
481 365
480 365
479 365
478 364
477 364
476 363
475 363
474 362
473 362
472 362
471 362
470 361
469 361
468 360
467 360
466 360
465 359
464 359
463 358
462 358
461 357
460 357
459 357
458 356
457 356
456 356
455 355
454 355
453 354
452 354
451 354
450 353
449 353
448 352
447 352
446 351
445 351
444 351
443 350
442 350
441 350
440 349
439 349
438 348
437 348
436 347
435 347
434 347
433 346
432 346
431 345
430 345
429 344
428 344
427 343
426 343
425 343
424 342
423 342
422 341
421 341
420 340
419 340
418 339
417 339
416 338
415 338
414 337
413 337
412 336
412 335
411 334
411 333
411 332
411 331
411 330
411 329
411 328
411 327
411 326
412 325
413 324
414 323
415 323
416 322
417 321
418 321
419 320
420 320
421 319
422 319
423 318
424 317
425 317
426 316
427 315
428 315
429 314
430 313
431 312
432 311
433 310
433 309
434 308
435 307
436 306
436 305
436 304
437 303
437 302
438 301
438 300
439 299
439 298
440 297
440 296
440 295
440 294
441 293
441 292
441 291
441 290
442 289
442 288
442 287
442 286
443 285
443 284
443 283
443 282
443 281
443 280
444 279
444 278
444 277
444 276
444 275
444 274
444 273
444 272
444 271
444 270
444 269
445 268
445 267
445 266
445 265
445 264
445 263
445 262
445 261
445 260
445 259
446 258
446 257
446 256
446 255
446 254
446 253
446 252
446 251
446 250
447 249
447 248
448 247
448 246
448 245
449 244
449 243
449 242
449 241
450 240
450 239
450 238
450 237
450 236
450 235
450 234
450 233
451 232
451 231
451 230
451 229
452 228
452 227
452 226
452 225
453 224
453 223
453 222
453 221
454 220
454 219
454 218
454 217
455 216
455 215
455 214
455 213
455 212
455 211
455 210
456 209
456 208
456 207
456 206
456 205
457 204
457 203
457 202
457 201
457 200
457 199
457 198
457 197
457 196
457 195
458 194
458 193
458 192
458 191
458 190
458 189
458 188
458 187
458 186
458 185
458 184
458 183
458 182
458 181
458 180
458 179
458 178
457 177
457 176
457 175
457 174
457 173
457 172
457 171
457 170
457 169
457 168
457 167
457 166
456 165
456 164
457 163
457 162
457 161
457 160
457 159
457 158
457 157
457 156
457 155
457 154
457 153
457 152
457 151
457 150
457 149
457 148
456 147
456 146
456 145
455 144
454 143
454 142
454 141
454 140
454 139
454 138
454 137
454 136
454 135
454 134
454 133
453 132
453 131
453 130
452 129
452 128
451 127
451 126
451 125
451 124
450 123
450 122
450 121
449 120
449 119
449 118
449 117
449 116
448 115
448 114
448 113
447 112
447 111
447 110
447 109
446 108
446 107
446 106
446 105
446 104
446 103
445 102
445 101
444 100
444 99
444 98
443 97
443 96
443 95
443 94
442 93
442 92
442 91
441 90
441 89
440 88
440 87
439 86
439 85
438 84
438 83
437 82
437 81
436 80
436 79
435 78
435 77
434 76
434 75
433 74
433 73
432 72
431 71
431 70
430 69
430 68
429 67
429 66
428 65
428 64
427 63
427 62
426 61
425 60
425 59
424 58
424 57
423 56
422 55
421 54
420 53
419 52
419 51
418 50
417 49
416 48
415 47
414 46
414 45
413 44
412 43
411 42
410 41
409 40
408 39
407 38
406 37
405 36
404 36
403 35
402 34
401 34
400 33
399 32
398 32
397 31
396 31
395 30
394 29
393 29
392 28
391 27
390 27
389 26
388 26
387 25
386 25
385 24
384 24
383 23
382 23
381 23
380 23
379 22
378 22
377 22
376 21
375 21
374 20
373 20
372 20
371 19
370 19
369 19
368 19
367 19
366 19
365 19
364 19
363 19
362 19
361 19
360 19
359 19
358 19
357 18
356 18
355 17
354 17
353 16
352 15
351 15
