452 95
451 96
450 96
449 96
448 96
447 96
446 96
445 96
444 96
443 96
442 96
441 96
440 96
439 97
438 97
437 97
436 97
435 97
434 97
433 98
432 98
431 98
430 98
429 98
428 99
427 99
426 99
425 99
424 100
423 100
422 100
421 100
420 100
419 101
418 101
417 101
416 101
415 101
414 102
413 102
412 102
411 102
410 102
409 103
408 102
407 102
406 102
405 102
404 103
403 103
402 103
401 103
400 103
399 103
398 103
397 104
396 104
395 104
394 104
393 104
392 104
391 104
390 104
389 104
388 105
387 105
386 105
385 105
384 106
383 106
382 106
381 106
380 106
379 106
378 106
377 106
376 106
375 106
374 106
373 106
372 106
371 106
370 106
369 106
368 106
367 106
366 106
365 106
364 106
363 106
362 106
361 105
360 105
359 105
358 105
357 105
356 105
355 105
354 105
353 105
352 104
351 104
350 104
349 104
348 104
347 104
346 104
345 104
344 104
343 104
342 104
341 104
340 104
339 104
338 104
337 104
336 104
335 104
334 104
333 104
332 104
331 104
330 103
329 103
328 103
327 103
326 103
325 103
324 103
323 103
322 103
321 103
320 103
319 103
318 103
317 103
316 103
315 103
314 103
313 103
312 103
311 103
310 103
309 103
308 104
307 104
306 104
305 104
304 104
303 104
302 104
301 104
300 105
299 105
298 105
297 105
296 105
295 106
294 106
293 106
292 106
291 106
290 106
289 107
288 107
287 107
286 107
285 107
284 107
283 107
282 108
281 108
280 108
279 108
278 108
277 108
276 108
275 109
274 109
273 109
272 109
271 109
270 109
269 109
268 109
267 109
266 109
265 109
264 109
263 109
262 109
261 110
260 110
259 110
258 110
257 110
256 111
255 111
254 111
253 111
252 112
251 112
250 112
249 113
248 113
247 113
246 113
245 113
244 114
243 114
242 114
241 114
240 114
239 114
238 114
237 115
236 115
235 115
234 115
233 115
232 115
231 115
230 115
229 116
228 116
227 116
226 117
225 117
224 117
223 118
222 118
221 118
220 118
219 119
218 119
217 119
216 119
215 119
214 119
213 120
212 120
211 120
210 120
209 121
208 121
207 121
206 121
205 122
204 122
203 123
202 123
201 123
200 123
199 123
198 124
197 124
196 125
195 125
194 125
193 126
192 126
191 127
190 127
189 127
188 127
187 128
186 129
185 129
184 129
183 129
182 130
181 130
180 130
179 131
178 131
177 131
176 132
175 132
174 132
173 133
172 133
171 134
170 134
169 134
168 134
167 134
166 135
165 135
164 136
163 136
162 136
161 137
160 137
159 138
158 138
157 139
156 139
155 140
154 140
153 141
152 141
151 142
150 142
149 142
148 143
147 143
146 144
145 144
144 145
143 145
142 146
141 146
140 147
139 147
138 148
137 148
136 149
135 149
134 150
133 150
132 151
131 151
130 152
129 152
128 153
127 154
126 154
125 155
124 156
123 156
122 157
121 157
120 158
119 159
118 160
117 160
116 161
115 162
114 163
113 164
112 164
111 165
110 166
109 167
108 168
107 169
106 169
105 170
104 171
103 171
102 172
101 172
100 172
99 173
98 173
97 174
96 175
95 175
94 176
94 177
94 178
94 179
95 180
96 180
97 181
98 182
99 182
100 183
101 183
102 184
103 185
103 186
104 187
103 188
103 189
103 190
104 191
103 192
104 193
105 193
106 194
107 195
108 196
109 197
110 197
111 197
112 198
113 199
114 199
115 199
116 200
117 201
118 202
119 203
120 203
121 204
122 205
123 206
124 206
125 207
126 208
127 208
128 209
129 210
130 211
131 211
132 212
133 212
134 213
135 214
136 214
137 215
138 215
139 216
140 217
141 217
142 218
143 218
144 218
145 219
146 219
147 220
148 221
149 221
150 221
151 222
152 222
153 223
154 223
155 224
156 224
157 225
158 225
159 226
160 226
161 226
162 226
163 227
164 227
165 228
166 228
167 228
168 229
169 229
170 229
171 230
172 230
173 230
174 230
175 231
176 231
177 232
178 232
179 232
180 233
181 233
182 233
183 234
184 234
185 234
186 234
187 235
188 235
189 235
190 235
191 236
192 237
193 237
194 237
195 238
196 238
197 238
198 239
199 239
200 239
201 239
202 240
203 240
204 240
205 240
206 241
207 241
208 241
209 241
210 242
211 242
212 242
213 243
214 243
215 243
216 243
217 244
218 244
219 245
220 245
221 245
222 245
223 246
224 246
225 246
226 246
227 247
228 247
229 247
230 248
231 248
232 248
233 248
234 248
235 249
236 249
237 249
238 249
239 249
240 249
241 250
242 250
243 250
244 250
245 250
246 250
247 251
248 251
249 251
250 251
251 251
252 251
253 251
254 251
255 252
256 252
257 252
258 252
259 252
260 252
261 253
262 253
263 253
264 253
265 253
266 253
267 254
268 254
269 254
270 254
271 254
272 255
273 255
274 255
275 255
276 255
277 255
278 256
279 256
280 256
281 256
282 256
283 256
284 256
285 257
286 257
287 257
288 257
289 257
290 257
291 257
292 258
293 258
294 258
295 258
296 258
297 258
298 259
299 259
300 259
301 259
302 259
303 260
304 260
305 260
306 260
307 260
308 261
309 261
310 261
311 262
312 262
313 262
314 263
315 263
316 263
317 264
318 264
319 264
320 265
321 265
322 265
323 266
324 266
325 266
326 267
327 267
328 268
329 268
330 269
331 269
332 269
333 269
334 270
335 270
336 270
337 270
338 270
339 270
340 271
341 271
342 271
343 271
344 272
345 272
346 272
347 272
348 272
349 272
350 272
351 272
352 272
353 273
354 273
355 273
356 273
357 273
358 273
359 273
360 273
361 273
362 273
363 273
364 273
365 273
366 274
367 274
368 274
369 274
370 274
371 274
372 274
373 274
374 274
375 274
376 274
377 275
378 275
379 275
380 275
381 275
382 275
383 275
384 275
385 275
386 276
387 276
388 276
389 276
390 276
391 277
392 277
393 277
394 277
395 278
396 278
397 278
398 278
399 279
400 279
401 279
402 279
403 279
404 280
405 280
406 280
407 280
408 281
409 281
410 281
411 282
412 282
413 282
414 282
415 282
416 283
417 283
418 283
419 283
420 283
421 284
422 284
423 284
424 284
425 284
426 284
427 284
428 284
429 284
430 284
431 284
432 284
433 285
434 285
435 285
436 285
437 285
438 285
439 285
440 285
441 285
442 285
443 285
444 285
445 285
446 285
447 285
448 285
449 285
450 285
451 285
452 285
453 285
454 285
455 285
456 285
457 285
458 285
459 285
460 285
461 285
462 285
463 285
464 285
465 285
466 285
467 285
468 285
469 285
470 285
471 285
472 285
473 285
474 285
475 285
476 285
477 285
478 285
479 284
480 284
481 284
482 285
483 285
484 284
485 284
486 284
487 284
488 284
489 284
490 284
491 285
492 284
493 284
494 284
495 284
496 284
497 284
498 284
499 284
500 284
501 284
502 284
503 284
504 284
505 284
506 284
507 284
508 284
509 284
510 284
511 284
512 284
513 284
514 284
515 284
516 284
517 284
518 284
519 284
520 284
521 284
522 284
523 284
524 285
525 284
526 284
527 284
528 284
529 284
530 284
531 284
532 284
533 284
534 284
535 284
536 284
537 284
538 284
539 284
540 284
541 284
542 284
543 284
544 284
545 284
546 284
547 284
548 284
549 284
550 284
551 284
552 284
553 283
554 283
555 283
556 283
557 283
558 283
559 283
560 283
561 283
562 283
563 283
564 283
565 283
566 283
567 283
568 282
569 282
570 282
571 282
572 282
573 282
574 282
575 282
576 282
577 281
578 281
579 281
580 281
581 281
582 280
583 280
584 280
585 280
586 280
587 280
588 280
589 279
590 279
591 279
592 279
593 278
594 278
595 278
596 278
597 278
598 278
599 277
600 277
601 277
602 276
603 276
604 276
605 275
606 275
607 275
608 274
609 274
610 273
611 273
612 273
613 273
614 272
615 272
616 272
617 271
618 271
619 271
620 270
621 270
622 270
623 269
624 269
625 268
626 267
627 267
628 267
629 266
630 266
631 265
632 264
633 264
634 264
635 263
636 262
637 262
638 262
639 261
640 260
641 260
642 260
643 259
644 258
645 258
646 257
647 257
648 257
649 256
650 255
651 255
652 254
653 254
654 253
655 253
655 252
656 251
657 251
658 251
659 250
660 249
661 249
662 248
663 248
664 247
665 247
665 246
666 245
667 245
668 245
668 244
669 243
670 242
671 242
672 241
673 242
673 241
674 240
675 239
676 239
677 238
678 238
679 237
680 236
681 236
682 235
683 234
684 234
685 234
686 234
687 233
688 232
689 231
690 231
691 230
692 230
693 229
694 229
695 228
696 227
697 227
698 226
699 226
700 225
701 225
702 224
703 224
704 223
705 222
706 222
707 221
708 221
709 220
710 220
711 219
712 218
713 217
714 217
715 217
716 216
717 215
718 214
719 214
720 213
721 213
722 212
723 211
724 210
725 210
726 209
727 208
728 207
729 207
730 206
731 205
732 204
733 204
734 203
735 202
736 202
736 201
737 200
738 200
739 199
740 198
740 197
741 196
742 195
743 194
744 193
745 192
746 191
746 190
747 189
747 188
748 187
748 186
749 185
750 184
751 183
752 182
753 181
754 181
754 180
755 179
756 178
757 177
757 176
758 175
759 174
759 173
759 172
759 171
759 170
758 169
758 168
758 167
757 167
756 167
755 167
754 167
753 167
752 166
751 166
750 166
749 166
748 165
747 164
746 163
745 162
744 161
744 160
743 159
742 158
741 157
740 156
739 155
738 154
737 153
736 152
735 151
734 150
733 150
732 149
731 149
730 148
729 147
728 146
727 146
726 145
725 145
724 144
723 144
722 143
721 142
720 142
719 141
718 140
717 140
716 140
715 139
714 139
713 138
712 138
711 137
710 136
709 136
708 135
707 135
706 134
705 134
704 133
703 133
702 132
701 131
700 131
699 131
698 130
697 129
696 129
695 129
694 128
693 127
692 127
691 126
690 126
689 126
688 125
687 124
686 124
685 123
684 123
683 123
682 122
681 122
680 121
679 121
678 121
677 120
676 120
675 120
674 119
673 119
672 118
671 118
670 117
669 117
668 117
667 116
666 116
665 115
664 115
663 115
662 115
661 114
660 114
659 114
658 113
657 113
656 113
655 113
654 112
653 112
652 112
651 112
650 112
649 111
648 111
647 111
646 111
645 110
644 110
643 110
642 109
641 109
640 109
639 109
638 109
637 109
636 109
635 108
634 108
633 108
632 108
631 108
630 108
629 108
628 108
627 108
626 107
625 107
624 107
623 107
622 107
621 106
620 106
619 106
618 105
617 105
616 105
615 105
614 105
613 104
612 104
611 104
610 104
609 104
608 104
607 104
606 103
605 103
604 103
603 103
602 103
601 102
600 102
599 102
598 102
597 101
596 101
595 101
594 101
593 101
592 101
591 100
590 100
589 100
588 100
587 100
586 100
585 100
584 100
583 100
582 100
581 100
580 100
579 100
578 100
577 100
576 100
575 100
574 100
573 100
572 100
571 100
570 100
569 100
568 100
567 100
566 100
565 100
564 100
563 100
562 100
561 100
560 99
559 99
558 99
557 99
556 100
555 100
554 100
553 100
552 100
551 100
550 100
549 99
548 99
547 99
546 99
545 99
544 99
543 99
542 99
541 99
540 99
539 99
538 98
537 98
536 98
535 98
534 98
533 98
532 98
531 98
530 98
529 98
528 98
527 98
526 98
525 98
524 98
523 98
522 98
521 98
520 98
519 98
518 98
517 98
516 97
515 97
514 97
513 97
512 97
511 97
510 97
509 97
508 97
507 97
506 97
505 97
504 96
503 96
502 96
501 96
500 96
499 96
498 96
497 95
496 95
495 95
494 95
493 95
492 95
491 95
490 95
489 95
488 95
487 95
486 95
485 95
484 96
483 96
482 96
481 96
480 96
479 95
478 95
477 95
476 95
475 95
474 95
473 95
472 95
471 95
470 95
469 95
468 95
467 95
466 95
465 95
464 95
463 95
462 95
461 95
460 95
459 95
458 96
457 96
456 95
455 95
454 95
453 95
452 95
