29 196
29 197
29 198
29 199
29 200
29 201
29 202
29 203
29 204
29 205
29 206
29 207
29 208
30 208
31 209
32 209
33 210
34 210
35 211
35 212
36 213
36 214
37 215
37 216
38 216
39 217
40 217
41 218
42 218
43 219
43 220
44 221
44 222
44 223
44 224
44 225
44 226
43 227
43 228
42 229
42 230
41 231
41 232
41 233
41 234
41 235
41 236
41 237
41 238
41 239
42 240
43 240
44 240
45 240
46 240
47 241
48 241
49 242
50 242
51 243
51 244
52 245
53 246
54 247
55 248
56 249
56 250
57 251
57 252
57 253
57 254
58 255
59 255
60 256
61 256
62 257
63 257
64 258
65 258
66 259
67 260
68 261
69 262
69 263
70 264
70 265
70 266
70 267
70 268
70 269
70 270
70 271
70 272
71 273
72 273
73 273
74 274
75 274
76 275
77 275
78 276
79 276
80 276
81 277
82 277
83 278
84 278
85 279
85 280
86 281
86 282
87 283
87 284
87 285
88 285
89 286
90 287
90 288
91 289
91 290
91 291
91 292
91 293
91 294
91 295
91 296
91 297
92 297
93 298
94 298
95 299
96 299
97 300
98 300
99 301
100 301
101 301
102 301
103 302
104 302
105 303
106 303
107 304
107 305
108 306
108 307
109 308
109 309
109 310
110 311
111 311
112 312
112 313
113 314
113 315
114 316
114 317
114 318
114 319
115 320
115 321
115 322
115 323
114 324
114 325
114 326
114 327
114 328
115 328
116 328
117 329
118 329
119 329
120 329
121 329
122 329
123 330
124 330
125 331
126 331
127 332
128 332
129 332
130 332
131 332
132 333
133 333
134 334
135 335
136 336
136 337
137 337
138 338
139 338
140 339
141 339
142 340
142 341
143 342
144 343
145 344
145 345
146 346
146 347
147 348
147 349
147 350
146 351
146 352
146 353
146 354
146 355
146 356
147 356
148 356
149 356
150 356
151 357
152 357
153 358
154 358
155 358
156 358
157 358
158 358
159 358
160 358
161 358
162 358
163 359
164 359
165 360
166 360
167 360
168 360
169 360
170 361
171 361
172 362
173 362
174 363
174 364
175 365
175 366
176 367
177 367
178 368
179 368
180 368
181 368
182 369
183 369
184 370
185 370
186 371
186 372
187 373
187 374
188 375
188 376
188 377
188 378
188 379
188 380
188 381
188 382
188 383
188 384
188 385
189 385
190 385
191 385
192 385
193 385
194 385
195 385
196 386
197 386
198 386
199 386
200 386
201 386
202 386
203 386
204 387
205 387
206 388
207 388
208 389
209 389
210 389
211 389
212 389
213 389
214 390
215 390
216 391
217 392
218 393
219 393
220 393
221 393
222 393
223 394
224 394
225 395
226 395
227 396
228 397
229 397
230 398
231 399
231 400
232 401
232 402
232 403
232 404
232 405
232 406
232 407
232 408
232 409
233 409
234 409
235 409
236 409
237 409
238 409
239 409
240 409
241 409
242 409
243 409
244 409
245 409
246 409
247 409
248 410
249 410
250 411
251 411
252 412
253 412
254 412
255 412
256 412
257 412
258 412
259 412
260 411
261 411
262 410
263 411
264 411
265 412
265 413
266 413
267 413
268 413
269 413
270 413
271 413
272 413
273 413
274 413
275 413
276 414
277 415
277 416
278 417
279 417
280 417
281 417
282 417
283 417
284 417
285 417
286 418
287 418
288 419
289 419
290 420
290 421
291 422
291 423
292 424
292 425
292 426
293 427
293 428
294 429
295 429
296 429
297 429
298 429
299 429
300 429
301 429
302 429
303 429
304 430
305 430
306 430
307 430
308 430
309 430
310 430
311 430
312 430
313 430
314 430
315 430
316 430
317 430
318 430
319 430
320 430
321 430
322 430
323 430
324 429
325 429
326 430
327 430
328 430
329 430
330 430
331 430
332 430
333 430
334 430
335 430
336 429
337 429
338 429
339 429
340 430
341 431
341 432
342 433
343 433
344 433
345 433
346 433
347 433
348 433
349 433
350 432
351 432
352 432
353 433
354 433
355 434
355 435
356 436
356 437
357 438
357 439
358 439
359 439
360 439
361 439
362 439
363 439
364 439
365 439
366 438
367 438
368 439
369 439
370 439
371 439
372 439
373 439
374 439
375 439
376 439
377 439
378 439
379 439
380 438
381 438
382 437
383 437
384 437
385 437
386 437
387 437
388 437
389 437
390 436
391 436
392 435
393 435
394 435
395 435
396 435
397 435
398 435
399 435
400 435
401 435
402 435
403 434
404 434
405 433
406 433
407 433
408 434
409 435
410 435
411 435
412 435
413 435
414 435
415 435
416 435
417 434
418 434
419 433
420 433
421 432
422 432
423 433
424 433
425 434
426 435
426 436
427 437
428 437
429 437
430 437
431 437
432 437
433 437
434 437
435 436
436 436
437 435
438 435
439 434
440 434
441 434
442 434
443 433
444 433
445 433
446 433
447 433
448 433
449 433
450 432
451 432
452 431
453 431
454 430
455 430
456 429
457 429
458 428
459 428
460 427
461 427
462 427
463 427
464 427
465 426
466 426
467 425
468 425
469 424
470 424
471 424
472 424
473 424
474 423
475 423
476 422
477 422
478 421
479 421
480 421
481 421
482 421
483 421
484 421
485 421
486 421
487 420
488 419
489 419
490 418
491 419
492 420
493 420
494 420
495 420
496 420
497 420
498 420
499 419
500 418
501 418
502 417
503 417
504 416
505 416
506 415
507 415
508 415
509 416
510 416
511 417
512 417
513 417
514 417
515 417
516 417
517 417
518 417
519 417
520 416
521 416
522 415
523 415
524 414
525 414
526 414
527 413
528 413
529 412
530 412
531 411
532 411
533 410
534 410
535 409
536 409
537 409
538 408
539 408
540 407
541 407
542 407
542 406
543 405
544 404
545 404
546 403
547 403
548 402
549 402
550 401
551 400
552 399
553 399
554 398
555 398
556 397
557 397
558 396
559 396
560 396
561 396
562 395
563 394
564 393
565 392
566 391
567 391
568 390
569 390
570 389
571 389
572 388
573 388
574 388
574 387
575 386
576 385
577 384
578 383
578 382
579 381
580 381
581 380
582 380
583 379
584 379
585 378
586 378
587 377
588 377
589 377
590 376
591 376
592 376
593 376
594 375
595 375
596 376
597 376
598 377
599 377
600 377
601 377
602 377
603 377
604 377
605 377
606 377
607 377
608 377
609 377
610 376
611 376
612 375
613 375
614 374
615 373
616 372
617 372
618 371
619 371
620 370
621 370
622 369
622 368
623 367
624 366
625 365
626 364
627 364
628 363
629 362
630 361
631 360
632 359
633 358
634 357
635 356
636 355
637 354
637 353
638 352
639 351
640 350
641 349
642 348
643 347
644 346
645 345
646 344
647 343
648 342
649 341
650 340
651 339
652 338
653 337
654 336
655 335
656 334
657 333
657 332
658 331
659 330
660 330
661 329
662 328
663 327
664 326
664 325
665 324
666 323
667 322
668 321
668 320
669 319
670 318
670 317
670 316
671 315
671 314
672 313
672 312
673 311
674 310
675 309
676 308
677 308
678 307
679 307
680 306
681 306
682 305
683 305
684 304
685 304
686 304
687 304
688 304
689 304
690 304
691 304
692 304
693 304
694 304
695 304
696 304
697 304
698 304
699 304
700 304
701 304
702 304
703 304
704 304
705 304
706 304
707 304
708 304
709 304
710 304
711 304
712 304
713 304
714 304
715 304
716 304
717 304
718 304
719 304
720 304
721 304
722 304
723 304
724 304
725 304
726 304
727 304
728 304
729 304
730 304
731 304
732 304
733 304
734 304
735 304
736 304
737 304
738 303
739 303
740 303
741 303
742 303
743 303
744 303
745 302
746 302
747 302
748 302
749 301
750 301
751 301
752 300
753 300
754 300
755 300
756 300
757 300
758 300
759 300
760 300
761 300
762 300
763 300
764 300
765 300
766 299
767 299
767 298
767 297
767 296
767 295
767 294
766 293
765 293
764 292
763 292
762 292
761 292
760 292
759 292
758 292
757 292
756 292
755 292
754 292
753 292
752 292
751 292
750 292
749 292
748 292
747 292
746 292
745 293
744 293
743 293
742 293
741 294
740 294
739 294
738 294
737 295
736 295
735 295
734 295
733 296
732 296
731 296
730 296
729 297
728 297
727 297
726 297
725 297
724 298
723 298
722 298
721 298
720 298
719 298
718 298
717 298
716 298
715 298
714 298
713 298
712 298
711 298
710 298
709 298
708 298
707 298
706 298
705 298
704 298
703 298
702 298
701 298
700 298
699 298
698 298
697 298
696 298
695 297
694 297
693 297
692 297
691 297
690 297
689 297
688 297
687 297
686 296
685 296
684 296
683 296
682 296
681 296
680 296
679 295
678 295
677 294
676 294
675 293
674 293
673 292
672 291
671 290
671 289
670 288
670 287
669 286
669 285
669 284
669 283
670 282
670 281
671 280
671 279
672 278
672 277
673 276
674 276
675 275
676 275
677 274
678 274
679 273
680 273
681 272
682 272
683 271
684 271
685 271
686 271
687 270
688 270
689 270
690 270
691 270
692 270
693 270
694 269
695 269
696 269
697 269
698 269
699 269
700 269
701 269
702 268
703 268
704 268
705 268
706 268
707 268
708 268
709 268
710 267
711 267
712 267
713 267
714 267
715 267
716 267
717 267
718 267
719 267
720 267
721 267
722 267
723 266
724 266
725 266
726 266
727 266
728 266
729 266
730 266
731 265
732 265
733 265
734 265
735 264
736 264
737 264
738 264
739 264
740 264
741 263
742 263
743 263
744 263
745 262
746 262
747 262
748 261
749 261
750 260
751 260
752 259
753 259
754 259
755 258
756 258
757 258
758 258
758 257
758 256
758 255
758 254
758 253
757 253
756 253
755 253
754 253
753 253
752 253
751 253
750 253
749 253
748 253
747 253
746 253
745 253
744 254
743 254
742 254
741 255
740 255
739 255
738 256
737 256
736 256
735 257
734 257
733 258
732 258
731 258
730 259
729 259
728 259
727 259
726 259
725 260
724 260
723 260
722 260
721 260
720 261
719 261
718 261
717 261
716 261
715 262
714 262
713 262
712 262
711 262
710 262
709 262
708 262
707 262
706 262
705 263
704 263
703 263
702 263
701 263
700 263
699 263
698 263
697 264
696 264
695 264
694 264
693 264
692 264
691 264
690 264
689 264
688 264
687 265
686 265
685 265
684 265
683 265
682 265
681 264
680 264
679 264
678 264
677 264
676 263
675 263
674 262
673 262
672 261
671 261
670 260
669 260
668 259
667 258
667 257
666 256
666 255
665 254
665 253
664 252
664 251
663 250
663 249
663 248
662 247
661 246
660 245
660 244
659 243
658 242
658 241
657 240
656 239
655 238
654 237
654 236
653 235
652 234
651 233
650 232
650 231
649 230
648 229
648 228
647 227
646 226
646 225
645 224
644 223
644 222
643 221
643 220
642 219
641 218
641 217
640 216
639 215
639 214
638 213
638 212
637 211
637 210
636 209
635 208
634 207
633 206
632 205
632 204
631 203
631 202
630 201
629 200
628 200
627 200
626 200
625 199
624 199
623 199
622 198
621 198
620 197
619 197
618 196
617 196
616 195
616 194
615 193
615 192
614 191
614 190
614 189
613 188
612 187
611 186
610 186
609 185
608 185
607 185
606 185
605 185
604 185
603 185
602 185
601 185
600 185
599 185
598 185
597 185
596 185
595 184
594 184
593 183
592 182
591 181
590 181
589 180
589 179
588 178
587 177
586 176
585 175
584 175
583 175
582 175
581 175
580 175
579 175
578 175
577 175
576 175
575 175
574 175
573 175
572 174
571 174
570 173
569 172
568 171
567 171
566 171
565 171
564 171
563 171
562 171
561 171
560 171
559 171
558 171
557 170
556 170
555 169
554 169
553 168
552 168
551 167
550 167
549 166
548 166
547 165
546 165
545 165
544 165
543 165
542 165
541 165
540 165
539 165
538 165
537 165
536 165
535 165
534 165
533 165
532 165
531 165
530 165
529 165
528 165
527 165
526 165
525 165
524 165
523 164
522 164
521 163
520 163
519 162
518 162
517 161
516 161
515 160
514 159
514 158
513 158
512 158
511 158
510 158
509 158
508 158
507 158
506 158
505 158
504 157
503 157
502 156
501 156
500 155
499 155
498 155
497 155
496 155
495 155
494 155
493 155
492 155
491 155
490 155
489 155
488 155
487 156
486 156
485 156
484 156
483 156
482 156
481 156
480 156
479 156
478 156
477 156
476 156
475 156
474 156
473 157
472 158
471 158
470 158
469 158
468 158
467 157
466 157
465 156
464 156
463 155
462 155
461 154
460 153
459 152
458 151
457 151
456 150
455 150
454 150
453 149
452 149
451 148
450 148
449 148
448 148
447 147
446 147
445 146
444 146
443 145
442 145
441 145
440 144
439 144
438 144
437 144
436 143
435 143
434 142
433 142
432 142
431 142
430 141
429 141
428 141
427 141
426 141
425 141
424 141
423 140
422 140
421 140
420 140
419 140
418 140
417 140
416 140
415 140
414 140
413 140
412 140
411 140
410 140
409 141
408 140
407 140
406 140
405 140
404 140
403 140
402 140
401 140
400 140
399 140
398 140
397 140
396 140
395 140
394 140
393 140
392 141
391 141
390 141
389 141
388 141
387 141
386 141
385 140
384 140
383 139
382 139
381 138
380 138
379 137
378 136
378 135
377 134
377 133
376 133
375 133
374 133
373 133
372 133
371 133
370 133
369 133
368 133
367 133
366 133
365 133
364 133
363 132
362 132
361 132
360 132
359 132
358 132
357 132
356 132
355 132
354 132
353 132
352 132
351 132
350 132
349 132
348 132
347 132
346 132
345 132
344 133
343 133
342 133
341 133
340 133
339 133
338 133
337 133
336 133
335 133
334 133
333 133
332 132
331 132
330 131
329 131
328 130
327 130
326 130
325 130
324 130
323 130
322 130
321 130
320 131
319 132
318 133
317 134
316 135
315 135
314 136
313 136
312 136
311 135
310 135
309 134
308 134
307 134
306 134
305 134
304 134
303 134
302 134
301 134
300 134
299 134
298 134
297 135
296 136
295 136
294 137
293 137
292 138
291 138
290 138
289 139
288 140
287 141
286 141
285 142
284 143
283 144
282 145
281 146
281 147
280 148
279 149
278 149
277 149
276 148
275 148
274 147
273 146
272 145
271 144
270 143
270 142
269 141
268 140
268 139
267 138
267 137
266 136
266 135
265 134
265 133
264 132
264 131
263 130
262 129
261 129
260 128
259 128
258 128
257 128
256 128
255 128
254 128
253 128
252 128
251 129
251 130
250 131
250 132
249 133
249 134
248 135
247 135
246 136
245 135
244 135
243 134
242 134
241 134
240 134
239 134
238 134
237 134
236 135
236 136
235 137
234 138
233 138
232 138
231 137
230 137
229 136
228 136
227 135
226 134
225 133
224 133
223 132
222 131
221 130
220 129
219 129
218 129
217 129
216 129
215 129
214 129
213 129
212 129
211 130
210 131
210 132
209 133
209 134
208 135
207 135
206 136
205 136
204 137
203 137
202 137
201 137
200 138
199 138
198 138
197 138
196 138
195 138
194 138
193 139
192 140
191 140
190 140
189 140
188 140
187 140
186 140
185 140
184 140
183 139
182 139
181 139
180 139
179 139
178 139
177 139
176 139
175 139
174 139
173 139
172 139
171 139
170 139
169 140
168 140
167 141
167 142
166 143
166 144
165 145
164 146
163 146
162 147
161 147
160 148
159 148
158 149
157 149
156 149
155 149
154 149
153 149
152 150
151 149
150 149
149 149
148 149
147 149
146 149
145 149
144 149
143 149
142 149
141 149
140 149
139 150
139 151
138 152
138 153
137 154
136 154
135 155
134 155
133 156
132 156
131 156
130 156
129 156
128 156
127 157
126 157
125 157
124 157
123 157
122 157
121 157
120 157
119 157
118 157
117 157
116 158
115 159
114 159
113 160
112 160
111 161
110 162
110 163
109 164
108 164
107 165
106 165
105 166
104 166
103 166
102 166
101 166
100 166
99 166
98 166
97 166
96 166
96 167
95 168
95 169
94 170
93 170
92 171
91 171
90 172
89 172
88 173
87 173
86 174
85 174
84 175
83 175
82 174
81 174
80 173
79 173
78 173
77 173
76 173
75 173
74 174
74 175
73 176
72 176
71 177
70 177
69 178
68 179
67 180
66 181
65 182
64 182
63 183
62 183
61 183
60 182
59 182
58 182
57 182
56 182
55 182
54 182
53 182
52 182
51 182
50 182
49 183
48 183
47 183
46 183
45 184
44 184
43 183
42 182
41 181
41 180
40 179
40 178
39 178
38 179
38 180
38 181
37 182
37 183
36 184
36 185
35 186
34 186
33 187
32 187
32 188
32 189
31 190
31 191
31 192
31 193
30 194
30 195
29 196
