236 37
235 38
235 39
235 40
235 41
235 42
236 43
236 44
236 45
236 46
236 47
236 48
236 49
237 50
237 51
237 52
237 53
237 54
237 55
236 56
236 57
237 58
237 59
236 60
236 61
237 62
237 63
236 64
236 65
236 66
236 67
235 68
234 69
234 70
234 71
234 72
234 73
234 74
234 75
233 76
233 77
232 78
232 79
232 80
232 81
232 82
232 83
231 84
230 85
229 86
229 87
229 88
229 89
229 90
228 91
227 91
227 92
226 93
226 94
226 95
227 96
227 97
227 98
227 99
227 100
226 101
226 102
227 103
227 104
227 105
227 106
227 107
228 108
228 109
228 110
228 111
228 112
227 113
228 114
228 115
228 116
227 117
227 118
226 119
226 120
226 121
226 122
226 123
226 124
226 125
227 126
227 127
227 128
226 129
226 130
226 131
226 132
226 133
226 134
227 135
227 136
227 137
227 138
228 139
228 140
227 141
226 142
226 143
226 144
227 145
227 146
226 147
225 147
225 148
225 149
225 150
225 151
226 152
226 153
227 154
227 155
228 156
228 157
229 158
229 159
229 160
230 161
230 162
230 163
230 164
230 165
230 166
230 167
230 168
231 169
231 170
232 171
232 172
232 173
233 174
233 175
234 176
234 177
235 178
236 179
236 180
237 181
237 182
238 183
238 184
239 185
239 186
240 187
241 188
242 189
243 189
244 190
245 191
246 192
246 193
246 194
247 195
247 196
248 197
249 198
249 199
250 200
250 201
250 202
251 203
251 204
252 205
253 206
253 207
254 208
255 209
255 210
256 211
257 212
257 213
258 214
259 215
260 216
260 217
261 217
262 218
263 219
264 220
265 221
266 222
267 222
268 223
268 224
269 224
270 225
271 225
272 226
273 227
273 228
274 229
275 230
276 231
277 232
278 233
279 234
280 234
281 234
282 235
283 235
284 236
285 237
286 237
287 238
288 239
288 240
289 241
290 241
291 242
292 242
293 242
294 243
295 243
296 243
297 244
298 244
299 244
300 244
301 245
302 245
303 245
304 245
305 246
306 246
307 246
308 247
309 247
310 247
311 248
312 248
313 248
314 248
315 248
316 249
317 249
318 249
319 249
320 249
321 250
322 250
323 250
324 250
325 250
326 251
327 251
328 251
329 251
330 251
331 251
332 251
333 251
334 251
335 251
336 252
337 252
338 252
339 252
340 252
341 252
342 252
343 252
344 252
345 252
346 252
347 252
348 253
349 253
350 253
351 254
352 255
353 256
354 257
355 258
355 259
354 260
353 260
352 261
351 261
350 261
349 261
348 261
347 261
346 262
345 262
344 262
343 262
342 262
341 262
340 262
339 262
338 262
337 262
336 262
335 262
334 262
333 262
332 262
331 262
330 262
329 262
328 262
327 262
326 262
325 262
324 262
323 262
322 262
321 262
320 262
319 262
318 262
317 262
316 262
315 262
314 262
313 262
312 262
311 262
310 261
309 261
308 261
307 261
306 261
305 261
304 261
303 261
302 261
301 260
300 260
299 260
298 260
297 260
296 260
295 260
294 259
293 259
292 259
291 259
290 258
289 258
288 257
287 257
286 257
285 256
284 255
283 254
282 253
281 252
280 251
279 250
278 249
277 248
276 248
275 247
274 246
273 245
272 244
271 243
270 242
269 241
268 240
267 239
266 238
266 237
265 237
264 236
263 235
262 234
261 233
260 232
259 231
258 230
257 230
256 229
255 228
254 227
253 226
252 225
251 225
250 224
249 223
248 222
247 222
246 221
245 220
244 220
243 220
242 219
241 218
240 217
239 217
238 216
237 215
236 214
235 214
234 213
233 213
232 212
231 211
230 211
229 210
228 209
227 209
226 208
225 208
224 207
223 206
222 205
221 205
220 204
219 203
218 203
217 202
216 202
215 202
214 201
213 201
212 200
211 200
210 199
209 199
208 198
207 197
206 197
205 196
204 196
203 196
202 195
201 195
200 194
199 194
198 193
197 192
196 192
195 192
194 192
193 192
192 191
191 190
190 190
189 190
188 190
187 189
186 189
185 189
184 190
183 189
182 189
181 188
180 188
179 187
178 187
177 187
176 186
175 186
174 185
173 185
172 185
171 185
170 185
169 185
168 184
167 184
166 184
165 184
164 184
163 185
162 185
161 185
160 185
159 185
158 185
157 185
156 186
155 186
154 185
153 186
152 186
151 187
150 188
149 188
148 187
147 187
146 187
145 187
144 188
143 188
142 189
141 189
140 188
139 188
138 188
137 189
136 189
135 189
134 190
134 191
133 192
132 192
131 192
130 192
129 192
128 193
127 193
126 194
125 194
124 194
123 195
122 195
121 195
121 196
120 197
119 197
118 197
117 197
116 197
115 197
114 198
113 198
113 199
112 200
111 200
110 201
109 201
108 202
107 203
106 204
105 204
104 204
103 204
102 205
101 206
100 207
99 208
98 209
97 209
96 210
96 211
95 212
94 212
93 213
92 213
91 214
90 215
89 216
88 216
87 217
86 217
86 218
85 219
84 220
83 221
82 221
81 222
81 223
80 224
79 224
78 225
77 225
76 226
75 226
74 227
73 227
72 227
71 227
70 228
69 228
68 228
67 228
66 229
65 229
64 229
63 229
62 229
61 229
60 229
59 229
58 229
57 229
56 229
55 229
54 230
53 230
52 230
51 230
50 229
49 229
48 229
47 229
46 230
46 231
46 232
46 233
47 234
48 235
49 236
50 236
51 237
52 238
53 239
54 239
55 240
56 240
57 241
58 241
59 242
60 242
61 243
62 243
63 244
64 244
65 245
66 245
67 246
68 246
69 247
70 248
71 249
72 249
73 250
74 251
75 252
76 253
76 254
77 255
78 256
79 256
80 257
81 258
82 259
83 260
84 261
84 262
85 263
86 264
87 265
88 266
88 267
89 268
89 269
90 270
91 271
92 272
93 273
94 274
94 275
95 276
96 276
97 277
98 277
99 278
100 279
100 280
100 281
101 282
102 282
103 283
104 283
105 284
106 284
107 285
108 286
108 287
109 288
110 289
111 290
112 291
113 292
114 292
115 293
116 293
117 294
118 294
119 295
120 295
121 296
121 297
121 298
122 299
123 300
124 300
125 301
126 302
127 302
128 303
129 304
130 304
131 305
132 305
133 306
134 307
135 307
136 308
137 308
138 308
139 308
140 308
141 309
142 309
143 309
144 310
145 310
146 310
147 310
148 311
149 312
150 312
151 312
152 312
153 313
154 314
155 315
156 315
157 315
158 316
159 316
160 316
161 317
162 317
163 317
164 318
165 318
166 318
167 318
168 318
169 317
170 317
171 317
172 317
173 317
174 316
175 316
176 316
177 316
178 315
179 314
180 314
181 313
182 313
183 312
184 312
185 311
186 311
187 311
188 311
189 311
190 310
191 310
192 309
193 309
194 309
195 309
196 309
197 308
198 308
199 307
200 307
201 306
202 306
203 306
204 306
205 305
206 305
207 305
208 304
209 303
210 302
211 302
212 301
213 301
214 300
215 299
216 299
217 299
218 298
219 298
220 297
221 297
222 296
223 296
224 296
225 295
226 295
227 294
228 294
229 294
230 294
231 294
232 294
233 294
234 294
235 294
236 293
237 293
238 292
239 292
240 291
241 290
242 290
243 289
244 289
245 288
246 287
247 287
248 286
249 285
250 285
251 284
252 283
253 283
254 282
255 282
256 281
257 280
258 280
259 279
260 278
261 278
262 277
263 276
264 276
265 275
266 275
267 274
268 273
269 273
270 272
271 272
272 271
273 271
274 270
275 270
276 269
277 269
278 268
279 268
280 267
281 267
282 267
283 266
284 266
285 266
286 266
287 266
288 266
289 265
290 265
291 265
292 265
293 265
294 265
295 265
296 265
297 265
298 265
299 265
300 265
301 265
302 266
303 266
304 266
305 266
306 266
307 266
308 266
309 266
310 266
311 266
312 266
313 266
314 266
315 266
316 266
317 266
318 266
319 267
320 267
321 267
322 267
323 267
324 267
325 267
326 267
327 267
328 267
329 267
330 267
331 267
332 267
333 267
334 267
335 267
336 267
337 267
338 267
339 266
340 266
341 266
342 266
343 266
344 266
345 266
346 266
347 266
348 266
349 266
350 266
351 266
352 266
353 266
354 267
354 268
354 269
353 270
353 271
352 272
351 273
350 274
349 275
348 275
347 276
346 276
345 276
344 277
343 277
342 276
341 276
340 276
339 276
338 275
337 275
336 275
335 275
334 275
333 274
332 274
331 274
330 274
329 273
328 273
327 273
326 273
325 273
324 273
323 272
322 272
321 272
320 272
319 272
318 272
317 272
316 272
315 272
314 272
313 272
312 272
311 272
310 272
309 272
308 272
307 272
306 273
305 273
304 273
303 273
302 274
301 274
300 274
299 274
298 275
297 275
296 275
295 276
295 277
294 278
293 278
292 279
291 279
290 279
289 280
288 280
287 281
286 282
285 283
284 283
283 284
282 285
281 286
280 286
279 287
279 288
278 289
277 290
276 290
275 291
274 291
273 292
272 292
271 293
270 294
269 295
268 296
267 297
266 297
265 298
264 299
263 300
262 300
261 301
260 302
259 303
258 303
258 304
257 305
256 305
255 306
254 306
253 307
252 308
251 308
250 309
249 310
248 310
247 311
246 312
245 313
244 313
243 313
242 314
241 314
240 315
239 315
238 316
237 316
236 317
235 318
234 319
234 320
233 321
232 322
231 323
230 323
229 324
228 325
227 326
226 327
225 328
224 329
223 329
223 330
222 331
221 332
222 333
222 334
221 335
220 336
219 337
219 338
218 339
218 340
217 341
217 342
217 343
217 344
217 345
216 346
216 347
215 348
214 349
213 350
213 351
212 352
211 353
210 354
209 355
208 356
207 357
206 358
205 359
205 360
204 361
204 362
203 363
202 364
201 365
201 366
200 367
199 368
199 369
199 370
199 371
198 372
197 373
197 374
196 375
196 376
195 377
195 378
195 379
196 380
195 381
194 382
194 383
194 384
194 385
194 386
194 387
193 388
193 389
193 390
193 391
193 392
192 393
192 394
192 395
192 396
193 397
193 398
193 399
192 400
192 401
192 402
191 403
191 404
191 405
191 406
191 407
191 408
190 409
190 410
190 411
191 412
191 413
191 414
190 415
190 416
190 417
190 418
190 419
190 420
190 421
190 422
190 423
190 424
190 425
190 426
190 427
190 428
190 429
190 430
190 431
190 432
190 433
190 434
190 435
190 436
190 437
190 438
190 439
190 440
190 441
189 442
189 443
189 444
189 445
189 446
189 447
188 448
188 449
187 450
187 451
186 452
186 453
185 454
184 455
184 456
183 457
182 458
182 459
182 460
182 461
183 461
184 462
185 462
186 462
187 461
188 461
189 461
190 460
191 460
192 460
193 459
194 458
195 458
196 457
197 456
198 456
199 455
200 455
201 454
202 454
203 453
204 453
205 453
206 452
207 452
208 452
209 452
210 452
211 452
212 451
213 451
214 451
215 451
216 451
217 451
218 451
219 451
220 451
221 451
222 451
223 451
224 451
225 451
226 451
227 451
228 451
229 451
230 451
231 451
232 450
233 450
234 450
235 450
236 450
237 450
238 449
239 449
240 449
241 449
242 449
243 448
244 448
245 448
246 448
247 447
248 447
249 446
250 446
251 446
252 446
253 445
254 445
255 444
256 443
257 443
258 443
259 443
260 443
261 443
262 442
263 442
264 441
265 440
266 440
267 439
268 438
269 438
270 437
271 436
272 435
273 434
274 433
275 433
276 432
277 431
278 430
278 429
279 428
280 427
281 426
282 425
283 424
284 424
285 423
286 422
287 421
288 421
289 420
290 420
291 419
292 418
293 417
294 416
295 415
296 414
297 413
298 412
299 411
300 410
301 409
302 408
303 407
304 406
305 405
305 404
306 403
307 402
308 401
309 401
309 400
310 399
310 398
311 397
312 396
313 395
314 394
315 393
316 392
316 391
317 390
318 389
318 388
319 387
319 386
320 385
320 384
321 383
321 382
322 381
323 381
324 380
324 379
325 378
326 377
326 376
327 375
328 374
328 373
329 372
329 371
330 370
331 369
331 368
332 367
333 366
334 365
335 364
335 363
336 362
336 361
336 360
337 359
337 358
337 357
338 356
338 355
339 354
339 353
339 352
340 351
340 350
341 349
341 348
341 347
342 346
343 345
343 344
344 343
344 342
345 341
346 340
346 339
347 338
347 337
348 336
348 335
349 334
349 333
350 332
350 331
350 330
351 329
351 328
351 327
352 326
352 325
352 324
352 323
353 322
353 321
353 320
353 319
353 318
353 317
354 316
354 315
354 314
354 313
354 312
354 311
354 310
354 309
354 308
354 307
354 306
354 305
354 304
354 303
354 302
354 301
354 300
354 299
354 298
354 297
354 296
354 295
353 294
353 293
353 292
353 291
353 290
353 289
353 288
353 287
353 286
353 285
353 284
353 283
353 282
353 281
353 280
353 279
353 278
353 277
353 276
354 275
355 274
355 273
356 272
357 272
358 271
359 270
360 270
361 269
362 268
363 268
364 267
365 267
366 267
367 267
368 267
369 267
370 267
371 267
372 267
373 267
374 267
375 267
376 268
377 268
378 268
379 268
380 268
381 268
382 268
383 268
384 268
385 269
386 269
387 269
388 269
389 269
390 269
391 269
392 269
393 269
394 269
395 269
396 270
397 270
398 270
399 270
400 270
401 270
402 270
403 270
404 270
405 270
406 270
407 270
408 270
409 270
410 271
411 271
412 271
413 271
414 271
415 271
416 271
417 271
418 271
419 271
420 271
421 271
422 271
423 271
424 271
425 271
426 271
427 271
428 271
429 271
430 271
431 271
432 271
433 271
434 271
435 271
436 271
437 271
438 271
439 271
440 271
441 271
442 271
443 271
444 271
445 271
446 271
447 271
448 271
449 272
448 273
447 274
446 274
445 275
444 275
443 276
443 277
442 278
441 279
440 280
439 281
438 281
437 282
436 282
435 282
434 283
433 283
432 284
431 285
430 285
429 285
428 285
427 285
426 285
425 285
424 285
423 286
422 286
421 287
420 287
420 288
420 289
419 290
418 290
417 291
416 292
416 293
415 294
414 295
413 296
412 296
411 297
410 298
409 298
408 299
407 300
407 301
406 302
405 303
404 304
403 305
402 306
401 307
401 308
400 309
400 310
399 311
398 312
397 313
396 314
395 315
394 316
393 317
392 318
391 318
390 319
389 320
388 321
388 322
388 323
388 324
387 325
386 326
385 327
384 328
383 329
382 330
381 331
380 332
379 332
378 333
377 334
377 335
377 336
377 337
376 338
375 339
375 340
374 341
373 342
372 343
371 344
371 345
371 346
370 347
370 348
369 349
368 350
368 351
367 352
366 353
365 354
364 355
364 356
363 357
362 358
362 359
361 360
362 361
361 362
361 363
360 364
359 365
359 366
359 367
358 368
359 369
358 370
358 371
357 372
357 373
356 374
356 375
355 376
355 377
354 378
354 379
354 380
353 381
352 382
351 383
351 384
350 385
350 386
349 387
349 388
348 389
347 390
347 391
347 392
346 393
345 394
345 395
345 396
344 397
344 398
344 399
345 400
344 401
344 402
343 403
343 404
342 405
342 406
342 407
342 408
342 409
342 410
342 411
341 412
341 413
341 414
340 415
340 416
339 417
339 418
339 419
339 420
339 421
339 422
339 423
339 424
339 425
338 426
338 427
338 428
338 429
338 430
338 431
337 432
337 433
337 434
337 435
338 436
338 437
339 438
339 439
338 440
338 441
338 442
338 443
337 444
337 445
337 446
338 447
338 448
337 449
337 450
336 451
336 452
336 453
336 454
335 455
335 456
334 457
333 458
332 459
332 460
331 461
330 462
330 463
329 464
329 465
328 466
328 467
328 468
329 469
330 469
331 469
332 469
333 469
334 469
335 468
336 468
337 468
338 467
339 467
340 466
341 466
342 466
343 465
344 464
345 464
346 463
347 463
348 462
349 461
350 461
351 461
352 460
353 460
354 460
355 460
356 459
357 459
358 459
359 459
360 459
361 459
362 459
363 458
364 458
365 458
366 458
367 458
368 458
369 458
370 458
371 457
372 457
373 457
374 457
375 457
376 456
377 456
378 456
379 455
380 455
381 455
382 454
383 454
384 454
385 454
386 454
387 454
388 453
389 453
390 453
391 453
392 453
393 452
394 452
395 452
396 452
397 451
398 451
399 450
400 449
401 449
402 448
403 448
404 448
405 447
406 447
407 446
408 446
409 445
410 445
411 444
412 443
413 443
414 443
415 442
416 441
417 440
418 439
419 438
420 438
421 437
422 437
423 436
424 436
425 435
426 435
427 434
428 433
429 433
430 432
431 432
432 431
433 430
434 430
435 429
436 429
437 428
438 427
439 426
440 426
441 425
442 424
442 423
443 422
444 422
445 421
446 421
447 420
448 419
448 418
449 417
450 416
451 416
452 415
453 414
454 413
455 412
456 411
457 410
458 410
459 409
460 408
460 407
461 406
462 405
463 404
464 403
464 402
465 401
466 400
466 399
467 398
468 397
468 396
469 395
470 394
470 393
471 392
472 391
473 391
474 390
475 390
476 389
477 388
478 388
479 387
480 386
481 385
482 384
483 384
484 384
484 383
485 382
486 382
487 382
488 382
489 382
490 382
491 382
492 382
493 382
494 382
495 382
496 382
497 382
498 382
499 382
500 382
501 383
502 383
503 383
504 383
505 383
506 383
507 383
508 382
509 382
510 382
511 382
512 382
513 382
514 382
515 382
516 381
517 381
518 382
519 382
520 382
521 381
522 381
523 381
524 380
525 380
526 380
527 380
528 380
529 380
530 380
531 380
532 380
533 380
534 380
535 381
536 381
537 381
538 381
539 381
540 381
541 381
542 381
543 381
544 381
545 381
546 381
547 381
548 381
549 381
550 380
551 380
552 380
553 380
554 380
555 380
556 380
557 379
558 379
559 379
560 379
561 378
562 377
563 376
564 375
565 374
566 374
567 374
568 374
569 374
570 374
571 375
572 375
573 376
574 376
575 376
576 376
577 376
578 376
579 376
580 376
581 376
582 376
583 376
584 375
585 375
586 374
587 374
588 374
589 373
590 373
591 373
592 372
593 372
594 371
595 371
596 371
597 371
598 370
599 370
600 369
601 369
602 369
603 368
604 368
605 367
606 366
607 366
608 365
609 365
610 364
611 363
612 362
613 362
614 361
615 361
616 360
617 360
618 359
619 358
620 358
621 358
622 359
623 359
624 358
625 358
626 358
627 357
628 357
629 356
630 355
631 355
632 355
633 354
634 354
634 353
635 352
636 352
637 351
638 350
639 349
640 349
641 348
642 348
643 348
644 347
645 346
646 345
647 344
647 343
648 342
649 341
650 340
651 339
652 339
653 338
654 337
655 336
655 335
656 334
656 333
657 332
657 331
658 330
658 329
658 328
658 327
658 326
658 325
659 324
659 323
659 322
659 321
659 320
660 319
660 318
660 317
660 316
660 315
660 314
660 313
660 312
660 311
659 310
659 309
659 308
659 307
659 306
659 305
658 304
658 303
658 302
658 301
658 300
658 299
658 298
658 297
658 296
658 295
658 294
658 293
658 292
659 291
659 290
660 289
661 288
662 287
663 286
664 286
665 285
666 285
667 284
668 283
669 283
670 282
671 282
672 281
673 281
674 280
675 280
676 280
677 279
678 279
679 279
680 279
681 279
682 278
683 278
684 278
685 278
686 278
687 278
688 278
689 278
690 278
691 278
692 278
693 278
694 278
695 278
696 278
697 278
698 279
699 279
700 279
701 279
702 279
703 279
704 279
705 280
706 280
707 280
708 280
709 280
710 281
711 281
712 281
713 281
714 282
715 282
716 282
717 282
718 282
719 283
720 283
721 283
722 283
723 283
724 283
725 284
726 284
727 284
728 284
729 284
730 285
731 285
732 285
733 285
734 285
735 286
736 286
737 286
738 286
739 286
740 287
741 287
742 287
743 287
744 288
745 288
746 288
747 288
748 288
749 289
750 289
751 289
752 289
753 289
754 290
755 290
756 290
757 290
758 291
759 291
760 291
761 291
762 292
763 292
764 292
765 292
766 293
767 293
768 293
769 294
770 294
771 294
772 295
773 295
774 295
775 295
776 296
777 296
778 295
779 295
780 295
781 294
782 293
782 292
782 291
782 290
782 289
782 288
782 287
782 286
781 285
780 284
779 284
778 284
777 283
776 283
775 283
774 283
773 283
772 283
771 283
770 282
769 282
768 282
767 282
766 282
765 282
764 282
763 282
762 282
761 281
760 281
759 281
758 281
757 281
756 281
755 281
754 281
753 281
752 281
751 281
750 280
749 280
748 280
747 280
746 280
745 280
744 279
743 279
742 279
741 279
740 279
739 279
738 279
737 278
736 278
735 278
734 278
733 278
732 278
731 277
730 277
729 277
728 277
727 277
726 277
725 276
724 276
723 276
722 276
721 276
720 276
719 275
718 275
717 275
716 275
715 275
714 274
713 274
712 274
711 274
710 273
709 273
708 273
707 273
706 273
705 273
704 272
703 272
702 272
701 271
700 271
699 271
698 271
697 271
696 270
695 270
694 270
693 269
692 269
691 269
690 268
689 268
688 268
687 267
686 266
685 265
685 264
684 263
683 262
682 261
681 260
681 259
680 258
680 257
679 256
678 255
678 254
677 253
677 252
676 251
676 250
675 249
675 248
675 247
674 246
674 245
673 244
673 243
673 242
672 241
672 240
672 239
672 238
672 237
672 236
673 235
674 234
674 233
675 232
676 231
677 231
678 230
679 229
680 228
681 227
682 226
683 225
684 224
685 223
686 222
687 221
688 220
688 219
689 218
690 217
691 216
691 215
692 214
692 213
693 212
693 211
693 210
694 209
694 208
695 207
695 206
696 205
697 204
697 203
698 202
698 201
698 200
698 199
698 198
698 197
697 196
698 195
698 194
698 193
698 192
698 191
698 190
698 189
698 188
697 187
697 186
696 185
696 184
695 183
695 182
695 181
695 180
695 179
695 178
695 177
694 176
694 175
693 174
692 173
691 173
690 173
689 172
689 171
689 170
688 169
688 168
688 167
687 166
687 165
686 164
685 163
684 162
684 161
683 160
682 159
682 158
681 157
681 156
680 155
680 154
679 153
679 152
678 151
678 150
677 150
676 149
675 148
675 147
674 146
674 145
674 144
674 143
674 142
673 141
672 140
671 139
671 138
671 137
670 136
670 135
669 134
668 133
668 132
667 131
666 130
666 129
665 128
665 127
664 126
663 125
663 124
662 123
662 122
662 121
662 120
661 119
661 118
661 117
660 116
659 115
658 115
657 114
657 113
656 112
656 111
656 110
655 109
654 108
654 107
653 107
652 106
651 105
651 104
650 103
649 102
649 101
648 100
648 99
647 98
646 97
645 97
644 97
643 96
642 95
642 94
641 93
640 92
639 91
638 90
638 89
637 88
636 87
635 86
634 86
633 86
632 85
632 84
631 84
630 83
630 82
629 82
628 81
627 81
626 80
625 79
625 78
624 77
623 76
622 75
621 75
620 74
620 73
619 72
618 71
617 70
616 69
615 69
614 68
613 67
612 66
611 65
610 64
609 64
608 63
608 62
607 61
606 60
605 60
604 59
604 58
603 57
602 56
601 55
600 54
599 53
598 52
598 51
597 50
596 49
595 48
594 47
593 47
592 46
591 46
591 47
591 48
591 49
591 50
591 51
591 52
592 53
592 54
592 55
593 56
593 57
593 58
593 59
593 60
594 61
594 62
594 63
594 64
595 65
595 66
595 67
595 68
595 69
595 70
595 71
595 72
595 73
595 74
595 75
594 76
595 77
595 78
595 79
594 80
594 81
594 82
594 83
594 84
593 85
593 86
593 87
592 88
592 89
591 90
591 91
591 92
591 93
591 94
591 95
591 96
591 97
591 98
590 99
590 100
590 101
591 102
591 103
590 104
590 105
590 106
590 107
590 108
590 109
590 110
590 111
590 112
589 113
589 114
589 115
590 116
590 117
590 118
590 119
590 120
589 121
589 122
589 123
589 124
589 125
589 126
590 127
590 128
589 129
589 130
589 131
589 132
589 133
589 134
589 135
589 136
589 137
589 138
589 139
589 140
589 141
589 142
589 143
589 144
589 145
589 146
589 147
589 148
588 149
588 150
588 151
588 152
588 153
588 154
588 155
587 156
587 157
587 158
587 159
587 160
587 161
588 162
588 163
588 164
589 165
589 166
589 167
589 168
590 169
590 170
590 171
591 172
591 173
591 174
591 175
592 176
592 177
593 178
593 179
593 180
593 181
594 182
594 183
594 184
594 185
593 186
593 187
593 188
593 189
593 190
594 191
594 192
594 193
595 194
595 195
596 196
596 197
596 198
597 199
597 200
597 201
597 202
598 203
598 204
598 205
598 206
598 207
598 208
598 209
599 210
599 211
599 212
599 213
600 214
600 215
601 216
601 217
602 218
603 219
603 220
603 221
604 222
604 223
604 224
605 224
606 225
607 226
608 227
608 228
609 229
610 230
610 231
611 232
611 233
611 234
612 235
613 236
614 237
615 238
616 238
617 239
618 240
619 240
620 241
621 242
622 242
623 242
624 242
625 242
626 243
627 243
628 243
629 243
630 243
631 243
632 243
633 244
634 244
635 244
636 244
637 244
638 244
639 244
640 245
641 245
642 245
643 245
644 245
645 245
646 245
647 245
648 245
649 245
650 245
651 245
652 245
653 245
654 245
655 245
656 245
657 245
658 245
659 245
660 245
661 245
662 245
663 245
664 244
665 244
666 244
667 244
668 244
669 244
670 244
671 245
672 246
672 247
673 248
673 249
674 250
674 251
675 252
675 253
676 254
676 255
677 256
677 257
677 258
678 259
678 260
679 261
679 262
679 263
680 264
679 265
678 266
677 266
676 266
675 266
674 266
673 266
672 267
671 267
670 267
669 267
668 267
667 267
666 267
665 267
664 267
663 267
662 267
661 267
660 267
659 267
658 267
657 267
656 267
655 267
654 267
653 267
652 267
651 267
650 267
649 267
648 267
647 267
646 267
645 267
644 267
643 267
642 267
641 267
640 267
639 267
638 267
637 267
636 267
635 267
634 267
633 267
632 267
631 267
630 267
629 267
628 267
627 267
626 267
625 267
624 267
623 266
622 266
621 266
620 266
619 266
618 266
617 266
616 266
615 266
614 265
613 265
612 265
611 265
610 265
609 265
608 265
607 266
606 266
605 266
604 266
603 266
602 266
601 266
600 266
599 266
598 266
597 266
596 266
595 266
594 266
593 266
592 266
591 266
590 266
589 266
588 266
587 266
586 266
585 266
584 266
583 266
582 266
581 266
580 266
579 266
578 266
577 266
576 266
575 266
574 266
573 266
572 266
571 265
570 265
569 265
568 265
567 265
566 265
565 265
564 265
563 265
562 265
561 265
560 265
559 265
558 265
557 265
556 265
555 265
554 265
553 265
552 265
551 265
550 265
549 264
548 264
547 264
546 264
545 264
544 264
543 264
542 264
541 264
540 264
539 264
538 263
537 263
536 263
535 263
534 263
533 263
532 263
531 263
530 262
529 262
528 262
527 262
526 262
525 261
524 260
523 259
522 258
521 257
520 257
519 256
518 255
517 254
516 253
515 252
515 251
514 250
514 249
513 248
513 247
513 246
512 245
512 244
512 243
512 242
512 241
512 240
512 239
512 238
512 237
512 236
512 235
512 234
513 233
513 232
513 231
513 230
513 229
514 228
514 227
514 226
514 225
514 224
514 223
514 222
514 221
514 220
514 219
514 218
514 217
514 216
514 215
514 214
514 213
514 212
514 211
514 210
514 209
514 208
514 207
514 206
513 205
513 204
513 203
513 202
512 201
512 200
512 199
511 198
511 197
510 196
510 195
509 194
509 193
508 193
507 192
507 191
506 190
506 189
506 188
505 187
505 186
504 185
504 184
503 183
503 182
502 181
502 180
501 179
501 178
500 177
499 177
498 176
498 175
497 174
496 173
495 172
494 171
494 170
493 169
492 168
491 167
490 167
489 167
488 166
488 165
487 164
486 163
485 162
484 161
483 160
482 159
481 158
480 157
480 156
479 155
478 154
477 153
476 152
475 151
474 150
473 150
472 149
472 148
471 147
470 146
469 145
468 144
467 143
466 142
465 142
464 141
463 140
462 139
461 138
461 137
460 136
459 135
459 134
458 133
457 132
456 131
455 130
454 129
453 128
452 128
451 127
450 126
449 125
449 124
448 123
447 123
446 122
445 121
444 120
443 119
442 118
441 117
440 116
439 116
438 116
437 116
436 117
435 116
434 116
433 115
432 115
431 114
430 114
429 114
428 113
427 113
426 112
425 111
424 111
423 111
422 110
421 109
420 108
419 107
418 106
417 105
416 104
415 103
414 102
413 102
412 102
411 102
410 101
409 100
408 99
407 99
406 98
405 98
404 97
403 97
402 96
401 96
400 95
399 95
398 95
397 94
396 94
395 94
394 94
393 95
392 95
391 95
390 95
389 95
388 95
387 94
386 95
385 94
384 93
383 92
382 91
381 90
380 90
379 89
378 90
377 90
376 89
375 88
374 87
373 87
372 87
371 87
370 87
369 86
368 86
367 85
366 85
365 84
364 84
363 85
362 84
361 84
360 83
359 83
358 83
357 83
356 82
355 82
354 82
353 82
352 81
351 81
350 80
349 80
348 79
347 79
346 78
345 78
344 77
343 77
342 76
341 76
340 75
339 75
338 74
337 74
336 73
335 73
334 72
333 71
332 71
331 70
330 70
329 70
328 70
327 70
326 70
326 71
326 72
327 73
327 74
327 75
328 76
329 77
329 78
330 79
330 80
331 81
331 82
332 83
332 84
333 85
333 86
334 87
334 88
335 89
335 90
335 91
335 92
335 93
336 94
336 95
336 96
337 97
337 98
337 99
337 100
338 101
338 102
338 103
338 104
338 105
339 106
339 107
339 108
340 109
340 110
341 111
341 112
341 113
341 114
341 115
342 116
342 117
342 118
342 119
342 120
342 121
342 122
342 123
342 124
341 125
341 126
341 127
341 128
341 129
342 130
342 131
341 132
341 133
342 134
342 135
343 136
343 137
344 138
345 139
346 140
346 141
346 142
346 143
346 144
347 145
348 146
348 147
349 148
349 149
350 150
351 151
351 152
351 153
351 154
352 155
352 156
353 157
354 158
354 159
355 160
356 161
357 162
357 163
357 164
357 165
358 166
359 167
359 168
360 169
361 170
361 171
362 172
362 173
362 174
363 175
363 176
364 177
365 178
365 179
366 180
366 181
366 182
367 183
368 184
368 185
369 186
369 187
369 188
370 188
371 189
371 190
372 191
372 192
373 193
374 194
374 195
375 196
376 197
376 198
376 199
377 200
377 201
378 202
379 203
380 204
381 204
382 205
383 206
384 207
385 207
386 208
386 209
386 210
387 211
388 212
388 213
389 214
390 215
391 216
392 216
393 217
394 218
395 219
396 220
397 221
398 222
399 223
400 224
401 225
401 226
402 227
402 228
403 229
404 230
405 230
406 231
407 232
408 233
409 234
410 234
411 235
412 236
413 237
413 238
414 238
415 239
415 240
416 240
417 241
418 242
419 242
420 243
421 244
421 245
422 246
423 247
424 248
425 248
426 249
427 249
428 249
429 249
430 250
431 250
432 250
433 251
434 252
434 253
435 253
436 254
437 254
438 255
439 255
440 255
441 256
442 256
443 257
444 257
445 257
446 257
447 258
448 258
449 258
450 258
451 259
452 260
453 260
454 260
455 261
456 261
457 261
458 261
459 261
460 261
461 261
462 261
463 261
464 261
465 261
466 261
467 261
468 261
469 261
470 261
471 261
472 260
473 260
474 260
475 260
476 259
477 259
478 259
479 258
480 258
481 257
482 257
483 256
484 256
485 255
486 254
487 254
488 253
489 253
490 252
491 252
492 251
493 251
494 251
495 250
496 250
497 250
498 250
499 250
500 250
501 250
502 250
503 250
504 250
505 250
506 250
507 250
508 250
509 251
510 251
511 252
512 253
513 254
514 255
515 256
516 257
516 258
516 259
516 260
515 261
514 261
513 262
512 262
511 263
510 263
509 263
508 263
507 264
506 264
505 264
504 264
503 264
502 264
501 265
500 265
499 265
498 265
497 265
496 265
495 265
494 265
493 265
492 265
491 265
490 265
489 265
488 265
487 265
486 266
485 266
484 266
483 266
482 266
481 266
480 266
479 266
478 266
477 266
476 266
475 266
474 266
473 266
472 266
471 266
470 266
469 266
468 266
467 266
466 266
465 266
464 266
463 266
462 266
461 266
460 266
459 266
458 266
457 266
456 266
455 266
454 265
453 266
452 266
451 265
450 265
449 265
448 265
447 265
446 265
445 265
444 265
443 265
442 265
441 265
440 265
439 265
438 265
437 265
436 265
435 265
434 265
433 265
432 265
431 265
430 265
429 265
428 265
427 265
426 265
425 265
424 265
423 265
422 265
421 265
420 265
419 265
418 265
417 265
416 265
415 265
414 265
413 265
412 265
411 265
410 265
409 265
408 265
407 265
406 265
405 265
404 265
403 265
402 265
401 265
400 265
399 265
398 265
397 265
396 265
395 265
394 265
393 265
392 265
391 264
390 264
389 264
388 264
387 264
386 264
385 264
384 264
383 264
382 264
381 264
380 264
379 263
378 263
377 263
376 263
375 263
374 263
373 263
372 263
371 262
370 262
369 262
368 262
367 262
366 261
365 261
364 261
363 260
362 259
361 258
360 257
359 256
358 255
358 254
357 253
357 252
357 251
357 250
357 249
357 248
357 247
357 246
357 245
357 244
358 243
358 242
358 241
358 240
358 239
359 238
359 237
359 236
359 235
359 234
359 233
359 232
360 231
360 230
360 229
360 228
360 227
360 226
360 225
361 224
361 223
361 222
361 221
361 220
361 219
361 218
361 217
361 216
361 215
361 214
361 213
361 212
361 211
361 210
361 209
361 208
361 207
361 206
360 205
359 204
359 203
359 202
359 201
359 200
358 199
358 198
358 197
358 196
357 195
357 194
357 193
356 192
356 191
356 190
356 189
356 188
355 187
355 186
355 185
354 184
354 183
353 182
352 181
352 180
351 179
351 178
351 177
350 176
350 175
349 174
349 173
349 172
349 171
348 170
348 169
348 168
347 167
347 166
346 165
346 164
345 164
344 163
343 162
343 161
342 160
342 159
341 158
341 157
340 156
340 155
340 154
339 153
339 152
339 151
338 150
338 149
338 148
338 147
337 146
337 145
336 144
336 143
335 142
335 141
334 141
333 140
333 139
333 138
332 137
332 136
332 135
332 134
331 133
331 132
330 131
329 131
328 130
328 129
327 128
327 127
327 126
326 125
326 124
325 123
325 122
324 121
323 120
322 119
321 118
320 119
319 118
318 117
317 116
317 115
316 114
316 113
315 112
314 111
314 110
313 109
313 108
312 107
312 106
312 105
312 104
311 103
311 102
310 101
309 100
308 100
307 99
306 98
306 97
306 96
305 95
305 94
304 93
304 92
303 91
302 90
301 89
300 88
299 88
298 88
297 87
296 86
295 86
294 86
293 85
292 84
292 83
291 82
291 81
290 80
289 80
288 79
288 78
288 77
287 76
287 75
286 74
285 73
284 73
283 72
282 71
281 70
280 69
279 69
278 68
277 67
276 67
275 66
274 66
273 66
272 66
271 65
270 64
269 63
268 62
267 61
266 61
265 60
264 61
263 60
262 59
261 59
260 58
259 57
258 56
257 55
256 54
255 53
254 53
253 52
252 51
251 50
250 50
249 49
249 48
248 47
247 46
247 45
246 44
245 43
244 42
243 41
242 40
241 39
240 38
239 37
238 37
237 37
236 37
