472 7
471 8
470 8
469 8
468 8
467 8
466 8
465 8
464 8
463 8
462 8
461 8
460 8
459 8
458 8
457 9
456 9
455 9
454 9
453 9
452 9
451 9
450 9
449 10
448 10
447 10
446 10
445 11
444 11
443 12
442 12
441 13
440 13
439 13
438 13
437 12
436 12
435 12
434 13
433 13
432 13
431 13
430 14
429 14
428 14
427 14
426 15
425 15
424 16
423 16
422 17
421 17
420 17
419 17
418 18
417 18
416 18
415 19
415 20
414 21
413 22
412 22
411 21
410 21
409 21
408 22
407 22
406 23
405 23
404 23
403 23
402 24
401 24
400 24
399 25
398 25
397 25
396 25
395 25
394 26
393 26
392 26
391 26
390 27
389 27
388 27
387 27
386 28
385 28
384 29
383 30
382 30
381 30
380 31
379 32
378 32
377 33
376 33
375 33
374 34
373 34
372 34
371 35
370 35
369 36
368 36
367 36
366 37
365 37
364 37
363 38
362 38
361 38
360 39
359 39
358 39
357 40
356 40
355 41
354 41
353 41
352 42
351 42
350 43
349 43
348 43
347 44
346 44
345 44
344 45
343 46
342 46
341 46
340 46
339 46
338 47
337 47
336 48
335 48
334 48
333 49
332 49
331 49
330 50
329 50
328 51
327 51
326 51
325 52
324 52
323 53
322 53
321 54
320 54
319 55
318 55
317 56
316 57
315 58
314 59
313 60
312 60
311 61
310 62
309 62
308 62
307 63
306 64
305 65
304 65
303 66
302 66
301 66
300 66
300 67
299 68
298 67
298 68
298 69
298 70
297 71
296 71
295 71
294 70
295 69
296 69
296 68
295 69
294 70
293 70
292 71
291 71
290 72
289 73
288 73
287 74
286 74
285 75
284 76
283 76
282 77
281 78
280 78
279 79
278 80
277 80
276 81
275 82
274 83
273 83
274 84
274 85
273 86
272 86
271 87
270 87
269 86
269 85
268 86
267 86
266 87
265 87
264 88
263 88
262 89
261 89
260 90
259 91
258 92
257 92
256 93
255 94
254 94
253 95
252 96
251 97
250 97
249 98
248 99
247 100
246 101
245 102
244 102
243 103
242 104
241 105
240 106
239 107
238 107
237 108
236 109
235 110
234 111
233 111
232 112
232 113
231 114
230 114
229 114
228 114
227 115
226 115
225 115
224 116
223 117
222 117
221 118
220 118
219 119
218 120
217 120
216 121
215 122
214 123
213 123
212 124
211 124
210 125
209 126
208 126
207 127
206 127
205 127
204 128
203 128
202 129
201 130
200 130
199 131
198 131
197 132
196 133
195 134
194 135
193 135
192 136
191 137
190 137
189 138
188 138
187 139
186 139
185 140
184 140
183 141
182 141
181 141
180 142
179 142
178 143
177 143
176 143
175 144
174 144
173 144
172 145
171 145
170 145
169 145
168 146
167 146
166 146
165 147
164 147
163 147
162 148
161 148
160 149
159 149
158 149
157 149
156 149
155 150
154 150
153 150
152 151
151 151
150 151
149 152
148 152
147 153
146 153
145 154
144 155
143 155
142 154
141 155
140 155
139 155
138 155
137 156
136 156
135 156
134 157
133 157
132 158
131 158
130 158
129 159
128 160
127 160
126 160
125 160
124 161
123 161
122 161
121 162
120 162
119 162
118 162
117 162
116 163
115 163
114 163
113 163
112 164
111 164
110 164
109 164
108 164
107 164
106 164
105 165
104 165
103 165
102 165
101 165
100 165
99 165
98 165
97 166
96 166
95 166
94 166
93 166
92 166
91 167
90 167
89 167
88 167
87 167
86 167
85 167
84 167
83 167
82 167
81 167
80 166
79 166
78 166
77 166
76 166
75 166
74 166
73 166
72 166
71 166
70 166
69 166
68 166
67 166
66 166
65 166
64 166
63 166
62 166
61 166
60 166
59 165
58 165
57 165
56 165
55 165
54 165
53 165
52 165
51 165
50 164
49 164
48 164
47 164
46 164
45 164
44 164
43 164
42 163
41 163
40 163
39 163
38 163
37 163
36 163
35 162
34 162
33 162
32 162
31 162
30 162
29 162
28 162
27 162
26 162
25 162
24 161
23 161
22 161
21 161
20 161
19 161
18 161
17 161
16 160
15 160
14 160
13 160
12 159
11 159
10 159
9 159
8 158
7 158
8 159
8 160
9 161
10 161
11 162
11 163
12 164
13 165
14 166
15 167
16 168
16 169
17 170
18 170
19 171
20 172
21 173
22 173
23 174
24 175
25 175
26 176
27 177
28 178
29 178
30 179
31 180
32 180
33 181
34 182
35 182
36 183
37 184
38 184
39 185
40 186
41 186
42 187
43 187
44 188
45 189
46 189
47 190
48 191
49 191
50 192
51 193
52 193
53 194
54 195
55 195
56 196
57 197
58 197
59 198
60 198
61 199
62 200
63 200
64 201
65 202
66 202
67 203
68 203
69 204
70 205
71 206
72 206
73 207
74 207
75 208
76 208
77 209
78 210
79 210
80 211
81 212
82 212
83 213
84 214
85 214
86 215
87 215
88 216
89 216
90 217
91 218
92 218
93 219
94 219
95 220
96 220
97 221
98 222
99 223
100 224
101 224
102 225
103 226
104 227
105 227
106 227
107 228
108 229
109 230
110 231
111 231
112 232
113 233
114 233
115 234
116 235
117 235
118 236
119 237
120 237
121 238
122 238
123 239
124 240
125 240
126 241
127 241
128 242
129 243
130 243
131 244
132 244
133 245
134 246
135 246
136 247
137 248
138 249
139 250
140 250
141 251
142 252
143 252
144 253
145 254
146 254
147 255
148 255
149 256
150 256
151 257
152 257
153 258
154 258
155 259
156 259
157 260
158 260
159 261
160 261
161 262
162 263
163 263
164 264
165 265
166 265
167 266
168 266
169 267
170 267
171 268
172 268
173 269
174 269
175 270
176 271
177 272
178 272
179 273
180 274
181 274
182 275
183 276
184 276
185 277
186 278
187 278
188 279
189 279
190 280
191 281
192 281
193 282
194 282
195 283
196 283
197 284
198 285
199 285
200 286
201 286
202 287
203 287
204 288
205 289
206 289
207 290
208 290
209 291
210 292
211 292
212 293
213 293
214 294
215 294
216 295
217 296
218 296
219 297
220 298
221 298
222 299
223 299
224 300
225 301
226 302
227 303
228 304
229 304
230 305
231 306
232 307
233 308
234 308
235 309
235 310
236 310
237 311
238 312
239 313
240 313
241 314
242 315
243 316
244 317
245 318
246 319
247 320
248 320
249 321
250 320
251 320
252 321
252 322
252 323
252 324
253 324
254 325
255 326
256 327
257 328
258 328
259 329
260 330
261 330
262 331
263 332
264 332
265 333
266 333
267 334
268 334
269 335
270 335
271 336
272 336
273 337
274 337
275 337
276 338
277 338
278 339
279 339
280 340
281 341
282 341
283 342
284 342
285 343
286 343
287 344
288 345
289 345
290 346
291 347
292 348
293 349
294 349
295 350
296 351
297 352
298 353
299 354
300 354
301 355
302 356
303 356
304 357
305 357
306 358
307 358
308 359
309 360
310 360
311 361
312 361
313 362
314 363
315 364
316 364
317 365
318 365
319 365
320 366
321 367
322 367
323 367
324 368
325 368
326 369
327 370
328 370
329 371
330 371
331 372
332 372
333 372
334 373
335 374
336 374
337 375
338 376
339 376
340 377
341 378
342 378
343 379
344 379
345 380
346 380
347 381
348 381
349 382
350 382
351 383
352 383
353 383
354 384
355 384
356 384
357 385
357 386
358 386
359 386
360 387
361 388
362 388
363 388
364 389
365 389
366 390
367 390
368 391
369 391
370 392
371 392
372 392
373 393
374 393
375 394
376 395
377 395
378 395
379 396
380 396
381 397
382 397
383 397
384 398
385 398
386 399
387 399
388 399
389 399
390 400
391 400
392 400
393 400
394 400
395 400
396 400
397 400
398 400
399 401
400 401
401 402
402 402
403 402
404 402
405 402
406 402
407 402
408 402
409 403
410 403
411 403
412 403
413 403
414 403
415 403
416 403
417 403
418 404
419 404
420 404
421 404
422 404
423 405
424 405
425 405
426 405
427 406
428 406
429 406
430 406
431 406
432 406
433 406
434 406
435 407
436 406
437 407
438 407
439 407
440 407
441 407
442 408
443 408
444 408
445 408
446 408
447 408
448 408
449 408
450 408
451 408
452 408
453 408
454 409
455 409
456 409
457 409
458 409
459 409
460 408
461 408
462 408
463 408
464 408
465 408
466 407
467 407
468 407
469 407
470 406
471 406
472 406
473 405
474 405
475 405
476 405
477 405
478 405
479 405
480 405
481 404
482 404
483 404
484 404
485 404
486 403
487 403
488 403
489 402
490 402
491 402
492 402
493 401
494 401
495 401
496 401
497 400
498 400
499 400
500 400
501 399
502 399
503 399
504 399
505 398
506 398
507 398
508 397
509 397
510 397
511 397
512 397
513 397
514 396
515 396
516 396
517 395
518 395
519 395
520 395
521 395
522 394
523 394
524 394
525 393
526 393
527 393
528 393
529 392
530 392
531 392
532 392
533 391
534 391
535 391
536 390
537 390
538 389
539 389
540 388
541 388
542 387
543 387
544 387
545 387
546 386
547 385
548 385
549 385
550 384
551 383
552 383
553 383
554 382
555 382
556 381
557 381
558 380
559 380
560 379
561 379
562 378
563 378
564 378
565 377
566 377
567 377
568 376
569 376
570 375
571 375
572 374
573 374
574 373
575 373
576 372
577 372
578 371
579 370
580 370
581 369
582 368
583 367
584 367
585 366
586 366
587 365
588 365
589 364
590 364
591 363
592 363
593 362
594 361
595 361
596 360
597 359
598 358
599 357
600 357
601 356
602 355
603 354
604 354
605 353
606 352
607 351
608 350
609 349
610 348
611 347
612 346
613 345
614 344
614 343
615 342
616 342
617 341
617 340
618 339
619 338
620 337
621 336
622 335
623 334
623 333
624 332
625 331
625 330
626 329
627 328
628 327
628 326
629 325
630 324
631 323
631 322
632 321
633 320
633 319
634 318
635 317
635 316
636 315
637 314
637 313
638 312
639 311
639 310
640 309
640 308
640 307
641 306
641 305
642 304
642 303
643 302
643 301
643 300
644 299
644 298
644 297
645 296
645 295
646 294
646 293
646 292
646 291
647 290
647 289
647 288
647 287
647 286
647 285
647 284
648 283
648 282
648 281
648 280
648 279
648 278
648 277
648 276
648 275
649 274
649 273
649 272
649 271
649 270
649 269
649 268
648 267
648 266
648 265
648 264
648 263
648 262
648 261
648 260
648 259
648 258
647 257
647 256
647 255
647 254
647 253
647 252
646 251
645 250
645 249
645 248
645 247
644 246
644 245
644 244
644 243
643 242
643 241
643 240
643 239
642 238
642 237
642 236
641 235
641 234
641 233
641 232
640 231
640 230
640 229
639 228
639 227
638 226
637 225
638 224
638 223
638 222
638 221
638 220
638 219
638 218
638 217
638 216
638 215
639 214
639 213
639 212
639 211
639 210
640 209
640 208
641 207
642 207
643 206
644 206
645 206
646 205
647 205
648 205
649 205
650 204
651 203
652 203
653 203
654 203
655 202
656 202
657 202
658 202
659 202
660 202
661 202
662 202
663 202
664 202
665 202
666 202
667 202
668 202
669 202
670 202
671 202
672 202
673 203
674 203
675 203
676 203
677 203
678 203
679 203
680 203
681 203
682 203
683 203
684 203
685 203
686 203
687 204
688 204
689 203
690 203
691 203
692 204
693 204
694 203
695 204
696 204
697 204
698 204
699 204
700 204
701 204
702 204
703 205
704 204
705 205
706 205
707 205
708 205
709 205
710 205
711 205
712 205
713 205
714 206
715 206
716 206
717 206
718 206
719 207
720 207
721 207
722 207
723 207
724 207
725 207
726 207
727 207
728 208
729 208
730 208
731 208
732 208
733 208
734 208
735 208
736 209
737 209
738 209
739 209
740 209
741 209
742 210
743 210
744 210
745 211
746 211
747 211
748 211
749 212
750 212
751 212
752 212
753 213
754 213
755 213
756 213
757 213
758 213
759 213
760 213
761 213
762 213
763 213
764 213
765 213
766 213
767 213
768 213
769 213
770 213
771 213
772 213
773 213
774 213
775 213
776 213
777 213
778 213
779 213
780 213
781 213
782 213
783 213
784 213
785 213
786 213
787 213
788 213
789 213
790 213
791 213
792 213
793 213
794 212
795 212
796 211
797 211
798 210
799 209
800 208
800 207
800 206
800 205
799 204
798 203
797 202
796 201
795 201
794 200
793 199
792 198
791 198
790 197
790 196
789 195
789 194
789 193
789 192
788 192
787 193
786 193
785 193
784 193
783 194
782 194
781 195
780 195
779 195
778 196
777 196
776 196
775 197
774 197
773 197
772 198
771 198
770 199
769 199
768 199
767 200
766 200
765 201
764 201
763 201
762 201
761 201
760 202
759 202
758 202
757 202
756 202
755 202
754 202
753 202
752 202
751 202
750 202
749 202
748 202
747 201
746 201
745 201
744 201
743 201
742 201
741 201
740 201
739 201
738 200
737 200
736 200
735 200
734 200
733 200
732 200
731 199
730 199
729 199
728 199
727 199
726 199
725 199
724 199
723 199
722 199
721 199
720 199
719 199
718 199
717 199
716 199
715 199
714 198
713 198
712 198
711 198
710 198
709 198
708 198
707 198
706 198
705 198
704 198
703 198
702 198
701 198
700 198
699 198
698 198
697 198
696 197
695 197
694 197
693 197
692 197
691 197
690 197
689 197
688 197
687 197
686 197
685 197
684 197
683 197
682 197
681 197
680 197
679 197
678 196
677 196
676 196
675 196
674 196
673 195
672 195
671 195
670 195
669 195
668 195
667 195
666 195
665 195
664 195
663 195
662 195
661 195
660 195
659 194
658 194
657 194
656 193
655 193
654 193
653 193
652 192
651 192
650 192
649 192
648 191
647 191
646 190
645 190
644 189
644 188
643 187
642 186
642 185
641 184
641 183
641 182
640 181
640 180
640 179
640 178
640 177
640 176
640 175
639 174
639 173
639 172
639 171
638 170
638 169
638 168
638 167
638 166
638 165
638 164
638 163
638 162
638 161
638 160
638 159
638 158
638 157
637 156
637 155
637 154
637 153
637 152
636 151
636 150
636 149
636 148
635 147
635 146
635 145
635 144
635 143
634 142
634 141
634 140
634 139
634 138
633 137
633 136
633 135
632 134
632 133
632 132
632 131
631 130
631 129
631 128
630 127
630 126
630 125
629 124
629 123
629 122
629 121
628 120
627 119
627 118
626 117
626 116
626 115
625 114
624 113
624 112
624 111
624 110
623 109
623 108
623 107
622 106
622 105
622 104
621 103
621 102
620 101
620 100
619 99
619 98
618 97
618 96
617 95
617 94
616 93
615 92
615 91
614 90
613 89
613 88
613 87
612 86
612 85
611 84
610 83
609 82
609 81
608 80
607 79
606 78
606 77
605 76
604 75
603 74
602 73
601 72
600 71
600 70
599 69
598 68
597 67
596 66
595 65
594 64
593 63
592 62
591 61
590 60
589 59
588 58
587 57
586 56
585 55
584 55
583 54
582 53
581 52
581 51
580 50
579 49
578 49
577 48
576 47
575 46
574 45
573 44
572 43
571 43
570 42
569 41
568 40
567 40
566 39
565 39
564 38
563 37
562 37
561 36
560 35
559 34
558 34
557 33
556 32
555 31
554 31
553 30
552 29
551 29
550 28
549 27
548 27
547 26
546 25
545 25
544 24
543 24
542 23
541 22
540 22
539 21
538 21
537 20
536 19
535 19
534 19
533 18
532 18
531 17
530 17
529 16
528 16
527 16
526 15
525 15
524 15
523 14
522 14
521 13
520 13
519 12
518 12
517 12
516 12
515 11
514 11
513 11
512 10
511 10
510 10
509 9
508 9
507 9
506 9
505 8
504 8
503 8
502 8
501 8
500 8
499 8
498 8
497 7
496 7
495 7
494 7
493 7
492 7
491 7
490 7
489 7
488 7
487 7
486 7
485 7
484 7
483 7
482 7
481 7
480 7
479 7
478 7
477 7
476 7
475 7
474 7
473 7
472 7
