301 72
300 73
299 73
298 73
297 74
296 74
295 74
294 74
293 73
292 74
291 74
290 74
289 74
288 74
287 74
286 74
285 74
284 74
283 74
282 74
282 75
283 76
283 77
283 78
283 79
283 80
284 81
284 82
284 83
285 84
285 85
285 86
285 87
285 88
286 89
286 90
286 91
286 92
286 93
286 94
287 95
287 96
287 97
287 98
287 99
287 100
287 101
287 102
287 103
287 104
287 105
287 106
288 107
288 108
288 109
288 110
288 111
289 112
289 113
289 114
289 115
290 116
290 117
290 118
290 119
291 120
291 121
291 122
292 123
292 124
292 125
292 126
293 127
293 128
294 129
294 130
294 131
295 132
295 133
296 134
296 135
297 136
297 137
298 138
298 139
299 140
299 141
300 142
301 143
301 144
302 145
302 146
303 147
303 148
304 149
305 150
305 151
306 152
306 153
307 154
307 155
308 156
309 157
309 158
310 159
310 160
311 161
311 162
312 163
312 164
313 165
314 166
314 167
315 168
316 169
316 170
317 171
317 172
318 173
319 174
320 175
320 176
321 177
322 178
322 179
323 180
324 181
324 182
325 183
326 184
327 184
328 185
328 186
328 187
328 188
329 189
330 190
330 191
331 192
332 193
332 194
333 195
334 196
335 197
335 198
336 199
337 200
338 201
338 202
339 203
340 204
341 205
342 206
343 207
343 208
344 209
344 210
345 210
346 211
346 212
347 213
348 214
348 215
349 216
350 217
350 218
351 219
352 220
353 221
353 222
354 223
354 224
355 225
356 226
356 227
357 228
357 229
358 230
359 231
360 232
360 233
361 234
360 235
359 235
358 235
357 235
356 235
355 235
354 235
353 235
352 235
351 235
350 235
349 235
348 235
347 235
346 234
345 234
344 234
343 234
342 234
341 233
340 233
339 233
338 233
337 233
336 232
335 232
334 232
333 231
332 230
332 229
331 229
330 229
329 229
328 229
327 229
326 229
325 229
324 229
323 228
322 228
321 228
320 227
319 227
318 227
317 226
316 226
315 225
314 225
313 225
312 224
311 224
310 223
309 223
308 222
307 221
306 221
305 221
304 220
303 220
302 219
301 219
300 219
299 218
298 217
297 217
296 217
295 217
294 216
293 216
292 216
291 215
290 215
289 214
288 214
287 213
286 213
285 213
284 212
283 212
282 212
281 211
280 211
279 211
278 210
277 210
276 209
275 209
274 209
273 209
272 208
271 208
270 208
269 207
268 207
267 207
266 207
265 206
264 206
263 206
262 206
261 205
260 205
259 205
258 204
257 204
256 204
255 204
254 204
253 203
252 203
251 203
250 202
249 201
248 201
247 201
246 200
245 200
244 200
243 199
242 199
241 199
240 198
239 198
238 198
237 198
236 197
235 197
234 197
233 197
232 197
231 196
230 196
229 196
228 196
227 196
226 196
225 196
224 196
223 196
222 196
221 195
220 195
219 195
218 195
217 195
216 195
215 196
214 196
213 195
212 195
211 195
210 195
209 195
208 195
207 195
206 195
205 195
204 195
203 195
202 196
201 196
200 196
199 196
198 196
197 196
196 196
195 196
194 196
193 196
192 197
191 197
190 197
189 197
188 197
187 197
186 197
185 198
184 198
183 198
182 198
181 197
180 197
179 197
178 198
177 198
176 198
175 198
174 198
173 198
172 198
171 199
170 199
169 199
168 199
167 199
166 200
165 200
164 200
163 201
162 201
161 202
160 202
159 203
158 203
157 204
156 204
155 205
154 205
153 206
152 206
151 207
150 208
150 209
151 210
151 211
152 212
152 213
153 214
153 215
154 216
155 217
155 218
156 219
157 220
158 221
159 222
160 223
161 224
162 225
163 226
164 227
165 228
166 229
167 230
167 231
168 231
169 232
170 233
171 233
172 234
173 235
174 236
175 236
176 237
177 238
178 238
179 239
180 240
181 240
182 241
183 242
184 242
185 242
186 243
187 244
188 244
189 245
190 245
191 245
192 246
193 247
194 247
195 248
196 248
197 248
198 249
199 249
200 250
201 250
202 251
202 252
201 253
200 253
199 253
198 253
197 252
196 252
195 252
194 252
193 252
192 252
191 252
190 252
189 252
188 252
187 252
186 251
185 251
184 251
183 251
182 251
181 251
180 251
179 251
178 251
177 250
176 251
175 251
174 250
173 250
172 250
171 250
170 250
169 250
168 250
167 250
166 250
165 250
164 250
163 250
162 250
161 251
160 251
159 251
158 251
157 251
156 251
155 252
154 252
153 252
152 252
151 252
150 252
149 253
148 253
147 253
146 253
145 253
144 253
143 253
142 254
141 254
140 254
139 255
138 255
137 255
136 256
135 257
134 257
133 257
132 258
131 258
130 259
129 260
128 260
127 261
126 262
125 263
124 264
123 264
122 265
121 266
121 267
120 268
119 269
119 270
119 271
119 272
120 272
121 273
122 274
123 274
124 275
125 276
126 277
126 278
127 278
128 279
128 280
129 280
130 281
129 282
129 283
128 284
127 285
126 285
125 286
124 286
123 287
122 287
121 288
120 289
119 290
119 291
118 292
118 293
118 294
118 295
119 296
120 296
121 297
122 298
123 299
124 300
124 301
124 302
123 303
122 304
121 305
120 306
120 307
120 308
121 309
122 310
123 311
124 312
125 313
126 314
127 315
127 316
128 316
129 317
130 318
131 319
132 320
133 320
134 321
135 322
136 322
137 323
138 324
139 324
140 324
141 325
142 325
143 325
144 326
145 326
146 327
147 327
148 327
149 328
150 328
151 329
152 329
153 330
154 330
155 330
156 331
157 331
158 331
159 331
160 332
161 332
162 332
163 332
164 333
165 333
166 333
167 333
168 333
169 333
170 333
171 333
172 333
173 334
174 334
175 334
176 334
177 334
178 334
179 334
180 333
181 333
182 333
183 333
184 333
185 333
186 333
187 333
188 333
189 332
190 332
191 332
192 332
193 332
194 331
195 331
196 331
197 331
198 331
199 331
200 331
201 331
202 330
203 330
204 330
205 330
206 330
207 330
208 329
209 329
210 329
211 329
212 329
213 329
214 329
215 330
214 331
213 332
212 333
211 334
210 335
209 336
208 337
207 338
206 339
205 340
204 341
204 342
203 343
202 344
201 345
200 346
199 347
199 348
198 349
197 350
196 351
196 352
195 353
195 354
194 355
193 356
193 357
193 358
192 359
192 360
191 361
191 362
190 363
190 364
189 365
189 366
189 367
188 368
188 369
187 370
186 370
185 370
184 371
185 371
186 371
187 372
187 373
187 374
187 375
187 376
187 377
187 378
187 379
188 380
188 381
188 382
188 383
188 384
188 385
188 386
188 387
188 388
189 389
189 390
189 391
189 392
190 393
191 394
192 394
193 395
194 395
195 395
196 395
197 396
198 396
199 396
200 396
201 396
202 397
203 397
204 397
205 397
206 398
207 398
208 399
209 399
210 399
211 400
212 400
213 400
214 400
215 400
216 400
217 400
218 400
219 400
220 400
221 399
222 399
223 399
224 399
225 399
226 399
227 398
228 398
229 398
230 398
231 398
232 397
233 397
234 397
235 396
236 396
237 396
238 396
239 395
240 395
241 395
242 394
243 394
244 394
245 393
246 393
247 393
248 392
249 392
250 392
251 391
252 391
253 390
254 390
255 390
256 389
257 389
258 388
259 388
260 387
261 387
262 386
263 386
264 385
265 385
266 384
267 384
268 383
269 383
270 382
271 381
272 381
273 380
274 380
275 379
276 378
277 378
278 377
279 377
280 376
281 375
282 375
283 374
284 374
285 373
286 372
287 372
288 371
289 370
290 370
291 369
292 368
293 368
294 367
295 366
296 365
297 364
298 363
299 363
300 362
301 361
302 360
303 360
304 359
305 358
306 357
307 357
308 356
309 355
310 355
310 354
311 353
312 353
313 353
314 352
315 351
316 350
317 350
318 349
319 348
320 348
321 347
322 347
323 346
324 345
325 345
326 344
327 343
328 343
329 342
330 341
331 340
332 340
333 339
334 338
335 338
336 337
337 336
338 336
339 335
340 334
341 333
342 332
343 332
344 331
345 330
346 329
347 328
348 328
349 327
350 326
351 326
352 325
353 324
354 323
355 323
356 322
357 321
358 321
359 321
360 320
361 320
362 320
363 319
364 319
365 319
366 318
367 318
368 318
369 319
368 320
368 321
367 322
366 323
365 323
364 324
363 325
362 326
361 327
360 328
359 328
358 329
357 330
356 331
355 332
354 333
353 333
352 334
351 335
350 336
349 337
348 337
347 338
346 339
345 340
344 341
343 342
342 343
341 344
340 345
339 346
338 347
337 347
336 348
335 349
334 350
333 351
332 352
331 353
330 354
329 355
328 356
327 357
326 358
325 359
324 360
323 361
322 361
321 362
321 363
320 364
319 365
318 365
317 366
316 367
315 368
314 369
313 370
313 371
312 372
311 372
311 373
310 374
309 375
308 376
307 377
306 378
306 379
305 380
304 381
303 382
302 383
301 384
301 385
300 386
299 386
298 386
298 387
298 388
297 389
296 390
296 391
295 392
294 393
294 394
293 395
292 396
292 397
291 398
290 399
289 400
289 401
288 402
287 403
287 404
286 405
285 406
285 407
284 408
284 409
283 410
283 411
282 412
282 413
281 414
281 415
280 416
280 417
279 418
279 419
278 420
278 421
278 422
277 423
277 424
276 425
276 426
276 427
275 428
275 429
275 430
275 431
274 432
274 433
274 434
274 435
273 436
273 437
273 438
273 439
273 440
274 441
275 441
276 441
277 442
278 443
279 443
280 444
281 444
282 444
283 444
284 444
285 444
286 444
287 444
288 443
289 443
290 443
291 443
292 442
293 442
294 441
295 441
296 440
297 440
298 441
298 442
298 443
298 444
298 445
298 446
297 447
297 448
297 449
297 450
297 451
297 452
297 453
297 454
298 455
299 455
300 455
301 455
302 455
303 455
304 455
305 455
306 455
307 455
308 455
309 455
310 455
311 455
312 455
313 454
314 454
315 454
316 454
317 454
318 453
319 453
320 452
321 452
322 451
323 451
324 450
325 450
326 450
327 449
328 449
329 449
330 448
331 448
332 448
333 447
334 447
335 447
336 446
337 446
338 445
339 445
340 445
341 444
342 444
343 443
344 443
345 442
346 442
347 441
348 441
349 440
350 439
351 439
352 438
353 438
354 437
355 437
356 436
357 436
358 435
359 435
360 434
361 433
362 433
363 432
364 432
365 431
366 431
367 430
368 429
369 428
370 428
371 427
372 427
373 426
374 425
375 425
376 424
377 423
378 423
379 422
380 421
381 420
382 420
383 419
384 418
385 417
386 417
387 416
388 416
389 415
390 414
391 414
392 413
393 413
394 412
395 411
396 410
397 409
398 408
399 407
400 406
401 406
401 405
402 404
403 404
404 403
405 402
406 401
407 400
408 399
409 398
410 397
411 396
411 395
412 394
413 393
414 392
415 391
415 390
416 389
417 388
418 387
419 386
420 385
421 384
422 384
422 383
422 382
423 381
424 381
424 380
425 379
426 378
427 378
427 377
428 376
429 375
430 374
431 373
432 372
433 371
434 370
435 369
436 368
437 367
438 367
439 366
440 365
441 364
442 363
443 363
444 362
445 361
446 360
447 360
447 359
448 358
449 357
450 356
451 355
452 355
453 354
454 354
455 353
456 352
457 352
457 351
458 350
459 350
459 349
460 348
461 348
462 347
463 346
464 345
464 344
465 343
466 342
467 341
468 340
469 339
470 338
471 337
471 336
472 335
473 334
474 333
475 333
476 332
477 332
478 331
479 330
480 330
481 329
482 328
483 328
484 328
485 327
486 327
487 327
488 326
489 326
490 325
491 325
492 324
493 323
494 322
495 322
496 321
497 320
498 320
499 319
500 318
501 317
502 317
503 316
504 316
505 315
506 314
507 314
508 313
509 312
510 312
511 311
512 311
513 310
514 309
515 309
516 308
517 308
518 307
519 307
520 306
521 305
522 305
523 304
524 304
525 303
526 303
527 302
528 302
529 301
530 301
531 300
532 300
533 300
534 299
535 299
536 298
537 298
538 297
539 297
540 296
541 296
542 295
543 295
544 294
545 294
546 293
547 293
548 292
549 292
550 291
551 291
552 290
553 290
554 289
555 289
556 289
557 288
558 288
559 288
560 287
561 287
562 287
563 286
564 286
565 286
566 286
567 286
568 285
569 285
570 285
571 285
572 284
573 284
574 284
575 284
576 284
577 284
578 283
579 283
580 283
581 283
582 283
583 283
584 283
585 282
586 282
587 282
588 282
589 282
590 282
591 281
592 281
593 281
594 281
595 281
596 281
597 280
598 280
599 280
600 280
601 280
602 280
603 280
604 280
605 280
606 279
607 279
608 279
609 279
610 279
611 279
612 279
613 279
614 278
615 278
616 278
617 278
618 278
619 278
620 278
621 277
622 277
623 277
624 277
625 277
626 277
627 277
628 276
629 276
630 276
631 276
632 276
633 276
634 276
635 276
636 275
637 275
638 275
639 275
640 275
641 275
642 274
643 274
644 274
645 274
646 274
647 274
648 274
649 273
650 273
651 273
652 273
653 273
654 273
655 273
656 273
657 272
658 272
659 272
660 272
661 272
662 272
663 272
664 271
665 271
666 271
667 271
668 271
669 271
670 270
671 270
672 270
673 270
674 270
675 270
676 270
677 270
678 269
679 269
680 269
681 269
682 269
683 269
684 269
685 269
686 269
687 269
688 268
689 268
690 268
691 268
692 268
693 268
694 268
695 268
696 268
697 268
698 268
699 268
700 268
701 268
702 268
703 268
704 268
705 268
706 268
707 268
708 268
709 268
710 268
711 268
712 268
713 268
714 268
715 267
716 266
717 265
717 264
717 263
716 263
715 264
714 263
714 262
715 261
715 260
715 259
715 258
715 259
714 260
714 261
713 262
712 261
711 260
711 259
712 258
711 258
710 257
709 257
708 257
707 257
706 257
705 257
704 257
703 257
702 257
701 257
700 257
699 257
698 258
697 258
696 258
695 258
694 259
693 258
692 258
691 258
690 258
689 258
688 259
687 259
686 259
685 259
684 259
683 260
682 260
681 260
680 260
679 260
678 260
677 260
676 260
675 260
674 261
673 261
672 261
671 261
670 261
669 261
668 261
667 261
666 262
665 262
664 262
663 262
662 262
661 262
660 262
659 262
658 262
657 263
656 263
655 263
654 263
653 263
652 263
651 263
650 263
649 264
648 264
647 264
646 264
645 264
644 264
643 264
642 264
641 265
640 265
639 265
638 265
637 265
636 265
635 265
634 265
633 265
632 265
631 266
630 266
629 266
628 266
627 266
626 267
625 267
624 267
623 267
622 267
621 267
620 267
619 267
618 267
617 267
616 267
615 268
614 268
613 268
612 268
611 268
610 268
609 268
608 268
607 268
606 269
605 269
604 269
603 269
602 269
601 269
600 269
599 269
598 269
597 270
596 270
595 270
594 270
593 270
592 270
591 270
590 270
589 270
588 271
587 271
586 271
585 271
584 271
583 271
582 271
581 271
580 271
579 271
578 271
577 271
576 271
575 271
574 271
573 271
572 270
571 270
570 270
569 270
568 270
567 270
566 269
565 269
564 269
563 269
562 268
561 268
560 268
559 268
558 267
557 267
556 267
555 266
554 266
553 266
552 266
551 266
550 265
549 265
548 265
547 265
546 264
545 264
544 264
543 263
542 263
541 263
540 263
539 262
538 262
537 261
536 261
535 261
534 261
533 260
532 260
531 260
530 259
529 258
528 258
527 257
526 257
525 257
524 256
523 256
522 256
521 255
520 254
519 253
518 253
517 252
516 251
515 251
514 250
513 249
512 249
511 248
510 247
509 247
508 246
507 245
506 245
505 244
504 243
503 243
502 242
501 241
500 241
499 240
498 240
497 239
496 239
495 238
494 237
493 237
492 236
491 236
490 235
489 234
488 233
487 232
486 232
485 231
484 230
483 230
482 229
481 229
480 228
479 227
478 226
477 226
476 225
475 224
474 223
473 223
472 222
471 221
470 220
469 219
468 218
467 217
466 217
465 216
464 215
463 214
462 214
461 213
460 212
459 211
458 211
457 210
456 209
455 208
454 207
453 206
452 205
451 204
450 204
449 203
448 202
447 201
446 200
445 199
444 199
443 198
443 197
442 196
441 195
440 194
439 193
438 192
438 191
437 190
436 189
436 188
435 187
434 186
433 185
432 184
431 183
430 182
430 181
429 181
428 180
428 179
427 179
426 178
426 177
425 177
424 176
423 175
422 174
422 173
421 173
420 172
420 171
419 170
418 169
417 169
416 168
416 167
415 166
414 165
413 164
412 163
411 162
410 161
409 160
408 159
407 158
407 157
406 156
405 155
404 154
403 153
402 152
401 151
400 150
400 149
399 148
399 147
398 146
397 145
396 144
396 143
395 142
394 141
394 140
393 139
392 138
391 137
390 136
390 135
389 134
388 133
387 132
386 131
385 130
384 129
383 128
382 127
381 126
380 125
379 124
378 123
377 122
376 121
375 120
374 119
373 118
372 117
372 116
371 116
370 115
370 114
369 113
368 112
367 112
366 111
365 110
364 109
363 108
362 107
361 107
360 106
360 105
359 104
358 103
357 103
356 102
355 101
354 100
353 99
352 98
351 98
350 97
349 96
348 96
347 95
346 94
345 93
344 92
343 91
342 91
341 90
340 89
339 89
338 88
337 88
336 87
335 86
334 85
333 85
332 84
331 84
330 83
329 82
328 81
327 81
326 81
325 81
324 81
323 80
322 80
321 79
320 78
319 78
318 78
317 77
316 77
315 76
314 76
313 75
312 75
311 75
310 74
309 74
308 73
307 73
306 73
305 73
304 72
303 72
302 72
301 72
