40 284
40 285
40 286
40 287
40 288
40 289
40 290
40 291
40 292
40 293
40 294
40 295
40 296
41 297
42 298
42 299
43 300
44 301
45 302
46 303
47 304
48 305
49 306
50 307
51 308
52 309
53 310
54 311
55 312
56 313
57 314
58 315
59 316
60 317
61 317
62 318
63 319
64 319
65 320
66 321
67 321
68 322
69 322
70 323
71 323
72 324
73 324
74 325
75 325
76 326
77 326
78 327
79 327
80 328
81 328
82 329
83 329
84 330
85 330
86 331
87 331
88 332
89 332
90 333
91 333
92 334
93 334
94 334
95 334
96 335
97 335
98 335
99 335
100 336
101 336
102 336
103 336
104 337
105 337
106 337
107 338
108 338
109 338
110 339
111 339
112 339
113 339
114 340
115 340
116 340
117 340
118 340
119 340
120 341
121 341
122 341
123 341
124 341
125 342
126 342
127 342
128 342
129 342
130 343
131 343
132 343
133 343
134 344
135 344
136 344
137 344
138 345
139 345
140 345
141 345
142 346
143 346
144 346
145 347
146 347
147 347
148 348
149 348
150 348
151 349
152 349
153 349
154 349
155 350
156 350
157 351
158 351
159 351
160 352
161 352
162 353
163 353
164 353
165 354
166 354
167 354
168 355
169 355
170 355
171 356
172 356
173 356
174 357
175 357
176 357
177 358
178 358
179 358
180 358
181 359
182 359
183 359
184 360
185 360
186 361
187 361
188 361
189 362
190 362
191 362
192 363
193 363
194 363
195 364
196 364
197 365
198 365
199 366
200 366
201 367
202 367
203 367
204 368
205 368
206 369
207 369
208 370
209 370
210 370
211 370
212 371
213 371
214 371
215 371
216 372
217 372
218 372
219 372
220 372
221 373
222 373
223 373
224 373
225 374
226 374
227 375
228 375
229 375
230 376
231 376
232 376
233 377
234 377
235 378
236 378
237 378
238 379
239 379
240 379
241 379
242 380
243 380
244 380
245 381
246 381
247 382
248 382
249 382
250 382
251 383
252 383
253 383
254 384
255 384
256 384
257 384
258 384
259 385
260 385
261 385
262 385
263 386
264 386
265 386
266 386
267 386
268 387
269 387
270 387
271 387
272 387
273 388
274 388
275 388
276 388
277 388
278 389
279 389
280 389
281 389
282 389
283 390
284 390
285 390
286 390
287 391
288 391
289 391
290 391
291 392
292 392
293 392
294 393
295 393
296 393
297 394
298 394
299 395
300 395
301 395
302 395
303 396
304 396
305 396
306 396
307 397
308 397
309 397
310 397
311 397
312 398
313 398
314 398
315 398
316 398
317 399
318 399
319 399
320 399
321 399
322 400
323 400
324 400
325 400
326 400
327 400
328 401
329 401
330 401
331 401
332 401
333 401
334 402
335 402
336 402
337 402
338 402
339 402
340 402
341 402
342 402
343 403
344 403
345 403
346 403
347 403
348 403
349 403
350 403
351 403
352 404
353 404
354 404
355 404
356 404
357 404
358 404
359 405
360 405
361 405
362 405
363 405
364 405
365 405
366 405
367 405
368 405
369 405
370 405
371 405
372 405
373 405
374 405
375 406
376 406
377 406
378 406
379 406
380 406
381 406
382 406
383 406
384 406
385 406
386 406
387 406
388 406
389 406
390 406
391 406
392 406
393 406
394 406
395 406
396 406
397 406
398 406
399 406
400 406
401 406
402 406
403 406
404 406
405 406
406 405
407 405
408 405
409 405
410 405
411 405
412 405
413 405
414 405
415 405
416 405
417 405
418 405
419 405
420 405
421 405
422 405
423 405
424 405
425 405
426 405
427 405
428 405
429 405
430 404
431 404
432 404
433 404
434 404
435 404
436 404
437 404
438 404
439 404
440 404
441 404
442 404
443 404
444 404
445 403
446 403
447 403
448 403
449 403
450 403
451 403
452 403
453 403
454 403
455 403
456 403
457 403
458 403
459 403
460 403
461 403
462 403
463 403
464 402
465 402
466 402
467 402
468 402
469 402
470 402
471 402
472 402
473 402
474 402
475 402
476 402
477 402
478 401
479 401
480 401
481 401
482 401
483 401
484 401
485 401
486 401
487 401
488 401
489 401
490 401
491 401
492 401
493 401
494 401
495 401
496 401
497 401
498 401
499 401
500 401
501 401
502 400
503 400
504 400
505 400
506 400
507 400
508 400
509 400
510 400
511 400
512 400
513 400
514 400
515 399
516 399
517 399
518 399
519 399
520 399
521 399
522 399
523 398
524 398
525 398
526 398
527 398
528 397
529 397
530 397
531 397
532 397
533 396
534 396
535 396
536 396
537 396
538 396
539 396
540 396
541 396
542 396
543 396
544 396
545 396
546 395
547 395
548 395
549 395
550 395
551 395
552 394
553 394
554 394
555 394
556 394
557 394
558 393
559 393
560 393
561 393
562 393
563 392
564 392
565 392
566 392
567 392
568 392
569 391
570 391
571 391
572 391
573 391
574 390
575 390
576 390
577 389
578 389
579 389
580 388
581 388
582 388
583 387
584 387
585 387
586 387
587 386
588 386
589 386
590 385
591 385
592 385
593 384
594 384
595 384
596 384
597 383
598 383
599 383
600 383
601 382
602 382
603 382
604 382
605 382
606 381
607 381
608 381
609 381
610 380
611 380
612 380
613 380
614 379
615 379
616 379
617 379
618 379
619 378
620 378
621 378
622 377
623 377
624 377
625 376
626 376
627 376
628 376
629 375
630 375
631 375
632 375
633 374
634 374
635 374
636 373
637 373
638 373
639 372
640 372
641 372
642 371
643 371
644 370
645 370
646 369
647 369
648 369
649 369
650 369
651 369
652 369
653 369
654 368
655 368
656 368
657 368
658 367
659 367
660 367
661 366
662 366
663 366
664 365
665 365
666 365
667 364
668 364
669 364
670 363
671 363
672 363
673 362
674 362
675 362
676 361
677 361
678 361
679 361
680 360
681 360
682 360
683 360
684 360
685 359
686 359
687 359
688 359
689 359
690 359
691 359
692 359
693 359
694 359
695 359
696 359
697 359
698 359
699 359
700 360
701 360
702 360
703 360
704 361
705 361
706 362
707 362
708 362
709 363
710 363
711 363
712 363
713 364
714 364
715 364
716 364
717 364
718 364
719 364
720 364
721 364
722 364
723 364
724 364
725 364
726 364
727 364
727 363
727 362
727 361
727 360
727 359
727 358
727 357
727 356
727 355
726 355
725 354
724 354
723 354
722 353
721 353
720 352
719 352
718 352
717 351
716 351
715 351
714 351
713 351
712 350
711 350
710 350
709 349
708 349
707 348
706 348
705 347
704 347
703 346
702 346
701 345
700 344
699 343
698 342
697 342
696 341
695 340
694 339
693 338
692 337
691 337
690 336
689 335
688 334
687 333
686 332
685 332
684 331
683 330
682 329
681 329
680 328
679 327
678 327
677 326
676 325
675 325
674 324
673 324
672 323
671 322
670 322
669 321
668 321
667 320
666 319
665 319
664 318
663 318
662 317
661 317
660 316
659 315
658 315
657 314
656 314
655 313
654 313
653 312
652 312
651 312
650 311
649 311
648 310
647 310
646 309
645 309
644 308
643 308
642 307
641 307
640 306
639 306
638 305
637 305
636 304
635 304
634 304
633 303
632 303
631 302
630 302
629 301
628 301
627 300
626 300
625 299
624 299
623 298
622 298
621 298
620 297
619 297
618 297
617 296
616 296
615 296
614 296
613 295
612 295
611 295
610 295
609 294
608 294
607 293
606 293
605 293
604 292
603 292
602 292
601 291
600 291
599 290
598 290
597 289
596 289
595 289
594 288
593 288
592 287
591 287
590 287
589 286
588 286
587 285
586 285
585 284
584 284
583 284
582 283
581 283
580 282
579 282
578 282
577 281
576 281
575 281
574 280
573 280
572 280
571 280
570 279
569 279
568 279
567 279
566 279
565 278
564 278
563 278
562 277
561 277
560 277
559 276
558 276
557 275
556 275
555 275
554 275
553 274
552 274
551 273
550 273
549 273
548 273
547 273
546 272
545 272
544 272
543 272
542 272
541 272
540 271
539 271
538 271
537 271
536 271
535 271
534 271
533 270
532 270
531 270
530 270
529 270
528 270
527 270
526 270
525 270
524 270
523 270
522 270
521 269
520 269
519 269
518 269
517 269
516 269
515 269
514 269
513 269
512 269
511 269
510 269
509 269
508 269
507 269
506 269
505 269
504 269
503 269
502 269
501 269
500 269
499 269
498 269
497 269
496 269
495 269
494 269
493 269
492 268
491 268
490 268
489 268
488 268
487 268
486 267
485 267
484 267
483 266
482 266
481 266
480 266
479 265
478 265
477 265
476 265
475 265
474 264
473 264
472 264
471 264
470 264
469 264
468 264
467 264
466 263
465 263
464 263
463 263
462 263
461 263
460 263
459 263
458 263
457 263
456 263
455 263
454 263
453 262
452 262
451 262
450 262
449 262
448 262
447 261
446 261
445 261
444 261
443 261
442 261
441 261
440 261
439 260
438 260
437 260
436 260
435 260
434 260
433 260
432 260
431 260
430 260
429 260
428 260
427 260
426 260
425 260
424 260
423 260
422 260
421 260
420 260
419 260
418 260
417 260
416 260
415 260
414 260
413 260
412 260
411 260
410 260
409 260
408 260
407 260
406 260
405 260
404 260
403 260
402 260
401 260
400 260
399 260
398 260
397 260
396 260
395 260
394 260
393 259
392 259
391 259
390 259
389 259
388 259
387 258
386 258
385 258
384 258
383 258
382 258
381 258
380 258
379 258
378 258
377 258
376 258
375 258
374 258
373 258
372 258
371 258
370 258
369 257
368 257
367 257
366 257
365 257
364 257
363 256
362 256
361 256
360 256
359 256
358 256
357 256
356 256
355 256
354 256
353 256
352 256
351 256
350 256
349 256
348 256
347 256
346 256
345 256
344 256
343 256
342 256
341 255
340 255
339 255
338 255
337 255
336 255
335 255
334 255
333 254
332 254
331 254
330 254
329 254
328 254
327 254
326 254
325 254
324 254
323 254
322 254
321 254
320 254
319 254
318 254
317 254
316 254
315 254
314 254
313 254
312 254
311 254
310 254
309 254
308 254
307 254
306 254
305 254
304 254
303 254
302 255
301 255
300 255
299 255
298 255
297 255
296 255
295 255
294 255
293 255
292 255
291 255
290 254
289 254
288 254
287 254
286 254
285 254
284 254
283 254
282 254
281 254
280 254
279 254
278 254
277 254
276 254
275 254
274 254
273 254
272 254
271 254
270 254
269 254
268 254
267 254
266 254
265 254
264 254
263 254
262 254
261 254
260 254
259 254
258 254
257 254
256 254
255 254
254 254
253 254
252 254
251 254
250 254
249 255
248 255
247 255
246 255
245 256
244 256
243 256
242 256
241 256
240 257
239 257
238 257
237 257
236 257
235 257
234 258
233 258
232 258
231 258
230 258
229 258
228 258
227 258
226 258
225 258
224 258
223 258
222 258
221 258
220 258
219 258
218 258
217 259
216 259
215 259
214 259
213 259
212 259
211 260
210 260
209 260
208 260
207 260
206 260
205 260
204 260
203 260
202 260
201 260
200 260
199 260
198 260
197 260
196 260
195 261
194 261
193 261
192 261
191 261
190 261
189 261
188 262
187 262
186 262
185 262
184 262
183 262
182 262
181 262
180 262
179 262
178 262
177 263
176 263
175 263
174 263
173 263
172 263
171 263
170 263
169 263
168 263
167 263
166 263
165 264
164 264
163 264
162 264
161 264
160 264
159 264
158 264
157 264
156 264
155 264
154 265
153 265
152 265
151 265
150 265
149 265
148 265
147 265
146 265
145 265
144 265
143 265
142 265
141 265
140 265
139 265
138 265
137 265
136 265
135 265
134 265
133 265
132 265
131 265
130 265
129 265
128 265
127 265
126 265
125 265
124 265
123 265
122 265
121 265
120 265
119 265
118 265
117 265
116 265
115 265
114 265
113 265
112 265
111 265
110 265
109 265
108 265
107 265
106 265
105 265
104 265
103 265
102 265
101 265
100 266
99 266
98 266
97 266
96 267
95 267
94 267
93 267
92 268
91 268
90 268
89 268
88 268
87 269
86 269
85 269
84 269
83 270
82 270
81 270
80 271
79 271
78 271
77 272
76 272
75 272
74 272
73 273
72 273
71 273
70 273
69 274
68 274
67 274
66 274
65 275
64 275
63 275
62 275
61 275
60 276
59 276
58 276
57 276
56 277
55 277
54 277
53 278
52 278
51 278
50 279
49 279
48 279
47 280
46 280
45 281
44 282
43 282
42 283
41 283
40 284
