297 27
297 28
296 29
296 30
296 31
296 32
296 33
296 34
296 35
296 36
295 37
295 38
295 39
295 40
295 41
294 42
294 43
294 44
294 45
293 46
293 47
293 48
293 49
293 50
292 51
292 52
292 53
292 54
291 55
291 56
291 57
291 58
291 59
291 60
290 61
291 62
291 63
291 64
290 65
289 66
289 67
289 68
289 69
289 70
289 71
289 72
289 73
290 74
290 75
290 76
290 77
290 78
291 79
291 80
291 81
291 82
291 83
291 84
291 85
291 86
292 87
292 88
292 89
292 90
292 91
293 92
293 93
293 94
293 95
294 96
294 97
295 98
295 99
296 100
296 101
296 102
297 103
297 104
297 105
298 106
298 107
299 108
299 109
299 110
300 111
300 112
300 113
301 114
301 115
301 116
301 117
302 118
302 119
302 120
303 121
303 122
303 123
304 124
304 125
304 126
305 127
305 128
305 129
305 130
306 131
306 132
306 133
307 134
307 135
307 136
308 137
308 138
308 139
307 140
306 140
305 140
304 139
304 138
303 137
302 136
301 135
300 134
299 133
299 132
298 131
297 130
296 129
295 128
294 127
294 126
293 125
292 124
291 123
290 122
289 121
288 120
287 119
286 119
285 118
284 117
283 116
282 115
281 114
280 113
279 112
278 111
277 110
276 109
276 108
275 108
274 107
273 106
272 105
271 104
270 103
269 102
268 101
267 100
266 99
265 98
264 97
263 97
262 96
261 96
260 95
259 95
258 94
257 93
256 92
255 91
254 91
253 90
252 89
251 89
250 88
249 87
248 87
247 86
246 85
245 85
244 84
243 84
242 83
241 83
240 82
239 81
238 81
237 81
236 80
235 80
234 80
233 79
232 79
231 78
230 78
229 77
228 77
227 77
226 77
225 77
225 78
225 79
225 80
224 81
224 82
224 83
223 84
222 85
221 85
220 84
219 84
218 83
217 83
216 83
215 83
214 82
213 82
212 82
211 82
210 82
209 82
208 82
207 82
206 81
205 81
204 81
203 81
202 81
201 81
200 81
199 81
198 80
198 81
197 82
196 83
195 82
194 82
193 82
192 82
191 82
190 82
189 82
188 83
187 83
186 83
185 83
184 83
183 83
182 83
181 83
180 83
179 83
178 83
177 83
176 83
175 83
174 83
173 82
173 83
173 84
174 85
174 86
175 87
175 88
175 89
175 90
176 91
176 92
176 93
176 94
177 95
177 96
177 97
177 98
177 99
177 100
177 101
178 102
178 103
178 104
178 105
179 106
179 107
179 108
180 109
180 110
180 111
181 112
181 113
181 114
182 115
182 116
182 117
183 118
183 119
184 120
184 121
185 122
185 123
186 124
186 125
187 126
187 127
188 128
189 129
189 130
190 131
190 132
191 133
191 134
192 135
192 136
193 137
193 138
194 139
194 140
195 141
196 142
196 143
197 144
197 145
198 146
198 147
199 148
199 149
199 150
200 151
199 152
198 152
197 152
196 152
195 152
194 152
193 152
192 151
191 151
190 151
189 151
188 151
187 150
186 150
185 150
184 150
183 150
182 149
181 149
180 149
179 149
178 149
177 148
176 148
175 148
174 148
173 148
172 147
171 147
170 147
169 146
168 146
167 146
166 145
165 145
164 145
163 144
162 144
161 144
160 144
159 144
158 144
157 144
156 144
155 144
154 144
153 144
152 144
151 144
150 144
149 144
148 144
147 144
146 144
145 144
144 145
143 145
142 145
141 146
140 146
139 147
138 147
137 147
136 148
135 149
134 149
133 150
132 151
131 151
130 152
129 152
128 153
127 154
126 155
125 155
124 156
123 157
122 157
121 158
120 158
119 158
118 159
117 160
117 161
118 161
119 162
120 163
121 164
122 165
123 166
124 167
125 168
125 169
126 170
127 171
127 172
128 173
129 174
129 175
129 176
130 177
131 178
132 179
132 180
133 181
134 182
135 183
135 184
135 185
134 186
133 186
132 186
131 186
130 186
129 186
128 186
127 186
126 186
125 186
124 186
123 186
122 186
121 186
120 187
119 187
118 187
117 187
116 187
115 187
114 187
113 188
112 188
111 189
110 189
109 189
108 190
107 190
106 191
105 191
104 192
103 192
102 193
101 193
100 194
99 195
98 195
97 196
96 196
95 197
94 197
93 198
92 198
91 199
90 200
89 200
89 201
90 202
91 203
92 204
93 205
93 206
94 207
93 208
92 209
91 210
90 210
89 211
88 211
87 212
86 212
85 213
84 213
83 214
82 214
81 215
80 216
79 217
78 217
77 218
76 218
75 219
74 220
73 221
72 221
71 222
70 222
69 223
68 223
67 224
66 224
65 225
64 225
63 226
63 227
64 227
65 228
66 229
67 229
68 230
69 231
70 231
71 232
72 233
73 233
74 234
75 235
76 236
77 237
78 237
79 238
80 239
81 240
82 241
82 242
82 243
81 244
80 244
80 245
81 246
82 247
82 248
83 248
84 249
85 249
86 250
87 250
88 251
89 251
90 252
91 253
92 253
93 254
94 255
95 255
96 256
97 256
98 257
99 257
100 258
101 258
102 259
103 259
104 260
105 260
106 260
107 261
108 261
109 261
110 261
111 261
112 262
112 263
112 264
112 265
112 266
111 267
110 268
109 269
109 270
108 271
107 272
106 273
105 274
104 275
103 276
102 277
101 277
100 278
99 278
98 278
98 279
99 280
100 281
101 282
101 283
102 284
103 285
104 286
105 287
106 288
107 289
107 290
108 291
109 292
110 293
111 293
112 294
113 295
114 296
115 297
116 298
117 298
118 299
119 300
120 300
121 301
122 301
123 302
124 303
125 304
126 304
127 305
128 305
129 305
130 306
131 306
132 306
133 306
134 306
135 306
136 306
137 306
138 306
139 306
140 306
141 306
142 306
143 306
144 306
145 306
146 306
147 306
148 305
149 305
150 305
151 305
152 305
153 305
154 306
155 307
156 308
156 309
157 309
156 308
155 307
155 306
155 305
156 304
157 304
158 303
159 303
160 303
161 302
162 302
163 302
164 302
165 301
166 301
167 301
168 301
169 301
170 301
171 301
172 301
173 301
174 300
175 301
175 302
175 303
175 304
174 305
173 306
173 307
172 308
171 309
171 310
170 311
169 312
169 313
168 314
167 315
166 316
165 317
165 318
164 319
163 320
162 321
162 322
161 323
161 324
161 325
160 326
159 327
159 328
159 329
158 330
158 331
157 332
157 333
156 334
156 335
156 336
155 337
155 338
154 339
154 340
153 341
153 342
152 343
152 344
152 345
151 346
151 347
150 348
150 349
150 350
149 351
149 352
148 353
147 354
146 355
145 356
145 357
144 358
145 359
146 360
147 360
148 360
149 361
150 361
151 362
152 362
153 362
154 362
155 363
156 363
157 363
158 364
159 364
160 364
161 365
162 365
163 366
164 366
165 366
166 366
167 367
168 368
169 369
170 370
171 370
172 371
173 371
174 372
175 372
176 372
177 372
178 372
179 372
180 372
181 372
182 373
183 373
184 373
185 373
186 373
187 373
188 373
189 373
190 373
191 373
192 373
193 372
194 372
195 372
196 372
197 372
198 371
199 371
200 371
201 371
202 371
203 371
204 372
205 373
205 374
206 375
206 376
206 377
206 378
206 379
206 380
206 381
206 382
207 382
208 381
209 381
210 381
211 381
212 381
213 381
214 380
215 380
216 380
217 379
218 379
219 379
220 378
221 378
222 378
223 377
224 377
225 377
226 376
227 376
228 375
229 375
230 374
231 374
232 374
233 373
234 372
235 372
236 371
237 371
238 370
239 370
240 369
241 368
242 367
243 367
244 366
245 365
246 364
247 364
248 363
249 362
250 361
251 360
252 360
253 359
254 358
255 357
256 356
256 355
257 354
258 354
259 353
260 352
261 352
262 351
263 350
264 349
265 348
266 347
267 346
268 345
269 344
270 343
271 343
272 342
273 341
274 340
275 339
276 339
277 338
278 337
279 336
280 335
281 334
282 333
283 332
284 331
285 330
286 329
287 328
288 327
289 326
290 325
291 324
292 323
293 322
294 321
295 320
296 319
297 318
298 317
299 316
300 315
301 315
302 314
303 313
304 312
305 312
306 312
307 313
307 314
307 315
307 316
306 317
306 318
306 319
306 320
305 321
305 322
305 323
304 324
304 325
304 326
303 327
303 328
303 329
302 330
302 331
301 332
301 333
300 334
300 335
300 336
299 337
299 338
298 339
298 340
297 341
297 342
296 343
296 344
295 345
295 346
294 347
294 348
293 349
293 350
292 351
292 352
291 353
290 354
290 355
289 356
289 357
288 358
287 359
287 360
286 361
286 362
285 363
285 364
284 365
284 366
284 367
283 368
283 369
283 370
282 371
282 372
281 373
281 374
281 375
280 376
280 377
280 378
279 379
279 380
279 381
278 382
278 383
278 384
277 385
277 386
277 387
276 388
276 389
276 390
276 391
276 392
276 393
275 394
275 395
275 396
275 397
275 398
274 399
274 400
274 401
274 402
274 403
274 404
274 405
273 406
273 407
273 408
273 409
273 410
273 411
273 412
273 413
273 414
273 415
273 416
273 417
273 418
273 419
273 420
274 421
274 422
274 423
274 424
274 425
274 426
273 427
273 428
273 429
273 430
273 431
273 432
273 433
272 434
272 435
272 436
271 437
271 438
270 439
270 440
269 441
270 442
271 442
272 442
273 442
274 442
275 442
276 442
277 441
278 441
279 441
280 441
281 441
282 441
283 441
284 440
285 440
286 440
287 440
288 440
289 440
290 439
291 439
292 439
293 438
294 438
295 438
296 437
297 437
298 437
299 436
300 436
301 436
302 436
303 436
304 436
305 435
306 435
307 435
308 434
309 433
310 432
311 432
311 431
312 430
313 430
314 429
315 428
316 428
317 428
318 427
319 428
320 428
321 429
322 430
322 431
322 432
322 433
323 433
324 433
325 433
326 432
327 432
328 432
329 432
330 432
331 431
332 430
333 430
334 429
335 429
336 428
337 428
338 427
339 427
340 426
341 426
342 426
343 425
344 425
345 425
346 425
347 424
348 424
349 424
350 423
351 423
352 423
353 422
354 422
355 421
356 421
357 420
358 420
359 420
360 419
361 419
362 419
363 418
364 418
365 418
366 417
367 417
368 416
369 415
369 414
370 413
370 412
371 411
371 410
372 409
372 408
372 407
373 406
373 405
373 404
373 403
374 402
374 401
375 400
375 399
376 398
376 397
377 396
377 395
378 394
378 393
379 392
379 391
379 390
380 389
380 388
381 387
381 386
382 385
382 384
383 383
383 382
384 381
384 380
385 379
386 378
386 377
387 376
388 375
388 374
389 373
390 372
390 371
391 370
390 369
391 368
392 367
393 366
394 365
394 364
395 363
396 363
396 362
396 361
397 360
398 359
398 358
399 357
400 356
400 355
401 354
401 353
402 352
402 351
403 350
403 349
403 348
404 347
405 346
405 345
406 344
406 343
407 342
407 341
408 340
408 339
409 338
410 337
410 336
410 335
410 334
410 333
410 332
411 331
411 330
411 329
412 328
412 327
413 326
413 325
413 324
414 323
414 322
415 321
415 320
416 319
416 318
416 317
416 316
417 315
417 314
418 313
418 312
419 311
419 310
419 309
420 308
420 307
420 306
421 305
421 304
422 303
423 302
424 301
424 300
425 299
426 298
426 297
427 296
428 296
428 295
428 294
429 293
429 292
430 291
431 290
432 289
432 288
433 287
433 286
434 285
434 284
435 283
436 282
436 281
437 280
438 280
438 279
438 278
438 277
439 276
440 275
440 274
441 273
442 272
443 272
443 271
444 270
444 269
445 268
446 267
447 266
448 265
448 264
449 263
449 262
450 261
451 260
452 259
452 258
453 257
454 256
455 255
456 254
457 253
458 252
458 251
459 250
460 249
461 249
462 248
463 247
464 247
465 246
466 246
467 245
468 245
469 245
470 244
471 244
472 244
473 243
474 243
475 242
476 242
477 242
478 242
479 242
480 241
481 241
482 241
483 241
484 241
485 241
486 240
487 240
488 240
489 240
490 240
491 240
492 240
493 240
494 240
495 240
496 240
497 240
498 240
499 239
500 239
501 239
502 239
503 239
504 239
505 239
506 239
507 239
508 239
509 239
510 239
511 239
512 238
513 238
514 238
515 238
516 238
517 238
518 238
519 238
520 238
521 238
522 238
523 238
524 237
525 237
526 237
527 237
528 237
529 237
530 237
531 237
532 237
533 237
534 237
535 237
536 237
537 236
538 236
539 236
540 236
541 236
542 236
543 236
544 236
545 236
546 236
547 236
548 236
549 236
550 236
551 236
552 236
553 236
554 236
555 236
556 236
557 236
558 236
559 236
560 236
561 236
562 236
563 236
564 236
565 236
566 236
567 236
568 236
569 236
570 236
571 236
572 236
573 237
574 237
575 237
576 237
577 237
578 237
579 238
580 238
581 238
582 238
583 239
584 239
585 240
586 240
587 240
588 241
589 241
590 242
591 242
592 242
593 243
594 244
595 244
596 244
597 244
598 245
599 245
600 245
601 246
602 246
603 246
604 247
605 247
606 247
607 247
608 248
609 249
609 250
610 251
611 252
612 253
613 254
613 255
614 256
615 257
615 258
616 259
617 260
618 261
619 262
620 263
621 264
622 265
622 266
623 267
624 268
624 269
625 270
625 271
626 272
627 273
627 274
628 275
629 276
629 277
630 278
631 279
632 280
633 280
634 281
635 282
636 283
637 284
638 285
638 286
639 287
640 288
641 289
642 290
643 291
643 292
644 293
645 294
645 295
646 296
647 296
648 295
649 295
650 296
651 296
652 296
653 296
654 296
655 296
656 296
657 296
658 296
659 296
660 297
661 298
662 299
662 300
663 301
663 302
664 303
665 304
665 305
666 306
665 307
665 308
665 307
666 306
667 305
668 305
669 304
670 303
671 302
672 301
673 300
674 299
675 298
675 297
676 296
676 295
677 294
678 293
679 292
680 292
681 292
682 292
682 291
682 290
682 289
682 288
682 287
682 286
683 285
683 284
683 283
683 282
684 281
684 280
684 279
684 278
685 277
686 276
687 276
688 275
689 275
690 275
691 275
692 275
693 275
694 275
695 275
695 274
695 273
694 272
694 271
693 270
693 269
692 268
692 267
691 266
691 265
690 265
689 264
688 263
687 263
686 262
685 262
684 261
683 260
682 259
681 258
680 257
679 256
678 255
677 254
676 253
675 254
674 254
673 253
672 253
671 253
670 253
669 253
668 252
667 252
666 251
666 250
665 250
664 249
665 248
664 247
664 246
664 245
664 244
663 243
663 242
662 241
661 240
660 239
660 238
661 237
662 236
663 235
664 234
665 233
666 232
666 231
666 230
666 229
666 228
666 227
665 226
664 226
663 226
662 227
661 227
660 227
659 227
658 226
658 225
658 224
659 223
660 222
661 222
662 222
663 222
664 222
665 222
666 222
667 222
668 222
669 222
670 222
671 222
672 222
673 222
674 222
675 221
676 221
677 221
678 221
679 220
680 220
681 220
682 220
683 220
684 219
685 219
686 219
687 219
688 218
689 218
690 218
691 217
692 217
693 217
694 216
695 215
696 215
697 214
698 214
699 213
699 212
700 211
701 210
701 209
702 208
703 207
704 206
704 205
705 204
705 203
705 202
705 201
706 200
706 199
707 198
707 197
708 196
708 195
709 194
709 193
708 193
707 193
706 193
705 193
704 192
703 192
702 192
701 191
700 191
699 190
698 190
697 189
696 189
695 188
694 187
694 186
694 185
694 184
694 183
694 182
694 181
694 180
694 179
694 178
694 177
694 176
694 175
693 174
693 173
693 172
693 171
692 170
692 169
691 168
691 167
690 166
690 165
689 164
689 163
689 162
688 161
687 162
686 163
685 164
684 164
683 164
682 165
681 165
680 166
679 166
678 167
677 167
676 168
675 169
674 169
673 169
672 168
672 167
671 166
671 165
670 164
669 163
669 162
668 161
667 160
666 159
665 158
664 157
663 156
663 155
662 155
661 156
660 157
659 158
658 159
657 159
656 160
655 160
654 160
653 159
652 159
651 158
650 158
649 157
648 156
647 156
646 155
645 155
644 154
643 153
642 152
641 152
640 151
639 150
638 150
637 149
636 149
635 149
634 148
633 148
633 149
634 150
633 151
633 152
633 153
632 154
632 155
632 156
631 157
630 157
629 157
628 156
627 155
626 155
625 155
624 154
623 154
622 153
621 153
620 153
619 152
618 152
617 152
616 151
615 151
614 151
613 151
612 151
611 151
610 151
610 152
610 153
610 154
610 155
610 156
610 157
610 158
609 159
609 160
609 161
608 162
607 162
606 163
605 163
604 164
603 164
602 165
601 165
600 166
599 166
598 167
597 167
596 168
595 168
594 168
593 169
592 169
591 170
590 170
589 170
588 171
587 171
586 172
585 172
584 173
583 173
582 173
581 173
581 174
582 175
582 176
582 177
582 178
581 179
580 180
579 180
578 181
577 182
576 183
575 184
574 185
573 186
572 187
571 188
570 189
569 190
568 191
567 191
566 192
565 193
566 194
567 195
567 196
567 197
567 198
566 199
566 200
565 201
565 202
564 203
564 204
563 205
563 206
562 207
562 208
562 209
561 210
561 211
561 212
560 213
559 214
559 215
560 216
560 217
559 218
559 219
559 220
558 221
557 222
556 222
555 222
554 222
553 222
552 222
551 222
550 222
549 222
548 222
547 222
546 222
545 222
544 222
543 222
542 222
541 222
540 222
539 222
538 222
537 222
536 222
535 222
534 222
533 222
532 222
531 222
530 221
529 221
528 221
527 221
526 221
525 221
524 221
523 221
522 221
521 221
520 221
519 221
518 221
517 221
516 220
515 220
514 220
513 220
512 220
511 220
510 220
509 220
508 220
507 220
506 220
505 220
504 220
503 220
502 220
501 220
500 220
499 220
498 219
497 219
496 219
495 219
494 219
493 219
492 219
491 219
490 219
489 219
488 219
487 219
486 219
485 219
484 218
483 218
482 218
481 218
480 218
479 218
478 218
477 218
476 218
475 218
474 218
473 217
472 217
471 217
470 217
469 216
468 216
467 216
466 216
465 215
464 214
463 214
462 213
461 213
460 212
459 212
458 211
457 210
456 209
455 209
454 208
453 207
452 206
451 205
450 204
450 203
449 203
448 202
448 201
447 200
446 199
445 198
444 197
443 196
443 195
442 194
441 193
441 192
440 191
439 190
438 189
438 188
437 187
436 186
436 185
435 184
435 183
434 182
433 181
432 180
432 179
431 178
431 177
430 177
429 176
429 175
428 174
427 173
427 172
426 171
425 170
425 169
424 168
423 167
423 166
422 165
422 164
421 163
421 162
420 161
420 160
419 159
419 158
418 157
418 156
417 155
417 154
416 153
416 152
416 151
415 150
415 149
414 148
414 147
413 146
413 145
413 144
412 143
412 142
411 141
411 140
411 139
410 138
410 137
409 136
409 135
409 134
408 133
408 132
408 131
407 130
406 129
406 128
406 127
405 126
405 125
404 124
403 123
403 122
402 121
401 120
401 119
400 118
399 117
399 116
398 115
397 114
397 113
396 112
395 111
395 110
394 109
394 108
393 107
393 106
392 105
392 104
391 103
390 102
390 101
389 100
389 99
388 98
387 98
386 99
385 99
384 98
384 97
383 96
383 95
382 94
381 93
381 92
380 91
379 90
379 89
378 88
378 87
377 86
377 85
376 84
375 83
375 82
374 81
374 80
373 79
373 78
372 77
371 76
371 75
370 74
369 73
369 72
368 71
367 70
367 69
366 68
365 67
364 66
363 65
362 64
361 63
360 64
360 65
360 66
359 67
359 68
358 69
357 70
356 71
355 70
355 69
354 68
353 67
352 66
352 65
351 64
351 63
350 62
350 61
349 60
348 59
348 58
347 57
346 56
345 56
345 57
344 58
343 59
342 58
341 57
340 56
339 55
338 54
337 54
336 53
335 52
334 51
333 50
332 50
331 49
330 48
329 48
328 47
328 46
327 46
326 45
325 44
324 43
324 42
323 42
322 41
321 40
321 41
321 42
320 43
320 44
319 45
318 44
317 43
316 42
315 41
314 40
313 40
312 39
311 38
310 38
309 37
308 36
307 36
306 35
305 34
304 33
303 33
302 32
301 31
300 30
299 29
298 28
297 27
