334 25
333 26
332 26
331 26
330 26
329 26
328 27
327 27
326 27
325 27
324 28
323 28
322 28
321 29
320 30
320 31
319 32
318 33
318 34
317 35
316 36
315 37
315 38
314 39
313 40
313 41
312 42
312 43
311 44
311 45
311 46
310 47
310 48
309 49
309 50
308 51
308 52
307 53
307 54
306 55
306 56
305 57
305 58
304 59
304 60
303 61
302 62
302 63
301 64
301 65
301 66
301 67
301 68
301 69
302 70
302 71
302 72
302 73
302 74
302 75
302 76
302 77
302 78
302 79
302 80
302 81
302 82
302 83
302 84
302 85
303 86
303 87
303 88
303 89
303 90
304 91
304 92
304 93
304 94
304 95
304 96
304 97
304 98
304 99
304 100
304 101
304 102
303 103
303 104
303 105
302 106
302 107
301 108
301 109
301 110
300 111
300 112
300 113
300 114
300 115
300 116
301 117
301 118
301 119
302 120
302 121
303 122
303 123
303 124
304 125
304 126
305 127
305 128
306 129
307 130
307 131
308 132
308 133
309 134
310 135
310 136
311 137
312 138
312 139
313 140
313 141
314 142
314 143
315 144
315 145
315 146
315 147
316 148
316 149
316 150
316 151
316 152
316 153
316 154
316 155
316 156
316 157
315 158
315 159
315 160
315 161
315 162
315 163
315 164
315 165
315 166
315 167
316 168
316 169
317 170
317 171
318 172
318 173
319 174
320 175
321 176
322 177
323 178
324 179
325 180
326 181
327 182
328 183
329 184
330 185
331 186
332 186
333 186
334 187
335 187
336 188
337 188
338 189
339 189
340 189
341 190
342 190
343 191
344 191
345 192
346 192
347 193
348 193
349 194
350 194
351 194
352 195
353 195
354 196
355 196
356 197
357 197
358 197
359 198
360 198
361 199
362 200
363 200
364 201
365 202
366 203
367 204
368 204
369 205
369 206
370 206
371 207
372 208
373 209
374 210
375 211
376 211
377 212
378 213
379 214
380 214
381 215
382 216
383 217
384 218
385 219
386 220
386 221
387 222
388 223
388 224
389 225
389 226
390 227
390 228
391 229
391 230
391 231
391 232
391 233
391 234
391 235
391 236
391 237
391 238
390 239
389 240
388 241
387 242
386 242
385 243
384 244
383 245
383 246
382 247
381 248
381 249
381 250
381 251
381 252
381 253
381 254
382 255
382 256
382 257
383 258
383 259
384 260
384 261
385 262
386 263
386 264
387 265
388 266
389 267
390 268
391 269
392 270
393 271
393 272
393 273
393 274
394 275
393 276
393 277
393 278
393 279
392 280
391 281
390 281
389 281
388 281
387 281
386 281
385 281
384 281
383 281
382 281
381 281
380 281
379 281
378 281
377 280
376 280
375 280
374 280
373 280
372 279
371 279
370 279
369 279
368 279
367 279
366 278
365 278
364 278
363 278
362 277
361 277
360 277
359 277
358 276
357 276
356 276
355 275
354 275
353 275
352 274
351 274
350 274
349 274
348 273
347 273
346 273
345 273
344 272
343 272
342 272
341 271
340 271
339 271
338 271
337 270
336 270
335 270
334 269
333 269
332 268
331 267
330 267
329 266
328 265
327 265
326 264
325 263
324 263
323 262
322 261
321 261
320 260
319 259
318 258
317 257
316 257
315 256
314 255
313 254
312 254
311 253
310 252
309 251
308 251
307 250
306 249
305 249
304 248
303 247
302 247
301 246
300 246
299 246
298 246
297 246
296 245
295 245
294 245
293 245
292 244
291 244
290 244
289 244
288 243
287 243
286 242
285 242
284 241
283 241
282 240
281 239
280 239
279 238
278 237
277 236
276 236
275 235
274 234
273 233
272 232
271 231
270 230
269 229
268 228
267 227
266 226
265 225
264 225
263 224
263 223
262 223
261 222
260 221
259 220
258 220
257 219
256 218
255 218
254 218
253 218
252 217
251 217
250 217
249 217
248 217
247 216
246 216
245 216
244 216
243 215
242 215
241 215
240 214
239 213
238 213
237 212
236 212
235 211
234 211
233 210
232 209
231 209
230 209
229 208
228 208
227 207
226 207
225 206
224 206
223 205
222 205
221 204
220 204
219 203
218 203
217 203
216 203
215 203
214 203
213 203
212 203
211 204
210 204
209 205
208 205
207 205
206 206
205 206
204 207
203 207
202 207
201 207
200 207
199 206
198 206
197 206
196 205
195 205
194 205
193 205
192 204
191 204
190 204
189 204
188 204
187 204
186 204
185 204
184 205
183 205
182 205
181 205
180 205
179 205
178 205
177 205
176 205
175 205
174 205
173 206
172 206
171 206
170 207
169 208
168 209
167 210
167 211
166 212
165 213
164 214
164 215
163 216
162 217
161 218
160 219
159 220
158 220
157 221
156 221
155 221
154 221
153 222
152 222
151 222
150 222
149 222
148 222
147 222
146 222
145 222
144 222
143 222
142 222
141 222
140 222
139 222
138 222
137 222
136 222
135 222
134 222
133 223
132 223
131 223
130 224
129 224
128 225
127 225
126 226
125 227
124 228
123 228
122 229
121 229
120 230
119 230
118 230
117 230
116 231
115 231
114 231
113 231
112 231
111 231
110 232
109 232
108 232
107 232
106 233
105 233
104 233
103 233
102 233
101 233
100 233
99 233
98 233
97 233
96 234
95 234
94 234
93 234
92 235
91 235
90 235
89 236
88 237
87 238
86 239
85 240
84 241
83 242
82 242
81 243
80 243
79 244
78 244
77 245
76 246
75 246
74 247
73 248
72 249
71 249
70 250
70 251
69 252
68 253
67 254
66 255
65 256
65 257
64 258
63 259
63 260
62 261
62 262
61 263
60 264
59 265
58 266
57 266
56 267
55 268
54 269
53 269
52 270
51 271
50 271
49 272
48 273
48 274
47 275
46 276
45 277
44 278
44 279
43 280
42 281
41 282
40 283
40 284
39 285
38 286
37 287
37 288
36 289
35 290
34 291
33 292
32 293
31 294
31 295
30 296
30 297
30 298
30 299
30 300
30 301
31 302
32 303
33 304
33 305
34 306
34 307
35 308
35 309
36 310
36 311
36 312
37 313
38 314
39 315
40 316
40 317
41 318
42 319
43 320
44 321
44 322
45 323
46 324
46 325
47 326
48 327
48 328
49 329
49 330
50 331
50 332
51 333
52 334
52 335
52 336
53 337
53 338
54 339
54 340
55 341
55 342
56 343
56 344
57 345
57 346
58 347
59 348
59 349
60 350
61 351
61 352
62 353
63 354
64 355
65 356
66 357
67 358
67 359
68 360
69 360
70 361
70 362
71 363
72 364
73 364
74 365
75 366
76 367
77 368
78 368
79 369
80 370
81 371
82 372
83 373
84 374
85 375
86 375
87 376
88 376
89 377
90 377
91 378
92 378
93 379
94 379
95 379
96 379
97 380
98 380
99 380
100 381
101 381
102 381
103 381
104 382
105 382
106 383
107 383
108 383
109 384
110 384
111 385
112 385
113 386
114 386
115 386
116 387
117 387
118 387
119 388
120 388
121 388
122 389
123 389
124 389
125 389
126 390
127 390
128 390
129 391
130 392
130 393
131 394
131 395
132 396
132 397
132 398
132 399
132 400
133 401
133 402
133 403
133 404
133 405
133 406
133 407
133 408
134 409
134 410
134 411
134 412
135 413
135 414
135 415
135 416
136 417
136 418
136 419
136 420
137 421
137 422
137 423
138 424
139 425
139 426
140 427
141 428
142 429
143 430
144 431
145 432
146 433
147 434
148 434
149 435
150 436
151 436
152 437
153 437
154 438
155 438
156 438
157 439
158 439
159 439
160 439
161 439
162 439
163 439
164 439
165 439
166 439
167 439
168 439
169 439
170 439
171 438
172 438
173 438
174 438
175 437
176 437
177 437
178 437
179 437
180 437
181 438
182 438
183 438
184 438
185 438
186 438
187 439
188 439
189 439
190 439
191 439
192 439
193 440
194 440
195 440
196 440
197 440
198 440
199 440
200 440
201 440
202 440
203 440
204 440
205 440
206 440
207 440
208 439
209 439
210 439
211 439
212 438
213 438
214 438
215 437
216 437
217 436
218 436
219 435
220 435
221 434
222 434
223 433
224 433
225 432
226 432
227 431
228 431
229 431
230 430
231 430
232 430
233 430
234 430
235 429
236 429
237 429
238 429
239 429
240 429
241 429
242 429
243 429
244 429
245 428
246 428
247 428
248 428
249 427
250 427
251 426
252 425
253 425
254 424
255 423
256 422
257 421
258 420
259 419
260 418
261 417
262 416
263 415
264 414
265 413
266 413
267 412
268 411
269 411
270 410
271 409
272 408
273 408
274 407
275 406
276 406
277 405
278 405
279 404
280 404
281 403
282 402
283 402
284 402
285 401
286 401
287 400
288 400
289 399
290 399
291 399
292 398
293 398
294 398
295 397
296 397
297 397
298 397
299 396
300 396
301 396
302 395
303 395
304 395
305 395
306 394
307 394
308 394
309 394
310 394
311 393
312 393
313 393
314 393
315 393
316 393
317 393
318 393
319 393
320 393
321 392
322 392
323 392
324 392
325 392
326 392
327 392
328 392
329 392
330 392
331 392
332 392
333 392
334 392
335 392
336 392
337 392
338 391
339 391
340 391
341 391
342 391
343 391
344 391
345 391
346 391
347 391
348 391
349 391
350 391
351 391
352 391
353 391
354 391
355 391
356 391
357 391
358 391
359 392
360 392
361 392
362 392
363 392
364 392
365 393
366 393
367 393
368 393
369 393
370 394
371 394
372 394
373 394
374 395
375 395
376 395
377 396
378 396
379 397
380 398
381 399
381 400
382 401
382 402
383 403
383 404
383 405
383 406
383 407
383 408
383 409
383 410
383 411
383 412
383 413
383 414
383 415
383 416
382 417
381 418
381 419
380 420
379 421
379 422
378 423
377 424
376 425
375 425
374 426
373 427
372 427
371 428
370 429
369 429
368 430
367 430
366 431
365 432
364 432
363 433
362 433
361 434
360 435
359 436
359 437
358 438
357 439
356 440
356 441
355 442
354 443
353 444
352 445
351 446
350 447
349 448
348 449
347 450
346 451
345 452
344 453
343 454
342 454
341 455
340 456
339 457
338 458
337 459
336 459
335 460
334 461
333 462
332 463
331 464
330 464
330 465
329 466
328 466
327 467
326 468
325 469
324 470
323 471
322 471
321 472
320 473
319 474
318 475
318 476
317 477
316 478
315 478
314 479
313 480
312 481
311 482
310 482
309 483
308 484
307 485
306 485
305 486
304 487
303 487
302 488
301 488
300 489
299 489
298 490
297 490
296 491
295 492
294 492
293 493
292 494
291 494
290 495
289 495
289 496
288 497
287 498
286 499
286 500
285 501
284 502
283 503
282 504
282 505
281 506
280 507
279 508
279 509
278 510
278 511
277 512
277 513
277 514
277 515
277 516
277 517
277 518
277 519
277 520
277 521
277 522
277 523
277 524
276 525
276 526
276 527
276 528
276 529
276 530
275 531
275 532
275 533
275 534
275 535
274 536
274 537
274 538
273 539
273 540
273 541
272 542
272 543
272 544
271 545
271 546
271 547
270 548
270 549
270 550
270 551
270 552
269 553
269 554
269 555
269 556
268 557
268 558
268 559
268 560
268 561
267 562
267 563
267 564
267 565
267 566
266 567
266 568
266 569
266 570
266 571
266 572
266 573
267 574
267 575
267 576
267 577
268 578
268 579
269 580
269 581
269 582
270 583
270 584
270 585
270 586
271 587
271 588
271 589
271 590
272 591
272 592
272 593
272 594
273 595
273 596
274 597
274 598
275 599
276 600
276 601
277 602
277 603
278 604
279 604
280 604
281 605
282 606
283 606
284 606
285 607
286 607
287 608
288 608
289 608
290 608
291 608
292 608
293 608
294 608
295 608
296 608
297 609
298 609
299 609
300 610
301 610
302 610
303 611
304 611
305 612
306 612
307 613
308 613
309 614
310 614
311 615
312 615
313 615
314 616
315 616
316 616
317 616
318 616
319 616
320 616
321 617
322 617
323 616
324 616
325 616
326 616
327 616
328 616
329 616
330 616
331 616
332 616
333 615
334 615
335 615
336 615
337 615
338 615
339 614
340 614
341 614
342 614
343 613
344 613
345 612
346 611
347 611
348 610
349 609
350 608
351 608
352 607
353 606
354 605
355 604
356 603
357 602
358 601
359 600
360 600
361 599
362 598
363 598
364 597
365 597
366 596
367 596
368 596
369 595
370 595
371 595
372 596
373 596
374 596
375 596
376 597
377 597
378 597
379 598
380 598
381 598
382 598
383 599
384 599
385 599
386 599
387 600
388 600
389 601
390 602
391 603
392 604
393 605
394 606
395 606
396 607
397 608
398 608
399 608
400 608
401 608
402 608
403 608
404 608
405 608
406 608
407 608
408 608
409 608
410 608
411 608
412 607
413 607
414 607
415 606
416 605
417 604
418 603
419 603
420 602
421 601
422 601
423 600
424 599
425 599
426 599
427 598
428 598
429 598
430 598
431 597
432 597
433 597
434 596
435 596
436 596
437 595
438 594
439 594
440 594
441 593
442 592
443 591
443 590
444 589
445 588
445 587
446 586
446 585
447 584
447 583
448 582
448 581
448 580
449 579
449 578
450 577
451 576
452 575
453 574
454 573
455 572
456 571
456 570
457 569
457 568
458 567
458 566
458 565
458 564
458 563
458 562
458 561
459 560
459 559
459 558
459 557
459 556
459 555
459 554
459 553
460 552
460 551
460 550
460 549
461 548
461 547
461 546
462 545
463 544
463 543
464 542
465 541
465 540
466 539
467 538
468 537
469 536
470 535
471 534
472 533
473 532
474 532
475 531
476 531
477 531
478 530
479 530
480 530
481 529
482 529
483 529
484 529
485 529
486 528
487 528
488 528
489 528
490 528
491 528
492 528
493 528
494 528
495 528
496 528
497 528
498 528
499 528
500 528
501 528
502 527
503 527
504 527
505 527
506 526
507 526
508 526
509 526
510 526
511 526
512 526
513 527
514 527
515 527
516 528
517 528
518 529
519 530
520 531
521 532
521 533
522 534
522 535
522 536
523 537
523 538
523 539
524 540
524 541
524 542
524 543
525 544
525 545
525 546
525 547
526 548
526 549
526 550
527 551
527 552
527 553
528 554
529 555
530 556
531 557
532 558
533 558
534 559
535 560
536 561
537 562
538 563
539 564
540 564
541 565
542 565
543 566
544 567
545 568
546 568
547 568
548 569
549 569
550 570
551 570
552 570
553 570
554 569
555 569
556 569
557 569
558 568
559 568
560 568
561 567
562 567
563 567
564 566
565 566
566 565
567 564
568 564
569 563
570 562
571 562
572 561
573 561
574 560
575 560
576 559
577 559
578 559
579 559
580 558
581 558
582 558
583 558
584 558
585 558
586 557
587 557
588 557
589 556
590 556
591 555
592 555
593 554
594 553
595 552
596 551
597 550
598 549
598 548
599 547
600 546
601 545
602 544
603 543
603 542
604 541
604 540
604 539
605 538
605 537
605 536
605 535
605 534
605 533
605 532
605 531
606 530
606 529
606 528
607 527
607 526
608 525
608 524
609 523
610 522
611 521
612 520
613 520
614 519
615 519
616 518
617 518
618 517
619 517
620 516
621 515
622 514
623 513
624 512
624 511
625 510
625 509
626 508
626 507
627 506
627 505
628 504
628 503
629 502
629 501
630 500
630 499
630 498
630 497
630 496
630 495
630 494
630 493
630 492
630 491
630 490
630 489
630 488
631 487
631 486
631 485
631 484
632 483
632 482
632 481
633 480
634 479
634 478
635 477
636 476
637 475
638 474
639 473
640 472
640 471
640 470
640 469
640 468
640 467
639 466
639 465
639 464
639 463
639 462
639 461
639 460
639 459
639 458
639 457
638 456
638 455
638 454
638 453
638 452
637 451
637 450
636 449
635 448
635 447
634 446
633 445
633 444
632 443
631 442
630 441
629 440
629 439
628 438
628 437
627 436
627 435
626 434
626 433
625 432
625 431
625 430
625 429
624 428
624 427
624 426
624 425
624 424
624 423
624 422
624 421
624 420
624 419
624 418
624 417
624 416
624 415
625 414
625 413
625 412
625 411
625 410
625 409
625 408
625 407
625 406
625 405
624 404
624 403
623 402
623 401
623 400
622 399
622 398
621 397
621 396
620 395
619 394
619 393
618 392
618 391
618 390
617 389
616 388
616 387
615 386
614 385
614 384
613 383
612 382
611 381
610 380
609 379
608 378
607 377
607 376
606 375
605 374
604 373
603 372
602 371
602 370
601 370
600 369
599 368
598 367
598 366
598 365
599 364
600 364
601 364
602 364
603 363
604 363
605 363
606 362
607 362
608 362
609 361
610 361
611 361
612 361
613 360
614 360
615 360
616 360
617 360
618 360
619 359
620 359
621 359
622 359
623 359
624 359
625 358
626 358
627 358
628 358
629 358
630 358
631 358
632 358
633 357
634 357
635 357
636 357
637 357
638 357
639 357
640 356
641 356
642 356
643 356
644 356
645 356
646 356
647 356
648 356
649 355
650 355
651 355
652 355
653 355
654 355
655 355
656 355
657 354
658 354
659 354
660 354
661 354
662 354
663 354
664 354
665 354
666 354
667 353
668 353
669 353
670 353
671 353
672 353
673 353
674 353
675 353
676 352
677 352
678 352
679 352
680 352
681 352
682 352
683 352
684 352
685 352
686 352
687 351
688 351
689 351
690 351
691 351
692 351
693 351
694 351
695 350
696 350
697 350
698 350
699 350
700 350
701 350
702 350
703 350
704 350
705 349
706 349
707 349
708 349
709 349
710 349
711 349
712 349
713 349
714 349
715 349
716 349
717 348
718 348
719 348
720 348
721 348
722 348
723 348
724 348
725 348
726 348
727 348
728 348
729 347
730 347
731 347
732 347
733 347
734 347
735 347
736 347
737 347
738 347
739 347
740 346
741 346
742 346
743 346
744 346
745 346
746 346
747 346
748 345
749 345
749 344
749 343
750 342
750 341
751 340
752 339
752 338
751 337
750 337
749 336
748 336
747 336
746 336
745 336
744 336
743 336
742 337
741 337
740 337
739 337
738 337
737 337
736 337
735 337
734 338
733 338
732 338
731 338
730 338
729 338
728 338
727 339
726 339
725 339
724 339
723 339
722 339
721 340
720 340
719 340
718 340
717 340
716 341
715 341
714 341
713 341
712 341
711 341
710 342
709 342
708 342
707 342
706 342
705 342
704 342
703 343
702 343
701 343
700 343
699 343
698 343
697 343
696 344
695 344
694 344
693 344
692 344
691 344
690 344
689 344
688 344
687 344
686 345
685 345
684 345
683 345
682 345
681 345
680 345
679 345
678 345
677 346
676 346
675 346
674 346
673 346
672 346
671 346
670 346
669 346
668 347
667 347
666 347
665 347
664 347
663 347
662 347
661 347
660 348
659 348
658 348
657 348
656 348
655 348
654 348
653 348
652 349
651 349
650 349
649 349
648 349
647 349
646 349
645 349
644 349
643 349
642 349
641 350
640 350
639 350
638 350
637 350
636 350
635 350
634 350
633 350
632 351
631 351
630 351
629 351
628 351
627 351
626 351
625 351
624 352
623 352
622 352
621 352
620 352
619 352
618 352
617 352
616 353
615 353
614 353
613 353
612 353
611 353
610 353
609 354
608 354
607 354
606 354
605 353
606 352
607 351
608 350
609 349
610 348
611 348
612 347
613 347
614 346
615 345
616 345
617 345
618 345
619 344
620 344
621 344
622 344
623 343
624 343
625 342
626 342
627 341
628 341
629 340
630 340
631 340
632 339
633 339
634 338
635 338
636 337
637 336
638 335
639 335
640 334
641 333
642 332
643 331
644 330
645 329
646 328
646 327
646 326
647 325
647 324
647 323
647 322
647 321
648 320
648 319
649 318
649 317
649 316
650 315
650 314
650 313
651 312
651 311
651 310
651 309
652 308
652 307
651 306
651 305
651 304
651 303
650 302
649 301
649 300
648 299
647 298
647 297
646 296
646 295
645 294
645 293
645 292
644 291
644 290
644 289
644 288
644 287
644 286
645 285
644 284
644 283
643 282
643 281
643 280
642 279
642 278
642 277
642 276
642 275
642 274
643 273
643 272
643 271
643 270
643 269
644 268
644 267
644 266
645 265
645 264
646 263
647 262
648 261
648 260
649 259
650 258
650 257
651 256
652 255
653 254
654 253
655 252
656 251
657 250
658 249
659 248
660 247
661 246
662 245
663 244
664 243
664 242
665 241
665 240
666 239
666 238
666 237
667 236
667 235
667 234
667 233
667 232
667 231
668 230
668 229
668 228
668 227
668 226
669 225
669 224
669 223
670 222
670 221
670 220
670 219
670 218
670 217
670 216
669 215
669 214
668 213
668 212
667 211
667 210
667 209
666 208
665 207
665 206
664 205
664 204
663 203
662 202
662 201
661 200
661 199
661 198
660 197
660 196
660 195
659 194
659 193
659 192
659 191
659 190
659 189
659 188
659 187
659 186
660 185
660 184
660 183
660 182
660 181
660 180
660 179
660 178
660 177
660 176
660 175
660 174
660 173
660 172
659 171
659 170
659 169
659 168
658 167
658 166
658 165
657 164
657 163
656 162
655 162
654 161
653 161
652 160
651 159
650 159
649 158
649 157
648 156
647 155
646 154
645 153
645 152
644 151
644 150
643 149
643 148
643 147
642 146
642 145
642 144
641 143
641 142
641 141
640 140
640 139
639 138
639 137
638 136
637 135
636 134
636 133
635 133
634 132
633 132
632 132
631 131
630 131
629 131
628 130
627 130
626 129
625 129
624 128
623 128
622 127
621 127
620 126
619 126
618 125
617 125
616 124
615 123
614 122
613 121
612 120
611 120
610 121
609 122
608 123
607 124
606 125
605 126
604 127
603 128
602 128
601 129
600 130
599 130
598 130
597 131
596 131
595 131
594 132
593 132
592 132
591 133
590 133
589 134
589 135
588 136
588 137
588 138
588 139
588 140
587 141
587 142
587 143
586 144
586 145
585 146
584 147
584 148
584 149
583 150
583 151
583 152
582 153
582 154
582 155
581 156
581 157
580 158
580 159
579 160
579 161
579 162
578 163
578 164
578 165
577 166
577 167
577 168
576 169
576 170
576 171
575 172
575 173
575 174
574 175
574 176
574 177
574 178
573 179
573 180
573 181
572 182
572 183
571 184
571 185
570 186
570 187
569 188
568 189
568 190
567 191
566 192
565 193
564 194
563 194
562 195
561 195
560 195
559 196
558 196
557 196
556 196
555 196
554 196
553 196
552 196
551 196
550 196
549 196
548 196
547 197
546 197
545 197
544 198
543 198
542 198
541 198
540 198
539 198
538 198
537 198
536 198
535 198
534 197
533 197
532 196
531 196
530 195
529 195
528 194
527 193
526 192
525 191
524 190
523 190
522 189
522 188
521 187
520 186
519 185
518 184
517 183
516 182
515 181
514 180
513 179
513 178
512 177
511 176
510 175
509 174
509 173
508 172
507 171
507 170
506 169
505 168
505 167
504 166
504 165
503 164
503 163
502 162
502 161
501 160
501 159
500 158
500 157
499 156
499 155
499 154
498 153
498 152
498 151
497 150
497 149
497 148
496 147
496 146
496 145
496 144
496 143
495 142
495 141
495 140
495 139
495 138
495 137
495 136
495 135
495 134
495 133
495 132
495 131
495 130
495 129
495 128
495 127
495 126
495 125
495 124
495 123
495 122
495 121
495 120
495 119
495 118
495 117
494 116
494 115
493 114
493 113
492 112
492 111
491 110
491 109
491 108
491 107
491 106
491 105
491 104
491 103
491 102
491 101
491 100
491 99
490 98
490 97
490 96
489 95
489 94
488 93
488 92
487 91
486 90
485 89
484 88
483 87
482 86
481 85
480 84
479 83
478 83
477 82
476 81
476 80
475 79
474 78
473 77
472 76
472 75
471 74
470 73
470 72
469 71
468 70
467 69
466 68
465 67
464 66
463 66
462 65
461 65
460 64
459 64
458 63
457 63
456 62
455 62
454 62
453 62
452 61
451 61
450 61
449 61
448 62
447 62
446 62
445 63
444 63
443 63
442 64
441 64
440 64
439 65
438 65
437 65
436 66
435 66
434 67
433 67
432 67
431 67
430 67
429 67
428 67
427 67
426 67
425 67
424 66
423 66
422 65
421 65
420 64
419 63
418 63
417 62
416 61
415 61
414 61
413 60
412 60
411 60
410 60
409 60
408 60
407 60
406 59
405 59
404 59
403 59
402 58
401 58
400 57
399 57
398 56
397 55
396 54
395 53
395 52
394 51
394 50
393 49
393 48
392 47
392 46
392 45
391 44
391 43
390 42
390 41
390 40
390 39
389 38
389 37
388 36
388 35
387 34
386 33
385 32
384 31
383 30
382 30
381 30
380 29
379 29
378 28
377 28
376 28
375 27
374 27
373 27
372 27
371 27
370 26
369 26
368 26
367 26
366 26
365 26
364 26
363 26
362 26
361 26
360 26
359 26
358 27
357 27
356 27
355 27
354 27
353 27
352 27
351 27
350 27
349 27
348 26
347 26
346 26
345 26
344 26
343 26
342 26
341 26
340 26
339 25
338 25
337 25
336 25
335 25
334 25
