140 263
140 264
140 265
140 266
140 267
140 268
140 269
140 270
140 271
140 272
140 273
140 274
140 275
140 276
140 277
140 278
140 279
141 280
142 281
143 282
144 283
145 284
146 285
147 285
148 286
149 287
150 287
151 288
152 289
153 289
154 290
155 291
156 292
157 293
158 294
159 295
160 296
161 297
162 298
163 298
164 299
165 300
166 301
167 302
168 303
169 304
170 305
171 306
172 306
173 307
174 307
175 308
176 308
177 309
177 310
178 311
178 312
179 313
179 314
180 315
180 316
180 317
181 318
182 319
183 320
184 321
185 322
186 323
187 323
188 324
189 324
190 325
191 326
192 326
193 327
194 327
195 328
196 329
197 329
198 330
199 331
200 332
201 333
202 334
203 334
204 335
205 336
206 337
207 338
208 339
209 340
210 341
211 341
212 342
213 342
214 343
215 343
216 344
217 344
218 344
219 344
220 345
221 345
222 345
223 346
224 346
225 346
226 346
227 347
228 347
229 347
230 347
231 347
232 347
233 347
234 347
235 347
236 347
237 347
238 347
239 347
240 347
241 347
242 347
243 347
244 347
245 347
246 347
247 347
248 347
249 347
250 347
251 347
252 346
253 346
254 346
255 346
256 345
257 345
258 345
259 345
260 345
261 344
262 344
263 343
264 343
265 343
266 342
267 342
268 342
269 342
270 342
271 342
272 342
273 342
274 342
275 342
276 342
277 342
278 342
279 342
280 342
281 342
282 342
283 342
284 342
285 342
286 342
287 342
288 342
289 342
290 342
291 342
292 342
293 343
294 343
295 343
296 343
297 343
298 343
299 343
300 343
301 343
302 343
303 343
304 343
305 343
306 343
307 343
308 343
309 343
310 344
311 344
312 345
313 346
314 347
314 348
313 349
313 350
312 351
311 352
310 353
309 353
308 354
307 355
306 355
305 356
304 356
303 357
302 358
301 358
300 359
299 359
298 360
297 360
296 361
295 362
294 362
293 363
292 363
291 364
290 364
289 365
288 365
287 366
286 366
285 367
284 367
283 368
282 368
281 368
280 368
279 369
278 369
277 370
276 371
275 371
274 372
273 373
272 373
271 374
270 375
269 375
268 376
267 377
266 378
265 379
264 380
263 381
262 382
261 383
261 384
260 385
259 386
259 387
258 388
257 389
257 390
256 391
255 392
255 393
254 394
253 395
252 396
251 397
250 398
249 399
248 400
247 400
246 401
245 402
244 403
243 404
242 405
241 405
240 406
239 407
238 408
237 409
236 410
236 411
235 412
234 413
234 414
233 415
233 416
232 417
232 418
231 419
231 420
231 421
230 422
230 423
230 424
229 425
229 426
228 427
228 428
227 429
227 430
226 431
225 432
224 433
223 434
222 435
221 436
220 436
219 437
218 438
217 439
216 440
215 441
214 442
213 443
212 444
211 445
211 446
211 447
211 448
210 449
210 450
210 451
210 452
210 453
210 454
210 455
210 456
210 457
210 458
210 459
210 460
209 461
209 462
209 463
209 464
209 465
209 466
209 467
209 468
209 469
209 470
209 471
209 472
209 473
209 474
209 475
209 476
209 477
210 478
210 479
210 480
210 481
210 482
211 483
212 484
213 485
214 485
215 485
216 486
217 486
218 486
219 486
220 486
221 486
222 486
223 486
224 486
225 486
226 486
227 486
228 485
229 485
230 484
231 484
232 483
233 483
234 484
235 484
236 484
237 484
238 484
239 485
240 485
241 485
242 485
243 485
244 485
245 486
246 486
247 486
248 486
249 487
250 487
251 487
252 487
253 487
254 487
255 487
256 487
257 487
258 488
259 488
260 488
261 488
262 488
263 488
264 488
265 488
266 488
267 488
268 488
269 488
270 488
271 488
272 488
273 488
274 488
275 488
276 488
277 488
278 488
279 488
280 488
281 488
282 488
283 488
284 488
285 488
286 488
287 489
288 489
289 489
290 489
291 489
292 489
293 489
294 489
295 489
296 489
297 489
298 489
299 489
300 490
301 490
302 490
303 490
304 490
305 490
306 490
307 490
308 490
309 490
310 490
311 490
312 490
313 490
314 490
315 490
316 490
317 490
318 490
319 490
320 490
321 489
322 489
323 489
324 489
325 489
326 489
327 489
328 489
329 489
330 489
331 489
332 488
333 488
334 488
335 488
336 488
337 487
338 486
339 485
340 485
341 484
342 483
343 482
344 481
345 481
346 480
347 480
348 479
349 478
350 477
351 477
352 476
353 475
354 474
355 474
356 473
357 472
358 471
359 471
360 470
361 469
362 469
363 468
364 467
365 467
366 466
367 465
368 465
369 464
370 463
371 463
372 462
373 462
374 461
375 461
376 460
377 459
378 459
379 458
380 457
381 457
382 456
383 455
384 455
385 454
386 453
387 452
388 451
389 450
390 449
391 449
392 448
393 447
394 446
395 445
396 444
397 443
398 442
399 441
400 440
401 439
402 438
403 437
404 436
405 435
406 434
407 434
408 433
409 432
410 431
411 430
412 429
413 429
414 428
415 428
416 428
417 429
418 430
418 431
419 432
419 433
420 434
420 435
420 436
421 437
421 438
422 439
422 440
422 441
423 442
423 443
423 444
423 445
424 446
424 447
424 448
424 449
425 450
425 451
425 452
425 453
425 454
425 455
425 456
425 457
425 458
425 459
425 460
425 461
425 462
425 463
425 464
425 465
425 466
425 467
424 468
424 469
424 470
424 471
424 472
424 473
424 474
424 475
424 476
424 477
424 478
424 479
424 480
424 481
424 482
424 483
424 484
424 485
424 486
424 487
424 488
424 489
424 490
424 491
424 492
424 493
424 494
424 495
424 496
424 497
424 498
424 499
425 500
425 501
425 502
425 503
425 504
426 505
426 506
427 507
428 508
429 509
430 510
431 511
432 512
433 513
434 514
435 514
436 514
437 514
438 514
439 514
440 514
441 514
442 514
443 514
444 514
445 514
446 514
447 514
448 514
449 513
450 513
451 512
452 511
453 510
454 509
455 508
456 507
457 506
458 505
458 504
459 503
460 502
461 501
462 500
462 499
463 498
464 497
465 496
466 495
467 494
468 494
469 493
470 492
471 491
472 490
473 489
474 489
475 488
476 487
477 486
478 486
479 485
480 484
481 483
481 482
482 481
483 480
484 479
485 478
486 477
486 476
487 475
488 474
488 473
489 472
489 471
489 470
490 469
490 468
491 467
491 466
492 465
492 464
492 463
492 462
493 461
493 460
493 459
494 458
494 457
494 456
495 455
495 454
496 453
496 452
497 451
497 450
498 449
498 448
499 447
499 446
500 445
501 444
502 444
503 443
504 442
505 441
506 440
507 439
508 438
508 437
508 436
509 435
509 434
510 433
510 432
510 431
510 430
511 429
511 428
511 427
511 426
511 425
512 424
512 423
512 422
512 421
513 420
513 419
514 418
514 417
515 416
515 415
515 414
516 413
516 412
516 411
516 410
516 409
516 408
516 407
516 406
516 405
516 404
516 403
516 402
516 401
516 400
517 399
517 398
517 397
517 396
517 395
517 394
518 393
518 392
518 391
518 390
519 389
519 388
519 387
519 386
519 385
519 384
519 383
519 382
519 381
519 380
519 379
519 378
519 377
519 376
519 375
519 374
519 373
519 372
519 371
519 370
519 369
519 368
519 367
519 366
519 365
519 364
519 363
519 362
519 361
519 360
518 359
518 358
518 357
518 356
518 355
518 354
517 353
517 352
517 351
517 350
517 349
517 348
516 347
516 346
516 345
516 344
516 343
515 342
515 341
515 340
515 339
515 338
515 337
515 336
514 335
514 334
514 333
514 332
514 331
513 330
513 329
513 328
512 327
512 326
512 325
511 324
511 323
511 322
511 321
510 320
510 319
509 318
509 317
509 316
508 315
508 314
507 313
506 312
506 311
505 310
504 309
504 308
503 307
502 306
502 305
501 304
500 303
500 302
499 301
499 300
499 299
500 298
501 297
502 296
503 296
504 295
505 295
506 295
507 296
508 296
509 296
510 296
511 296
512 296
513 296
514 296
515 296
516 297
517 297
518 297
519 297
520 297
521 297
522 297
523 297
524 297
525 298
526 298
527 298
528 298
529 298
530 298
531 298
532 299
533 299
534 299
535 299
536 299
537 299
538 300
539 300
540 300
541 300
542 300
543 300
544 300
545 300
546 300
547 301
548 301
549 301
550 301
551 301
552 301
553 301
554 301
555 301
556 302
557 302
558 302
559 302
560 302
561 302
562 302
563 302
564 303
565 303
566 303
567 303
568 303
569 303
570 303
571 303
572 303
573 303
574 303
575 303
576 303
577 303
578 303
579 303
580 303
581 303
582 303
583 303
584 303
585 303
586 303
587 303
588 303
589 303
590 303
591 304
592 304
593 304
594 304
595 304
596 304
597 304
598 304
599 304
600 304
601 304
602 304
603 304
604 304
605 304
606 304
607 304
608 304
609 304
610 304
611 304
612 304
613 304
614 304
615 305
616 305
617 305
618 305
619 305
620 305
621 305
622 305
623 305
624 305
625 305
626 305
627 305
628 306
629 306
630 306
631 306
632 307
633 307
634 307
635 307
636 307
637 307
638 308
639 308
640 308
641 308
642 308
643 308
644 308
645 308
646 308
647 308
648 308
649 308
650 308
651 308
652 308
653 308
654 308
655 308
656 309
657 309
658 309
659 309
660 309
661 309
662 309
663 309
664 309
665 309
666 309
667 310
668 310
669 310
670 310
671 310
672 310
673 310
674 310
675 310
676 310
677 310
678 310
679 311
680 311
681 311
682 311
683 311
684 311
685 311
686 311
687 312
688 312
689 312
690 312
691 312
692 312
693 312
694 312
695 312
696 312
697 312
698 312
699 312
700 312
701 312
702 312
703 312
704 312
705 312
706 312
707 312
708 312
709 312
710 312
711 312
712 312
713 312
714 312
715 312
716 312
717 312
718 311
719 311
720 311
721 311
722 311
723 311
724 311
725 310
726 310
727 310
728 310
729 309
730 309
731 308
732 307
732 306
732 305
732 304
732 303
732 302
732 301
732 300
732 299
732 298
732 297
731 296
731 295
731 294
731 293
730 292
729 292
728 291
727 290
726 289
727 288
727 287
728 286
729 285
729 284
729 283
729 282
729 281
729 280
729 279
729 278
729 277
729 276
729 275
729 274
729 273
729 272
729 271
728 270
727 269
726 269
725 268
724 268
723 268
722 268
721 268
720 268
719 268
718 268
717 268
716 268
715 268
714 268
713 268
712 268
711 269
710 270
709 270
708 271
707 272
706 273
705 274
704 274
703 275
702 276
701 277
700 277
699 278
698 278
697 279
696 279
695 280
694 280
693 281
692 281
691 282
690 282
689 283
688 283
687 283
686 284
685 284
684 284
683 285
682 285
681 285
680 285
679 285
678 285
677 285
676 286
675 286
674 286
673 286
672 286
671 286
670 286
669 286
668 286
667 286
666 286
665 286
664 286
663 286
662 286
661 286
660 287
659 287
658 287
657 287
656 287
655 287
654 287
653 287
652 287
651 287
650 287
649 287
648 287
647 287
646 287
645 287
644 287
643 287
642 286
641 286
640 286
639 286
638 286
637 286
636 286
635 286
634 286
633 286
632 286
631 286
630 286
629 286
628 286
627 286
626 286
625 286
624 286
623 286
622 286
621 286
620 286
619 286
618 286
617 286
616 286
615 286
614 286
613 286
612 286
611 286
610 286
609 286
608 286
607 286
606 286
605 286
604 286
603 286
602 286
601 286
600 286
599 286
598 286
597 286
596 286
595 286
594 286
593 286
592 286
591 286
590 286
589 287
588 287
587 287
586 287
585 287
584 287
583 287
582 287
581 288
580 288
579 288
578 288
577 288
576 288
575 288
574 288
573 288
572 288
571 288
570 288
569 287
568 287
567 287
566 287
565 287
564 287
563 287
562 287
561 287
560 287
559 286
558 286
557 286
556 286
555 286
554 285
553 285
552 285
551 285
550 285
549 285
548 285
547 285
546 285
545 285
544 285
543 285
542 285
541 285
540 285
539 285
538 285
537 284
536 284
535 284
534 284
533 284
532 284
531 284
530 284
529 284
528 284
527 284
526 284
525 284
524 284
523 283
522 283
521 283
520 283
519 283
518 283
517 283
516 283
515 283
514 283
513 282
512 282
511 281
510 280
509 279
509 278
509 277
510 276
511 275
512 274
513 273
514 272
515 271
515 270
516 269
517 268
518 267
518 266
519 265
520 264
521 263
522 262
522 261
523 260
523 259
523 258
523 257
523 256
524 255
524 254
524 253
524 252
525 251
525 250
525 249
525 248
526 247
526 246
526 245
526 244
526 243
526 242
527 241
527 240
527 239
527 238
527 237
527 236
527 235
527 234
527 233
527 232
527 231
527 230
527 229
527 228
527 227
527 226
527 225
527 224
527 223
526 222
525 222
524 221
523 220
523 219
522 218
522 217
521 216
521 215
521 214
520 213
520 212
519 211
519 210
519 209
519 208
519 207
519 206
519 205
519 204
519 203
519 202
520 201
520 200
521 199
521 198
522 197
523 196
524 196
525 195
526 195
527 194
528 193
529 193
530 192
531 191
531 190
531 189
532 188
532 187
533 186
533 185
534 184
534 183
535 182
535 181
535 180
535 179
535 178
536 177
536 176
536 175
536 174
537 173
537 172
537 171
537 170
537 169
537 168
537 167
537 166
537 165
537 164
537 163
537 162
537 161
537 160
537 159
537 158
537 157
537 156
537 155
537 154
537 153
536 152
536 151
536 150
536 149
536 148
536 147
536 146
536 145
536 144
536 143
536 142
536 141
536 140
536 139
536 138
536 137
536 136
536 135
535 134
535 133
535 132
535 131
534 130
534 129
533 128
533 127
532 126
532 125
531 124
531 123
530 122
529 121
529 120
528 119
528 118
527 117
526 116
526 115
525 114
524 113
523 112
522 111
522 110
521 109
520 108
519 107
518 106
517 105
516 105
515 104
514 103
513 102
512 101
511 100
510 99
509 99
508 98
507 97
506 97
505 96
504 96
503 95
502 94
501 93
500 93
499 92
498 92
497 91
496 90
495 89
494 88
493 87
493 86
492 85
491 84
490 83
489 82
488 81
487 80
486 79
486 78
485 77
484 76
483 76
482 76
481 76
480 76
480 77
480 78
480 79
480 80
480 81
480 82
480 83
480 84
479 85
479 86
479 87
478 88
478 89
477 90
477 91
476 92
476 93
475 94
475 95
474 96
474 97
473 98
472 99
472 100
471 101
471 102
470 103
470 104
469 105
468 106
468 107
467 108
466 109
466 110
465 111
464 112
464 113
463 114
462 115
461 116
461 117
460 118
459 119
458 120
458 121
457 122
456 123
456 124
455 125
455 126
454 127
454 128
453 129
452 130
451 130
450 131
449 130
448 129
447 128
447 127
446 126
446 125
446 124
445 123
445 122
445 121
445 120
444 119
444 118
444 117
444 116
443 115
443 114
443 113
442 112
442 111
442 110
441 109
441 108
440 107
440 106
439 105
439 104
439 103
438 102
438 101
437 100
436 99
436 98
435 97
434 96
433 95
433 94
432 93
432 92
431 91
431 90
430 89
429 88
428 87
428 86
427 85
426 84
426 83
425 82
425 81
424 80
424 79
423 78
423 77
422 76
422 75
422 74
421 73
421 72
421 71
421 70
421 69
420 68
419 67
419 66
418 65
417 64
416 63
415 62
414 61
414 60
413 59
412 58
411 57
410 56
409 55
408 54
407 53
406 52
405 51
404 51
403 50
402 49
401 48
400 48
399 47
398 47
397 46
396 46
395 45
394 45
393 44
392 44
391 43
390 43
389 42
388 42
387 41
386 41
385 40
384 40
383 39
382 39
381 38
380 38
379 37
378 37
377 36
376 36
375 35
374 35
373 34
372 34
371 33
370 33
369 32
368 32
367 32
366 31
365 31
364 30
363 30
362 29
361 29
360 28
359 28
358 27
357 27
356 26
355 26
354 25
353 25
352 24
351 24
350 24
349 23
348 23
347 22
346 22
345 21
344 21
343 20
342 20
341 19
340 19
339 18
338 18
337 17
336 17
335 16
334 16
333 15
332 15
331 14
330 14
329 13
328 12
327 11
326 10
325 10
324 9
323 9
322 9
321 9
320 8
319 8
318 8
317 8
316 8
315 8
314 8
313 8
312 8
311 8
310 8
309 8
308 8
307 8
306 8
305 8
304 9
304 10
303 11
302 12
301 13
300 14
300 15
300 16
300 17
300 18
300 19
299 20
299 21
299 22
299 23
299 24
299 25
299 26
299 27
299 28
299 29
299 30
299 31
299 32
299 33
299 34
299 35
299 36
299 37
299 38
299 39
299 40
299 41
298 42
298 43
298 44
298 45
298 46
298 47
298 48
298 49
298 50
298 51
298 52
298 53
298 54
298 55
298 56
298 57
298 58
298 59
298 60
298 61
299 62
299 63
299 64
299 65
299 66
299 67
299 68
299 69
299 70
299 71
299 72
299 73
299 74
300 75
300 76
300 77
300 78
300 79
300 80
301 81
301 82
301 83
301 84
301 85
302 86
302 87
302 88
303 89
303 90
304 91
304 92
305 93
305 94
306 95
306 96
307 97
307 98
307 99
307 100
307 101
307 102
307 103
307 104
307 105
307 106
308 107
308 108
308 109
308 110
308 111
308 112
309 113
309 114
309 115
310 116
310 117
310 118
310 119
310 120
311 121
311 122
311 123
311 124
311 125
311 126
311 127
311 128
312 129
312 130
312 131
312 132
312 133
312 134
313 135
313 136
313 137
313 138
313 139
314 140
314 141
314 142
315 143
315 144
315 145
316 146
316 147
316 148
317 149
317 150
318 151
318 152
319 153
319 154
320 155
320 156
321 157
321 158
321 159
322 160
322 161
322 162
323 163
323 164
324 165
324 166
325 167
325 168
326 169
326 170
327 171
327 172
328 173
328 174
329 175
329 176
330 177
331 178
331 179
332 180
332 181
332 182
331 183
330 184
329 184
328 185
327 185
326 185
325 185
324 185
323 185
322 185
321 185
320 185
319 185
318 185
317 185
316 185
315 184
314 184
313 184
312 184
311 184
310 184
309 183
308 183
307 183
306 183
305 182
304 182
303 182
302 182
301 181
300 181
299 181
298 181
297 180
296 180
295 180
294 180
293 179
292 179
291 179
290 179
289 179
288 178
287 178
286 178
285 178
284 178
283 177
282 177
281 177
280 177
279 177
278 177
277 177
276 177
275 177
274 176
273 176
272 176
271 176
270 176
269 176
268 176
267 176
266 176
265 176
264 176
263 176
262 176
261 176
260 176
259 176
258 176
257 176
256 176
255 176
254 177
253 177
252 177
251 177
250 177
249 178
248 178
247 178
246 179
245 179
244 179
243 180
242 180
241 181
240 181
239 182
238 182
237 183
236 183
235 184
234 184
233 185
232 185
231 186
230 186
229 186
228 186
227 186
226 186
225 186
224 186
223 186
222 187
221 187
220 188
219 189
219 190
219 191
218 192
218 193
217 194
217 195
216 196
216 197
215 198
214 198
213 199
212 199
211 200
210 200
209 201
208 201
207 201
206 202
205 202
204 202
203 202
202 202
201 202
200 202
199 202
198 202
197 202
196 202
195 202
194 202
193 203
192 203
191 203
190 203
189 204
188 204
187 204
186 204
185 205
184 205
183 206
182 206
181 206
180 206
179 207
178 207
177 208
176 208
175 209
174 210
173 210
172 211
171 211
170 212
169 212
168 213
167 213
166 214
165 214
164 214
163 214
162 215
161 215
160 215
159 216
158 216
157 217
156 217
155 217
154 218
153 218
152 219
151 220
150 221
149 221
148 222
147 223
146 224
145 225
144 226
144 227
144 228
144 229
144 230
144 231
144 232
144 233
144 234
144 235
144 236
144 237
144 238
144 239
144 240
144 241
144 242
144 243
145 244
146 245
147 246
148 247
149 248
149 249
150 250
150 251
149 252
149 253
148 254
147 254
146 255
145 256
144 257
143 258
142 259
142 260
141 261
141 262
140 263
