406 48
405 49
404 50
403 51
402 51
401 52
400 53
399 53
398 53
397 53
396 54
395 54
394 54
393 55
392 55
391 55
390 56
389 56
388 57
387 57
386 57
385 57
384 57
383 57
382 58
381 58
380 57
379 57
378 57
377 57
376 57
375 57
374 57
373 57
372 57
371 57
370 57
369 57
368 57
367 57
366 57
365 57
364 57
363 57
362 57
361 57
360 57
359 57
358 57
357 57
356 57
355 57
354 57
353 57
352 58
351 57
350 57
349 58
348 59
347 58
347 57
346 57
345 57
344 58
343 57
342 58
341 57
340 58
339 58
338 58
338 59
337 60
336 59
335 59
334 59
333 59
332 59
331 59
330 59
329 59
328 59
327 60
326 61
325 62
324 63
323 64
322 64
321 65
320 65
319 66
318 66
317 66
316 67
315 67
314 68
313 68
312 69
311 69
310 69
309 70
308 69
307 69
306 70
305 70
304 70
303 70
302 70
301 70
300 70
299 71
298 70
297 70
296 70
295 70
294 70
293 70
292 70
291 71
290 71
289 72
288 72
287 72
286 73
285 74
284 74
283 74
282 74
281 74
280 74
279 74
279 75
279 76
278 77
277 76
277 75
276 76
275 76
274 77
273 77
272 77
271 77
270 77
269 77
268 78
267 78
266 79
265 79
264 79
263 79
262 79
261 80
260 80
260 81
261 82
261 83
261 84
261 85
260 86
260 87
259 88
258 89
257 90
256 91
255 92
254 92
253 93
252 94
251 94
250 95
249 95
248 96
247 96
246 96
245 96
244 96
243 96
242 96
241 97
240 97
239 97
238 97
237 98
236 98
235 98
234 99
233 99
232 99
231 100
230 100
229 101
228 101
227 102
226 102
225 102
224 103
223 103
222 104
221 105
220 105
219 105
218 106
217 106
216 106
215 107
214 107
213 108
212 108
212 109
211 110
211 111
211 112
210 113
209 114
208 115
208 116
207 117
206 117
205 118
204 118
203 119
202 120
201 121
200 122
199 122
198 123
197 123
196 123
195 123
194 124
193 124
192 124
191 124
190 125
189 125
188 125
187 126
186 126
185 126
184 127
183 127
182 128
181 129
180 130
179 130
178 131
177 132
176 133
175 133
174 134
173 134
172 135
171 135
170 135
169 136
168 136
167 137
167 138
167 139
168 140
168 141
168 142
167 143
166 144
165 145
164 146
163 147
162 148
162 149
161 150
160 150
159 151
158 151
157 152
156 152
155 152
154 153
153 154
152 155
151 155
150 156
149 157
148 158
147 158
146 159
145 159
145 160
144 161
143 161
142 162
141 163
140 163
139 163
138 164
137 164
136 164
135 165
134 165
134 166
134 167
134 168
134 169
133 170
132 171
132 172
131 173
130 174
129 175
128 176
127 176
126 177
125 177
124 177
123 178
122 178
121 178
120 179
119 180
118 180
117 181
116 182
115 182
114 183
113 183
112 184
111 185
110 186
109 187
108 188
107 188
106 189
105 189
104 189
104 190
105 190
106 191
105 192
105 193
104 194
103 195
102 196
101 197
100 198
99 199
98 200
97 199
96 200
95 200
94 200
93 200
92 200
91 200
90 201
89 201
88 201
87 202
86 202
85 202
84 203
83 203
82 204
81 204
80 205
79 205
78 206
78 207
79 207
80 208
79 209
78 209
77 209
77 210
76 211
76 212
75 213
74 213
73 214
72 214
71 214
70 214
69 214
68 214
67 215
66 215
65 215
64 215
63 215
62 216
61 216
60 216
59 216
58 216
57 216
56 217
55 217
54 217
53 217
52 218
51 218
50 218
49 219
48 219
47 219
46 219
45 220
46 221
47 222
48 223
48 224
49 225
50 226
51 226
52 227
53 228
54 229
55 229
56 230
57 230
58 231
58 232
59 232
60 232
61 233
62 233
63 234
64 234
65 234
66 235
67 235
68 236
69 237
70 238
71 238
72 239
73 239
74 240
75 241
76 242
77 242
78 243
79 243
80 243
81 244
82 244
83 244
84 245
85 245
86 246
87 246
88 246
89 247
90 248
91 249
92 250
92 251
92 252
92 253
93 254
93 255
93 256
93 257
93 258
93 259
94 259
95 259
96 260
97 260
98 260
99 261
100 261
101 262
102 262
103 263
104 264
105 265
106 265
107 266
108 266
109 267
110 267
111 268
112 268
113 269
114 270
115 270
116 271
117 271
118 272
119 273
120 274
121 275
121 276
121 277
122 278
122 279
123 280
122 281
122 282
122 283
123 283
124 284
125 284
126 285
127 285
128 286
129 287
130 287
131 288
132 288
133 289
134 290
135 290
136 291
137 291
138 292
139 292
140 293
141 293
142 293
143 294
144 294
145 295
146 295
147 296
148 296
149 297
150 297
151 297
152 297
153 298
153 299
154 299
155 300
156 301
157 302
158 303
159 304
160 305
160 306
161 307
161 308
162 309
162 310
162 311
162 312
161 313
162 314
163 314
164 315
165 315
166 315
167 316
168 316
169 316
170 317
171 318
170 319
171 320
172 320
173 321
174 320
175 320
176 321
176 322
176 323
177 322
178 322
179 323
178 324
179 324
180 325
181 324
182 324
183 325
182 326
183 326
184 327
185 326
186 325
187 326
188 326
189 326
190 327
189 328
188 328
187 328
186 328
187 328
188 329
189 329
190 330
191 330
192 331
193 331
194 332
195 332
196 333
197 332
198 333
199 334
200 335
201 336
202 337
202 338
203 339
203 340
203 341
203 342
203 343
203 344
204 345
205 345
206 346
207 346
208 346
209 347
210 347
211 348
212 348
213 349
213 350
214 350
215 350
216 351
217 351
218 352
219 353
220 353
221 354
222 354
223 355
224 355
225 356
226 356
227 357
228 357
229 357
230 358
231 358
232 358
233 359
232 360
231 360
230 360
231 360
232 361
233 361
234 362
235 362
236 363
237 364
238 363
239 363
240 364
241 365
242 366
243 367
244 368
245 369
246 370
246 371
247 372
246 373
246 374
246 375
247 375
248 376
249 376
250 376
251 377
252 377
253 377
254 377
255 377
256 377
257 377
258 378
257 379
256 379
255 379
256 379
257 380
258 380
259 380
260 380
261 381
262 381
263 381
264 381
265 381
266 382
267 381
268 381
269 381
270 382
271 383
272 383
273 382
274 383
275 383
276 383
277 383
278 384
279 384
280 384
281 384
282 385
283 385
284 385
285 386
286 386
287 386
288 386
289 386
290 386
291 387
292 387
293 387
294 387
295 387
296 387
297 388
298 388
299 388
300 388
301 388
302 389
303 389
304 389
305 390
306 390
307 391
308 391
309 391
310 392
311 392
312 393
313 394
313 395
314 396
314 397
315 398
316 398
317 398
318 398
319 398
320 399
321 399
322 400
322 401
322 402
323 402
324 402
325 402
326 403
327 403
328 403
329 404
330 403
331 404
332 404
333 404
334 404
335 404
336 404
337 405
338 405
339 405
340 405
341 405
342 405
343 405
344 406
345 405
346 406
347 406
348 406
349 406
350 406
351 406
352 406
353 406
354 406
355 406
356 406
357 406
358 406
359 406
360 406
361 406
362 406
363 406
364 406
365 407
366 406
367 406
368 406
369 407
370 407
371 407
372 407
373 407
374 407
375 407
376 407
377 407
378 407
379 408
380 408
381 408
382 408
383 408
384 409
385 409
386 409
387 409
388 409
389 409
390 409
391 410
392 410
393 410
394 410
395 410
396 410
397 410
398 410
399 409
400 409
401 410
402 410
403 410
404 410
405 410
406 411
407 411
408 411
409 411
410 411
411 411
412 411
413 411
414 411
415 411
416 411
417 411
418 411
419 411
420 410
421 410
422 410
423 410
424 410
425 410
426 410
427 409
428 409
429 409
430 409
431 409
432 409
433 409
434 408
435 408
436 408
437 408
438 408
439 408
440 407
441 407
442 407
443 406
444 406
445 405
446 405
447 405
448 405
449 405
450 405
451 404
452 404
453 404
454 404
455 404
456 403
457 403
458 403
459 403
460 403
461 403
462 402
463 402
464 402
465 402
466 401
467 401
468 401
469 401
470 401
471 400
472 400
473 400
474 400
475 400
476 399
477 399
478 399
479 398
480 398
481 398
482 398
483 397
484 397
485 397
486 397
487 396
488 396
489 395
490 395
491 394
492 394
493 394
494 393
495 393
496 393
497 392
498 391
499 390
500 390
501 390
502 389
503 389
504 389
505 388
506 388
507 388
508 387
509 386
510 386
511 385
512 385
513 384
514 384
515 383
516 383
517 383
517 382
518 381
519 381
520 380
521 379
522 379
523 378
524 378
525 377
526 377
527 377
527 376
528 375
529 375
530 374
531 374
532 374
532 373
533 372
534 372
535 371
536 371
537 370
538 369
539 368
540 367
541 366
542 366
542 365
543 364
544 364
544 363
545 362
546 362
547 361
548 361
549 360
550 360
551 359
552 359
553 358
554 357
555 357
556 356
557 356
558 356
559 355
560 355
561 354
562 354
563 353
564 352
565 352
566 351
567 351
568 350
569 350
570 349
571 348
572 347
573 347
574 346
575 345
576 345
577 344
578 344
579 343
580 343
581 342
582 342
583 342
584 341
585 342
586 341
587 341
588 341
589 341
590 341
591 340
592 340
593 339
594 339
595 338
596 338
597 337
598 336
599 336
600 335
601 334
602 334
603 333
604 333
605 332
606 331
607 330
608 330
609 329
610 328
610 327
611 326
612 326
613 325
614 324
615 323
616 322
617 321
618 320
619 319
620 318
621 317
622 317
623 316
624 315
625 314
626 313
627 312
628 311
629 310
630 309
631 308
632 307
633 306
634 305
635 304
635 303
636 302
636 301
637 300
638 300
639 299
640 298
641 297
642 296
643 295
643 294
644 293
644 292
645 291
646 291
646 290
647 289
648 288
649 287
649 286
650 285
651 284
651 283
652 282
653 281
654 280
655 279
655 278
656 277
657 276
658 275
658 274
659 273
659 272
660 271
661 270
662 269
663 268
664 267
664 266
665 265
666 264
667 263
668 262
668 261
669 260
670 260
671 259
672 258
673 257
674 257
675 257
676 257
677 257
678 257
679 256
680 256
681 256
682 256
683 256
684 256
685 256
686 256
687 256
688 256
689 256
690 256
691 257
692 257
693 257
694 257
695 257
696 257
697 257
698 257
699 257
700 257
701 257
702 257
703 257
704 257
705 257
706 257
707 257
708 257
709 257
710 257
711 257
712 257
713 257
714 257
715 257
716 257
717 257
718 257
719 257
720 256
721 256
722 256
723 256
724 256
725 256
726 256
727 256
728 256
729 256
730 256
731 256
732 256
733 256
734 257
735 257
736 257
737 257
738 257
739 257
740 256
741 256
742 256
743 255
744 254
745 253
746 252
746 251
747 250
747 249
747 248
746 248
745 247
744 247
743 247
742 247
741 246
740 246
739 246
738 246
737 246
736 246
735 246
734 246
733 246
732 246
731 246
730 246
729 246
728 246
727 246
726 246
725 246
724 246
723 246
722 246
721 246
720 246
719 246
718 246
717 246
716 247
715 247
714 247
713 247
712 246
711 247
710 247
709 247
708 246
707 246
706 246
705 246
704 246
703 246
702 246
701 246
700 246
699 246
698 246
697 246
696 246
695 246
694 246
693 246
692 246
691 246
690 245
689 245
688 245
687 245
686 245
685 244
684 243
684 242
684 241
683 240
683 239
683 238
682 237
682 236
682 235
681 234
681 233
680 232
680 231
680 230
680 229
679 228
679 227
678 226
677 225
677 224
676 223
676 222
675 221
674 220
674 219
673 218
672 217
672 216
671 215
671 214
670 213
670 212
669 211
668 210
668 209
667 208
666 207
666 206
665 205
665 204
665 203
664 202
664 201
663 200
662 199
661 198
661 197
661 196
660 195
659 194
659 193
658 192
657 191
656 190
655 189
655 188
654 187
653 186
652 185
652 184
651 183
650 182
649 181
648 180
647 179
647 178
646 177
645 176
644 175
644 174
644 173
643 172
642 171
641 170
640 169
640 168
639 167
638 166
637 165
637 164
636 163
636 162
635 161
634 160
634 159
633 158
632 157
631 156
630 155
629 154
629 153
628 152
627 152
626 151
626 150
625 149
624 148
623 147
622 146
621 145
620 145
619 144
619 143
618 142
617 141
616 140
615 140
614 139
613 138
612 137
611 136
610 136
609 135
608 135
607 134
606 133
605 133
604 132
603 131
602 130
601 129
600 129
599 128
598 128
597 127
596 127
595 126
594 126
593 125
592 125
591 124
590 124
589 124
588 123
587 122
586 122
585 122
584 121
583 121
582 120
581 120
580 119
579 119
578 118
577 117
576 117
575 116
574 115
573 114
572 114
571 113
570 113
569 112
568 112
567 111
566 111
565 111
564 111
563 111
562 111
561 110
561 109
560 109
559 108
558 107
557 106
556 105
556 104
555 104
554 103
554 102
553 101
552 101
551 100
550 99
549 98
548 97
547 97
546 96
546 95
545 94
544 94
543 93
542 92
541 91
540 90
539 90
538 89
537 88
536 87
535 86
534 85
533 85
532 85
531 84
530 83
529 83
528 82
527 82
526 81
525 80
524 80
523 80
522 79
521 78
520 78
519 77
518 77
517 76
516 75
515 75
514 74
513 74
512 74
511 73
510 73
509 72
508 72
507 71
506 71
505 70
504 70
503 69
502 69
501 69
500 69
499 69
498 68
497 68
496 68
495 68
494 68
493 67
492 67
491 67
490 67
489 66
488 66
487 66
486 66
485 66
484 66
483 66
482 66
481 66
480 65
479 65
478 65
477 65
476 65
475 65
474 64
473 64
472 64
471 64
470 63
469 64
468 63
467 63
466 62
465 62
464 62
463 62
462 61
461 61
460 60
459 60
458 60
457 59
456 59
455 59
454 58
453 58
452 58
451 57
450 57
449 57
448 56
447 56
446 56
445 55
444 55
443 55
442 55
441 55
440 54
439 54
438 54
437 54
436 53
435 53
434 53
433 52
432 52
431 53
430 52
429 52
429 53
428 54
427 53
426 52
425 51
424 51
423 51
422 50
421 50
420 50
419 50
418 50
417 49
416 50
415 49
414 49
413 49
412 48
411 48
410 48
409 48
408 48
407 48
406 48
