227 58
226 59
226 60
226 61
226 62
226 63
227 64
227 65
227 66
228 67
229 68
230 69
230 70
230 71
230 72
231 73
231 74
231 75
232 76
232 77
232 78
233 79
234 80
235 81
235 82
236 83
237 84
236 85
235 86
235 87
235 88
235 89
236 90
237 91
237 92
236 93
236 94
237 95
237 96
236 97
235 98
235 99
235 100
235 101
235 102
236 103
236 104
236 105
236 106
235 107
235 108
236 109
236 110
237 111
236 112
235 113
235 114
234 115
233 115
232 115
232 116
232 117
232 118
233 119
233 120
233 121
234 122
234 123
234 124
233 125
232 126
231 126
230 126
229 126
229 127
230 128
230 129
230 130
231 131
231 132
231 133
232 134
231 135
230 136
230 137
229 138
228 138
227 138
226 138
226 139
226 140
226 141
227 142
227 143
227 144
227 145
228 146
228 147
228 148
227 149
228 150
229 151
228 152
227 152
226 153
225 153
225 154
225 155
225 156
224 157
224 158
224 159
225 160
225 161
226 162
227 163
227 164
227 165
227 166
226 167
226 168
226 169
227 170
228 170
229 171
228 172
227 173
226 173
225 174
225 175
225 176
224 177
224 178
224 179
224 180
224 181
225 182
225 183
226 184
226 185
226 186
226 187
227 188
228 189
229 190
229 191
230 192
231 193
230 194
229 194
228 195
228 196
229 197
229 198
230 199
230 200
229 201
229 202
229 203
229 204
229 205
230 206
230 207
231 208
232 209
232 210
232 211
233 212
234 212
235 213
235 214
234 215
234 216
235 217
236 218
237 218
238 219
237 220
236 221
236 222
235 223
235 224
236 225
236 226
236 227
236 228
237 229
238 230
239 231
240 232
241 233
241 234
242 234
243 234
244 234
245 235
246 236
245 237
245 238
246 239
247 239
248 240
249 241
248 242
248 243
248 244
248 245
249 246
249 247
250 248
251 249
252 250
253 251
254 252
254 253
253 254
252 253
251 252
250 251
249 251
248 250
247 250
246 249
245 249
244 249
243 249
242 249
241 248
240 248
239 248
238 247
237 247
236 246
235 246
234 246
233 245
232 245
231 246
230 247
229 247
228 247
227 247
226 247
225 247
224 248
223 249
222 249
221 248
220 248
219 248
218 249
217 250
216 250
215 249
214 248
213 248
212 248
211 249
210 249
209 248
208 248
207 247
206 247
205 246
204 246
203 246
202 246
201 246
200 247
199 247
198 248
197 248
196 247
195 247
194 247
193 248
192 248
191 249
191 250
190 251
189 251
188 251
187 251
186 251
185 251
184 252
184 253
184 254
183 255
182 255
181 254
180 254
179 254
179 255
178 256
177 256
176 256
175 255
174 255
173 255
172 255
171 255
170 255
169 255
168 256
168 257
167 258
166 258
165 257
164 258
163 258
162 258
161 257
160 257
159 258
158 259
158 260
158 261
157 262
156 262
155 261
154 261
153 261
153 262
152 263
151 263
150 263
149 263
149 264
148 265
147 265
146 266
145 266
144 266
143 266
142 267
141 267
140 268
139 269
139 270
138 271
137 272
136 273
135 274
135 275
135 276
134 277
133 277
132 278
131 278
130 278
129 279
128 279
127 279
126 280
125 280
124 281
123 282
124 283
124 284
124 285
123 286
122 287
122 288
121 289
120 289
119 289
118 290
117 290
116 290
116 291
116 292
116 293
116 294
116 295
116 296
115 297
115 298
114 299
113 300
112 301
111 301
110 301
109 301
108 302
108 303
108 304
108 305
107 306
106 307
105 308
104 308
103 308
102 309
101 309
101 310
101 311
100 312
99 312
98 312
97 312
96 313
95 313
94 314
93 314
92 314
91 315
90 315
89 315
88 316
87 316
87 317
86 318
85 318
84 318
83 318
82 318
81 319
80 319
79 319
78 319
77 319
76 320
75 321
74 322
73 322
72 322
71 321
70 321
69 322
68 323
67 323
66 323
65 322
64 323
63 323
62 324
61 325
60 324
59 324
58 324
57 324
56 325
55 325
54 325
53 325
52 325
51 326
50 326
49 326
48 325
47 326
46 326
45 326
44 326
43 326
42 327
41 327
40 328
40 329
40 330
40 331
41 332
42 333
43 333
44 334
45 334
46 335
47 335
48 335
49 336
50 336
51 336
52 336
53 337
54 337
55 338
56 338
57 338
58 338
59 338
60 338
61 339
62 340
63 340
64 340
65 340
66 340
67 340
68 340
69 340
70 341
71 341
72 342
72 343
73 344
74 344
75 344
76 345
77 346
78 346
79 347
79 348
80 349
81 350
82 350
83 351
84 352
85 353
85 354
86 354
87 355
88 356
88 357
89 358
90 359
91 359
92 360
93 360
94 361
94 362
95 362
96 363
96 364
96 365
95 366
95 367
95 368
96 369
97 370
98 371
98 372
98 373
98 374
98 375
98 376
97 377
97 378
97 379
98 380
99 381
100 382
101 383
101 384
102 385
102 386
103 386
104 387
105 388
105 389
105 390
105 391
105 392
105 393
105 394
105 395
106 395
107 396
107 397
108 398
107 399
107 400
107 401
107 402
108 403
109 403
110 404
111 404
112 405
113 406
113 407
114 408
115 408
116 409
116 410
117 411
117 412
118 412
119 412
120 413
121 414
122 415
122 416
122 417
122 418
123 419
124 420
125 421
126 422
127 423
128 424
129 425
130 426
131 427
132 427
133 427
134 427
135 427
136 428
137 429
137 430
138 430
139 430
140 431
140 432
140 433
141 434
141 435
142 435
143 436
144 436
145 437
145 438
146 439
146 440
147 441
148 441
149 441
150 442
151 442
152 442
153 442
154 443
155 444
155 445
156 445
157 445
158 444
159 445
160 446
160 447
161 447
162 448
163 448
164 447
165 447
166 447
167 447
168 448
168 449
168 450
169 451
170 451
171 451
172 450
173 451
174 451
175 452
176 453
177 453
178 454
179 454
180 453
181 453
182 453
183 453
184 453
185 453
186 453
187 453
188 453
189 453
190 453
191 453
192 453
193 454
194 453
195 453
196 452
197 452
198 452
199 453
200 453
201 453
202 453
203 453
204 453
205 454
206 454
207 453
208 453
209 453
210 454
211 455
212 455
213 456
214 457
215 457
216 457
217 457
218 457
219 457
220 457
221 457
222 458
223 458
224 458
225 457
226 458
227 458
228 459
229 460
230 460
231 459
232 459
232 458
232 457
233 456
233 455
234 454
235 454
236 453
237 452
238 452
239 452
240 452
241 451
242 451
243 450
244 450
245 451
246 452
247 452
248 452
249 451
250 452
251 452
252 452
253 451
254 451
255 450
256 450
257 449
258 449
259 450
259 451
260 451
261 451
262 451
263 450
264 450
265 449
266 449
267 449
268 449
269 448
270 448
271 448
271 447
272 446
272 445
273 444
273 443
274 442
275 442
276 441
277 441
278 440
279 440
280 440
281 440
282 440
283 439
284 439
285 439
286 439
287 439
288 438
289 437
290 436
291 436
292 437
293 436
294 435
295 434
296 434
297 433
298 434
299 434
300 433
301 432
302 431
303 430
304 431
305 432
306 432
307 431
308 431
309 431
310 430
311 430
312 430
313 430
314 429
315 428
316 427
317 426
318 426
319 426
320 426
321 425
322 424
323 424
324 424
325 425
326 425
327 424
328 423
329 423
330 422
331 422
332 423
333 423
334 422
335 421
336 420
337 420
338 421
339 420
340 420
341 420
342 420
343 419
344 419
345 419
346 419
347 418
348 418
349 419
350 419
351 418
352 417
353 418
354 418
355 418
356 417
357 417
358 417
359 417
360 417
361 416
362 416
363 415
364 415
365 415
366 415
367 414
368 413
369 413
370 414
371 413
372 413
373 412
374 411
375 411
376 410
377 409
378 409
379 409
380 408
381 408
382 408
383 408
384 408
385 408
386 407
387 407
388 407
389 407
390 407
391 407
392 407
393 407
394 407
395 406
396 405
397 405
398 405
399 405
400 405
401 404
402 404
403 404
404 403
405 403
406 403
407 403
408 402
409 402
410 402
411 402
412 401
413 401
414 400
415 400
416 400
417 400
418 400
419 400
420 400
421 399
422 399
423 399
424 399
425 398
426 398
427 397
428 397
429 397
430 397
431 397
432 398
433 399
434 400
434 401
433 402
433 403
432 404
432 405
431 406
430 407
430 408
429 409
428 409
427 410
426 410
425 411
424 412
423 412
422 412
421 413
420 413
419 414
418 414
417 414
416 414
415 414
414 414
413 415
412 415
411 416
410 416
409 416
408 417
407 417
406 417
405 417
404 418
403 418
402 418
401 418
400 418
399 419
398 420
397 420
396 420
395 420
394 420
393 420
392 420
391 420
390 420
389 420
388 420
387 420
386 421
385 421
384 421
383 421
382 422
381 423
380 423
379 424
378 424
377 424
376 425
375 426
374 427
373 427
372 427
371 428
370 429
369 429
368 429
367 429
366 429
365 430
364 430
363 431
362 431
361 432
360 433
359 433
358 434
357 434
356 434
355 435
354 435
353 434
352 434
351 433
350 433
349 433
348 433
347 433
346 432
345 432
344 433
343 433
342 434
341 435
340 436
339 436
338 436
338 437
337 438
336 439
335 439
334 439
333 439
332 439
331 439
330 439
329 438
328 437
327 437
326 438
325 438
324 438
323 438
322 438
321 439
320 439
319 439
318 439
317 439
317 440
316 441
315 442
314 442
313 442
312 441
311 441
310 442
310 443
309 444
308 444
307 444
306 444
305 444
304 444
303 445
302 445
301 445
300 445
299 445
298 446
297 446
296 447
295 447
294 447
293 448
292 448
291 448
290 448
289 449
288 449
287 449
286 450
285 451
284 451
283 451
282 451
281 451
280 452
279 452
278 453
277 454
276 455
276 456
276 457
275 458
274 458
273 458
272 457
271 457
270 457
269 457
268 458
267 458
266 458
265 458
264 458
263 458
262 458
261 458
260 458
259 459
258 459
257 460
256 460
255 461
254 461
253 461
252 462
251 462
250 463
249 464
248 464
247 464
246 464
245 465
244 465
244 466
243 467
242 468
241 468
240 469
239 469
239 470
239 471
239 472
239 473
238 474
237 474
236 474
235 474
234 474
233 474
232 475
232 476
231 477
230 477
229 477
228 477
227 477
226 477
226 478
226 479
225 480
224 480
223 481
222 481
221 481
220 482
219 483
218 483
217 484
216 485
215 486
215 487
214 488
214 489
213 490
213 491
213 492
212 493
211 494
210 495
209 496
209 497
210 498
211 499
210 500
209 500
208 500
207 501
206 501
206 502
205 503
204 504
203 504
203 505
204 506
203 507
202 508
201 509
200 510
199 510
198 511
197 512
196 513
195 513
194 514
194 515
193 516
193 517
193 518
193 519
194 520
195 521
196 522
195 523
194 523
193 524
192 524
191 525
192 526
191 527
190 528
189 528
189 529
189 530
188 531
187 531
186 532
185 532
184 533
183 533
183 534
182 535
182 536
182 537
181 538
181 539
182 540
181 541
182 541
183 542
182 543
181 543
180 544
181 545
181 546
180 547
179 548
178 548
178 549
178 550
178 551
177 552
176 553
175 554
175 555
175 556
175 557
175 558
174 559
174 560
174 561
175 562
175 563
175 564
174 565
173 566
174 567
174 568
174 569
174 570
173 571
173 572
172 573
171 574
171 575
170 576
170 577
170 578
170 579
170 580
170 581
171 582
172 583
171 584
170 585
169 586
169 587
169 588
170 589
169 590
169 591
168 592
168 593
168 594
168 595
167 596
167 597
166 598
166 599
166 600
167 600
168 600
169 600
170 601
170 602
170 603
169 604
169 605
168 606
168 607
167 608
168 609
169 609
170 610
170 611
170 612
169 613
170 614
170 615
169 616
169 617
169 618
169 619
170 620
171 620
172 621
172 622
172 623
172 624
171 625
171 626
171 627
170 628
170 629
170 630
170 631
171 632
171 633
170 634
171 635
171 636
172 636
173 637
173 638
172 639
171 640
171 641
171 642
170 643
170 644
170 645
171 645
172 646
172 647
171 648
170 649
169 650
168 651
168 652
168 653
168 654
167 655
167 656
166 657
165 658
164 659
164 660
164 661
164 662
163 663
163 664
162 665
161 666
161 667
161 668
161 669
161 670
160 671
160 672
159 673
158 674
157 675
157 676
157 677
156 678
156 679
156 680
156 681
156 682
156 683
157 684
158 685
159 685
160 684
161 684
162 683
163 683
164 682
164 681
165 680
166 679
167 678
168 678
169 677
169 676
170 675
171 674
172 674
173 674
174 673
175 672
176 672
177 672
178 672
179 671
179 670
180 669
181 669
182 670
183 670
184 670
185 669
186 669
187 668
188 668
189 668
190 668
191 668
192 667
193 667
194 668
195 669
196 668
197 668
198 668
199 668
200 667
201 668
202 669
203 669
204 669
205 670
206 670
207 670
208 670
209 670
210 670
211 669
212 669
213 669
214 670
214 671
215 671
216 671
217 672
217 673
218 674
218 675
219 676
220 676
221 676
222 676
223 675
224 675
225 675
226 674
227 675
228 674
229 673
230 673
231 674
232 674
233 673
234 674
235 675
235 676
235 677
236 677
237 677
238 677
239 678
239 679
240 680
240 681
241 681
242 681
243 681
244 681
245 680
246 680
247 680
248 680
249 680
250 679
251 678
252 678
253 678
254 679
255 679
256 679
257 678
257 677
258 676
259 677
260 678
260 679
261 680
261 681
262 681
263 681
264 680
265 680
266 681
266 682
267 682
268 682
269 682
270 681
271 681
272 680
273 680
274 679
275 679
276 678
277 678
278 679
279 679
280 678
280 677
280 676
281 675
282 676
282 677
283 678
283 679
284 680
285 680
286 679
287 678
288 678
289 677
290 678
291 679
292 679
293 679
294 678
295 678
296 677
297 676
298 676
299 676
300 676
301 676
302 676
303 676
304 675
304 674
305 673
306 672
307 672
308 672
309 671
310 670
311 670
312 671
313 670
314 669
314 668
314 667
315 666
316 665
317 666
318 667
318 668
319 668
320 668
321 667
322 667
322 666
323 665
324 664
325 664
326 665
327 665
328 664
329 663
330 662
331 662
332 661
333 661
333 660
333 659
333 658
334 657
335 656
335 655
336 654
337 653
338 653
338 652
338 651
338 650
339 649
340 648
341 649
342 650
342 651
343 651
344 651
345 650
346 649
347 648
348 648
349 648
350 648
351 647
352 647
353 646
354 645
355 644
356 644
357 644
357 643
357 642
358 641
359 641
360 640
360 639
360 638
361 637
361 636
361 635
362 634
362 633
362 632
362 631
363 630
363 629
364 628
365 627
366 628
367 629
368 628
368 627
368 626
369 625
369 624
369 623
369 622
370 621
371 622
372 622
373 622
373 621
374 620
374 619
374 618
375 617
376 617
377 616
378 615
379 615
380 615
381 614
381 613
382 612
382 611
382 610
383 609
383 608
384 607
385 608
385 607
385 606
385 605
385 604
385 603
385 602
386 601
386 600
386 599
386 598
386 597
387 596
388 596
389 595
389 594
389 593
389 592
389 591
389 590
390 589
391 589
391 588
391 587
391 586
390 585
390 584
390 583
391 582
392 581
393 581
394 581
395 580
395 579
395 578
395 577
395 576
395 575
394 574
395 573
396 572
397 572
397 571
396 570
396 569
396 568
396 567
395 566
395 565
395 564
395 563
396 562
396 561
396 560
397 559
397 558
397 557
398 556
399 555
399 554
399 553
399 552
400 551
400 550
400 549
400 548
400 547
400 546
400 545
400 544
401 543
402 543
402 542
402 541
401 540
401 539
402 538
403 538
404 538
404 537
404 536
404 535
404 534
404 533
404 532
404 531
405 530
406 529
406 528
406 527
405 526
405 525
405 524
405 523
404 522
404 521
404 520
404 519
405 518
405 517
405 516
406 515
406 514
406 513
407 512
408 511
409 510
409 509
409 508
410 507
411 507
411 506
411 505
411 504
411 503
411 502
411 501
411 500
411 499
411 498
411 497
411 496
411 495
411 494
411 493
411 492
412 491
412 490
413 489
414 488
414 487
414 486
414 485
415 484
416 484
416 483
416 482
416 481
417 480
417 479
418 478
418 477
419 476
419 475
420 474
420 473
420 472
421 471
421 470
421 469
421 468
421 467
421 466
422 465
423 464
423 463
423 462
423 461
423 460
423 459
424 458
424 457
424 456
425 455
425 454
425 453
426 452
427 451
427 450
427 449
427 448
428 447
428 446
429 445
429 444
430 443
430 442
431 441
431 440
432 439
433 438
433 437
434 436
434 435
434 434
435 433
435 432
435 431
436 430
436 429
436 428
437 427
437 426
437 425
437 424
438 423
438 422
439 421
440 420
441 421
441 422
441 423
441 424
441 425
441 426
441 427
441 428
441 429
442 430
442 431
442 432
442 433
442 434
443 435
443 436
443 437
442 438
442 439
442 440
441 441
441 442
440 443
440 444
440 445
440 446
440 447
439 448
439 449
438 450
437 451
437 452
436 453
435 454
435 455
434 456
434 457
434 458
434 459
434 460
434 461
434 462
433 463
433 464
432 465
432 466
431 467
431 468
430 469
430 470
430 471
429 472
429 473
429 474
429 475
429 476
428 477
429 478
428 479
428 480
428 481
428 482
427 483
427 484
427 485
426 486
426 487
426 488
426 489
426 490
426 491
426 492
426 493
427 494
427 495
427 496
426 497
425 498
425 499
425 500
425 501
424 502
424 503
424 504
423 505
422 506
422 507
421 508
421 509
420 510
420 511
420 512
419 513
419 514
419 515
419 516
419 517
419 518
419 519
419 520
419 521
419 522
419 523
419 524
419 525
419 526
419 527
419 528
419 529
419 530
419 531
419 532
419 533
419 534
419 535
418 536
418 537
418 538
418 539
417 540
417 541
417 542
416 543
416 544
415 545
415 546
415 547
416 548
416 549
416 550
416 551
417 552
416 553
416 554
416 555
416 556
416 557
416 558
417 559
418 560
418 561
417 562
417 563
417 564
417 565
417 566
417 567
417 568
417 569
417 570
417 571
417 572
417 573
417 574
417 575
417 576
417 577
417 578
417 579
418 580
418 581
418 582
419 583
420 583
421 583
422 584
421 585
421 586
421 587
422 588
423 589
423 590
423 591
423 592
423 593
424 594
424 595
424 596
424 597
424 598
424 599
425 600
425 601
426 602
427 603
428 604
429 605
429 606
429 607
429 608
430 609
431 609
432 610
431 611
431 612
431 613
432 613
433 614
433 615
433 616
433 617
433 618
434 619
434 620
435 621
436 621
437 620
438 621
438 622
439 623
440 623
441 624
441 625
441 626
442 627
442 628
443 629
444 629
445 630
445 631
445 632
446 633
447 633
448 633
449 634
449 635
449 636
450 636
451 637
451 638
451 639
452 640
453 641
454 641
455 642
456 643
456 644
457 644
458 645
459 646
459 647
460 648
461 649
462 650
463 650
464 649
465 649
466 650
466 651
467 652
468 652
469 653
469 654
469 655
470 655
471 656
472 656
473 656
474 655
475 656
476 657
476 658
477 659
477 660
478 661
479 661
480 660
481 661
482 662
483 662
484 663
484 664
485 665
486 665
487 665
488 666
488 667
488 668
488 669
488 670
489 670
490 670
491 671
491 672
492 673
493 674
493 675
493 676
494 677
494 678
495 678
496 679
496 680
496 681
496 682
497 683
498 684
498 685
498 686
499 687
499 688
499 689
500 690
500 691
500 692
501 693
501 694
501 695
502 696
502 697
503 697
504 698
505 697
506 697
506 696
507 695
507 694
507 693
507 692
507 691
508 690
508 689
507 688
507 687
507 686
508 685
508 684
507 683
507 682
507 681
508 680
508 679
508 678
508 677
509 676
509 675
509 674
509 673
509 672
510 671
510 670
510 669
509 668
509 667
510 666
511 666
511 665
511 664
511 663
511 662
512 661
512 660
512 659
512 658
513 657
514 657
515 656
515 655
515 654
515 653
515 652
516 651
517 651
517 650
516 649
516 648
517 647
518 647
519 647
520 647
520 646
520 645
520 644
521 643
521 642
521 641
522 640
523 640
524 640
525 640
526 639
526 638
527 637
527 636
528 635
527 634
527 633
528 632
529 632
530 632
530 631
529 630
530 629
531 628
532 629
533 629
534 630
535 630
535 629
536 628
536 627
536 626
536 625
536 624
537 623
537 622
536 621
536 620
537 619
538 619
539 619
540 619
540 618
540 617
540 616
541 615
542 616
543 617
544 617
545 616
545 615
546 614
546 613
546 612
546 611
546 610
546 609
547 608
547 607
547 606
546 605
546 604
547 603
548 602
548 601
548 600
548 599
548 598
549 597
550 597
551 597
551 596
551 595
551 594
551 593
552 592
553 591
554 592
554 591
554 590
553 589
553 588
553 587
554 586
555 586
554 585
554 584
555 583
556 582
555 581
555 580
555 579
556 578
557 577
558 578
559 577
559 576
559 575
559 574
559 573
559 572
560 571
559 570
559 569
558 568
558 567
558 566
558 565
558 564
558 563
557 562
557 561
558 560
559 559
558 558
557 557
557 556
557 555
558 554
558 553
557 552
557 551
557 550
558 549
559 549
560 549
560 548
560 547
560 546
560 545
559 544
559 543
559 542
560 541
560 540
559 539
558 538
559 537
560 536
560 535
559 534
559 533
558 532
558 531
558 530
559 529
558 528
557 527
556 526
555 525
555 524
556 523
556 522
555 521
554 521
553 520
552 519
552 518
553 517
553 516
552 515
551 514
550 514
549 513
550 512
550 511
550 510
551 509
552 509
553 510
554 510
555 511
556 512
557 512
558 513
559 513
560 513
561 514
562 515
563 516
564 516
565 516
566 517
567 518
568 519
569 519
570 520
571 521
572 522
573 522
574 523
575 523
576 524
577 524
578 524
579 523
579 522
578 521
578 520
577 519
576 518
575 517
575 516
575 515
574 514
573 513
572 512
572 511
571 510
571 509
570 508
570 507
569 506
569 505
568 504
568 503
567 502
567 501
568 500
567 499
567 498
567 497
567 496
566 495
566 494
566 493
566 492
566 491
566 490
566 489
566 488
566 487
565 486
566 485
567 484
567 483
566 482
566 481
565 480
565 479
566 478
566 477
566 476
566 475
565 474
565 473
565 472
565 471
565 470
565 469
565 468
564 467
564 466
563 465
562 464
562 463
561 462
561 461
561 460
561 459
560 458
560 457
560 456
559 455
558 454
557 453
556 452
556 451
555 450
556 449
556 448
555 447
554 446
553 445
554 444
555 444
555 443
555 442
554 441
554 440
553 439
552 438
551 437
550 436
550 435
549 434
549 433
548 432
548 431
549 430
548 429
547 428
548 427
548 426
547 425
546 425
545 424
544 423
543 423
542 423
541 423
540 423
539 423
538 423
537 422
536 422
535 421
534 420
533 420
532 419
531 418
530 417
529 416
528 415
527 414
526 413
525 412
525 411
524 410
524 409
524 408
524 407
523 407
522 407
521 406
520 406
519 406
518 405
517 404
518 403
519 403
520 403
521 403
522 403
523 403
524 403
525 403
526 402
527 402
528 402
529 402
530 402
531 402
532 402
533 402
534 402
535 402
536 402
537 402
538 402
539 402
540 402
541 402
542 402
543 402
544 402
545 402
546 402
547 402
548 402
549 402
550 402
551 402
552 402
553 402
554 402
555 402
556 402
557 402
558 402
559 402
560 402
561 402
562 402
563 402
564 402
565 402
566 402
567 402
568 402
569 402
570 402
571 402
572 402
573 402
574 402
575 402
576 402
577 402
578 402
579 402
580 402
581 402
582 402
583 402
584 402
585 402
586 402
587 402
588 402
589 402
590 402
591 402
592 402
593 401
594 401
595 401
596 401
597 401
598 401
599 401
600 401
601 401
602 401
603 401
604 401
605 401
606 401
607 401
608 401
609 401
610 401
611 401
612 401
613 401
614 401
615 401
616 401
617 400
618 400
619 400
620 400
621 400
622 400
623 400
624 400
625 400
626 400
627 400
628 400
629 400
630 400
631 400
632 400
633 400
634 400
635 400
636 400
637 400
638 400
639 400
640 400
641 399
642 399
643 399
644 399
645 399
646 399
647 399
648 399
649 399
650 399
651 399
652 399
653 399
654 399
655 399
656 399
657 398
658 398
659 398
660 398
661 398
662 398
663 398
664 398
665 398
666 398
667 398
668 398
669 398
670 398
671 398
672 398
673 398
674 397
675 397
676 397
677 397
678 397
679 397
680 397
681 397
682 397
683 397
684 397
685 397
686 397
687 397
688 397
689 396
690 396
691 396
692 396
693 396
694 396
695 396
696 396
697 396
698 396
699 396
700 396
701 395
702 395
703 395
704 395
705 395
706 395
707 395
708 395
709 395
710 395
711 395
712 395
713 395
714 395
715 394
716 394
717 394
718 394
719 394
720 394
721 394
722 394
723 394
724 394
725 394
726 394
727 393
728 393
729 393
730 393
731 393
732 393
733 393
734 393
735 393
736 393
737 393
738 393
739 392
740 392
741 392
741 391
741 390
741 389
741 388
741 387
741 386
740 385
739 385
738 385
737 385
736 386
735 386
734 386
733 386
732 386
731 386
730 386
729 386
728 387
727 387
726 387
725 387
724 387
723 387
722 387
721 387
720 388
719 388
718 388
717 388
716 388
715 388
714 388
713 388
712 388
711 388
710 388
709 389
708 389
707 389
706 389
705 389
704 389
703 389
702 389
701 389
700 390
699 390
698 390
697 390
696 390
695 390
694 390
693 390
692 390
691 390
690 390
689 390
688 391
687 391
686 391
685 391
684 391
683 391
682 391
681 391
680 391
679 391
678 391
677 391
676 392
675 392
674 392
673 392
672 392
671 392
670 392
669 392
668 392
667 392
666 392
665 392
664 392
663 392
662 392
661 393
660 393
659 393
658 393
657 393
656 393
655 393
654 393
653 393
652 393
651 393
650 393
649 393
648 393
647 393
646 394
645 394
644 394
643 394
642 394
641 394
640 394
639 394
638 394
637 394
636 394
635 394
634 394
633 394
632 394
631 394
630 394
629 394
628 394
627 395
626 395
625 395
624 395
623 395
622 395
621 395
620 395
619 395
618 395
617 395
616 395
615 395
614 395
613 395
612 395
611 395
610 395
609 395
608 395
607 395
606 395
605 395
604 395
603 396
602 396
601 396
600 396
599 396
598 396
597 396
596 396
595 396
594 396
593 396
592 396
591 396
590 396
589 396
588 396
587 396
586 396
585 396
584 396
583 396
582 396
581 396
580 396
579 396
578 396
577 396
576 396
575 397
574 397
573 397
572 397
571 397
570 397
569 397
568 397
567 397
566 397
565 397
564 397
563 397
562 397
561 397
560 397
559 397
558 397
557 397
556 397
555 397
554 397
553 397
552 397
551 397
550 397
549 397
548 397
547 397
546 397
545 397
544 397
543 397
542 397
541 397
540 397
539 397
538 397
537 397
536 397
535 397
534 397
533 397
532 397
531 397
530 397
529 397
528 397
527 397
526 397
525 397
524 397
523 397
522 397
521 397
520 397
519 397
518 397
517 397
516 397
515 397
514 397
513 397
512 397
511 397
510 397
509 396
508 396
507 396
506 396
505 396
504 396
503 396
502 396
501 395
501 394
502 393
503 393
504 392
505 392
506 391
507 390
508 390
509 390
509 389
510 388
511 387
512 386
513 385
514 384
515 383
516 382
517 382
517 381
518 380
519 379
520 378
520 377
521 376
522 375
523 374
524 373
525 372
526 372
527 371
528 370
529 369
530 369
531 368
532 367
533 366
534 365
535 365
536 365
537 364
538 363
539 362
540 361
540 360
541 359
541 358
542 357
542 356
543 355
544 354
544 353
545 352
546 351
547 350
548 349
548 348
547 347
548 346
549 345
550 344
549 343
550 342
551 341
552 340
551 339
551 338
552 337
552 336
553 335
554 335
555 334
554 333
555 332
556 331
557 330
558 329
559 328
558 327
558 326
559 325
560 324
561 323
562 322
562 321
563 320
563 319
564 318
564 317
565 316
566 316
567 315
567 314
568 313
569 312
569 311
569 310
568 309
567 309
566 310
565 310
564 310
563 311
562 311
561 312
560 312
559 312
558 313
557 314
556 314
555 315
554 316
553 316
552 317
551 318
550 319
549 319
548 319
547 320
546 321
545 322
544 322
543 321
542 321
541 321
540 322
539 322
538 322
537 322
536 322
535 321
534 321
533 322
532 322
531 323
530 323
529 323
528 323
527 322
526 322
525 322
524 323
523 324
522 324
521 325
520 325
519 325
518 325
517 326
516 326
515 327
514 328
513 328
512 329
511 329
510 329
509 329
508 329
507 328
508 327
509 326
509 325
509 324
509 323
510 322
511 322
512 321
513 320
514 320
515 319
514 318
514 317
515 316
515 315
516 314
517 313
518 312
518 311
518 310
519 309
520 308
521 307
521 306
522 305
523 304
524 304
525 303
526 302
527 302
528 301
529 301
530 300
531 300
532 300
533 299
534 298
535 297
536 297
536 296
536 295
537 294
538 293
539 292
539 291
539 290
540 289
541 288
541 287
542 286
542 285
541 285
540 284
541 283
541 282
542 281
543 280
543 279
542 278
542 277
543 276
544 275
544 274
545 273
544 272
544 271
544 270
545 269
546 268
546 267
546 266
546 265
547 264
548 263
549 262
550 261
550 260
549 259
549 258
550 257
550 256
550 255
550 254
550 253
551 252
551 251
551 250
551 249
551 248
551 247
551 246
552 245
551 244
551 243
550 243
549 243
548 243
547 242
547 241
547 240
547 239
547 238
547 237
547 236
547 235
548 234
548 233
548 232
549 231
549 230
549 229
550 228
551 227
551 226
551 225
551 224
551 223
550 223
549 222
549 221
548 220
548 219
549 218
549 217
548 216
547 217
546 216
545 216
544 215
544 214
545 213
545 212
545 211
544 211
543 210
543 209
544 208
545 207
545 206
544 205
544 204
544 203
545 202
544 201
544 200
545 199
545 198
545 197
545 196
544 195
543 196
542 195
542 194
542 193
542 192
541 191
540 191
539 191
538 191
537 190
537 189
537 188
537 187
538 186
537 185
536 186
535 185
535 184
535 183
535 182
535 181
534 180
534 179
534 178
534 177
534 176
533 175
533 174
532 174
531 174
530 173
530 172
529 171
529 170
528 170
527 170
526 171
525 171
524 170
524 169
524 168
524 167
524 166
524 165
523 165
522 165
521 164
521 163
520 163
519 162
519 161
518 160
518 159
518 158
518 157
517 157
516 156
516 155
515 154
514 154
513 154
512 154
511 155
510 155
509 154
509 153
509 152
509 151
508 151
507 151
506 150
506 149
506 148
505 147
505 146
504 145
504 144
503 144
502 145
501 145
500 144
499 144
498 144
497 143
497 142
497 141
497 140
496 139
495 139
494 140
493 139
493 138
493 137
493 136
493 135
492 135
491 134
491 133
490 132
490 131
489 130
490 129
490 128
489 127
488 127
487 127
486 126
486 125
487 124
486 123
486 122
485 121
485 120
485 119
485 118
484 118
483 117
482 116
482 115
482 114
482 113
481 112
481 111
482 110
481 109
480 108
480 107
480 106
480 105
480 104
480 103
479 102
479 101
479 100
478 99
478 98
477 97
476 97
475 97
475 98
474 99
473 100
473 101
472 102
473 103
473 104
472 105
472 106
472 107
472 108
472 109
472 110
472 111
472 112
471 113
470 113
470 114
470 115
470 116
470 117
470 118
469 119
468 119
468 120
468 121
468 122
468 123
467 124
467 125
467 126
466 127
465 127
464 128
464 129
463 130
462 131
462 132
461 133
460 133
460 134
459 135
459 136
458 137
457 136
456 137
456 138
456 139
455 140
454 140
453 140
452 141
451 142
450 141
449 141
449 142
448 143
447 144
446 145
446 146
445 147
444 147
443 147
443 148
443 149
443 150
443 151
442 152
441 152
440 152
439 153
438 153
437 152
436 152
435 152
434 153
433 152
433 151
433 150
432 149
431 149
430 148
430 147
430 146
430 145
430 144
429 143
429 142
428 142
427 142
426 141
426 140
426 139
426 138
426 137
425 136
424 137
423 137
422 136
422 135
422 134
422 133
422 132
422 131
422 130
421 129
421 128
421 127
421 126
420 125
419 124
418 125
417 124
416 123
416 122
416 121
416 120
415 120
414 119
414 118
413 117
412 116
411 116
410 116
409 115
408 114
407 113
407 112
406 111
405 110
404 110
403 111
402 112
401 112
400 111
400 110
400 109
400 108
400 107
400 106
400 105
399 104
398 104
397 105
396 104
396 103
395 102
395 101
394 101
393 101
392 100
391 99
391 98
391 97
390 97
389 97
388 97
387 96
386 95
385 94
384 94
383 94
382 94
381 95
380 95
379 94
378 93
377 93
376 92
375 91
374 90
373 90
372 91
371 92
370 92
369 91
368 90
367 91
366 90
365 89
364 88
364 87
363 86
362 86
361 85
360 85
359 85
358 86
357 86
356 86
355 86
354 85
353 84
352 84
351 84
350 85
350 86
349 87
348 88
347 87
347 86
347 85
347 84
346 83
346 82
345 81
344 82
344 83
343 84
342 83
341 82
340 82
339 81
338 81
337 80
336 79
335 79
334 79
333 80
332 80
331 80
330 79
329 78
328 78
327 78
327 79
326 80
326 81
325 82
325 83
324 84
323 84
322 83
322 82
322 81
321 80
320 79
319 80
318 81
317 81
316 80
315 79
314 78
313 78
312 78
311 79
310 79
309 78
308 78
307 77
306 77
305 78
305 79
305 80
304 81
303 81
302 81
301 80
300 81
299 80
298 79
297 79
296 78
295 78
294 79
294 80
294 81
294 82
293 83
292 83
291 83
290 84
289 85
288 84
287 83
286 83
285 83
284 82
283 82
282 82
281 83
280 83
279 83
278 84
277 84
276 83
275 82
274 82
273 82
272 83
271 83
270 82
269 81
268 80
267 80
266 80
265 81
264 81
263 80
262 79
261 79
260 78
259 78
258 79
257 79
256 78
256 77
255 76
254 77
253 76
252 75
251 75
250 74
249 74
248 74
247 74
246 73
245 72
244 71
243 70
242 69
241 68
240 68
239 67
238 66
238 65
237 64
236 63
235 63
234 62
234 61
233 60
232 60
231 59
230 58
229 58
228 58
227 58
