136 265
136 266
136 267
136 268
136 269
136 270
136 271
136 272
136 273
136 274
136 275
137 276
138 277
138 278
139 279
140 280
141 281
142 282
143 283
144 284
145 285
146 285
147 286
148 286
149 287
150 287
151 288
152 288
153 289
153 290
154 291
154 292
154 293
153 294
153 295
152 296
151 297
150 298
150 299
149 300
149 301
149 302
149 303
149 304
149 305
149 306
149 307
149 308
149 309
149 310
149 311
149 312
150 313
150 314
151 315
152 316
153 317
154 318
155 318
156 319
157 319
158 320
159 321
160 322
161 323
162 323
163 324
164 324
165 325
166 326
167 326
168 327
169 327
170 328
171 328
172 329
173 329
174 330
175 330
176 331
177 331
178 332
178 333
179 334
180 334
181 334
182 334
183 335
184 335
185 335
186 335
187 336
188 336
189 337
190 337
191 338
191 339
192 340
192 341
192 342
192 343
192 344
191 345
191 346
191 347
190 348
190 349
190 350
190 351
190 352
190 353
190 354
190 355
190 356
190 357
190 358
190 359
190 360
190 361
190 362
191 362
192 363
193 363
194 363
195 363
196 363
197 363
198 363
199 363
200 363
201 363
202 363
203 363
204 363
205 363
206 363
207 363
208 363
209 363
210 363
211 363
212 364
213 364
214 365
215 365
216 366
217 366
218 367
219 368
220 369
220 370
221 371
221 372
222 373
223 373
224 374
225 374
226 374
227 374
228 374
229 375
230 375
231 375
232 375
233 375
234 375
235 375
236 375
237 375
238 375
239 375
240 375
241 375
242 375
243 375
244 375
245 375
246 375
247 375
248 375
249 375
250 375
251 376
252 376
253 377
254 377
255 378
255 379
256 380
256 381
257 382
257 383
257 384
257 385
257 386
257 387
257 388
257 389
257 390
257 391
257 392
257 393
257 394
257 395
257 396
257 397
257 398
258 399
258 400
258 401
258 402
259 403
259 404
260 405
261 406
262 407
263 407
264 408
265 409
266 410
267 411
268 412
269 413
270 414
271 415
272 415
273 415
274 415
275 415
276 415
277 415
278 415
279 415
280 415
281 415
282 415
283 415
284 415
285 415
286 415
287 415
288 415
289 415
290 416
291 416
292 417
293 417
294 418
295 419
296 420
297 421
298 421
299 421
300 421
301 421
302 421
303 421
304 421
305 421
306 421
307 421
308 421
309 421
310 421
311 421
312 420
313 420
314 420
315 419
316 418
317 417
318 416
319 415
320 414
321 413
322 412
322 411
323 410
324 410
325 409
326 408
327 407
328 406
329 405
330 404
331 403
332 402
333 402
334 401
335 401
336 400
337 400
338 399
339 399
340 398
341 398
342 397
343 397
344 397
345 396
346 395
347 395
348 394
349 394
350 393
351 393
352 393
353 392
354 391
355 390
356 389
357 388
358 387
359 386
360 385
361 385
362 384
363 384
364 384
365 384
366 385
367 386
367 387
368 388
368 389
368 390
368 391
368 392
368 393
368 394
368 395
368 396
368 397
368 398
368 399
368 400
368 401
368 402
369 403
370 404
371 405
372 406
373 406
374 407
375 408
376 408
377 409
378 409
379 409
380 409
381 409
382 409
383 409
384 409
385 409
386 409
387 409
388 409
389 409
390 409
391 409
392 409
393 409
394 409
395 409
396 408
397 408
398 408
399 408
400 408
401 408
402 407
403 407
404 407
405 407
406 406
407 406
408 405
409 405
410 405
411 404
412 404
413 403
414 403
415 402
416 402
417 401
418 401
419 400
420 400
421 399
422 399
423 399
424 399
425 399
426 399
427 399
428 398
429 398
430 397
431 397
432 397
433 396
434 395
435 394
436 393
437 392
438 391
439 390
440 389
441 388
442 387
443 386
444 385
444 384
445 383
446 382
447 381
448 380
449 379
450 378
451 377
452 376
452 375
453 374
454 373
455 372
455 371
456 370
457 369
458 368
459 367
459 366
460 365
461 364
462 364
463 363
464 362
465 361
465 360
466 359
467 358
468 357
469 356
470 355
471 355
472 354
473 354
474 353
475 353
476 352
477 352
478 351
479 352
480 352
481 353
482 353
483 354
484 355
484 356
485 357
485 358
486 359
486 360
486 361
486 362
487 363
487 364
487 365
487 366
487 367
488 368
488 369
489 370
489 371
490 372
491 372
492 372
493 372
494 372
495 372
496 372
497 372
498 372
499 372
500 372
501 372
502 372
503 372
504 372
505 371
506 370
506 369
507 368
508 367
508 366
509 365
509 364
510 363
510 362
511 361
512 360
513 359
513 358
514 357
514 356
515 355
516 354
517 353
518 352
518 351
519 350
519 349
520 348
520 347
521 346
521 345
522 344
522 343
523 342
524 341
525 340
526 339
526 338
527 337
527 336
528 335
528 334
529 333
530 332
531 331
531 330
532 329
533 328
534 327
535 326
535 325
536 324
537 323
538 322
539 321
540 320
541 319
542 318
542 317
543 316
544 315
545 314
546 313
546 312
547 311
548 311
549 310
550 310
551 309
552 309
553 308
554 307
554 306
555 305
556 305
557 304
558 304
559 303
560 303
561 303
562 302
563 302
564 302
565 301
566 301
567 301
568 301
569 301
570 301
571 302
572 302
573 303
574 303
575 304
576 305
577 306
578 307
579 307
580 307
581 307
582 307
583 307
584 307
585 307
586 307
587 307
588 307
589 307
590 307
591 307
592 307
593 306
594 305
595 305
596 304
597 303
598 302
598 301
599 300
600 299
601 298
602 297
603 296
604 295
605 294
606 293
607 292
608 291
609 290
610 289
611 288
612 288
613 287
614 287
615 286
616 286
617 285
618 285
619 285
620 284
621 284
622 284
623 284
624 284
625 283
626 282
627 281
628 281
629 280
630 280
631 279
632 279
633 279
634 279
635 278
636 278
637 278
638 278
639 278
640 278
641 279
642 279
643 279
644 279
645 279
646 279
647 280
648 280
649 280
650 280
651 280
652 280
653 280
654 280
655 280
656 280
657 280
658 280
659 280
660 280
661 280
662 280
663 279
664 278
665 277
666 276
667 275
668 274
669 274
670 273
671 273
672 272
673 272
674 271
675 271
676 270
677 270
678 270
679 270
680 270
681 270
682 270
683 270
684 271
685 271
686 271
687 271
688 271
689 271
690 272
691 272
692 272
693 272
694 272
695 272
696 272
697 272
698 272
699 272
700 272
701 272
702 272
703 272
704 272
705 272
706 272
707 272
708 272
709 272
710 272
711 272
712 272
713 271
714 271
715 271
716 270
717 269
718 268
719 267
720 266
720 265
720 264
720 263
720 262
720 261
720 260
720 259
720 258
719 257
718 257
717 257
716 257
715 257
714 257
713 257
712 257
711 257
710 257
709 257
709 258
708 259
707 260
706 261
705 261
704 262
703 262
702 263
701 263
700 263
699 264
698 264
697 264
696 264
695 264
694 264
693 263
692 263
691 263
690 263
689 263
688 263
687 263
686 263
685 263
684 262
683 262
682 262
681 261
680 261
679 260
678 260
677 259
676 259
675 258
674 258
673 257
673 256
672 255
672 254
671 254
670 254
669 254
668 254
667 254
666 254
665 254
664 254
663 254
662 254
661 254
660 255
659 255
658 255
657 255
656 255
655 255
654 255
653 254
652 254
651 254
650 254
649 253
648 253
647 253
646 253
645 253
644 253
643 253
642 253
641 253
640 253
639 253
638 253
637 252
636 252
635 251
634 251
633 251
632 251
631 250
630 250
629 249
628 249
627 248
626 248
625 247
624 247
623 246
622 246
621 245
620 245
619 244
618 244
617 243
616 242
615 242
614 241
613 240
612 240
611 239
610 239
609 239
608 239
607 238
606 238
605 237
604 237
603 236
602 236
601 235
600 235
599 234
598 234
597 233
596 233
595 232
594 232
593 231
592 231
591 230
590 229
589 229
588 228
587 227
586 227
585 227
584 226
583 226
582 225
581 225
580 224
579 224
578 223
577 222
576 222
575 221
574 221
573 220
572 220
571 220
570 219
569 219
568 218
567 218
566 217
565 217
564 216
563 216
562 215
561 215
560 214
559 213
558 212
557 212
556 211
555 210
554 209
553 208
552 207
551 206
550 205
549 204
548 203
547 202
546 201
546 200
545 199
544 198
544 197
543 196
543 195
542 194
541 193
541 192
540 191
540 190
539 189
539 188
538 187
538 186
537 185
537 184
537 183
536 182
536 181
535 180
534 179
533 179
532 179
531 179
530 178
529 178
528 177
527 177
526 176
525 176
524 176
523 176
522 176
521 176
520 176
519 176
518 176
517 176
516 176
515 176
514 176
514 177
514 178
514 179
514 180
514 181
514 182
514 183
514 184
513 185
513 186
512 187
512 188
512 189
511 190
511 191
511 192
510 193
510 194
510 195
510 196
510 197
509 198
509 199
508 200
508 201
507 202
507 203
506 204
505 205
504 205
503 205
502 204
501 204
500 203
499 202
498 201
497 200
496 199
495 199
494 198
493 198
492 197
491 197
490 196
490 195
489 194
489 193
488 192
488 191
487 190
487 189
486 188
486 187
485 186
485 185
484 184
483 183
482 182
481 181
480 180
479 180
478 179
477 178
476 178
475 177
474 177
473 176
472 175
471 174
470 173
469 172
468 171
467 170
466 170
465 169
464 168
463 168
462 167
461 166
460 165
459 164
458 163
457 162
456 161
456 160
455 159
455 158
454 157
453 156
452 155
451 154
450 153
450 152
449 151
448 150
447 149
446 148
445 147
444 147
443 146
442 146
441 145
440 145
439 145
438 144
437 144
436 144
435 144
434 144
433 143
432 143
431 142
430 142
429 142
428 141
427 141
426 141
425 141
424 141
423 141
422 141
421 141
420 141
419 141
418 141
417 141
416 141
415 141
414 141
413 141
412 141
411 141
410 141
409 141
408 141
407 141
406 141
405 141
404 142
403 142
402 142
401 143
401 144
401 145
401 146
401 147
401 148
401 149
401 150
401 151
401 152
401 153
401 154
400 155
399 155
398 156
397 155
396 155
395 154
394 153
393 152
393 151
392 150
391 149
390 148
390 147
389 146
388 145
388 144
387 143
386 142
386 141
385 140
385 139
384 138
384 137
383 136
383 135
382 134
382 133
381 132
380 131
380 130
379 129
379 128
378 127
377 126
376 125
375 124
374 124
373 123
372 123
371 123
370 123
369 123
368 123
367 122
366 122
365 122
364 122
363 122
362 122
361 122
360 122
359 122
358 122
357 122
356 122
355 122
354 122
353 122
352 122
351 123
351 124
350 125
350 126
349 127
349 128
348 129
348 130
347 131
347 132
346 133
346 134
345 135
344 135
343 136
342 136
341 137
340 137
339 138
338 138
337 138
336 138
335 138
334 138
333 138
332 138
331 137
330 137
329 136
328 136
327 135
326 135
325 134
324 133
323 132
322 131
321 131
320 130
319 129
318 128
317 127
316 126
315 125
314 124
313 123
312 122
311 121
310 120
309 120
308 119
307 118
306 117
305 117
304 116
303 115
302 114
301 114
300 113
299 112
298 112
297 112
296 112
295 112
294 112
293 112
292 112
291 112
290 112
289 113
288 113
287 114
286 114
285 114
284 114
283 113
282 113
281 113
280 112
279 112
278 112
277 112
276 111
275 111
274 111
273 111
272 111
271 111
270 111
269 111
268 111
267 111
266 111
265 111
264 111
263 111
262 111
261 111
260 111
259 111
258 111
257 112
256 113
255 114
254 115
254 116
254 117
254 118
254 119
254 120
254 121
254 122
254 123
254 124
254 125
254 126
254 127
255 128
255 129
255 130
255 131
255 132
255 133
256 134
256 135
256 136
256 137
257 138
257 139
257 140
256 141
256 142
256 143
256 144
255 145
255 146
254 147
254 148
253 149
253 150
252 151
251 152
250 153
250 154
249 155
248 156
247 157
246 158
245 158
244 159
243 160
242 160
241 161
240 161
239 162
238 162
237 163
236 163
235 163
234 164
233 164
232 164
231 165
230 165
229 165
228 166
227 166
226 166
225 167
224 167
223 168
222 168
221 169
220 169
219 170
218 170
217 170
216 170
215 171
214 171
213 171
212 171
211 171
210 172
209 172
208 172
207 172
206 172
205 172
204 172
203 173
202 173
201 173
200 173
200 174
200 175
200 176
199 177
199 178
198 179
198 180
197 181
197 182
196 183
195 184
194 185
193 186
192 186
191 187
190 187
189 188
188 188
187 189
186 189
185 190
184 191
183 192
182 193
181 194
180 195
179 196
179 197
178 198
177 199
177 200
176 201
175 202
174 203
174 204
173 205
172 206
171 207
171 208
171 209
171 210
170 211
170 212
170 213
170 214
170 215
170 216
170 217
169 218
169 219
168 220
168 221
167 222
167 223
166 224
165 225
164 226
163 226
162 227
161 228
160 229
159 230
158 231
157 232
156 233
155 234
154 234
153 235
152 236
151 237
151 238
150 239
149 240
149 241
148 242
147 243
146 244
145 245
145 246
145 247
144 248
144 249
144 250
144 251
144 252
143 253
143 254
142 255
142 256
141 257
141 258
140 259
140 260
139 261
139 262
138 263
137 264
136 265
