333 75
332 76
331 76
330 76
329 77
328 77
327 77
326 77
325 77
324 77
323 77
322 77
321 78
320 77
319 78
318 78
317 78
316 78
315 78
314 78
313 78
312 78
311 78
310 78
309 78
308 79
307 79
306 79
305 79
304 80
303 80
302 80
301 80
300 80
299 80
298 81
297 81
296 80
295 80
294 80
293 80
292 80
291 80
290 81
289 81
288 81
287 81
286 81
285 81
284 82
283 82
282 82
281 82
280 82
279 83
278 83
277 83
276 84
275 85
274 85
273 85
272 85
271 85
270 85
269 85
268 86
267 86
266 86
265 86
264 86
263 87
262 87
261 87
260 87
259 87
258 87
257 87
256 88
255 88
254 88
253 88
252 88
251 89
250 89
249 89
248 89
247 89
246 89
245 90
244 90
243 90
242 91
241 91
240 92
239 92
238 92
237 92
236 93
235 93
234 93
233 94
232 94
231 94
230 95
229 95
228 95
227 96
226 96
225 97
224 97
223 97
222 98
221 98
220 99
219 99
218 99
217 100
216 100
215 101
214 101
213 101
212 102
211 102
210 103
209 104
208 104
207 105
206 106
205 106
204 106
203 107
202 107
201 107
200 108
199 108
198 108
197 109
196 110
195 110
194 110
193 111
192 112
191 112
190 113
189 113
188 114
187 114
186 114
185 114
184 115
183 116
182 116
181 117
180 117
179 117
178 117
177 118
176 118
175 118
174 119
173 119
172 120
171 120
170 120
169 121
168 122
167 122
166 122
165 123
164 123
163 124
162 125
161 125
160 126
159 127
158 127
157 128
156 128
155 129
154 129
153 130
152 131
152 132
151 133
150 134
149 134
149 135
148 136
147 136
146 137
145 138
145 139
144 140
143 141
142 141
142 142
141 143
140 143
139 144
138 145
137 146
136 147
135 148
134 149
133 150
132 151
132 152
131 153
130 154
130 155
129 156
129 157
128 158
128 159
127 160
127 161
126 162
125 163
125 164
124 165
123 166
122 167
121 168
120 169
119 170
118 171
117 172
117 173
116 174
115 175
115 176
114 177
114 178
113 179
113 180
112 181
111 182
111 183
110 184
109 185
108 186
108 187
107 188
107 189
106 190
105 191
104 192
103 193
103 194
102 195
102 196
101 197
101 198
100 199
100 200
99 201
98 202
98 203
98 204
97 205
97 206
97 207
96 208
96 209
95 210
95 211
94 212
93 213
93 214
93 215
93 216
92 217
92 218
92 219
91 220
91 221
90 222
89 223
88 224
87 225
87 226
86 227
86 228
85 229
85 230
84 231
84 232
83 233
83 234
83 235
82 236
81 237
81 238
80 239
80 240
80 241
80 242
79 243
79 244
78 245
78 246
78 247
77 248
77 249
77 250
77 251
76 252
76 253
76 254
76 255
76 256
75 257
75 258
75 259
74 260
74 261
74 262
74 263
74 264
74 265
75 266
74 267
74 268
74 269
73 270
74 271
74 272
73 273
73 274
73 275
74 276
74 277
74 278
74 279
74 280
74 281
74 282
74 283
74 284
74 285
74 286
74 287
74 288
75 289
75 290
75 291
75 292
75 293
76 294
76 295
76 296
77 297
77 298
77 299
78 300
78 301
79 302
79 303
80 303
81 304
81 305
82 306
82 307
83 308
83 309
84 310
84 311
85 312
85 313
86 314
87 315
88 316
88 317
89 318
89 319
90 320
91 320
92 321
92 322
93 323
94 324
95 325
96 326
96 327
97 328
97 329
98 329
99 330
100 331
100 332
101 333
102 334
103 335
103 336
104 336
105 337
106 337
107 338
108 339
108 340
109 341
110 342
111 343
112 344
112 345
113 346
114 347
115 348
116 349
117 350
118 351
119 352
119 353
120 354
121 355
121 356
122 357
122 358
123 359
124 360
124 361
125 362
126 363
127 364
128 365
129 366
129 367
130 368
131 369
132 370
132 371
133 372
134 373
135 374
135 375
136 376
137 377
138 378
138 379
139 379
140 380
141 381
141 382
142 383
143 384
144 384
145 385
146 386
147 386
148 386
149 387
150 388
151 388
152 389
153 389
154 390
155 391
156 391
157 392
158 392
159 393
160 394
161 395
162 396
163 397
164 398
165 398
166 399
167 400
168 400
169 401
170 402
171 403
172 404
173 405
174 406
175 406
176 407
177 408
178 408
179 409
180 410
181 410
182 411
183 411
184 412
185 412
186 413
187 413
188 414
189 414
190 415
191 416
192 416
193 416
194 417
195 417
196 417
197 418
198 418
199 418
200 418
201 419
202 419
203 420
204 420
205 420
206 421
207 422
208 422
209 423
210 423
211 424
212 424
213 424
214 425
215 425
216 426
217 427
218 427
219 428
220 429
221 429
222 430
223 431
224 432
225 433
225 434
226 435
227 436
228 437
229 438
230 439
231 440
232 441
233 442
234 442
235 443
236 444
237 445
238 445
239 446
240 447
241 447
242 447
243 448
244 448
245 448
246 448
247 449
248 449
249 449
250 450
251 450
252 450
253 451
254 451
255 452
256 452
257 452
258 452
259 453
260 453
261 453
262 453
263 454
264 454
265 454
266 454
267 454
268 454
269 455
270 455
271 455
272 455
273 456
274 456
275 456
276 456
277 456
278 456
279 456
280 456
281 456
282 456
283 456
284 456
285 456
286 456
287 456
288 456
289 456
290 456
291 456
292 456
293 456
294 456
295 456
296 456
297 457
298 457
299 457
300 457
301 457
302 457
303 457
304 457
305 457
306 457
307 457
308 458
309 458
310 458
311 459
312 459
313 459
314 459
315 460
316 460
317 460
318 460
319 460
320 460
321 460
322 460
323 460
324 460
325 460
326 460
327 460
328 460
329 460
330 460
331 460
332 460
333 460
334 460
335 460
336 460
337 460
338 460
339 460
340 460
341 460
342 460
343 460
344 460
345 460
346 459
347 459
348 459
349 459
350 459
351 458
352 458
353 458
354 458
355 458
356 458
357 458
358 458
359 458
360 457
361 457
362 457
363 456
364 456
365 455
366 455
367 455
368 454
369 453
370 453
371 452
372 452
373 452
374 452
375 452
376 452
377 451
378 451
379 451
380 451
381 451
382 451
383 451
384 451
385 450
386 450
387 450
388 450
389 450
390 450
391 450
392 450
393 449
394 449
395 448
396 448
397 448
398 448
399 447
400 446
401 446
402 446
403 445
404 444
405 444
406 444
407 443
408 442
409 442
410 442
411 441
412 441
413 440
414 440
415 440
416 440
417 439
418 439
419 438
420 438
421 437
422 437
423 437
424 436
425 435
426 434
427 433
428 433
429 432
430 432
431 431
432 431
433 430
434 429
435 428
436 428
437 427
438 426
439 425
440 424
441 423
442 423
442 422
443 421
444 420
445 420
446 419
447 418
448 417
449 416
450 415
451 414
451 413
452 412
453 411
454 410
455 410
456 409
457 408
458 407
459 406
460 406
461 406
462 405
463 405
464 404
465 404
466 404
467 403
468 402
469 402
470 402
471 401
472 401
473 400
474 399
475 399
475 398
476 397
477 398
478 397
479 397
480 397
481 396
482 395
483 394
484 393
485 393
486 392
486 391
487 390
488 390
489 389
490 389
491 388
492 388
492 387
493 386
494 385
495 385
495 384
496 383
497 383
498 383
498 382
499 381
500 380
501 380
502 379
503 378
504 377
505 376
506 376
506 375
507 374
508 374
509 373
509 372
510 371
511 370
512 370
513 369
513 368
514 367
514 366
515 365
516 364
517 363
518 362
519 361
520 360
521 360
522 359
523 358
524 357
525 356
526 356
527 355
527 354
528 353
529 353
529 352
530 351
531 351
532 350
533 349
534 348
535 347
536 346
537 345
538 344
539 343
539 342
540 341
541 341
542 340
543 339
543 338
544 337
544 336
545 335
546 334
547 333
548 332
548 331
549 330
549 329
549 328
550 327
551 326
552 325
552 324
553 323
554 322
555 321
555 320
556 319
557 319
558 318
559 318
560 317
560 316
561 315
562 314
563 313
563 312
564 311
565 310
566 309
567 308
568 308
568 307
569 306
569 305
570 304
571 303
571 302
572 301
572 300
572 299
573 298
573 297
574 296
575 295
575 294
576 293
576 292
577 291
578 290
578 289
579 288
579 287
580 286
581 285
582 284
583 283
584 282
585 281
586 280
587 279
588 278
589 277
590 276
591 275
592 275
593 274
594 273
595 272
596 271
597 270
598 269
599 268
600 268
601 267
602 266
603 266
604 265
605 264
606 264
606 263
607 262
608 262
609 261
610 260
611 260
612 260
613 259
614 259
615 258
616 258
617 258
618 257
619 257
620 257
621 257
622 256
623 256
624 256
625 256
626 255
627 255
628 255
629 254
630 254
631 254
632 254
633 254
634 253
635 253
636 253
637 252
638 252
639 252
640 252
641 251
642 251
643 251
644 251
645 250
646 250
647 250
648 250
649 249
650 249
651 249
652 248
653 248
654 248
655 248
656 247
657 247
658 247
659 246
660 247
661 246
662 246
663 246
664 245
665 245
666 245
667 245
668 244
669 244
670 244
671 243
672 243
673 243
674 242
675 242
676 242
677 242
678 242
679 241
680 241
681 241
682 241
683 241
684 240
685 240
686 239
687 239
688 239
689 239
690 238
691 238
692 238
693 238
694 238
695 237
696 237
697 237
698 237
699 236
700 236
701 236
702 236
703 235
704 235
705 235
706 235
707 235
708 234
709 234
710 234
711 234
712 233
713 233
714 233
715 233
716 232
717 232
718 232
719 232
720 232
721 231
722 231
723 231
724 231
725 230
726 230
727 230
728 230
729 229
730 229
731 229
732 229
733 229
734 229
735 228
736 228
737 228
738 228
739 228
740 228
741 227
742 227
743 227
744 227
745 227
746 226
747 226
748 226
749 226
750 226
751 225
752 225
753 225
754 225
755 225
756 224
757 223
758 223
757 222
756 221
755 220
754 220
753 219
752 218
751 217
750 216
749 216
748 216
747 217
746 217
745 217
744 217
743 217
742 217
741 218
740 218
739 218
738 218
737 218
736 218
735 219
734 219
733 219
732 219
731 220
730 220
729 220
728 221
727 221
726 221
725 221
724 222
723 222
722 222
721 222
720 223
719 223
718 223
717 223
716 224
715 224
714 224
713 224
712 224
711 225
710 225
709 225
708 226
707 226
706 226
705 226
704 227
703 227
702 227
701 227
700 228
699 228
698 228
697 229
696 229
695 229
694 229
693 229
692 230
691 230
690 230
689 231
688 231
687 231
686 232
685 232
684 232
683 232
682 233
681 233
680 233
679 233
678 234
677 234
676 234
675 234
674 235
673 235
672 235
671 235
670 236
669 236
668 236
667 236
666 237
665 237
664 237
663 237
662 238
661 238
660 238
659 238
658 239
657 239
656 239
655 239
654 240
653 240
652 240
651 241
650 241
649 241
648 241
647 242
646 242
645 242
644 242
643 243
642 243
641 243
640 243
639 244
638 244
637 244
636 244
635 245
634 245
633 245
632 245
631 246
630 246
629 246
628 246
627 247
626 247
625 247
624 247
623 248
622 248
621 248
620 248
619 248
618 249
617 249
616 249
615 249
614 250
613 250
612 250
611 250
610 251
609 251
608 251
607 251
606 251
605 251
604 252
603 252
602 252
601 252
600 252
599 252
598 252
597 252
596 252
595 253
594 253
593 253
592 253
591 253
590 253
589 253
588 253
587 253
586 252
585 252
584 251
583 250
582 250
581 250
580 249
579 248
578 248
577 247
576 247
575 246
574 245
573 244
572 243
571 242
570 241
569 240
568 239
567 238
566 237
565 236
564 235
564 234
563 233
562 232
561 231
560 230
559 229
559 228
558 227
557 226
556 225
556 224
555 223
555 222
555 221
554 220
554 219
553 218
553 217
552 216
551 215
551 214
550 213
549 212
549 211
548 210
547 209
546 208
546 207
545 206
544 205
544 204
543 203
542 202
542 201
541 200
540 199
540 198
540 197
539 196
538 195
538 194
537 193
537 192
536 191
535 190
535 189
534 188
533 187
533 186
533 185
532 184
532 183
531 182
530 181
530 180
529 179
528 178
528 177
527 176
527 175
526 174
526 173
526 172
525 171
525 170
524 169
523 168
523 167
522 166
521 165
521 164
520 163
520 162
519 161
518 160
517 159
516 158
516 157
515 156
514 155
514 154
513 153
513 152
512 151
511 150
511 149
510 148
509 147
508 146
507 145
506 145
505 144
505 143
504 142
503 141
502 140
501 139
500 138
499 137
498 136
497 135
496 134
496 133
495 133
494 132
494 131
493 130
492 129
491 128
490 127
489 126
488 125
487 124
486 123
485 123
484 122
483 121
482 121
481 120
480 119
479 118
478 118
477 117
476 116
475 116
474 116
473 115
472 114
471 113
470 113
469 112
468 112
467 111
466 111
465 110
464 110
463 109
463 108
462 108
461 107
460 106
459 106
458 105
457 104
456 104
455 103
454 103
453 102
452 102
451 102
450 101
449 101
448 100
447 100
446 100
445 99
444 100
443 99
442 98
441 98
440 97
439 97
438 97
437 96
436 95
435 95
434 95
433 94
432 94
431 94
430 94
429 93
428 93
427 92
426 92
425 92
424 91
423 91
422 91
421 90
420 90
419 90
418 90
417 90
416 89
415 89
414 89
413 89
412 88
411 88
410 88
409 87
408 87
407 87
406 86
405 86
404 86
403 86
402 86
401 86
400 86
399 86
398 86
397 86
396 86
395 85
394 85
393 85
392 85
391 85
390 84
389 84
388 84
387 84
386 83
385 83
384 83
383 83
382 83
381 82
380 83
379 83
378 82
377 82
376 81
375 81
374 81
373 81
372 80
371 80
370 80
369 80
368 80
367 79
366 78
365 78
364 78
363 78
362 78
361 78
360 77
359 78
358 77
357 77
356 77
355 77
354 77
353 76
352 76
351 76
350 77
349 77
348 76
347 76
346 76
345 76
344 76
343 76
342 75
341 76
340 76
339 75
338 75
337 75
336 75
335 75
334 75
333 75
