331 77
330 78
329 78
328 78
327 78
326 78
325 78
324 79
323 79
322 79
321 79
320 80
319 80
318 80
317 80
316 80
315 81
314 81
313 81
312 81
311 81
310 82
309 82
308 82
307 82
306 82
305 83
304 83
303 83
302 83
301 83
300 83
299 83
298 84
297 84
296 84
295 84
294 84
293 84
292 84
291 85
290 85
289 85
288 85
287 85
286 85
285 85
284 85
283 85
282 85
281 86
280 85
279 86
278 86
277 86
276 86
275 86
274 86
273 86
272 86
271 86
270 87
269 87
268 87
267 87
266 87
265 87
264 87
263 87
262 87
261 87
260 88
259 88
258 88
257 88
256 88
255 88
254 88
253 88
252 88
251 88
250 89
249 89
248 89
247 89
246 89
245 89
244 90
243 90
242 90
241 90
240 90
239 90
238 90
237 90
236 91
235 91
234 91
233 91
232 91
231 91
230 91
229 92
228 92
227 92
226 92
225 92
224 93
223 93
222 93
221 94
220 94
219 94
218 95
217 95
216 95
215 95
214 95
213 96
212 96
211 96
210 97
209 97
208 97
207 98
206 98
205 98
204 98
203 98
202 99
201 99
200 100
199 100
198 100
197 100
196 101
195 101
194 101
193 102
192 102
191 103
190 103
189 103
188 104
187 104
186 105
185 105
184 105
183 106
182 106
181 106
180 106
179 106
178 106
177 106
176 106
175 107
174 107
173 107
172 107
171 107
170 108
169 108
168 108
167 108
166 108
165 109
164 109
163 109
162 109
161 109
160 110
159 110
158 110
157 110
156 111
155 111
154 111
153 111
152 111
151 112
150 112
149 112
148 112
147 112
146 112
145 112
144 113
143 113
142 113
141 113
140 113
139 113
138 114
137 114
136 114
135 114
134 114
133 114
132 114
131 114
130 114
129 114
128 114
127 114
126 114
125 114
124 114
123 114
122 114
121 114
120 114
119 114
118 114
117 114
116 114
115 114
114 114
113 114
112 115
111 115
110 115
109 115
108 115
107 116
106 116
105 116
104 116
103 116
102 116
101 117
100 117
99 117
98 117
97 118
96 118
95 119
94 119
93 120
92 120
91 121
90 121
89 122
88 122
87 123
86 124
85 125
84 126
84 127
84 128
84 129
84 130
84 131
85 132
85 133
85 134
86 135
86 136
87 137
87 138
88 138
89 139
89 140
90 141
91 142
92 143
93 144
94 145
95 146
96 147
97 148
98 149
99 150
100 151
101 152
102 153
103 154
104 155
105 156
106 156
107 157
107 158
108 158
109 159
110 160
111 161
112 162
113 163
114 164
115 164
116 165
117 166
118 167
119 168
120 168
121 169
122 170
123 171
124 172
125 173
126 173
127 174
128 175
129 176
130 176
131 177
132 178
133 179
134 179
135 180
136 181
137 182
138 182
139 183
140 184
141 184
142 185
143 185
144 186
145 187
146 187
147 188
148 189
149 189
150 190
151 190
152 191
153 192
154 192
155 193
156 193
157 194
158 194
159 195
160 196
161 196
162 197
163 198
164 198
165 199
166 200
167 200
168 201
169 202
170 202
171 203
172 203
173 204
174 205
175 205
176 206
177 207
178 208
179 208
180 209
181 209
182 210
183 211
184 211
185 212
186 213
187 213
188 214
189 214
190 215
191 215
192 216
193 216
194 217
195 217
196 218
197 218
198 219
199 220
200 220
201 220
202 221
203 221
204 222
205 222
206 223
207 223
208 224
209 224
210 225
211 225
212 226
213 226
214 227
215 227
216 228
217 228
218 229
219 229
220 230
221 230
222 231
223 231
224 231
225 232
226 232
227 233
228 233
229 234
230 234
231 234
232 235
233 235
234 236
235 236
236 236
237 237
238 237
239 238
240 238
241 239
242 239
243 239
244 240
245 240
246 240
247 241
248 241
249 241
250 242
251 242
252 243
253 243
254 243
255 243
256 244
257 244
258 244
259 245
260 245
261 245
262 245
263 246
264 246
265 246
266 247
267 247
268 247
269 248
270 248
271 248
272 249
273 249
274 250
275 250
276 250
277 251
278 251
279 251
280 252
281 252
282 252
283 253
284 253
285 253
286 254
287 254
288 254
289 254
290 255
291 255
292 255
293 255
294 256
295 256
296 256
297 257
298 257
299 257
300 257
301 258
302 258
303 258
304 259
305 259
306 259
307 260
308 260
309 260
310 260
311 261
312 261
313 261
314 261
315 262
316 262
317 262
318 262
319 262
320 263
321 263
322 263
323 263
324 263
325 263
326 263
327 263
328 263
329 263
330 263
331 263
332 263
333 263
334 263
335 263
336 263
337 263
338 263
339 263
340 264
341 264
342 264
343 264
344 264
345 264
346 264
347 264
348 264
349 264
350 264
351 264
352 264
353 264
354 264
355 264
356 264
357 264
358 264
359 264
360 264
361 264
362 264
363 265
364 265
365 265
366 265
367 265
368 265
369 265
370 265
371 265
372 265
373 265
374 265
375 265
376 265
377 265
378 265
379 265
380 265
381 265
382 265
383 265
384 265
385 265
386 265
387 265
388 266
389 266
390 266
391 266
392 266
393 266
394 266
395 266
396 266
397 266
398 266
399 266
400 266
401 266
402 266
403 266
404 266
405 266
406 266
407 266
408 266
409 266
410 266
411 266
412 266
413 266
414 266
415 266
416 266
417 266
418 266
419 266
420 266
421 266
422 266
423 266
424 266
425 266
426 266
427 266
428 266
429 266
430 266
431 266
432 266
433 265
434 265
435 265
436 265
437 265
438 265
439 265
440 265
441 265
442 265
443 265
444 265
445 265
446 265
447 265
448 265
449 265
450 265
451 265
452 265
453 265
454 264
455 264
456 264
457 264
458 264
459 264
460 264
461 264
462 264
463 263
464 263
465 263
466 263
467 263
468 263
469 263
470 263
471 262
472 262
473 262
474 262
475 262
476 262
477 262
478 262
479 262
480 261
481 261
482 261
483 261
484 261
485 261
486 260
487 260
488 260
489 260
490 260
491 260
492 260
493 259
494 259
495 259
496 259
497 259
498 258
499 258
500 258
501 258
502 258
503 257
504 257
505 257
506 257
507 257
508 256
509 256
510 256
511 256
512 256
513 255
514 255
515 255
516 255
517 254
518 254
519 253
520 253
521 253
522 253
523 252
524 252
525 252
526 252
527 251
528 251
529 250
530 250
531 250
532 250
533 249
534 249
535 248
536 248
537 248
538 247
539 246
540 246
541 246
542 245
543 245
544 245
545 244
546 244
547 243
548 243
549 242
550 242
551 241
552 241
553 240
554 240
555 239
556 239
557 239
558 238
559 237
560 237
561 236
562 235
563 235
564 234
565 234
566 233
567 232
568 232
569 231
570 231
571 230
572 230
573 229
574 229
575 228
576 227
577 226
578 225
579 225
580 224
581 224
582 223
583 222
584 221
585 220
586 220
587 219
588 219
589 218
590 217
591 217
592 216
593 215
594 214
595 213
596 213
597 212
598 212
599 211
600 210
601 210
602 209
603 208
604 207
605 206
606 206
607 205
608 204
609 204
610 203
611 203
612 202
613 201
614 200
615 200
616 200
617 199
618 198
619 198
620 198
621 197
622 197
623 196
624 196
625 195
626 195
627 195
628 194
629 194
630 194
631 193
632 193
633 193
634 193
635 192
636 192
637 192
638 192
639 192
640 192
641 192
642 192
643 192
644 192
645 192
646 192
647 192
648 191
649 191
650 191
651 191
652 191
653 191
654 191
655 191
656 191
657 191
658 191
659 191
660 191
661 191
662 191
663 191
664 190
665 190
666 190
667 190
668 190
669 190
670 190
671 190
672 189
673 189
674 189
675 189
676 189
677 188
678 188
679 188
680 188
681 187
682 187
683 187
684 187
685 187
686 186
687 186
688 186
689 186
690 186
691 186
692 186
693 186
694 186
695 186
696 185
697 186
698 185
699 185
700 185
701 185
702 184
703 184
704 183
704 182
705 181
705 180
705 179
706 178
707 177
707 176
707 175
707 174
707 173
707 172
706 171
705 171
704 171
703 171
702 171
701 171
700 171
699 171
698 171
697 171
696 171
695 171
694 171
693 172
692 172
691 172
690 172
689 172
688 172
687 172
686 172
685 172
684 172
683 172
682 172
681 173
680 173
679 173
678 173
677 173
676 173
675 173
674 173
673 173
672 173
671 173
670 173
669 173
668 173
667 173
666 173
665 173
664 173
663 173
662 173
661 172
660 172
659 172
658 172
657 172
656 172
655 172
654 171
653 171
652 171
651 171
650 171
649 171
648 171
647 171
646 170
645 170
644 170
643 170
642 170
641 170
640 169
639 169
638 169
637 169
636 169
635 168
634 168
633 168
632 167
631 167
630 167
629 166
628 166
627 165
626 165
625 165
624 164
623 163
622 163
621 162
620 162
619 161
618 161
617 160
616 159
615 159
614 158
613 157
612 156
611 156
610 155
609 154
608 153
607 153
606 152
605 151
604 151
603 150
602 150
601 149
600 148
599 148
598 147
597 147
596 146
595 145
594 145
593 144
592 144
591 143
590 142
589 142
588 141
587 141
586 140
585 140
584 139
583 139
582 138
581 138
580 137
579 137
578 136
577 136
576 135
575 135
574 134
573 134
572 133
571 132
570 132
569 132
568 131
567 131
566 130
565 130
564 129
563 129
562 129
561 128
560 127
559 127
558 126
557 126
556 126
555 125
554 125
553 124
552 124
551 123
550 123
549 122
548 122
547 122
546 121
545 121
544 120
543 120
542 120
541 119
540 119
539 119
538 118
537 118
536 118
535 117
534 117
533 117
532 116
531 116
530 116
529 116
528 115
527 115
526 114
525 114
524 114
523 114
522 113
521 113
520 113
519 112
518 112
517 112
516 112
515 111
514 111
513 111
512 111
511 111
510 110
509 110
508 110
507 110
506 109
505 109
504 109
503 109
502 109
501 108
500 108
499 108
498 107
497 107
496 107
495 106
494 106
493 106
492 106
491 106
490 105
489 105
488 105
487 105
486 104
485 104
484 104
483 104
482 104
481 103
480 103
479 103
478 103
477 102
476 102
475 102
474 102
473 101
472 101
471 101
470 101
469 101
468 101
467 101
466 101
465 101
464 101
463 100
462 100
461 100
460 100
459 100
458 99
457 99
456 99
455 99
454 99
453 99
452 99
451 98
450 98
449 98
448 98
447 98
446 97
445 97
444 97
443 97
442 97
441 96
440 96
439 96
438 96
437 96
436 95
435 95
434 95
433 94
432 94
431 94
430 94
429 94
428 93
427 93
426 93
425 93
424 93
423 92
422 92
421 92
420 92
419 91
418 91
417 91
416 91
415 90
414 90
413 90
412 90
411 89
410 89
409 89
408 88
407 88
406 88
405 88
404 88
403 88
402 88
401 88
400 87
399 87
398 87
397 87
396 87
395 86
394 86
393 86
392 86
391 86
390 85
389 85
388 85
387 84
386 84
385 84
384 84
383 84
382 84
381 83
380 83
379 83
378 83
377 83
376 83
375 83
374 83
373 83
372 83
371 83
370 83
369 83
368 82
367 82
366 82
365 82
364 81
363 81
362 81
361 81
360 80
359 80
358 80
357 80
356 80
355 80
354 80
353 79
352 79
351 79
350 79
349 78
348 78
347 78
346 78
345 78
344 77
343 77
342 77
341 77
340 77
339 77
338 77
337 77
336 77
335 77
334 77
333 77
332 77
331 77
