37 299
37 300
37 301
37 302
37 303
37 304
37 305
37 306
37 307
37 308
37 309
37 310
38 311
39 312
40 313
40 314
41 315
41 316
42 317
42 318
43 319
44 320
44 321
45 322
46 323
47 324
48 325
49 326
49 327
50 328
51 329
52 330
53 330
54 331
55 332
56 333
57 334
58 334
59 335
60 336
61 337
62 338
63 338
64 339
65 340
66 341
67 341
68 342
69 343
70 343
71 344
72 345
73 345
74 345
75 346
76 346
77 347
78 347
79 348
80 348
81 349
82 349
83 350
84 350
85 351
86 351
87 351
88 352
89 352
90 353
91 353
92 354
93 354
94 355
95 355
96 356
97 357
98 357
99 358
100 358
101 359
102 359
103 360
104 361
105 361
106 362
107 362
108 363
109 363
110 364
111 364
112 365
113 365
114 366
115 366
116 367
117 367
118 368
119 368
120 368
121 369
122 369
123 370
124 370
125 371
126 371
127 372
128 372
129 373
130 373
131 374
132 374
133 374
134 375
135 375
136 375
137 376
138 376
139 376
140 377
141 377
142 377
143 377
144 378
145 378
146 378
147 379
148 379
149 379
150 379
151 380
152 380
153 380
154 381
155 381
156 382
157 382
158 383
159 383
160 383
161 383
162 384
163 384
164 385
165 385
166 386
167 386
168 387
169 387
170 388
171 388
172 389
173 389
174 389
175 390
176 390
177 391
178 391
179 392
180 392
181 393
182 393
183 393
184 394
185 394
186 395
187 395
188 395
189 396
190 396
191 396
192 397
193 397
194 397
195 397
196 398
197 398
198 398
199 398
200 399
201 399
202 399
203 399
204 400
205 400
206 400
207 400
208 401
209 401
210 401
211 402
212 402
213 403
214 403
215 403
216 404
217 404
218 404
219 405
220 405
221 405
222 405
223 406
224 406
225 406
226 407
227 407
228 407
229 407
230 407
231 408
232 408
233 408
234 408
235 408
236 409
237 409
238 409
239 409
240 410
241 410
242 410
243 410
244 410
245 411
246 411
247 411
248 411
249 412
250 412
251 412
252 412
253 412
254 413
255 413
256 413
257 413
258 413
259 413
260 413
261 413
262 413
263 413
264 414
265 414
266 414
267 414
268 415
269 415
270 415
271 415
272 415
273 415
274 416
275 416
276 416
277 416
278 416
279 417
280 417
281 417
282 417
283 417
284 418
285 418
286 418
287 418
288 418
289 418
290 419
291 419
292 419
293 420
294 420
295 420
296 420
297 420
298 421
299 421
300 421
301 421
302 421
303 421
304 421
305 421
306 421
307 421
308 421
309 422
310 422
311 422
312 422
313 422
314 422
315 422
316 423
317 423
318 423
319 423
320 423
321 423
322 423
323 423
324 423
325 423
326 423
327 423
328 423
329 423
330 423
331 423
332 423
333 423
334 423
335 423
336 423
337 423
338 423
339 423
340 423
341 423
342 423
343 423
344 423
345 423
346 423
347 423
348 423
349 423
350 423
351 423
352 423
353 423
354 423
355 423
356 423
357 423
358 423
359 423
360 423
361 423
362 422
363 422
364 422
365 422
366 422
367 422
368 422
369 422
370 422
371 422
372 422
373 422
374 422
375 422
376 422
377 422
378 422
379 422
380 422
381 422
382 422
383 422
384 421
385 421
386 421
387 421
388 421
389 421
390 421
391 421
392 421
393 421
394 421
395 421
396 421
397 421
398 421
399 421
400 420
401 420
402 420
403 420
404 420
405 420
406 420
407 420
408 420
409 420
410 419
411 419
412 419
413 419
414 419
415 418
416 418
417 418
418 418
419 418
420 417
421 417
422 417
423 417
424 417
425 417
426 416
427 416
428 416
429 416
430 415
431 415
432 415
433 415
434 415
435 414
436 414
437 414
438 414
439 413
440 413
441 413
442 413
443 412
444 412
445 412
446 411
447 411
448 411
449 411
450 410
451 410
452 410
453 410
454 410
455 409
456 409
457 409
458 409
459 409
460 409
461 409
462 408
463 408
464 408
465 408
466 408
467 408
468 408
469 407
470 407
471 407
472 407
473 407
474 407
475 406
476 406
477 406
478 406
479 406
480 405
481 405
482 405
483 405
484 405
485 405
486 404
487 404
488 404
489 403
490 403
491 403
492 402
493 402
494 402
495 402
496 401
497 401
498 401
499 400
500 400
501 400
502 399
503 399
504 399
505 399
506 398
507 398
508 398
509 397
510 397
511 397
512 396
513 396
514 395
515 395
516 395
517 395
518 394
519 394
520 394
521 394
522 393
523 393
524 393
525 393
526 392
527 392
528 392
529 391
530 391
531 391
532 391
533 391
534 391
535 390
536 390
537 390
538 390
539 390
540 389
541 389
542 389
543 389
544 388
545 388
546 387
547 387
548 387
549 386
550 386
551 386
552 385
553 385
554 385
555 385
556 384
557 384
558 384
559 384
560 383
561 383
562 383
563 383
564 383
565 382
566 382
567 382
568 381
569 381
570 381
571 381
572 380
573 380
574 380
575 379
576 379
577 379
578 378
579 378
580 378
581 378
582 377
583 377
584 377
585 376
586 376
587 376
588 376
589 375
590 375
591 375
592 374
593 374
594 373
595 373
596 373
597 372
598 372
599 371
600 371
601 370
602 370
603 370
604 369
605 369
606 368
607 368
608 367
609 367
610 366
611 366
612 365
613 365
614 364
615 364
616 364
617 363
618 363
619 362
620 362
621 361
622 361
623 361
624 360
625 360
626 359
627 359
628 359
629 358
630 358
631 357
632 357
633 356
634 356
635 356
636 355
637 355
638 354
639 354
640 353
641 353
642 352
643 352
644 351
645 351
646 351
647 350
648 350
649 349
650 349
651 349
652 348
653 348
654 347
655 347
656 346
657 346
658 345
659 345
660 344
661 344
662 343
663 343
664 342
665 342
666 341
667 341
668 340
669 340
670 339
671 339
672 338
673 338
674 337
675 337
676 337
677 336
678 336
679 335
680 335
681 334
682 334
683 333
684 333
685 333
686 332
687 332
688 331
689 331
690 331
691 330
692 330
693 329
694 329
695 329
696 328
697 328
698 328
699 328
700 328
701 327
702 327
703 327
704 327
705 327
706 326
707 326
708 326
709 326
710 325
711 325
712 325
713 325
714 324
715 324
716 324
717 324
718 324
719 324
720 324
721 323
722 323
723 323
724 323
725 323
726 323
727 323
728 323
729 323
730 323
731 323
732 323
733 323
734 323
735 323
736 323
737 323
738 323
739 323
740 323
741 323
742 323
743 323
744 323
745 323
746 322
747 322
748 322
749 321
749 320
749 319
749 318
749 317
749 316
749 315
749 314
749 313
749 312
749 311
748 311
747 311
746 311
745 311
744 311
743 311
742 311
741 311
740 311
739 311
738 311
737 311
736 311
735 312
734 312
733 312
732 312
731 312
730 312
729 313
728 313
727 313
726 313
725 313
724 313
723 313
722 313
721 313
720 313
719 313
718 313
717 313
716 313
715 313
714 313
713 313
712 313
711 312
710 312
709 312
708 312
707 311
706 311
705 311
704 311
703 310
702 310
701 310
700 310
699 309
698 309
697 309
696 309
695 309
694 308
693 308
692 308
691 307
690 307
689 307
688 307
687 306
686 306
685 306
684 305
683 305
682 304
681 304
680 304
679 303
678 303
677 302
676 302
675 302
674 301
673 301
672 300
671 300
670 299
669 299
668 299
667 298
666 298
665 298
664 297
663 297
662 297
661 296
660 296
659 296
658 295
657 295
656 295
655 294
654 294
653 294
652 293
651 293
650 292
649 292
648 292
647 291
646 291
645 291
644 290
643 290
642 289
641 289
640 288
639 288
638 288
637 287
636 287
635 287
634 286
633 286
632 286
631 285
630 285
629 284
628 284
627 284
626 283
625 283
624 283
623 283
622 282
621 282
620 282
619 281
618 281
617 280
616 280
615 280
614 279
613 279
612 278
611 278
610 278
609 277
608 277
607 276
606 276
605 275
604 275
603 275
602 274
601 274
600 274
599 273
598 273
597 272
596 272
595 272
594 272
593 272
592 271
591 271
590 271
589 270
588 270
587 270
586 269
585 269
584 269
583 269
582 269
581 268
580 268
579 268
578 267
577 267
576 267
575 266
574 266
573 265
572 265
571 265
570 264
569 264
568 264
567 263
566 263
565 262
564 262
563 261
562 261
561 260
560 260
559 260
558 259
557 259
556 258
555 258
554 257
553 257
552 256
551 256
550 255
549 255
548 254
547 254
546 253
545 253
544 253
543 252
542 252
541 251
540 251
539 250
538 250
537 250
536 249
535 249
534 248
533 248
532 248
531 247
530 247
529 246
528 246
527 245
526 245
525 244
524 244
523 244
522 243
521 243
520 242
519 242
518 242
517 241
516 241
515 240
514 240
513 240
512 240
511 239
510 239
509 239
508 239
507 238
506 238
505 237
504 237
503 237
502 236
501 236
500 236
499 236
498 235
497 235
496 235
495 234
494 234
493 234
492 233
491 233
490 233
489 232
488 232
487 232
486 232
485 231
484 231
483 231
482 231
481 231
480 230
479 230
478 230
477 229
476 229
475 229
474 229
473 229
472 229
471 228
470 228
469 228
468 228
467 227
466 227
465 227
464 227
463 227
462 227
461 226
460 226
459 226
458 226
457 226
456 226
455 226
454 225
453 225
452 225
451 224
450 224
449 224
448 224
447 224
446 224
445 223
444 223
443 223
442 222
441 222
440 222
439 222
438 221
437 221
436 221
435 221
434 220
433 220
432 220
431 220
430 220
429 219
428 219
427 219
426 219
425 218
424 218
423 218
422 218
421 217
420 217
419 217
418 217
417 217
416 216
415 216
414 216
413 216
412 215
411 215
410 215
409 214
408 214
407 214
406 213
405 213
404 213
403 213
402 213
401 213
400 213
399 212
398 212
397 212
396 212
395 212
394 212
393 212
392 211
391 211
390 211
389 211
388 210
387 210
386 210
385 210
384 210
383 210
382 210
381 209
380 209
379 209
378 209
377 209
376 209
375 209
374 209
373 208
372 208
371 208
370 208
369 208
368 208
367 208
366 208
365 208
364 208
363 208
362 208
361 208
360 208
359 207
358 207
357 207
356 207
355 207
354 206
353 206
352 206
351 205
350 205
349 205
348 205
347 204
346 204
345 204
344 204
343 204
342 203
341 203
340 203
339 203
338 203
337 203
336 202
335 202
334 202
333 202
332 202
331 202
330 202
329 202
328 202
327 202
326 202
325 202
324 202
323 201
322 201
321 201
320 201
319 201
318 201
317 201
316 201
315 201
314 201
313 201
312 201
311 201
310 201
309 200
308 200
307 200
306 200
305 200
304 200
303 200
302 200
301 200
300 200
299 200
298 200
297 200
296 200
295 200
294 200
293 200
292 200
291 200
290 201
289 201
288 201
287 201
286 201
285 201
284 201
283 201
282 201
281 201
280 201
279 201
278 201
277 200
276 200
275 200
274 200
273 200
272 200
271 200
270 200
269 200
268 200
267 200
266 200
265 200
264 200
263 200
262 200
261 200
260 200
259 200
258 200
257 200
256 201
255 201
254 201
253 201
252 201
251 201
250 201
249 201
248 201
247 202
246 202
245 202
244 202
243 202
242 202
241 202
240 202
239 202
238 203
237 203
236 203
235 203
234 203
233 203
232 203
231 203
230 203
229 203
228 203
227 204
226 204
225 204
224 204
223 204
222 204
221 204
220 204
219 204
218 204
217 204
216 204
215 204
214 204
213 204
212 204
211 204
210 204
209 204
208 205
207 205
206 205
205 205
204 206
203 206
202 206
201 206
200 206
199 207
198 207
197 207
196 207
195 207
194 208
193 208
192 208
191 208
190 209
189 209
188 209
187 209
186 209
185 209
184 209
183 210
182 210
181 210
180 210
179 211
178 211
177 211
176 211
175 211
174 211
173 212
172 212
171 212
170 213
169 213
168 213
167 213
166 214
165 214
164 214
163 214
162 214
161 215
160 215
159 216
158 216
157 216
156 216
155 217
154 217
153 217
152 217
151 217
150 217
149 217
148 218
147 218
146 218
145 219
144 219
143 219
142 220
141 220
140 220
139 221
138 221
137 221
136 222
135 222
134 222
133 223
132 223
131 224
130 224
129 225
128 225
127 226
126 226
125 226
124 227
123 227
122 228
121 228
120 229
119 229
118 229
117 230
116 230
115 231
114 231
113 232
112 232
111 233
110 233
109 234
108 235
107 235
106 236
105 236
104 237
103 237
102 238
101 238
100 238
99 239
98 239
97 240
96 240
95 241
94 242
93 243
92 243
91 244
90 244
89 245
88 245
87 246
86 246
85 247
84 247
83 248
82 248
81 249
80 249
79 250
78 250
77 251
76 252
75 253
74 253
73 254
72 254
71 255
70 255
69 256
68 257
67 257
66 258
65 258
64 259
63 260
62 261
61 262
60 263
59 264
58 265
57 266
56 266
55 267
54 268
53 269
52 270
51 271
50 272
49 273
48 274
47 275
46 276
45 277
44 278
44 279
43 280
42 281
42 282
41 283
40 284
40 285
40 286
39 287
39 288
39 289
39 290
39 291
39 292
39 293
39 294
38 295
38 296
38 297
38 298
37 299
