445 81
446 82
446 83
447 84
447 85
448 86
448 87
448 88
447 89
447 90
446 91
446 92
445 93
444 93
443 94
442 94
441 95
440 95
439 95
438 96
437 96
436 96
435 97
434 97
433 97
432 97
431 97
430 97
429 97
428 97
427 97
426 97
425 97
424 97
423 97
422 97
421 97
420 97
419 97
418 97
417 97
416 97
415 96
414 96
413 96
412 96
411 96
410 96
409 95
408 96
407 96
406 95
405 95
404 95
403 95
402 94
401 94
400 94
399 94
398 94
397 94
396 94
395 93
394 93
393 93
392 93
391 92
390 92
389 92
388 91
387 91
386 91
385 91
384 90
383 90
382 90
381 89
380 89
379 89
378 88
377 88
376 87
375 87
374 87
373 86
372 86
371 86
370 85
369 85
368 84
369 85
370 86
370 87
371 88
372 89
372 90
372 91
373 92
372 93
372 94
371 95
370 96
370 97
369 98
368 97
367 98
366 98
365 99
364 100
363 101
362 102
361 102
360 102
359 103
358 103
357 104
356 104
355 104
354 104
353 105
352 105
351 105
350 105
349 105
348 105
347 105
346 105
345 105
344 105
343 105
342 105
341 105
340 105
339 105
338 105
337 105
336 104
335 104
334 104
333 104
332 104
331 104
330 103
329 103
328 103
327 103
326 103
325 102
324 102
323 102
322 102
321 102
320 101
319 101
318 101
317 101
316 101
315 101
314 100
313 100
312 100
311 100
310 99
309 99
308 99
307 99
306 99
305 99
306 99
307 100
308 101
309 102
310 103
310 104
310 105
310 106
310 107
309 108
308 108
307 109
306 110
305 111
304 111
303 112
302 112
301 112
300 112
299 112
298 112
297 112
296 113
295 113
294 113
293 113
292 113
291 113
290 113
289 113
288 113
287 113
286 113
285 113
284 113
283 113
282 113
281 113
280 113
279 113
278 113
277 113
276 113
275 113
274 113
273 113
272 112
271 112
270 112
269 112
268 112
267 112
266 112
265 111
264 111
263 111
262 111
261 111
260 111
259 111
258 111
257 111
256 110
257 111
258 112
259 112
260 113
261 114
261 115
261 116
261 117
261 118
261 119
261 120
260 121
259 122
258 122
257 123
256 124
255 123
255 124
254 125
253 125
252 125
253 126
252 127
251 127
250 127
249 128
248 127
248 128
247 129
246 129
245 129
244 129
243 129
242 129
241 129
240 130
239 130
238 130
237 130
236 130
235 130
234 130
233 130
232 130
231 130
230 130
229 130
228 130
227 130
226 130
225 130
224 130
223 130
222 130
221 130
220 130
219 130
218 130
217 130
216 130
215 130
214 129
213 130
212 130
211 129
210 129
209 129
208 129
207 129
206 129
205 129
204 129
203 129
202 129
201 129
200 129
199 129
200 130
201 131
202 132
202 133
202 134
202 135
202 136
202 137
202 138
201 139
200 139
199 140
198 141
198 142
197 143
196 144
195 145
194 145
193 146
192 146
191 147
190 147
189 147
188 147
187 147
186 147
185 147
184 148
183 148
182 148
181 148
180 148
179 148
178 148
177 148
176 149
175 150
174 151
174 152
173 153
173 154
172 155
171 156
170 156
169 157
168 158
167 159
166 160
165 161
164 161
163 162
162 162
161 163
160 163
159 164
158 164
157 164
156 165
155 165
154 165
153 165
152 165
151 166
150 166
149 166
148 167
147 167
146 167
145 167
144 167
143 168
142 168
141 168
140 168
139 169
138 169
137 169
136 169
137 169
138 169
139 169
140 170
141 170
142 171
143 172
143 173
143 174
143 175
143 176
143 177
143 178
142 179
142 180
141 181
141 182
140 183
140 184
140 185
140 186
139 187
138 188
137 189
136 189
136 190
135 191
134 191
133 192
132 193
131 193
130 193
130 194
129 195
128 195
127 195
126 196
125 196
124 197
123 197
122 198
121 199
120 199
119 199
118 200
117 200
116 200
115 201
114 201
113 201
112 202
111 202
110 203
109 203
110 203
111 203
112 203
113 203
114 204
115 205
115 206
116 207
116 208
115 209
114 210
113 209
114 210
114 211
114 212
113 213
112 214
111 215
110 216
109 216
108 217
107 218
106 218
105 219
104 220
103 220
102 221
101 221
100 222
99 222
98 223
97 223
96 224
95 224
94 225
93 225
92 225
91 226
90 226
89 226
88 227
87 227
86 227
85 228
84 228
83 228
82 229
81 229
80 229
79 229
78 230
77 230
76 230
75 231
74 231
73 231
72 231
71 232
70 232
69 232
68 232
67 232
66 232
65 233
64 233
63 233
63 234
64 234
65 235
66 235
67 235
68 236
69 236
70 237
71 237
72 238
73 239
74 239
75 240
76 240
77 241
78 242
79 242
80 243
81 244
82 245
83 245
84 246
85 247
86 247
87 248
88 248
89 249
90 250
91 250
92 251
93 252
94 252
95 253
96 253
97 254
97 255
98 255
99 256
100 257
101 257
102 258
102 259
103 260
103 261
104 262
104 263
103 264
102 265
101 265
100 265
99 265
98 265
99 265
100 266
101 266
102 267
103 268
104 268
105 269
106 270
107 271
108 271
109 272
109 273
110 274
110 275
110 276
111 277
111 278
112 278
113 279
114 279
115 280
115 281
116 281
117 282
118 283
119 283
120 284
121 284
122 285
123 286
124 287
125 287
126 288
126 289
127 290
128 291
129 292
130 293
131 293
132 294
132 295
133 296
134 297
135 298
136 299
137 300
138 301
139 302
140 303
141 304
140 305
141 306
141 307
142 308
142 309
141 310
141 311
140 312
139 313
138 313
137 314
136 314
135 314
134 314
133 315
134 315
135 315
136 316
137 316
138 316
139 316
140 316
141 317
142 317
143 318
144 318
145 319
146 320
147 321
148 322
147 323
147 324
147 325
148 326
149 327
150 328
151 328
152 329
153 329
154 330
155 330
156 331
157 331
158 331
159 332
160 332
161 333
162 333
163 334
164 334
165 334
166 335
167 335
168 335
169 336
170 337
171 337
172 338
173 338
174 338
175 338
176 339
177 340
178 340
179 341
180 341
181 342
181 343
182 344
182 345
182 346
182 347
182 348
181 349
180 350
179 350
178 350
177 350
176 351
175 351
176 351
177 352
178 352
179 352
180 352
181 352
182 352
183 352
184 352
185 353
186 353
187 353
188 353
189 354
190 355
189 356
190 357
190 358
190 359
191 360
190 361
191 361
192 361
193 361
194 361
195 362
196 362
197 362
198 362
199 362
200 362
201 363
202 363
203 363
204 363
205 363
206 363
207 363
208 363
209 363
210 364
211 364
212 364
213 364
214 364
215 364
216 364
217 364
218 364
219 365
220 365
221 365
222 365
223 366
224 366
225 367
226 367
227 367
228 368
229 368
230 369
231 370
231 371
231 372
231 373
230 374
229 375
228 375
227 376
226 376
225 376
224 377
225 377
226 377
227 377
228 377
229 377
230 377
231 377
232 377
233 377
234 377
235 377
236 377
237 377
238 377
239 377
240 377
241 377
242 377
243 377
244 377
245 377
246 377
247 377
248 377
249 377
250 377
251 377
252 377
253 377
254 377
255 377
256 377
257 377
258 377
259 377
260 377
261 377
262 377
263 377
264 377
265 377
266 377
267 378
268 378
269 378
270 378
271 378
272 378
273 379
274 379
275 379
276 380
277 380
278 380
279 380
280 381
281 381
282 381
283 382
284 382
285 383
286 384
287 384
288 385
289 386
290 387
291 388
292 389
293 390
294 391
295 392
296 393
296 394
296 395
297 396
297 397
297 398
296 399
296 400
295 401
294 401
293 402
292 403
291 404
290 405
291 405
292 405
293 404
294 404
295 404
296 403
297 403
298 403
299 403
300 403
301 402
302 402
303 402
304 402
305 401
306 401
307 401
308 401
309 401
310 401
311 401
312 401
313 401
314 401
315 400
316 400
317 400
318 400
319 400
320 400
321 400
322 400
323 400
324 400
325 400
326 400
327 400
328 400
329 400
330 400
331 400
332 400
333 400
334 400
335 400
336 401
337 401
338 401
339 401
340 401
341 401
342 401
343 401
344 401
345 402
346 402
347 402
348 402
349 402
350 402
351 402
352 403
353 403
354 403
355 403
356 403
357 404
358 404
359 404
360 405
361 405
362 405
363 406
364 406
365 406
366 407
367 407
368 408
369 408
370 408
371 409
372 410
372 411
373 412
373 413
373 414
373 415
372 416
371 417
370 418
369 419
369 420
370 420
371 419
372 419
373 418
374 418
375 417
376 417
377 417
378 417
379 416
380 416
381 416
382 416
383 416
384 416
385 415
386 415
387 416
388 416
389 416
390 415
391 415
392 415
393 415
394 415
395 415
396 415
397 415
398 414
399 414
400 414
401 413
402 413
403 413
404 413
405 412
406 412
407 412
408 412
409 411
410 411
411 411
412 410
413 410
414 410
415 410
416 410
417 409
418 409
419 409
420 409
421 409
422 409
423 408
424 408
425 408
426 408
427 408
428 408
429 407
430 407
431 407
432 407
433 407
434 407
435 407
436 407
437 407
438 407
439 407
440 407
441 407
442 407
443 407
444 407
445 407
446 408
447 408
448 408
449 409
450 409
451 410
452 410
453 411
453 412
453 413
453 414
453 415
453 416
452 417
451 418
450 419
450 420
449 421
450 421
451 420
452 420
453 419
454 419
455 418
456 418
457 417
458 417
459 416
460 416
461 415
462 415
463 414
464 413
465 413
466 412
467 412
468 412
469 411
470 410
471 410
472 409
473 409
474 408
475 407
476 407
477 406
478 406
479 405
480 405
481 404
482 403
483 403
484 402
485 402
486 402
487 401
488 400
489 400
490 400
491 399
492 399
493 398
494 398
495 398
496 398
497 397
498 397
499 396
500 396
501 396
502 396
503 395
504 395
505 395
506 395
507 395
508 394
509 394
510 394
511 394
512 394
513 394
514 394
515 394
516 394
517 394
518 394
519 394
520 394
521 394
522 394
523 393
524 394
525 394
526 395
527 396
527 397
527 398
527 399
527 398
527 397
528 396
529 395
530 395
531 394
532 393
532 392
533 391
534 390
535 389
535 388
536 387
537 386
538 385
538 384
539 383
540 383
540 382
541 381
542 380
543 379
544 378
545 378
546 377
547 376
548 375
549 374
550 373
551 373
551 372
552 371
553 371
554 370
555 369
556 368
557 367
558 367
559 366
560 365
561 365
562 364
563 363
564 363
565 362
566 362
567 361
568 361
569 360
570 360
571 360
572 360
573 359
574 359
575 359
576 359
577 359
578 360
579 361
579 362
579 363
579 364
579 365
578 366
578 367
578 368
579 367
579 366
580 365
580 364
581 363
581 362
582 361
583 360
583 359
584 358
584 357
585 356
585 355
586 354
587 353
587 352
588 351
589 350
590 349
590 348
591 347
592 346
593 345
594 344
595 343
596 342
596 341
597 340
598 339
599 338
600 337
601 336
602 335
603 334
604 333
605 332
606 331
607 330
608 330
608 329
609 328
610 327
611 326
612 326
613 326
614 325
615 324
616 323
617 322
618 321
619 320
620 320
621 319
622 319
621 318
622 317
623 316
624 317
625 318
625 319
625 320
626 321
626 322
626 323
626 322
627 321
627 320
628 319
628 318
628 317
629 316
629 315
629 314
629 313
630 312
631 311
631 310
631 309
632 308
632 307
633 306
633 305
634 304
635 303
636 302
636 301
637 300
638 299
638 298
639 297
640 296
641 295
641 294
642 293
643 292
643 291
644 290
645 289
646 288
647 287
647 286
648 285
649 284
650 283
651 282
651 281
652 280
653 279
654 278
655 277
656 276
656 275
657 274
658 273
659 272
660 272
661 271
662 270
663 269
664 268
665 267
666 266
666 265
667 264
668 263
669 262
670 261
671 260
672 259
673 258
673 257
674 256
675 256
676 256
676 255
677 254
678 253
678 252
679 251
680 251
681 250
682 249
683 248
684 247
685 246
686 245
687 244
688 243
689 242
690 241
691 240
692 240
693 239
694 238
695 237
696 237
697 236
698 235
699 235
700 234
701 233
702 233
703 232
704 232
705 231
706 230
707 230
708 230
709 230
710 229
711 228
712 228
713 227
714 227
715 227
716 226
717 226
718 226
719 225
720 225
721 224
722 224
723 224
724 223
725 223
726 223
727 222
728 222
729 222
730 222
731 221
732 221
733 220
734 220
735 220
736 220
737 219
738 219
739 219
740 219
741 218
742 217
743 217
744 217
745 216
746 216
747 216
748 216
749 215
750 215
751 214
752 214
753 213
754 212
754 211
754 210
753 209
753 208
753 207
752 206
752 205
752 204
752 203
752 202
752 201
752 200
751 200
750 200
749 200
748 200
747 201
746 201
745 201
744 201
743 202
742 202
741 202
740 202
739 202
738 203
737 203
736 203
735 204
734 204
733 204
732 204
731 205
730 205
729 205
728 205
727 205
726 206
725 206
724 206
723 206
722 206
721 206
720 206
719 207
718 207
717 207
716 207
715 207
714 207
713 207
712 207
711 207
710 207
709 207
708 206
707 206
706 206
705 206
704 206
703 206
702 205
701 205
700 205
699 205
698 204
697 204
696 203
695 203
694 203
693 202
692 202
691 202
690 201
689 201
688 200
687 200
686 199
685 199
684 199
683 198
682 198
681 197
680 197
679 196
678 196
677 195
676 195
675 194
674 194
673 193
672 193
671 192
670 191
669 191
668 190
667 190
666 189
665 188
664 188
663 187
662 187
661 186
660 186
659 185
658 184
657 184
656 183
655 183
654 182
653 181
652 180
651 180
650 179
649 178
648 178
647 177
646 177
645 176
644 176
643 175
642 174
641 173
640 173
639 172
638 172
637 171
636 171
635 170
634 169
633 168
632 167
631 167
630 166
629 166
628 165
627 165
626 164
625 163
624 163
623 162
622 161
621 161
620 160
619 159
618 158
617 158
616 157
615 156
614 156
613 155
612 155
611 154
611 153
610 153
609 152
608 151
607 151
606 150
605 150
604 149
604 148
603 148
602 147
602 146
601 145
600 146
599 145
598 144
598 143
597 143
596 142
595 141
594 140
593 139
592 138
591 137
590 136
589 135
588 134
588 133
587 132
587 131
586 130
586 129
585 128
584 127
584 126
584 127
585 128
585 129
585 130
584 131
583 132
582 133
581 132
580 132
579 132
578 132
577 131
576 130
575 130
574 130
573 129
572 129
571 128
570 127
569 127
568 126
567 126
566 125
565 125
564 125
563 124
562 123
561 123
560 122
559 121
558 121
557 120
556 120
555 119
554 118
553 118
552 118
551 117
550 116
549 115
548 115
547 114
546 114
545 113
544 113
543 112
542 111
541 111
540 110
539 110
538 109
537 109
536 108
535 108
534 107
533 107
532 106
531 105
530 105
529 104
528 103
527 103
526 102
525 101
524 100
523 100
522 99
521 98
520 97
519 97
518 97
519 98
519 99
520 100
521 101
521 102
521 103
520 104
519 105
518 105
517 106
516 106
515 107
514 107
513 107
512 106
511 106
510 106
509 106
508 106
507 105
506 105
505 105
504 105
503 105
502 104
501 104
500 104
499 103
498 103
497 103
496 102
495 102
494 102
493 102
492 102
491 101
490 101
489 101
488 101
487 100
486 100
485 100
484 99
483 99
482 98
481 98
480 98
479 97
478 97
477 97
476 96
475 96
474 96
473 95
472 95
471 94
470 94
469 94
468 93
467 93
466 93
465 92
464 92
463 91
462 91
461 90
460 90
459 89
459 88
459 87
458 86
458 87
457 88
456 87
455 87
454 87
453 86
452 85
451 85
450 84
449 84
448 83
448 82
447 82
446 81
445 81
