87 255
87 256
87 257
87 258
88 259
89 260
90 261
91 262
92 263
93 264
94 265
95 266
96 267
97 268
98 269
99 269
100 270
101 271
102 272
103 272
104 272
105 273
106 273
107 274
108 274
109 275
110 276
111 277
112 278
113 278
114 279
115 279
116 280
116 281
117 282
117 283
118 284
119 285
120 285
121 286
122 287
123 288
123 289
124 290
124 291
125 292
125 293
125 294
126 294
127 294
128 295
129 295
130 296
131 296
132 297
133 298
133 299
133 300
133 301
133 302
133 303
133 304
133 305
133 306
133 307
133 308
134 308
135 309
136 309
137 310
138 310
139 311
140 311
141 312
142 312
143 313
144 313
145 314
146 315
147 316
148 317
149 317
150 318
151 318
152 319
152 320
153 321
153 322
152 323
152 324
151 325
151 326
151 327
151 328
151 329
152 329
153 329
154 329
155 330
156 330
157 331
158 331
159 332
160 333
161 333
162 334
163 334
164 335
165 336
166 336
167 337
168 337
169 338
170 338
171 339
172 339
173 340
174 341
175 341
176 341
177 342
178 342
179 342
180 342
181 343
182 343
183 344
184 344
185 345
185 346
186 347
186 348
186 349
186 350
186 351
186 352
186 353
186 354
186 355
186 356
185 357
185 358
185 359
185 360
185 361
184 362
184 363
183 364
183 365
182 366
181 367
180 368
179 369
178 370
177 371
176 372
176 373
176 374
176 375
176 376
176 377
177 377
178 377
179 377
180 377
181 377
182 377
183 377
184 376
185 376
186 376
187 376
188 376
189 377
190 377
191 378
192 378
193 378
194 378
195 378
196 378
197 379
198 379
199 380
200 380
201 381
202 381
203 381
204 381
205 381
206 381
207 381
208 382
209 382
210 382
211 382
212 382
213 382
214 383
215 383
216 383
217 383
218 383
219 383
220 383
221 383
222 383
223 383
224 383
225 383
226 383
227 383
228 383
229 383
230 383
231 383
232 383
233 383
234 383
235 382
236 382
237 382
238 382
239 382
240 382
241 382
242 381
243 381
244 381
245 382
246 382
247 383
248 383
249 384
249 385
250 386
249 387
249 388
249 389
249 390
249 391
249 392
248 393
248 394
248 395
248 396
248 397
248 398
248 399
248 400
248 401
248 402
247 403
247 404
247 405
247 406
247 407
247 408
247 409
247 410
247 411
247 412
246 413
246 414
246 415
245 416
245 417
244 418
244 419
243 420
243 421
243 422
243 423
243 424
243 425
243 426
242 427
242 428
242 429
242 430
242 431
241 432
241 433
240 434
240 435
240 436
240 437
239 438
239 439
239 440
239 441
239 442
239 443
239 444
239 445
239 446
240 446
241 446
242 446
243 446
244 446
245 446
246 445
247 445
248 444
249 444
250 444
251 443
252 443
253 443
254 443
255 443
256 443
257 443
258 442
259 442
260 442
261 442
262 442
263 442
264 442
265 442
266 442
267 442
268 442
269 443
270 443
271 443
272 443
273 443
274 443
275 443
276 443
277 443
278 443
279 443
280 443
281 443
282 443
283 443
284 444
285 444
286 444
287 444
288 444
289 444
290 444
291 444
292 444
293 444
294 444
295 444
296 444
297 444
298 444
299 444
300 443
301 443
302 443
303 442
304 442
305 442
306 442
307 442
308 441
309 441
310 441
311 441
312 440
313 440
314 439
315 439
316 439
317 439
318 438
319 438
320 437
321 437
322 436
323 436
324 436
325 436
326 436
327 436
328 436
329 436
330 435
331 435
332 434
333 434
334 433
335 433
336 432
337 432
338 431
339 431
340 430
341 429
342 429
343 428
344 428
345 427
346 426
347 425
348 424
349 423
350 423
351 422
352 422
353 421
354 420
355 419
356 418
357 418
358 417
359 417
360 416
361 415
362 414
362 413
363 412
364 411
364 410
365 409
366 409
367 408
368 407
369 406
369 405
370 404
371 404
372 403
373 403
374 402
375 401
376 400
377 399
378 398
379 397
380 396
381 396
382 395
383 394
384 393
385 392
385 391
386 390
387 389
388 389
389 388
390 388
391 388
392 389
393 390
394 391
394 392
395 393
395 394
395 395
395 396
395 397
395 398
394 399
394 400
394 401
394 402
394 403
394 404
394 405
394 406
394 407
394 408
394 409
394 410
394 411
394 412
394 413
395 414
395 415
395 416
395 417
395 418
395 419
395 420
396 421
396 422
397 423
397 424
398 425
398 426
398 427
398 428
398 429
398 430
398 431
398 432
398 433
398 434
398 435
398 436
398 437
398 438
398 439
398 440
399 441
398 442
398 443
398 444
398 445
397 446
397 447
397 448
397 449
396 450
396 451
396 452
396 453
396 454
396 455
396 456
397 456
398 456
399 456
400 456
401 456
402 455
403 454
404 453
405 453
406 452
407 451
408 450
409 449
410 448
411 448
412 447
413 447
414 446
415 445
416 444
417 443
418 443
419 442
420 442
421 441
422 441
423 440
424 440
425 439
426 439
427 438
428 437
429 436
430 436
431 435
432 435
433 434
434 434
435 433
436 433
437 433
438 432
439 432
440 431
441 430
442 430
443 429
444 429
445 428
446 427
447 426
448 426
449 425
450 425
451 424
452 424
453 423
454 423
455 423
456 423
457 423
458 423
459 422
460 421
461 420
462 419
463 418
464 417
465 416
466 415
466 414
467 413
468 412
469 411
470 410
470 409
471 408
471 407
472 406
473 405
473 404
474 403
474 402
475 401
475 400
476 399
476 398
477 397
477 396
478 395
479 394
480 393
481 392
482 392
483 391
484 391
485 390
486 390
487 389
488 389
489 389
490 389
491 388
492 387
493 386
494 385
495 384
496 383
497 382
497 381
498 380
499 379
500 378
501 377
502 376
503 375
503 374
504 373
504 372
505 371
505 370
505 369
506 368
506 367
507 366
507 365
507 364
507 363
507 362
508 361
508 360
508 359
509 358
509 357
510 356
510 355
511 354
511 353
511 352
511 351
511 350
511 349
512 348
512 347
513 346
513 345
513 344
513 343
514 342
514 341
514 340
514 339
515 338
515 337
515 336
516 335
516 334
517 333
517 332
518 331
518 330
519 329
519 328
520 327
520 326
521 325
521 324
522 323
523 322
523 321
524 320
524 319
525 318
525 317
526 316
526 315
526 314
527 313
527 312
528 311
528 310
529 309
529 308
530 307
530 306
531 305
531 304
532 303
532 302
533 301
534 300
534 299
535 298
536 297
537 296
538 295
539 295
540 294
541 294
542 293
543 293
544 293
545 293
546 293
547 293
548 293
549 293
550 293
551 292
552 292
553 292
554 292
555 292
556 292
557 292
558 292
559 292
560 292
561 292
562 292
563 292
564 292
565 292
566 292
567 292
568 292
569 292
570 292
571 292
572 292
573 292
574 292
575 292
576 292
577 292
578 292
579 292
580 292
581 292
582 291
583 291
584 291
585 291
586 291
587 291
588 291
589 291
590 291
591 291
592 291
593 291
594 291
595 291
596 291
597 291
598 290
599 290
600 290
601 290
602 290
603 290
604 290
605 290
606 290
607 290
608 290
609 290
610 289
611 289
612 289
613 289
614 289
615 289
616 289
617 289
618 289
619 289
620 289
621 289
622 288
623 288
624 288
625 288
626 288
627 288
628 288
629 288
630 288
631 288
632 288
633 287
634 287
635 287
636 287
637 287
638 287
639 287
640 287
641 287
642 287
643 286
644 286
645 286
646 286
647 286
648 286
649 286
650 286
651 285
652 285
653 285
654 285
655 285
656 285
657 284
658 284
659 284
660 284
661 284
662 283
663 283
664 283
665 283
666 283
667 283
668 282
669 282
670 282
671 282
672 282
673 281
674 281
675 281
676 281
677 281
678 281
679 281
680 281
681 280
682 280
683 280
684 280
685 279
686 279
687 279
688 279
689 279
690 279
691 278
692 278
693 278
694 277
695 277
696 277
697 277
698 276
699 276
700 276
701 276
702 275
703 275
704 275
705 274
706 274
707 274
708 274
709 274
710 274
711 273
712 273
713 273
714 273
715 272
716 272
717 272
718 271
719 271
720 271
721 271
722 270
723 270
724 270
725 269
726 269
727 269
728 268
729 268
730 267
731 267
732 266
733 266
734 266
735 265
736 265
737 265
738 264
739 264
740 263
741 263
742 262
743 262
744 261
745 261
746 261
747 260
748 260
748 259
748 258
748 257
748 256
748 255
748 254
748 253
748 252
748 251
747 251
746 251
745 251
744 251
743 251
742 251
741 251
740 251
739 251
738 251
737 251
736 251
735 251
734 252
733 252
732 253
731 253
730 254
729 255
728 255
727 256
726 256
725 257
724 257
723 258
722 258
721 259
720 259
719 260
718 260
717 261
716 261
715 262
714 262
713 263
712 263
711 264
710 264
709 265
708 265
707 266
706 266
705 266
704 267
703 267
702 267
701 268
700 268
699 268
698 268
697 269
696 269
695 269
694 270
693 270
692 270
691 270
690 271
689 271
688 271
687 271
686 272
685 272
684 272
683 272
682 273
681 273
680 273
679 273
678 274
677 274
676 274
675 274
674 274
673 275
672 275
671 275
670 276
669 276
668 276
667 276
666 276
665 277
664 277
663 277
662 277
661 277
660 278
659 278
658 278
657 278
656 278
655 279
654 279
653 279
652 279
651 279
650 280
649 280
648 280
647 280
646 280
645 280
644 281
643 281
642 281
641 281
640 281
639 281
638 281
637 282
636 282
635 282
634 282
633 283
632 283
631 283
630 283
629 283
628 283
627 283
626 283
625 284
624 284
623 284
622 284
621 284
620 284
619 284
618 284
617 284
616 285
615 285
614 285
613 285
612 285
611 285
610 285
609 285
608 285
607 285
606 285
605 286
604 286
603 286
602 286
601 286
600 286
599 286
598 286
597 287
596 287
595 287
594 287
593 287
592 287
591 287
590 287
589 287
588 287
587 287
586 287
585 287
584 288
583 288
582 288
581 288
580 288
579 288
578 288
577 288
576 288
575 288
574 288
573 288
572 288
571 288
570 288
569 288
568 288
567 288
566 288
565 288
564 289
563 289
562 289
561 289
560 289
559 288
558 288
557 288
556 288
555 288
554 288
553 288
552 288
551 288
550 288
549 288
548 288
547 288
546 287
545 287
544 287
543 287
542 287
541 286
540 286
539 285
538 285
537 284
536 283
536 282
535 281
535 280
534 279
534 278
533 277
533 276
533 275
532 274
532 273
532 272
532 271
532 270
532 269
532 268
532 267
532 266
531 265
531 264
531 263
531 262
531 261
530 260
530 259
529 258
529 257
528 256
528 255
527 254
527 253
526 252
526 251
526 250
525 249
525 248
525 247
524 246
524 245
524 244
523 243
523 242
522 241
522 240
521 239
521 238
520 237
520 236
519 235
519 234
518 233
518 232
517 231
517 230
516 229
516 228
515 227
515 226
514 225
514 224
513 223
513 222
513 221
512 220
512 219
512 218
511 217
511 216
511 215
511 214
511 213
511 212
511 211
511 210
511 209
510 208
510 207
510 206
510 205
510 204
510 203
510 202
510 201
510 200
509 199
509 198
509 197
509 196
509 195
508 194
508 193
507 192
507 191
507 190
507 189
506 188
505 187
505 186
504 185
504 184
503 183
503 182
502 181
502 180
501 179
501 178
500 177
500 176
499 175
498 174
497 173
497 172
496 171
496 170
495 169
495 168
494 167
494 166
493 165
493 164
492 163
492 162
492 161
491 160
491 159
490 158
490 157
490 156
489 155
489 154
489 153
488 152
488 151
488 150
487 149
487 148
486 147
486 146
486 145
485 144
485 143
485 142
484 141
484 140
483 139
482 138
482 137
481 136
481 135
480 134
479 133
478 132
477 131
477 130
476 129
476 128
475 127
474 126
473 125
472 124
471 124
470 124
469 124
468 124
467 124
466 124
465 124
464 123
463 123
462 122
461 122
460 121
459 120
458 119
457 119
456 118
455 118
454 117
453 117
452 116
451 116
450 115
449 114
448 113
447 113
446 112
445 111
444 111
443 110
442 110
441 109
440 109
439 109
438 109
437 108
436 108
435 107
434 107
433 106
432 106
431 105
430 104
429 104
428 103
427 102
426 101
426 100
425 99
424 98
423 97
422 96
421 95
420 94
419 93
419 92
418 91
417 90
416 89
415 88
415 87
414 86
413 85
412 84
411 83
410 82
410 81
409 80
408 79
407 78
406 78
405 78
404 78
403 78
402 78
402 79
402 80
402 81
402 82
402 83
402 84
402 85
403 86
403 87
403 88
403 89
403 90
404 91
404 92
404 93
404 94
404 95
404 96
404 97
404 98
404 99
404 100
404 101
404 102
404 103
404 104
404 105
404 106
404 107
404 108
404 109
403 110
403 111
402 112
402 113
401 114
401 115
401 116
401 117
401 118
400 119
400 120
400 121
400 122
400 123
400 124
400 125
400 126
400 127
400 128
400 129
400 130
400 131
400 132
400 133
400 134
400 135
399 136
399 137
399 138
399 139
398 140
398 141
398 142
398 143
398 144
397 145
397 146
396 147
396 148
396 149
396 150
396 151
396 152
396 153
395 154
395 155
394 156
393 157
392 158
391 157
390 157
389 156
388 155
387 154
386 153
385 153
384 152
383 152
382 151
381 150
380 150
379 149
378 148
377 147
376 146
375 145
375 144
374 143
373 142
372 141
371 141
370 140
369 139
368 138
367 137
367 136
366 135
365 134
364 133
363 132
362 131
361 130
360 130
359 129
358 128
357 127
356 126
355 126
354 125
353 125
352 124
351 123
350 122
349 122
348 121
347 121
346 121
345 120
344 120
343 119
342 119
341 118
340 118
339 117
338 116
337 115
336 115
335 114
334 114
333 113
332 113
331 112
330 112
329 112
328 111
327 111
326 110
325 110
324 109
323 109
322 109
321 108
320 108
319 108
318 107
317 107
316 106
315 106
314 106
313 106
312 105
311 105
310 105
309 105
308 105
307 105
306 105
305 105
304 105
303 105
302 105
301 105
300 105
299 106
298 105
297 105
296 105
295 105
294 105
293 105
292 105
291 105
290 105
289 105
288 105
287 105
286 105
285 105
284 104
283 104
282 104
281 104
280 104
279 104
278 104
277 104
276 104
275 104
274 104
273 103
272 103
271 103
270 102
269 102
268 102
267 102
266 102
265 102
264 101
263 101
262 101
261 100
260 100
259 99
258 99
257 98
256 98
255 97
254 97
253 96
252 96
251 95
250 95
249 94
248 93
247 93
246 92
245 92
244 92
243 92
242 92
241 92
240 92
240 93
240 94
240 95
240 96
240 97
240 98
241 99
241 100
242 101
242 102
242 103
243 104
243 105
244 106
244 107
244 108
245 109
245 110
245 111
245 112
246 113
246 114
246 115
247 116
247 117
247 118
247 119
247 120
247 121
247 122
247 123
247 124
247 125
247 126
247 127
247 128
247 129
247 130
247 131
248 132
248 133
248 134
248 135
248 136
248 137
248 138
248 139
248 140
248 141
248 142
248 143
248 144
248 145
249 146
249 147
249 148
249 149
249 150
249 151
249 152
249 153
248 154
248 155
247 156
246 157
245 158
244 158
243 159
242 159
241 159
240 159
239 159
238 159
237 159
236 158
235 158
234 158
233 158
232 158
231 158
230 158
229 158
228 158
227 158
226 158
225 158
224 158
223 158
222 158
221 158
220 159
219 159
218 159
217 159
216 159
215 159
214 159
213 159
212 159
211 159
210 159
209 159
208 159
207 159
206 159
205 159
204 159
203 159
202 160
201 160
200 161
199 161
198 162
197 162
196 162
195 162
194 162
193 162
192 161
191 161
190 161
189 160
188 160
187 160
186 160
185 159
184 159
183 159
182 159
181 159
180 159
179 159
179 160
179 161
179 162
179 163
179 164
180 165
180 166
181 167
181 168
182 169
182 170
183 171
183 172
184 173
184 174
185 175
185 176
185 177
185 178
185 179
185 180
185 181
185 182
185 183
185 184
185 185
185 186
184 187
184 188
183 189
183 190
182 191
181 191
180 192
179 192
178 193
177 193
176 193
175 193
174 193
173 194
172 194
171 194
170 194
169 195
168 196
167 197
166 197
165 198
164 198
163 199
162 199
161 200
160 200
159 200
158 201
157 201
156 201
155 201
155 202
155 203
155 204
155 205
155 206
155 207
155 208
155 209
155 210
154 211
153 212
152 213
151 213
150 214
149 215
148 215
147 216
146 216
145 217
144 217
143 217
142 218
141 218
141 219
141 220
141 221
141 222
140 223
140 224
139 225
139 226
138 227
137 227
136 228
135 229
134 229
133 230
132 230
131 231
130 231
129 232
128 233
128 234
127 235
127 236
126 237
125 238
124 238
123 239
122 239
121 240
120 240
119 241
118 242
117 243
116 243
115 244
114 244
113 245
112 245
111 245
110 245
109 246
108 247
107 248
106 249
105 250
104 250
103 251
102 251
101 252
100 252
99 253
98 253
97 254
96 254
95 254
94 255
93 255
92 255
91 255
90 255
89 255
88 255
87 255
