422 44
422 45
422 46
422 47
422 48
422 49
422 50
422 51
422 52
421 53
420 54
419 54
418 55
417 56
416 57
416 58
416 59
416 60
415 61
414 61
413 61
412 60
411 59
410 58
409 58
408 57
407 57
406 56
405 56
404 56
403 56
402 55
401 55
400 55
399 54
398 54
397 53
396 53
395 52
394 52
394 53
394 54
393 55
392 56
392 57
391 58
390 59
390 60
389 61
389 62
388 63
387 63
386 62
386 61
385 60
384 60
383 59
382 59
381 58
380 58
379 58
378 57
377 57
376 57
375 56
374 56
373 55
372 54
371 53
370 52
369 51
368 50
368 51
367 52
366 53
366 54
365 55
365 56
364 57
363 58
363 59
363 60
364 61
363 62
362 62
361 62
360 61
360 60
360 59
359 58
358 58
357 57
356 57
355 56
354 55
353 55
352 54
351 54
350 54
349 53
348 53
347 53
348 54
348 55
347 56
347 57
346 58
347 58
348 59
347 60
346 60
345 61
344 60
344 59
344 58
343 57
342 57
341 57
340 57
339 56
338 56
337 56
336 56
335 56
334 56
333 57
332 57
331 56
332 55
331 55
330 55
329 54
328 54
327 53
326 53
325 53
324 52
323 52
322 51
321 51
322 52
321 53
320 53
319 53
320 54
320 55
320 56
320 57
320 58
319 59
318 60
318 61
317 62
316 63
316 64
315 65
315 66
316 66
317 67
316 68
315 69
314 70
313 70
312 69
312 68
311 67
310 67
309 67
308 66
307 66
306 66
305 66
304 66
303 66
302 66
301 66
300 66
299 66
298 66
297 65
296 65
295 65
294 64
293 64
293 65
293 66
293 67
292 68
292 69
291 70
291 71
291 72
292 73
292 74
291 75
290 75
289 75
288 75
287 74
286 73
285 73
284 73
283 73
282 73
281 73
280 73
279 73
278 73
277 73
276 73
275 73
274 73
273 73
272 72
271 73
270 73
269 72
269 71
268 71
267 71
266 70
265 70
264 71
265 72
265 73
265 74
266 75
265 76
265 77
265 78
264 79
264 80
265 81
266 82
265 83
264 84
263 83
262 83
261 83
260 82
259 81
258 81
257 81
256 81
255 81
254 81
253 80
252 80
251 80
250 80
249 81
250 82
250 83
251 84
251 85
252 86
251 87
250 87
249 88
248 87
248 86
247 86
246 87
245 87
244 87
243 88
242 88
242 89
241 90
240 89
239 90
238 89
237 89
236 89
235 89
234 90
233 90
232 90
231 90
230 90
229 90
228 91
227 90
226 91
225 91
224 91
223 91
222 92
223 92
224 93
225 93
226 93
227 93
228 92
229 92
230 93
229 94
230 93
231 93
232 94
231 95
232 96
233 97
234 98
234 99
234 100
235 101
234 102
234 103
234 104
234 105
235 106
235 107
236 108
237 109
237 110
236 111
235 111
234 111
233 110
232 109
231 109
230 109
229 109
228 109
227 109
226 109
225 109
224 109
223 109
222 109
221 109
220 108
221 109
220 110
220 111
220 112
219 113
220 114
220 115
220 116
221 117
221 118
220 119
219 118
218 118
217 118
216 117
215 117
214 117
213 117
212 116
211 116
210 116
209 116
208 116
207 116
206 116
205 117
204 117
203 116
202 116
201 116
200 115
199 115
198 116
199 117
200 118
200 119
200 120
200 121
200 122
200 123
200 124
199 125
198 124
197 124
196 125
195 125
194 125
193 125
192 126
191 126
190 126
189 127
188 127
187 127
186 127
185 128
184 129
183 129
182 128
181 128
180 129
179 129
178 129
178 130
177 131
177 132
178 132
179 131
180 132
180 133
181 134
182 135
182 136
183 137
183 138
184 139
183 140
183 141
183 142
183 143
183 144
183 145
183 146
183 147
184 147
185 148
185 149
184 150
183 150
182 150
181 150
180 150
180 151
179 152
178 151
177 151
176 152
175 152
174 153
173 153
172 153
171 153
170 154
171 155
171 156
171 157
171 158
172 159
172 160
171 161
170 162
169 162
168 162
167 162
166 163
165 163
164 164
163 164
162 165
161 165
160 165
159 165
158 165
157 165
156 165
156 166
157 167
157 168
157 169
157 170
156 171
155 171
154 171
153 172
152 172
151 172
150 173
149 173
148 173
147 173
146 173
146 174
147 174
148 174
149 175
149 176
148 177
147 176
146 177
145 177
144 176
144 175
143 174
142 174
141 175
140 175
139 176
138 176
137 177
138 177
139 178
140 178
141 179
142 180
143 181
143 182
143 183
144 184
144 185
145 186
145 187
146 188
145 189
144 189
143 188
142 189
141 189
140 190
139 190
138 190
137 191
136 191
135 192
134 192
133 192
132 193
131 193
132 194
131 195
130 195
129 196
128 196
127 197
126 198
125 198
124 199
123 199
122 199
121 199
120 199
119 199
118 199
117 199
116 199
115 200
114 200
114 201
115 201
116 202
116 203
117 204
117 205
118 205
119 206
118 207
117 208
116 208
115 208
114 209
113 209
112 209
111 209
110 209
109 210
108 210
107 210
107 211
106 212
105 212
104 212
103 213
102 213
101 213
100 214
99 214
98 214
97 214
96 214
95 214
94 213
93 213
92 212
91 212
90 212
89 212
88 212
87 212
87 213
88 214
88 215
89 216
89 217
89 218
89 219
88 220
87 220
86 220
85 221
84 221
83 221
82 222
81 222
80 222
79 222
78 223
77 223
76 222
75 222
74 222
73 222
72 222
71 222
70 221
69 221
68 221
67 221
66 220
65 220
65 221
65 222
65 223
64 224
63 225
62 225
61 225
60 225
59 226
58 226
57 227
56 227
55 227
54 228
53 228
52 228
51 228
50 229
49 229
48 229
47 229
46 229
45 230
44 229
43 229
42 230
42 231
42 230
43 229
44 229
45 230
44 231
44 232
45 233
46 234
47 234
48 234
49 234
50 234
51 234
52 234
53 233
54 234
54 235
55 235
56 234
57 234
58 235
57 236
58 236
59 236
60 236
61 237
62 237
63 237
64 237
65 237
66 238
66 239
66 240
67 240
68 240
69 240
70 240
71 240
72 240
73 241
74 241
75 240
76 240
77 240
78 240
79 240
80 240
81 240
82 241
83 241
84 241
85 241
86 241
87 242
88 242
89 242
90 243
91 243
92 242
93 243
93 244
93 245
92 246
92 247
92 246
93 245
94 246
95 246
96 247
95 248
96 249
95 248
96 247
97 247
98 247
99 248
98 249
99 249
100 249
101 249
102 249
103 249
104 248
105 248
106 248
107 248
108 248
109 248
110 248
111 248
112 248
113 248
114 249
115 249
116 249
117 249
118 249
119 250
120 251
120 252
120 253
119 254
118 254
117 255
116 256
115 257
116 257
117 257
118 257
119 257
120 258
121 257
122 257
123 258
124 258
125 259
124 260
123 261
124 261
125 261
126 261
127 261
128 261
129 261
130 262
131 262
132 262
133 262
134 263
135 263
136 263
137 264
138 264
139 264
140 264
141 264
142 264
143 264
144 265
144 266
145 267
146 267
147 267
148 268
149 268
150 269
151 269
152 270
151 271
152 270
153 271
154 271
155 271
156 271
157 272
156 273
156 274
157 275
157 276
156 277
156 278
155 279
155 280
154 281
153 280
152 281
153 281
154 281
155 280
156 280
157 281
158 281
159 281
160 282
161 281
162 281
163 281
164 282
163 283
164 284
165 284
166 284
167 284
168 284
169 284
170 284
171 284
172 284
173 284
174 285
175 285
176 285
177 285
178 286
179 285
180 286
180 287
179 288
180 289
179 290
180 290
181 289
182 289
183 290
184 291
185 290
186 290
187 290
188 291
187 292
186 292
186 293
186 294
186 295
186 296
185 297
185 298
184 299
183 299
183 300
182 301
181 301
180 302
179 301
178 301
177 301
176 302
175 302
176 302
177 302
178 303
179 303
180 304
180 305
181 305
182 305
183 306
184 306
185 306
186 307
185 308
186 308
187 309
187 310
188 311
189 311
190 312
191 312
192 312
193 312
194 313
195 313
196 312
197 313
197 314
197 315
198 316
198 317
199 317
200 316
201 317
202 317
203 318
202 319
203 319
204 320
205 320
206 320
207 320
208 321
209 320
210 321
210 322
210 323
211 324
212 325
212 326
213 326
214 326
215 327
216 327
217 327
218 328
217 329
216 329
217 329
218 330
219 330
220 330
221 330
222 331
223 331
224 330
225 331
226 331
227 331
228 331
229 331
230 332
231 331
232 331
233 332
234 332
235 333
236 333
237 333
238 333
239 333
240 333
241 334
242 333
243 334
244 334
245 334
246 335
247 335
248 336
249 336
250 336
251 337
251 338
251 339
251 340
252 340
253 341
253 342
252 343
251 342
250 342
249 343
248 344
247 344
246 345
245 345
244 345
243 344
242 344
241 344
240 344
239 344
238 344
237 344
236 344
235 344
234 344
233 343
232 344
231 344
230 343
229 343
228 343
227 343
226 343
225 342
225 343
226 343
227 343
228 344
229 345
228 346
227 346
226 345
225 346
224 345
223 344
222 344
221 344
220 344
219 344
218 344
217 344
216 344
215 344
215 345
216 345
217 345
218 346
219 347
220 348
221 348
222 348
221 347
222 346
223 346
224 347
225 348
224 349
224 350
225 351
226 351
227 350
228 351
228 352
227 353
228 354
229 354
230 354
231 355
230 356
229 356
229 357
230 357
231 358
232 358
233 358
234 359
235 359
236 360
235 361
236 361
237 362
238 363
238 364
239 365
238 366
237 366
236 367
236 368
237 369
238 369
239 369
240 368
241 368
242 369
243 369
244 369
245 370
246 370
247 371
247 372
246 373
245 372
245 373
246 373
247 373
248 374
249 374
250 374
251 374
252 375
253 375
254 376
254 375
255 374
256 375
256 376
257 377
257 378
257 379
257 380
257 381
256 382
255 383
255 384
256 385
257 385
258 385
259 385
260 386
261 386
262 387
263 387
264 388
265 389
264 390
265 390
266 391
267 390
268 391
268 392
269 393
269 394
269 393
270 392
271 393
272 394
271 395
271 396
270 397
270 398
270 399
270 400
270 401
269 402
270 403
270 404
270 405
270 406
269 407
269 408
268 409
267 409
266 410
265 411
264 412
264 413
264 414
265 414
266 414
267 415
267 414
267 413
268 412
269 413
269 414
270 414
271 414
272 414
273 415
274 414
275 415
275 416
274 417
273 417
274 418
273 419
274 419
275 419
276 419
277 419
278 420
279 420
280 420
281 420
282 421
283 421
284 420
285 419
286 420
286 421
285 422
284 423
283 423
283 424
284 424
285 425
286 425
287 425
288 425
289 425
290 424
291 425
291 426
290 427
291 426
292 426
293 426
294 426
295 426
296 427
295 428
294 428
293 428
292 429
293 429
294 429
295 430
296 430
297 430
298 430
299 431
300 430
301 430
302 430
303 431
302 432
301 432
301 433
301 434
300 435
299 436
298 436
298 437
299 438
299 437
300 436
301 435
302 435
303 436
302 437
301 438
302 438
303 437
304 437
305 437
306 437
307 437
308 437
309 437
310 437
311 438
310 439
310 440
309 441
308 440
309 441
310 441
311 441
312 441
313 442
314 442
315 442
316 442
317 442
318 443
319 443
320 443
321 443
322 444
322 443
323 442
324 442
325 443
324 444
324 445
325 446
324 447
323 447
323 448
324 449
325 448
326 448
327 449
328 450
329 450
330 450
331 450
332 450
333 451
332 452
332 453
333 454
334 454
335 454
336 454
337 455
338 454
339 455
340 454
341 455
342 455
343 456
344 457
343 456
344 455
345 454
346 455
346 456
346 457
346 458
346 459
346 460
345 461
345 462
344 463
343 464
343 465
344 465
345 465
346 465
347 465
348 465
349 465
350 464
350 463
350 462
351 461
352 462
352 463
352 464
353 463
354 463
355 464
356 465
355 466
354 466
353 466
354 466
355 466
356 467
355 468
354 468
353 468
354 468
355 468
356 468
357 468
358 468
359 468
360 468
361 468
362 468
363 468
364 468
365 468
366 469
367 469
368 469
369 470
370 470
371 470
372 470
373 470
374 470
375 471
376 470
377 471
378 470
379 470
380 471
381 472
382 472
383 472
384 472
385 472
386 472
387 472
388 472
389 472
390 472
391 472
392 472
393 471
394 471
395 472
395 471
396 470
397 471
397 472
397 471
398 470
399 469
400 469
401 469
402 470
401 471
400 472
401 472
402 472
403 471
404 472
405 471
406 471
407 472
407 471
408 470
409 470
410 470
411 470
412 470
413 470
414 470
415 470
416 469
417 469
418 469
419 468
420 468
421 469
422 469
423 468
424 469
425 468
426 468
427 468
428 467
429 467
430 466
431 466
431 465
432 464
433 463
434 463
435 462
436 462
436 461
437 460
438 460
439 459
440 458
441 458
442 457
443 457
443 456
444 455
445 455
446 454
447 455
448 454
449 453
450 453
451 452
452 452
453 451
454 451
455 450
456 450
457 450
458 450
459 450
460 449
461 449
462 449
463 448
464 448
464 447
465 446
466 446
467 446
466 445
467 444
468 444
468 443
469 442
470 442
471 441
472 440
472 439
473 438
474 437
475 436
476 435
477 434
477 433
478 432
479 431
479 430
480 429
481 428
482 427
483 426
483 425
484 424
485 423
485 422
486 421
485 420
486 419
487 419
488 418
488 417
489 416
490 415
490 414
491 413
492 412
492 411
493 410
494 409
494 408
495 407
496 406
496 405
497 404
497 403
498 402
499 401
500 400
500 399
501 398
502 397
503 396
504 395
505 394
505 393
506 392
506 391
507 390
508 389
509 388
509 387
510 386
511 385
512 384
512 383
513 382
514 381
515 380
515 379
516 378
517 377
517 376
518 375
519 374
520 373
521 372
521 371
522 370
523 369
523 368
524 367
525 366
525 365
525 364
526 363
527 362
527 361
528 360
529 359
529 358
530 357
530 356
531 355
532 354
532 353
533 352
533 351
534 350
534 349
535 348
535 347
536 346
537 345
537 344
538 343
538 342
539 341
540 340
540 339
541 338
541 337
542 336
543 335
543 334
544 333
545 332
545 331
546 330
546 329
547 328
547 327
548 326
548 325
549 324
549 323
550 322
551 321
551 320
551 319
552 318
552 317
553 316
553 315
554 314
554 313
555 312
555 311
555 310
556 309
556 308
556 307
556 306
557 305
556 304
557 303
557 302
558 301
559 302
559 303
559 302
559 301
560 300
561 301
562 300
563 300
564 300
565 300
566 299
567 299
568 300
569 299
570 299
571 299
572 299
573 299
574 299
575 299
576 299
577 299
578 300
579 300
580 300
581 300
582 300
583 300
584 300
585 301
586 301
587 301
588 301
589 301
590 300
591 301
591 302
592 301
593 301
594 302
595 302
596 302
597 302
598 302
599 302
600 302
601 302
602 302
603 302
604 303
605 303
606 303
607 303
608 303
609 303
610 303
611 303
612 303
613 303
614 303
615 304
616 304
617 304
618 304
619 305
620 305
621 305
622 305
623 305
624 305
625 305
626 305
627 305
628 306
629 306
630 306
631 306
632 306
633 306
634 307
635 307
636 307
637 307
638 307
639 307
640 308
641 308
642 308
643 308
644 308
645 308
646 309
647 309
648 309
649 309
650 309
651 309
652 310
653 309
654 310
655 309
656 310
657 310
658 310
659 310
660 310
661 310
662 310
663 310
664 310
665 310
666 310
667 310
668 310
669 311
670 311
671 311
672 311
673 311
674 311
675 311
676 311
677 311
678 311
679 311
680 311
681 311
682 311
683 312
684 312
685 311
686 312
687 311
688 312
689 312
690 312
691 312
692 312
693 312
694 312
695 312
696 312
697 312
698 312
699 312
700 312
701 312
702 312
703 312
704 312
705 312
706 312
707 312
708 312
709 312
710 312
711 312
712 312
713 312
714 312
715 313
716 313
717 312
718 312
719 313
720 313
721 313
722 313
723 313
724 314
725 314
726 314
727 314
728 314
729 315
730 315
731 315
732 315
733 316
734 317
734 316
733 316
732 315
733 314
734 314
735 314
736 314
737 315
738 315
739 315
740 316
741 316
742 316
743 316
744 315
745 315
746 315
746 314
746 313
745 312
745 311
745 310
744 309
743 308
743 307
743 306
743 305
742 304
741 303
740 302
739 301
738 300
737 300
736 299
735 299
734 299
733 299
732 298
731 298
730 298
729 298
728 298
727 298
726 298
725 298
726 299
725 300
724 300
723 301
722 301
721 301
720 301
719 302
718 301
717 301
716 300
715 300
714 300
713 300
712 299
712 298
711 298
710 299
709 298
710 299
709 300
708 300
707 299
707 298
706 298
705 298
704 298
703 298
702 298
702 299
701 300
702 300
703 300
703 299
704 298
705 298
706 298
707 299
706 300
707 300
708 300
709 300
710 300
711 301
712 301
713 300
714 300
715 300
716 300
717 301
718 301
719 302
720 303
720 304
720 305
719 306
718 305
717 304
716 305
715 305
714 304
715 303
715 302
714 302
714 303
713 304
712 303
711 304
710 304
709 304
708 305
707 305
706 305
705 305
704 305
703 304
702 303
701 303
700 303
699 303
698 303
697 303
696 304
695 305
694 305
693 304
692 304
691 304
690 303
689 303
688 304
687 303
686 302
685 302
684 302
683 302
682 302
682 303
681 304
680 304
679 303
678 303
677 304
676 304
675 303
674 303
673 303
672 303
671 303
670 303
669 303
668 303
667 303
666 303
665 302
664 302
663 302
662 301
661 301
660 302
659 302
658 302
657 302
656 301
655 302
654 301
653 301
652 301
651 301
650 300
649 301
648 300
647 300
646 300
645 300
644 300
643 300
642 299
641 299
640 299
639 299
638 298
638 297
637 298
636 298
635 297
635 298
636 298
637 299
636 300
635 300
634 300
633 299
633 298
633 297
632 297
631 296
632 297
631 298
630 299
629 298
629 297
628 296
627 296
626 296
625 296
624 296
623 296
622 296
621 296
620 295
619 295
618 295
617 295
616 295
615 294
614 294
613 294
612 293
611 293
610 294
609 293
608 293
607 294
606 294
605 293
604 293
603 293
602 293
601 294
600 293
599 293
598 292
598 291
597 292
596 292
595 292
594 292
593 292
592 291
593 290
594 290
593 290
592 291
591 291
590 291
589 291
588 290
587 290
586 289
585 289
584 289
583 289
582 289
581 289
580 289
579 288
579 287
579 286
578 286
578 287
577 288
576 287
575 286
574 286
573 287
572 287
571 287
570 286
571 285
572 285
571 285
570 285
569 286
568 286
567 285
568 284
567 285
566 285
565 284
564 283
563 283
562 282
561 282
560 281
560 280
559 279
558 278
558 277
557 276
557 275
558 274
558 273
558 272
557 271
557 270
557 269
557 268
557 267
557 266
557 265
557 264
557 263
557 262
557 261
557 260
556 259
556 258
556 257
556 256
556 255
556 254
556 253
555 252
555 251
555 250
555 249
554 248
554 247
554 246
554 245
553 244
553 243
553 242
553 241
553 240
552 239
552 238
552 237
552 236
552 235
552 234
552 233
551 232
551 231
551 230
551 229
550 228
550 227
550 226
550 225
550 224
550 223
550 222
549 221
549 220
549 219
549 218
549 217
549 216
549 215
549 214
548 213
548 212
548 211
548 210
548 209
548 208
548 207
547 206
547 205
547 204
547 203
547 202
547 201
546 200
546 199
546 198
546 197
546 196
546 195
545 194
545 193
545 192
545 191
545 190
545 189
545 188
545 187
545 186
545 185
545 184
545 183
544 182
544 181
544 180
544 179
544 178
544 177
544 176
544 175
544 174
543 173
543 172
544 171
543 170
543 169
543 168
543 167
543 166
543 165
543 164
543 163
542 162
542 161
543 160
543 159
542 158
542 157
542 156
542 155
542 154
542 153
542 152
542 151
542 150
542 149
542 148
541 147
541 146
541 145
541 144
541 143
540 142
540 141
539 140
539 139
539 138
539 137
538 136
538 135
537 134
537 133
537 132
537 131
536 130
536 129
536 128
536 127
536 126
535 125
535 124
535 123
535 122
535 121
535 120
534 120
533 121
532 121
531 122
530 122
529 123
528 123
527 122
526 121
527 120
527 119
527 118
526 117
526 116
525 115
525 114
524 113
523 112
523 111
522 110
521 109
521 108
521 107
521 106
520 105
520 104
520 103
519 102
519 101
519 100
518 99
518 98
517 98
516 97
516 96
516 95
516 94
516 93
515 92
515 91
515 90
514 89
513 88
513 87
513 86
513 85
512 84
511 84
510 83
510 82
509 83
509 84
508 85
507 86
506 87
505 88
504 89
503 89
502 88
502 87
502 86
502 85
502 84
501 83
500 82
499 81
498 80
497 79
496 78
496 77
495 76
494 75
493 74
492 73
491 73
490 72
489 71
489 70
488 69
487 68
486 67
485 66
484 65
484 64
483 63
482 62
482 61
481 60
480 59
479 58
478 58
478 59
478 60
477 61
476 62
475 63
475 64
474 65
475 66
474 67
473 68
472 68
471 68
470 67
469 66
470 65
471 65
471 64
471 63
470 62
469 61
468 60
467 59
466 59
465 59
464 58
465 57
464 56
463 55
462 54
462 53
461 53
460 52
460 53
459 54
459 55
458 56
457 56
456 57
456 58
457 59
456 60
455 60
454 60
453 59
452 59
451 58
452 57
453 57
452 56
451 56
450 55
449 54
448 53
448 52
447 51
446 50
445 49
444 50
443 51
443 52
442 53
443 54
442 55
441 55
440 54
439 53
439 52
438 52
437 51
436 51
435 50
434 50
433 50
432 50
431 49
430 49
429 48
428 47
427 47
426 46
425 45
424 45
423 45
422 44
