389 72
390 73
390 74
391 75
392 76
393 77
392 78
393 79
393 80
393 81
394 82
394 83
394 84
395 85
395 86
395 87
394 88
394 89
394 90
394 91
393 92
393 93
392 94
392 95
392 96
391 97
390 98
390 99
389 100
388 101
387 102
386 103
385 104
384 105
383 106
382 107
381 108
380 108
379 109
378 109
377 110
376 110
375 111
374 111
373 112
372 112
371 112
370 112
369 113
368 113
367 113
366 113
365 113
364 113
363 113
362 113
361 113
360 113
359 113
358 114
357 114
356 114
355 114
354 114
353 114
352 114
351 114
350 114
349 114
348 114
347 114
346 114
345 114
344 114
343 114
342 114
341 114
340 114
339 114
338 114
337 114
336 113
335 113
334 113
333 113
332 113
331 113
330 113
329 113
328 113
327 113
326 113
325 113
324 113
323 112
322 112
321 112
320 111
319 111
318 110
317 110
316 110
315 109
314 109
313 108
312 108
311 108
310 107
309 107
308 106
307 106
306 106
305 105
304 105
303 104
302 103
301 103
300 102
299 102
298 101
297 100
296 100
295 100
294 100
295 101
296 102
297 103
297 104
298 105
298 106
298 107
298 108
298 109
298 110
298 111
298 112
298 113
298 114
298 115
298 116
297 117
296 118
295 119
294 119
293 120
292 120
291 120
290 120
289 121
288 122
287 122
286 122
285 123
284 123
283 123
282 123
281 123
280 124
279 124
278 124
277 124
276 124
275 124
274 124
273 125
272 125
271 125
270 125
269 125
268 125
267 125
266 125
265 125
264 126
263 126
262 126
261 126
260 126
259 126
258 125
257 125
256 125
255 125
254 125
253 125
252 124
251 124
250 124
249 124
248 124
247 123
246 123
245 123
244 122
243 122
242 122
241 121
240 121
239 121
238 120
237 119
236 119
235 119
234 118
233 118
232 117
231 117
230 116
229 115
228 115
227 114
226 113
225 113
224 112
224 113
225 113
226 114
226 115
227 116
227 117
228 118
227 119
227 120
227 121
227 122
228 123
228 124
227 125
227 126
227 127
226 128
226 129
226 130
225 131
225 132
225 133
224 134
223 135
222 136
221 137
222 138
221 139
220 139
219 139
218 140
217 141
216 142
215 143
214 143
213 144
212 145
211 145
210 146
209 147
208 147
207 148
206 148
205 148
204 149
203 149
202 149
201 149
200 150
199 150
198 150
197 150
196 150
195 151
194 151
193 151
192 151
191 151
190 151
189 151
188 151
187 151
186 151
185 151
184 151
183 151
182 151
181 151
180 151
179 152
178 152
177 152
176 152
175 152
174 152
173 152
172 152
171 151
170 151
169 151
168 152
167 151
166 151
165 151
164 152
163 152
162 152
161 151
160 152
159 151
158 151
157 152
156 152
157 153
158 153
159 153
160 153
161 153
162 154
163 154
164 154
165 155
166 156
167 157
167 158
168 159
168 160
168 161
168 162
168 163
168 164
169 165
169 166
168 167
168 168
168 169
168 170
168 171
167 172
167 173
166 174
166 175
165 176
164 177
165 178
164 179
163 180
162 181
161 182
160 182
159 183
158 184
157 184
157 185
156 186
155 186
154 187
153 187
153 188
152 189
151 189
150 190
149 190
148 191
147 191
146 192
145 193
144 194
143 194
142 194
141 195
140 196
139 196
138 197
137 198
136 198
135 199
134 199
133 200
132 201
131 201
130 201
129 202
128 203
127 203
126 204
125 204
124 204
123 205
122 205
121 206
120 206
119 206
118 207
117 207
116 208
115 208
114 208
113 209
112 209
111 209
110 209
109 210
108 210
107 210
106 210
105 211
104 211
103 211
102 211
103 212
104 212
105 212
106 212
107 213
108 213
109 214
110 214
111 215
112 216
112 217
113 218
113 219
114 220
113 221
114 222
115 223
115 224
116 225
116 226
116 227
116 228
116 229
117 230
117 231
117 232
117 233
116 234
116 235
116 236
115 237
115 238
114 239
113 240
113 241
112 242
111 243
111 244
110 245
109 246
108 247
107 248
106 249
105 250
104 251
103 252
102 253
101 254
100 255
99 255
98 256
97 257
96 257
95 258
94 259
93 259
92 260
91 260
90 261
89 262
88 262
87 263
86 263
85 264
84 264
83 265
82 265
81 265
80 266
79 266
78 267
77 267
76 267
75 267
74 268
73 268
72 268
71 268
70 268
69 268
68 269
67 269
66 269
65 269
64 269
63 270
62 270
61 270
60 270
59 270
58 270
57 271
56 271
55 271
54 271
53 271
52 271
53 272
54 272
55 272
56 272
57 273
58 273
59 274
60 274
61 275
62 276
63 277
64 278
65 279
65 280
65 281
66 281
67 282
68 282
69 283
70 283
71 284
72 284
73 285
74 285
75 286
76 287
77 287
78 288
79 288
80 289
81 290
82 291
83 292
84 293
85 293
86 294
87 295
88 296
89 297
90 298
91 299
92 300
93 301
94 302
95 303
96 304
97 305
98 306
98 307
99 307
100 308
100 309
101 309
102 310
102 311
103 312
104 313
105 314
106 315
107 316
107 317
108 318
109 319
109 320
110 321
111 322
111 323
112 324
113 325
113 326
113 327
113 328
114 328
115 329
115 330
116 331
116 332
117 333
117 334
117 335
118 336
118 337
118 338
118 339
118 340
118 341
117 342
117 343
116 344
115 345
114 346
113 347
112 347
111 348
110 348
109 349
108 349
107 349
106 349
105 349
104 349
103 349
104 349
105 349
106 350
107 350
108 350
109 351
110 351
111 351
112 351
113 352
114 352
115 353
116 353
117 354
118 355
119 356
119 357
119 358
120 359
121 359
122 360
123 361
124 362
125 362
126 363
127 363
128 363
129 364
130 365
131 366
132 367
133 368
133 369
134 370
134 371
134 372
134 373
134 374
134 375
134 376
135 377
135 378
134 379
134 380
133 381
132 382
131 382
130 383
129 384
130 384
131 384
132 384
133 384
134 385
135 385
136 385
137 385
138 385
139 385
140 386
141 386
142 387
143 387
144 387
145 388
145 389
144 390
144 391
143 392
144 393
145 393
146 394
147 394
148 394
149 394
150 395
151 395
152 395
153 396
154 396
155 396
156 396
157 397
158 397
159 397
160 397
161 398
162 398
163 398
164 398
165 399
166 399
167 399
168 400
169 400
170 401
171 401
172 402
173 403
174 404
175 405
176 406
177 407
178 408
178 409
179 410
179 411
179 412
180 413
180 414
180 415
180 416
180 417
180 418
180 419
180 420
179 421
178 422
177 423
176 424
175 425
174 425
173 426
172 427
173 427
174 427
175 426
176 426
177 426
178 426
179 425
180 425
181 425
182 425
183 425
184 424
185 424
186 424
187 424
188 424
189 424
190 424
191 425
192 425
193 425
194 425
195 425
196 425
197 426
198 426
199 426
200 426
201 426
202 427
203 427
204 427
205 427
206 428
207 428
208 428
209 429
210 429
211 429
212 429
213 430
214 430
215 431
216 431
217 431
218 431
219 432
220 432
221 433
222 433
223 433
224 434
225 434
226 434
227 435
228 436
229 436
230 437
231 437
232 437
233 438
234 438
235 439
235 440
236 440
237 441
238 442
239 443
240 444
240 445
241 446
241 447
241 448
241 449
241 450
242 451
242 452
242 453
241 454
241 455
240 456
240 457
239 458
238 459
237 460
236 461
235 462
234 462
233 462
232 463
231 463
232 463
233 463
234 463
235 463
236 462
237 462
238 462
239 462
240 461
241 461
242 461
243 461
244 461
245 460
246 460
247 460
248 460
249 459
250 459
251 459
252 459
253 458
254 458
255 458
256 458
257 458
258 457
259 457
260 457
261 457
262 457
263 456
264 456
265 456
266 456
267 456
268 456
269 456
270 456
271 456
272 456
273 455
274 455
275 456
276 456
277 456
278 456
279 456
280 456
281 456
282 456
283 456
284 457
285 457
286 457
287 457
288 457
289 458
290 458
291 458
292 459
293 459
294 459
295 460
296 460
297 461
298 461
299 462
300 462
301 463
302 464
303 465
304 466
305 467
305 468
305 469
306 470
306 471
307 472
307 473
308 474
308 475
308 476
308 477
309 478
309 479
309 480
309 481
310 482
310 483
309 484
309 485
308 486
307 487
306 488
305 489
304 490
303 491
302 492
303 491
304 491
305 490
306 490
307 489
308 489
309 488
310 488
311 487
312 487
313 486
314 485
315 485
316 484
317 484
318 483
319 483
320 483
321 482
322 482
323 481
324 481
325 481
326 481
327 480
328 480
329 480
330 480
331 480
332 481
333 481
334 482
334 483
334 484
334 485
335 486
335 487
335 488
335 489
336 490
336 491
336 492
337 493
337 494
337 495
337 496
337 497
337 498
337 499
336 500
336 501
335 502
335 503
334 504
333 505
333 506
334 505
335 504
336 503
336 502
337 501
338 501
339 500
340 500
341 499
342 498
343 498
344 497
345 496
346 496
347 496
348 495
349 495
350 496
351 496
352 496
353 495
354 496
355 496
356 496
357 497
358 497
359 497
360 497
361 497
362 497
363 497
364 497
365 497
366 497
367 497
368 497
369 497
370 497
371 497
372 497
373 497
374 497
375 497
376 497
377 496
378 496
379 496
380 496
381 496
382 496
383 496
384 496
385 496
386 496
387 496
388 496
389 496
390 496
391 496
392 496
393 496
394 496
395 496
396 496
397 496
398 496
399 496
400 497
401 497
402 497
403 497
404 497
405 497
406 498
407 498
408 497
409 497
410 497
411 497
412 497
413 498
414 498
415 498
416 499
416 500
417 501
417 502
417 503
417 504
417 505
417 506
418 507
418 508
417 509
418 510
418 509
418 508
419 507
419 506
419 505
420 504
420 503
421 502
421 501
422 500
422 499
423 498
424 497
425 496
426 495
426 494
427 493
428 493
428 492
429 491
430 490
431 489
432 488
432 487
433 486
434 485
435 484
436 483
437 482
438 481
439 480
440 480
441 479
442 478
443 477
444 476
445 476
446 475
447 474
448 474
449 473
450 473
451 472
452 472
453 471
454 471
455 471
456 470
457 470
458 470
459 469
460 469
461 468
462 468
463 468
464 468
465 468
466 467
467 467
468 467
469 467
470 467
471 467
472 466
473 466
474 466
475 466
476 466
477 466
478 466
479 466
480 466
481 466
482 466
483 466
484 467
485 467
486 467
487 467
488 467
489 467
490 467
491 467
492 468
493 468
494 468
495 468
496 468
497 469
498 469
499 469
500 470
501 470
502 471
503 472
504 473
505 474
506 475
507 476
508 477
508 478
509 479
509 480
510 481
510 482
510 483
511 484
512 485
512 486
512 485
512 484
511 483
511 482
511 481
511 480
511 479
511 478
511 477
511 476
511 475
511 474
511 473
511 472
512 471
512 470
512 469
512 468
512 467
513 466
513 465
514 464
515 464
516 464
516 463
517 462
517 461
518 460
518 459
518 458
519 457
520 456
521 455
522 455
523 455
524 455
525 455
526 455
527 455
528 454
529 453
530 452
531 452
532 451
533 451
534 450
535 450
536 450
537 449
538 449
539 449
540 448
541 448
542 447
543 447
544 446
545 446
546 446
547 446
548 446
549 445
550 444
551 444
552 444
553 444
554 443
555 443
556 442
557 442
558 442
559 441
560 441
561 440
562 440
563 441
563 442
563 443
563 442
563 441
564 440
564 439
565 438
566 439
567 439
567 438
567 437
567 436
567 435
567 434
567 433
568 432
568 431
569 430
569 429
569 428
569 427
570 426
571 425
571 424
572 423
572 422
573 421
574 421
573 420
573 419
574 418
575 417
576 416
577 415
577 414
578 413
579 412
579 411
580 410
581 409
582 408
583 408
584 407
584 406
585 405
586 404
587 403
588 402
589 401
590 400
591 400
591 399
592 398
593 398
594 397
595 396
596 396
597 395
598 394
599 394
600 393
601 393
602 393
603 392
604 392
605 392
606 393
607 394
608 394
609 393
609 392
610 391
610 390
611 389
611 388
612 387
612 386
612 385
613 384
613 383
614 382
614 381
615 380
615 379
616 378
616 377
617 376
618 375
618 374
619 373
620 372
620 371
621 370
621 369
622 368
623 367
624 366
624 365
625 364
626 363
626 362
627 361
628 360
628 359
629 358
630 357
631 356
631 355
632 354
633 353
634 352
635 351
635 350
636 349
637 348
637 347
638 346
639 346
639 345
640 344
640 343
641 342
642 341
643 340
644 340
644 339
645 338
646 337
646 336
647 335
648 334
649 333
650 332
651 332
652 331
653 330
654 329
655 328
656 328
657 327
658 326
659 326
660 325
661 325
662 324
663 323
664 323
665 322
666 322
667 321
668 321
669 320
670 320
671 320
672 319
673 319
674 319
675 318
676 318
677 318
678 318
679 318
680 318
681 317
682 317
683 317
684 317
685 316
686 316
687 316
688 316
689 316
690 315
691 315
692 315
693 315
694 315
695 315
696 315
697 314
698 314
699 314
700 314
701 314
702 314
703 314
704 314
705 314
706 313
707 313
708 313
709 313
710 313
711 313
712 313
713 313
714 313
715 313
716 313
717 313
718 313
719 313
720 313
721 313
722 313
723 313
724 313
725 313
726 313
727 313
728 313
729 313
730 313
731 313
732 312
733 312
734 311
735 311
735 310
736 309
737 308
737 307
737 306
737 305
738 304
739 303
739 302
740 301
740 300
741 299
741 298
742 297
742 296
742 295
743 294
743 293
742 293
741 293
740 293
739 293
738 293
737 293
736 293
735 293
734 292
733 292
732 292
731 292
730 292
729 293
728 293
727 293
726 293
725 293
724 293
723 293
722 293
721 293
720 293
719 294
718 294
717 294
716 294
715 294
714 294
713 294
712 294
711 294
710 294
709 294
708 294
707 294
706 294
705 294
704 295
703 295
702 295
701 295
700 295
699 295
698 295
697 295
696 295
695 295
694 295
693 295
692 295
691 295
690 295
689 295
688 296
687 296
686 296
685 296
684 296
683 296
682 296
681 296
680 296
679 296
678 296
677 296
676 296
675 296
674 297
673 297
672 297
671 297
670 297
669 297
668 297
667 297
666 296
665 296
664 296
663 296
662 296
661 296
660 295
659 295
658 295
657 294
656 293
655 293
654 292
653 291
652 290
651 289
651 288
650 287
649 286
648 285
648 284
647 283
646 282
646 281
645 280
645 279
644 278
643 277
643 276
643 275
642 274
642 273
641 272
640 271
640 270
640 269
639 268
639 267
638 266
638 265
637 264
637 263
636 262
636 261
635 260
635 259
635 258
634 257
633 256
633 255
632 254
632 253
631 252
631 251
630 250
630 249
629 248
628 247
628 246
628 245
627 244
627 243
626 242
626 241
625 240
624 239
624 238
623 237
623 236
622 235
622 234
621 233
620 232
619 231
619 230
618 229
617 228
618 227
617 226
617 225
616 224
616 223
615 222
615 221
615 220
614 219
614 218
613 217
613 216
612 215
612 214
612 213
611 212
611 211
611 210
610 209
610 208
609 209
608 208
608 207
608 206
608 205
608 204
608 203
608 202
608 201
607 200
607 199
607 198
607 197
607 196
607 195
607 194
607 193
606 192
606 191
606 190
606 191
606 192
605 193
604 194
603 195
602 196
601 196
600 195
599 195
598 194
597 194
596 193
595 193
594 193
593 192
592 191
592 190
591 189
590 190
589 189
588 188
589 187
588 188
587 187
586 186
585 185
585 184
584 184
583 183
582 182
581 181
580 180
581 179
580 178
579 177
578 177
577 176
576 175
576 174
575 173
574 172
573 172
572 171
571 170
571 169
570 168
570 167
569 166
568 165
567 166
566 165
566 164
567 163
566 164
565 163
565 162
564 161
565 160
564 159
564 158
563 157
563 156
562 155
561 154
560 153
560 152
559 151
559 150
559 149
558 149
557 148
558 147
557 146
556 145
556 144
556 143
555 142
555 141
554 140
554 139
554 138
553 137
553 136
553 135
553 134
552 133
552 132
552 131
552 130
552 129
552 128
552 127
551 126
551 125
551 124
551 123
551 122
551 121
550 122
550 123
550 124
550 125
550 126
550 127
550 128
549 129
549 130
549 131
548 132
548 133
547 134
546 135
545 135
544 136
543 137
542 137
541 137
540 138
539 138
538 137
537 136
537 135
536 136
535 137
534 136
533 136
532 136
531 135
530 135
529 134
528 134
527 133
526 132
525 132
524 131
523 130
522 129
521 128
520 127
519 126
518 125
517 124
516 123
515 122
514 121
514 120
513 119
512 118
511 117
511 116
510 115
509 114
509 113
508 112
507 111
507 110
506 109
506 108
505 107
504 106
504 105
503 104
503 103
503 102
502 101
502 100
501 99
501 98
501 97
500 96
500 95
500 94
500 93
499 92
499 91
499 90
499 89
498 89
498 90
498 91
498 92
498 93
498 94
498 95
498 96
498 97
497 98
497 99
497 100
497 101
497 102
496 103
495 103
495 104
494 105
493 105
492 106
491 106
491 107
491 108
490 109
489 108
488 109
487 110
486 111
485 111
484 111
483 111
483 112
482 113
481 112
480 112
479 113
478 113
477 113
476 113
475 114
474 114
473 114
472 114
471 114
470 114
469 114
468 115
467 115
466 115
465 115
464 115
463 115
462 115
461 115
460 115
459 115
458 115
457 115
456 115
455 115
454 115
453 115
452 114
451 114
450 114
449 114
448 113
447 113
446 113
445 113
444 113
443 112
442 112
441 112
440 111
439 111
438 110
437 110
436 110
435 109
434 109
433 108
432 108
431 107
430 107
429 106
428 105
427 105
426 104
425 104
424 103
423 103
422 102
421 101
420 101
419 100
418 99
417 99
416 98
416 97
415 97
414 96
413 96
412 95
411 94
410 93
409 92
408 91
407 91
406 90
405 89
404 88
403 87
402 86
401 85
400 84
399 83
398 82
397 81
396 80
395 79
395 78
394 78
393 77
393 76
392 75
391 74
390 73
389 72
