427 60
426 61
425 61
424 61
423 61
422 61
423 62
423 63
424 64
424 65
424 66
424 67
423 68
422 68
421 69
421 70
421 71
421 72
421 73
420 74
419 74
418 73
417 73
416 72
416 71
415 71
414 72
413 73
412 72
411 71
410 71
409 70
408 70
407 69
406 69
405 69
405 70
405 71
404 72
403 73
403 74
402 75
401 75
400 74
399 74
398 73
397 72
396 73
395 74
394 73
393 72
392 72
391 72
390 71
389 72
389 73
389 74
388 75
387 76
386 76
385 76
384 76
383 76
382 76
381 76
380 76
379 75
379 76
379 77
379 78
378 79
377 78
376 78
375 78
375 79
375 80
375 81
375 82
375 83
374 84
373 83
372 82
371 82
370 81
369 81
368 81
367 82
366 82
365 81
364 81
363 81
362 80
361 80
360 79
359 79
358 80
358 81
358 82
358 83
357 84
356 84
355 84
354 83
353 83
352 82
351 82
350 81
349 81
349 82
348 83
348 84
347 85
346 84
345 84
344 84
343 84
342 84
341 84
340 84
339 85
339 86
338 87
338 88
337 89
337 90
337 91
337 92
337 93
336 94
335 94
334 94
333 93
332 93
331 93
330 92
329 92
328 92
327 92
326 92
325 91
324 91
323 91
322 91
322 92
322 93
322 94
322 95
321 96
320 96
319 95
318 95
317 94
316 94
315 94
315 95
315 96
314 97
313 97
312 97
311 97
310 97
309 97
308 97
307 98
306 98
306 99
307 100
307 101
307 102
307 103
306 104
305 104
304 103
303 103
302 103
301 102
300 101
299 100
298 99
297 98
296 97
295 96
295 95
294 94
293 93
293 92
292 91
292 90
291 89
291 88
290 87
290 86
289 85
289 84
288 83
288 82
288 81
287 80
286 79
286 78
285 77
285 76
284 75
283 74
283 73
282 72
281 71
281 70
280 69
279 69
278 68
277 68
277 69
276 70
276 71
276 72
275 73
274 73
273 72
272 71
271 71
270 70
269 71
268 71
267 72
266 73
265 73
264 73
263 72
262 72
261 72
260 71
259 70
259 69
258 69
258 70
258 71
257 72
256 72
255 72
254 72
254 73
253 74
253 75
253 76
252 77
252 78
251 79
250 80
249 79
248 78
247 77
246 77
245 78
244 78
243 78
242 78
241 78
240 77
239 77
238 77
237 76
237 77
237 78
236 79
236 80
235 81
234 82
233 82
232 82
231 81
230 80
229 80
228 79
227 79
226 78
225 77
224 78
224 79
223 80
222 80
221 80
220 80
219 80
218 79
217 79
216 79
215 80
214 80
213 80
212 80
212 81
213 82
213 83
214 84
214 85
214 86
214 87
213 88
212 88
211 88
212 89
212 90
213 91
213 92
214 93
214 94
213 95
212 96
211 96
210 96
209 95
209 96
209 97
209 98
209 99
209 100
209 101
209 102
209 103
209 104
208 105
207 105
206 106
205 106
204 107
205 108
205 109
205 110
205 111
204 112
203 111
202 111
201 111
200 110
199 111
198 111
197 111
196 110
195 110
195 111
195 112
196 113
195 114
195 115
195 116
195 117
194 118
194 119
193 120
192 120
191 119
190 119
189 119
188 119
187 119
186 119
185 119
184 119
183 118
182 118
182 119
182 120
182 121
181 122
180 123
179 123
178 123
177 123
176 124
175 124
174 125
173 125
172 126
171 126
172 126
173 127
174 128
174 129
173 130
173 131
173 132
173 133
174 134
174 135
173 136
172 136
171 137
170 137
169 138
168 138
168 139
169 140
169 141
169 142
169 143
169 144
170 145
170 146
171 147
170 148
169 148
168 148
167 148
166 149
165 149
164 149
163 149
162 149
162 150
161 151
161 152
160 153
159 153
158 152
157 152
157 153
157 154
157 155
157 156
156 157
155 158
154 158
153 158
152 159
151 159
150 160
149 161
148 162
147 163
147 164
148 165
147 166
147 167
146 168
145 168
144 167
143 167
142 167
141 167
140 167
139 167
138 166
137 167
137 168
137 169
136 170
135 171
134 171
133 170
132 170
131 170
130 169
129 169
129 170
128 171
127 171
126 172
125 172
124 172
123 172
122 173
121 173
120 173
119 174
118 175
117 176
116 176
115 175
114 175
113 174
112 173
111 172
110 172
110 173
109 174
108 174
107 173
106 172
105 173
104 174
103 173
102 173
101 173
100 173
99 173
98 174
97 175
96 175
95 175
94 174
93 173
92 172
91 171
90 170
89 171
88 172
87 172
86 171
85 171
84 170
83 170
82 169
81 170
80 171
79 171
78 170
77 169
76 168
75 167
74 166
73 165
72 164
71 165
70 166
69 166
68 165
68 164
67 163
66 162
65 163
64 164
63 163
62 162
61 161
60 161
59 161
59 162
59 163
59 164
59 165
59 166
59 167
59 168
59 169
60 170
61 171
62 172
62 173
62 174
62 175
63 176
64 176
65 177
66 178
67 179
68 179
69 180
70 181
70 182
71 183
72 184
73 184
74 185
75 186
76 187
77 188
77 189
78 189
79 190
80 191
81 192
82 192
83 192
84 192
85 193
86 194
86 195
87 196
88 197
89 197
90 198
91 199
92 200
93 201
94 202
94 203
95 203
96 203
97 203
98 204
99 205
99 206
100 206
101 207
101 208
101 209
101 210
102 211
103 212
104 213
105 214
105 215
105 216
106 216
107 217
108 218
109 219
110 219
111 220
111 221
110 222
110 223
110 224
111 224
112 224
113 225
114 226
115 227
116 228
117 228
118 229
118 230
118 231
117 232
117 233
116 234
117 235
118 236
118 237
119 238
119 239
120 240
121 240
122 241
123 242
123 243
124 244
125 245
126 246
126 247
125 248
124 249
123 249
122 250
122 251
122 252
122 253
122 254
123 255
122 256
121 257
120 257
119 257
119 258
119 259
119 260
118 261
117 261
116 262
115 261
115 262
116 263
116 264
117 265
118 266
119 266
120 267
121 268
121 269
121 270
121 271
120 272
121 273
122 273
123 274
124 274
125 275
126 275
127 276
128 277
128 278
127 279
126 279
125 280
126 281
127 282
128 282
129 283
130 284
131 285
132 286
132 287
131 288
131 289
132 289
133 290
133 291
133 292
133 293
132 294
131 294
130 295
129 295
129 296
130 297
130 298
130 299
129 300
129 301
128 302
128 303
127 304
126 305
126 306
127 307
127 308
128 309
128 310
129 311
130 312
129 313
128 314
127 315
126 316
125 316
124 317
123 318
124 319
124 320
124 321
124 322
123 323
122 324
121 324
120 325
119 326
118 326
118 327
119 328
119 329
119 330
119 331
118 332
117 332
116 332
115 333
114 333
114 334
114 335
113 336
112 337
111 338
110 339
109 340
108 340
108 341
108 342
109 343
110 343
111 344
112 344
113 345
114 345
115 345
116 345
117 346
118 347
118 348
119 349
120 348
121 349
122 349
123 349
124 349
125 349
126 349
127 350
128 351
128 352
128 353
127 354
127 355
128 355
129 355
130 355
131 356
132 356
133 356
134 356
135 357
136 357
137 357
138 357
139 357
140 357
141 358
142 359
143 359
144 360
144 361
144 362
143 363
144 364
145 365
146 365
147 366
147 367
147 368
148 369
149 370
150 371
150 372
150 373
149 374
149 375
148 376
147 377
148 378
149 379
150 380
150 381
151 382
151 383
150 384
149 385
148 386
147 386
147 387
147 388
148 389
148 390
147 391
146 392
145 393
145 394
144 395
143 396
142 397
141 397
142 398
143 398
144 399
145 400
146 400
147 401
148 401
149 402
150 402
151 402
152 402
153 403
154 404
154 405
155 406
156 406
157 406
158 406
159 407
160 407
161 407
162 408
163 409
163 410
163 411
163 412
164 412
165 413
166 413
167 413
168 414
169 414
170 414
171 415
172 416
173 416
174 417
175 417
176 417
177 418
178 419
179 420
179 421
180 422
180 423
180 424
181 424
182 424
183 425
184 425
185 425
186 425
187 425
188 425
189 425
190 425
191 425
192 425
193 426
193 427
193 428
193 429
194 429
195 429
196 429
197 429
198 429
199 429
200 430
201 430
202 431
203 432
203 433
203 434
203 435
204 435
205 435
206 435
207 436
208 436
209 436
210 436
211 436
212 437
213 438
213 439
214 439
215 438
216 438
217 438
218 438
219 438
220 439
221 440
221 441
221 442
222 443
223 443
224 444
225 444
226 444
227 444
228 444
229 444
230 445
231 446
230 447
229 448
228 448
227 449
226 449
225 450
225 451
225 452
225 453
225 454
226 455
226 456
227 455
228 455
229 455
230 455
231 455
232 455
233 455
234 455
235 455
236 456
237 457
237 458
236 459
237 460
238 461
239 461
240 461
241 462
242 462
243 462
244 463
245 463
246 464
247 464
248 464
249 465
249 466
249 467
249 468
249 469
249 470
250 471
251 471
252 471
253 471
254 471
255 471
256 471
257 471
258 471
259 471
260 471
261 471
262 471
263 471
264 472
264 473
265 474
265 475
266 475
267 475
268 475
269 475
270 475
271 475
272 475
273 475
274 476
275 477
276 477
277 477
278 477
279 477
280 477
281 477
282 476
283 476
284 477
285 478
286 478
287 477
288 476
289 476
290 475
291 476
291 477
292 478
292 479
293 480
294 480
295 480
296 480
297 479
298 479
299 479
300 479
301 479
302 479
303 479
304 480
305 481
306 482
307 483
308 484
309 484
310 485
311 485
312 485
313 486
314 486
315 486
316 486
317 486
318 486
319 486
320 486
321 486
322 486
323 486
324 486
325 486
326 486
327 487
328 487
329 488
330 488
331 488
332 488
333 488
334 488
335 488
336 489
337 489
338 489
339 489
340 489
341 489
342 489
343 490
343 491
343 492
343 493
343 494
343 495
343 496
342 497
342 498
343 498
344 497
345 497
346 497
347 497
348 497
349 497
350 497
351 498
352 498
353 498
354 498
355 497
356 497
357 497
358 497
359 497
360 498
361 499
362 499
363 499
364 499
365 498
366 498
367 498
368 498
369 498
370 498
371 498
372 498
373 499
374 500
375 500
376 500
377 500
378 499
379 499
380 499
381 498
382 498
383 498
384 497
385 497
386 497
387 496
388 496
389 496
390 496
391 497
392 498
393 498
394 498
395 497
396 497
397 497
398 496
399 496
400 495
401 495
402 495
403 495
404 496
405 495
405 494
406 493
407 492
408 491
409 490
410 491
411 491
412 492
413 492
414 492
415 492
416 491
417 491
418 491
419 491
420 491
421 491
422 491
423 492
424 492
425 492
426 492
427 491
428 491
429 491
430 491
431 490
432 490
433 490
434 489
435 489
436 488
437 488
438 487
439 487
440 486
441 486
442 486
443 485
444 485
445 485
446 484
447 483
448 482
449 482
450 481
451 481
452 481
453 481
454 480
455 480
456 480
457 480
458 479
459 479
460 479
461 478
462 478
463 477
464 477
465 476
466 476
467 476
468 477
469 477
470 477
470 476
471 475
472 474
473 473
473 472
474 471
475 470
476 470
477 470
478 470
479 470
480 470
481 470
481 469
482 468
482 467
482 466
483 465
484 464
485 464
485 463
486 462
487 461
488 461
489 461
490 460
491 460
492 460
493 461
494 461
495 460
496 460
497 459
498 458
499 458
500 457
501 456
502 456
503 456
504 456
505 457
506 457
506 456
507 455
507 454
508 453
508 452
509 451
510 450
510 449
511 448
512 447
513 448
514 448
515 448
516 449
517 449
518 449
518 448
519 447
520 447
521 447
522 447
523 448
524 449
525 450
525 451
526 452
527 452
528 451
529 452
530 452
531 452
532 452
533 452
534 452
535 451
536 451
537 451
538 451
539 450
540 450
541 449
542 449
543 449
544 448
545 447
546 447
547 446
548 446
549 445
550 444
551 443
551 442
552 441
553 441
554 441
555 441
556 441
557 441
558 440
559 440
560 439
561 438
562 437
563 436
563 435
564 434
564 433
565 432
566 432
567 432
568 432
568 431
568 430
568 429
569 428
570 427
571 427
572 426
573 426
574 426
575 425
576 424
576 423
577 422
577 421
577 420
578 419
578 418
579 417
580 417
581 417
581 416
581 415
581 414
582 413
582 412
582 411
583 410
584 410
585 411
585 412
586 412
587 411
588 411
589 411
590 411
591 411
592 411
593 411
594 410
595 410
596 410
597 409
598 409
599 408
600 407
601 407
602 406
603 405
604 404
605 404
606 403
607 402
608 401
609 400
610 400
611 399
611 398
611 397
612 396
612 395
613 394
614 394
615 393
615 392
615 391
616 390
617 390
618 390
619 390
620 390
621 390
622 389
623 388
624 387
625 386
626 385
627 384
628 383
629 382
630 382
631 382
631 381
631 380
631 379
631 378
632 377
632 376
633 375
634 375
635 375
636 375
637 374
638 374
638 373
638 372
638 371
639 370
639 369
640 368
641 367
641 366
642 365
643 365
644 365
644 364
644 363
644 362
644 361
644 360
645 359
645 358
645 357
645 356
645 355
644 354
644 353
644 352
645 351
646 351
647 350
647 349
647 348
648 347
649 346
650 346
650 345
650 344
650 343
650 342
649 341
649 340
649 339
648 338
648 337
648 336
647 335
647 334
647 333
647 332
647 331
647 330
647 329
647 328
647 327
647 326
647 325
647 324
646 323
646 322
646 321
646 320
646 319
646 318
646 317
646 316
646 315
646 314
646 313
646 312
646 311
646 310
646 309
646 308
646 307
645 306
645 305
644 304
643 303
642 302
641 302
640 301
640 300
639 299
640 298
641 297
642 297
643 297
644 297
645 297
646 297
647 297
648 297
649 297
650 297
651 297
652 297
653 297
654 297
655 297
656 297
657 297
658 297
659 297
660 297
661 298
662 298
663 298
664 298
665 298
666 298
667 299
668 299
669 298
670 298
671 299
672 299
673 299
674 299
675 299
676 299
677 299
678 299
679 299
680 299
681 299
682 299
683 299
684 299
685 299
686 299
687 299
688 299
689 299
690 299
691 299
692 300
693 299
694 299
695 299
696 299
697 299
698 299
699 299
700 299
701 299
702 299
703 299
704 299
705 300
706 300
707 300
708 300
709 300
710 300
711 300
712 300
713 300
714 300
715 300
716 300
717 300
718 299
719 299
720 298
720 297
721 296
721 295
721 294
721 293
721 292
720 291
719 290
719 289
719 288
719 287
719 286
719 285
718 285
717 286
716 286
715 287
714 287
713 288
712 287
711 287
710 287
709 287
708 286
707 287
706 287
705 286
704 287
703 287
702 287
701 287
700 286
699 286
698 286
697 286
696 287
695 287
694 287
693 286
692 286
691 286
690 286
689 286
688 286
687 286
686 286
685 286
684 286
683 286
682 286
681 285
680 286
679 286
678 286
677 286
676 286
675 286
674 286
673 286
672 285
672 284
672 283
672 284
671 285
670 285
669 285
668 286
667 286
666 286
665 285
664 286
663 286
662 285
661 285
660 285
659 285
658 286
657 286
656 285
655 285
654 285
653 285
652 284
651 284
650 284
649 284
648 284
647 284
646 284
645 284
644 284
643 284
642 284
641 284
640 283
639 283
638 283
637 283
636 283
635 283
634 283
633 282
632 281
631 281
630 281
629 280
629 279
630 278
631 277
632 276
633 275
633 274
634 273
635 272
636 271
637 271
637 270
637 269
638 268
639 267
640 267
641 266
642 265
643 264
644 264
644 263
645 262
646 261
647 260
648 260
648 259
648 258
648 257
647 256
648 255
649 254
650 253
651 252
652 251
652 250
651 250
650 249
650 248
650 247
650 246
650 245
650 244
651 243
651 242
651 241
651 240
652 239
652 238
651 238
650 237
650 236
650 235
650 234
651 233
651 232
652 231
652 230
652 229
651 229
650 229
649 228
648 228
647 227
647 226
648 225
648 224
648 223
649 222
650 221
650 220
649 220
648 219
647 219
646 219
645 218
645 217
645 216
645 215
645 214
645 213
645 212
644 211
644 210
644 209
643 208
643 207
642 208
641 208
640 208
639 209
638 209
637 210
636 209
636 208
636 207
636 206
636 205
636 204
636 203
637 202
636 201
636 200
637 199
638 199
638 198
637 197
638 196
638 195
638 194
638 193
638 192
639 191
639 190
639 189
638 189
637 189
636 189
635 188
634 188
633 188
632 189
631 189
630 189
629 188
629 187
629 186
629 185
629 184
629 183
629 182
628 181
627 180
627 179
626 178
626 177
625 176
625 175
625 174
625 173
625 172
625 171
625 170
625 169
624 168
624 167
624 166
623 165
622 164
621 165
620 165
619 164
619 163
619 162
619 161
618 161
617 160
617 159
617 158
617 157
617 156
617 155
617 154
617 153
617 152
616 151
615 152
614 152
613 152
612 153
611 152
611 151
611 150
610 149
610 148
610 147
610 146
609 146
608 146
607 145
606 144
605 143
604 142
603 141
602 141
601 142
600 143
599 144
598 145
598 146
597 147
596 147
595 147
594 147
593 147
592 146
593 145
593 144
592 143
592 142
592 141
592 140
593 139
593 138
592 139
591 139
590 139
589 138
589 137
588 136
588 135
588 134
588 133
587 132
587 131
587 130
587 129
586 129
585 129
584 129
583 129
582 130
581 130
580 130
579 130
578 129
578 128
577 127
577 126
577 125
576 124
576 123
575 122
575 121
574 120
574 119
573 118
572 117
572 116
571 117
570 118
569 119
568 118
567 117
567 116
566 115
565 114
565 113
564 113
563 112
562 112
561 111
560 110
559 110
558 111
557 112
556 112
555 113
554 113
553 114
552 114
551 113
550 112
550 111
550 110
550 109
549 108
548 107
547 106
547 105
546 104
545 103
544 104
543 104
542 105
541 106
540 106
539 106
538 105
538 104
537 103
537 102
536 101
535 100
535 99
534 98
533 98
532 99
531 98
531 97
530 96
530 95
529 94
528 93
527 93
526 92
525 91
524 91
523 92
522 93
521 94
520 94
520 95
519 96
518 97
517 97
516 96
516 95
515 94
515 93
514 92
513 91
512 90
512 89
512 88
511 87
511 86
510 85
510 84
509 84
508 85
507 86
506 86
505 86
504 85
504 84
503 83
503 82
502 81
502 80
501 80
500 81
499 81
498 81
497 80
496 79
495 78
494 77
493 76
492 75
491 76
490 77
489 78
488 78
487 79
486 78
485 77
485 76
484 75
484 74
484 73
483 72
483 71
483 70
483 69
482 69
481 70
480 70
479 71
478 70
477 69
477 68
477 67
477 66
476 66
475 66
474 66
473 65
472 64
471 64
470 63
469 62
468 62
467 61
466 60
466 61
466 62
465 63
465 64
464 65
463 66
462 67
461 66
460 65
459 64
458 63
458 62
457 63
456 64
455 63
454 63
453 62
452 62
451 61
450 61
449 60
448 60
447 60
447 61
447 62
446 63
445 64
444 65
443 65
442 64
441 63
440 62
439 61
438 61
437 60
436 60
435 61
434 62
433 62
432 62
431 61
430 60
429 60
428 60
427 60
