381 126
380 127
379 127
378 127
377 127
376 127
375 127
374 128
373 128
372 128
371 128
370 128
369 128
368 128
367 128
366 128
365 128
364 128
363 128
362 128
361 128
360 128
359 128
358 128
357 128
356 129
355 129
354 129
353 129
352 129
351 129
350 129
349 130
348 130
347 130
346 130
345 130
344 130
343 130
342 130
341 130
340 130
339 131
338 131
337 131
336 131
335 131
334 131
333 131
332 131
331 132
330 132
329 132
328 132
327 133
326 133
325 133
324 133
323 134
322 134
321 134
320 135
319 135
318 135
317 135
316 135
315 136
314 136
313 136
312 136
311 137
310 138
309 139
308 139
307 140
306 140
305 140
304 140
303 141
302 141
301 141
300 141
299 142
298 142
297 143
296 143
295 143
294 143
293 143
292 143
291 144
290 144
289 144
288 145
287 145
286 145
285 145
284 145
283 145
282 146
281 146
280 146
279 146
278 146
277 147
276 147
275 147
274 147
273 147
272 147
271 148
270 148
269 148
268 148
267 149
266 149
265 149
264 150
263 150
262 150
261 151
260 151
259 151
258 152
257 152
256 153
255 153
254 153
253 154
252 154
251 155
250 156
249 157
248 157
247 158
246 158
245 159
244 159
243 160
242 160
241 161
240 162
239 163
238 163
237 164
236 164
235 165
234 165
233 166
232 166
231 167
230 168
229 169
228 169
227 170
226 170
225 171
224 171
223 172
222 172
221 173
220 174
219 174
218 175
217 176
216 176
215 177
214 177
213 178
212 178
211 179
210 179
209 180
208 180
207 181
206 181
205 182
204 182
203 183
202 183
201 184
200 184
199 184
198 185
197 185
196 186
195 187
194 187
193 188
192 189
191 189
190 189
189 190
188 191
187 192
186 192
185 193
184 193
183 194
182 195
181 196
180 197
179 198
178 199
177 200
176 200
176 201
175 202
174 203
173 203
172 204
172 205
172 206
171 207
170 208
169 209
168 210
167 211
166 211
165 212
164 213
163 214
162 215
161 216
160 217
159 218
158 219
157 220
156 221
155 222
154 222
153 223
152 224
151 224
150 225
149 226
148 227
147 228
146 229
145 230
144 230
143 231
142 232
141 233
140 234
139 235
139 236
138 237
137 238
136 239
135 239
134 240
134 241
134 242
134 243
134 244
134 245
133 246
132 247
132 248
132 249
131 250
131 251
130 252
130 253
129 254
129 255
128 256
128 257
127 258
126 259
126 260
125 261
125 262
124 263
123 264
123 265
123 266
122 267
121 268
121 269
120 270
119 271
119 272
118 273
117 274
117 275
116 276
115 277
114 277
113 278
112 279
111 279
110 280
109 281
109 282
108 283
107 283
106 283
105 284
104 284
103 284
102 285
102 286
103 287
104 288
105 288
106 288
107 289
108 289
109 290
110 291
111 292
112 292
113 293
113 294
114 295
115 296
116 297
117 298
118 299
119 300
119 301
120 302
120 303
121 304
122 304
123 305
123 306
123 307
123 308
124 309
125 310
126 311
127 312
128 313
128 314
129 315
130 316
131 316
132 317
133 318
134 319
135 320
136 320
137 321
138 322
139 322
140 323
141 324
142 324
143 325
144 325
145 326
146 327
147 327
148 328
149 328
150 329
151 329
152 330
153 330
154 330
155 331
156 331
157 332
158 332
159 332
160 333
161 333
162 334
163 334
164 335
165 336
166 336
167 337
168 338
169 338
170 339
171 340
172 341
173 342
174 342
175 343
176 343
177 344
178 345
179 345
180 346
181 346
182 347
183 347
184 348
185 348
186 349
187 349
188 349
189 350
190 350
191 351
192 351
193 352
194 352
195 353
196 353
197 354
198 354
199 355
200 355
201 356
202 356
203 357
204 357
205 358
206 358
207 358
208 359
209 360
210 360
211 361
212 361
213 361
214 362
215 362
216 363
217 363
218 364
219 365
220 366
221 367
222 367
223 368
224 368
225 369
226 370
227 370
228 370
229 371
230 371
231 371
232 372
233 372
234 372
235 373
236 373
237 374
238 374
239 374
240 375
241 376
242 376
243 377
244 377
245 377
246 378
247 378
248 378
249 379
250 379
251 380
252 381
253 381
254 381
255 382
256 382
257 382
258 382
259 383
260 383
261 383
262 383
263 383
264 383
265 384
266 384
267 384
268 384
269 384
270 385
271 385
272 385
273 385
274 386
275 386
276 386
277 387
278 387
279 388
280 388
281 388
282 389
283 389
284 390
285 390
286 391
287 391
288 391
289 392
290 393
291 393
292 394
293 394
294 395
295 395
296 396
297 396
298 397
299 397
300 398
301 399
302 399
303 400
304 400
305 400
306 401
307 401
308 402
309 402
310 403
311 403
312 403
313 404
314 404
315 405
316 405
317 405
318 406
319 407
320 407
321 408
322 408
323 408
324 408
325 408
326 408
327 409
328 409
329 409
330 409
331 409
332 409
333 409
334 409
335 409
336 409
337 410
338 410
339 410
340 410
341 410
342 410
343 410
344 410
345 410
346 411
347 411
348 411
349 411
350 411
351 411
352 411
353 411
354 411
355 411
356 411
357 411
358 411
359 411
360 411
361 412
362 412
363 412
364 412
365 412
366 412
367 412
368 412
369 412
370 412
371 412
372 412
373 412
374 412
375 412
376 412
377 412
378 413
379 413
380 413
381 413
382 413
383 413
384 413
385 413
386 413
387 412
388 412
389 412
390 412
391 412
392 412
393 412
394 412
395 412
396 412
397 412
398 412
399 412
400 412
401 411
402 411
403 411
404 411
405 411
406 410
407 410
408 410
409 410
410 410
411 410
412 409
413 409
414 409
415 409
416 408
417 408
418 408
419 408
420 407
421 407
422 407
423 406
424 406
425 406
426 406
427 406
428 406
429 405
430 405
431 405
432 405
433 404
434 404
435 404
436 404
437 404
438 403
439 403
440 403
441 403
442 402
443 402
444 402
445 402
446 401
447 401
448 401
449 401
450 400
451 400
452 400
453 399
454 399
455 399
456 399
457 398
458 398
459 398
460 397
461 397
462 397
463 396
464 396
465 396
466 395
467 395
468 395
469 394
470 394
471 394
472 393
473 393
474 393
475 393
476 392
477 392
478 392
479 391
480 391
481 391
482 391
483 390
484 390
485 389
486 389
487 389
488 388
489 388
490 388
491 387
492 387
493 387
494 386
495 386
496 386
497 385
498 385
499 385
500 384
501 384
502 384
503 384
504 384
505 383
505 382
506 381
507 380
508 380
509 379
510 378
511 378
512 377
513 377
514 376
515 376
516 375
517 375
518 374
519 373
520 373
521 372
522 371
523 370
524 369
525 368
526 368
527 367
528 367
528 366
529 365
530 364
531 364
532 363
533 362
534 361
535 360
536 359
537 358
538 358
539 357
540 356
541 355
542 354
543 353
544 353
545 352
546 352
547 351
548 350
549 349
550 348
551 348
552 347
553 346
554 345
555 345
556 344
557 343
558 342
559 342
560 341
561 340
562 339
563 339
564 338
565 337
566 336
567 335
568 335
569 334
570 333
571 332
572 331
573 330
574 330
575 329
576 328
577 327
578 327
579 326
580 325
581 324
582 324
583 323
584 322
585 321
586 320
587 320
588 319
589 318
590 318
591 317
592 316
593 316
594 315
595 314
596 314
596 313
597 312
598 312
599 311
600 310
601 309
602 309
603 308
604 307
605 306
606 306
607 305
608 304
609 303
610 302
611 302
612 301
613 300
614 299
615 299
616 298
617 297
618 296
619 296
619 295
620 294
621 293
622 293
623 292
624 291
625 290
626 289
627 289
628 288
629 287
630 286
631 286
632 285
633 284
634 283
635 282
636 282
637 281
638 280
639 279
640 278
641 277
642 277
643 277
644 276
645 275
646 274
647 274
648 273
649 272
650 272
651 272
652 271
653 271
654 270
655 270
656 270
657 269
658 269
659 268
660 268
661 268
662 268
663 268
664 267
665 267
666 267
667 267
668 267
669 267
670 266
671 266
672 266
673 266
674 266
675 266
676 266
677 266
678 266
679 266
680 266
681 266
682 266
683 266
684 266
685 266
686 266
687 266
688 266
689 267
690 267
691 267
692 267
693 267
694 267
695 267
696 267
697 267
698 267
699 267
700 268
701 268
702 268
703 268
704 268
705 268
706 268
707 269
708 269
709 269
710 269
711 269
712 270
713 270
714 270
715 270
716 271
717 271
718 271
719 271
720 271
721 272
722 272
723 272
724 272
725 273
726 273
727 273
728 273
729 274
730 274
731 274
732 275
733 275
734 275
735 275
736 275
737 276
738 276
739 276
740 277
741 277
742 277
743 277
744 277
745 277
746 276
747 276
748 275
748 274
748 273
749 272
749 271
748 270
748 269
748 268
748 267
748 266
748 265
748 264
748 263
748 262
747 261
746 260
745 260
744 259
743 260
742 260
741 260
740 260
739 260
738 260
737 260
736 260
735 259
734 258
733 258
732 258
731 258
730 257
729 257
728 256
727 256
726 256
725 256
724 255
723 255
722 255
721 254
720 254
719 254
718 254
717 253
716 253
715 253
714 253
713 252
712 252
711 252
710 252
709 251
708 251
707 251
706 251
705 250
704 250
703 250
702 250
701 250
700 249
699 249
698 249
697 249
696 249
695 248
694 248
693 248
692 248
691 248
690 248
689 247
688 247
687 247
686 247
685 247
684 247
683 247
682 246
681 246
680 246
679 246
678 246
677 246
676 246
675 246
674 246
673 246
672 245
671 245
670 245
669 245
668 245
667 245
666 245
665 245
664 245
663 244
662 244
661 243
660 243
659 243
658 243
657 243
656 242
655 241
654 241
653 241
652 241
651 241
650 240
649 239
648 239
647 238
646 237
645 237
644 237
643 236
642 236
641 236
640 235
639 234
638 233
637 233
636 232
635 231
634 231
633 230
632 229
631 228
630 227
629 227
628 226
627 225
626 225
625 224
624 223
623 222
622 221
621 221
620 220
619 220
618 219
618 218
617 218
616 217
615 217
614 216
613 215
612 214
611 214
610 213
609 212
608 212
607 211
606 210
605 210
604 209
603 209
602 208
601 207
600 206
599 205
598 205
597 204
596 203
595 203
594 202
593 201
592 201
591 200
590 199
589 199
588 198
587 197
586 196
585 196
584 195
583 194
582 193
581 193
580 192
579 192
578 191
577 190
576 190
575 189
574 188
573 187
572 187
571 186
570 185
569 184
568 184
567 183
566 182
565 182
564 181
563 181
562 180
561 180
560 179
559 178
558 177
557 177
556 176
555 176
554 175
553 175
552 174
551 173
550 173
549 172
548 171
547 171
546 170
545 170
544 169
543 169
542 168
541 167
540 167
539 166
538 165
537 165
536 164
535 164
534 163
533 163
532 162
531 162
530 161
529 161
528 160
527 160
526 159
525 159
524 159
523 158
522 158
521 157
520 157
519 157
518 156
517 155
516 155
515 155
514 154
513 154
512 153
511 153
510 153
509 153
508 152
507 152
506 151
505 151
504 151
503 150
502 150
501 149
500 149
499 149
498 149
497 149
496 148
495 148
494 148
493 147
492 147
491 147
490 147
489 147
488 146
487 146
486 146
485 145
484 145
483 145
482 145
481 145
480 145
479 144
478 144
477 143
476 143
475 143
474 143
473 142
472 142
471 142
470 141
469 141
468 141
467 141
466 141
465 141
464 141
463 140
462 140
461 140
460 140
459 140
458 139
457 139
456 139
455 139
454 139
453 138
452 138
451 138
450 138
449 138
448 138
447 137
446 137
445 137
444 137
443 137
442 136
441 136
440 136
439 136
438 136
437 136
436 135
435 135
434 135
433 135
432 135
431 134
430 134
429 134
428 134
427 134
426 133
425 133
424 133
423 133
422 132
421 132
420 132
419 132
418 131
417 131
416 131
415 131
414 130
413 130
412 130
411 130
410 130
409 130
408 129
407 129
406 129
405 128
404 128
403 128
402 128
401 128
400 128
399 128
398 127
397 127
396 127
395 127
394 127
393 127
392 127
391 127
390 126
389 126
388 126
387 126
386 126
385 126
384 126
383 126
382 126
381 126
