362 54
361 55
360 55
359 55
358 55
357 55
356 55
355 55
354 55
353 55
352 55
351 55
350 55
349 56
348 56
347 56
346 56
345 56
344 56
343 57
342 57
341 57
340 57
339 57
338 57
337 58
336 58
335 58
334 58
333 58
332 58
331 59
330 59
329 59
328 59
327 59
326 60
325 60
324 60
323 61
322 61
321 61
320 62
319 62
318 62
317 63
316 63
315 63
314 64
313 64
312 64
311 65
310 65
309 65
308 65
307 65
306 66
305 66
304 66
303 67
302 67
301 67
300 68
299 68
298 69
297 69
296 69
295 69
294 70
293 70
292 70
291 71
290 71
289 71
288 72
287 72
286 72
285 73
284 73
283 73
282 73
281 74
280 74
279 74
278 75
277 75
276 75
275 76
274 76
273 76
272 77
271 77
270 78
269 78
268 79
267 79
266 80
265 81
264 81
263 81
262 82
261 83
260 83
259 84
258 84
257 84
256 85
255 85
254 86
253 86
252 87
251 87
250 88
249 88
248 89
247 89
246 90
245 91
244 91
243 92
242 92
241 93
240 94
239 94
238 95
237 95
236 95
235 96
234 96
233 97
232 97
231 98
230 99
229 99
228 99
227 100
226 100
225 101
224 101
223 102
222 102
221 103
220 103
219 104
218 104
217 105
216 105
215 105
214 105
213 106
212 106
211 106
210 107
209 107
208 107
207 108
206 108
205 109
204 109
203 109
202 110
201 110
200 111
199 112
198 112
197 113
196 113
195 114
194 114
193 115
192 116
191 117
190 117
189 118
188 119
187 119
186 120
185 121
184 122
183 123
182 123
181 124
180 125
179 126
178 127
177 128
176 129
175 130
174 131
173 132
172 133
171 134
170 135
169 136
168 136
167 136
166 137
165 137
164 137
163 138
162 138
161 139
160 139
159 140
158 140
157 141
156 141
155 142
154 143
153 143
152 144
151 145
150 145
149 145
148 146
147 146
146 147
145 147
144 148
143 148
142 148
141 149
140 150
139 150
138 150
137 151
136 152
135 152
134 153
133 154
132 154
131 155
130 156
129 156
128 157
127 158
126 158
125 159
124 160
123 161
122 162
121 162
120 163
119 164
118 165
117 166
116 166
115 167
114 168
113 169
112 170
111 171
110 171
109 172
108 173
107 174
106 175
105 175
104 176
103 177
102 178
101 178
100 179
99 180
98 180
97 181
96 182
95 182
94 183
93 184
92 184
91 185
90 185
89 186
88 186
87 187
86 187
85 188
84 188
83 189
82 189
81 190
80 190
79 191
78 192
77 192
76 193
75 193
74 194
73 194
72 194
71 195
70 195
69 196
68 196
67 197
66 197
65 198
64 198
63 199
62 199
61 200
60 201
59 201
58 202
57 203
56 203
56 204
57 205
58 206
59 207
60 208
61 208
62 209
63 209
64 209
65 210
66 210
67 211
68 211
69 212
70 212
71 213
72 213
73 214
74 214
75 215
76 215
77 216
78 216
79 217
80 218
81 218
82 219
83 220
84 220
85 221
86 222
87 223
88 223
89 224
90 225
91 225
92 226
93 227
94 227
95 228
96 229
97 229
98 230
99 231
100 232
101 233
102 234
103 235
104 236
105 237
106 238
107 239
108 240
108 241
109 242
110 243
111 244
112 245
113 245
114 246
115 247
116 248
117 249
118 249
119 250
120 251
121 252
122 252
123 253
124 254
125 254
126 255
127 255
128 256
129 256
130 257
131 258
132 258
133 259
134 260
135 261
136 262
137 263
138 264
139 265
140 266
141 267
142 268
143 269
144 269
145 270
146 271
147 271
148 272
149 273
150 273
151 274
152 275
153 276
154 277
155 278
156 279
157 280
158 281
159 282
160 283
161 284
162 284
163 285
164 286
165 287
166 287
167 288
168 289
169 290
170 291
171 292
172 293
173 294
174 295
175 296
176 297
177 298
178 299
179 300
180 300
181 301
182 302
183 303
184 304
185 304
186 305
187 306
188 306
189 307
190 308
191 309
192 310
193 310
194 311
195 312
196 312
197 313
198 314
199 314
200 315
201 316
202 316
203 317
204 318
205 319
206 319
207 320
208 320
209 321
210 321
211 322
212 323
213 323
214 324
215 324
216 325
217 326
218 326
219 326
220 327
221 328
222 328
223 328
224 329
225 330
226 330
227 330
228 331
229 331
230 332
231 333
232 333
233 334
234 335
235 335
236 336
237 336
238 337
239 337
240 337
241 338
242 339
243 339
244 340
245 340
246 341
247 342
248 342
249 342
250 343
251 343
252 343
253 344
254 344
255 345
256 345
257 346
258 346
259 347
260 347
261 347
262 348
263 348
264 348
265 349
266 349
267 349
268 350
269 350
270 350
271 351
272 352
273 352
274 352
275 353
276 354
277 354
278 355
279 355
280 355
281 356
282 356
283 357
284 357
285 357
286 358
287 358
288 359
289 359
290 359
291 360
292 360
293 361
294 361
295 361
296 361
297 362
298 362
299 362
300 363
301 363
302 363
303 363
304 363
305 363
306 363
307 364
308 364
309 364
310 364
311 364
312 364
313 364
314 364
315 364
316 364
317 365
318 365
319 365
320 365
321 365
322 365
323 365
324 365
325 366
326 366
327 366
328 366
329 367
330 367
331 367
332 367
333 367
334 368
335 368
336 368
337 368
338 368
339 368
340 368
341 368
342 368
343 368
344 368
345 368
346 369
347 369
348 369
349 369
350 369
351 370
352 370
353 371
354 371
355 371
356 371
357 371
358 372
359 372
360 372
361 372
362 373
363 373
364 373
365 373
366 373
367 374
368 374
369 374
370 374
371 374
372 374
373 374
374 374
375 374
376 374
377 374
378 374
379 374
380 374
381 374
382 374
383 374
384 374
385 374
386 374
387 374
388 374
389 374
390 374
391 374
392 374
393 374
394 374
395 374
396 374
397 374
398 374
399 374
400 374
401 374
402 374
403 374
404 374
405 374
406 374
407 374
408 374
409 374
410 374
411 374
412 374
413 374
414 373
415 373
416 373
417 373
418 373
419 373
420 372
421 372
422 372
423 372
424 372
425 372
426 371
427 371
428 371
429 371
430 370
431 370
432 370
433 369
434 369
435 369
436 369
437 369
438 368
439 368
440 368
441 368
442 368
443 368
444 367
445 367
446 367
447 367
448 367
449 367
450 366
451 366
452 366
453 366
454 365
455 365
456 365
457 364
458 364
459 364
460 364
461 363
462 363
463 363
464 363
465 362
466 362
467 362
468 361
469 361
470 361
471 361
472 361
473 360
474 360
475 360
476 360
477 360
478 359
479 359
480 359
481 359
482 359
483 358
484 358
485 358
486 358
487 357
488 357
489 357
490 357
491 356
492 356
493 356
494 355
495 355
496 355
497 354
498 354
499 354
500 353
501 353
502 352
503 352
504 351
505 351
506 350
507 350
508 349
509 349
510 348
511 348
512 347
513 346
514 346
515 346
516 345
517 344
518 344
519 344
519 343
520 342
521 342
522 341
523 340
524 340
525 339
526 339
527 338
528 338
529 337
530 336
531 336
532 335
533 334
533 333
534 332
535 332
535 331
536 330
537 330
537 329
538 328
539 327
540 326
541 325
542 324
543 323
544 322
544 321
545 320
546 320
547 319
547 318
548 317
549 316
550 315
551 314
552 313
553 312
554 311
555 310
556 309
557 309
558 308
559 307
560 306
560 305
561 304
562 304
563 303
564 302
565 301
566 300
567 299
568 298
569 298
570 297
571 296
572 295
573 294
574 293
575 292
575 291
576 290
577 289
577 288
578 287
579 286
580 285
580 284
581 283
582 282
582 281
583 280
584 279
585 278
586 277
586 276
587 275
588 274
588 273
589 272
590 271
591 270
591 269
592 268
592 267
593 266
594 266
595 265
595 264
596 263
596 262
597 261
598 260
598 259
598 258
599 257
600 256
600 255
600 254
601 253
602 252
602 251
603 250
603 249
604 248
604 247
605 246
606 245
606 244
607 243
607 242
607 241
608 240
609 239
609 238
610 237
610 236
611 235
611 234
612 233
612 232
613 231
613 230
613 229
614 228
614 227
615 226
615 225
615 224
616 223
616 222
616 221
616 220
616 219
616 218
616 217
616 216
617 215
617 214
617 213
617 212
618 211
618 210
618 209
618 208
619 207
619 206
619 205
620 204
620 203
620 202
620 201
620 200
620 199
621 198
621 197
621 196
622 195
622 194
623 193
624 193
625 192
626 191
627 191
628 191
629 191
630 190
631 190
632 190
633 190
634 190
635 190
636 189
637 189
638 189
639 189
640 189
641 189
642 189
643 188
644 188
645 188
646 188
647 188
648 188
649 187
650 188
651 188
652 187
653 187
654 187
655 187
656 187
657 187
658 187
659 186
660 186
661 186
662 186
663 186
664 186
665 185
666 185
667 185
668 185
669 184
670 183
671 184
672 184
673 184
674 184
675 183
676 183
677 183
678 183
679 182
680 182
681 182
682 182
683 182
684 182
685 182
686 181
687 181
688 181
689 181
690 181
691 181
692 181
693 180
694 180
695 180
696 180
697 180
698 180
699 180
700 180
701 180
702 180
703 179
704 179
705 179
706 179
707 178
708 178
709 178
710 178
711 178
712 178
713 177
714 177
715 177
716 177
717 176
718 176
719 176
720 176
721 176
722 175
723 175
724 175
725 175
726 174
727 174
728 174
729 173
730 172
731 171
731 170
731 169
732 168
732 167
732 166
732 165
732 164
732 163
731 162
731 161
731 160
731 159
730 158
730 157
729 157
728 157
727 157
726 158
725 158
724 158
723 159
722 159
721 159
720 160
719 160
718 160
717 161
716 161
715 161
714 161
713 162
712 162
711 162
710 162
709 162
708 163
707 163
706 163
705 164
704 164
703 164
702 164
701 164
700 165
699 165
698 165
697 165
696 165
695 165
694 166
693 166
692 166
691 166
690 166
689 167
688 167
687 167
686 167
685 167
684 168
683 168
682 168
681 168
680 168
679 168
678 169
677 169
676 169
675 169
674 169
673 169
672 169
671 170
670 170
669 170
668 170
667 170
666 170
665 171
664 171
663 171
662 171
661 171
660 171
659 171
658 171
657 172
656 172
655 172
654 172
653 172
652 173
651 172
650 172
649 173
648 173
647 173
646 173
645 173
644 173
643 173
642 173
641 173
640 173
639 174
638 174
637 174
636 174
635 174
634 173
633 172
632 172
631 171
631 170
630 169
629 168
628 167
627 166
627 165
626 164
626 163
625 162
624 161
624 160
623 159
623 158
622 157
621 156
621 155
620 154
620 153
620 152
619 151
619 150
618 149
617 148
617 147
616 146
615 145
615 144
614 143
613 142
612 141
612 140
611 139
610 138
609 137
608 136
608 135
607 134
606 133
605 132
604 131
603 130
602 129
601 129
600 128
599 127
599 126
598 125
597 124
596 123
595 122
594 121
593 120
592 119
591 118
590 117
589 116
588 115
587 114
586 113
585 112
584 111
583 110
582 109
581 108
580 107
579 106
578 105
577 104
576 103
575 103
574 102
573 101
572 100
571 99
570 99
569 98
568 97
567 97
566 96
565 95
564 94
563 94
562 93
561 92
560 91
559 91
558 90
557 89
556 89
555 88
554 87
553 87
552 86
551 85
550 85
549 84
548 83
547 83
546 82
545 82
544 81
543 81
542 80
541 80
540 79
539 79
538 78
537 77
536 77
535 76
534 76
533 75
532 75
531 75
530 74
529 74
528 74
527 73
526 73
525 73
524 72
523 72
522 72
521 72
520 72
519 71
518 71
517 71
516 71
515 70
514 70
513 70
512 69
511 69
510 69
509 69
508 69
507 68
506 68
505 68
504 68
503 67
502 67
501 67
500 67
499 67
498 67
497 67
496 66
495 66
494 66
493 66
492 66
491 65
490 65
489 65
488 65
487 65
486 65
485 64
484 64
483 64
482 63
481 63
480 63
479 63
478 62
477 62
476 62
475 62
474 61
473 61
472 61
471 60
470 60
469 60
468 59
467 59
466 59
465 59
464 59
463 59
462 59
461 59
460 58
459 58
458 58
457 58
456 58
455 58
454 58
453 58
452 58
451 58
450 58
449 58
448 58
447 58
446 58
445 58
444 58
443 58
442 58
441 58
440 57
439 57
438 57
437 57
436 57
435 57
434 57
433 57
432 57
431 57
430 58
429 57
428 57
427 57
426 57
425 57
424 57
423 57
422 57
421 57
420 57
419 58
418 58
417 58
416 58
415 58
414 58
413 58
412 58
411 58
410 59
409 59
408 59
407 59
406 59
405 59
404 59
403 59
402 58
401 58
400 58
399 58
398 58
397 58
396 58
395 58
394 58
393 58
392 58
391 57
390 57
389 57
388 58
387 58
386 57
385 57
384 57
383 57
382 56
381 56
380 56
379 55
378 55
377 55
376 55
375 55
374 54
373 54
372 54
371 54
370 54
369 54
368 54
367 54
366 54
365 54
364 54
363 54
362 54
