201 7
200 8
199 8
198 8
197 9
196 9
195 9
194 10
193 11
192 12
192 13
191 14
190 15
189 16
188 17
187 18
186 18
185 18
184 18
183 18
182 18
181 18
180 18
179 18
178 18
177 18
176 18
175 17
174 17
173 17
172 17
171 17
170 16
169 16
168 16
167 16
166 16
165 16
164 16
163 16
162 16
161 16
160 16
159 16
158 16
157 17
156 17
155 17
154 17
153 17
152 17
151 17
150 18
149 18
148 18
147 19
146 19
145 19
144 20
143 21
142 21
141 22
140 23
140 24
139 25
138 26
138 27
137 28
137 29
137 30
137 31
136 32
136 33
136 34
136 35
136 36
136 37
136 38
136 39
136 40
136 41
136 42
137 43
137 44
137 45
138 46
138 47
138 48
139 49
139 50
140 51
140 52
140 53
141 54
141 55
142 56
142 57
142 58
143 59
143 60
143 61
144 62
144 63
144 64
145 65
145 66
145 67
145 68
146 69
146 70
146 71
147 72
147 73
147 74
148 75
148 76
149 77
149 78
150 79
150 80
151 81
151 82
152 83
153 84
153 85
154 86
155 87
155 88
156 89
156 90
157 91
158 92
159 93
160 94
160 95
161 96
162 97
163 98
164 99
165 100
166 101
167 102
168 103
169 104
170 105
171 105
172 106
173 107
174 108
175 108
176 109
177 110
178 111
179 112
180 112
181 113
181 114
182 115
183 116
184 117
184 118
185 119
185 120
186 121
187 122
188 123
189 123
190 124
191 125
192 126
193 126
194 127
195 128
196 128
197 129
198 130
198 131
199 132
199 133
198 134
197 135
196 136
195 136
194 136
193 136
192 135
191 135
190 135
189 135
188 134
187 134
186 134
185 134
184 133
183 133
182 133
181 133
180 133
179 133
178 133
177 133
176 132
175 132
174 132
173 132
172 132
171 132
170 131
169 131
168 131
167 131
166 131
165 131
164 131
163 130
162 130
161 130
160 130
159 129
158 129
157 129
156 129
155 129
154 129
153 128
152 128
151 127
150 127
149 127
148 126
147 126
146 125
145 125
144 125
143 124
142 124
141 123
140 123
139 123
138 122
137 122
136 121
135 121
134 120
133 120
132 120
131 119
130 119
129 119
128 118
127 118
126 118
125 118
124 117
123 117
122 117
121 117
120 116
119 116
118 116
117 116
116 116
115 115
114 115
113 115
112 115
111 115
110 115
109 115
108 115
107 115
106 115
105 115
104 115
103 115
102 115
101 115
100 115
99 115
98 115
97 115
96 115
95 115
94 116
93 116
92 116
91 116
90 116
89 116
88 116
87 116
86 117
85 117
84 117
83 118
82 118
81 118
80 119
79 119
78 120
77 121
76 122
75 123
75 124
74 125
73 126
73 127
73 128
72 129
72 130
72 131
72 132
72 133
71 134
71 135
71 136
71 137
71 138
71 139
71 140
71 141
71 142
71 143
71 144
71 145
71 146
71 147
70 148
69 149
68 150
67 151
66 151
65 152
64 152
63 153
62 153
61 154
60 154
59 154
58 155
57 155
56 156
55 157
54 157
53 158
52 158
51 159
50 159
49 160
48 161
47 161
46 162
45 162
44 163
43 164
42 165
41 166
40 167
39 168
38 168
37 169
36 170
35 170
34 171
33 172
32 173
31 173
30 174
29 175
28 176
27 177
27 178
26 179
25 180
25 181
24 182
23 183
23 184
23 185
22 186
22 187
22 188
22 189
22 190
23 191
23 192
23 193
23 194
23 195
23 196
24 197
24 198
24 199
25 200
26 201
26 202
27 203
28 203
29 204
30 204
31 205
32 206
33 207
34 208
35 208
36 209
37 210
38 211
39 212
40 213
41 214
42 215
43 216
44 217
45 218
46 218
47 219
48 220
49 221
50 221
51 222
52 223
53 223
54 224
55 225
56 225
57 226
58 227
59 227
60 227
61 228
62 228
63 228
64 228
65 229
66 229
67 230
68 230
69 231
70 232
71 232
72 233
72 234
72 235
72 236
72 237
72 238
72 239
72 240
73 241
73 242
73 243
73 244
73 245
73 246
74 247
74 248
74 249
75 250
76 251
76 252
77 253
78 254
79 255
80 256
81 257
82 257
83 258
84 258
85 259
86 259
87 260
88 260
89 260
90 261
91 261
92 261
93 261
94 262
95 262
96 262
97 262
98 262
99 263
100 263
101 263
102 263
103 263
104 263
105 263
106 263
107 263
108 263
109 263
110 263
111 263
112 264
113 264
114 263
115 263
116 263
117 263
118 263
119 263
120 263
121 263
122 262
123 262
124 262
125 262
126 262
127 261
128 261
129 261
130 261
131 261
132 260
133 260
134 260
135 260
136 259
137 259
138 259
139 259
140 258
141 258
142 258
143 258
144 258
145 258
146 258
147 257
148 257
149 257
150 256
151 256
152 255
153 255
154 255
155 254
156 254
157 254
158 254
159 254
160 254
161 254
162 254
163 254
164 254
165 254
166 254
167 254
168 254
169 254
170 254
171 254
172 254
173 255
174 255
175 255
176 256
177 256
178 256
179 257
179 258
179 259
179 260
179 261
178 262
178 263
177 264
177 265
177 266
176 267
176 268
175 269
175 270
174 271
174 272
173 273
173 274
172 275
171 276
171 277
170 278
169 279
168 280
167 281
167 282
166 283
165 284
165 285
164 286
163 287
162 288
161 289
160 290
159 291
158 292
157 293
156 294
155 295
155 296
154 297
153 298
152 299
152 300
151 301
150 302
149 303
148 304
147 305
146 305
145 306
145 307
144 308
143 309
142 310
141 311
140 312
140 313
140 314
139 315
138 316
138 317
138 318
137 319
137 320
137 321
136 322
136 323
136 324
136 325
135 326
135 327
135 328
135 329
134 330
134 331
134 332
134 333
133 334
133 335
133 336
133 337
133 338
133 339
132 340
132 341
132 342
132 343
132 344
131 345
131 346
131 347
131 348
131 349
131 350
131 351
131 352
131 353
131 354
131 355
131 356
131 357
131 358
132 359
132 360
133 361
134 362
135 363
136 364
137 365
138 365
139 366
140 366
141 367
142 367
143 367
144 367
145 367
146 367
147 367
148 367
149 367
150 367
151 368
152 368
153 368
154 368
155 368
156 367
157 367
158 368
159 368
160 368
161 368
162 368
163 368
164 368
165 368
166 368
167 368
168 368
169 367
170 367
171 367
172 367
173 367
174 367
175 366
176 366
177 366
178 366
179 365
180 365
181 365
182 365
183 365
184 365
185 365
186 365
187 366
188 367
189 367
190 368
191 369
192 369
193 370
194 370
195 371
196 371
197 371
198 371
199 371
200 371
201 371
202 371
203 371
204 371
205 371
206 371
207 371
208 370
209 370
210 370
211 369
212 369
213 368
214 368
215 367
216 367
217 366
218 366
219 365
220 364
221 363
222 362
223 362
224 361
225 360
226 359
227 358
228 358
229 357
230 356
231 355
232 354
233 353
234 352
235 351
236 350
237 349
238 348
239 347
240 346
241 345
242 344
243 343
244 342
245 341
246 340
247 339
248 338
249 337
250 336
251 335
252 334
253 333
254 332
255 331
256 331
257 330
258 329
259 329
260 328
261 328
262 328
263 328
264 328
265 328
266 329
267 330
267 331
268 332
268 333
269 334
269 335
269 336
270 337
270 338
270 339
270 340
270 341
271 342
271 343
271 344
271 345
272 346
272 347
273 348
273 349
273 350
274 351
274 352
275 353
275 354
276 355
277 356
277 357
278 358
279 359
279 360
280 361
280 362
280 363
281 364
282 365
282 366
283 367
284 368
285 369
286 370
287 371
288 371
289 372
290 373
291 373
292 374
293 374
294 374
295 374
296 375
297 375
298 375
299 375
300 375
301 375
302 375
303 375
304 374
305 374
306 373
307 373
308 372
309 371
310 371
311 370
312 369
313 368
314 367
314 366
315 365
315 364
316 363
316 362
317 361
317 360
318 359
319 358
320 357
320 356
321 355
322 354
322 353
323 352
324 351
324 350
325 349
326 348
326 347
327 346
328 345
328 344
329 343
329 342
329 341
330 340
330 339
331 338
331 337
331 336
332 335
332 334
333 333
333 332
334 331
334 330
335 329
335 328
335 327
336 326
336 325
337 324
337 323
337 322
337 321
338 320
338 319
338 318
338 317
338 316
339 315
339 314
339 313
339 312
339 311
340 310
340 309
340 308
340 307
340 306
340 305
341 304
341 303
341 302
341 301
341 300
341 299
341 298
341 297
341 296
341 295
341 294
341 293
341 292
341 291
341 290
341 289
341 288
341 287
341 286
342 285
342 284
342 283
342 282
342 281
342 280
342 279
342 278
342 277
342 276
342 275
342 274
342 273
342 272
342 271
342 270
342 269
342 268
342 267
342 266
342 265
342 264
342 263
342 262
342 261
342 260
342 259
342 258
342 257
342 256
342 255
342 254
342 253
342 252
342 251
343 250
343 249
343 248
343 247
343 246
343 245
343 244
343 243
343 242
343 241
343 240
343 239
343 238
343 237
343 236
343 235
344 234
344 233
344 232
344 231
344 230
344 229
344 228
344 227
344 226
344 225
344 224
344 223
344 222
344 221
344 220
344 219
344 218
344 217
344 216
343 215
343 214
343 213
343 212
343 211
343 210
343 209
343 208
343 207
342 206
342 205
342 204
342 203
341 202
341 201
340 200
340 199
340 198
339 197
338 196
338 195
339 194
340 194
341 194
342 195
343 195
344 195
345 196
346 196
347 197
348 197
349 198
350 199
351 199
352 200
353 201
354 202
355 202
356 203
357 204
358 205
359 206
360 206
361 207
362 208
363 208
364 209
365 210
366 210
367 211
368 211
369 212
370 212
371 213
372 213
373 214
374 214
375 215
376 216
377 216
378 216
379 217
380 217
381 217
382 218
383 218
384 218
385 219
386 219
387 220
388 220
389 221
390 221
391 222
392 222
393 222
394 223
395 223
396 223
397 224
398 224
399 225
400 225
401 226
402 226
403 226
404 227
405 227
406 227
407 228
408 228
409 229
410 229
411 229
412 229
413 230
414 230
415 230
416 230
417 230
418 230
419 230
420 231
421 231
422 231
423 231
424 231
425 231
426 231
427 231
428 231
429 231
430 231
431 231
432 231
433 231
434 231
435 231
436 231
437 231
438 231
439 231
440 231
441 231
442 231
443 230
444 230
445 230
446 230
447 230
448 230
449 230
450 229
451 229
452 229
453 229
454 229
455 229
456 229
457 229
458 228
459 228
460 228
461 228
462 228
463 228
464 227
465 227
466 227
467 227
468 227
469 227
470 226
471 226
472 226
473 226
474 226
475 226
476 225
477 225
478 225
479 225
480 225
481 224
482 224
483 224
484 224
485 224
486 224
487 223
488 223
489 223
490 223
491 223
492 223
493 222
494 222
495 222
496 222
497 222
498 222
499 221
500 221
501 221
502 221
503 221
504 221
505 220
506 220
507 220
508 220
509 220
510 220
511 220
512 220
513 219
514 219
515 219
516 219
517 219
518 219
519 219
520 219
521 218
522 218
523 218
524 218
525 218
526 218
527 218
528 217
529 217
530 217
531 217
532 217
533 217
534 217
535 216
536 216
537 216
538 216
539 216
540 216
541 215
542 215
543 215
544 215
545 215
546 215
547 214
548 214
549 214
550 214
551 214
552 214
553 213
554 213
555 213
556 213
557 213
558 213
559 212
560 212
561 212
562 212
563 212
564 212
565 211
566 211
567 211
568 211
569 210
570 210
571 210
572 210
573 210
574 209
575 209
576 209
577 209
578 209
579 209
580 208
581 208
582 208
583 208
584 208
585 208
586 207
587 207
588 207
589 207
590 207
591 206
592 206
593 206
594 206
595 206
596 206
597 205
598 205
599 205
600 205
601 205
602 204
603 204
604 204
605 204
606 203
607 203
608 203
609 203
610 203
611 203
612 202
613 202
614 202
615 202
616 202
617 201
618 201
619 201
620 201
621 201
622 201
623 200
624 200
625 200
626 200
627 200
628 199
629 199
630 199
631 199
632 199
633 199
634 198
635 198
636 198
637 198
638 198
639 197
640 197
641 197
642 197
643 197
644 197
645 196
646 196
647 196
648 196
649 196
650 195
651 195
652 195
653 195
654 194
655 194
656 194
657 194
658 194
659 194
660 193
661 193
662 193
663 193
664 193
665 192
666 192
667 192
668 192
669 192
670 191
671 191
672 191
673 191
674 191
675 191
676 190
677 190
678 190
679 190
680 190
681 189
682 189
683 189
684 189
685 189
686 188
687 188
688 188
689 188
690 188
691 188
692 187
693 187
694 187
695 187
696 187
697 186
698 186
699 186
700 186
701 186
702 186
703 186
704 185
705 185
706 185
707 185
708 185
709 185
710 185
711 184
712 184
713 184
714 184
715 184
716 184
717 184
718 184
719 184
720 183
721 183
722 183
723 183
724 183
725 183
726 183
727 183
728 183
729 183
730 183
731 183
732 182
733 182
734 182
735 182
736 182
737 182
738 182
739 182
740 182
741 182
742 182
743 183
744 183
745 183
746 183
747 183
748 183
749 183
750 183
751 183
752 183
753 184
754 184
755 184
756 184
757 184
758 185
759 185
760 185
761 186
762 186
763 186
764 187
765 187
766 188
767 189
768 189
769 190
770 191
771 192
772 193
773 194
774 195
775 196
776 196
777 197
778 198
779 198
780 198
781 198
782 197
783 196
783 195
783 194
784 193
784 192
785 191
786 190
787 189
787 188
788 187
788 186
789 185
788 185
787 184
786 184
785 183
784 183
783 183
782 182
781 182
780 182
779 182
778 182
777 181
776 181
775 181
774 180
773 180
772 180
771 180
770 179
769 179
768 179
767 179
766 179
765 179
764 179
763 179
762 178
761 178
760 178
759 177
758 177
757 177
756 177
755 177
754 177
753 177
752 177
751 177
750 177
749 177
748 177
747 177
746 177
745 177
744 177
743 177
742 177
741 177
740 177
739 177
738 177
737 177
736 177
735 177
734 177
733 177
732 177
731 177
730 177
729 178
728 178
727 178
726 178
725 178
724 178
723 178
722 178
721 178
720 179
719 179
718 179
717 179
716 179
715 179
714 179
713 179
712 180
711 180
710 180
709 180
708 180
707 180
706 180
705 180
704 181
703 181
702 181
701 181
700 181
699 181
698 181
697 181
696 182
695 182
694 182
693 182
692 182
691 182
690 183
689 183
688 183
687 183
686 183
685 183
684 183
683 184
682 184
681 184
680 184
679 184
678 184
677 185
676 185
675 185
674 185
673 185
672 186
671 186
670 186
669 186
668 186
667 186
666 187
665 187
664 187
663 187
662 187
661 188
660 188
659 188
658 188
657 189
656 189
655 189
654 189
653 189
652 190
651 190
650 190
649 190
648 190
647 191
646 191
645 191
644 191
643 192
642 192
641 192
640 192
639 192
638 193
637 193
636 193
635 193
634 193
633 193
632 194
631 194
630 194
629 194
628 194
627 194
626 195
625 195
624 195
623 195
622 195
621 196
620 196
619 196
618 196
617 196
616 196
615 197
614 197
613 197
612 197
611 197
610 198
609 198
608 198
607 198
606 198
605 198
604 199
603 199
602 199
601 199
600 200
599 200
598 200
597 200
596 200
595 200
594 201
593 201
592 201
591 201
590 201
589 201
588 202
587 202
586 202
585 202
584 202
583 203
582 203
581 203
580 203
579 203
578 203
577 204
576 204
575 204
574 204
573 205
572 205
571 205
570 205
569 205
568 205
567 206
566 206
565 206
564 206
563 206
562 206
561 207
560 207
559 207
558 207
557 207
556 208
555 208
554 208
553 208
552 208
551 208
550 209
549 209
548 209
547 209
546 209
545 209
544 210
543 210
542 210
541 210
540 210
539 210
538 210
537 211
536 211
535 211
534 211
533 211
532 212
531 212
530 212
529 212
528 212
527 212
526 212
525 212
524 213
523 213
522 213
521 213
520 213
519 213
518 213
517 213
516 214
515 214
514 214
513 214
512 214
511 214
510 214
509 215
508 215
507 215
506 215
505 215
504 215
503 215
502 215
501 216
500 216
499 216
498 216
497 216
496 216
495 217
494 217
493 217
492 217
491 217
490 217
489 218
488 218
487 218
486 218
485 218
484 218
483 219
482 219
481 219
480 219
479 219
478 219
477 220
476 220
475 220
474 220
473 220
472 221
471 221
470 221
469 221
468 221
467 221
466 222
465 222
464 222
463 222
462 222
461 222
460 222
459 223
458 223
457 223
456 223
455 223
454 223
453 223
452 224
451 224
450 224
449 224
448 224
447 224
446 224
445 224
444 225
443 225
442 225
441 225
440 225
439 225
438 225
437 225
436 225
435 225
434 225
433 225
432 225
431 225
430 225
429 225
428 225
427 225
426 225
425 225
424 225
423 225
422 225
421 225
420 225
419 225
418 225
417 224
416 224
415 224
414 224
413 223
412 223
411 223
410 223
409 222
408 222
407 222
406 221
405 221
404 221
403 220
402 220
401 219
400 219
399 218
398 218
397 218
396 217
395 217
394 216
393 216
392 216
391 215
390 215
389 214
388 214
387 214
386 213
385 213
384 212
383 212
382 212
381 211
380 211
379 210
378 210
377 209
376 209
375 209
374 208
373 208
372 207
371 207
370 206
369 205
368 205
367 204
366 203
365 203
364 202
363 202
362 201
361 200
360 199
359 198
358 198
357 197
356 196
355 195
354 194
353 193
352 192
351 192
350 191
349 190
348 190
347 189
346 189
345 188
344 187
343 187
342 186
341 185
340 185
339 184
339 183
340 182
341 181
341 180
342 179
343 178
343 177
343 176
344 175
344 174
344 173
345 172
345 171
345 170
345 169
346 168
346 167
346 166
346 165
346 164
346 163
346 162
346 161
346 160
346 159
346 158
346 157
346 156
346 155
346 154
346 153
346 152
346 151
346 150
346 149
346 148
346 147
346 146
346 145
347 144
347 143
347 142
347 141
347 140
347 139
347 138
347 137
347 136
347 135
347 134
347 133
347 132
347 131
347 130
347 129
347 128
347 127
347 126
347 125
346 124
346 123
346 122
346 121
346 120
346 119
346 118
346 117
345 116
345 115
345 114
345 113
345 112
345 111
345 110
345 109
344 108
344 107
344 106
344 105
344 104
344 103
343 102
343 101
343 100
343 99
343 98
343 97
342 96
342 95
342 94
342 93
341 92
341 91
341 90
341 89
340 88
340 87
340 86
340 85
340 84
339 83
339 82
339 81
339 80
339 79
338 78
338 77
338 76
337 75
337 74
337 73
336 72
336 71
336 70
336 69
335 68
335 67
335 66
335 65
334 64
334 63
333 62
333 61
333 60
332 59
332 58
332 57
331 56
331 55
330 54
330 53
330 52
329 51
329 50
328 49
328 48
327 47
327 46
326 45
325 44
325 43
324 42
324 41
323 40
322 39
321 38
321 37
320 36
319 35
318 34
317 33
316 32
315 31
314 30
313 29
312 28
311 28
310 27
309 27
308 27
307 26
306 26
305 26
304 26
303 26
302 26
301 26
300 27
299 27
298 27
297 27
296 28
295 29
294 29
293 30
292 30
291 31
290 32
289 32
289 33
288 34
287 35
286 36
285 37
284 38
284 39
283 40
282 41
282 42
281 43
280 44
280 45
279 46
278 47
278 48
277 49
276 50
275 51
274 52
274 53
273 54
272 54
271 54
270 54
269 54
268 53
267 53
266 52
265 51
264 50
263 50
262 49
261 48
260 47
259 46
258 45
257 45
256 44
255 43
254 42
253 41
252 40
251 40
250 39
249 38
248 38
247 37
247 36
246 36
245 35
245 34
244 34
243 33
242 33
241 32
240 31
239 30
238 30
237 29
236 28
235 27
234 26
233 25
232 24
232 23
231 22
230 21
229 20
229 19
228 18
227 17
226 16
225 15
224 14
223 14
222 13
221 13
220 12
219 11
218 11
217 10
216 10
215 10
214 9
213 9
212 9
211 8
210 8
209 8
208 8
207 7
206 7
205 7
204 7
203 7
202 7
201 7
