42 297
42 298
42 299
42 300
42 301
42 302
42 303
42 304
42 305
42 306
42 307
42 308
43 308
44 309
45 309
46 310
47 310
48 311
49 311
50 311
51 311
52 311
53 312
54 312
55 312
56 312
57 312
58 312
59 312
60 312
61 312
62 312
63 312
64 313
65 313
66 314
67 314
68 315
68 316
69 317
69 318
69 319
68 320
68 321
67 322
67 323
66 324
66 325
65 326
64 327
64 328
64 329
64 330
65 330
66 330
67 330
68 330
69 330
70 330
71 330
72 330
73 330
74 330
75 330
76 330
77 330
78 330
79 330
80 330
81 330
82 330
83 329
84 329
85 329
86 329
87 329
88 329
89 329
90 328
91 328
92 328
93 327
94 327
95 326
96 326
97 325
98 324
99 323
100 322
101 321
102 321
103 320
104 320
105 319
106 320
107 320
108 321
109 321
110 321
111 321
112 322
113 322
114 322
115 322
116 322
117 322
118 323
119 323
120 324
121 324
122 325
123 325
124 325
125 326
126 326
127 326
128 326
129 326
130 326
131 326
132 326
133 326
134 326
135 326
136 326
137 326
138 327
139 327
140 328
141 328
142 329
143 330
144 331
145 332
146 332
147 333
148 334
149 334
150 335
151 336
152 337
153 338
154 339
155 340
155 341
156 342
156 343
157 343
158 343
159 343
160 343
161 343
162 343
163 343
164 342
165 342
166 341
167 340
168 339
169 338
170 337
171 336
172 335
173 334
174 333
175 332
176 331
176 330
177 329
177 328
177 327
178 326
178 325
179 324
179 323
179 322
179 321
180 320
180 319
180 318
180 317
180 316
180 315
180 314
180 313
180 312
180 311
180 310
181 309
181 308
182 307
183 306
184 305
185 305
186 305
187 306
188 306
189 307
190 307
191 308
192 309
193 309
194 310
195 310
196 311
197 311
198 311
199 311
200 312
201 312
202 312
203 313
204 313
205 314
206 314
207 315
208 315
209 316
209 317
210 318
210 319
211 320
211 321
212 322
213 322
214 322
215 322
216 323
217 323
218 324
219 324
220 325
220 326
221 327
221 328
222 329
222 330
222 331
222 332
222 333
222 334
221 335
221 336
220 337
219 337
218 338
217 338
216 339
215 339
214 340
213 340
212 341
211 341
210 342
209 342
208 343
207 343
206 343
205 344
204 344
203 344
202 345
201 345
200 345
199 345
198 346
197 346
196 346
195 346
194 347
194 348
194 349
195 349
196 350
197 350
198 350
199 351
200 351
201 352
202 352
203 353
204 353
205 354
206 354
207 355
207 356
208 357
207 358
206 359
205 360
204 360
203 361
202 361
201 361
200 361
199 361
198 361
197 362
196 362
195 363
194 363
193 363
192 363
191 363
190 363
189 363
188 363
187 364
186 364
185 364
184 364
183 364
182 364
181 364
180 364
179 364
179 365
179 366
180 366
181 367
182 367
183 368
184 368
185 369
186 369
187 370
188 370
189 371
190 372
191 373
192 374
193 375
194 376
195 377
196 378
197 378
198 378
199 378
200 379
201 379
202 379
203 379
204 379
205 380
206 380
207 380
208 380
209 380
210 380
211 381
212 381
213 382
214 382
215 383
216 384
217 385
218 386
218 387
219 388
219 389
220 390
220 391
220 392
220 393
220 394
220 395
220 396
220 397
220 398
220 399
220 400
220 401
220 402
220 403
220 404
220 405
220 406
220 407
220 408
220 409
220 410
221 411
221 412
221 413
221 414
221 415
222 416
222 417
223 418
223 419
223 420
223 421
223 422
223 423
223 424
223 425
223 426
224 426
225 426
226 426
227 426
228 425
229 424
229 423
230 422
230 421
231 420
231 419
232 418
232 417
233 416
233 415
233 414
234 413
234 412
235 411
235 410
236 409
236 408
236 407
236 406
236 405
237 404
237 403
238 402
239 401
240 400
241 401
242 402
243 403
243 404
244 405
244 406
244 407
244 408
244 409
244 410
244 411
244 412
244 413
244 414
245 414
246 414
247 414
248 414
249 414
250 413
251 414
252 415
253 416
253 417
254 418
255 418
256 419
257 419
258 419
259 420
260 420
261 421
262 421
263 422
264 422
265 423
266 423
267 424
268 425
269 426
270 426
271 427
272 428
273 429
274 429
275 430
275 431
276 432
275 433
274 434
273 435
272 435
271 436
270 436
269 437
268 438
267 439
266 440
265 440
264 441
263 442
262 443
261 444
261 445
260 446
260 447
259 448
259 449
258 450
257 451
256 452
256 453
255 454
255 455
254 456
254 457
253 458
253 459
252 460
252 461
251 462
251 463
250 464
249 465
248 465
247 466
246 466
245 467
244 467
244 468
244 469
244 470
244 471
245 471
246 471
247 471
248 471
249 471
250 472
251 472
252 472
253 472
254 472
255 472
256 472
257 473
258 473
259 473
260 473
261 474
262 474
263 474
264 474
265 474
266 474
267 474
268 474
269 474
270 474
271 474
272 474
273 474
274 474
275 474
276 474
277 474
278 474
279 474
280 474
281 474
282 474
283 474
284 474
285 473
286 473
287 472
288 471
289 471
290 470
291 469
292 468
293 467
294 466
295 465
296 464
297 463
298 462
298 461
299 460
300 459
301 458
302 457
303 458
304 459
305 460
305 461
306 462
306 463
306 464
306 465
306 466
306 467
307 468
307 469
307 470
308 471
308 472
308 473
309 474
309 475
310 476
310 477
311 478
311 479
312 480
312 481
313 481
314 481
315 481
316 481
317 480
317 479
318 478
318 477
319 476
319 475
320 474
321 473
321 472
322 471
322 470
322 469
323 468
323 467
323 466
324 465
324 464
324 463
324 462
324 461
324 460
324 459
324 458
324 457
324 456
324 455
324 454
324 453
324 452
324 451
324 450
324 449
324 448
324 447
324 446
324 445
325 444
325 443
326 442
327 441
328 440
329 441
330 442
331 443
331 444
332 445
332 446
332 447
332 448
332 449
332 450
332 451
333 452
333 453
334 454
334 455
334 456
335 457
335 458
336 459
337 460
337 461
338 462
339 463
339 464
340 465
340 466
341 467
341 468
342 469
342 470
342 471
343 472
343 473
344 473
345 473
346 473
347 473
348 473
349 473
350 472
351 471
351 470
352 469
352 468
353 467
353 466
353 465
354 464
354 463
355 462
355 461
355 460
355 459
355 458
355 457
355 456
355 455
355 454
355 453
355 452
355 451
355 450
355 449
355 448
355 447
356 446
356 445
356 444
356 443
356 442
356 441
356 440
356 439
356 438
357 437
357 436
358 435
359 434
360 433
361 433
362 434
363 434
364 435
364 436
365 437
366 438
366 439
367 440
367 441
368 442
368 443
369 444
369 445
370 446
370 447
371 448
371 449
372 450
372 451
372 452
373 453
373 454
373 455
374 455
375 455
375 454
375 453
376 452
376 451
376 450
376 449
377 448
377 447
377 446
378 445
378 444
378 443
378 442
378 441
378 440
379 439
379 438
379 437
380 436
380 435
380 434
380 433
380 432
380 431
380 430
381 429
381 428
381 427
382 426
382 425
382 424
382 423
382 422
382 421
382 420
382 419
382 418
382 417
382 416
382 415
382 414
382 413
382 412
382 411
382 410
382 409
382 408
382 407
382 406
382 405
382 404
382 403
381 402
381 401
381 400
381 399
381 398
381 397
381 396
380 395
380 394
380 393
379 392
379 391
378 390
378 389
377 388
376 387
375 386
375 385
374 384
373 383
372 382
371 381
370 380
369 379
369 378
368 377
369 376
369 375
370 374
370 373
371 372
372 371
372 370
373 369
374 368
375 367
376 366
377 366
378 367
379 368
380 369
380 370
381 371
381 372
381 373
381 374
381 375
381 376
382 377
382 378
383 379
383 380
383 381
384 382
384 383
385 384
385 385
386 386
387 387
388 388
388 389
389 390
390 391
391 392
392 393
393 394
394 394
395 395
396 396
397 397
398 398
399 399
400 400
401 400
402 400
403 400
404 400
405 400
406 400
406 399
406 398
407 397
407 396
407 395
408 394
408 393
408 392
408 391
408 390
409 389
409 388
410 387
410 386
411 385
412 384
413 384
414 384
415 384
416 384
417 385
418 385
419 386
420 386
421 387
422 387
423 388
423 389
424 390
424 391
424 392
424 393
424 394
424 395
424 396
424 397
425 398
426 398
427 399
428 400
429 401
430 402
431 403
432 404
432 405
431 406
431 407
430 408
429 408
428 409
427 410
426 411
425 412
424 413
423 414
422 415
421 416
420 417
419 418
419 419
418 420
417 421
416 422
416 423
416 424
415 425
415 426
414 427
414 428
414 429
413 430
413 431
413 432
413 433
413 434
413 435
412 436
412 437
412 438
412 439
411 440
411 441
410 442
410 443
409 444
408 445
407 445
406 446
405 447
405 448
405 449
405 450
406 450
407 450
408 450
409 450
410 450
411 450
412 450
413 450
414 449
415 449
416 449
417 448
418 448
419 448
420 447
421 447
422 447
423 447
424 446
425 446
426 446
427 445
428 445
429 445
430 445
431 445
432 445
433 445
434 445
435 445
436 444
437 444
438 444
439 444
440 443
441 443
442 443
443 442
444 442
445 441
446 441
447 440
448 440
449 439
450 438
451 437
452 436
453 435
454 435
455 434
456 433
457 432
458 431
458 430
459 429
459 428
460 427
460 426
461 425
461 424
461 423
461 422
462 421
462 420
462 419
462 418
462 417
462 416
462 415
463 414
463 413
463 412
463 411
463 410
463 409
463 408
463 407
463 406
463 405
463 404
463 403
464 402
464 401
465 400
465 399
466 398
467 397
468 396
469 397
470 398
471 399
471 400
472 401
472 402
472 403
472 404
472 405
473 406
473 407
473 408
474 409
474 410
475 411
475 412
476 413
476 414
477 415
478 416
479 417
480 417
481 418
482 419
483 420
484 421
485 422
486 423
487 424
488 425
489 426
489 427
490 428
491 428
492 428
493 428
494 428
495 428
495 427
495 426
495 425
495 424
495 423
495 422
495 421
495 420
495 419
495 418
495 417
495 416
495 415
495 414
495 413
495 412
495 411
495 410
495 409
495 408
495 407
495 406
495 405
495 404
495 403
495 402
495 401
495 400
495 399
494 398
494 397
494 396
494 395
494 394
495 393
496 392
497 391
498 391
499 392
500 392
501 393
502 393
503 394
504 395
505 395
506 396
507 397
508 397
509 398
510 398
511 399
512 399
513 399
514 399
515 399
516 399
516 398
516 397
516 396
516 395
516 394
516 393
516 392
516 391
516 390
515 389
515 388
515 387
514 386
514 385
514 384
514 383
514 382
514 381
514 380
514 379
513 378
513 377
513 376
513 375
512 374
512 373
512 372
511 371
511 370
511 369
510 368
510 367
509 366
509 365
509 364
508 363
508 362
507 361
506 360
506 359
505 358
504 357
503 356
502 355
501 354
500 353
499 352
498 351
497 350
496 349
495 348
494 348
493 347
492 346
492 345
491 344
491 343
491 342
491 341
491 340
492 339
492 338
492 337
493 336
493 335
493 334
494 333
494 332
495 331
495 330
496 329
496 328
496 327
497 326
497 325
498 324
498 323
499 322
499 321
499 320
499 319
499 318
500 317
500 316
500 315
500 314
500 313
501 312
501 311
501 310
501 309
501 308
502 307
502 306
502 305
502 304
502 303
503 302
503 301
503 300
504 299
504 298
504 297
505 296
505 295
506 294
506 293
507 292
507 291
508 290
509 289
510 289
511 288
512 288
513 287
514 287
515 286
516 286
517 286
518 285
519 285
520 285
521 285
522 285
523 285
524 285
525 285
526 285
527 285
528 286
529 286
530 286
531 286
532 286
533 286
534 286
535 286
536 286
537 286
538 286
539 286
540 286
541 286
542 286
543 286
544 286
545 286
546 286
547 286
548 286
549 286
550 286
551 286
552 286
553 286
554 286
555 286
556 286
557 286
558 286
559 286
560 286
561 286
562 286
563 286
564 286
565 286
566 287
567 287
568 287
569 287
570 287
571 287
572 287
573 287
574 287
575 287
576 287
577 287
578 287
579 287
580 287
581 288
582 288
583 289
584 289
585 290
585 291
586 292
586 293
587 294
587 295
587 296
587 297
587 298
587 299
587 300
587 301
587 302
587 303
587 304
587 305
587 306
587 307
587 308
587 309
587 310
587 311
587 312
587 313
586 314
586 315
585 316
584 317
583 318
582 318
581 318
580 317
579 317
578 316
577 315
576 314
575 314
574 314
573 314
572 314
571 314
570 313
569 313
568 313
567 313
566 313
565 313
564 313
563 313
562 313
561 313
560 313
559 313
558 313
557 313
556 313
555 313
554 314
553 314
552 314
551 314
550 314
549 315
548 315
547 315
546 316
545 317
544 317
543 318
542 318
541 319
540 320
539 321
538 322
537 323
536 324
535 325
535 326
534 327
533 328
532 329
531 330
530 331
529 331
528 332
527 332
526 333
525 334
524 334
523 335
523 336
523 337
523 338
524 338
525 338
526 338
527 338
528 338
529 338
530 338
531 337
532 338
533 338
534 338
535 339
536 339
537 339
538 340
539 340
540 340
541 340
542 340
543 341
544 341
545 341
546 341
547 341
548 341
549 341
550 341
551 341
552 341
553 341
554 341
555 341
556 341
557 341
558 341
559 341
560 341
561 341
562 341
563 341
564 341
565 341
566 342
567 341
568 341
569 340
570 340
571 339
572 339
573 338
574 338
575 337
576 337
577 337
578 336
579 335
580 334
580 333
580 332
580 331
580 330
581 329
581 328
582 327
583 326
584 325
585 326
586 327
587 328
587 329
588 330
588 331
588 332
588 333
589 334
589 335
589 336
589 337
589 338
589 339
588 340
588 341
587 342
586 343
585 343
584 344
583 344
582 344
581 344
580 344
579 344
578 344
577 344
576 344
575 344
574 345
573 345
572 345
571 345
570 345
569 345
568 345
567 345
567 346
566 347
565 347
564 348
563 349
562 350
561 351
560 352
559 353
558 354
557 354
556 355
555 356
554 357
554 358
553 359
553 360
553 361
552 362
552 363
551 364
551 365
550 366
550 367
549 368
548 369
548 370
547 371
547 372
547 373
547 374
547 375
547 376
548 376
549 376
550 376
551 376
552 376
553 376
554 376
555 376
556 375
557 375
558 374
559 374
560 374
561 373
562 373
563 373
564 373
565 373
566 374
567 375
568 376
568 377
567 378
567 379
566 380
565 381
564 382
563 383
562 384
561 385
561 386
561 387
561 388
561 389
561 390
562 390
563 390
564 390
565 390
566 390
567 389
568 389
569 388
570 388
571 388
572 388
573 388
574 388
575 388
576 388
577 388
578 388
579 389
580 389
581 390
582 391
583 392
583 393
583 394
583 395
583 396
583 397
583 398
583 399
583 400
583 401
583 402
583 403
583 404
583 405
583 406
584 407
584 408
584 409
584 410
584 411
585 412
586 413
587 414
588 415
589 416
590 417
591 418
591 419
592 420
592 421
593 422
593 423
594 424
594 425
595 426
596 426
597 426
597 425
598 424
598 423
599 422
600 421
601 420
602 419
603 418
603 417
604 416
605 415
605 414
606 413
607 412
608 411
608 410
609 409
609 408
609 407
609 406
610 405
610 404
610 403
610 402
610 401
610 400
610 399
610 398
610 397
610 396
610 395
610 394
610 393
610 392
610 391
610 390
610 389
610 388
610 387
610 386
610 385
609 384
609 383
609 382
608 381
608 380
607 379
607 378
606 377
606 376
605 375
604 374
603 373
603 372
602 371
601 370
600 369
600 368
599 367
599 366
598 365
598 364
597 363
597 362
596 361
596 360
596 359
596 358
596 357
595 356
595 355
595 354
594 353
594 352
594 351
594 350
594 349
593 348
593 347
593 346
593 345
593 344
592 343
592 342
592 341
592 340
592 339
592 338
591 337
591 336
591 335
591 334
591 333
590 332
590 331
590 330
590 329
590 328
589 327
589 326
589 325
589 324
589 323
589 322
589 321
589 320
588 319
588 318
588 317
588 316
588 315
588 314
588 313
588 312
588 311
588 310
588 309
588 308
588 307
588 306
588 305
588 304
588 303
587 302
587 301
587 300
588 299
588 298
588 297
589 296
589 295
590 294
590 293
591 292
592 291
593 290
594 290
595 289
596 289
597 288
598 288
599 288
600 288
601 288
602 288
603 288
604 288
605 288
606 288
607 288
608 288
609 288
610 288
611 288
612 288
613 288
614 288
615 288
616 288
617 288
618 288
619 288
620 288
621 288
622 288
623 288
624 288
625 288
626 288
627 288
628 288
629 288
630 288
631 288
632 288
633 288
634 288
635 288
636 288
637 288
638 288
639 288
640 288
641 288
642 288
643 288
644 288
645 288
646 288
647 288
648 288
649 288
650 288
651 288
652 288
653 288
654 288
655 288
656 288
657 288
658 288
659 288
660 288
661 288
662 288
663 288
664 288
665 288
666 288
667 288
668 288
669 288
670 288
671 288
672 288
673 288
674 288
675 288
676 288
677 289
678 289
679 289
680 289
681 289
682 289
683 289
684 289
685 289
686 289
687 289
688 289
689 289
690 289
691 289
692 289
693 289
694 289
695 289
696 289
697 289
698 289
699 289
700 289
701 289
702 289
703 289
704 289
705 289
706 289
707 288
708 288
709 288
710 288
711 288
712 288
713 288
714 288
715 288
716 288
717 288
718 288
719 288
720 288
721 288
722 288
723 288
724 288
725 289
726 289
727 289
728 289
729 289
730 289
731 289
732 289
733 289
734 289
735 289
736 289
737 289
738 289
739 289
740 289
741 289
742 289
743 289
744 289
745 289
746 289
747 289
747 288
747 287
747 286
747 285
747 284
747 283
747 282
746 282
745 282
744 282
743 282
742 282
741 282
740 282
739 282
738 282
737 282
736 282
735 282
734 283
733 283
732 283
731 283
730 283
729 283
728 283
727 283
726 283
725 283
724 283
723 283
722 283
721 283
720 283
719 283
718 283
717 283
716 283
715 284
714 284
713 284
712 284
711 284
710 284
709 284
708 284
707 284
706 284
705 284
704 284
703 284
702 284
701 284
700 284
699 284
698 284
697 284
696 284
695 284
694 284
693 284
692 284
691 284
690 284
689 284
688 284
687 284
686 284
685 284
684 284
683 284
682 284
681 284
680 284
679 284
678 284
677 284
676 284
675 284
674 284
673 284
672 284
671 284
670 284
669 284
668 284
667 284
666 284
665 284
664 284
663 284
662 284
661 284
660 284
659 284
658 284
657 284
656 284
655 284
654 284
653 284
652 284
651 284
650 284
649 284
648 284
647 284
646 284
645 284
644 284
643 284
642 284
641 284
640 284
639 284
638 284
637 284
636 284
635 284
634 284
633 284
632 284
631 284
630 284
629 284
628 284
627 284
626 284
625 284
624 284
623 284
622 284
621 284
620 284
619 284
618 284
617 284
616 284
615 284
614 284
613 284
612 284
611 284
610 284
609 284
608 284
607 284
606 284
605 284
604 284
603 284
602 284
601 284
600 283
599 283
598 283
597 282
596 282
595 281
594 281
593 280
593 279
592 278
592 277
591 276
591 275
590 274
590 273
590 272
589 271
589 270
589 269
589 268
589 267
589 266
588 265
588 264
588 263
588 262
588 261
588 260
588 259
588 258
588 257
589 256
589 255
590 254
590 253
591 252
591 251
592 250
593 249
594 249
595 248
596 248
597 247
598 247
599 246
600 246
601 245
602 244
602 243
602 242
602 241
602 240
602 239
602 238
602 237
602 236
602 235
602 234
601 233
600 232
599 231
598 231
597 231
596 231
595 231
594 231
593 231
592 231
591 231
590 230
589 230
588 229
587 228
586 227
586 226
587 225
587 224
587 223
587 222
587 221
587 220
587 219
587 218
587 217
587 216
587 215
587 214
587 213
587 212
587 211
587 210
587 209
587 208
587 207
587 206
587 205
587 204
587 203
587 202
587 201
586 200
586 199
585 198
584 197
584 196
583 195
582 194
582 193
581 192
581 191
580 190
580 189
579 189
578 189
577 189
576 189
575 188
574 188
573 187
572 187
571 186
571 185
570 184
569 184
568 184
567 184
566 184
565 184
564 184
563 185
562 185
561 186
560 185
559 184
558 183
558 182
557 181
557 180
556 179
556 178
555 177
554 176
553 175
552 174
551 173
550 172
549 171
548 171
547 170
546 170
545 169
544 169
543 169
542 169
541 169
540 168
539 168
538 168
537 168
536 168
535 168
534 168
533 168
532 167
531 167
530 167
529 166
528 166
527 165
526 165
525 164
524 164
523 164
522 164
521 164
520 164
519 164
519 165
519 166
519 167
520 168
520 169
521 170
521 171
522 172
522 173
523 174
523 175
523 176
523 177
523 178
523 179
524 180
524 181
525 182
525 183
526 184
526 185
526 186
527 187
528 188
529 189
530 190
530 191
531 192
532 193
533 194
534 195
535 195
536 196
537 197
538 198
539 198
540 199
541 199
542 200
543 200
544 201
545 201
546 201
547 202
548 202
549 202
550 203
551 203
552 203
553 204
554 204
555 205
556 205
557 206
558 206
559 207
560 207
561 208
562 208
563 209
563 210
564 211
564 212
565 213
565 214
565 215
565 216
564 217
563 217
562 218
561 218
560 218
559 218
558 218
557 218
556 217
555 217
554 217
553 217
552 216
551 216
550 216
549 216
548 215
547 215
546 215
545 215
544 214
543 214
542 214
541 213
540 213
539 213
538 213
537 213
536 213
535 213
534 213
534 214
534 215
534 216
534 217
535 218
535 219
536 220
537 221
537 222
538 223
539 224
539 225
540 226
540 227
541 228
542 229
543 230
544 231
545 231
546 232
547 233
548 234
549 235
549 236
550 237
549 238
548 239
547 240
546 240
545 241
544 241
543 241
542 241
541 242
540 242
539 243
538 243
537 244
536 245
535 245
534 246
534 247
534 248
534 249
534 250
534 251
535 252
536 252
537 253
538 253
539 254
540 254
541 255
542 255
543 256
544 256
545 257
546 257
547 257
548 257
549 258
550 258
551 258
552 258
553 258
554 258
555 258
556 258
557 258
558 258
559 258
560 258
561 258
562 258
563 258
564 258
565 258
566 258
567 258
568 258
569 258
570 258
571 258
572 258
573 258
574 257
575 257
576 257
577 257
578 257
579 256
580 256
581 255
582 256
583 256
584 257
584 258
585 259
585 260
586 261
586 262
586 263
587 264
587 265
587 266
587 267
587 268
587 269
588 270
588 271
588 272
588 273
588 274
588 275
588 276
588 277
588 278
588 279
587 280
587 281
586 282
585 282
584 283
583 283
582 284
581 284
580 284
579 284
578 283
577 283
576 283
575 283
574 283
573 283
572 283
571 283
570 283
569 283
568 283
567 283
566 283
565 283
564 283
563 283
562 283
561 283
560 283
559 283
558 283
557 283
556 283
555 283
554 283
553 283
552 283
551 283
550 283
549 283
548 283
547 283
546 283
545 283
544 283
543 283
542 283
541 283
540 283
539 283
538 283
537 283
536 283
535 283
534 283
533 283
532 283
531 283
530 283
529 283
528 283
527 283
526 283
525 283
524 282
523 282
522 282
521 282
520 282
519 282
518 282
517 282
516 281
515 281
514 280
513 280
512 279
511 279
510 278
509 277
508 276
508 275
507 274
507 273
506 272
506 271
506 270
505 269
505 268
505 267
505 266
504 265
504 264
504 263
504 262
504 261
503 260
503 259
503 258
503 257
502 256
502 255
503 254
503 253
504 252
504 251
505 250
505 249
506 248
507 247
508 246
509 246
510 245
511 245
512 244
513 243
514 242
515 242
516 241
517 240
518 239
518 238
519 237
520 236
521 235
521 234
521 233
522 232
522 231
522 230
522 229
522 228
523 227
523 226
523 225
523 224
523 223
523 222
523 221
523 220
523 219
523 218
523 217
523 216
523 215
523 214
523 213
523 212
523 211
523 210
523 209
523 208
523 207
523 206
523 205
523 204
523 203
523 202
523 201
523 200
523 199
522 199
521 199
520 199
519 199
518 198
517 198
516 197
515 196
514 195
514 194
513 193
513 192
513 191
513 190
513 189
513 188
513 187
513 186
513 185
513 184
513 183
513 182
513 181
513 180
513 179
513 178
513 177
513 176
513 175
513 174
513 173
513 172
513 171
514 170
514 169
513 169
512 169
511 169
510 169
509 169
508 170
507 171
506 172
505 173
504 174
503 175
502 175
501 176
500 176
499 176
498 175
497 174
498 173
498 172
499 171
499 170
499 169
499 168
500 167
500 166
500 165
500 164
500 163
500 162
500 161
500 160
500 159
500 158
500 157
500 156
500 155
500 154
500 153
500 152
500 151
500 150
500 149
500 148
500 147
499 147
498 147
497 147
496 147
495 147
494 147
493 148
492 148
491 149
490 150
489 151
488 152
487 153
486 154
485 155
484 156
483 156
482 157
481 158
480 159
480 160
480 161
480 162
479 163
479 164
478 165
477 166
476 167
475 166
474 165
473 164
473 163
472 162
472 161
472 160
472 159
472 158
472 157
472 156
472 155
472 154
472 153
472 152
472 151
472 150
472 149
472 148
472 147
472 146
471 145
471 144
471 143
471 142
471 141
470 140
469 139
468 138
468 137
467 136
466 135
466 134
465 133
465 132
464 132
463 132
462 132
461 132
460 132
459 132
459 133
458 134
458 135
458 136
458 137
458 138
458 139
458 140
457 141
457 142
457 143
457 144
457 145
457 146
457 147
457 148
456 149
456 150
455 151
454 152
453 153
452 153
451 152
450 152
449 151
448 150
447 150
446 149
445 148
444 147
443 146
442 146
441 146
440 145
439 145
438 145
437 144
436 144
435 144
434 144
433 144
432 144
431 144
430 144
429 144
428 144
427 144
426 144
425 144
424 144
423 145
422 145
421 145
420 145
419 145
418 146
417 146
416 146
415 146
414 146
413 146
412 146
411 146
410 146
409 146
408 147
407 147
406 148
405 148
404 149
403 149
402 150
401 150
400 150
399 149
398 148
397 147
397 146
396 145
396 144
396 143
396 142
396 141
396 140
396 139
396 138
396 137
396 136
396 135
396 134
396 133
395 133
394 133
393 133
392 133
391 134
390 135
389 136
389 137
388 138
387 139
386 140
385 141
384 141
383 142
382 142
381 141
380 140
379 139
379 138
378 137
379 136
379 135
379 134
379 133
379 132
379 131
379 130
379 129
379 128
379 127
379 126
379 125
379 124
379 123
379 122
379 121
379 120
378 119
378 118
378 117
378 116
377 115
377 114
377 113
377 112
377 111
377 110
377 109
376 108
376 107
376 106
376 105
376 104
376 103
375 103
374 103
373 103
372 104
372 105
371 106
371 107
370 108
370 109
369 110
368 111
367 112
366 113
365 114
364 115
364 116
363 117
362 117
361 118
360 117
359 116
358 115
358 114
357 113
357 112
357 111
357 110
357 109
357 108
357 107
357 106
356 105
356 104
356 103
356 102
356 101
356 100
355 99
355 98
355 97
354 96
354 95
353 94
352 93
352 92
351 91
351 90
350 89
350 88
349 87
349 86
348 85
347 85
346 85
345 85
345 86
345 87
345 88
344 89
344 90
344 91
343 92
343 93
342 94
342 95
341 96
340 97
339 98
338 97
337 96
336 95
336 94
335 93
335 92
335 91
335 90
335 89
334 89
333 89
332 89
331 89
330 89
329 90
328 89
327 88
326 87
326 86
325 85
325 84
325 83
324 82
323 81
322 80
321 79
320 79
319 78
318 78
317 77
316 76
315 75
314 74
313 73
312 72
311 72
310 72
309 71
308 71
307 71
306 70
305 70
304 70
303 69
302 69
301 69
300 68
299 68
298 67
297 67
296 66
295 66
294 65
293 65
292 64
291 64
290 64
289 64
288 64
287 64
286 64
285 64
284 64
284 65
284 66
284 67
284 68
284 69
284 70
284 71
285 72
285 73
286 74
286 75
287 76
287 77
288 78
288 79
288 80
288 81
289 82
289 83
289 84
289 85
289 86
289 87
289 88
289 89
290 90
290 91
290 92
290 93
291 94
291 95
292 96
293 97
293 98
294 99
295 100
296 101
297 102
298 103
299 104
299 105
300 106
299 107
298 108
297 109
296 109
295 110
294 110
293 110
292 110
291 110
290 111
289 111
288 111
287 112
286 112
285 112
284 112
284 113
284 114
284 115
284 116
284 117
284 118
285 118
286 119
287 119
288 120
289 121
290 121
291 122
292 122
293 123
294 124
295 124
296 125
297 125
298 125
299 125
300 125
301 125
302 125
303 125
304 125
305 125
306 125
307 126
308 126
309 126
310 126
311 126
312 126
313 126
314 126
315 126
316 126
317 126
318 126
319 126
320 126
321 125
322 125
323 125
324 125
325 125
326 124
327 124
328 124
329 124
330 124
331 125
332 126
333 127
334 128
335 129
336 130
337 131
337 132
338 133
339 134
340 135
341 136
341 137
342 138
342 139
343 140
344 141
345 142
346 143
346 144
347 145
347 146
346 147
345 148
344 149
343 149
342 150
341 150
340 150
339 150
338 150
337 150
336 150
335 150
334 150
333 150
332 150
331 150
330 150
329 150
328 150
327 151
326 151
325 151
324 152
323 152
322 153
321 153
320 153
319 154
318 155
317 156
316 157
315 158
314 159
313 160
312 160
311 161
310 162
309 162
308 163
307 163
306 164
305 164
304 165
303 165
302 166
301 166
300 166
300 167
300 168
300 169
301 169
302 170
303 170
304 170
305 170
306 171
307 171
308 171
309 172
310 172
311 173
312 173
313 173
314 174
315 174
316 174
317 174
318 174
319 175
320 175
321 175
322 175
323 175
324 175
325 175
326 175
327 175
328 175
329 175
330 176
331 176
332 177
333 178
334 179
333 180
333 181
332 182
331 183
330 184
329 184
328 185
327 185
326 186
325 187
324 188
323 188
322 189
321 189
320 190
319 190
318 191
317 191
316 191
316 192
316 193
317 194
318 194
319 195
320 195
321 196
322 196
323 197
324 197
325 197
326 197
327 198
328 198
329 198
330 199
331 199
332 200
333 200
334 201
335 202
336 203
337 204
338 205
339 206
340 207
341 207
342 208
342 209
343 210
343 211
344 212
344 213
345 214
345 215
345 216
346 217
347 218
347 219
348 220
349 221
350 222
351 223
352 224
353 225
354 225
355 226
356 226
357 227
358 228
359 229
359 230
358 231
358 232
357 233
356 233
355 234
354 234
353 235
352 235
351 235
350 235
349 236
348 236
347 237
346 238
345 239
344 240
343 241
342 242
341 243
340 243
339 244
338 244
337 245
336 245
336 246
336 247
336 248
337 248
338 249
339 249
340 250
341 250
342 251
343 252
344 253
345 254
346 255
347 255
348 255
349 256
350 256
351 256
352 257
353 257
354 257
355 257
356 258
357 258
358 258
359 258
360 258
361 258
362 258
363 258
364 258
365 258
366 258
367 258
368 258
369 258
370 258
371 258
372 258
373 258
374 258
375 258
376 258
377 258
378 258
379 258
380 258
381 258
382 258
383 258
384 258
385 258
386 258
387 257
388 257
389 257
390 257
391 256
392 255
393 254
394 253
395 252
396 251
397 251
398 251
399 252
400 253
400 254
401 255
401 256
402 257
402 258
402 259
403 260
403 261
403 262
404 263
404 264
404 265
404 266
405 267
405 268
405 269
406 270
406 271
406 272
406 273
407 274
407 275
407 276
408 277
408 278
408 279
407 280
407 281
406 282
405 283
404 283
403 284
402 284
401 285
400 285
399 285
398 285
397 285
396 285
395 285
394 285
393 285
392 285
391 285
390 285
389 285
388 285
387 285
386 286
385 286
384 286
383 286
382 286
381 286
380 286
379 286
378 286
377 286
376 286
375 286
374 286
373 286
372 286
371 286
370 286
369 286
368 286
367 286
366 286
365 286
364 286
363 286
362 286
361 286
360 286
359 287
358 287
357 287
356 287
355 287
354 287
353 287
352 287
351 287
350 287
349 287
348 287
347 287
346 287
345 287
344 287
343 287
342 287
341 287
340 287
339 288
338 288
337 288
336 288
335 288
334 288
333 288
332 288
331 288
330 288
329 288
328 288
327 288
326 288
325 288
324 288
323 288
322 288
321 287
320 287
319 286
318 286
317 285
316 285
315 284
314 284
313 283
312 282
312 281
311 280
311 279
310 278
309 277
309 276
308 275
308 274
307 273
307 272
307 271
307 270
307 269
307 268
306 267
306 266
306 265
307 264
307 263
308 262
308 261
309 260
309 259
310 258
310 257
311 256
311 255
311 254
311 253
311 252
311 251
311 250
311 249
311 248
311 247
311 246
311 245
311 244
311 243
311 242
310 241
310 240
309 239
308 238
307 237
306 237
305 236
304 236
303 236
302 236
301 236
300 236
299 236
298 236
297 236
296 236
295 236
294 236
293 236
292 235
291 235
290 234
290 233
289 232
288 231
288 230
287 229
287 228
286 227
286 226
285 225
286 224
286 223
287 222
288 221
289 220
290 219
290 218
291 217
292 216
293 215
294 214
294 213
294 212
294 211
294 210
295 209
295 208
295 207
295 206
295 205
295 204
295 203
295 202
295 201
295 200
295 199
295 198
295 197
295 196
295 195
295 194
295 193
294 192
294 191
294 190
293 189
293 188
293 187
293 186
293 185
293 184
293 183
292 182
292 181
291 180
291 179
291 178
291 177
290 176
289 176
288 176
287 176
286 175
285 175
284 174
283 174
282 173
281 172
281 171
280 170
280 169
279 168
279 167
279 166
279 165
279 164
278 163
278 162
277 161
277 160
277 159
277 158
276 157
276 156
275 155
274 154
273 154
272 154
271 154
271 155
271 156
271 157
271 158
270 159
270 160
269 161
269 162
268 163
268 164
267 165
267 166
266 167
265 168
264 169
263 168
262 167
261 166
261 165
260 164
260 163
260 162
259 161
259 160
258 159
258 158
257 157
256 156
255 155
254 154
253 153
252 152
251 152
250 151
249 150
248 149
247 148
246 147
245 147
244 146
243 146
242 145
241 145
240 145
239 145
238 144
237 144
236 144
235 143
234 143
233 142
232 142
231 141
230 141
229 140
228 139
227 139
226 139
225 139
224 139
223 139
222 139
222 140
222 141
222 142
222 143
222 144
222 145
222 146
222 147
223 148
223 149
223 150
224 151
224 152
225 153
225 154
225 155
225 156
225 157
225 158
225 159
225 160
225 161
225 162
226 163
226 164
226 165
226 166
227 167
227 168
227 169
228 170
228 171
228 172
229 173
229 174
230 175
230 176
231 177
231 178
232 179
233 180
234 181
235 182
236 183
236 184
237 185
238 186
239 187
240 188
240 189
240 190
239 191
238 192
237 193
236 193
235 194
234 195
233 195
232 196
231 196
230 197
229 197
228 198
227 198
226 198
225 199
224 199
224 200
224 201
224 202
224 203
225 203
226 204
227 204
228 204
229 205
230 205
231 205
232 206
233 206
234 207
235 207
236 207
237 208
238 208
239 209
240 210
241 211
241 212
241 213
240 214
239 215
238 215
237 216
236 216
235 217
234 217
233 218
233 219
233 220
233 221
233 222
234 223
235 223
236 224
237 224
238 225
239 225
240 225
241 226
242 226
243 227
244 227
245 227
246 227
247 228
248 228
249 228
250 229
251 229
252 229
253 229
254 229
255 230
256 230
257 231
258 232
259 233
259 234
258 235
257 236
256 237
255 237
254 237
253 237
252 237
251 237
250 237
249 237
248 237
248 238
247 239
247 240
246 241
245 241
244 242
243 242
242 243
241 243
241 244
240 245
240 246
239 247
239 248
238 249
238 250
237 251
236 252
235 253
234 253
233 254
232 254
231 253
230 252
229 251
229 250
228 249
228 248
227 247
227 246
227 245
226 244
226 243
226 242
225 241
225 240
225 239
224 238
223 237
223 236
222 235
221 234
220 233
219 232
218 231
217 230
216 229
215 228
214 228
213 227
212 226
212 225
211 224
210 223
209 222
208 222
207 221
206 220
205 220
204 219
203 219
202 218
201 217
200 217
199 216
198 216
197 216
196 215
195 215
194 214
193 214
192 213
191 213
190 212
189 212
188 211
187 211
186 210
185 209
184 208
183 207
182 207
181 207
180 207
179 207
178 207
178 208
178 209
178 210
178 211
178 212
178 213
178 214
178 215
179 216
179 217
180 218
180 219
180 220
181 221
181 222
182 223
182 224
182 225
182 226
182 227
182 228
183 229
183 230
183 231
183 232
183 233
183 234
183 235
183 236
183 237
184 238
184 239
185 240
185 241
186 242
186 243
187 244
187 245
188 246
189 247
190 248
191 249
192 250
193 251
194 252
195 253
196 254
197 255
198 256
199 257
200 258
200 259
201 260
200 261
199 262
198 263
197 263
196 263
195 263
194 263
193 263
192 263
191 263
191 264
191 265
191 266
191 267
192 268
192 269
193 270
194 271
195 272
196 273
197 274
197 275
198 276
199 277
200 278
201 279
202 280
203 280
204 280
205 281
206 281
207 281
208 281
209 281
210 281
211 281
212 281
213 281
214 281
215 281
216 281
217 281
218 281
219 281
220 281
221 281
222 281
223 281
224 281
225 281
226 281
227 281
228 280
229 280
230 280
231 280
232 281
233 282
233 283
234 284
234 285
235 286
234 287
234 288
233 289
232 289
231 290
230 290
229 291
228 291
227 291
226 291
225 291
224 291
223 291
222 291
221 291
220 291
219 291
218 291
217 291
216 291
215 291
214 291
213 291
212 291
211 291
210 291
209 291
208 291
207 291
206 291
205 291
204 291
203 291
202 291
201 291
200 291
199 291
198 291
197 291
196 291
195 291
194 291
193 291
192 291
191 291
190 290
189 290
188 289
187 289
186 288
185 288
184 287
184 286
183 285
183 284
182 283
182 282
182 281
182 280
182 279
181 278
182 277
182 276
182 275
182 274
182 273
182 272
182 271
182 270
182 269
182 268
182 267
182 266
182 265
182 264
182 263
182 262
181 261
181 260
181 259
181 258
180 257
180 256
180 255
180 254
179 253
179 252
179 251
178 250
177 249
177 248
176 247
175 246
174 245
174 244
173 243
172 242
171 241
170 240
169 239
169 238
168 237
168 236
167 235
166 234
165 234
164 233
163 233
162 232
161 231
160 230
159 229
158 229
157 228
156 227
155 227
154 226
153 226
152 225
151 224
150 223
149 222
148 221
147 220
146 220
145 220
144 220
143 220
143 221
143 222
143 223
143 224
143 225
143 226
144 227
144 228
144 229
145 230
145 231
145 232
146 233
146 234
146 235
146 236
146 237
146 238
146 239
146 240
146 241
146 242
146 243
146 244
146 245
146 246
146 247
146 248
146 249
146 250
146 251
146 252
146 253
146 254
146 255
146 256
146 257
146 258
146 259
147 260
147 261
147 262
147 263
147 264
147 265
148 266
148 267
148 268
149 269
149 270
149 271
150 272
150 273
151 274
151 275
152 276
153 277
153 278
154 279
155 280
156 281
157 282
158 283
159 284
160 284
161 285
162 286
163 287
163 288
163 289
162 290
161 291
160 292
159 292
158 293
157 293
156 293
155 293
154 293
153 293
152 293
151 293
150 293
149 293
148 293
147 293
146 293
145 293
144 292
143 292
142 291
141 290
140 289
140 288
139 287
139 286
138 285
138 284
137 283
137 282
137 281
136 280
136 279
136 278
135 277
135 276
135 275
134 274
134 273
134 272
133 271
133 270
132 269
132 268
132 267
131 266
131 265
131 264
130 263
130 262
129 261
129 260
128 259
128 258
128 257
127 256
126 255
125 254
124 253
124 252
123 251
123 250
122 249
122 248
121 247
121 246
120 245
119 244
118 244
117 243
116 242
115 241
114 241
113 240
112 240
111 239
110 238
109 237
108 236
108 235
107 234
106 233
105 232
104 231
103 231
102 231
101 231
101 232
101 233
101 234
101 235
101 236
101 237
101 238
102 239
103 240
104 241
104 242
105 243
105 244
106 245
106 246
107 247
107 248
107 249
107 250
107 251
107 252
107 253
107 254
107 255
107 256
107 257
107 258
107 259
107 260
107 261
107 262
107 263
107 264
107 265
107 266
108 267
108 268
108 269
107 270
107 271
106 272
105 273
104 274
103 273
102 273
101 272
100 271
99 270
98 269
97 268
96 267
95 266
94 266
93 265
92 265
91 264
90 264
89 264
88 264
87 263
86 263
85 263
84 263
83 263
82 262
81 262
80 262
79 261
78 261
77 261
76 260
75 260
74 259
73 259
72 259
71 259
70 259
69 259
68 259
67 259
67 260
67 261
67 262
67 263
68 264
69 265
70 266
70 267
71 268
71 269
72 270
72 271
73 272
73 273
73 274
73 275
72 276
72 277
71 278
70 279
69 280
68 280
67 280
66 280
65 280
64 280
63 280
62 280
61 280
60 280
59 280
58 280
57 280
56 280
55 280
54 280
53 280
52 280
51 280
50 280
49 280
48 280
47 280
46 280
46 281
46 282
46 283
46 284
46 285
46 286
46 287
46 288
46 289
45 290
45 291
44 292
44 293
44 294
43 295
43 296
42 297
