352 57
352 58
352 59
351 60
350 61
349 62
348 62
347 62
346 63
345 63
344 63
343 63
342 63
341 64
340 64
339 64
338 64
337 64
336 64
335 65
334 65
333 66
332 66
331 67
330 67
329 67
328 67
327 67
326 67
325 67
324 67
323 67
322 67
321 67
320 67
319 67
318 66
317 66
316 66
315 67
314 66
313 66
312 66
311 66
310 65
309 65
308 66
307 65
306 65
305 65
304 65
303 66
302 66
301 65
300 66
299 66
298 65
298 66
297 67
296 66
295 66
294 65
293 66
293 67
292 68
291 67
291 66
290 67
289 66
288 67
287 67
286 68
285 67
284 67
283 67
282 68
281 68
280 68
279 68
278 68
277 68
276 67
275 67
274 67
273 67
272 68
271 68
271 69
271 70
271 71
272 72
271 73
270 74
269 75
269 76
268 77
267 78
267 79
266 80
265 80
264 81
263 82
262 82
261 83
260 83
259 83
258 84
257 84
256 83
256 84
255 85
254 85
253 84
252 84
251 84
251 85
250 86
249 86
248 86
247 86
246 86
245 87
244 87
243 88
242 88
241 88
240 89
239 89
238 89
237 90
236 90
235 90
234 91
233 92
232 92
231 92
230 92
229 92
228 92
227 92
226 93
225 93
224 93
223 93
222 93
221 93
220 93
219 94
218 94
218 95
218 96
218 97
218 98
218 99
217 100
217 101
216 102
215 103
214 104
213 105
212 106
211 107
210 107
209 108
208 109
207 109
206 110
205 110
205 111
204 112
203 111
202 112
201 112
200 113
199 113
198 114
197 114
196 115
195 115
194 115
193 116
192 116
191 117
190 117
189 118
188 118
187 119
186 119
186 120
185 121
184 122
183 123
182 123
181 124
180 124
179 124
178 125
177 125
176 125
175 125
174 126
173 126
172 126
171 126
171 127
170 128
171 129
172 130
172 131
172 132
172 133
172 134
171 135
171 136
170 137
169 138
169 139
168 140
168 141
167 142
166 142
165 143
164 143
163 144
162 144
161 144
160 145
159 145
158 146
157 147
156 147
155 148
154 149
153 149
152 150
151 151
150 152
149 153
149 154
148 155
147 156
146 157
145 157
144 158
143 159
142 159
141 159
140 159
139 159
138 159
137 160
137 161
138 162
138 163
139 164
138 165
138 166
138 167
137 168
136 169
136 170
135 171
135 172
135 173
134 174
133 174
132 174
131 175
130 176
129 176
128 177
127 177
126 178
125 178
124 179
123 180
122 181
121 182
120 183
119 184
118 185
117 186
116 187
115 187
114 187
113 187
112 187
111 187
110 188
109 188
109 189
109 190
110 191
111 192
112 193
112 194
111 195
111 196
111 197
110 198
110 199
110 200
110 201
109 202
108 203
107 204
106 205
105 206
104 207
103 208
102 208
101 209
100 210
99 210
98 211
98 212
97 213
96 214
95 214
94 215
93 216
92 217
91 218
90 218
89 218
88 219
87 220
86 220
85 221
84 221
83 222
82 223
81 223
80 224
79 225
78 226
77 226
76 226
75 227
74 228
73 228
72 229
71 230
70 230
69 231
68 232
67 233
66 234
65 235
66 235
67 236
68 236
69 237
70 238
71 238
72 238
73 239
74 239
75 240
76 240
77 240
78 240
79 241
80 241
81 241
82 241
83 241
84 242
85 242
86 242
87 242
88 242
89 243
90 243
91 243
92 243
93 244
94 244
95 244
96 245
97 246
98 247
99 248
100 248
101 249
101 250
101 251
102 252
103 253
104 254
104 255
104 256
104 257
104 258
104 259
103 260
104 260
105 261
106 261
107 261
108 261
109 262
110 262
111 262
112 263
113 263
114 264
115 264
116 264
117 264
118 265
119 265
120 265
121 266
122 266
123 267
124 267
125 268
126 268
127 269
126 270
125 270
126 271
127 271
126 270
127 269
128 269
129 270
130 271
131 271
132 272
131 273
130 273
131 273
132 273
133 274
133 275
132 276
133 277
134 277
135 277
136 277
137 277
138 278
139 278
140 278
141 279
142 280
143 280
144 281
145 281
146 282
147 283
148 284
149 285
150 286
151 286
152 287
152 288
153 289
154 290
155 291
156 292
157 293
158 294
158 295
158 296
158 297
157 298
157 299
158 300
159 300
160 301
161 301
162 302
163 302
164 302
165 303
166 303
167 303
168 304
169 304
170 305
171 306
172 307
173 308
174 309
175 310
176 311
177 312
178 313
179 313
180 314
181 314
182 315
183 316
184 317
185 318
186 319
187 320
188 321
189 322
189 323
189 324
189 325
188 326
188 327
188 328
189 328
190 329
191 329
192 330
193 330
194 330
195 331
196 331
197 331
198 332
199 332
200 332
201 333
202 334
203 334
204 335
205 335
206 336
206 337
207 338
208 339
209 340
210 340
211 341
212 341
213 342
214 343
215 343
216 344
217 345
218 346
219 346
220 347
221 348
222 349
223 350
224 351
225 352
225 353
226 354
226 355
226 356
226 357
225 358
226 359
227 360
228 360
229 360
230 361
231 361
232 361
233 362
234 362
235 362
236 363
237 363
238 364
239 364
240 365
241 366
242 366
243 367
244 367
245 368
246 369
247 369
248 370
249 371
250 372
251 373
252 373
253 374
254 374
255 375
256 375
257 375
258 376
259 376
260 377
261 378
262 379
263 379
264 380
265 381
266 382
267 383
268 384
269 384
270 385
271 386
272 387
272 388
273 389
272 390
271 391
271 392
272 393
273 393
274 394
275 394
276 394
277 394
278 395
279 395
280 395
281 395
282 396
283 396
284 397
285 397
286 398
287 398
288 399
289 399
290 399
291 400
292 400
293 401
294 401
295 401
296 401
297 402
298 402
299 402
300 402
301 403
302 403
303 403
304 403
305 404
304 405
303 405
302 405
301 405
300 405
301 405
302 406
303 406
304 406
305 406
306 406
307 407
308 407
309 407
310 408
311 408
312 408
313 408
314 408
315 407
316 408
317 409
318 409
319 409
320 409
321 410
320 411
319 411
320 411
321 411
322 412
323 412
324 412
325 413
325 414
326 413
327 414
328 415
328 416
329 417
330 417
331 417
332 417
333 417
334 416
335 417
336 417
337 416
338 416
339 416
340 416
341 417
342 417
343 417
344 418
345 419
346 419
347 419
348 420
349 420
350 420
351 420
352 420
353 421
354 421
355 421
356 421
357 421
358 422
359 422
360 422
361 423
362 423
363 423
364 423
365 424
366 424
367 424
368 424
369 424
370 424
371 424
372 425
371 426
370 426
369 426
368 426
367 426
366 426
367 426
368 426
369 427
370 427
371 427
372 427
373 428
374 428
375 428
376 428
377 428
378 429
379 429
380 429
381 430
382 430
383 430
384 431
385 431
386 432
387 432
388 432
389 432
390 432
391 433
392 433
393 433
394 434
394 435
395 435
396 435
397 435
398 435
399 435
400 435
401 436
400 437
399 437
400 438
400 437
401 436
402 437
403 438
404 438
405 438
406 438
407 437
408 437
409 437
410 437
411 437
412 437
413 437
414 437
415 437
416 437
417 437
418 437
419 437
420 437
421 437
422 437
423 437
424 437
425 437
426 437
427 436
428 436
429 436
430 436
431 436
432 436
433 436
434 436
435 436
436 436
437 436
438 436
439 436
440 436
441 436
442 436
443 436
444 435
445 435
446 435
447 435
448 435
449 435
450 435
451 435
452 435
453 435
454 435
455 434
456 434
457 434
458 434
459 434
460 434
461 434
462 434
463 434
464 434
465 434
466 434
467 434
468 434
469 434
470 434
471 434
472 434
473 434
474 434
475 434
476 434
477 434
478 434
479 434
480 434
481 434
482 434
483 434
484 434
485 434
486 434
487 434
488 434
489 434
490 434
491 434
492 433
493 433
494 433
495 433
496 432
497 432
498 431
499 431
500 431
501 430
502 430
503 429
504 429
505 429
506 428
507 428
508 427
509 427
510 427
511 426
510 426
509 425
510 424
511 424
512 424
513 425
513 426
514 425
515 425
516 424
517 424
518 423
519 424
519 423
518 423
517 422
518 421
519 421
520 420
521 420
522 420
523 420
524 419
525 419
526 419
527 418
528 418
529 418
530 417
531 417
532 417
533 416
534 416
535 415
536 414
537 414
538 413
539 413
540 412
541 411
542 411
543 410
544 410
545 409
546 408
547 407
548 407
549 406
550 405
551 404
552 404
553 403
554 402
555 401
556 401
557 401
558 401
559 401
560 401
561 400
562 400
563 399
564 399
565 398
565 397
566 396
567 397
567 398
568 397
569 396
570 395
571 396
572 395
573 395
574 394
575 394
576 393
577 393
578 393
579 392
580 392
581 392
582 391
583 391
584 390
585 390
586 389
587 389
588 389
589 389
590 388
591 388
592 388
593 388
592 388
591 387
592 386
593 386
594 385
595 385
596 385
597 384
598 384
599 384
600 383
601 383
602 384
601 383
602 382
603 382
604 382
605 381
606 380
607 380
608 381
607 382
606 383
607 382
608 381
608 380
609 379
610 378
611 378
612 377
613 376
614 376
615 375
616 374
617 373
618 372
619 371
620 370
621 369
622 369
623 368
624 367
625 366
626 365
627 365
628 364
629 363
630 362
631 361
632 360
633 359
634 358
635 358
636 357
637 356
638 355
639 354
640 353
641 352
642 351
643 350
644 349
645 348
646 347
646 346
647 345
648 345
648 344
649 343
650 342
651 341
652 340
653 339
654 338
655 337
656 336
657 335
658 334
659 333
660 332
661 331
662 330
663 329
664 328
664 327
665 326
666 325
667 324
668 323
669 322
670 321
670 320
671 319
672 318
673 317
673 316
674 315
675 315
676 314
676 313
677 312
678 311
679 310
680 309
681 308
682 307
682 306
683 305
684 304
685 303
685 302
686 301
687 300
687 299
688 298
689 297
690 296
690 295
691 294
691 293
692 292
693 291
693 290
694 289
694 288
695 287
695 286
696 285
696 284
697 283
697 282
698 281
698 280
699 279
699 278
699 277
700 276
700 275
701 274
701 273
702 272
702 271
703 270
704 270
705 269
706 270
707 269
708 269
709 269
710 269
711 269
712 268
713 268
714 268
715 268
716 268
717 268
718 268
719 268
720 268
721 268
722 268
723 268
724 268
725 268
726 267
727 267
728 267
729 267
730 267
731 267
732 267
733 267
734 266
735 266
736 266
737 266
738 266
739 266
740 266
741 266
742 266
743 265
744 265
745 265
746 265
747 265
748 264
749 264
750 264
751 264
752 263
753 262
754 261
755 261
756 261
757 260
758 259
758 258
757 258
756 257
757 256
757 255
756 254
756 253
756 252
756 251
755 250
754 251
753 251
752 252
751 252
750 252
749 253
748 253
747 253
746 253
745 254
744 254
743 254
742 254
741 254
740 254
741 255
740 256
739 256
738 256
737 255
736 255
735 255
734 256
733 256
732 256
731 256
730 256
729 256
728 256
727 256
726 256
725 256
724 256
723 257
722 257
721 257
720 257
719 257
718 257
717 257
716 257
715 257
714 257
713 257
712 257
711 257
710 257
709 257
708 257
707 257
706 257
705 257
704 257
703 257
702 256
701 256
700 256
699 256
698 256
697 256
696 255
695 255
694 254
693 253
693 252
693 251
692 250
692 249
692 248
691 247
691 246
691 245
690 244
689 243
689 242
688 241
687 240
687 239
687 238
686 237
685 236
685 235
684 234
684 233
683 232
683 231
682 230
682 229
681 228
680 227
680 226
680 225
679 225
678 224
678 223
678 222
677 221
676 220
676 219
675 218
674 217
674 216
673 215
673 214
672 213
671 212
670 211
670 210
669 209
669 208
669 207
668 206
667 205
667 204
667 203
666 202
666 201
665 200
664 199
664 198
663 197
662 196
662 195
661 194
660 193
660 192
659 191
658 190
657 189
657 188
656 187
655 186
655 185
655 184
654 183
654 182
653 182
652 181
652 180
651 179
650 178
650 177
649 176
648 175
647 174
646 173
646 172
645 171
644 170
643 169
642 168
642 167
641 166
640 165
639 164
639 163
638 162
637 161
636 160
635 159
634 158
633 157
632 156
631 155
630 155
629 154
628 153
627 153
626 152
625 151
624 151
623 150
622 150
621 149
620 149
619 148
618 149
617 148
616 147
615 147
614 146
613 146
612 145
611 146
610 146
609 146
608 145
608 144
609 143
610 144
610 143
609 143
608 143
607 142
607 141
606 141
605 140
604 139
603 139
602 138
601 137
600 136
599 136
598 135
597 134
596 133
595 133
594 132
593 131
592 131
591 130
590 130
589 129
588 128
587 128
586 127
585 127
584 126
583 125
582 124
581 123
580 122
579 121
578 121
577 120
576 119
575 119
574 118
573 117
572 116
571 116
570 115
569 114
568 114
567 113
566 113
565 112
564 112
563 111
562 111
561 110
560 109
559 108
558 108
557 107
556 106
555 105
554 104
553 103
552 103
551 102
551 101
550 100
549 100
548 99
547 99
546 98
545 98
544 97
543 96
542 95
541 95
540 95
539 94
538 94
537 93
536 92
535 92
534 92
533 91
532 90
531 90
530 91
529 90
529 89
528 89
527 89
526 88
525 88
524 88
523 87
522 87
521 86
520 86
519 85
518 85
517 85
516 84
515 84
514 85
513 85
512 85
511 84
510 85
509 85
508 85
507 84
506 84
505 84
504 85
503 84
502 84
501 84
500 83
499 82
498 82
497 82
496 81
495 81
494 81
493 81
492 80
491 80
490 81
489 80
488 80
487 79
486 79
485 79
484 79
483 80
482 79
482 78
481 78
480 78
479 77
478 78
477 77
476 77
475 76
474 76
473 76
472 76
471 76
470 76
469 75
468 75
467 75
466 74
465 74
464 74
463 73
462 73
461 72
460 73
459 73
458 72
457 72
456 71
455 71
454 71
453 70
452 70
451 70
450 69
449 69
448 69
447 69
446 69
445 68
444 68
443 68
442 68
441 68
440 68
439 69
438 69
437 69
436 69
435 69
434 69
433 69
432 69
431 69
430 69
429 69
428 69
427 68
426 68
425 68
424 68
423 68
422 68
421 68
420 68
419 68
418 67
417 67
416 66
415 66
414 66
413 66
412 66
411 66
410 66
409 66
408 66
407 66
406 66
405 65
404 65
403 65
402 65
401 65
400 64
399 64
398 64
397 64
396 64
395 63
394 63
393 64
392 63
392 62
391 62
390 62
389 61
388 61
387 62
386 61
385 61
384 61
383 61
382 61
381 61
380 60
379 61
378 61
377 60
376 59
375 60
374 60
373 60
372 59
371 59
370 59
369 59
368 59
367 59
366 59
365 59
364 59
363 59
362 60
361 59
360 58
359 58
358 58
357 58
356 58
355 58
354 57
353 57
352 57
