311 78
310 79
309 79
308 80
307 81
306 81
305 82
304 82
303 82
302 82
301 82
300 82
299 82
298 82
297 82
296 82
295 83
294 84
294 85
294 86
293 87
292 86
292 85
291 86
290 86
289 85
288 85
287 85
286 85
285 84
284 85
283 85
282 85
282 86
282 87
281 88
280 89
279 89
278 89
277 90
276 90
275 90
274 90
273 91
272 91
271 92
270 93
269 93
270 94
269 95
268 95
267 94
266 94
265 93
264 93
263 93
262 93
261 93
260 93
259 93
258 94
257 95
257 96
257 97
256 98
255 98
254 99
253 99
252 99
251 99
250 99
249 100
248 100
247 101
246 102
245 103
244 104
243 104
242 104
241 103
240 103
239 103
238 103
237 103
236 103
235 103
234 104
233 104
232 105
232 106
231 107
231 108
230 109
229 110
230 110
231 110
232 111
231 112
230 112
229 112
228 112
227 111
226 111
225 112
224 112
223 112
222 112
221 113
221 114
220 115
219 116
218 116
218 117
217 118
216 118
215 118
214 118
213 118
212 118
211 118
210 119
209 119
208 119
208 120
207 121
206 121
205 121
205 122
205 123
205 124
206 125
205 126
204 126
204 127
203 128
202 129
201 129
200 130
199 130
199 131
199 132
198 133
198 134
197 135
197 136
196 137
195 137
194 136
193 136
192 137
191 137
190 137
189 138
188 138
187 139
186 139
185 140
184 141
184 142
184 143
184 144
184 145
184 146
183 147
182 148
181 149
180 150
179 150
179 151
179 152
178 153
177 154
177 155
176 156
175 156
174 156
173 155
172 156
171 156
170 156
169 157
168 157
167 157
166 158
165 159
164 160
164 161
164 162
164 163
164 164
165 164
166 165
165 166
164 166
163 166
162 166
161 166
160 166
159 167
158 167
157 168
156 169
155 170
154 170
153 171
153 172
152 173
152 174
151 175
150 176
151 176
152 177
151 178
150 179
149 178
148 178
147 178
146 179
145 179
145 180
144 181
143 181
142 182
141 183
140 184
139 185
138 186
138 187
138 188
137 189
137 190
136 191
135 191
134 192
133 193
132 194
131 195
130 196
130 197
131 198
130 199
129 199
128 200
127 200
126 200
125 200
124 201
123 201
122 201
121 201
120 202
119 202
118 203
117 203
117 204
116 205
116 206
116 207
116 208
115 209
114 210
113 211
112 211
111 212
110 213
110 214
109 215
109 216
108 217
107 217
106 218
105 218
104 218
103 218
102 218
101 219
100 219
99 219
98 220
97 221
96 222
95 223
94 223
93 224
92 224
91 225
90 225
89 225
88 226
87 227
86 227
85 228
84 228
83 228
82 228
81 228
80 228
79 228
78 228
77 229
76 230
75 230
74 230
73 231
72 231
71 231
70 231
69 231
68 232
67 232
66 232
65 232
64 232
63 232
62 232
61 232
60 232
59 232
58 232
57 232
56 233
55 233
54 234
53 234
52 235
51 236
50 236
49 237
49 238
49 239
48 240
47 241
48 242
48 243
48 244
49 245
50 245
51 246
52 247
53 248
54 248
55 249
56 249
57 250
58 250
59 250
60 250
61 251
62 251
63 252
64 252
65 252
66 252
67 252
68 252
69 253
70 252
71 252
72 253
73 253
74 253
75 253
76 253
77 253
78 254
79 253
80 254
81 254
82 255
83 254
84 255
85 255
86 255
87 256
88 257
89 257
90 257
91 257
92 258
93 258
94 258
95 259
96 259
97 260
98 260
99 260
100 261
100 262
101 262
102 262
103 262
104 263
105 264
106 264
107 264
108 264
109 265
110 265
111 266
112 266
113 266
114 267
114 268
115 268
116 268
117 269
116 270
115 270
116 270
117 269
118 270
119 269
120 270
121 271
122 271
123 271
124 272
124 273
125 273
126 274
126 275
127 274
128 275
128 276
129 275
130 276
130 277
131 277
132 277
133 278
134 278
135 279
134 280
135 279
136 279
137 278
138 279
138 280
137 281
137 282
137 283
137 284
138 284
139 285
140 286
141 286
142 286
143 287
144 287
145 287
146 287
147 288
147 289
147 290
147 291
148 291
149 291
150 292
151 292
152 293
153 294
154 295
155 296
156 296
157 296
158 297
159 298
159 299
158 300
159 299
160 300
161 301
161 302
162 303
163 304
164 304
165 305
166 305
167 306
168 306
169 306
170 307
171 307
172 307
173 307
174 307
175 308
174 309
173 309
172 309
171 309
170 309
171 309
172 309
173 310
173 311
174 312
175 311
176 311
177 311
178 312
179 312
180 313
181 313
182 314
183 314
184 314
185 314
186 314
187 315
188 316
187 317
186 317
185 316
186 317
187 317
188 317
189 317
190 318
189 319
190 320
190 321
190 322
190 323
190 324
191 324
192 325
193 325
194 325
195 325
196 325
197 325
198 326
199 327
200 327
201 328
202 328
203 328
204 329
204 330
203 331
203 332
203 333
204 334
205 335
206 336
207 336
208 337
209 337
210 338
210 339
211 340
211 341
211 342
212 343
213 344
214 344
215 345
216 344
217 344
218 344
219 345
220 346
221 346
222 347
222 348
222 349
223 349
224 349
225 350
226 351
227 352
228 352
229 353
230 353
231 353
232 353
233 353
234 353
235 353
236 353
237 354
236 355
237 356
238 357
239 358
240 358
241 358
242 358
243 358
244 359
245 359
246 359
247 359
248 359
249 358
250 359
250 360
250 361
250 362
250 363
251 364
252 365
253 365
254 366
255 366
256 367
257 367
258 368
259 369
259 370
260 370
261 371
262 371
263 371
264 372
265 372
266 373
267 373
268 373
269 373
270 374
269 375
270 375
271 375
272 376
273 377
273 378
274 379
275 380
276 380
277 380
278 380
279 381
278 382
278 383
278 382
279 381
280 382
280 383
281 384
282 383
283 384
284 385
285 385
286 385
287 386
288 386
289 386
290 387
291 386
292 387
293 387
294 388
295 388
296 388
297 389
298 389
299 389
300 390
301 391
302 391
303 390
304 390
305 390
306 391
307 391
308 391
309 391
310 391
311 391
312 391
313 392
314 392
315 391
316 392
317 392
318 392
319 392
320 392
321 393
322 393
323 393
324 393
325 393
326 394
327 394
328 394
329 394
330 394
331 394
332 394
333 394
334 394
335 394
336 394
337 394
338 394
339 394
340 394
341 394
342 394
343 394
344 394
345 394
346 394
347 394
348 394
349 394
350 394
351 394
352 394
353 394
354 394
355 394
356 393
357 393
358 393
359 392
360 392
361 392
362 391
363 391
364 391
365 390
366 390
367 390
368 390
369 390
370 390
371 389
372 389
373 388
374 388
375 387
376 387
377 387
378 387
379 387
380 387
381 387
382 386
383 386
384 386
385 386
386 386
387 386
388 385
389 385
389 384
390 383
391 383
392 382
393 382
394 382
395 381
396 381
397 381
398 381
399 380
400 380
401 380
402 379
403 378
404 379
405 379
404 378
405 377
406 377
407 377
408 378
409 377
410 377
411 377
412 377
413 376
414 376
415 376
416 375
417 375
418 375
419 374
420 374
421 374
422 374
423 373
424 373
425 373
426 373
427 373
428 373
429 372
430 372
431 372
432 371
433 371
434 370
435 370
436 370
437 369
438 369
439 369
440 369
441 369
442 369
442 368
443 367
444 367
445 367
446 366
447 365
448 364
449 363
450 362
450 361
451 360
452 360
453 359
454 359
455 358
456 358
457 357
458 356
459 356
460 355
461 355
462 355
463 354
464 354
465 353
466 353
466 352
467 351
468 350
469 349
470 348
470 347
471 346
472 346
473 345
474 345
475 345
476 345
477 344
478 344
479 344
480 343
481 342
482 341
483 341
484 340
485 339
486 339
487 338
488 337
489 337
490 336
491 336
492 335
493 334
494 333
495 334
496 335
495 334
494 333
495 332
496 331
497 331
498 330
499 330
500 329
501 328
501 327
502 326
503 325
504 325
505 325
506 324
507 323
508 323
509 322
509 321
510 320
510 319
511 318
511 317
511 316
511 315
512 314
513 314
514 313
515 312
516 311
516 310
517 309
518 308
519 309
520 308
521 307
522 306
523 305
524 305
524 304
525 303
526 302
526 301
526 300
527 299
527 298
528 297
528 296
527 295
528 294
529 293
530 292
531 291
531 290
530 290
529 290
528 289
529 288
530 288
531 288
532 288
533 288
534 287
534 286
535 285
535 284
535 283
536 282
536 281
536 280
537 279
537 278
537 277
537 276
538 275
538 274
539 273
538 272
539 271
539 270
540 269
540 268
540 267
540 266
540 265
541 264
541 263
541 262
541 261
541 260
541 259
541 258
542 257
543 257
543 256
544 255
544 254
543 253
544 252
545 251
545 250
545 249
545 248
545 247
546 246
546 245
547 244
547 243
548 242
549 242
550 241
551 240
552 239
553 239
554 239
555 239
555 238
556 237
557 237
558 236
559 235
560 235
561 235
562 235
563 234
564 234
565 233
566 233
567 233
568 233
569 232
570 232
571 232
572 231
573 231
574 231
575 231
576 230
577 229
578 229
579 229
580 229
581 229
582 228
583 228
584 227
585 227
586 227
587 227
588 227
589 227
590 226
591 226
592 226
593 225
592 224
593 223
594 223
595 223
596 224
597 223
598 223
599 223
600 222
601 222
602 221
603 221
604 222
604 221
605 220
606 219
607 219
608 219
609 220
609 219
610 218
611 218
612 219
613 219
614 219
615 218
616 218
617 217
618 217
619 217
620 217
621 216
622 216
623 215
624 215
625 214
626 214
627 213
628 212
629 212
630 213
630 212
631 211
632 212
633 212
633 211
634 210
635 210
636 211
635 210
636 209
637 209
638 209
639 209
640 209
641 208
642 208
643 207
644 206
645 207
646 206
647 205
648 206
648 207
649 206
650 205
651 205
652 204
653 204
654 203
655 204
656 203
657 202
658 202
659 203
660 202
661 201
662 201
663 201
664 200
665 199
666 200
667 199
668 199
669 198
670 198
671 198
672 197
673 197
674 196
675 196
676 196
677 196
678 196
679 195
680 194
681 194
682 194
683 194
684 193
685 193
686 193
687 192
688 191
689 192
690 191
691 191
692 191
693 190
694 190
695 190
696 189
697 189
698 189
699 188
700 188
701 188
702 188
703 187
704 187
705 186
706 186
706 185
707 184
708 184
709 183
710 183
711 182
712 181
712 180
713 179
714 178
714 177
713 176
712 175
712 174
711 173
710 173
710 174
711 175
710 176
709 176
708 175
708 174
707 173
706 172
705 172
704 172
703 173
702 173
701 173
700 173
699 173
700 174
701 174
702 174
703 175
703 176
702 177
702 178
701 179
700 180
699 180
698 181
697 181
696 182
695 182
694 182
693 183
692 183
691 184
690 185
689 185
688 186
687 186
686 186
685 187
684 187
683 188
682 188
681 188
680 188
679 189
678 188
678 187
678 188
679 189
678 190
677 190
676 191
675 191
674 191
673 191
672 192
671 192
670 193
669 193
668 194
667 194
666 194
665 194
664 195
663 195
662 196
661 196
660 195
660 194
661 193
662 193
663 193
662 193
661 193
660 192
659 192
658 193
659 194
658 195
657 195
656 195
655 195
654 196
653 195
652 195
653 195
654 196
653 197
652 197
651 197
650 197
649 196
650 197
649 198
648 198
647 197
646 197
645 197
644 198
643 198
644 198
645 199
644 200
643 201
642 201
641 201
640 200
641 199
640 199
639 200
638 200
637 201
636 201
637 201
638 200
639 200
640 200
641 201
640 202
639 202
638 203
637 203
636 203
635 204
634 204
633 203
633 202
632 203
633 203
634 204
633 205
632 205
631 205
630 204
629 204
628 205
627 205
626 206
625 206
624 206
623 207
622 207
621 207
620 208
619 208
619 209
618 210
617 209
616 209
615 210
614 210
615 210
616 211
615 212
614 212
613 212
612 211
611 211
612 211
613 212
612 213
611 213
610 213
609 214
608 214
607 214
606 213
605 213
606 214
605 215
604 215
603 214
602 214
601 214
600 215
599 215
600 216
599 217
598 217
597 216
596 216
595 217
594 217
593 217
592 217
592 218
591 219
590 218
589 218
588 219
587 219
586 219
585 219
584 220
583 221
582 221
581 221
580 222
579 222
578 222
577 222
576 223
575 224
574 223
573 223
572 224
571 224
570 224
569 223
570 224
569 225
568 225
567 225
566 226
565 225
564 224
563 224
562 224
561 224
560 224
559 224
558 224
557 224
556 224
555 223
554 224
553 225
552 226
551 226
550 226
549 225
548 225
547 224
546 224
545 223
544 222
545 221
545 220
545 219
545 218
545 217
545 216
544 215
544 214
544 213
544 212
544 211
544 210
544 209
543 208
544 207
544 206
543 205
542 204
542 203
542 202
542 201
542 200
541 200
540 199
539 198
539 197
538 196
539 195
538 194
538 193
538 192
538 191
537 190
537 189
536 188
535 187
535 186
535 185
535 184
534 185
533 184
532 183
532 182
532 181
532 180
532 179
531 178
531 177
531 176
530 175
530 174
529 173
528 172
528 171
527 171
526 170
525 169
524 168
523 168
522 167
522 166
521 165
521 164
520 163
519 162
518 161
517 160
516 160
515 159
515 158
514 158
513 157
512 157
511 156
511 155
510 154
510 153
509 152
509 151
508 150
507 149
507 148
506 148
505 148
504 147
503 146
502 145
501 146
500 145
499 144
498 143
497 142
496 141
495 140
494 140
493 139
492 139
491 139
490 138
489 137
488 136
488 135
487 134
487 133
486 132
485 131
484 130
483 129
482 128
481 127
480 127
479 126
478 126
477 126
476 126
475 125
474 126
473 126
472 125
471 124
470 123
469 122
468 122
467 122
466 121
466 120
466 119
465 118
464 117
463 117
462 117
461 117
460 117
459 117
458 116
457 115
456 114
455 113
454 112
453 111
452 110
451 110
450 109
449 109
448 109
447 109
446 109
445 109
444 108
443 108
442 108
441 108
440 107
439 107
438 107
437 107
436 108
435 107
434 106
434 105
433 104
432 104
431 103
430 103
429 103
428 103
427 104
426 104
427 105
426 106
425 106
424 105
423 104
423 103
422 103
421 102
420 102
419 102
418 102
417 103
416 103
415 103
414 104
413 103
413 102
412 101
411 100
410 100
409 99
408 99
407 99
406 99
405 100
404 100
403 100
402 99
401 98
401 97
400 96
399 96
398 96
397 95
396 95
395 95
394 95
393 94
393 93
393 92
392 91
391 90
390 89
389 88
388 88
387 88
386 88
385 87
384 87
383 87
382 87
381 87
380 86
379 85
378 84
377 84
376 84
375 83
374 83
373 84
372 84
371 84
370 84
369 85
368 84
367 83
366 84
365 83
364 82
363 81
362 81
361 80
360 80
359 80
358 80
357 81
356 81
355 82
354 82
353 82
352 82
351 81
350 81
349 81
348 81
347 81
346 81
345 81
344 81
343 81
342 82
343 83
342 84
341 84
340 83
340 82
339 82
338 81
337 80
336 79
335 79
334 78
333 78
332 78
331 78
330 79
329 79
328 80
327 80
326 81
325 80
324 80
323 79
322 79
321 80
320 80
319 80
318 81
317 81
316 81
315 80
314 80
313 79
312 78
311 78
