343 29
342 30
341 31
340 30
339 30
338 30
337 30
336 30
335 30
334 30
333 30
332 31
331 31
330 31
329 31
328 31
327 31
326 31
325 31
324 31
324 32
323 33
322 33
321 33
320 33
319 33
318 33
317 33
316 33
316 34
315 35
314 36
313 37
312 37
311 37
310 37
309 37
308 37
307 37
306 37
305 38
305 39
304 40
303 41
302 41
301 41
300 41
299 41
298 42
297 42
296 42
296 43
295 44
295 45
295 46
294 47
293 47
292 48
291 48
290 48
289 48
288 49
287 50
286 50
285 51
284 51
284 52
284 53
283 54
282 55
281 55
280 55
279 56
278 56
277 56
276 56
275 57
274 57
273 58
272 59
271 60
270 60
269 60
268 60
267 60
266 61
265 61
264 61
263 62
263 63
262 64
261 64
260 64
259 64
258 64
257 64
256 65
255 65
254 65
254 66
253 67
252 67
251 67
250 67
249 67
248 68
247 68
246 69
245 69
245 70
244 71
243 72
242 73
241 72
240 73
239 73
238 73
237 73
236 74
235 74
234 75
233 75
232 76
231 76
231 77
231 78
231 79
230 80
229 81
228 81
227 81
226 81
225 82
224 82
223 82
223 83
222 84
221 84
220 84
219 85
218 86
218 87
217 88
217 89
216 90
215 89
214 90
213 90
212 90
211 91
210 91
209 92
208 92
208 93
208 94
208 95
207 96
206 97
205 97
204 97
203 97
202 97
201 98
200 99
199 99
198 100
197 100
197 101
197 102
196 103
195 104
194 104
193 105
192 105
191 106
190 107
189 108
188 109
187 109
186 110
185 110
184 111
183 111
183 112
182 113
181 114
180 115
179 115
178 115
177 115
176 116
175 116
174 116
173 117
173 118
173 119
173 120
172 121
171 121
170 121
169 121
168 122
167 122
166 122
165 123
164 124
163 124
162 125
161 125
161 126
161 127
161 128
160 129
159 129
158 129
157 129
156 130
155 130
154 131
153 131
152 132
152 133
151 134
150 134
149 135
148 136
147 137
147 138
147 139
146 140
145 140
144 141
143 141
142 141
141 142
140 142
140 143
140 144
139 145
138 145
137 145
136 146
135 147
134 148
134 149
133 150
132 151
131 151
130 151
129 152
128 153
127 154
126 154
125 154
124 155
123 155
122 156
121 156
121 157
120 158
119 158
118 159
117 159
116 159
115 160
114 160
113 161
112 162
111 162
110 163
109 164
108 164
107 164
106 165
105 165
104 166
103 166
103 167
102 168
101 168
100 168
99 168
98 169
97 169
96 170
95 171
94 171
93 171
92 171
91 171
90 172
89 172
88 173
87 173
86 173
85 173
84 173
83 174
82 174
81 174
80 174
79 174
78 174
77 174
76 174
75 174
74 174
73 174
72 175
71 175
70 175
69 175
68 175
67 175
66 175
65 175
64 175
63 175
62 175
61 174
60 174
59 174
58 174
57 173
56 173
55 173
54 173
53 174
53 175
54 176
55 176
56 177
57 178
58 178
59 179
60 179
61 179
62 180
63 180
64 180
65 180
66 181
67 181
68 181
69 182
70 182
71 183
72 183
73 183
74 184
75 184
76 184
77 185
78 185
79 186
80 186
81 186
82 186
83 187
84 187
85 187
86 188
87 188
88 189
89 190
90 190
91 191
92 191
93 191
94 192
95 192
96 193
97 194
98 195
99 195
100 196
101 196
102 197
103 197
104 198
105 198
106 199
107 200
108 201
109 202
110 203
111 203
112 204
113 205
114 205
115 206
116 206
117 207
117 208
118 209
118 210
119 210
120 211
121 212
122 212
123 213
124 214
125 215
126 215
127 215
128 216
129 217
129 218
129 219
130 220
131 221
132 222
133 223
134 224
135 224
136 225
137 226
138 226
139 227
140 228
140 229
140 230
141 231
142 231
143 232
144 233
145 234
146 235
147 235
148 236
149 237
150 238
150 239
151 240
152 241
153 241
154 242
154 243
155 243
156 244
157 244
158 245
158 246
158 247
159 248
160 249
161 250
162 250
163 251
164 251
165 251
166 252
166 253
166 254
166 255
166 256
167 256
168 257
169 258
170 259
171 259
172 259
173 260
174 261
174 262
175 263
176 264
177 265
178 266
179 266
180 267
181 268
181 269
181 270
182 271
182 272
183 273
184 273
185 274
186 274
187 275
188 275
189 275
190 275
191 275
192 276
193 277
193 278
193 279
194 279
195 280
196 281
197 281
198 282
199 282
200 283
201 284
202 285
202 286
202 287
203 288
204 288
205 289
206 290
207 290
208 290
209 291
210 291
211 291
212 292
213 293
213 294
214 295
215 296
216 297
217 297
218 298
219 298
220 299
221 300
222 300
223 300
224 300
225 301
226 302
227 303
227 304
228 305
229 306
230 306
231 307
232 307
233 308
234 308
235 309
236 309
237 309
238 310
238 311
239 312
240 313
241 314
242 315
243 316
244 316
245 317
246 317
247 318
248 318
249 319
250 320
250 321
251 322
251 323
252 323
253 324
254 325
255 325
256 325
257 326
258 326
259 326
260 327
261 327
262 328
262 329
263 330
264 331
265 332
266 332
267 332
268 333
269 333
270 333
271 334
272 334
273 334
274 335
275 336
276 337
277 338
278 338
279 338
280 339
281 339
282 339
283 340
284 340
285 340
286 340
287 340
288 341
289 342
289 343
289 344
290 345
291 346
292 346
293 346
294 347
295 347
296 347
297 347
298 348
299 349
300 349
301 350
302 350
303 351
304 351
305 351
306 351
307 351
308 351
309 351
310 352
311 352
312 353
313 353
314 353
315 353
316 353
317 353
318 353
319 353
320 353
321 353
322 353
323 353
324 353
325 354
326 354
327 354
328 354
329 354
330 354
331 354
332 354
333 354
334 354
335 354
336 354
337 354
338 353
339 353
340 353
341 353
342 353
343 353
344 353
345 354
346 354
347 354
348 354
349 354
350 354
351 354
352 353
353 353
354 353
355 353
356 353
357 353
358 353
359 353
360 353
361 353
362 353
363 353
364 353
365 353
366 353
367 353
368 353
369 353
370 353
371 352
372 352
373 352
374 352
375 352
376 352
377 352
378 352
379 351
380 351
381 351
382 351
383 350
384 350
385 350
386 350
387 349
388 349
389 348
390 348
391 348
392 348
393 347
394 347
395 347
396 346
397 346
398 346
399 345
400 345
401 344
402 344
403 344
404 343
405 343
406 342
407 342
408 342
409 341
410 341
411 340
412 340
413 339
414 339
415 338
416 338
417 337
418 337
419 337
420 336
421 336
422 336
423 335
424 335
425 335
426 334
427 334
428 333
429 333
430 332
431 332
432 331
433 331
434 330
435 330
436 330
437 329
438 328
439 328
440 327
441 327
442 326
443 326
444 325
445 325
446 324
447 324
448 323
449 323
450 323
451 322
452 321
453 321
454 320
455 320
456 319
457 318
458 318
459 317
460 317
461 316
462 316
463 315
464 314
465 314
466 313
467 313
468 312
469 312
470 311
471 310
472 309
473 309
474 308
475 307
476 306
477 306
477 305
478 304
479 304
480 303
481 302
482 301
483 301
484 300
485 299
485 298
486 297
487 296
488 295
489 294
490 293
491 292
492 291
493 290
494 289
495 288
496 287
496 286
497 285
498 285
498 284
499 283
500 282
501 281
501 280
502 279
503 278
504 277
505 276
506 275
506 274
507 273
508 272
509 271
509 270
510 269
511 268
511 267
512 266
513 265
513 264
514 263
515 262
516 261
516 260
517 259
518 259
518 258
519 257
520 256
521 255
521 254
522 253
523 252
523 251
524 250
525 250
525 249
526 248
527 247
527 246
528 245
528 244
529 243
530 242
530 241
531 240
532 239
532 238
533 237
534 236
534 235
535 234
535 233
535 232
536 231
536 230
537 229
537 228
537 227
538 226
538 225
538 224
539 223
539 222
539 221
539 220
540 219
540 218
540 217
540 216
541 215
541 214
541 213
541 212
541 211
542 210
542 209
542 208
542 207
542 206
543 205
543 204
543 203
543 202
543 201
544 200
544 199
544 198
544 197
544 196
544 195
544 194
544 193
544 192
544 191
544 190
544 189
544 188
543 187
543 186
543 185
543 184
543 183
543 182
544 181
545 181
546 180
547 180
548 180
549 180
550 180
551 180
552 180
553 180
554 180
555 180
556 180
557 180
558 181
559 181
560 181
561 181
562 181
563 181
564 181
565 181
566 181
567 181
568 181
569 181
570 181
571 181
572 181
573 181
574 181
575 181
576 181
577 181
578 181
579 181
580 181
581 181
582 181
583 181
584 181
585 181
586 181
587 181
588 181
589 181
590 181
591 181
592 181
593 180
594 180
595 180
596 180
597 180
598 180
599 180
600 180
601 180
602 180
603 180
604 180
605 180
606 180
607 180
608 180
609 180
610 180
611 180
612 180
613 180
614 180
615 180
616 179
617 179
618 179
619 179
620 179
621 179
622 179
623 179
624 179
625 179
626 179
627 179
628 178
629 178
630 178
631 178
632 178
633 178
634 178
635 178
636 178
637 178
638 178
639 177
640 177
641 177
642 177
643 177
644 177
645 177
646 177
647 177
648 177
649 177
650 176
651 176
652 176
653 176
654 176
655 176
656 176
657 176
658 176
659 175
660 175
661 175
662 175
663 175
664 175
665 175
666 175
667 175
668 175
669 174
670 174
671 174
672 174
673 174
674 174
675 174
676 174
677 173
678 173
679 173
680 173
681 173
682 173
683 173
684 173
685 173
686 172
687 172
688 172
689 172
690 172
691 172
692 172
693 172
694 171
695 171
696 171
697 171
698 171
699 171
700 170
701 170
702 170
703 170
704 170
705 169
706 169
707 169
708 169
709 169
710 169
711 169
712 168
713 168
714 168
715 168
716 168
717 168
718 168
719 167
720 167
721 167
722 167
723 167
724 166
725 166
726 166
727 166
728 166
729 165
730 165
731 165
732 165
733 165
734 164
735 164
736 164
737 164
738 164
739 163
740 163
741 163
742 163
743 162
744 162
745 162
746 161
747 161
748 161
749 161
750 160
751 160
752 160
753 159
754 159
755 158
756 158
757 158
758 157
759 157
760 157
761 156
762 156
763 155
764 155
765 154
766 154
767 153
768 153
769 152
770 152
771 151
772 150
773 150
774 149
775 148
776 147
777 146
777 145
777 144
777 143
777 142
777 141
777 140
776 139
775 139
774 139
773 140
772 141
771 142
771 143
770 144
769 145
768 145
767 146
766 147
765 148
764 148
763 149
762 150
761 150
760 150
759 151
758 151
757 152
756 152
755 152
754 153
753 153
752 153
751 154
750 154
749 154
748 154
747 155
746 155
745 155
744 156
743 156
742 156
741 156
740 156
739 157
738 157
737 157
736 158
735 158
734 158
733 158
732 159
731 159
730 159
729 159
728 159
727 160
726 160
725 160
724 160
723 160
722 160
721 161
720 161
719 161
718 161
717 161
716 161
715 161
714 161
713 162
712 162
711 162
710 162
709 162
708 162
707 163
706 163
705 163
704 163
703 163
702 163
701 163
700 163
699 164
698 164
697 164
696 164
695 164
694 164
693 164
692 164
691 164
690 165
689 165
688 165
687 165
686 165
685 165
684 166
683 166
682 166
681 166
680 166
679 166
678 166
677 166
676 167
675 167
674 167
673 167
672 167
671 167
670 167
669 167
668 167
667 167
666 167
665 167
664 168
663 168
662 168
661 168
660 168
659 168
658 168
657 168
656 168
655 168
654 168
653 169
652 169
651 169
650 169
649 169
648 169
647 169
646 169
645 169
644 169
643 169
642 169
641 169
640 170
639 170
638 170
637 170
636 170
635 170
634 170
633 170
632 171
631 171
630 171
629 171
628 171
627 171
626 171
625 171
624 171
623 171
622 171
621 171
620 171
619 171
618 172
617 172
616 172
615 172
614 172
613 172
612 172
611 172
610 172
609 172
608 172
607 172
606 173
605 173
604 173
603 173
602 173
601 173
600 173
599 173
598 173
597 173
596 173
595 173
594 173
593 173
592 173
591 174
590 174
589 174
588 174
587 174
586 174
585 174
584 174
583 174
582 174
581 174
580 174
579 174
578 174
577 174
576 174
575 174
574 174
573 174
572 174
571 174
570 174
569 174
568 174
567 174
566 174
565 174
564 174
563 174
562 174
561 174
560 174
559 174
558 174
557 174
556 174
555 174
554 174
553 174
552 174
551 174
550 174
549 174
548 174
547 173
546 173
545 173
544 174
543 174
542 173
542 172
542 171
542 170
542 169
542 168
542 167
542 166
543 165
543 164
543 163
544 162
544 161
544 160
544 159
544 158
544 157
544 156
544 155
544 154
544 153
544 152
543 151
543 150
543 149
543 148
542 147
542 146
542 145
541 144
541 143
540 142
540 141
540 140
540 139
540 138
539 137
539 136
539 135
538 134
538 133
538 132
537 131
537 130
537 129
537 128
536 127
536 126
536 125
535 124
535 123
534 122
534 121
534 120
533 119
533 118
533 117
532 116
532 115
532 114
531 113
531 112
530 111
530 110
529 109
529 108
528 107
527 106
527 105
526 104
525 103
525 102
524 101
523 100
523 99
522 98
522 97
521 96
520 95
520 94
519 93
518 92
518 91
517 90
516 89
515 88
515 87
514 86
513 85
513 84
512 83
511 82
510 81
509 80
508 79
508 78
507 77
506 77
505 76
504 75
503 74
503 73
502 72
501 72
500 71
499 70
498 69
497 69
496 68
495 67
494 67
493 66
492 65
491 64
490 64
489 63
488 62
487 62
486 61
485 61
484 60
483 59
482 59
481 58
480 58
479 58
478 57
477 56
476 56
475 55
474 55
473 55
472 55
471 54
470 53
469 53
468 52
467 52
466 52
465 51
464 51
463 50
462 50
461 49
460 49
459 50
458 49
457 48
456 48
455 48
454 47
453 47
452 46
451 46
450 47
449 46
448 46
447 45
446 45
445 44
444 44
443 44
442 44
441 44
440 44
439 44
438 43
437 43
436 42
435 42
434 42
433 43
432 42
431 41
430 40
429 40
428 40
427 39
426 38
425 38
424 38
423 38
422 38
421 38
420 38
419 38
418 37
417 37
416 37
415 36
414 37
413 37
412 37
411 36
410 36
409 36
408 36
407 35
406 35
405 36
404 35
403 35
402 34
401 34
400 33
399 33
398 33
397 33
396 34
395 33
394 33
393 33
392 32
391 32
390 32
389 32
388 32
387 32
386 32
385 33
384 32
383 32
382 31
381 31
380 31
379 31
378 31
377 31
376 31
375 32
374 32
373 31
372 31
371 31
370 30
369 30
368 31
367 31
366 31
365 31
364 31
363 30
362 30
361 30
360 31
359 31
358 30
357 30
356 30
355 30
354 30
353 30
352 30
351 30
350 31
349 31
348 31
347 30
346 30
345 30
344 30
343 29
