352 87
351 88
350 89
349 89
348 89
347 89
346 90
345 90
344 90
343 91
342 91
341 91
340 91
339 91
338 91
337 91
336 91
335 91
334 92
333 92
332 92
331 92
330 92
329 93
328 93
327 93
326 93
325 93
324 94
323 94
322 94
321 94
320 94
319 95
318 96
317 96
316 96
315 96
314 97
313 97
312 97
311 97
310 98
309 98
308 98
307 99
306 99
305 99
304 100
303 100
302 100
301 101
300 101
299 102
298 102
297 102
296 102
295 103
294 103
293 103
292 103
291 103
290 103
289 103
289 104
288 105
287 105
286 105
285 104
284 105
284 106
283 107
283 108
282 109
281 110
280 110
279 111
278 112
277 112
276 113
275 113
274 113
273 114
272 115
271 115
270 116
269 117
268 117
267 118
266 118
265 119
264 119
263 119
262 120
261 121
260 121
259 122
258 122
257 122
256 123
255 124
254 124
253 125
252 125
251 126
250 126
249 127
248 127
247 128
246 128
245 129
244 129
243 129
242 129
241 129
240 130
239 130
238 129
237 129
236 130
236 131
236 132
235 133
234 134
233 134
232 134
231 135
230 135
229 136
228 136
227 136
226 136
225 137
224 137
223 138
222 138
221 138
220 139
219 139
218 140
217 140
216 140
215 141
214 141
213 142
212 142
211 142
210 143
209 143
208 143
207 144
206 144
205 144
204 145
203 145
202 145
201 145
200 146
199 146
198 146
197 147
196 147
195 148
194 148
193 148
192 149
191 149
190 150
189 150
188 151
187 151
186 152
185 152
184 153
183 154
182 154
181 155
180 156
179 156
178 157
177 157
176 158
175 159
174 160
173 160
172 161
171 162
170 162
169 163
168 164
167 165
166 166
165 167
164 168
163 168
162 169
161 170
160 171
159 172
158 173
157 174
156 175
155 175
154 176
153 177
152 178
151 179
150 180
149 180
148 181
147 182
146 183
145 184
144 185
143 186
142 187
141 188
140 189
139 190
138 191
137 192
136 193
136 194
135 195
134 196
134 197
134 198
133 199
132 199
131 200
130 201
129 202
129 203
128 204
128 205
127 206
126 207
126 208
125 209
124 210
123 211
122 212
121 213
121 214
120 215
119 216
118 217
118 218
117 219
116 220
115 221
114 222
113 223
113 224
112 225
111 225
110 226
109 227
108 228
108 229
107 230
106 231
105 232
104 233
103 234
102 235
102 236
101 237
100 238
99 239
99 240
98 241
98 242
97 243
96 244
96 245
95 246
95 247
94 248
94 249
94 250
93 251
93 252
92 253
92 254
91 255
91 256
90 257
90 258
89 259
89 260
89 261
88 262
87 263
87 264
87 265
87 266
86 267
85 268
85 269
84 270
83 271
82 272
81 273
81 274
80 275
79 276
78 277
78 278
77 279
76 280
75 281
74 282
73 283
72 283
71 284
70 285
69 286
70 287
71 287
72 287
73 287
74 287
75 287
76 287
77 287
78 287
79 287
80 287
81 288
82 288
83 288
84 288
85 289
86 289
87 290
88 290
89 291
90 291
91 292
92 292
93 292
94 293
95 293
96 294
97 294
98 294
99 295
100 296
101 297
102 297
103 298
104 299
105 299
106 299
107 300
108 300
109 301
110 301
111 302
112 302
113 303
114 304
115 304
116 305
117 305
118 306
119 306
120 307
121 308
122 308
123 309
124 309
125 310
126 311
127 312
128 312
129 313
130 314
131 314
132 315
133 316
134 316
135 317
136 318
137 318
138 319
139 319
140 320
141 320
142 320
143 321
144 321
145 322
146 323
147 323
148 324
149 324
150 325
151 325
152 326
153 326
154 326
155 327
156 328
157 329
158 329
159 330
160 330
161 331
162 332
163 332
164 332
165 333
166 333
167 333
168 334
169 334
170 335
171 335
172 336
173 337
174 337
175 338
176 338
177 339
178 340
179 340
180 341
181 341
182 342
183 343
184 344
185 344
186 345
187 346
188 346
189 347
190 347
191 348
192 349
193 350
194 351
195 352
196 352
197 352
198 353
199 354
200 354
201 354
202 354
203 355
204 355
205 355
206 355
207 355
208 355
209 355
210 356
211 356
212 356
213 356
214 356
215 356
216 356
217 357
218 357
219 357
220 357
221 357
222 357
223 357
224 357
225 358
226 358
227 358
228 358
229 358
230 358
231 358
232 358
233 359
234 359
235 359
236 359
237 359
238 359
239 359
240 359
241 360
242 360
243 360
244 360
245 360
246 360
247 360
248 360
249 360
250 360
251 361
252 361
253 361
254 361
255 361
256 361
257 361
258 360
259 360
260 360
261 360
262 360
263 360
264 360
265 360
266 360
267 360
268 360
269 360
270 360
271 360
272 360
273 360
274 360
275 360
276 360
277 360
278 360
279 360
280 360
281 360
282 360
283 360
284 360
285 361
286 361
287 361
288 361
289 361
290 361
291 361
292 362
293 362
294 362
295 362
296 362
297 363
298 363
299 363
300 363
301 363
302 362
303 362
304 362
305 362
306 362
307 362
308 361
309 361
310 361
311 361
312 361
313 360
314 360
315 360
316 360
317 360
318 360
319 360
320 360
321 359
322 359
323 359
324 359
325 359
326 359
327 359
328 359
329 359
330 359
331 359
332 360
333 360
334 359
335 359
336 359
337 359
338 359
339 359
340 358
341 358
342 358
343 358
344 357
345 357
346 357
347 357
348 356
349 356
350 356
351 356
352 356
353 355
354 355
355 355
356 355
357 355
358 355
359 354
360 354
361 354
362 354
363 354
364 354
365 354
366 353
367 353
368 353
369 353
370 353
371 353
372 352
373 352
374 352
375 352
376 352
377 352
378 352
379 352
380 352
381 352
382 351
383 351
384 351
385 351
386 351
387 351
388 351
389 351
390 351
391 351
392 351
393 352
394 352
395 352
396 352
397 351
398 352
399 352
400 351
401 351
402 350
403 350
404 349
405 349
406 348
407 348
408 348
409 348
410 347
411 347
412 347
413 347
414 347
415 346
416 346
417 346
418 346
419 346
420 345
421 345
422 345
423 345
424 345
425 345
426 345
427 344
428 344
429 344
430 344
431 344
432 344
433 344
434 343
435 343
436 343
437 343
438 343
439 342
440 342
441 342
442 342
443 342
444 341
445 341
446 341
447 341
448 341
449 340
450 340
451 340
452 340
453 340
454 339
455 339
456 339
457 338
458 338
459 338
460 337
461 337
462 337
463 336
464 336
465 336
466 335
467 335
468 334
469 334
470 333
471 333
472 333
473 332
474 332
475 331
476 331
477 331
478 330
479 329
480 329
481 329
482 328
483 328
484 327
485 327
486 326
487 326
488 325
489 325
490 324
491 324
492 324
493 323
494 322
495 322
496 321
497 321
498 320
499 320
500 319
501 319
502 318
503 318
504 317
505 316
506 316
507 315
508 315
509 314
510 313
511 313
512 312
513 311
514 311
515 310
516 310
517 309
518 308
519 308
520 307
521 306
522 305
523 305
524 304
525 304
526 303
527 303
528 302
529 301
530 300
531 299
532 299
533 298
534 297
535 297
536 296
537 295
538 294
539 293
540 292
541 292
542 291
543 290
544 289
545 288
546 288
547 287
548 286
549 285
550 284
551 283
552 283
553 282
554 281
555 280
556 279
557 278
558 277
559 276
560 275
561 274
562 273
563 272
564 272
565 271
566 270
567 269
568 268
569 267
570 267
571 266
572 265
573 264
574 263
575 262
576 261
577 260
578 259
579 258
580 257
581 256
582 256
583 255
584 254
585 253
586 252
587 251
588 250
589 249
590 248
591 247
592 246
593 245
594 244
595 243
596 242
597 241
598 240
599 239
600 238
601 237
602 236
603 235
604 234
605 233
606 232
607 231
608 230
609 229
610 228
611 227
612 226
613 225
614 224
614 223
615 222
616 222
616 221
617 220
618 220
619 219
620 218
621 217
622 216
623 216
624 215
625 215
626 214
627 214
628 214
629 214
630 213
631 213
632 213
633 213
634 212
635 212
636 212
637 212
638 211
639 211
640 211
641 211
642 211
643 211
644 211
645 211
646 210
647 210
648 210
649 210
650 210
651 210
652 210
653 210
654 210
655 209
656 209
657 209
658 209
659 209
660 209
661 209
662 209
663 209
664 209
665 209
666 209
667 209
668 209
669 209
670 209
671 209
672 209
673 209
674 209
675 209
676 209
677 209
678 209
679 209
680 209
681 209
682 209
683 209
684 209
685 209
686 209
687 209
688 209
689 209
690 209
691 209
692 210
693 210
694 210
695 210
696 210
697 210
698 209
699 209
700 209
701 209
702 209
703 209
704 209
705 208
706 208
707 208
708 207
708 206
709 205
709 204
710 203
710 202
710 201
709 200
709 199
708 198
707 197
706 196
706 195
705 195
704 194
703 193
702 193
701 193
700 193
699 193
698 193
697 193
696 193
695 193
694 192
693 192
692 192
691 192
690 192
689 192
688 192
687 192
686 192
685 192
684 192
683 192
682 192
681 192
680 191
679 191
678 191
677 191
676 191
675 191
674 191
673 191
672 191
671 191
670 191
669 191
668 191
667 191
666 191
665 191
664 191
663 191
662 191
661 191
660 191
659 191
658 191
657 191
656 191
655 191
654 191
653 191
652 191
651 191
650 191
649 191
648 191
647 191
646 191
645 191
644 191
643 191
642 191
641 191
640 191
639 191
638 191
637 191
636 191
635 191
634 191
633 191
632 191
631 191
630 191
629 191
628 191
627 190
626 190
625 189
624 189
623 189
622 189
621 188
620 188
619 188
618 187
617 187
616 186
615 186
614 186
613 185
612 184
611 184
610 183
609 183
608 183
607 182
606 181
605 181
604 181
603 180
602 179
601 178
600 178
599 178
598 177
597 176
596 176
595 175
594 174
593 174
592 173
591 173
590 172
589 171
588 171
587 170
586 169
585 169
584 168
583 168
582 167
581 166
580 166
579 165
578 165
577 164
576 163
575 162
574 162
573 161
572 161
571 160
570 159
569 159
568 158
567 157
566 157
565 157
564 156
563 155
562 155
561 154
560 153
559 152
558 152
557 152
556 151
555 151
554 150
553 149
552 149
551 148
550 148
549 147
548 147
547 146
546 145
545 145
544 144
543 143
542 143
541 143
540 142
539 141
538 141
537 141
536 141
535 140
534 139
533 138
532 138
531 137
530 136
529 136
528 135
527 135
526 134
525 133
524 133
523 132
522 131
521 131
520 131
519 130
518 129
517 129
516 128
515 127
514 127
513 126
512 126
511 125
510 125
509 124
508 123
507 123
506 122
505 122
504 122
503 121
502 120
501 120
500 119
499 119
498 118
497 118
496 117
495 117
494 116
493 116
492 115
491 115
490 115
489 114
488 113
487 113
486 112
485 112
484 111
483 111
482 110
481 110
480 110
479 109
478 109
477 108
476 108
475 108
474 107
473 107
472 106
471 106
470 105
469 105
468 105
467 104
466 104
465 103
464 103
463 103
462 103
461 102
460 102
459 101
458 101
457 101
456 100
455 100
454 100
453 99
452 99
451 99
450 99
449 98
448 98
447 98
446 98
445 98
444 98
443 98
442 98
441 97
440 97
439 97
438 97
437 96
436 96
435 96
434 96
433 96
432 95
431 95
430 95
429 95
428 94
427 94
426 94
425 94
424 94
423 94
422 93
421 93
420 93
419 93
418 93
417 93
416 93
415 93
414 93
413 92
412 92
411 92
410 92
409 92
408 92
407 92
406 92
405 92
404 92
403 92
402 92
401 91
400 91
399 91
398 91
397 91
396 91
395 91
394 91
393 91
392 91
391 91
390 91
389 91
388 91
387 90
386 90
385 91
384 91
383 91
382 91
381 91
380 90
379 90
378 91
377 91
376 90
375 90
374 90
373 90
372 90
371 90
370 90
369 90
368 89
367 89
366 89
365 89
364 89
363 89
362 89
361 89
360 88
359 88
358 88
357 88
356 88
355 88
354 87
353 87
352 87
