316 39
315 40
314 40
313 40
314 40
315 40
316 41
316 42
316 43
315 44
314 45
313 45
312 45
311 45
310 45
309 45
308 45
307 45
306 45
305 45
304 45
303 45
302 45
301 45
300 44
299 44
298 44
297 44
296 44
295 44
294 44
293 44
292 44
291 44
290 45
289 45
288 45
287 45
286 45
285 45
284 45
283 45
282 45
281 45
280 45
279 45
278 45
277 46
276 46
275 46
274 46
273 46
272 46
271 46
270 46
269 46
268 46
267 46
266 46
265 47
264 47
263 46
262 47
263 47
264 48
264 49
264 50
264 51
264 52
263 53
262 54
261 54
260 55
259 55
258 55
257 55
256 55
255 56
254 56
253 56
252 56
251 56
250 56
249 56
248 56
247 56
246 56
245 57
244 57
243 57
242 57
241 57
240 57
239 58
238 58
237 58
236 58
235 58
234 59
233 59
232 59
231 59
230 60
229 60
228 60
227 61
226 61
225 61
224 61
223 61
222 61
221 61
220 62
219 62
218 62
217 62
216 62
215 62
214 63
213 63
212 63
211 63
210 63
209 64
208 64
207 65
206 65
205 65
204 65
203 65
202 65
203 65
204 65
205 66
206 66
207 67
207 68
207 69
207 70
207 71
206 72
205 73
204 73
203 74
202 75
201 75
200 76
199 76
198 76
197 76
196 77
195 77
194 77
193 78
192 78
191 78
190 79
189 79
188 80
187 80
186 80
185 81
184 81
183 82
182 82
181 82
180 83
179 83
178 84
177 84
176 85
175 85
174 86
173 86
172 87
171 87
170 87
169 88
168 89
167 89
166 90
165 90
164 90
163 90
162 90
163 90
164 91
165 92
165 93
165 94
165 95
164 96
164 97
163 98
162 99
161 100
160 101
159 102
158 102
157 103
156 103
155 104
154 104
153 105
152 105
151 106
150 106
149 107
148 107
147 107
146 108
145 108
144 109
143 109
142 109
141 110
140 110
139 111
138 111
137 112
136 112
135 113
134 114
133 114
132 115
133 115
134 115
135 116
136 117
135 118
135 119
134 120
134 121
133 122
132 123
131 124
130 124
129 125
128 125
127 126
126 126
125 127
124 127
123 128
122 128
121 129
120 129
119 130
118 130
117 130
116 131
115 131
114 132
113 132
112 133
111 133
110 134
109 134
108 134
107 134
106 135
105 135
106 135
107 135
108 136
108 137
108 138
108 139
107 140
107 141
106 142
105 143
104 143
103 144
102 144
101 145
100 145
99 145
98 146
97 146
96 146
95 146
94 146
93 146
92 146
91 146
90 147
89 147
88 147
87 147
86 148
85 148
84 148
83 148
82 148
81 148
80 148
79 148
80 148
81 148
82 149
83 150
83 151
82 152
81 152
80 153
79 154
78 154
77 154
76 154
75 155
74 155
73 155
72 155
71 155
70 155
69 155
68 156
67 156
66 156
65 156
64 156
63 156
62 157
61 157
60 157
59 157
58 157
57 157
57 158
56 159
55 159
54 160
53 160
52 160
51 161
50 161
49 161
48 161
47 161
46 161
45 161
44 161
45 162
46 162
47 162
48 162
49 163
50 164
50 165
51 166
52 166
53 167
54 167
55 168
56 168
57 169
58 169
59 170
60 171
61 171
62 172
63 172
64 173
65 173
66 174
67 174
68 174
69 174
70 175
71 175
72 176
73 176
74 176
75 176
76 177
77 178
78 179
79 179
80 179
81 180
82 181
83 182
84 183
85 184
86 184
87 185
88 185
89 185
90 186
91 186
92 187
93 187
94 188
95 188
96 189
97 189
98 190
99 190
100 191
101 192
102 192
103 193
102 194
101 194
102 195
103 195
104 196
105 197
105 198
106 198
107 199
108 200
109 201
110 201
111 202
112 202
113 203
114 203
115 204
116 204
117 204
118 205
119 206
120 206
121 207
122 208
123 209
123 210
124 211
124 212
125 213
125 214
124 215
123 216
122 216
123 216
124 216
125 216
126 217
127 218
127 219
128 220
129 220
130 221
131 221
132 222
133 222
134 223
135 224
136 224
137 225
138 225
139 226
140 226
141 227
142 227
143 228
144 228
145 229
146 229
147 230
148 231
149 232
150 233
151 233
152 234
152 235
152 236
151 237
150 237
149 236
148 235
149 236
150 237
151 238
152 238
153 239
154 240
154 241
155 242
156 242
157 243
158 243
159 244
160 244
161 244
162 245
163 245
164 245
165 246
166 246
167 246
168 247
169 247
170 247
171 248
172 248
173 248
174 248
175 249
176 249
177 249
178 250
179 250
180 250
181 251
182 252
183 252
184 253
185 254
186 255
187 256
187 257
187 258
186 259
185 259
184 259
185 259
186 260
187 260
188 261
187 262
188 262
189 262
190 263
191 263
192 264
193 264
194 264
195 265
196 265
197 265
198 266
199 266
200 266
201 267
202 267
203 267
204 267
205 268
206 268
207 268
208 268
209 268
210 269
211 269
212 269
213 269
214 270
215 270
216 270
217 271
218 271
219 271
220 272
221 272
222 272
223 273
224 274
225 274
226 275
226 276
226 277
225 278
224 278
225 278
226 279
227 279
228 279
229 280
229 281
229 282
230 282
231 283
232 283
233 283
234 284
235 284
236 284
237 285
238 285
239 285
240 286
241 286
242 287
243 287
244 287
245 288
246 288
247 288
248 288
249 289
250 289
251 290
252 290
253 290
254 291
255 291
256 291
257 291
258 292
259 292
260 292
261 293
262 293
263 294
264 295
263 296
262 297
261 297
260 297
259 297
260 297
261 297
262 298
263 298
264 298
265 298
266 298
267 299
266 300
265 301
266 301
267 301
268 301
269 302
270 302
271 302
272 302
273 302
274 302
275 302
276 302
277 302
278 302
279 302
280 302
281 301
282 301
283 301
284 301
285 301
286 301
287 301
288 301
289 301
290 302
291 302
292 302
293 302
294 302
295 302
296 302
297 302
298 302
299 302
300 302
301 301
302 301
303 301
304 301
305 301
306 301
307 301
308 302
309 302
310 302
311 302
312 302
313 303
314 303
315 304
314 305
315 305
316 305
317 305
318 305
319 306
320 307
320 308
321 308
322 309
323 309
324 309
325 309
326 309
327 309
328 309
329 309
330 309
331 309
332 309
333 309
334 309
335 309
336 309
337 309
338 309
339 309
340 309
341 309
342 309
343 309
344 309
345 309
346 308
347 308
348 308
349 308
350 308
351 308
352 308
353 308
354 308
355 308
356 308
357 308
358 308
359 308
360 309
361 309
362 309
363 310
363 311
364 312
365 312
366 312
367 313
367 314
367 315
368 315
369 315
370 315
371 315
372 315
373 315
374 315
375 315
376 315
377 315
378 315
379 314
380 314
381 314
382 314
383 314
384 313
385 313
386 313
387 312
388 312
389 312
390 311
391 311
392 311
393 310
394 310
395 310
396 310
397 310
398 309
399 309
400 309
401 309
402 308
403 308
404 308
405 308
406 308
407 307
408 307
409 307
410 306
411 306
412 306
413 306
414 306
415 305
416 305
417 305
418 305
419 305
420 305
421 305
422 305
423 305
424 305
425 305
426 305
427 306
428 306
429 306
430 307
429 308
428 308
429 309
430 309
431 309
432 308
433 308
434 308
435 308
436 309
437 308
438 308
439 308
440 308
441 308
442 307
443 307
444 307
445 307
446 306
447 306
448 306
449 306
450 306
451 305
452 305
453 305
454 305
455 304
456 304
457 304
458 303
459 303
460 303
461 302
462 302
463 302
464 302
465 301
466 301
467 301
468 301
469 301
470 301
471 300
472 300
473 301
474 301
475 301
476 301
477 301
478 301
479 302
480 302
481 302
482 302
483 301
484 301
485 301
486 300
487 300
488 300
489 299
490 299
491 298
492 298
493 298
494 297
495 296
496 296
497 296
498 295
499 295
500 295
501 294
502 294
503 294
504 293
505 293
506 293
507 293
508 292
509 292
510 292
511 292
512 292
513 292
514 291
515 291
516 291
517 291
518 291
519 291
520 291
521 291
522 291
523 291
524 291
525 291
526 291
527 291
528 290
529 290
530 290
531 289
532 289
533 288
534 288
535 288
536 287
537 287
538 287
539 286
540 286
541 286
542 286
543 286
544 286
545 285
546 285
547 286
548 286
549 286
550 286
551 286
552 286
553 286
554 286
555 285
556 285
557 285
558 285
559 284
560 284
561 284
562 283
563 283
564 283
565 282
566 282
567 282
568 281
569 280
570 280
571 279
572 279
573 279
574 278
575 278
576 278
577 278
578 277
579 277
580 277
581 277
582 277
583 276
584 276
585 276
586 276
587 276
588 276
589 276
590 276
591 275
592 275
593 275
594 275
595 274
596 274
597 274
598 273
599 273
600 273
601 272
602 272
603 272
604 271
605 271
606 271
607 270
608 270
609 270
610 270
611 269
612 269
613 269
614 269
615 269
616 268
617 268
618 268
619 268
620 268
621 268
622 268
623 267
624 267
625 267
626 267
627 267
628 267
629 266
630 266
631 266
632 266
633 265
634 265
635 265
636 265
637 264
638 264
639 264
640 264
641 263
642 263
643 263
644 262
645 262
646 262
647 261
648 261
649 260
650 260
651 259
652 259
653 259
654 258
655 258
656 258
657 257
658 257
659 257
660 257
661 257
662 257
663 257
664 257
665 256
666 256
667 256
668 256
669 255
670 255
671 255
672 255
673 254
674 254
675 254
676 254
677 254
678 254
679 253
680 253
681 253
682 253
683 252
684 252
685 252
686 252
687 252
688 252
689 251
690 251
691 251
692 251
693 251
694 250
695 250
696 250
697 250
698 250
699 250
700 249
701 249
702 248
703 248
704 247
705 247
706 246
707 246
708 246
709 245
710 245
711 244
712 244
713 243
714 243
715 242
716 242
717 242
718 241
719 241
720 240
721 239
722 239
723 238
724 238
725 237
726 236
727 235
728 234
729 234
730 233
731 232
732 231
733 230
733 229
734 228
735 227
736 226
736 225
737 224
738 223
739 222
740 221
741 220
742 219
743 219
744 218
744 217
745 216
746 215
747 214
748 213
749 213
750 213
751 213
752 212
753 212
754 212
755 212
756 212
757 212
758 212
759 212
760 212
761 212
762 212
763 213
764 213
765 213
766 213
767 213
768 213
769 213
770 213
771 213
772 213
773 213
774 214
775 214
776 214
777 214
778 214
779 214
780 214
781 214
782 214
783 214
784 214
785 214
786 214
787 213
788 213
789 213
790 213
791 212
792 212
793 212
794 211
795 210
796 210
796 209
797 208
796 207
795 206
794 206
793 206
792 206
791 207
790 207
789 208
788 208
787 208
786 208
785 208
784 208
783 208
782 208
781 208
780 208
779 208
778 208
777 208
776 208
775 208
774 208
773 208
772 208
771 208
770 208
769 208
768 208
767 208
766 208
765 208
764 208
763 208
762 207
761 207
760 207
759 207
758 207
757 206
756 205
755 205
754 204
754 203
753 202
753 201
752 200
752 199
752 198
751 197
751 196
750 195
750 194
749 193
749 192
748 191
747 190
746 189
746 188
745 187
744 186
744 185
743 184
742 183
741 182
740 181
740 180
739 179
738 178
737 177
736 176
735 175
734 174
733 173
732 172
731 171
730 170
729 169
728 168
727 168
726 167
725 166
724 165
723 164
722 164
721 163
720 162
719 161
718 160
717 159
716 158
715 158
714 157
713 157
712 156
711 156
710 155
709 155
708 155
707 154
706 154
705 153
704 153
703 152
702 152
701 151
700 150
699 149
698 149
697 148
696 147
695 147
694 146
693 146
692 145
691 145
690 145
689 144
688 144
687 144
686 143
685 143
684 143
683 143
682 142
681 142
680 142
679 141
678 141
677 140
676 140
675 139
674 139
673 139
672 138
671 138
670 138
669 138
668 138
667 138
666 139
665 139
664 138
663 138
662 137
661 137
660 137
659 136
658 135
657 135
656 134
655 134
654 133
653 133
652 132
651 132
650 131
649 131
648 131
647 131
646 130
645 130
644 130
643 130
642 129
641 129
640 129
639 128
638 128
637 129
636 129
635 129
634 129
633 129
632 129
631 129
630 128
629 128
628 128
627 127
626 127
625 126
624 126
623 125
622 125
621 125
620 124
619 124
618 123
617 122
616 122
615 122
614 122
613 122
612 122
611 122
610 121
609 121
608 121
607 120
606 120
605 119
604 119
603 118
602 118
601 117
600 117
599 116
598 116
597 116
596 115
595 115
594 114
593 114
592 113
591 113
590 112
589 112
588 112
587 111
586 111
585 110
584 109
584 110
583 111
582 111
581 111
580 111
579 111
578 111
577 111
576 110
575 110
574 109
573 108
572 108
571 107
570 107
569 106
568 106
567 105
566 105
565 104
564 103
563 103
562 102
561 101
560 101
559 100
558 100
557 99
556 98
555 98
554 97
553 97
552 96
551 95
550 95
549 94
548 94
547 93
546 93
545 93
544 92
543 92
542 91
541 91
540 90
539 90
538 90
537 89
536 88
536 89
535 90
534 90
533 90
532 90
531 90
530 89
529 89
528 88
527 88
526 88
525 87
524 87
523 86
522 86
521 85
520 85
519 84
518 83
517 83
516 82
515 81
514 81
513 80
512 79
511 79
510 78
509 77
508 77
507 76
506 75
505 75
504 74
503 73
502 73
501 72
500 72
499 71
498 71
497 70
496 70
495 69
496 70
496 71
495 72
494 72
493 72
492 72
491 72
490 72
489 72
488 72
487 71
486 71
485 71
484 70
483 70
482 69
481 69
480 68
479 68
478 67
477 67
476 66
475 65
474 65
473 64
472 64
471 63
470 62
469 62
468 61
467 61
466 60
465 60
464 60
463 59
462 59
461 58
460 58
459 57
458 57
457 56
456 56
455 56
454 55
453 55
452 54
451 54
450 53
449 53
448 52
447 52
446 52
445 52
444 51
443 50
442 50
441 49
442 50
443 51
443 52
442 53
441 53
440 54
439 54
438 54
437 54
436 54
435 54
434 54
433 54
432 53
431 53
430 53
429 53
428 52
427 52
426 52
425 52
424 51
423 51
422 51
421 50
420 50
419 49
418 49
417 49
416 48
415 48
414 47
413 47
412 46
411 46
410 46
409 46
408 45
407 45
406 44
405 44
404 44
403 44
402 44
401 44
400 44
399 43
398 43
397 43
396 43
395 43
394 43
393 42
392 42
391 41
390 41
389 41
388 41
387 40
386 40
385 40
384 40
383 40
382 40
381 39
380 39
379 39
378 39
377 39
376 39
375 39
376 39
377 39
378 39
379 40
379 41
379 42
379 43
378 44
377 44
376 44
375 44
374 44
373 45
372 45
371 45
370 45
369 45
368 45
367 45
366 44
365 44
364 44
363 44
362 43
361 43
360 43
359 43
358 43
357 43
356 43
355 43
354 43
353 43
352 43
351 42
350 42
349 42
348 42
347 42
346 42
345 42
344 42
343 42
342 42
341 42
340 42
339 42
338 42
337 41
336 41
335 41
334 41
333 41
332 41
331 40
330 40
329 40
328 39
327 39
326 39
325 39
324 39
323 39
322 39
321 39
320 39
319 39
318 39
317 39
316 39
