50 360
50 361
50 362
51 362
52 362
53 362
54 362
55 362
56 362
57 362
58 362
59 362
60 362
61 362
62 362
63 362
64 362
65 363
66 363
67 363
68 363
69 363
70 363
71 363
72 364
73 364
74 364
75 364
76 364
77 365
78 365
79 365
80 365
81 365
82 366
83 366
84 366
85 366
86 366
87 366
88 366
89 366
90 366
91 366
92 367
93 367
94 367
95 367
96 367
97 368
98 368
99 368
100 368
101 368
102 368
103 368
104 368
105 368
106 368
107 368
108 368
109 368
110 368
111 368
112 368
113 368
114 368
115 368
116 368
117 368
118 368
119 368
120 368
121 367
122 367
123 367
124 367
125 367
126 367
127 367
128 367
129 367
130 367
131 366
132 366
133 366
134 366
135 366
136 366
137 366
138 366
139 366
140 366
141 365
142 365
143 364
144 364
145 364
146 364
147 364
148 364
149 363
150 363
151 363
152 363
153 362
154 362
155 362
156 362
157 362
158 361
159 361
160 361
161 361
162 361
163 361
164 360
165 360
166 359
167 359
168 359
169 358
170 357
171 356
172 356
173 355
174 355
175 354
176 354
177 353
178 353
179 353
180 352
181 351
182 350
183 349
184 349
185 348
186 347
187 346
187 345
188 344
189 343
190 342
190 341
191 340
191 339
191 338
191 337
191 336
191 335
191 334
191 333
191 332
192 331
192 330
193 329
193 328
194 327
195 327
196 326
197 326
198 325
199 325
200 325
201 325
202 324
203 324
204 324
205 325
206 326
207 327
206 328
206 329
205 330
205 331
205 332
205 333
205 334
204 335
204 336
204 337
203 338
203 339
202 340
202 341
202 342
202 343
202 344
201 345
201 346
201 347
201 348
201 349
200 350
200 351
199 352
199 353
199 354
199 355
199 356
199 357
199 358
198 359
198 360
198 361
198 362
198 363
198 364
198 365
198 366
197 367
197 368
197 369
197 370
197 371
197 372
197 373
197 374
197 375
197 376
197 377
197 378
197 379
197 380
197 381
196 382
196 383
196 384
196 385
196 386
196 387
196 388
196 389
196 390
196 391
196 392
196 393
196 394
196 395
196 396
196 397
196 398
196 399
196 400
195 401
195 402
195 403
195 404
195 405
195 406
195 407
195 408
195 409
195 410
195 411
195 412
195 413
195 414
195 415
195 416
195 417
195 418
195 419
195 420
195 421
196 422
196 423
196 424
196 425
196 426
196 427
196 428
197 429
197 430
197 431
197 432
197 433
198 434
198 435
198 436
198 437
199 438
199 439
199 440
199 441
199 442
200 443
200 444
200 445
200 446
200 447
201 448
201 449
201 450
202 451
202 452
202 453
202 454
202 455
203 456
203 457
203 458
203 459
202 460
202 461
202 462
202 463
202 464
202 465
202 466
202 467
203 467
204 467
205 467
205 466
206 465
206 464
206 463
206 462
207 461
207 460
207 459
207 458
208 457
208 456
209 455
209 454
209 453
210 452
210 451
210 450
211 449
211 448
211 447
212 446
212 445
213 444
213 443
213 442
214 441
214 440
215 439
215 438
215 437
216 436
216 435
217 434
217 433
217 432
218 431
218 430
219 429
219 428
219 427
220 426
220 425
221 424
221 423
221 422
222 421
222 420
222 419
222 418
223 417
223 416
224 415
224 414
224 413
224 412
225 411
225 410
225 409
225 408
225 407
226 406
226 405
226 404
226 403
226 402
226 401
227 400
227 399
227 398
227 397
228 396
228 395
228 394
228 393
228 392
228 391
228 390
229 389
229 388
230 387
230 386
230 385
230 384
230 383
231 382
231 381
231 380
231 379
231 378
231 377
231 376
232 375
232 374
232 373
232 372
232 371
232 370
232 369
232 368
232 367
232 366
232 365
232 364
232 363
232 362
232 361
232 360
233 359
233 358
234 357
234 356
234 355
234 354
234 353
234 352
234 351
234 350
235 349
235 348
235 347
235 346
235 345
235 344
235 343
235 342
235 341
235 340
235 339
235 338
235 337
235 336
235 335
235 334
235 333
235 332
235 331
235 330
235 329
235 328
235 327
235 326
235 325
235 324
235 323
235 322
235 321
235 320
235 319
236 318
236 317
237 316
238 316
239 315
240 315
241 314
242 314
243 314
244 314
245 313
246 313
247 313
248 313
249 313
250 312
251 312
252 312
253 312
254 311
255 311
256 311
257 311
258 311
259 310
260 311
261 311
262 312
262 313
263 314
263 315
262 316
262 317
261 318
261 319
261 320
260 321
260 322
260 323
260 324
260 325
260 326
260 327
260 328
260 329
259 330
259 331
259 332
259 333
259 334
259 335
259 336
259 337
259 338
259 339
259 340
259 341
258 342
258 343
258 344
258 345
258 346
258 347
258 348
258 349
258 350
258 351
258 352
258 353
258 354
258 355
258 356
258 357
258 358
258 359
258 360
258 361
258 362
258 363
258 364
258 365
259 366
259 367
259 368
259 369
259 370
259 371
259 372
259 373
259 374
259 375
259 376
259 377
259 378
259 379
260 380
260 381
260 382
260 383
260 384
260 385
260 386
260 387
260 388
260 389
260 390
260 391
260 392
260 393
260 394
260 395
261 396
261 397
261 398
261 399
261 400
261 401
261 402
261 403
262 404
262 405
263 406
263 407
263 408
263 409
263 410
263 411
264 412
264 413
265 414
265 415
265 416
265 417
266 418
266 419
267 420
267 421
267 422
267 423
267 424
268 425
268 426
268 427
269 428
269 429
270 430
270 431
271 432
271 433
272 434
272 435
272 436
272 437
272 438
272 439
272 440
272 441
273 442
273 443
274 444
274 445
274 446
273 447
273 448
273 449
273 450
272 451
272 452
272 453
271 454
271 455
270 456
270 457
270 458
270 459
270 460
270 461
271 461
272 461
273 461
274 461
275 460
276 459
276 458
277 457
277 456
278 455
278 454
278 453
279 452
279 451
279 450
280 449
280 448
280 447
281 446
281 445
282 444
282 443
282 442
283 441
283 440
283 439
284 438
284 437
285 436
285 435
285 434
286 433
286 432
287 431
287 430
287 429
287 428
288 427
288 426
288 425
288 424
288 423
289 422
289 421
289 420
290 419
290 418
290 417
290 416
291 415
291 414
291 413
291 412
291 411
291 410
291 409
291 408
292 407
292 406
292 405
292 404
292 403
292 402
292 401
292 400
292 399
292 398
292 397
293 396
293 395
293 394
293 393
293 392
293 391
293 390
293 389
293 388
293 387
293 386
293 385
293 384
293 383
293 382
293 381
293 380
293 379
293 378
293 377
293 376
293 375
293 374
293 373
293 372
293 371
293 370
293 369
293 368
293 367
294 366
294 365
294 364
294 363
294 362
294 361
294 360
294 359
294 358
294 357
294 356
294 355
294 354
293 353
293 352
293 351
293 350
293 349
293 348
293 347
293 346
293 345
293 344
293 343
293 342
293 341
293 340
293 339
293 338
293 337
293 336
292 335
292 334
293 333
293 332
293 331
293 330
293 329
293 328
293 327
293 326
293 325
293 324
293 323
293 322
293 321
292 320
292 319
292 318
292 317
292 316
291 315
291 314
291 313
291 312
290 311
290 310
290 309
290 308
291 307
292 306
293 305
294 305
295 304
296 304
297 304
298 303
299 303
300 303
301 303
302 303
303 303
304 303
305 303
306 302
307 302
308 302
309 302
310 302
311 302
312 302
313 303
314 304
315 305
315 306
314 307
314 308
313 309
312 310
312 311
311 312
311 313
310 314
310 315
310 316
310 317
310 318
310 319
309 320
309 321
309 322
309 323
309 324
309 325
309 326
309 327
309 328
309 329
309 330
309 331
309 332
309 333
309 334
309 335
309 336
309 337
309 338
309 339
309 340
309 341
309 342
309 343
309 344
309 345
309 346
309 347
309 348
309 349
309 350
309 351
309 352
309 353
310 354
310 355
310 356
310 357
310 358
310 359
311 360
311 361
311 362
311 363
311 364
311 365
311 366
311 367
311 368
312 369
312 370
312 371
312 372
313 373
313 374
313 375
313 376
313 377
314 378
314 379
314 380
314 381
314 382
315 383
315 384
315 385
315 386
315 387
315 388
316 389
316 390
317 391
317 392
318 393
318 394
318 395
318 396
319 397
319 398
320 399
320 400
320 401
320 402
320 403
320 404
320 405
321 406
321 407
321 408
322 409
322 410
323 411
323 412
324 413
324 414
325 415
325 416
326 417
326 418
327 419
327 420
327 421
328 422
328 423
329 424
329 425
330 426
331 427
331 428
332 429
332 430
333 431
333 432
334 433
334 434
335 435
335 436
336 437
336 438
337 439
337 440
338 441
338 442
339 443
339 444
340 445
340 446
340 447
340 448
341 449
341 450
341 451
341 452
341 453
341 454
342 454
343 454
344 454
344 453
344 452
344 451
344 450
344 449
344 448
344 447
344 446
344 445
344 444
344 443
344 442
344 441
344 440
344 439
344 438
345 437
345 436
345 435
345 434
345 433
345 432
345 431
346 430
346 429
346 428
346 427
346 426
346 425
346 424
346 423
346 422
346 421
346 420
347 419
347 418
348 417
348 416
348 415
348 414
348 413
348 412
348 411
348 410
348 409
348 408
348 407
348 406
348 405
348 404
348 403
348 402
348 401
348 400
348 399
348 398
348 397
348 396
349 395
349 394
349 393
349 392
349 391
349 390
349 389
349 388
349 387
349 386
349 385
349 384
349 383
348 382
348 381
348 380
348 379
348 378
348 377
348 376
348 375
348 374
348 373
348 372
348 371
348 370
348 369
348 368
348 367
348 366
347 365
347 364
347 363
347 362
347 361
347 360
346 359
346 358
346 357
346 356
346 355
346 354
346 353
346 352
346 351
346 350
346 349
346 348
346 347
346 346
346 345
346 344
346 343
346 342
346 341
345 340
345 339
345 338
345 337
345 336
345 335
345 334
345 333
345 332
345 331
345 330
345 329
345 328
345 327
344 326
344 325
344 324
344 323
344 322
344 321
344 320
344 319
343 318
343 317
343 316
343 315
343 314
343 313
343 312
343 311
343 310
343 309
343 308
342 307
342 306
342 305
342 304
342 303
342 302
343 301
344 300
345 299
346 299
347 298
348 298
349 298
350 298
351 297
352 297
353 297
354 297
355 297
356 297
357 297
358 297
359 297
360 297
361 298
362 299
363 300
363 301
362 302
362 303
361 304
361 305
361 306
360 307
360 308
359 309
359 310
358 311
358 312
358 313
358 314
358 315
358 316
358 317
358 318
357 319
357 320
357 321
357 322
357 323
357 324
357 325
357 326
357 327
357 328
357 329
357 330
357 331
357 332
357 333
357 334
357 335
357 336
357 337
357 338
357 339
356 340
356 341
356 342
356 343
356 344
356 345
356 346
356 347
356 348
356 349
356 350
356 351
356 352
357 353
357 354
357 355
357 356
357 357
357 358
357 359
357 360
357 361
358 362
358 363
358 364
358 365
358 366
358 367
358 368
358 369
358 370
358 371
358 372
358 373
358 374
359 375
359 376
360 377
360 378
360 379
360 380
360 381
361 382
361 383
361 384
361 385
362 386
362 387
362 388
363 389
363 390
364 391
364 392
364 393
365 394
365 395
365 396
366 397
366 398
366 399
366 400
367 401
367 402
368 403
368 404
369 405
369 406
370 407
370 408
370 409
370 410
371 411
371 412
371 413
372 414
372 415
373 416
374 417
375 418
376 419
376 420
377 421
377 422
378 423
378 424
379 425
379 426
380 427
381 428
381 429
382 430
382 431
383 432
383 433
384 434
384 435
385 436
385 437
386 438
386 439
387 440
387 441
388 442
388 443
389 444
389 445
389 446
389 447
390 448
391 448
392 448
392 447
392 446
392 445
392 444
392 443
392 442
392 441
392 440
392 439
392 438
392 437
392 436
392 435
392 434
391 433
391 432
391 431
391 430
391 429
391 428
391 427
390 426
390 425
390 424
390 423
390 422
390 421
391 420
391 419
391 418
391 417
391 416
391 415
392 414
392 413
392 412
392 411
392 410
392 409
392 408
392 407
392 406
392 405
392 404
393 403
393 402
393 401
393 400
393 399
393 398
393 397
393 396
393 395
393 394
393 393
393 392
393 391
392 390
392 389
392 388
392 387
392 386
392 385
392 384
393 383
393 382
393 381
393 380
393 379
393 378
393 377
393 376
393 375
393 374
393 373
393 372
393 371
393 370
392 369
392 368
392 367
392 366
392 365
392 364
393 363
393 362
393 361
393 360
393 359
393 358
393 357
393 356
393 355
393 354
393 353
393 352
393 351
392 350
392 349
392 348
392 347
392 346
392 345
392 344
392 343
392 342
392 341
392 340
392 339
392 338
392 337
392 336
392 335
392 334
392 333
392 332
392 331
392 330
392 329
392 328
392 327
392 326
392 325
392 324
392 323
392 322
392 321
392 320
392 319
392 318
392 317
392 316
392 315
392 314
392 313
392 312
392 311
392 310
392 309
392 308
392 307
392 306
392 305
392 304
392 303
391 302
391 301
391 300
391 299
392 298
392 297
393 296
394 296
395 295
396 295
397 294
398 294
399 294
400 294
401 294
402 294
403 294
404 294
405 294
406 295
407 295
408 296
408 297
409 298
408 299
408 300
408 301
407 302
407 303
406 304
406 305
406 306
406 307
406 308
405 309
405 310
405 311
405 312
405 313
404 314
404 315
404 316
404 317
404 318
404 319
404 320
404 321
404 322
404 323
404 324
404 325
404 326
404 327
404 328
404 329
404 330
404 331
404 332
404 333
404 334
404 335
404 336
404 337
404 338
404 339
404 340
404 341
404 342
404 343
404 344
405 345
405 346
405 347
405 348
405 349
405 350
405 351
405 352
405 353
405 354
406 355
406 356
406 357
406 358
406 359
406 360
406 361
406 362
407 363
407 364
408 365
408 366
408 367
408 368
408 369
408 370
408 371
408 372
408 373
408 374
409 375
409 376
409 377
409 378
409 379
409 380
410 381
410 382
411 383
411 384
411 385
412 386
412 387
412 388
412 389
412 390
412 391
413 392
413 393
414 394
414 395
414 396
414 397
414 398
415 399
415 400
415 401
415 402
415 403
416 404
417 405
417 406
418 407
418 408
419 409
419 410
419 411
419 412
420 413
421 414
421 415
422 416
422 417
423 418
424 419
425 420
426 421
426 422
427 423
427 424
428 425
428 426
428 427
429 428
429 429
430 430
430 431
430 432
430 433
430 434
430 435
430 436
430 437
430 438
430 439
430 440
431 441
431 442
431 443
431 442
431 441
431 440
431 439
431 438
431 437
431 436
431 435
431 434
431 433
431 432
431 431
431 430
431 429
431 428
431 427
432 426
432 425
432 424
432 423
433 422
433 421
434 420
434 419
435 418
435 417
436 416
436 415
437 414
437 413
438 412
438 411
439 410
439 409
440 408
440 407
440 406
440 405
440 404
440 403
440 402
440 401
440 400
440 399
440 398
440 397
440 396
441 395
441 394
441 393
441 392
441 391
441 390
441 389
441 388
441 387
441 386
441 385
441 384
441 383
440 382
440 381
441 380
441 379
441 378
441 377
441 376
441 375
441 374
441 373
441 372
441 371
441 370
441 369
441 368
441 367
441 366
441 365
441 364
441 363
441 362
441 361
441 360
441 359
441 358
441 357
441 356
441 355
441 354
441 353
441 352
441 351
441 350
441 349
441 348
441 347
441 346
441 345
441 344
441 343
441 342
441 341
441 340
441 339
441 338
441 337
441 336
441 335
441 334
441 333
441 332
441 331
441 330
441 329
441 328
441 327
441 326
442 325
442 324
443 323
443 322
443 321
443 320
443 319
443 318
443 317
443 316
443 315
443 314
443 313
443 312
443 311
443 310
443 309
442 308
442 307
442 306
442 305
442 304
442 303
442 302
442 301
442 300
441 299
441 298
441 297
442 296
442 295
443 294
444 293
445 293
446 292
447 292
448 291
449 291
450 291
451 291
452 291
453 291
454 291
455 291
456 291
457 291
458 291
459 291
460 292
461 292
462 293
463 294
464 295
464 296
464 297
463 298
463 299
463 300
463 301
463 302
463 303
463 304
463 305
463 306
463 307
463 308
463 309
463 310
463 311
463 312
463 313
463 314
463 315
463 316
463 317
463 318
463 319
463 320
463 321
463 322
463 323
463 324
464 325
464 326
464 327
464 328
464 329
464 330
465 331
465 332
465 333
465 334
465 335
465 336
466 337
466 338
467 339
467 340
467 341
467 342
468 343
468 344
468 345
469 346
469 347
470 348
470 349
470 350
471 351
471 352
471 353
471 354
472 355
472 356
473 357
473 358
474 359
474 360
474 361
475 362
475 363
476 364
476 365
477 366
478 367
478 368
479 369
479 370
480 371
480 372
481 373
481 374
482 375
482 376
483 377
483 378
483 379
483 380
483 381
484 382
485 383
485 384
486 385
486 386
487 387
488 388
488 389
489 390
489 391
490 392
490 393
491 394
491 395
492 396
493 397
494 398
494 399
495 400
495 401
496 402
496 403
497 403
498 404
498 405
499 406
500 407
501 408
502 409
503 410
504 411
505 412
506 412
507 413
508 414
508 415
509 416
510 417
510 418
511 419
511 420
512 421
512 422
513 423
513 424
514 425
514 426
515 427
515 428
516 429
516 430
517 431
518 431
518 430
518 429
518 428
518 427
518 426
518 425
518 424
518 423
518 422
518 421
518 420
518 419
518 418
518 417
517 416
517 415
517 414
516 413
517 412
517 411
517 410
517 409
517 408
517 407
517 406
517 405
517 404
517 403
517 402
517 401
517 400
517 399
517 398
517 397
517 396
517 395
517 394
516 393
516 392
516 391
516 390
516 389
516 388
516 387
516 386
516 385
516 384
516 383
516 382
515 381
515 380
515 379
515 378
515 377
515 376
515 375
515 374
515 373
514 372
514 371
514 370
514 369
514 368
514 367
514 366
514 365
513 364
513 363
512 362
512 361
512 360
512 359
512 358
511 357
511 356
510 355
510 354
510 353
510 352
509 351
509 350
509 349
509 348
509 347
508 346
508 345
508 344
507 343
507 342
506 341
506 340
506 339
506 338
506 337
505 336
505 335
505 334
504 333
504 332
503 331
503 330
503 329
502 328
502 327
502 326
502 325
501 324
501 323
501 322
501 321
501 320
501 319
501 318
501 317
500 316
500 315
499 314
499 313
498 312
498 311
498 310
498 309
498 308
498 307
498 306
497 305
497 304
496 303
496 302
496 301
496 300
496 299
496 298
496 297
495 296
496 295
496 294
497 293
498 292
499 291
500 291
501 290
502 290
503 290
504 290
505 290
506 290
507 290
508 290
509 290
510 290
511 290
512 290
513 290
514 290
515 290
516 290
517 290
518 291
519 291
520 292
521 293
522 294
522 295
522 296
521 297
521 298
520 299
520 300
520 301
520 302
519 303
519 304
519 305
519 306
519 307
519 308
519 309
519 310
519 311
519 312
519 313
519 314
519 315
520 316
520 317
520 318
520 319
520 320
520 321
520 322
521 323
521 324
522 325
522 326
522 327
522 328
522 329
522 330
522 331
523 332
523 333
523 334
523 335
524 336
524 337
524 338
524 339
524 340
524 341
524 342
524 343
525 344
525 345
525 346
525 347
525 348
525 349
525 350
526 351
526 352
526 353
526 354
526 355
526 356
527 357
527 358
528 359
528 360
528 361
528 362
528 363
529 364
529 365
529 366
529 367
529 368
530 369
530 370
531 371
531 372
531 373
531 374
532 375
532 376
532 377
532 378
533 379
533 380
534 381
534 382
534 383
534 384
534 385
534 386
535 387
535 388
536 389
536 390
537 391
537 392
537 393
538 394
538 395
539 396
539 397
540 398
540 399
540 400
540 401
541 402
542 403
543 404
544 405
544 406
545 407
546 408
546 409
547 410
547 411
548 412
548 413
549 414
549 415
550 416
550 417
550 418
551 419
551 420
552 420
553 420
554 420
554 419
554 418
554 417
554 416
554 415
554 414
554 413
554 412
554 411
554 410
554 409
554 408
554 407
553 406
553 405
553 404
553 403
553 402
553 401
553 400
554 399
554 398
554 397
554 396
554 395
554 394
554 393
555 392
555 391
556 390
556 389
556 388
556 387
556 386
556 385
557 384
557 383
557 382
557 381
557 380
557 379
557 378
557 377
557 376
557 375
557 374
557 373
557 372
557 371
557 370
557 369
558 368
558 367
558 366
558 365
558 364
558 363
558 362
558 361
559 360
559 359
559 358
559 357
559 356
559 355
559 354
559 353
559 352
559 351
559 350
559 349
559 348
559 347
559 346
559 345
559 344
559 343
559 342
559 341
559 340
559 339
559 338
559 337
559 336
559 335
559 334
559 333
559 332
559 331
559 330
559 329
559 328
559 327
559 326
559 325
559 324
558 323
558 322
558 321
558 320
558 319
558 318
558 317
558 316
557 315
557 314
557 313
557 312
557 311
557 310
557 309
557 308
557 307
557 306
557 305
556 304
556 303
556 302
556 301
556 300
556 299
556 298
555 297
555 296
555 295
556 294
556 293
557 292
558 292
559 291
560 291
561 290
562 290
563 290
564 290
565 290
566 290
567 290
568 290
569 290
570 290
571 290
572 290
573 290
574 290
575 290
576 290
577 290
578 290
579 290
580 290
581 290
582 290
583 290
584 290
585 290
586 290
587 290
588 290
589 290
590 290
591 290
592 290
593 290
594 290
595 290
596 290
597 290
598 290
599 291
600 291
601 292
602 293
603 294
603 295
602 296
602 297
602 298
602 299
602 300
602 301
602 302
602 303
602 304
602 305
602 306
602 307
602 308
602 309
602 310
602 311
602 312
602 313
602 314
602 315
602 316
602 317
603 318
603 319
604 320
604 321
604 322
605 323
606 324
606 325
607 326
607 327
608 328
608 329
608 330
608 331
609 332
609 333
610 334
610 335
611 336
611 337
612 338
612 339
613 340
613 341
614 342
615 343
615 344
616 345
616 346
617 347
617 348
618 349
618 350
619 351
620 352
620 353
621 354
622 355
623 356
623 357
624 358
624 359
625 360
625 361
626 362
626 363
627 364
628 365
628 366
629 367
629 368
630 369
631 370
632 371
632 372
633 373
634 374
635 375
636 376
637 377
638 378
639 379
640 380
641 381
642 382
643 383
644 384
645 385
646 386
646 387
647 388
648 389
649 390
650 391
651 391
652 392
653 393
654 393
655 394
656 395
657 396
658 397
659 398
660 399
661 400
662 401
663 402
664 402
665 403
666 404
667 405
668 406
669 407
670 407
671 407
672 407
673 407
673 406
673 405
673 404
673 403
673 402
673 401
672 400
671 399
670 398
670 397
669 396
669 395
668 394
668 393
667 392
666 391
666 390
665 389
665 388
664 387
664 386
663 385
663 384
662 383
662 382
661 381
661 380
660 379
660 378
660 377
659 376
659 375
659 374
658 373
658 372
658 371
658 370
658 369
657 368
657 367
657 366
657 365
656 364
656 363
656 362
655 361
655 360
655 359
655 358
655 357
654 356
654 355
653 354
653 353
653 352
652 351
652 350
651 349
651 348
651 347
651 346
651 345
650 344
650 343
650 342
650 341
650 340
649 339
649 338
648 337
648 336
648 335
648 334
647 333
647 332
647 331
647 330
647 329
647 328
646 327
646 326
646 325
646 324
646 323
646 322
645 321
645 320
645 319
645 318
645 317
645 316
645 315
645 314
645 313
644 312
644 311
643 310
643 309
642 308
642 307
641 306
641 305
640 304
640 303
640 302
639 301
639 300
638 299
638 298
637 297
637 296
638 295
639 294
640 293
641 293
642 292
643 292
644 292
645 292
646 292
647 293
648 293
649 293
650 293
651 293
652 293
653 293
654 293
655 293
656 293
657 293
658 293
659 293
660 293
661 293
662 293
663 293
664 293
665 293
666 293
667 293
668 293
669 294
670 294
671 294
672 294
673 294
674 294
675 294
676 294
677 294
678 294
679 294
680 294
681 294
682 294
683 294
684 295
685 295
686 295
687 295
688 295
689 295
690 295
691 295
692 295
693 295
694 295
695 295
696 295
697 296
698 296
699 296
700 296
701 296
702 296
703 296
704 296
705 296
706 296
707 296
708 296
709 296
710 296
711 297
712 297
713 297
714 297
715 297
716 297
717 297
718 297
719 297
720 297
721 298
722 298
723 298
724 298
725 298
726 298
727 298
728 298
729 298
730 298
731 298
732 298
733 299
734 299
735 299
736 299
737 299
738 299
739 299
740 299
741 299
742 299
743 299
744 300
745 300
746 300
747 300
748 300
749 300
750 301
751 301
752 301
753 301
754 301
755 301
756 301
757 301
758 301
759 301
760 301
761 301
762 301
763 301
764 301
765 301
765 300
765 299
765 298
765 297
765 296
765 295
765 294
765 293
765 292
765 291
765 290
765 289
764 289
763 289
762 289
761 289
760 289
759 289
758 289
757 289
756 290
755 290
754 291
753 291
752 292
751 292
750 292
749 292
748 292
747 292
746 292
745 292
744 292
743 292
742 292
741 292
740 292
739 292
738 292
737 292
736 292
735 292
734 292
733 291
732 291
731 291
730 291
729 291
728 291
727 291
726 291
725 291
724 291
723 291
722 291
721 291
720 291
719 291
718 291
717 291
716 291
715 291
714 290
713 290
712 290
711 290
710 290
709 290
708 290
707 290
706 290
705 290
704 290
703 290
702 290
701 290
700 290
699 290
698 290
697 290
696 290
695 290
694 289
693 289
692 289
691 289
690 289
689 289
688 289
687 289
686 289
685 289
684 289
683 289
682 289
681 289
680 289
679 289
678 289
677 289
676 289
675 289
674 289
673 289
672 289
671 288
670 288
669 288
668 288
667 288
666 288
665 288
664 288
663 288
662 288
661 288
660 288
659 288
658 288
657 288
656 288
655 288
654 288
653 288
652 288
651 288
650 288
649 288
648 288
647 288
646 287
645 287
644 286
643 285
642 284
643 283
643 282
644 281
645 280
646 279
647 278
648 278
649 277
650 276
651 275
652 274
653 273
654 273
655 272
656 271
657 270
658 269
659 268
660 267
661 266
662 266
663 265
664 264
665 263
666 262
666 261
667 260
668 259
669 258
670 257
671 256
672 255
672 254
673 253
673 252
674 251
674 250
675 249
676 248
677 247
677 246
678 245
678 244
679 243
679 242
680 241
680 240
681 239
682 238
683 237
684 236
685 235
685 234
686 233
687 233
688 232
689 231
690 230
691 229
692 228
692 227
692 226
692 225
691 225
690 225
689 225
688 225
687 225
686 225
685 226
684 226
683 226
682 226
681 227
680 227
679 227
678 228
677 228
676 229
675 229
674 230
673 230
672 230
671 231
670 231
669 231
668 231
667 231
666 231
665 231
664 232
663 232
662 233
661 233
660 233
659 233
658 234
657 234
656 234
655 234
654 235
653 235
652 236
651 236
650 237
649 237
648 238
647 238
646 238
645 238
644 239
643 239
642 240
641 241
640 241
639 242
638 242
637 243
636 243
635 244
634 244
633 245
632 245
631 246
630 247
629 247
628 248
627 249
626 250
625 250
624 251
623 252
622 253
621 254
620 255
619 255
618 256
617 257
616 258
615 258
614 259
613 260
612 261
611 262
611 263
610 264
609 265
608 266
608 267
607 268
607 269
606 270
606 271
606 272
606 273
606 274
606 275
606 276
606 277
606 278
606 279
606 280
606 281
606 282
605 283
605 284
604 285
603 285
602 286
601 286
600 287
599 287
598 287
597 287
596 287
595 287
594 287
593 287
592 287
591 287
590 287
589 287
588 287
587 286
586 286
585 286
584 286
583 286
582 286
581 286
580 286
579 286
578 286
577 286
576 286
575 286
574 286
573 286
572 286
571 286
570 286
569 286
568 286
567 286
566 286
565 286
564 286
563 286
562 286
561 286
560 286
559 286
558 285
557 285
556 284
555 283
554 282
554 281
555 280
555 279
556 278
557 277
558 276
558 275
559 274
559 273
560 272
560 271
560 270
561 269
561 268
561 267
562 266
562 265
563 264
563 263
564 262
564 261
565 260
565 259
565 258
566 257
566 256
567 255
567 254
568 253
568 252
568 251
569 250
569 249
570 248
570 247
571 246
571 245
572 244
572 243
573 242
573 241
573 240
573 239
574 238
574 237
575 236
575 235
576 234
576 233
576 232
576 231
576 230
577 229
577 228
578 227
578 226
579 225
579 224
580 223
580 222
580 221
580 220
581 219
581 218
581 217
582 216
582 215
583 214
583 213
583 212
583 211
583 210
583 209
584 208
584 207
584 206
584 205
584 204
585 203
585 202
585 201
585 200
585 199
585 198
586 197
586 196
586 195
587 194
587 193
588 192
588 191
589 190
589 189
590 188
590 187
591 186
591 185
591 184
592 183
592 182
592 181
592 180
592 179
592 178
592 177
592 176
591 176
590 176
589 176
588 176
588 177
587 178
586 179
586 180
585 181
584 182
583 183
582 184
581 185
580 186
579 186
578 187
577 188
576 189
575 190
574 190
573 191
572 191
571 192
570 193
569 194
568 195
567 196
566 197
565 197
564 198
563 199
562 200
561 201
560 202
559 203
558 204
557 205
556 205
555 206
554 207
554 208
553 209
552 210
551 211
550 212
549 213
549 214
548 215
547 216
546 217
546 218
545 219
545 220
544 221
544 222
543 223
542 224
541 225
540 226
540 227
539 228
539 229
538 230
538 231
537 232
536 233
535 234
535 235
534 236
534 237
533 238
533 239
532 240
532 241
531 242
531 243
530 244
530 245
529 246
529 247
528 248
528 249
527 250
526 251
525 252
525 253
525 254
525 255
524 256
524 257
523 258
523 259
523 260
523 261
523 262
523 263
523 264
522 265
522 266
522 267
522 268
522 269
522 270
522 271
522 272
522 273
522 274
522 275
522 276
522 277
522 278
523 279
523 280
523 281
523 282
523 283
522 284
521 285
520 286
519 286
518 287
517 287
516 287
515 287
514 287
513 287
512 287
511 287
510 287
509 287
508 287
507 287
506 287
505 287
504 287
503 287
502 287
501 287
500 287
499 287
498 287
497 287
496 286
495 286
494 285
493 285
492 284
492 283
491 282
491 281
491 280
491 279
491 278
491 277
491 276
492 275
492 274
492 273
492 272
492 271
492 270
492 269
492 268
492 267
492 266
492 265
492 264
492 263
492 262
492 261
492 260
492 259
492 258
492 257
492 256
492 255
492 254
492 253
492 252
493 251
493 250
493 249
493 248
493 247
494 246
494 245
494 244
494 243
494 242
494 241
494 240
494 239
494 238
494 237
494 236
494 235
494 234
494 233
494 232
495 231
495 230
495 229
495 228
495 227
495 226
495 225
495 224
495 223
495 222
495 221
495 220
495 219
495 218
495 217
495 216
495 215
495 214
495 213
496 212
496 211
496 210
496 209
496 208
496 207
496 206
496 205
496 204
496 203
496 202
496 201
496 200
496 199
496 198
496 197
496 196
496 195
496 194
496 193
496 192
496 191
496 190
496 189
496 188
496 187
497 186
497 185
497 184
497 183
498 182
498 181
498 180
499 179
499 178
499 177
499 176
500 175
500 174
500 173
500 172
501 171
501 170
501 169
501 168
502 167
502 166
502 165
502 164
502 163
502 162
502 161
502 160
501 160
500 160
499 160
498 161
497 162
497 163
497 164
496 165
496 166
495 167
495 168
494 169
494 170
493 171
493 172
492 173
491 174
491 175
490 176
489 177
489 178
488 179
487 180
486 180
485 181
484 182
483 183
483 184
482 185
482 186
481 187
481 188
480 189
479 190
479 191
478 192
478 193
477 194
476 195
476 196
475 197
475 198
474 199
474 200
473 201
473 202
472 203
472 204
471 205
471 206
470 207
470 208
469 209
469 210
469 211
469 212
468 213
468 214
467 215
467 216
466 217
466 218
465 219
465 220
465 221
464 222
464 223
464 224
463 225
463 226
462 227
462 228
462 229
462 230
462 231
462 232
461 233
461 234
460 235
460 236
460 237
460 238
459 239
459 240
459 241
459 242
458 243
458 244
458 245
458 246
458 247
458 248
458 249
458 250
458 251
457 252
457 253
457 254
457 255
457 256
457 257
457 258
457 259
457 260
457 261
457 262
457 263
457 264
457 265
457 266
457 267
457 268
457 269
457 270
457 271
457 272
457 273
458 274
458 275
458 276
458 277
458 278
458 279
458 280
458 281
459 282
459 283
459 284
458 285
457 286
456 287
455 287
454 288
453 288
452 288
451 289
450 289
449 289
448 289
447 289
446 289
445 289
444 289
443 289
442 289
441 289
440 288
439 288
438 287
437 287
436 286
436 285
435 284
435 283
435 282
435 281
435 280
435 279
435 278
435 277
435 276
435 275
435 274
435 273
435 272
435 271
435 270
435 269
435 268
435 267
435 266
435 265
435 264
435 263
435 262
435 261
435 260
435 259
434 258
434 257
434 256
434 255
434 254
435 253
435 252
435 251
435 250
435 249
436 248
436 247
436 246
436 245
436 244
436 243
436 242
436 241
436 240
436 239
436 238
436 237
436 236
436 235
436 234
437 233
437 232
437 231
437 230
437 229
437 228
438 227
438 226
438 225
438 224
438 223
438 222
438 221
438 220
439 219
439 218
439 217
439 216
439 215
439 214
439 213
439 212
439 211
439 210
439 209
440 208
440 207
440 206
440 205
440 204
440 203
440 202
440 201
440 200
440 199
440 198
440 197
440 196
440 195
440 194
440 193
440 192
440 191
440 190
440 189
440 188
440 187
439 186
439 185
439 184
439 183
439 182
439 181
438 180
438 179
438 178
438 177
438 176
438 175
437 174
437 173
437 172
437 171
436 170
436 169
436 168
436 167
436 166
436 165
436 164
436 163
436 162
436 161
437 160
437 159
437 158
437 157
437 156
437 155
437 154
436 154
435 154
434 154
434 155
434 156
433 157
433 158
433 159
432 160
432 161
432 162
431 163
431 164
430 165
430 166
429 167
429 168
428 169
428 170
427 171
427 172
426 173
426 174
425 175
425 176
424 177
424 178
423 179
422 180
421 181
421 182
421 183
420 184
420 185
419 186
419 187
418 188
418 189
417 190
417 191
416 192
416 193
415 194
415 195
414 196
414 197
414 198
413 199
413 200
412 201
412 202
411 203
411 204
410 205
410 206
410 207
410 208
409 209
409 210
409 211
408 212
408 213
408 214
408 215
407 216
407 217
407 218
406 219
406 220
406 221
405 222
405 223
405 224
405 225
405 226
404 227
404 228
404 229
403 230
403 231
402 232
402 233
402 234
402 235
402 236
402 237
402 238
402 239
402 240
402 241
402 242
401 243
401 244
401 245
401 246
401 247
401 248
400 249
400 250
400 251
400 252
400 253
400 254
400 255
400 256
400 257
400 258
400 259
400 260
400 261
400 262
400 263
401 264
401 265
401 266
401 267
401 268
401 269
401 270
401 271
401 272
401 273
401 274
402 275
402 276
403 277
403 278
403 279
404 280
404 281
404 282
404 283
405 284
405 285
406 286
405 287
405 288
404 289
403 289
402 290
401 290
400 291
399 291
398 291
397 292
396 292
395 292
394 292
393 292
392 291
391 291
390 290
389 290
388 289
388 288
387 287
387 286
387 285
387 284
387 283
387 282
387 281
387 280
387 279
387 278
387 277
387 276
387 275
387 274
387 273
388 272
388 271
388 270
388 269
388 268
388 267
388 266
388 265
388 264
388 263
388 262
388 261
388 260
388 259
388 258
388 257
388 256
388 255
388 254
388 253
388 252
388 251
388 250
388 249
388 248
388 247
388 246
388 245
388 244
388 243
388 242
388 241
389 240
389 239
390 238
390 237
390 236
390 235
390 234
390 233
390 232
390 231
390 230
390 229
390 228
390 227
390 226
390 225
390 224
390 223
390 222
391 221
391 220
391 219
391 218
391 217
391 216
391 215
391 214
391 213
391 212
391 211
392 210
392 209
392 208
392 207
392 206
392 205
392 204
392 203
393 202
393 201
393 200
393 199
393 198
393 197
393 196
393 195
393 194
393 193
393 192
393 191
393 190
393 189
393 188
393 187
393 186
393 185
393 184
392 183
392 182
392 181
392 180
392 179
392 178
392 177
392 176
392 175
392 174
392 173
392 172
392 171
393 170
393 169
393 168
394 167
394 166
394 165
394 164
394 163
394 162
395 161
395 160
395 159
396 158
396 157
397 156
397 155
398 154
398 153
398 152
398 151
398 150
398 149
397 149
396 149
395 149
394 149
393 150
392 151
391 152
391 153
390 154
390 155
389 156
388 157
388 158
387 159
386 160
386 161
385 162
385 163
384 164
384 165
383 166
382 167
381 168
381 169
380 170
379 171
378 172
378 173
377 174
377 175
376 176
375 177
374 178
374 179
373 180
373 181
372 182
372 183
371 184
371 185
370 186
370 187
369 188
368 189
368 190
367 191
367 192
366 193
366 194
365 195
365 196
365 197
365 198
364 199
364 200
363 201
363 202
363 203
363 204
362 205
362 206
361 207
361 208
361 209
360 210
360 211
359 212
359 213
359 214
359 215
359 216
359 217
358 218
358 219
357 220
357 221
357 222
356 223
356 224
356 225
356 226
356 227
356 228
355 229
355 230
355 231
355 232
355 233
354 234
354 235
353 236
353 237
353 238
353 239
353 240
353 241
353 242
353 243
353 244
353 245
353 246
353 247
353 248
353 249
353 250
353 251
353 252
353 253
353 254
353 255
353 256
353 257
353 258
353 259
353 260
353 261
353 262
353 263
353 264
353 265
353 266
353 267
354 268
354 269
354 270
354 271
354 272
354 273
354 274
355 275
355 276
355 277
355 278
355 279
355 280
355 281
356 282
356 283
357 284
357 285
358 286
358 287
359 288
359 289
360 290
360 291
359 292
358 293
357 294
356 294
355 295
354 295
353 295
352 295
351 295
350 295
349 295
348 295
347 295
346 295
345 296
344 296
343 296
342 296
341 295
340 295
339 294
338 294
337 293
337 292
336 291
336 290
336 289
336 288
336 287
336 286
336 285
336 284
336 283
336 282
336 281
336 280
336 279
336 278
336 277
336 276
335 275
335 274
335 273
335 272
335 271
334 270
334 269
334 268
334 267
334 266
333 265
333 264
332 263
332 262
332 261
332 260
331 259
331 258
331 257
330 256
330 255
329 254
329 253
329 252
329 251
329 250
329 249
329 248
328 247
328 246
328 245
327 244
327 243
326 242
326 241
326 240
326 239
326 238
326 237
325 236
325 235
324 234
324 233
324 232
324 231
324 230
324 229
323 228
323 227
323 226
323 225
322 224
322 223
322 222
322 221
322 220
321 219
321 218
320 217
320 216
320 215
319 214
319 213
319 212
318 211
318 210
317 209
317 208
317 207
316 206
316 205
315 204
315 203
315 202
315 201
314 200
314 199
313 198
313 197
312 196
312 195
312 194
311 193
311 192
310 191
310 190
309 189
309 188
309 187
309 186
308 185
307 184
307 183
306 182
306 181
305 180
304 179
304 178
303 177
303 176
302 175
302 174
301 173
301 172
300 171
300 170
299 169
299 168
299 167
298 166
298 165
297 164
297 163
297 162
296 161
296 160
296 159
295 158
295 157
295 156
294 155
293 155
292 155
292 156
292 157
292 158
292 159
292 160
292 161
292 162
292 163
292 164
292 165
292 166
292 167
292 168
292 169
291 170
291 171
291 172
291 173
291 174
291 175
291 176
291 177
290 178
290 179
289 180
289 181
289 182
289 183
289 184
289 185
288 186
288 187
287 188
287 189
287 190
287 191
287 192
287 193
287 194
287 195
287 196
287 197
287 198
287 199
287 200
287 201
287 202
287 203
287 204
287 205
287 206
287 207
287 208
287 209
287 210
287 211
287 212
287 213
287 214
287 215
288 216
288 217
288 218
288 219
288 220
288 221
288 222
288 223
288 224
288 225
288 226
288 227
288 228
289 229
289 230
289 231
289 232
289 233
289 234
289 235
289 236
289 237
290 238
290 239
290 240
290 241
290 242
290 243
291 244
291 245
291 246
291 247
291 248
292 249
292 250
292 251
292 252
292 253
292 254
292 255
293 256
293 257
293 258
293 259
293 260
293 261
293 262
294 263
294 264
295 265
295 266
295 267
295 268
295 269
295 270
296 271
296 272
297 273
297 274
298 275
298 276
298 277
299 278
299 279
300 280
301 281
301 282
302 283
302 284
303 285
303 286
304 287
304 288
305 289
306 290
306 291
307 292
307 293
308 294
308 295
309 296
308 297
307 298
306 299
305 299
304 300
303 300
302 301
301 301
300 301
299 301
298 301
297 301
296 301
295 302
294 302
293 302
292 302
291 302
290 302
289 302
288 301
287 301
286 300
286 299
285 298
285 297
284 296
284 295
284 294
284 293
284 292
284 291
284 290
284 289
284 288
284 287
284 286
284 285
284 284
284 283
284 282
283 281
283 280
283 279
283 278
282 277
282 276
282 275
282 274
281 273
281 272
281 271
280 270
280 269
280 268
279 267
279 266
278 265
278 264
278 263
277 262
277 261
276 260
276 259
276 258
276 257
275 256
275 255
274 254
274 253
274 252
274 251
273 250
273 249
272 248
272 247
272 246
272 245
272 244
271 243
271 242
270 241
270 240
270 239
270 238
269 237
269 236
268 235
268 234
267 233
267 232
267 231
266 230
266 229
265 228
265 227
265 226
265 225
265 224
265 223
264 222
264 221
263 220
263 219
263 218
262 217
262 216
261 215
261 214
260 213
260 212
260 211
260 210
259 209
258 208
258 207
257 206
257 205
256 204
255 203
255 202
254 201
254 200
253 199
253 198
252 197
252 196
251 195
250 194
250 193
249 192
249 191
248 190
247 189
247 188
246 187
245 186
245 185
244 184
244 183
243 182
243 181
242 180
242 179
241 178
241 177
240 176
240 175
239 174
239 173
238 172
238 171
237 170
237 169
236 168
236 167
236 166
235 165
235 164
235 163
234 163
233 163
233 164
233 165
233 166
233 167
233 168
233 169
233 170
233 171
233 172
233 173
233 174
233 175
233 176
233 177
233 178
233 179
233 180
233 181
233 182
233 183
233 184
233 185
233 186
233 187
233 188
233 189
233 190
233 191
233 192
233 193
233 194
233 195
233 196
233 197
233 198
233 199
233 200
233 201
233 202
232 203
232 204
232 205
232 206
232 207
232 208
232 209
232 210
232 211
232 212
232 213
232 214
232 215
232 216
233 217
233 218
233 219
233 220
233 221
233 222
233 223
233 224
233 225
233 226
233 227
233 228
233 229
233 230
234 231
234 232
235 233
235 234
235 235
235 236
235 237
236 238
236 239
236 240
237 241
237 242
237 243
237 244
237 245
238 246
238 247
238 248
238 249
238 250
238 251
238 252
238 253
238 254
238 255
238 256
238 257
239 258
239 259
240 260
240 261
240 262
240 263
241 264
241 265
242 266
242 267
243 268
243 269
243 270
243 271
244 272
244 273
244 274
244 275
245 276
245 277
246 278
246 279
246 280
247 281
247 282
247 283
247 284
248 285
248 286
249 287
249 288
250 289
250 290
251 291
251 292
252 293
253 294
254 295
255 296
255 297
256 298
257 299
258 299
259 300
260 301
261 302
261 303
262 304
261 305
260 306
259 307
258 307
257 308
256 308
255 308
254 309
253 309
252 309
251 309
250 309
249 310
248 310
247 310
246 310
245 310
244 311
243 311
242 311
241 311
240 311
239 311
238 311
237 311
236 311
235 310
234 310
233 309
233 308
232 307
232 306
231 305
231 304
231 303
231 302
231 301
231 300
231 299
230 298
230 297
229 296
229 295
228 294
228 293
227 292
227 291
226 290
226 289
225 288
225 287
224 286
223 285
222 284
222 283
221 282
220 281
219 280
219 279
218 278
217 277
216 276
215 275
215 274
214 273
214 272
213 271
212 270
211 270
210 269
209 268
209 267
208 266
208 265
207 264
206 263
205 262
204 261
203 260
203 259
202 258
201 257
200 256
199 255
198 254
197 253
196 252
196 251
195 250
194 249
193 248
192 247
192 246
191 245
190 244
189 243
188 242
187 241
186 240
185 239
184 238
183 237
182 236
181 235
180 234
179 234
178 233
177 232
176 231
175 230
174 229
173 228
172 227
171 226
170 225
169 225
168 224
167 223
166 222
165 221
164 220
163 219
162 218
161 217
160 216
159 215
158 214
158 213
157 212
156 211
155 210
155 209
154 208
153 208
152 208
151 208
151 209
151 210
151 211
151 212
151 213
151 214
151 215
152 216
152 217
152 218
152 219
153 220
153 221
153 222
154 223
154 224
155 225
155 226
155 227
156 228
156 229
157 230
157 231
158 232
158 233
158 234
159 235
159 236
159 237
160 238
160 239
160 240
160 241
160 242
160 243
161 244
161 245
161 246
162 247
162 248
163 249
163 250
164 251
164 252
164 253
164 254
164 255
165 256
165 257
166 258
166 259
166 260
167 261
167 262
168 263
168 264
168 265
169 266
169 267
170 268
170 269
171 270
171 271
172 272
172 273
173 274
173 275
174 276
174 277
174 278
175 279
175 280
176 281
176 282
177 283
178 284
178 285
179 286
180 287
181 288
182 289
182 290
183 291
183 292
184 293
185 293
186 294
187 295
187 296
188 297
188 298
189 299
190 300
191 301
192 302
193 303
193 304
194 305
194 306
195 307
196 307
197 308
198 309
199 310
200 311
201 311
202 312
202 313
203 314
204 315
204 316
205 317
204 318
203 319
202 320
201 320
200 321
199 321
198 321
197 321
196 322
195 321
194 321
193 320
192 320
191 319
190 318
189 317
188 316
187 315
186 315
185 314
184 314
183 314
182 313
181 313
180 312
179 312
178 312
177 312
176 312
175 312
174 312
173 312
172 312
171 312
170 312
169 312
168 312
167 312
166 312
165 312
164 312
163 312
162 312
161 312
160 313
159 313
158 313
157 313
156 313
155 313
154 313
153 313
152 313
151 314
150 314
149 314
148 314
147 314
146 314
145 315
144 315
143 316
142 316
141 317
140 317
139 317
138 318
137 318
136 319
135 319
134 319
133 320
132 320
131 321
130 321
129 321
128 321
127 321
126 322
125 322
124 323
123 323
122 323
121 323
120 324
119 324
118 324
117 325
116 325
115 326
114 326
113 327
112 327
111 327
110 327
109 328
108 329
107 330
106 330
105 331
104 331
103 332
102 332
101 333
100 334
99 335
98 335
97 336
96 336
95 337
94 338
93 338
92 339
91 339
90 340
89 341
88 341
87 342
86 342
85 343
84 344
83 345
82 345
81 346
80 346
79 347
78 347
77 348
76 348
75 349
74 350
73 351
72 352
71 352
70 353
69 353
68 354
67 354
66 354
65 355
64 355
63 356
62 356
61 356
60 357
59 357
58 358
57 358
56 358
55 358
54 359
53 359
52 359
51 359
50 360
