307 35
306 36
305 37
304 38
304 39
303 40
303 41
303 42
302 43
301 43
300 43
300 44
300 45
300 46
301 47
301 48
301 49
301 50
300 51
300 52
300 53
300 54
299 55
298 55
297 54
297 55
297 56
298 57
298 58
298 59
298 60
298 61
298 62
298 63
298 64
297 65
297 66
297 67
296 68
296 69
295 70
294 70
293 69
292 69
292 70
293 71
293 72
294 73
294 74
294 75
294 76
294 77
294 78
294 79
294 80
294 81
294 82
293 83
293 84
292 85
291 86
290 85
289 84
289 85
289 86
289 87
289 88
289 89
289 90
289 91
289 92
289 93
289 94
289 95
289 96
288 97
288 98
288 99
288 100
288 101
288 102
287 103
287 104
287 105
286 106
286 107
285 108
284 107
283 107
283 108
283 109
283 110
283 111
283 112
283 113
283 114
283 115
283 116
283 117
283 118
283 119
283 120
283 121
283 122
283 123
283 124
283 125
283 126
283 127
283 128
283 129
283 130
283 131
283 132
283 133
282 134
282 135
282 136
281 137
280 137
279 137
278 137
278 138
279 139
279 140
279 141
279 142
279 143
279 144
279 145
279 146
279 147
279 148
279 149
278 150
278 151
277 152
276 152
276 153
276 154
276 155
276 156
276 157
277 158
277 159
277 160
277 161
277 162
277 163
277 164
277 165
277 166
277 167
277 168
276 169
276 170
277 171
277 172
277 173
277 174
277 175
277 176
277 177
277 178
276 179
275 179
275 180
276 181
276 182
276 183
277 184
277 185
277 186
278 187
278 188
278 189
278 190
278 191
279 192
279 193
279 194
279 195
279 196
279 197
279 198
279 199
278 200
277 200
278 201
278 202
279 203
279 204
279 205
279 206
280 207
280 208
280 209
281 210
281 211
282 212
282 213
282 214
283 215
283 216
283 217
284 218
284 219
284 220
284 221
283 222
282 222
282 223
283 224
284 225
285 226
285 227
286 228
286 229
286 230
287 231
287 232
288 233
289 234
289 235
290 236
290 237
291 238
291 239
292 240
292 241
293 242
293 243
294 244
294 245
295 246
295 247
295 248
296 249
297 250
298 251
299 252
299 253
300 254
301 255
302 256
303 257
303 258
304 259
305 260
305 261
306 262
307 263
308 264
309 265
310 266
311 267
312 268
313 269
314 270
315 271
316 271
317 272
318 273
319 274
320 275
321 276
322 276
323 277
324 277
325 277
326 278
327 279
326 280
325 280
324 280
323 280
322 280
321 280
320 279
319 279
318 278
317 278
316 277
315 277
314 276
313 275
312 275
311 274
310 273
309 273
308 272
307 272
306 271
306 270
305 270
304 269
303 268
302 268
301 267
300 266
299 266
298 265
297 264
296 264
295 263
294 262
293 262
292 261
291 260
290 260
289 259
288 258
287 258
286 257
285 256
284 256
283 255
282 254
281 253
280 253
279 252
278 252
277 251
276 251
275 250
274 249
273 249
272 248
271 247
270 246
269 246
268 245
267 244
266 243
265 242
264 242
263 241
262 240
261 240
260 239
259 238
258 238
257 237
256 236
255 236
254 235
253 234
252 234
251 234
250 233
249 233
248 232
247 231
246 230
245 230
244 229
243 228
243 229
242 230
241 230
240 229
239 229
238 229
237 229
236 229
235 229
234 229
233 228
232 228
231 228
230 227
229 227
228 226
227 226
226 225
225 224
224 224
223 223
223 222
222 222
221 221
221 222
221 223
221 224
220 225
219 224
218 224
217 224
216 224
215 224
214 224
213 224
212 223
211 223
210 222
209 222
208 222
207 221
206 221
205 220
204 220
203 219
202 220
201 221
200 221
199 221
198 221
197 221
196 220
195 220
194 220
193 220
192 219
191 219
190 218
189 218
188 217
187 216
186 216
186 217
186 218
185 219
184 219
183 219
182 219
181 219
180 219
179 219
178 219
177 219
176 219
175 218
174 218
173 218
172 218
171 217
170 217
169 217
168 216
167 216
166 215
165 215
165 216
166 217
165 218
164 218
163 218
162 218
161 218
160 218
159 218
158 218
157 218
156 218
155 218
154 218
153 218
152 218
151 218
150 217
149 217
148 217
147 217
146 217
145 216
144 216
143 215
142 214
141 214
140 213
139 213
139 214
139 215
140 216
139 217
138 217
137 217
136 216
135 216
134 216
133 216
132 216
131 216
130 216
129 216
128 216
127 216
126 216
125 216
124 216
123 216
122 216
121 216
120 216
119 216
118 216
117 216
116 216
115 216
114 216
113 216
112 216
111 216
111 217
111 218
112 219
111 220
110 220
109 220
108 221
107 221
106 221
105 221
104 221
103 221
102 221
101 221
100 221
99 220
98 220
97 220
96 220
95 220
94 221
93 221
92 221
92 222
93 223
93 224
92 225
91 225
90 225
89 226
88 226
87 226
86 226
85 226
84 225
83 225
82 225
81 225
80 225
79 225
78 225
77 225
76 225
75 225
74 225
73 224
72 224
71 224
71 225
72 226
71 227
70 227
69 228
68 228
67 228
66 228
65 228
64 228
63 228
62 228
61 228
60 227
59 227
58 227
57 227
56 227
55 227
54 227
53 226
53 227
53 228
54 229
54 230
53 231
52 231
51 231
50 232
49 232
48 232
47 232
46 232
45 232
44 233
43 233
42 233
41 233
40 232
39 232
38 232
37 232
36 232
37 233
37 234
37 235
36 236
35 236
34 236
33 235
32 236
31 236
30 236
29 235
28 235
27 234
26 233
25 232
24 233
24 234
24 235
25 236
26 237
25 238
24 239
25 240
26 240
27 240
28 240
29 240
30 241
31 241
32 242
32 243
31 244
32 244
33 244
34 244
35 244
36 244
37 244
38 244
39 245
40 245
41 245
42 245
43 246
44 246
45 247
45 248
44 249
43 249
43 250
43 251
44 250
45 250
46 250
47 250
48 250
49 251
50 251
51 251
52 252
53 253
54 253
55 253
56 253
57 254
58 254
59 255
60 256
61 257
62 258
61 259
60 260
61 260
62 260
63 260
64 260
65 260
66 260
67 260
68 260
69 261
70 261
71 261
72 261
73 262
74 262
75 263
76 264
75 265
74 265
74 266
75 266
76 266
77 266
78 266
79 267
80 267
81 267
82 267
83 268
84 268
85 268
86 268
87 268
88 269
88 270
88 271
89 271
90 271
91 271
92 271
93 272
94 272
95 273
96 273
97 274
96 275
97 275
98 275
99 275
100 275
101 275
102 275
103 276
104 276
105 276
106 277
107 278
108 279
109 279
110 280
110 281
109 282
109 283
109 284
110 284
111 284
112 283
113 283
114 283
115 283
116 283
117 283
118 283
119 283
120 283
121 283
122 283
123 283
124 284
125 284
126 284
127 285
128 285
129 286
130 287
129 288
129 289
130 289
131 289
132 288
133 288
134 288
135 288
136 288
137 288
138 288
139 289
140 289
141 289
142 289
143 290
144 290
145 290
146 290
147 291
148 291
149 292
150 292
151 292
152 293
153 294
153 295
153 296
154 297
155 296
156 296
157 296
158 296
159 296
160 296
161 295
162 295
163 295
164 296
165 296
166 297
166 298
167 298
168 298
169 298
170 298
171 297
172 297
173 297
174 298
175 298
176 298
177 298
178 299
179 299
180 299
181 300
180 301
180 302
181 302
182 302
183 301
184 301
185 301
186 301
187 301
188 301
189 301
190 301
191 301
192 301
193 301
194 302
194 303
195 303
196 303
197 302
198 302
199 302
200 301
201 301
202 301
203 300
204 300
205 300
206 300
207 300
208 300
209 300
210 300
211 300
212 300
213 300
214 300
215 300
216 301
217 301
218 302
218 303
219 303
220 303
221 303
222 302
223 302
224 302
225 302
226 302
227 301
228 301
229 301
230 301
231 301
232 301
233 301
234 302
234 303
235 303
236 303
237 303
238 302
239 302
240 302
241 302
242 302
243 302
244 302
245 301
246 301
247 301
248 301
249 301
250 301
251 301
252 301
253 301
254 301
255 300
256 300
257 300
258 300
259 300
260 301
261 301
262 300
263 300
264 300
265 299
266 299
267 299
268 298
269 298
270 298
271 298
272 297
273 297
274 297
275 297
276 296
277 296
278 296
279 296
280 295
281 295
282 295
283 295
284 294
285 294
286 294
287 294
288 293
289 293
290 293
291 292
292 292
293 292
294 291
295 291
296 291
297 290
298 290
299 289
300 289
301 288
302 288
303 287
304 287
305 287
306 286
307 286
308 286
309 286
310 285
311 285
312 285
313 285
314 285
315 285
316 285
317 284
318 284
319 284
320 284
321 284
322 284
323 284
324 284
325 285
326 285
327 286
326 287
325 288
324 288
323 289
322 289
321 289
320 289
319 290
318 290
317 291
316 291
315 291
314 292
313 292
312 292
311 293
310 293
309 294
308 294
307 295
306 295
305 296
304 297
303 298
302 298
301 299
300 300
299 301
298 302
297 303
296 304
295 305
294 306
293 307
292 308
291 309
290 310
289 311
288 312
287 313
286 313
285 314
284 315
283 315
283 316
284 317
283 318
282 319
282 320
281 321
280 322
280 323
279 324
278 325
278 326
277 327
276 328
275 329
275 330
274 331
273 332
272 333
271 334
270 335
269 335
269 336
270 337
269 338
268 339
268 340
267 341
266 342
266 343
265 344
264 345
263 346
263 347
262 348
261 349
262 349
263 350
263 351
262 352
262 353
261 354
261 355
261 356
260 357
260 358
259 359
259 360
258 361
258 362
257 363
257 364
257 365
256 366
255 367
254 368
254 369
255 369
256 370
256 371
256 372
256 373
255 374
255 375
255 376
255 377
254 378
254 379
253 380
253 381
252 382
253 382
254 382
255 383
255 384
255 385
255 386
255 387
254 388
254 389
254 390
253 391
253 392
252 393
252 394
251 395
251 396
250 397
249 398
248 399
247 400
247 401
246 402
245 403
246 404
247 403
248 403
249 404
248 405
249 406
249 407
249 408
249 409
249 410
248 411
248 412
247 413
247 414
246 415
246 416
245 417
245 418
245 419
244 420
243 421
242 422
241 423
240 424
241 424
242 424
243 425
243 426
242 427
242 428
242 429
242 430
242 431
242 432
241 433
241 434
241 435
241 436
241 437
241 438
240 439
240 440
240 441
239 442
239 443
238 444
238 445
237 446
237 447
238 447
239 447
240 448
240 449
240 450
240 451
240 452
240 453
240 454
240 455
240 456
240 457
239 458
239 459
238 460
238 461
238 462
238 463
237 464
237 465
237 466
236 467
236 468
235 469
235 470
236 469
237 470
238 471
238 472
239 473
239 474
239 475
239 476
239 477
239 478
238 479
238 480
237 481
237 482
237 483
236 484
236 485
235 486
235 487
235 488
235 489
236 489
237 488
238 489
239 490
239 491
239 492
239 493
239 494
239 495
239 496
238 497
238 498
237 499
236 500
236 501
235 502
235 503
236 502
237 502
238 503
238 504
238 505
238 506
238 507
237 508
237 509
237 510
236 511
236 512
235 513
235 514
234 515
235 515
236 516
236 517
235 518
235 519
235 520
234 521
234 522
234 523
235 522
236 521
237 520
238 520
239 519
240 518
241 518
242 517
243 516
243 515
244 514
245 513
246 512
247 511
248 510
249 511
249 512
250 511
250 510
250 509
251 508
251 507
252 506
252 505
253 504
254 503
255 502
256 501
257 502
257 503
258 504
259 504
259 503
259 502
260 501
260 500
260 499
261 498
261 497
262 496
263 495
263 494
264 493
265 492
266 492
267 492
268 493
269 492
269 491
270 490
270 489
271 488
271 487
272 486
273 485
273 484
274 483
275 483
275 482
276 481
277 481
278 481
279 480
279 479
280 478
280 477
281 476
281 475
282 474
283 473
284 472
284 471
284 470
285 469
285 468
286 467
286 466
287 465
288 464
289 463
290 463
291 462
292 461
293 461
294 462
295 461
295 460
295 459
296 458
296 457
296 456
297 455
297 454
298 453
298 452
299 451
299 450
300 449
301 448
302 448
303 448
304 447
304 446
304 445
305 444
305 443
306 442
306 441
307 440
307 439
308 438
308 437
309 436
309 435
310 434
310 433
311 432
312 431
312 430
313 429
314 429
314 428
314 427
314 426
314 425
315 424
315 423
316 422
316 421
317 420
317 419
318 418
319 418
320 418
320 417
320 416
321 415
321 414
321 413
322 412
322 411
323 410
323 409
324 408
324 407
325 406
325 405
326 404
327 404
328 404
328 403
328 402
328 401
328 400
329 399
329 398
329 397
330 396
330 395
331 394
332 393
333 392
333 391
334 390
335 389
335 388
336 387
336 386
336 385
336 384
337 383
337 382
338 381
338 380
339 379
339 378
340 377
341 377
341 376
342 375
342 374
342 373
342 372
343 371
343 370
343 369
343 368
343 367
343 366
343 365
343 364
344 363
344 362
344 361
345 360
345 359
345 358
345 357
346 356
346 355
347 354
347 353
347 352
347 351
347 350
347 349
347 348
347 347
348 346
348 345
348 344
348 343
348 342
348 341
348 340
348 339
348 338
348 337
349 336
349 335
349 334
349 333
349 332
349 331
349 330
349 329
349 328
349 327
349 326
349 325
349 324
349 323
349 322
349 321
348 320
348 319
348 318
348 317
348 316
348 315
348 314
348 313
347 312
347 311
347 310
347 309
347 308
347 307
346 306
346 305
345 304
345 303
345 302
344 301
343 300
343 299
342 298
342 297
341 296
341 295
340 294
339 293
338 292
337 291
336 290
336 289
336 288
336 287
336 286
337 285
338 285
339 284
340 284
341 284
342 284
343 284
344 284
345 283
346 283
347 283
348 283
349 283
350 283
351 283
352 283
353 283
354 283
355 283
356 283
357 283
358 283
359 283
360 283
361 283
362 283
363 283
364 283
365 283
366 283
367 283
368 282
369 282
370 282
371 282
372 282
373 282
374 282
375 282
376 282
377 282
378 282
379 282
380 282
381 282
382 282
383 282
384 282
385 282
386 282
387 282
388 282
389 282
390 282
391 282
392 282
393 282
394 282
395 282
396 282
397 282
398 282
399 282
400 282
401 282
402 282
403 282
404 282
405 282
406 282
407 282
408 282
409 283
410 283
411 283
412 283
413 283
414 283
415 283
416 283
417 283
418 283
419 283
420 283
421 283
422 283
423 283
424 283
425 283
426 283
427 283
428 283
429 283
430 284
431 284
432 284
433 284
434 285
435 286
435 287
434 288
433 289
432 290
431 290
430 291
429 291
428 292
427 293
426 293
425 294
424 295
423 295
422 296
421 297
421 298
420 299
419 299
419 300
418 301
417 301
416 302
416 303
415 304
414 305
413 305
413 306
412 307
411 308
410 309
409 310
408 311
407 312
406 313
405 314
404 314
403 315
402 316
403 317
402 318
401 319
401 320
400 321
400 322
399 323
399 324
398 325
398 326
397 327
397 328
396 329
396 330
395 331
395 332
394 333
394 334
393 335
393 336
392 337
393 337
394 338
393 339
393 340
392 341
392 342
392 343
391 344
391 345
391 346
390 347
390 348
389 349
389 350
389 351
388 352
388 353
388 354
388 355
387 356
387 357
387 358
387 359
386 360
386 361
386 362
386 363
385 364
385 365
385 366
386 366
387 367
387 368
387 369
387 370
387 371
387 372
387 373
387 374
387 375
387 376
386 377
386 378
386 379
386 380
386 381
386 382
386 383
386 384
386 385
386 386
385 387
385 388
385 389
385 390
386 390
387 391
387 392
387 393
388 394
388 395
388 396
388 397
388 398
388 399
388 400
387 401
387 402
388 403
388 404
388 405
388 406
388 407
388 408
389 409
389 410
389 411
389 412
389 413
388 414
388 415
388 416
389 416
390 415
391 416
391 417
391 418
391 419
391 420
392 421
392 422
392 423
392 424
392 425
392 426
392 427
392 428
392 429
392 430
392 431
392 432
391 433
391 434
391 435
392 435
393 435
394 436
394 437
394 438
394 439
395 440
395 441
395 442
395 443
395 444
394 445
394 446
394 447
393 448
393 449
394 449
395 449
396 448
397 449
398 450
398 451
399 452
399 453
399 454
399 455
400 456
400 457
400 458
400 459
400 460
401 461
401 462
401 463
400 464
401 465
401 466
401 467
401 468
401 469
401 470
401 471
401 472
401 473
402 474
402 475
402 476
402 477
402 478
402 479
403 479
404 479
405 480
405 481
406 482
406 483
407 484
407 485
407 486
408 487
408 488
408 489
408 490
408 491
408 492
408 493
408 494
408 495
408 496
408 497
409 497
410 496
411 497
411 498
411 499
412 500
412 501
413 502
413 503
413 504
413 505
413 506
413 507
413 508
413 509
413 510
413 511
413 512
414 512
415 511
416 512
416 513
416 514
417 515
417 516
417 517
418 518
418 519
418 520
418 521
418 522
418 523
419 523
420 522
421 523
422 524
422 525
422 526
423 527
423 528
423 529
423 530
423 531
423 532
423 533
424 533
425 533
426 534
427 535
427 536
428 537
428 538
428 539
428 540
428 541
428 542
429 543
430 544
430 545
430 546
430 547
431 546
431 545
432 544
433 543
433 542
433 541
434 540
434 539
434 538
435 537
436 537
437 536
437 535
437 534
437 533
437 532
437 531
437 530
437 529
437 528
437 527
437 526
437 525
438 524
438 523
437 522
437 521
438 520
438 519
438 518
439 517
440 516
441 515
442 515
442 514
442 513
442 512
442 511
442 510
443 509
443 508
443 507
443 506
443 505
443 504
443 503
443 502
444 501
444 500
444 499
444 498
444 497
444 496
445 495
445 494
446 493
446 492
447 491
448 490
449 490
449 489
450 488
450 487
450 486
450 485
450 484
450 483
450 482
450 481
451 480
451 479
451 478
451 477
451 476
451 475
451 474
452 473
452 472
452 471
452 470
453 469
453 468
453 467
454 466
454 465
454 464
455 463
456 463
457 463
457 462
457 461
457 460
457 459
457 458
457 457
457 456
457 455
457 454
457 453
457 452
457 451
457 450
457 449
457 448
458 447
458 446
459 445
460 444
461 444
461 443
462 442
462 441
462 440
462 439
462 438
462 437
462 436
462 435
462 434
462 433
462 432
462 431
462 430
462 429
462 428
462 427
463 426
463 425
464 424
465 423
465 422
465 421
465 420
464 419
464 418
464 417
464 416
464 415
464 414
464 413
464 412
464 411
464 410
464 409
464 408
464 407
464 406
464 405
464 404
464 403
464 402
465 401
465 400
465 399
465 398
466 397
467 396
467 395
467 394
467 393
467 392
467 391
467 390
468 389
468 388
468 387
468 386
468 385
468 384
468 383
468 382
468 381
468 380
468 379
468 378
468 377
468 376
468 375
469 374
469 373
469 372
470 371
469 370
469 369
469 368
469 367
469 366
469 365
469 364
469 363
468 362
468 361
468 360
468 359
468 358
467 357
467 356
467 355
466 354
466 353
466 352
466 351
466 350
466 349
465 348
465 347
465 346
465 345
465 344
464 343
464 342
464 341
464 340
464 339
464 338
464 337
464 336
464 335
464 334
463 333
463 332
463 331
463 330
462 329
462 328
462 327
462 326
462 325
462 324
462 323
462 322
462 321
461 320
461 319
461 318
461 317
461 316
461 315
460 314
460 313
460 312
459 311
459 310
459 309
458 308
458 307
458 306
457 305
456 304
456 303
455 302
455 301
454 300
453 299
453 298
452 297
451 296
450 295
450 294
449 294
448 293
448 292
447 291
446 290
445 289
444 288
444 287
445 286
446 286
447 285
448 285
449 285
450 285
451 284
452 284
453 284
454 284
455 284
456 284
457 284
458 284
459 284
460 284
461 284
462 284
463 284
464 284
465 284
466 284
467 284
468 284
469 284
470 284
471 284
472 284
473 284
474 284
475 284
476 284
477 285
478 285
479 285
480 285
481 285
482 285
483 285
484 285
485 285
486 285
487 285
488 285
489 285
490 285
491 285
492 285
493 285
494 285
495 285
496 285
497 285
498 285
499 285
500 285
501 285
502 285
503 285
504 285
505 285
506 285
507 285
508 285
509 285
510 285
511 285
512 285
513 285
514 285
515 285
516 285
517 285
518 285
519 285
520 285
521 286
522 285
523 285
524 285
525 285
526 285
527 286
528 286
529 286
530 286
531 286
532 286
533 286
534 286
535 286
536 286
537 286
538 286
539 286
540 286
541 286
542 286
543 287
544 287
545 288
544 289
543 290
542 290
541 290
540 291
539 292
538 292
537 293
536 293
535 294
534 295
533 295
532 296
531 297
530 298
529 299
528 300
527 301
526 302
525 303
524 304
523 305
523 306
522 307
522 308
521 309
521 310
520 311
519 312
518 313
518 314
517 315
516 316
516 317
515 318
515 319
515 320
514 321
513 322
513 323
512 324
511 325
510 326
509 327
508 328
508 329
507 330
507 331
506 332
506 333
507 334
507 335
507 336
506 337
506 338
506 339
506 340
506 341
505 342
505 343
505 344
505 345
504 346
504 347
504 348
503 349
503 350
502 351
501 352
502 352
503 352
504 353
504 354
504 355
504 356
504 357
504 358
504 359
504 360
503 361
503 362
503 363
503 364
503 365
503 366
503 367
503 368
502 369
502 370
503 370
504 371
504 372
504 373
504 374
504 375
504 376
504 377
504 378
504 379
504 380
504 381
504 382
505 381
506 380
507 381
507 382
508 383
508 384
509 385
509 386
509 387
509 388
509 389
510 390
510 391
510 392
510 393
510 394
510 395
511 396
511 397
511 398
511 399
511 400
511 401
511 402
511 403
510 404
510 405
510 406
510 407
510 408
510 407
511 406
512 406
513 407
513 408
514 409
514 410
514 411
514 412
515 413
515 414
515 415
515 416
515 417
515 418
515 419
515 420
515 421
515 422
516 423
516 424
516 425
516 426
516 427
516 428
515 429
515 430
515 431
516 431
517 430
518 431
519 432
519 433
520 434
520 435
520 436
520 437
520 438
521 439
521 440
521 441
521 442
521 443
521 444
521 445
522 446
522 447
522 448
522 449
522 450
522 451
523 452
523 453
523 454
523 455
523 456
523 457
524 457
525 456
526 457
526 458
526 459
527 460
528 461
528 462
528 463
528 464
528 465
528 466
528 467
529 468
528 469
528 470
529 471
530 472
530 473
530 474
530 475
530 476
530 477
531 476
532 477
532 478
532 479
532 480
532 481
532 482
532 483
532 484
532 485
533 486
533 487
533 488
534 489
535 488
536 487
537 486
537 485
538 484
538 483
539 482
539 481
540 480
541 480
542 480
542 479
542 478
542 477
542 476
542 475
542 474
542 473
543 472
543 471
543 470
544 469
544 468
545 467
546 467
547 467
547 466
547 465
548 464
548 463
548 462
549 461
549 460
549 459
549 458
549 457
550 456
550 455
550 454
550 453
551 452
551 451
551 450
552 449
552 448
552 447
553 446
553 445
554 444
555 443
556 443
556 442
557 441
557 440
557 439
557 438
557 437
557 436
557 435
558 434
558 433
558 432
558 431
559 430
559 429
560 428
560 427
560 426
561 425
562 425
562 424
562 423
562 422
562 421
562 420
562 419
562 418
562 417
562 416
562 415
562 414
562 413
562 412
562 411
563 410
563 409
563 408
564 407
565 406
566 406
566 405
566 404
566 403
566 402
566 401
566 400
566 399
566 398
567 397
567 396
567 395
567 394
567 393
568 392
568 391
569 390
570 389
570 388
570 387
570 386
570 385
571 384
571 383
571 382
572 381
572 380
572 379
573 378
574 377
575 376
575 375
575 374
576 373
576 372
576 371
576 370
577 369
577 368
577 367
577 366
577 365
578 364
577 363
577 362
577 361
577 360
577 359
576 358
576 357
576 356
576 355
576 354
575 353
575 352
575 351
574 350
574 349
574 348
574 347
574 346
574 345
574 344
574 343
575 342
575 341
575 340
574 339
574 338
574 337
574 336
574 335
574 334
574 333
574 332
574 331
574 330
574 329
574 328
574 327
574 326
573 325
573 324
573 323
573 322
573 321
572 320
572 319
572 318
571 317
571 316
571 315
570 314
570 313
569 312
569 311
568 310
568 309
567 308
567 307
566 306
566 305
565 304
565 303
564 302
563 301
563 300
562 299
561 298
560 297
559 296
559 295
558 295
557 294
557 293
556 292
555 291
555 290
556 289
556 288
557 287
558 286
559 286
560 286
561 286
562 285
563 285
564 285
565 285
566 285
567 284
568 284
569 284
570 284
571 284
572 284
573 284
574 283
575 283
576 283
577 283
578 283
579 283
580 282
581 282
582 282
583 282
584 282
585 282
586 282
587 282
588 282
589 282
590 282
591 281
592 281
593 281
594 281
595 281
596 281
597 281
598 281
599 281
600 280
601 280
602 280
603 280
604 280
605 280
606 280
607 280
608 279
609 279
610 279
611 279
612 279
613 279
614 279
615 279
616 279
617 278
618 278
619 278
620 278
621 278
622 278
623 278
624 278
625 278
626 277
627 277
628 277
629 277
630 277
631 277
632 277
633 277
634 277
635 277
636 276
637 276
638 276
639 276
640 276
641 276
642 275
643 275
644 275
645 275
646 275
647 275
648 275
649 275
650 275
651 274
652 274
653 274
654 274
655 274
656 274
657 273
658 273
659 273
660 272
661 272
662 272
663 272
664 272
665 272
666 272
667 272
668 272
669 272
670 272
671 272
672 272
673 272
674 271
675 271
676 271
677 271
678 271
679 271
680 270
681 270
682 270
683 270
684 270
685 270
686 269
687 269
688 269
689 269
690 269
691 269
692 269
693 269
694 268
695 268
696 268
697 268
698 267
699 268
700 268
701 268
702 268
703 267
704 267
705 267
706 267
707 267
708 266
709 266
710 266
711 266
712 266
713 266
714 266
715 265
716 265
717 265
718 265
719 265
720 265
721 265
722 264
723 264
724 264
725 264
726 264
727 264
728 263
729 263
730 263
731 263
732 263
733 263
734 263
735 263
736 262
737 262
738 262
739 262
740 262
741 262
742 262
743 262
744 262
745 262
746 262
747 262
748 262
749 262
750 262
751 262
752 262
753 262
754 262
755 262
756 262
757 262
758 262
759 262
760 262
761 262
762 262
763 262
764 262
765 262
766 262
767 263
768 263
769 263
770 264
771 264
772 263
773 262
773 261
774 260
775 259
775 258
775 257
774 256
773 255
772 254
771 253
770 252
769 251
768 250
767 249
766 249
765 248
764 248
763 248
762 247
761 247
760 247
759 248
758 248
758 249
758 250
758 251
758 252
757 253
756 253
755 253
754 254
753 254
752 254
751 254
750 254
749 254
748 255
747 255
746 255
745 256
744 256
743 256
742 256
741 257
740 257
739 257
738 257
737 257
736 258
735 258
734 258
733 258
732 259
731 259
730 259
729 259
728 259
727 259
726 260
725 260
724 260
723 260
722 261
721 261
720 261
719 261
718 261
717 262
716 262
715 262
714 262
713 262
712 263
711 263
710 263
709 263
708 263
707 263
706 263
705 263
704 264
703 264
702 264
701 264
700 264
699 264
698 265
697 265
696 265
695 265
694 265
693 265
692 265
691 266
690 266
689 266
688 266
687 266
686 266
685 266
684 267
683 267
682 267
681 267
680 267
679 267
678 268
677 268
676 268
675 268
674 268
673 268
672 268
671 269
670 269
669 269
668 269
667 269
666 269
665 269
664 270
663 270
662 270
661 270
660 270
659 270
658 270
657 270
656 271
655 271
654 271
653 271
652 271
651 271
650 271
649 271
648 272
647 272
646 272
645 272
644 272
643 272
642 273
641 273
640 273
639 273
638 273
637 273
636 273
635 273
634 273
633 274
632 274
631 274
630 274
629 274
628 274
627 274
626 274
625 275
624 275
623 275
622 275
621 275
620 275
619 275
618 275
617 275
616 276
615 276
614 276
613 276
612 276
611 276
610 276
609 276
608 277
607 277
606 277
605 277
604 277
603 277
602 277
601 277
600 277
599 277
598 277
597 277
596 277
595 277
594 278
593 278
592 278
591 278
590 278
589 278
588 278
587 278
586 278
585 277
584 277
583 276
583 275
583 274
584 273
585 272
586 271
587 270
588 269
588 268
589 267
590 266
591 265
591 264
592 263
593 262
593 261
594 260
594 259
595 258
595 257
596 256
596 255
597 254
597 253
598 252
598 251
599 250
599 249
600 248
600 247
600 246
601 245
601 244
601 243
601 242
602 241
602 240
602 239
602 238
602 237
602 236
602 235
602 234
602 233
602 232
603 231
603 230
603 229
603 228
603 227
603 226
603 225
603 224
603 223
603 222
603 221
603 220
603 219
603 218
603 217
603 216
603 215
604 214
604 213
604 212
604 211
605 210
605 209
605 208
605 207
606 206
606 205
606 204
606 203
606 202
606 201
606 200
606 199
606 198
605 197
605 196
605 195
605 194
605 193
604 192
604 191
604 190
603 189
602 188
601 187
601 186
601 185
600 184
600 183
600 182
599 181
599 180
599 179
599 178
598 177
598 176
597 176
596 175
596 174
596 173
596 172
595 171
595 170
595 169
595 168
595 167
595 166
595 165
595 164
595 163
595 162
594 161
594 160
593 159
592 158
592 157
592 156
591 155
591 154
591 153
591 152
591 151
590 150
590 149
590 148
590 147
590 146
591 145
591 144
591 143
591 142
590 141
589 140
588 139
588 138
588 137
587 136
587 135
587 134
587 133
586 132
586 131
586 130
586 129
586 128
586 127
586 126
586 125
585 124
585 123
585 122
584 123
583 122
582 121
582 120
581 119
581 118
580 117
580 116
580 115
579 114
579 113
579 112
579 111
578 110
578 109
578 108
578 107
578 106
577 105
577 104
577 103
577 102
576 101
576 100
575 99
574 99
573 98
573 97
572 96
572 95
572 94
571 93
571 92
571 91
571 90
571 89
571 88
570 87
570 86
569 86
568 85
567 84
567 83
567 82
566 81
566 80
565 80
564 79
564 78
563 77
562 77
562 78
562 79
561 80
561 81
561 82
561 83
561 84
561 85
561 86
561 87
561 88
560 89
559 89
559 90
559 91
559 92
559 93
558 94
557 95
557 96
557 97
557 98
557 99
557 100
557 101
557 102
557 103
556 104
556 105
556 106
555 107
555 108
554 109
553 109
552 108
552 109
552 110
552 111
552 112
551 113
551 114
551 115
551 116
551 117
551 118
550 119
550 120
550 121
550 122
550 123
550 124
550 125
550 126
549 127
549 128
549 129
549 130
549 131
548 132
548 133
548 134
547 135
546 136
545 136
544 135
544 136
544 137
544 138
544 139
544 140
544 141
544 142
544 143
544 144
544 145
544 146
544 147
544 148
544 149
544 150
544 151
543 152
543 153
543 154
543 155
543 156
542 157
542 158
541 159
540 160
539 159
539 158
539 159
539 160
539 161
539 162
539 163
539 164
539 165
539 166
539 167
539 168
539 169
539 170
539 171
539 172
539 173
539 174
539 175
538 176
538 177
538 178
538 179
538 180
537 181
537 182
536 183
536 184
535 185
534 185
533 184
532 185
533 186
533 187
533 188
533 189
533 190
533 191
533 192
533 193
533 194
532 195
531 196
531 197
532 198
532 199
532 200
532 201
532 202
532 203
532 204
532 205
532 206
532 207
532 208
532 209
532 210
532 211
533 212
533 213
532 214
531 214
530 213
530 214
531 215
531 216
532 217
532 218
533 219
533 220
533 221
533 222
534 223
534 224
534 225
535 226
535 227
535 228
535 229
535 230
535 231
536 232
535 233
534 233
535 234
535 235
536 236
537 237
537 238
538 239
539 240
540 241
541 242
541 243
542 244
543 245
543 246
544 247
544 248
545 249
545 250
546 251
547 252
547 253
548 254
549 255
549 256
550 257
551 258
551 259
552 260
552 261
553 262
554 263
555 264
556 265
557 266
558 267
559 268
560 269
561 270
562 271
563 272
564 272
565 273
566 273
567 274
568 274
569 275
570 275
571 276
572 276
573 277
574 277
575 278
574 279
573 279
572 280
571 280
570 280
569 281
568 281
567 281
566 281
565 281
564 281
563 282
562 282
561 282
560 282
559 282
558 282
557 282
556 283
555 283
554 283
553 283
552 283
551 283
550 283
549 283
548 283
547 283
546 283
545 284
544 283
543 283
542 283
541 283
540 283
539 283
538 283
537 283
536 283
535 283
534 283
533 284
532 283
531 283
530 283
529 283
528 284
527 283
526 283
525 283
524 283
523 283
522 283
521 284
520 283
519 284
518 284
517 284
516 283
515 283
514 283
513 283
512 284
511 284
510 284
509 284
508 284
507 284
506 284
505 284
504 284
503 284
502 283
501 283
500 283
499 283
498 283
497 284
496 284
495 284
494 284
493 284
492 283
491 283
490 283
489 283
488 283
487 283
486 283
485 283
484 283
483 283
482 283
481 283
480 283
479 283
478 283
477 283
476 283
475 283
474 283
473 283
472 283
471 283
470 283
469 283
468 283
467 283
466 283
465 283
464 282
463 282
462 282
461 282
460 282
459 282
458 282
457 282
456 281
455 281
454 281
453 281
452 281
451 281
450 280
449 280
448 280
447 280
446 279
445 278
445 277
446 276
446 275
447 274
448 273
449 272
450 271
450 270
451 269
452 268
452 267
453 266
453 265
454 264
454 263
454 262
455 261
455 260
455 259
456 258
456 257
456 256
456 255
456 254
457 253
457 252
457 251
457 250
458 249
458 248
458 247
459 246
459 245
459 244
459 243
460 242
460 241
460 240
460 239
461 238
461 237
461 236
461 235
462 234
462 233
462 232
462 231
462 230
462 229
463 228
463 227
463 226
463 225
463 224
463 223
462 222
462 221
462 220
462 219
462 218
462 217
462 216
462 215
462 214
462 213
462 212
462 211
462 210
462 209
463 208
462 207
462 206
462 205
462 204
461 203
461 202
461 201
461 200
461 199
461 198
461 197
461 196
462 195
462 194
462 193
462 192
462 191
461 190
460 189
460 188
460 187
459 186
459 185
459 184
459 183
458 182
458 181
458 180
458 179
458 178
458 177
458 176
458 175
458 174
457 173
456 172
456 171
455 170
455 169
455 168
455 167
455 166
455 165
455 164
455 163
455 162
455 161
454 161
453 160
453 159
452 158
452 157
452 156
452 155
452 154
451 153
451 152
451 151
451 150
451 149
451 148
451 147
451 146
450 145
450 144
449 145
448 145
447 144
446 143
445 142
444 141
444 140
444 139
443 138
443 137
443 136
443 135
443 134
443 133
443 132
443 131
443 130
443 129
443 128
442 128
441 127
440 126
440 125
440 124
439 123
439 122
439 121
439 120
439 119
438 118
438 117
438 116
438 115
437 114
436 115
435 115
434 114
434 113
433 112
432 111
432 110
432 109
431 108
431 107
431 106
431 105
430 104
430 103
430 102
429 101
429 100
429 99
429 98
428 97
428 96
428 95
428 94
427 95
426 94
425 93
425 92
424 91
424 90
423 89
423 88
423 87
422 86
422 85
422 84
421 83
421 82
421 81
421 80
420 79
420 78
420 77
419 77
418 78
417 77
416 76
416 75
415 74
415 73
414 72
414 71
414 70
413 69
413 68
413 67
413 66
413 65
413 64
413 63
412 64
411 64
410 65
409 64
409 63
408 62
408 61
407 60
407 59
407 58
406 57
406 56
406 55
406 54
405 53
404 52
404 51
404 50
403 49
403 48
403 47
403 46
402 47
401 48
400 48
399 47
398 46
397 45
396 44
396 43
396 44
395 45
394 45
393 46
392 47
392 48
393 48
394 48
395 49
395 50
394 51
393 51
394 52
394 53
394 54
393 55
393 56
393 57
392 58
391 58
390 57
389 57
389 58
390 59
390 60
390 61
390 62
390 63
390 64
390 65
390 66
390 67
390 68
390 69
390 70
390 71
390 72
390 73
390 74
390 75
389 76
389 77
388 78
387 77
386 77
385 77
385 78
386 79
386 80
386 81
386 82
386 83
387 84
387 85
387 86
387 87
387 88
386 89
386 90
386 91
385 92
384 93
383 93
383 94
383 95
383 96
383 97
383 98
383 99
383 100
383 101
383 102
384 103
384 104
384 105
384 106
385 107
385 108
385 109
385 110
385 111
384 112
384 113
383 114
382 115
381 115
380 114
379 115
380 116
380 117
380 118
380 119
380 120
380 121
380 122
380 123
380 124
380 125
380 126
379 127
379 128
378 129
378 130
377 131
376 130
375 130
374 131
374 132
375 133
375 134
375 135
375 136
376 137
376 138
376 139
376 140
376 141
376 142
376 143
375 144
375 145
375 146
376 147
376 148
376 149
376 150
376 151
376 152
377 153
376 154
377 155
376 156
376 157
376 158
376 159
376 160
375 161
374 161
373 160
372 160
372 161
373 162
373 163
374 164
374 165
374 166
375 167
375 168
375 169
375 170
376 171
376 172
376 173
376 174
377 175
377 176
377 177
377 178
377 179
377 180
377 181
377 182
376 183
376 184
375 185
374 185
374 186
374 187
375 188
375 189
376 190
376 191
376 192
376 193
377 194
376 195
376 196
377 197
376 198
375 198
375 199
375 200
376 201
376 202
376 203
377 204
377 205
377 206
377 207
377 208
377 209
378 210
378 211
377 212
376 212
375 211
375 212
376 213
377 214
377 215
378 216
378 217
379 218
379 219
379 220
380 221
380 222
381 223
381 224
380 225
379 225
379 226
380 226
381 227
382 228
383 229
384 230
385 231
385 232
386 232
387 233
388 234
389 235
390 236
391 237
391 238
390 239
391 240
392 241
393 242
394 243
395 244
395 245
396 246
397 247
397 248
398 249
399 250
400 251
400 252
401 253
402 254
402 255
403 256
404 257
404 258
404 259
405 259
406 260
407 261
408 262
409 262
410 263
411 264
412 265
413 265
414 266
415 267
416 268
417 268
418 269
419 270
420 271
421 272
422 272
423 273
424 273
425 274
426 274
427 275
428 276
429 276
430 276
431 276
432 276
433 277
434 278
434 279
433 280
432 281
431 281
430 281
429 281
428 281
427 282
426 282
425 282
424 282
423 282
422 282
421 282
420 282
419 282
418 282
417 282
416 282
415 282
414 282
413 282
412 282
411 281
410 281
409 281
408 282
407 282
406 282
405 282
404 282
403 282
402 282
401 282
400 282
399 282
398 282
397 282
396 282
395 282
394 282
393 282
392 282
391 282
390 282
389 282
388 282
387 282
386 282
385 282
384 282
383 282
382 282
381 282
380 282
379 282
378 282
377 282
376 282
375 282
374 282
373 282
372 282
371 282
370 282
369 282
368 282
367 282
366 282
365 282
364 282
363 282
362 282
361 282
360 282
359 282
358 282
357 282
356 282
355 282
354 282
353 282
352 282
351 282
350 282
349 282
348 282
347 282
346 282
345 282
344 281
343 281
342 281
341 281
340 280
339 279
339 278
340 277
341 276
342 275
343 274
344 273
345 272
345 271
346 270
347 269
347 268
348 267
349 266
349 265
350 264
350 263
351 262
351 261
352 260
352 259
353 258
353 257
354 256
354 255
354 254
355 253
355 252
355 251
356 250
356 249
356 248
356 247
357 246
357 245
357 244
357 243
357 242
358 241
358 240
358 239
358 238
358 237
358 236
358 235
358 234
358 233
358 232
358 231
358 230
357 229
357 228
357 227
357 226
357 225
357 224
357 223
357 222
357 221
357 220
357 219
357 218
357 217
356 216
356 215
356 214
356 213
357 212
356 211
355 210
355 209
355 208
355 207
355 206
355 205
355 204
355 203
355 202
355 201
356 200
356 199
356 198
356 197
356 196
355 196
354 195
353 194
353 193
353 192
353 191
353 190
353 189
353 188
353 187
353 186
354 185
354 184
354 183
354 182
354 181
354 180
354 179
354 178
354 177
353 176
353 175
352 174
351 173
351 172
351 171
350 170
350 169
350 168
350 167
350 166
350 165
351 164
351 163
351 162
351 161
350 161
349 160
349 159
349 158
349 157
348 156
348 155
348 154
348 153
349 152
349 151
349 150
349 149
349 148
349 147
349 146
349 145
348 144
348 143
348 142
348 141
347 141
346 142
345 141
344 140
343 139
342 138
342 137
342 136
342 135
341 134
341 133
341 132
341 131
341 130
341 129
341 128
341 127
341 126
341 125
341 124
341 123
341 122
340 122
339 121
338 120
338 119
337 118
337 117
337 116
336 115
336 114
336 113
336 112
336 111
336 110
336 109
336 108
335 108
334 107
334 106
334 105
333 104
333 103
332 102
332 101
332 100
332 99
332 98
331 97
331 96
331 95
330 95
329 94
328 93
328 92
327 91
327 90
327 89
326 88
326 87
325 86
325 85
325 84
325 83
325 82
325 81
325 80
325 79
325 78
325 77
324 78
323 78
322 77
322 76
321 75
320 74
320 73
320 72
319 71
319 70
319 69
319 68
319 67
319 66
318 67
317 68
316 67
315 66
315 65
314 64
314 63
313 62
313 61
313 60
313 59
313 58
313 57
312 56
312 55
312 54
312 53
312 52
311 51
311 50
311 49
311 48
311 47
310 48
309 49
308 48
308 47
308 46
307 45
307 44
308 43
308 42
308 41
307 40
307 39
307 38
307 37
307 36
307 35
