659 31
658 32
657 32
656 32
655 32
654 32
653 32
652 32
651 33
650 33
649 34
648 34
647 35
646 35
645 36
644 37
643 38
642 38
641 39
641 40
640 41
639 42
638 43
637 44
637 45
636 46
636 47
635 48
635 49
635 50
634 51
634 52
634 53
633 54
633 55
633 56
632 57
632 58
631 59
631 60
631 61
630 62
630 63
630 64
629 65
629 66
629 67
629 68
629 69
629 70
629 71
628 72
628 73
628 74
628 75
628 76
628 77
627 78
627 79
627 80
627 81
627 82
627 83
626 84
626 85
626 86
626 87
626 88
626 89
626 90
626 91
626 92
626 93
626 94
626 95
626 96
626 97
626 98
626 99
626 100
626 101
626 102
626 103
626 104
626 105
626 106
626 107
626 108
626 109
626 110
626 111
626 112
627 113
627 114
627 115
627 116
627 117
628 118
628 119
628 120
629 121
629 122
629 123
630 124
630 125
630 126
631 127
631 128
632 129
632 130
632 131
633 132
633 133
633 134
634 135
635 136
635 137
636 138
636 139
637 140
638 141
638 142
639 143
640 144
641 145
642 146
643 147
644 148
645 149
646 150
647 151
648 152
649 153
650 153
651 154
652 154
653 155
654 155
655 155
656 156
657 156
658 156
659 156
660 157
661 157
662 158
662 159
662 160
662 161
662 162
662 163
662 164
662 165
662 166
662 167
661 168
660 169
659 170
658 170
657 171
656 172
655 172
654 172
653 173
652 174
651 174
650 174
649 175
648 176
647 176
646 176
645 177
644 177
643 178
642 179
641 179
640 180
639 180
638 181
637 181
636 182
635 182
634 182
633 183
632 183
631 184
630 184
629 185
628 185
627 186
626 186
625 186
624 187
623 188
622 188
621 188
620 189
619 189
618 190
617 190
616 190
615 191
614 191
613 192
612 192
611 193
610 193
609 193
608 194
607 194
606 195
605 195
604 196
603 196
602 197
601 197
600 197
599 198
598 198
597 198
596 199
595 199
594 200
593 200
592 201
591 201
590 201
589 202
588 202
587 202
586 202
585 202
584 201
584 200
584 199
584 198
584 197
584 196
585 195
585 194
586 193
587 192
588 192
589 191
590 190
591 189
592 188
593 187
594 186
595 185
596 184
596 183
597 182
598 181
599 180
600 179
600 178
601 177
602 176
602 175
603 174
603 173
604 172
604 171
605 170
605 169
606 168
606 167
607 166
607 165
608 164
608 163
609 162
609 161
609 160
610 159
610 158
610 157
611 156
611 155
612 154
612 153
612 152
612 151
612 150
612 149
612 148
613 147
613 146
613 145
613 144
613 143
613 142
613 141
613 140
613 139
613 138
613 137
613 136
613 135
613 134
613 133
613 132
613 131
613 130
613 129
613 128
612 127
612 126
612 125
612 124
612 123
612 122
612 121
611 120
611 119
611 118
611 117
611 116
611 115
611 114
611 113
610 112
609 111
609 110
608 109
607 109
606 108
606 107
606 106
605 105
606 104
607 103
607 102
607 101
607 100
608 99
608 98
607 97
607 96
607 95
607 94
607 93
607 92
607 91
606 90
606 89
606 88
605 87
605 86
604 85
604 84
603 83
603 82
602 81
602 80
601 79
600 78
600 77
599 76
599 75
598 74
598 73
597 72
597 71
597 70
596 69
596 68
595 67
595 66
595 65
594 64
593 63
593 62
593 61
592 60
592 59
591 58
590 57
590 56
589 55
588 54
587 53
586 52
585 51
584 50
583 50
582 49
581 49
580 49
579 48
578 48
577 48
576 48
575 48
574 48
573 48
572 48
571 48
570 48
569 48
568 47
567 47
566 46
565 46
564 46
563 46
562 46
561 46
560 46
559 47
558 47
557 48
556 48
555 49
554 50
553 50
553 51
552 52
551 53
551 54
550 55
550 56
550 57
550 58
550 59
550 60
551 61
551 62
551 63
551 64
551 65
552 66
553 67
554 68
554 69
555 70
555 71
556 72
556 73
556 74
556 75
555 76
554 77
553 78
552 79
551 79
550 80
549 80
548 81
548 82
547 83
547 84
547 85
547 86
547 87
547 88
547 89
546 90
546 91
546 92
546 93
546 94
546 95
546 96
546 97
547 98
547 99
547 100
547 101
547 102
548 103
548 104
548 105
549 106
549 107
549 108
550 109
550 110
550 111
550 112
550 113
550 114
551 115
551 116
551 117
551 118
550 119
550 120
549 121
549 122
548 123
548 124
547 125
547 126
547 127
547 128
548 129
548 130
548 131
549 132
549 133
549 134
550 135
550 136
550 137
551 138
551 139
551 140
551 141
551 142
551 143
551 144
550 145
550 146
550 147
550 148
550 149
550 150
550 151
550 152
550 153
550 154
551 155
551 156
552 157
553 158
553 159
554 160
554 161
554 162
554 163
554 164
554 165
554 166
554 167
554 168
554 169
554 170
555 171
555 172
555 173
555 174
555 175
556 176
556 177
557 178
557 179
557 180
558 181
558 182
559 183
560 184
561 185
562 186
563 187
564 187
565 188
566 189
567 190
568 190
569 191
570 191
571 191
572 192
573 192
574 192
575 192
576 193
577 193
578 194
579 195
579 196
580 197
580 198
580 199
580 200
580 201
580 202
580 203
580 204
579 205
578 206
577 206
576 207
575 207
574 208
573 208
572 208
571 209
570 209
569 209
568 210
567 210
566 211
565 211
564 211
563 212
562 212
561 213
560 213
559 213
558 214
557 214
556 214
555 215
554 215
553 215
552 216
551 216
550 217
549 217
548 217
547 218
546 218
545 218
544 219
543 219
542 219
541 220
540 220
539 221
538 221
537 221
536 221
535 222
534 222
533 223
532 223
531 223
530 224
529 224
528 225
527 225
526 225
525 226
524 226
523 226
522 227
521 227
520 227
519 228
518 228
517 228
516 229
515 229
514 229
513 230
512 230
511 230
510 231
509 231
508 231
507 231
506 232
505 232
504 232
503 233
502 233
501 233
500 233
499 232
499 231
499 230
499 229
499 228
499 227
499 226
499 225
500 224
500 223
501 222
502 221
503 220
504 219
505 218
506 217
507 216
508 215
509 214
509 213
510 212
511 211
512 210
512 209
513 208
514 207
515 206
515 205
516 204
516 203
517 202
517 201
517 200
518 199
518 198
518 197
519 196
519 195
519 194
520 193
520 192
520 191
521 190
521 189
521 188
521 187
522 186
522 185
522 184
522 183
522 182
523 181
523 180
523 179
523 178
523 177
523 176
523 175
523 174
524 173
524 172
524 171
524 170
524 169
524 168
524 167
524 166
524 165
524 164
524 163
524 162
524 161
523 160
523 159
523 158
523 157
524 156
524 155
524 154
524 153
524 152
524 151
524 150
524 149
524 148
524 147
524 146
524 145
523 144
523 143
523 142
523 141
523 140
523 139
523 138
523 137
523 136
523 135
522 134
522 133
522 132
522 131
522 130
522 129
522 128
522 127
522 126
521 125
521 124
521 123
521 122
521 121
520 120
520 119
520 118
520 117
520 116
519 115
519 114
519 113
519 112
519 111
518 110
518 109
518 108
518 107
518 106
518 105
517 104
517 103
517 102
516 101
516 100
516 99
516 98
516 97
515 96
515 95
515 94
515 93
514 92
514 91
514 90
513 89
513 88
513 87
512 86
512 85
511 84
511 83
510 82
510 81
509 80
508 79
508 78
507 77
507 76
506 75
505 74
504 73
504 72
503 71
502 70
501 69
500 69
499 68
498 67
497 67
496 66
495 66
494 65
493 65
492 65
491 65
490 65
489 65
488 65
487 65
486 65
485 65
484 65
483 66
482 66
481 66
480 65
479 65
478 65
477 65
476 65
475 65
474 65
473 66
472 66
471 67
470 68
469 69
468 70
467 70
466 71
465 71
464 72
463 73
462 74
462 75
461 76
460 77
460 78
459 79
459 80
458 81
457 82
457 83
457 84
456 85
456 86
456 87
455 88
455 89
455 90
455 91
455 92
454 93
454 94
454 95
454 96
454 97
454 98
454 99
454 100
454 101
454 102
454 103
453 104
453 105
453 106
453 107
453 108
453 109
453 110
453 111
453 112
453 113
453 114
453 115
453 116
453 117
453 118
453 119
453 120
452 121
452 122
452 123
452 124
452 125
452 126
452 127
452 128
452 129
452 130
452 131
452 132
452 133
452 134
452 135
452 136
452 137
452 138
452 139
452 140
452 141
452 142
452 143
452 144
452 145
452 146
452 147
452 148
452 149
452 150
452 151
452 152
452 153
452 154
452 155
452 156
452 157
452 158
452 159
452 160
452 161
453 162
453 163
453 164
453 165
453 166
453 167
453 168
453 169
453 170
453 171
453 172
453 173
454 174
454 175
454 176
454 177
454 178
454 179
454 180
455 181
455 182
455 183
455 184
456 185
456 186
456 187
456 188
457 189
457 190
457 191
458 192
458 193
459 194
459 195
460 196
460 197
461 198
461 199
462 200
463 201
464 202
464 203
465 204
465 205
466 206
466 207
467 208
468 209
469 210
469 211
470 212
471 213
472 214
473 215
474 215
475 216
476 217
477 218
478 218
479 219
480 219
481 220
482 220
483 221
484 221
485 221
486 221
487 222
488 222
489 223
490 223
491 223
492 223
493 224
494 225
494 226
494 227
494 228
494 229
494 230
494 231
494 232
494 233
494 234
494 235
493 236
492 237
491 237
490 237
489 238
488 238
487 238
486 239
485 239
484 239
483 240
482 240
481 241
480 241
479 242
478 242
477 242
476 242
475 243
474 243
473 243
472 244
471 244
470 245
469 245
468 245
467 246
466 246
465 246
464 247
463 247
462 247
461 247
460 248
459 248
458 248
457 249
456 249
455 249
454 250
453 250
452 250
451 251
450 251
449 251
448 252
447 252
446 252
445 253
444 253
443 253
442 254
441 254
440 254
439 254
438 255
437 255
436 255
435 256
434 256
433 256
432 257
431 257
430 257
429 258
428 258
427 258
426 258
425 259
424 259
423 259
422 259
421 260
420 260
419 260
418 260
417 259
417 258
417 257
417 256
417 255
417 254
417 253
418 252
418 251
419 250
419 249
420 248
421 247
422 246
423 245
423 244
424 243
425 242
426 241
426 240
427 239
428 238
428 237
429 236
430 235
430 234
431 233
431 232
432 231
432 230
432 229
433 228
433 227
434 226
434 225
434 224
435 223
435 222
435 221
435 220
435 219
436 218
436 217
436 216
436 215
436 214
437 213
437 212
437 211
437 210
437 209
437 208
437 207
437 206
437 205
437 204
437 203
437 202
437 201
438 200
438 199
438 198
438 197
438 196
438 195
438 194
438 193
438 192
438 191
438 190
438 189
438 188
438 187
438 186
438 185
439 184
439 183
439 182
439 181
439 180
439 179
439 178
439 177
439 176
439 175
439 174
438 173
438 172
438 171
438 170
438 169
438 168
438 167
438 166
438 165
437 164
437 163
437 162
437 161
437 160
436 159
436 158
436 157
436 156
435 155
435 154
435 153
435 152
435 151
434 150
434 149
434 148
434 147
434 146
433 145
433 144
433 143
433 142
433 141
433 140
433 139
433 138
433 137
432 136
432 135
432 134
432 133
431 132
431 131
431 130
430 129
430 128
429 127
429 126
429 125
428 124
428 123
427 122
427 121
426 120
426 119
425 118
425 117
424 116
424 115
423 114
423 113
422 112
422 111
421 110
421 109
420 108
420 107
419 106
419 105
418 104
417 103
416 102
415 101
415 100
414 100
413 99
412 98
411 97
410 97
409 96
408 96
407 95
406 95
405 95
404 95
403 94
402 94
401 94
400 94
399 93
398 93
397 93
396 93
395 93
394 93
393 93
392 93
391 93
390 93
389 92
388 92
387 92
386 92
385 93
384 93
383 93
382 94
381 94
380 95
379 96
378 96
377 97
376 98
376 99
375 100
374 101
373 102
373 103
372 104
372 105
371 106
370 107
370 108
370 109
369 110
369 111
369 112
368 113
368 114
367 115
367 116
367 117
367 118
366 119
366 120
365 121
365 122
365 123
365 124
364 125
364 126
364 127
364 128
364 129
364 130
364 131
364 132
364 133
364 134
364 135
364 136
364 137
364 138
364 139
364 140
364 141
364 142
364 143
364 144
363 145
363 146
363 147
363 148
363 149
363 150
363 151
363 152
363 153
363 154
363 155
363 156
363 157
363 158
364 159
364 160
364 161
364 162
364 163
364 164
364 165
364 166
364 167
364 168
364 169
364 170
365 171
365 172
365 173
365 174
365 175
365 176
365 177
366 178
366 179
366 180
366 181
366 182
366 183
367 184
367 185
367 186
367 187
367 188
367 189
368 190
368 191
368 192
368 193
368 194
368 195
369 196
369 197
369 198
369 199
369 200
370 201
370 202
370 203
370 204
371 205
371 206
371 207
371 208
372 209
372 210
373 211
373 212
374 213
374 214
374 215
375 216
375 217
376 218
376 219
376 220
377 221
377 222
377 223
377 224
378 225
379 226
379 227
380 228
380 229
381 230
381 231
382 232
383 233
384 234
385 235
386 236
387 237
388 238
389 239
390 240
391 241
392 242
393 243
394 243
395 244
396 245
397 245
398 246
399 246
400 247
401 247
402 248
403 248
404 248
405 249
406 249
407 249
408 249
409 250
410 250
411 250
412 251
413 252
413 253
413 254
413 255
413 256
413 257
413 258
413 259
413 260
413 261
412 262
411 263
410 264
409 264
408 265
407 265
406 265
405 265
404 266
403 266
402 266
401 266
400 267
399 267
398 267
397 268
396 268
395 268
394 269
393 269
392 269
391 270
390 270
389 270
388 271
387 271
386 271
385 271
384 272
383 272
382 272
381 273
380 273
379 273
378 273
377 274
376 274
375 274
374 275
373 275
372 275
371 275
370 276
369 276
368 277
367 277
366 277
365 277
364 278
363 278
362 278
361 279
360 279
359 279
358 279
357 280
356 280
355 280
354 280
353 281
352 281
351 281
350 282
349 282
348 282
347 282
346 283
345 283
344 283
343 284
342 284
341 284
340 284
339 284
338 284
337 283
337 282
337 281
337 280
337 279
338 278
338 277
338 276
338 275
338 274
338 273
339 272
339 271
339 270
340 269
340 268
341 267
341 266
342 265
342 264
342 263
343 262
343 261
343 260
344 259
344 258
344 257
344 256
344 255
345 254
345 253
345 252
346 251
346 250
346 249
347 248
347 247
347 246
347 245
347 244
347 243
348 242
348 241
348 240
348 239
348 238
348 237
348 236
348 235
348 234
348 233
348 232
348 231
348 230
348 229
348 228
348 227
348 226
347 225
347 224
347 223
347 222
347 221
347 220
347 219
347 218
347 217
347 216
347 215
347 214
347 213
347 212
347 211
347 210
347 209
346 208
346 207
346 206
346 205
345 204
345 203
345 202
345 201
345 200
344 199
344 198
344 197
344 196
343 195
343 194
343 193
343 192
343 191
342 190
342 189
342 188
341 187
341 186
341 185
340 184
340 183
340 182
339 181
339 180
338 179
338 178
337 177
336 176
336 175
335 174
335 173
334 172
334 171
333 170
333 169
332 168
332 167
331 166
330 165
329 164
328 163
327 162
326 161
326 160
325 159
324 158
323 157
322 156
321 155
321 154
320 153
319 152
318 151
317 150
316 149
316 148
315 147
315 146
314 145
313 144
312 143
311 142
310 141
309 140
308 140
307 139
306 139
305 139
304 138
303 138
302 138
301 138
300 139
299 139
298 140
297 140
296 140
295 140
294 140
293 140
292 140
291 140
290 140
289 141
288 141
287 142
286 142
285 143
284 144
283 145
283 146
282 147
281 148
280 149
280 150
279 151
279 152
278 153
278 154
278 155
277 156
277 157
277 158
277 159
276 160
276 161
276 162
276 163
276 164
276 165
276 166
276 167
276 168
275 169
275 170
275 171
275 172
275 173
275 174
275 175
275 176
275 177
275 178
275 179
275 180
275 181
275 182
275 183
275 184
275 185
275 186
275 187
275 188
276 189
276 190
276 191
276 192
276 193
276 194
276 195
276 196
277 197
277 198
277 199
277 200
277 201
277 202
278 203
278 204
278 205
278 206
278 207
279 208
279 209
279 210
279 211
280 212
280 213
280 214
280 215
281 216
281 217
281 218
282 219
282 220
282 221
283 222
283 223
284 224
284 225
284 226
285 227
285 228
285 229
286 230
286 231
286 232
287 233
287 234
288 235
288 236
289 237
289 238
289 239
290 240
290 241
291 242
291 243
292 244
292 245
292 246
293 247
293 248
294 249
294 250
295 251
296 252
296 253
297 254
298 255
298 256
299 257
300 258
301 259
302 260
303 261
304 262
305 263
306 264
307 265
308 266
309 267
310 267
311 268
312 269
313 269
314 270
315 270
316 271
317 271
318 272
319 272
320 272
321 273
322 273
323 274
324 274
325 274
326 275
327 275
328 275
329 275
330 275
331 275
332 275
333 276
334 277
334 278
334 279
334 280
334 281
334 282
334 283
333 284
333 285
332 286
331 287
330 287
329 288
328 288
327 288
326 289
325 289
324 289
323 289
322 289
321 290
320 290
319 290
318 290
317 291
316 291
315 291
314 291
313 292
312 292
311 292
310 292
309 293
308 293
307 293
306 293
305 293
304 294
303 294
302 294
301 295
300 295
299 295
298 295
297 295
296 296
295 296
294 296
293 297
292 297
291 297
290 297
289 297
288 298
287 298
286 298
285 298
284 299
283 299
282 299
281 299
280 300
279 300
278 300
277 300
276 301
275 301
274 301
273 301
272 302
271 302
270 302
269 302
268 302
267 302
266 303
265 303
264 303
263 303
262 304
261 304
260 304
259 304
258 304
257 304
256 303
256 302
256 301
256 300
257 299
257 298
257 297
257 296
257 295
257 294
258 293
258 292
258 291
259 290
259 289
260 288
260 287
261 286
261 285
261 284
262 283
262 282
262 281
263 280
263 279
263 278
264 277
264 276
264 275
264 274
265 273
265 272
265 271
265 270
265 269
265 268
265 267
265 266
266 265
266 264
266 263
266 262
266 261
266 260
266 259
266 258
266 257
266 256
266 255
266 254
266 253
265 252
265 251
265 250
265 249
265 248
265 247
264 246
264 245
264 244
264 243
264 242
264 241
263 240
263 239
263 238
263 237
263 236
263 235
263 234
262 233
262 232
262 231
262 230
262 229
261 228
261 227
261 226
261 225
260 224
260 223
260 222
259 221
259 220
259 219
259 218
258 217
258 216
258 215
258 214
257 213
257 212
257 211
256 210
256 209
256 208
255 207
255 206
254 205
254 204
254 203
253 202
253 201
252 200
252 199
252 198
251 197
251 196
250 195
250 194
249 193
249 192
248 191
247 190
247 189
246 188
246 187
245 186
245 185
244 184
243 183
243 182
242 181
241 180
240 179
240 178
239 177
238 176
237 175
236 174
235 173
234 172
233 171
232 170
231 169
230 168
229 167
228 166
227 166
226 165
225 164
224 163
223 163
222 162
221 162
220 162
219 161
218 161
217 161
216 160
215 160
214 160
213 160
212 161
211 161
210 161
209 161
208 162
207 163
206 164
205 163
204 164
203 164
202 164
201 164
200 165
199 165
198 166
197 167
197 168
196 169
195 170
194 171
194 172
193 173
193 174
193 175
193 176
192 177
192 178
192 179
191 180
191 181
191 182
191 183
191 184
191 185
191 186
191 187
191 188
191 189
190 190
190 191
190 192
190 193
190 194
191 195
191 196
191 197
191 198
191 199
191 200
191 201
191 202
191 203
191 204
191 205
191 206
191 207
191 208
192 209
192 210
192 211
192 212
192 213
192 214
192 215
192 216
193 217
193 218
193 219
193 220
193 221
194 222
194 223
194 224
195 225
195 226
195 227
196 228
196 229
196 230
196 231
197 232
197 233
198 234
198 235
198 236
199 237
199 238
199 239
200 240
200 241
201 242
201 243
201 244
202 245
202 246
202 247
203 248
203 249
203 250
204 251
204 252
204 253
205 254
205 255
206 256
206 257
206 258
207 259
207 260
208 261
208 262
209 263
209 264
210 265
210 266
211 267
211 268
212 269
212 270
213 271
213 272
214 273
215 274
215 275
216 276
217 277
217 278
218 279
219 280
220 281
221 282
222 283
223 284
224 285
225 286
226 287
227 288
228 288
229 289
230 289
231 290
232 291
233 291
234 292
235 292
236 292
237 293
238 293
239 294
240 294
241 294
242 295
243 295
244 295
245 295
246 295
247 295
248 295
249 296
250 296
251 296
252 296
253 296
254 297
254 298
254 299
253 300
253 301
253 302
253 303
253 304
253 305
252 306
251 307
250 307
249 307
248 308
247 308
246 308
245 308
244 309
243 309
242 309
241 309
240 310
239 310
238 310
237 310
236 311
235 311
234 311
233 312
232 312
231 312
230 312
229 313
228 313
227 313
226 313
225 314
224 314
223 314
222 314
221 315
220 315
219 315
218 316
217 316
216 316
215 316
214 317
213 317
212 317
211 317
210 317
209 318
208 318
207 318
206 318
205 319
204 319
203 319
202 320
201 320
200 320
199 320
198 321
197 321
196 321
195 321
194 321
193 322
192 322
191 322
190 322
189 322
188 321
187 320
187 319
187 318
187 317
188 316
188 315
188 314
188 313
188 312
188 311
189 310
189 309
189 308
190 307
190 306
191 305
192 304
192 303
193 302
193 301
194 300
194 299
195 298
195 297
195 296
196 295
196 294
197 293
197 292
197 291
198 290
198 289
198 288
198 287
199 286
199 285
199 284
199 283
200 282
200 281
200 280
200 279
200 278
200 277
200 276
200 275
200 274
200 273
200 272
200 271
200 270
200 269
200 268
200 267
200 266
200 265
200 264
200 263
199 262
199 261
199 260
199 259
199 258
199 257
199 256
199 255
199 254
199 253
198 252
198 251
198 250
198 249
198 248
197 247
197 246
197 245
196 244
196 243
195 242
195 241
195 240
195 239
194 238
194 237
194 236
194 235
194 234
193 233
193 232
193 231
193 230
192 229
192 228
192 227
191 226
191 225
190 224
190 223
190 222
189 221
189 220
188 219
188 218
187 217
187 216
186 215
186 214
185 213
184 212
184 211
183 210
183 209
182 208
181 207
181 206
180 205
180 204
179 203
178 202
178 201
177 200
176 199
175 198
174 197
174 196
173 195
172 194
171 193
170 192
169 192
168 191
168 190
167 190
166 189
165 188
164 188
163 187
162 187
161 187
160 186
159 186
158 186
157 186
156 185
155 186
154 186
153 186
152 186
151 187
150 188
149 188
148 188
147 188
146 188
145 188
144 188
143 188
142 189
141 189
140 190
139 191
138 192
137 193
137 194
136 195
136 196
135 197
135 198
135 199
134 200
134 201
134 202
133 203
133 204
133 205
132 206
132 207
132 208
132 209
131 210
131 211
131 212
131 213
131 214
131 215
131 216
131 217
131 218
131 219
130 220
130 221
131 222
131 223
131 224
131 225
131 226
131 227
132 228
132 229
132 230
132 231
132 232
132 233
133 234
133 235
133 236
133 237
133 238
134 239
134 240
134 241
134 242
134 243
135 244
135 245
135 246
135 247
135 248
136 249
136 250
136 251
136 252
136 253
136 254
137 255
137 256
137 257
138 258
138 259
138 260
138 261
139 262
139 263
139 264
139 265
140 266
140 267
140 268
140 269
141 270
141 271
141 272
141 273
142 274
142 275
142 276
143 277
143 278
143 279
144 280
144 281
145 282
145 283
146 284
146 285
147 286
147 287
148 288
149 289
149 290
150 291
151 292
152 293
152 294
153 295
154 296
154 297
155 298
156 299
157 300
158 301
159 302
160 303
161 304
162 304
163 305
164 306
165 306
166 307
167 308
168 308
169 309
170 309
171 310
172 310
173 311
174 311
175 311
176 312
177 312
178 312
179 312
180 312
181 313
182 313
183 313
184 313
185 314
185 315
185 316
185 317
185 318
185 319
185 320
185 321
185 322
184 323
184 324
183 325
182 325
181 325
180 325
179 326
178 326
177 326
176 326
175 327
174 327
173 327
172 327
171 328
170 328
169 328
168 328
167 329
166 329
165 329
164 329
163 330
162 330
161 330
160 330
159 331
158 331
157 331
156 331
155 331
154 332
153 332
152 332
151 332
150 333
149 333
148 333
147 333
146 333
145 334
144 334
143 334
142 334
141 335
140 335
139 335
138 335
137 336
136 336
135 336
134 336
133 337
132 337
131 337
130 337
129 337
128 337
127 338
126 338
125 338
124 338
123 338
122 337
121 336
121 335
121 334
121 333
121 332
121 331
120 330
120 329
120 328
120 327
120 326
120 325
120 324
120 323
120 322
119 321
119 320
119 319
119 318
119 317
119 316
119 315
119 314
119 313
118 312
118 311
118 310
118 309
118 308
118 307
118 306
118 305
118 304
117 303
117 302
117 301
117 300
117 299
116 298
116 297
116 296
116 295
115 294
115 293
115 292
114 291
114 290
114 289
113 288
113 287
112 286
112 285
111 284
111 283
110 282
110 281
110 280
109 279
108 278
108 277
107 276
107 275
106 274
105 273
105 272
104 271
103 270
102 269
102 268
101 267
100 266
99 265
99 264
98 263
97 262
96 261
95 260
94 259
93 258
92 257
91 256
90 255
89 255
88 254
87 253
86 252
85 252
84 251
83 251
82 250
81 250
80 249
79 249
78 248
77 248
76 247
75 247
74 247
73 247
72 247
71 247
70 247
69 247
68 247
67 247
66 247
65 247
64 248
63 249
62 250
61 251
60 252
59 252
58 253
57 253
57 254
56 255
56 256
56 257
55 258
55 259
55 260
55 261
55 262
55 263
55 264
55 265
55 266
55 267
55 268
55 269
55 270
55 271
55 272
55 273
55 274
55 275
56 276
56 277
56 278
56 279
56 280
57 281
57 282
57 283
58 284
58 285
58 286
58 287
58 288
59 289
59 290
60 291
60 292
60 293
61 294
61 295
62 296
62 297
63 298
64 299
64 300
65 301
65 302
66 303
66 304
67 305
68 306
69 307
70 308
71 309
72 310
73 311
74 312
75 313
76 314
77 314
78 315
79 316
80 317
81 318
82 319
83 319
84 320
85 321
86 321
87 322
88 323
89 323
90 324
91 324
92 325
93 325
94 326
95 326
96 327
97 327
98 327
99 328
100 328
101 328
102 329
103 329
104 329
105 329
106 330
107 330
108 330
109 330
110 330
111 330
112 330
113 330
114 330
115 330
116 330
117 330
118 331
119 332
119 333
119 334
119 335
119 336
119 337
119 338
119 339
118 340
117 340
116 341
115 341
114 341
113 341
112 341
111 341
110 341
109 341
108 341
107 342
106 342
105 342
104 342
103 341
102 341
101 340
100 339
99 338
98 337
97 336
96 335
95 334
94 333
93 333
92 332
91 331
90 330
89 329
88 329
87 328
86 327
85 326
84 325
83 325
82 324
81 324
80 323
79 323
78 322
77 322
76 321
75 321
74 320
73 320
72 320
71 320
70 319
69 319
68 319
67 318
66 318
65 318
64 318
63 318
62 317
61 317
60 317
59 317
58 317
57 317
56 316
55 316
54 316
53 316
52 316
51 316
50 316
49 316
48 316
47 316
46 316
45 316
44 316
43 316
42 316
41 316
40 316
39 317
38 317
37 317
36 317
35 317
34 317
33 317
32 317
31 318
30 318
29 318
28 318
27 319
26 319
25 319
24 320
23 320
22 320
21 321
20 321
19 321
18 322
17 322
16 323
15 323
14 324
13 325
12 325
11 326
10 326
9 327
8 328
7 329
6 330
6 331
5 332
5 333
4 334
4 335
4 336
3 337
3 338
3 339
3 340
3 341
3 342
3 343
3 344
3 345
4 346
4 347
5 348
5 349
6 350
7 350
8 351
9 351
10 352
10 353
9 354
8 355
7 355
7 356
6 357
5 358
5 359
4 360
4 361
4 362
4 363
4 364
4 365
4 366
5 367
5 368
5 369
5 370
6 371
7 372
7 373
8 373
9 374
9 375
10 375
11 376
12 377
13 377
14 378
15 378
16 379
17 379
18 379
19 379
20 379
21 380
22 380
23 380
24 380
25 380
26 380
27 380
28 380
29 381
30 381
31 381
32 381
33 381
34 381
35 382
36 382
37 382
38 382
39 382
40 382
41 382
42 382
43 382
44 382
45 382
46 382
47 381
48 381
49 381
50 381
51 381
52 381
53 380
54 380
55 380
56 380
57 379
58 379
59 379
60 378
61 378
62 378
63 377
64 377
65 376
66 376
67 376
68 375
69 375
70 374
71 374
72 373
73 373
74 373
75 372
76 372
77 371
78 370
79 370
80 369
81 368
82 368
83 367
84 366
85 365
86 364
87 363
88 362
89 361
90 360
91 359
92 358
93 357
94 356
94 355
95 354
96 353
97 352
98 351
98 350
99 349
100 348
101 347
101 346
102 345
103 344
104 343
105 343
106 343
107 343
108 343
109 342
110 342
111 342
112 342
113 342
114 341
115 341
116 341
117 341
118 341
119 341
120 342
120 343
121 344
121 345
121 346
121 347
121 348
120 349
119 350
118 351
117 351
116 351
115 352
114 352
113 353
112 353
111 354
110 354
109 355
108 355
107 356
106 357
105 357
104 358
103 358
102 359
101 360
100 360
99 361
98 362
97 362
96 363
95 364
94 365
93 366
92 367
92 368
91 369
90 370
90 371
89 372
88 373
88 374
87 375
87 376
86 377
86 378
85 379
84 380
84 381
83 382
83 383
82 384
82 385
81 386
81 387
81 388
80 389
80 390
79 391
79 392
78 393
78 394
78 395
77 396
77 397
77 398
77 399
76 400
76 401
76 402
76 403
75 404
75 405
75 406
74 407
74 408
74 409
73 410
73 411
73 412
73 413
72 414
72 415
72 416
72 417
72 418
72 419
72 420
72 421
71 422
71 423
71 424
71 425
71 426
71 427
72 428
72 429
72 430
72 431
72 432
72 433
72 434
72 435
73 436
73 437
73 438
73 439
73 440
74 441
74 442
74 443
75 444
75 445
75 446
76 447
76 448
77 449
78 450
78 451
79 452
80 453
81 454
82 455
83 455
84 456
85 456
86 456
87 457
88 457
89 456
90 456
91 456
92 457
93 458
94 458
95 459
96 459
97 459
98 459
99 459
100 458
101 458
102 458
103 457
104 457
105 456
106 456
107 455
108 454
109 453
110 452
111 451
112 450
113 449
114 448
115 447
116 446
117 445
117 444
118 443
119 442
119 441
120 440
120 439
121 438
122 437
122 436
122 435
123 434
123 433
124 432
124 431
125 430
125 429
126 428
126 427
127 426
128 425
128 424
129 423
129 422
129 421
130 420
130 419
130 418
130 417
131 416
131 415
131 414
131 413
131 412
132 411
132 410
132 409
132 408
132 407
132 406
132 405
132 404
132 403
132 402
132 401
132 400
132 399
133 398
133 397
133 396
133 395
133 394
133 393
133 392
133 391
133 390
133 389
133 388
133 387
133 386
133 385
133 384
133 383
132 382
132 381
132 380
132 379
132 378
132 377
132 376
131 375
131 374
131 373
131 372
131 371
131 370
130 369
130 368
130 367
129 366
129 365
129 364
128 363
128 362
128 361
127 360
127 359
126 358
126 357
126 356
125 355
125 354
125 353
124 352
124 351
124 350
124 349
124 348
124 347
123 346
123 345
123 344
123 343
123 342
123 341
124 340
125 339
126 339
127 339
128 339
129 338
130 338
131 338
132 338
133 337
134 337
135 337
136 337
137 336
138 336
139 336
140 336
141 335
142 335
143 335
144 335
145 334
146 334
147 334
148 334
149 334
150 333
151 333
152 333
153 333
154 332
155 332
156 332
157 332
158 332
159 331
160 331
161 331
162 331
163 330
164 330
165 330
166 330
167 329
168 329
169 329
170 329
171 328
172 328
173 328
174 328
175 328
176 327
177 327
178 327
179 327
180 326
181 326
182 326
183 325
184 325
185 325
186 326
187 327
187 328
187 329
188 330
188 331
189 332
189 333
188 334
187 335
186 336
185 336
184 337
183 338
182 338
181 339
180 340
179 341
178 341
177 342
176 343
175 344
174 345
173 346
172 347
171 348
171 349
170 350
169 351
169 352
168 353
167 354
167 355
167 356
166 357
166 358
165 359
165 360
164 361
164 362
164 363
163 364
163 365
163 366
162 367
162 368
162 369
162 370
161 371
161 372
161 373
161 374
160 375
160 376
160 377
160 378
160 379
160 380
159 381
159 382
159 383
159 384
159 385
159 386
159 387
158 388
158 389
158 390
158 391
158 392
159 393
159 394
159 395
159 396
160 397
160 398
160 399
160 400
160 401
161 402
161 403
161 404
161 405
161 406
161 407
161 408
161 409
161 410
161 411
161 412
161 413
161 414
161 415
160 416
160 417
160 418
160 419
160 420
160 421
161 422
161 423
161 424
161 425
162 426
162 427
162 428
163 429
163 430
163 431
163 432
164 433
164 434
165 435
165 436
166 437
166 438
166 439
167 440
168 441
168 442
169 443
170 444
170 445
171 446
171 447
172 448
172 449
173 450
174 451
174 452
175 453
176 454
176 455
177 456
178 457
179 458
180 459
181 460
182 460
183 461
184 461
185 461
186 461
187 461
188 461
189 461
190 460
191 460
192 459
193 460
194 460
195 460
196 460
197 460
198 460
199 460
200 460
201 459
202 459
203 458
204 457
205 457
205 456
206 455
207 454
208 453
208 452
209 451
209 450
210 449
211 448
211 447
212 446
212 445
213 444
213 443
214 442
214 441
215 440
215 439
216 438
216 437
216 436
217 435
217 434
217 433
218 432
218 431
219 430
219 429
219 428
219 427
219 426
219 425
220 424
220 423
220 422
220 421
220 420
220 419
221 418
221 417
221 416
221 415
221 414
221 413
221 412
221 411
221 410
221 409
221 408
221 407
221 406
221 405
221 404
221 403
221 402
221 401
221 400
221 399
221 398
221 397
221 396
220 395
220 394
220 393
220 392
220 391
220 390
220 389
220 388
220 387
220 386
219 385
219 384
219 383
219 382
219 381
218 380
218 379
218 378
218 377
217 376
217 375
217 374
217 373
216 372
216 371
216 370
216 369
215 368
215 367
215 366
214 365
214 364
213 363
213 362
213 361
212 360
212 359
211 358
211 357
210 356
209 355
209 354
208 353
207 352
207 351
206 350
205 349
204 348
203 347
202 346
202 345
201 344
200 343
199 343
198 342
197 341
197 340
196 339
195 338
194 337
193 336
192 335
192 334
192 333
191 332
191 331
191 330
190 329
190 328
189 327
189 326
189 325
190 324
191 324
192 324
193 323
194 323
195 323
196 322
197 322
198 322
199 322
200 321
201 321
202 321
203 321
204 320
205 320
206 320
207 320
208 319
209 319
210 319
211 319
212 318
213 318
214 318
215 317
216 317
217 317
218 317
219 317
220 316
221 316
222 316
223 316
224 315
225 315
226 315
227 314
228 314
229 314
230 314
231 313
232 313
233 313
234 313
235 312
236 312
237 312
238 312
239 311
240 311
241 311
242 311
243 310
244 310
245 310
246 310
247 309
248 309
249 309
250 309
251 309
252 308
253 308
254 308
255 308
256 308
257 309
257 310
258 311
259 312
260 313
260 314
260 315
260 316
260 317
259 318
259 319
259 320
258 321
258 322
257 323
257 324
257 325
257 326
256 327
256 328
256 329
255 330
255 331
255 332
255 333
255 334
255 335
255 336
255 337
255 338
255 339
255 340
255 341
255 342
255 343
255 344
255 345
255 346
255 347
255 348
255 349
255 350
255 351
255 352
255 353
255 354
256 355
256 356
256 357
256 358
257 359
257 360
257 361
257 362
258 363
258 364
258 365
259 366
259 367
259 368
260 369
260 370
261 371
261 372
262 373
262 374
263 375
263 376
264 377
264 378
265 379
265 380
266 381
266 382
267 383
267 384
268 385
269 386
269 387
270 388
271 389
272 390
272 391
273 392
273 393
274 394
275 395
276 396
277 397
278 397
279 398
279 399
280 399
281 400
282 401
283 402
283 403
284 404
285 405
286 406
287 407
288 408
289 409
290 410
291 411
292 412
293 413
294 414
295 415
296 416
297 417
298 418
299 418
300 419
301 420
302 421
303 421
304 422
305 422
306 423
307 424
308 424
309 425
310 426
311 426
312 427
313 427
314 428
315 428
316 429
317 429
318 430
319 430
320 431
321 431
322 432
323 432
324 432
325 433
326 433
327 433
328 433
329 433
330 433
331 434
332 434
333 434
334 433
335 433
336 433
337 432
338 432
339 432
340 431
341 430
342 429
342 428
343 427
344 427
345 426
346 426
347 425
348 424
349 423
350 422
350 421
351 420
351 419
352 418
352 417
352 416
353 415
353 414
353 413
353 412
353 411
353 410
353 409
353 408
353 407
352 406
352 405
352 404
352 403
352 402
351 401
351 400
351 399
350 398
350 397
350 396
349 395
349 394
349 393
348 392
348 391
348 390
347 389
347 388
347 387
346 386
346 385
345 384
345 383
344 382
344 381
343 380
343 379
342 378
341 377
341 376
340 375
340 374
339 373
338 372
338 371
337 370
337 369
336 368
336 367
335 366
335 365
334 364
334 363
333 362
332 361
332 360
331 359
330 358
329 357
329 356
328 355
327 354
326 353
326 352
325 351
324 350
323 349
322 348
322 347
321 346
320 345
319 344
318 343
317 342
316 341
315 340
314 339
313 338
312 337
311 337
310 336
309 335
308 334
307 333
306 332
305 331
304 331
303 330
302 329
301 329
300 328
299 327
298 327
297 326
296 326
295 325
294 324
293 324
292 323
291 323
290 322
289 322
288 321
287 321
286 321
285 320
284 320
283 320
282 319
281 319
280 319
279 318
278 318
277 318
276 318
275 317
274 317
273 317
272 317
271 317
270 316
269 316
268 316
267 315
266 315
265 315
264 314
263 313
262 312
261 311
260 310
260 309
260 308
260 307
261 306
262 306
263 306
264 305
265 305
266 305
267 304
268 304
269 304
270 304
271 303
272 303
273 303
274 303
275 302
276 302
277 302
278 302
279 301
280 301
281 301
282 301
283 301
284 300
285 300
286 300
287 300
288 300
289 299
290 299
291 299
292 298
293 298
294 298
295 298
296 298
297 297
298 297
299 297
300 296
301 296
302 296
303 296
304 296
305 295
306 295
307 295
308 295
309 294
310 294
311 294
312 294
313 293
314 293
315 293
316 293
317 292
318 292
319 292
320 292
321 291
322 291
323 291
324 291
325 290
326 290
327 290
328 290
329 289
330 289
331 289
332 289
333 289
334 288
335 288
336 289
337 290
338 291
338 292
339 293
340 294
341 295
341 296
341 297
340 298
340 299
339 300
339 301
339 302
338 303
338 304
337 305
337 306
337 307
337 308
336 309
336 310
336 311
336 312
336 313
336 314
336 315
336 316
336 317
336 318
336 319
336 320
336 321
336 322
336 323
336 324
336 325
336 326
336 327
336 328
337 329
337 330
337 331
337 332
337 333
337 334
338 335
338 336
339 337
339 338
339 339
340 340
340 341
341 342
341 343
342 344
342 345
343 346
344 347
344 348
345 349
346 350
346 351
347 352
347 353
348 354
349 355
349 356
350 357
351 358
352 359
353 360
353 361
354 362
355 363
356 364
357 365
358 366
359 367
360 368
361 369
361 370
362 371
363 372
364 373
365 374
366 375
367 376
368 377
368 378
369 379
370 380
371 381
372 382
373 383
374 384
375 385
376 386
377 387
377 388
378 389
379 390
380 390
381 391
382 392
383 393
384 394
384 395
385 396
386 397
387 398
388 398
389 399
390 400
391 401
392 402
393 403
394 404
395 405
396 406
397 407
398 408
399 408
400 409
401 410
402 411
403 411
404 412
405 413
406 413
407 414
408 414
409 414
410 415
411 415
412 415
413 416
414 416
415 416
416 416
417 417
418 417
419 417
420 418
421 418
422 418
423 419
424 419
425 419
426 419
427 419
428 419
429 419
430 418
431 418
432 418
433 417
434 417
435 416
436 415
437 414
437 413
438 412
439 411
440 411
441 410
442 410
443 409
444 408
444 407
445 406
446 405
446 404
446 403
447 402
447 401
447 400
447 399
447 398
447 397
447 396
447 395
447 394
447 393
447 392
447 391
447 390
447 389
447 388
447 387
446 386
446 385
446 384
446 383
446 382
445 381
445 380
445 379
444 378
444 377
444 376
443 375
443 374
443 373
442 372
442 371
441 370
441 369
440 368
440 367
439 366
439 365
438 364
438 363
437 362
437 361
436 360
435 359
435 358
434 357
433 356
433 355
432 354
432 353
431 352
430 351
429 350
429 349
428 348
427 347
427 346
426 345
425 344
425 343
424 342
423 341
422 340
421 339
421 338
420 337
419 336
418 335
418 334
417 333
416 332
415 331
414 330
413 329
412 328
412 327
411 327
410 326
409 325
408 324
407 323
406 322
405 321
404 320
403 319
402 318
401 317
400 316
399 315
398 314
397 314
396 313
395 312
394 311
393 310
392 309
391 308
390 308
389 307
388 306
387 306
386 305
385 304
384 304
383 303
382 302
381 302
380 301
379 301
378 300
377 300
376 299
375 299
374 299
373 298
372 298
371 298
370 297
369 297
368 297
367 297
366 296
365 296
364 296
363 296
362 296
361 296
360 296
359 296
358 296
357 296
356 295
355 295
354 295
353 295
352 295
351 296
350 295
349 295
348 295
347 295
346 295
345 295
344 294
343 293
342 292
341 291
340 290
340 289
340 288
341 287
342 287
343 286
344 286
345 286
346 285
347 285
348 285
349 285
350 284
351 284
352 284
353 283
354 283
355 283
356 282
357 282
358 282
359 281
360 281
361 281
362 280
363 280
364 280
365 280
366 279
367 279
368 279
369 278
370 278
371 278
372 277
373 277
374 277
375 276
376 276
377 276
378 276
379 275
380 275
381 275
382 274
383 274
384 274
385 273
386 273
387 273
388 273
389 272
390 272
391 272
392 272
393 271
394 271
395 271
396 270
397 270
398 270
399 269
400 269
401 269
402 269
403 268
404 268
405 268
406 267
407 267
408 267
409 267
410 266
411 266
412 266
413 265
414 265
415 265
416 265
417 265
418 266
418 267
419 268
420 269
421 270
422 271
422 272
422 273
422 274
422 275
422 276
421 277
421 278
421 279
421 280
420 281
420 282
420 283
420 284
420 285
420 286
420 287
420 288
420 289
421 290
422 291
423 292
424 292
425 293
426 294
427 295
428 296
429 297
430 298
430 299
431 300
432 301
432 302
433 303
433 304
434 305
434 306
434 307
435 308
435 309
435 310
436 311
436 312
436 313
436 314
436 315
436 316
437 317
437 318
437 319
437 320
436 321
436 322
436 323
437 324
438 325
439 326
440 327
441 328
442 329
443 330
444 331
445 331
446 332
447 333
448 334
449 335
450 336
451 336
452 337
453 338
454 339
455 340
456 341
456 342
457 343
458 343
459 344
460 345
461 346
462 347
463 348
464 348
465 349
466 350
467 351
468 352
469 352
470 353
471 354
472 354
473 355
474 356
475 356
476 357
477 358
478 358
479 359
480 359
481 360
482 360
483 361
484 361
485 362
486 362
487 363
488 363
489 363
490 364
491 364
492 364
493 365
494 365
495 365
496 366
497 366
498 367
499 367
500 367
501 368
502 368
503 368
504 368
505 369
506 369
507 369
508 370
509 370
510 370
511 371
512 371
513 371
514 372
515 372
516 372
517 372
518 373
519 373
520 373
521 373
522 373
523 374
524 374
525 374
526 374
527 374
528 374
529 374
530 374
531 374
532 374
533 373
534 373
535 373
536 373
537 373
538 372
539 372
540 372
541 371
542 371
543 370
544 369
545 368
546 367
547 366
547 365
547 364
547 363
548 362
549 361
550 360
551 359
552 358
552 357
552 356
552 355
553 354
553 353
553 352
553 351
553 350
553 349
552 348
552 347
552 346
552 345
551 344
551 343
551 342
551 341
550 340
550 339
550 338
549 337
549 336
548 335
548 334
547 333
547 332
546 331
545 330
545 329
544 328
544 327
543 326
542 325
542 324
541 323
540 322
540 321
539 320
538 319
537 318
536 317
535 316
534 315
533 314
532 313
531 312
530 311
529 310
528 309
527 308
526 307
525 307
524 306
523 305
522 304
521 303
520 302
519 301
518 301
517 300
516 299
515 298
514 297
513 297
512 296
511 295
510 294
509 294
508 293
507 292
506 291
505 291
504 290
503 289
502 289
501 288
500 288
499 287
498 286
497 286
496 285
495 285
494 284
493 284
492 283
491 282
490 282
489 281
488 281
487 280
486 279
485 279
484 278
483 278
482 277
481 277
480 276
479 276
478 275
477 275
476 275
475 274
474 274
473 274
472 273
471 273
470 273
469 272
468 272
467 272
466 271
465 271
464 271
463 270
462 270
461 270
460 270
459 270
458 270
457 269
456 269
455 269
454 269
453 269
452 269
451 269
450 269
449 269
448 269
447 269
446 269
445 269
444 269
443 269
442 269
441 269
440 269
439 269
438 269
437 269
436 270
435 270
434 270
433 270
432 270
431 270
430 270
429 270
428 270
427 270
426 270
425 270
424 269
423 268
422 267
421 266
421 265
422 264
423 263
424 263
425 262
426 262
427 262
428 261
429 261
430 261
431 260
432 260
433 260
434 259
435 259
436 259
437 258
438 258
439 258
440 257
441 257
442 257
443 256
444 256
445 256
446 255
447 255
448 255
449 254
450 254
451 254
452 253
453 253
454 253
455 252
456 252
457 252
458 251
459 251
460 251
461 250
462 250
463 250
464 249
465 249
466 249
467 248
468 248
469 248
470 247
471 247
472 247
473 246
474 246
475 246
476 245
477 245
478 245
479 244
480 244
481 244
482 243
483 243
484 243
485 242
486 242
487 242
488 241
489 241
490 241
491 240
492 240
493 240
494 240
495 239
496 239
497 239
498 238
499 238
500 239
501 240
502 241
503 242
504 242
505 243
505 244
506 245
506 246
506 247
506 248
506 249
506 250
506 251
506 252
507 253
507 254
507 255
507 256
507 257
507 258
507 259
507 260
507 261
508 262
508 263
508 264
509 265
509 266
509 267
509 268
510 269
510 270
511 271
511 272
512 273
512 274
513 275
514 276
514 277
515 278
516 279
516 280
517 281
518 282
519 283
520 284
521 285
522 286
523 287
523 288
524 289
525 289
526 290
527 291
528 292
529 293
530 293
531 294
532 295
533 295
534 296
535 297
536 297
537 298
538 298
539 299
540 299
541 300
542 300
543 301
544 301
545 302
546 303
547 303
548 303
549 304
550 304
551 305
552 305
553 306
554 306
555 306
556 306
557 306
558 306
559 306
560 306
561 307
562 307
563 308
564 308
565 309
566 309
567 309
568 310
569 310
570 311
571 311
572 312
573 312
574 312
575 313
576 313
577 313
578 314
579 314
580 315
581 315
582 316
583 316
584 316
585 317
586 317
587 318
588 318
589 319
590 319
591 320
592 320
593 321
594 321
595 321
596 321
597 322
598 322
599 322
600 322
601 323
602 323
603 323
604 323
605 323
606 323
607 323
608 323
609 324
610 324
611 324
612 324
613 324
614 324
615 324
616 324
617 324
618 324
619 324
620 324
621 324
622 324
623 323
624 323
625 323
626 323
627 323
628 323
629 323
630 322
631 322
632 322
633 321
634 321
635 321
636 320
637 320
638 319
639 319
640 318
641 317
641 316
642 315
643 314
643 313
644 312
645 311
646 311
647 312
648 312
649 312
650 313
651 313
652 313
653 314
654 314
655 315
656 315
657 315
658 316
659 316
660 316
661 317
662 317
663 318
664 318
665 318
666 319
667 319
668 319
669 319
670 320
671 320
672 320
673 321
674 321
675 321
676 321
677 321
678 321
679 321
680 321
681 321
682 321
683 321
684 321
685 321
686 320
687 320
688 320
689 320
690 320
691 320
692 319
693 319
694 319
695 318
696 318
697 317
698 317
699 316
700 315
701 314
702 313
702 312
703 311
703 310
703 309
704 308
705 307
706 306
706 305
707 304
707 303
707 302
708 301
708 300
708 299
708 298
708 297
707 296
707 295
707 294
707 293
707 292
706 291
706 290
706 289
705 288
705 287
705 286
705 285
704 284
704 283
704 282
703 281
703 280
702 279
702 278
701 277
701 276
701 275
700 274
700 273
699 272
698 271
698 270
697 269
697 268
696 267
695 266
694 265
693 264
693 263
692 262
692 261
693 260
694 261
695 262
696 263
697 264
698 265
699 266
700 267
701 268
702 268
703 269
704 270
705 271
706 272
707 273
708 273
709 274
710 274
711 275
712 276
713 276
714 277
715 277
716 277
717 278
718 278
719 279
720 279
721 279
722 280
723 280
724 280
725 280
726 280
727 280
728 280
729 280
730 280
731 280
732 280
733 280
734 280
735 279
736 279
737 278
738 277
739 276
740 275
741 275
742 274
743 273
744 272
745 271
746 270
746 269
746 268
747 267
747 266
748 265
749 264
749 263
749 262
749 261
750 260
750 259
750 258
750 257
750 256
750 255
750 254
750 253
750 252
750 251
750 250
750 249
750 248
750 247
750 246
749 245
749 244
749 243
749 242
749 241
748 240
748 239
748 238
748 237
747 236
747 235
747 234
747 233
746 232
746 231
745 230
745 229
744 228
744 227
744 226
743 225
743 224
742 223
742 222
741 221
741 220
741 219
740 218
740 217
739 216
738 215
738 214
737 213
737 212
736 211
736 210
735 209
735 208
734 207
733 206
733 205
732 204
731 203
731 202
730 201
729 200
728 199
727 198
727 197
726 196
725 195
724 194
723 193
722 192
721 192
720 191
720 190
719 189
718 188
717 187
716 187
715 186
714 185
713 185
712 184
711 183
710 183
709 182
708 182
707 181
706 181
705 181
704 180
703 180
702 180
701 179
700 179
699 179
698 178
697 178
696 178
695 178
694 177
693 177
692 177
691 177
690 177
689 177
688 177
687 177
686 177
685 177
684 177
683 177
682 177
681 177
680 176
679 176
678 176
677 175
676 174
675 173
674 173
673 172
673 171
673 170
673 169
674 168
675 167
676 167
677 166
678 165
679 165
680 164
681 164
682 163
683 163
684 162
685 161
686 161
687 160
688 160
689 159
690 159
691 158
692 157
693 157
694 156
695 156
696 155
697 154
698 154
699 153
700 153
701 152
702 152
703 151
704 150
705 150
706 149
707 149
708 148
709 147
710 147
711 146
712 146
713 145
714 144
715 144
716 143
717 143
718 142
719 141
720 141
721 140
722 140
723 139
724 138
725 138
726 137
727 136
728 136
729 135
730 135
731 134
732 133
733 133
734 133
735 133
736 133
737 134
738 135
739 136
739 137
740 138
740 139
740 140
741 141
741 142
742 143
742 144
742 145
743 146
743 147
744 148
745 149
746 150
747 151
748 152
749 153
750 154
751 155
752 155
753 156
754 157
755 157
756 158
757 158
758 159
759 159
760 160
761 160
762 160
763 161
764 161
765 161
766 162
767 162
768 162
769 162
770 163
771 163
772 163
773 163
774 163
775 163
776 163
777 163
778 163
779 163
780 163
781 163
782 163
783 162
784 162
785 162
786 162
787 162
788 161
789 161
790 161
791 161
792 160
793 160
794 160
795 160
796 160
797 159
798 159
799 159
800 159
800 158
800 157
800 156
800 155
800 154
800 153
800 152
800 151
800 150
800 149
800 148
800 147
800 146
800 145
800 144
800 143
800 142
800 141
800 140
800 139
800 138
800 137
800 136
800 135
800 134
800 133
800 132
800 131
800 130
800 129
800 128
800 127
800 126
800 125
800 124
800 123
800 122
800 121
800 120
800 119
800 118
800 117
800 116
800 115
800 114
800 113
800 112
800 111
800 110
800 109
800 108
800 107
800 106
800 105
800 104
799 104
798 104
797 104
796 104
795 104
794 104
793 104
792 105
791 105
790 105
789 105
788 105
787 105
786 105
785 105
784 105
783 105
782 105
781 105
780 106
779 106
778 106
777 106
776 106
775 106
774 105
774 104
775 103
776 102
777 101
778 100
779 100
780 99
781 98
782 97
783 97
784 96
785 95
786 94
787 93
788 93
789 92
790 91
791 91
792 90
793 89
794 88
795 87
796 87
797 86
798 86
799 85
800 85
800 84
800 83
800 82
800 81
800 80
800 79
800 78
800 77
800 76
800 75
800 74
800 73
799 74
798 75
797 76
797 77
796 78
795 79
794 80
793 81
792 82
791 83
790 84
789 85
788 86
787 87
786 87
785 88
784 89
783 90
782 91
781 91
780 92
779 93
778 94
777 95
776 96
775 96
774 97
773 98
772 99
771 100
770 100
769 101
768 102
767 103
766 103
765 104
764 105
763 105
762 106
761 107
760 108
759 109
758 109
757 110
756 111
755 112
754 112
753 113
752 114
751 115
750 115
749 116
748 117
747 118
746 118
745 119
744 120
743 120
742 121
741 122
740 122
739 123
738 124
737 124
736 125
735 125
734 126
733 127
732 128
731 128
730 129
729 129
728 130
727 129
727 128
727 127
727 126
727 125
727 124
728 123
729 122
730 121
731 120
732 119
733 118
734 117
735 116
735 115
736 114
736 113
737 112
738 111
739 110
739 109
739 108
740 107
740 106
740 105
741 104
741 103
742 102
742 101
742 100
743 99
743 98
743 97
744 96
744 95
744 94
744 93
744 92
744 91
744 90
744 89
744 88
744 87
744 86
744 85
744 84
744 83
744 82
744 81
744 80
743 79
743 78
743 77
743 76
742 75
742 74
741 73
741 72
740 71
740 70
740 69
739 68
739 67
738 66
738 65
738 64
737 63
737 62
737 61
736 60
736 59
736 58
735 57
735 56
734 55
734 54
733 53
732 52
732 51
731 50
731 49
730 49
729 48
729 47
728 46
728 45
727 44
726 44
725 43
725 42
724 42
723 41
722 40
721 39
720 39
719 38
718 38
717 38
716 38
715 38
714 38
713 38
712 38
711 38
710 38
709 38
708 38
707 38
706 38
705 38
704 38
703 39
702 39
701 39
700 40
699 40
698 41
697 41
697 42
696 43
695 44
694 45
694 46
693 47
693 48
692 49
692 50
692 51
691 52
691 53
691 54
690 55
690 56
690 57
690 58
689 59
688 59
687 58
687 57
686 56
686 55
685 54
685 53
684 52
684 51
683 50
683 49
682 48
682 47
681 46
681 45
680 44
679 43
679 42
678 41
677 40
676 39
675 38
674 37
673 36
672 35
671 35
670 34
669 34
668 33
667 32
666 32
665 32
664 31
663 31
662 31
661 31
660 31
659 31
