305 80
305 81
304 82
303 83
302 84
301 85
300 85
299 86
298 86
297 87
296 87
295 88
294 88
293 88
292 88
291 89
290 89
289 89
288 89
287 90
286 90
285 90
284 90
283 90
282 90
281 90
280 90
279 90
278 90
277 90
276 90
275 90
274 90
273 90
272 90
271 90
270 90
269 90
268 90
267 91
266 90
265 90
264 90
263 90
262 90
261 90
260 90
259 90
258 91
258 92
257 93
256 94
255 95
254 95
253 95
252 95
251 96
250 96
249 96
248 96
247 96
246 96
245 96
244 96
243 96
242 96
241 96
240 96
239 96
238 96
237 96
237 97
236 98
236 99
235 100
234 100
233 100
232 101
231 101
230 101
229 101
228 102
227 102
226 102
225 102
224 101
223 102
222 101
221 101
220 102
219 102
219 103
218 104
218 105
217 106
216 107
215 107
214 107
213 108
212 108
211 109
210 110
209 110
208 110
207 110
206 111
205 111
204 112
203 112
202 113
201 113
200 113
199 114
198 114
197 115
196 115
195 116
194 116
193 116
192 117
191 117
190 118
189 118
188 118
187 119
186 120
185 120
184 121
183 121
182 121
181 121
180 122
179 122
178 122
177 122
176 122
175 123
176 124
176 125
176 126
175 127
175 128
174 129
174 130
174 131
174 132
173 133
172 134
172 135
171 136
170 137
169 137
169 138
168 139
167 140
166 141
165 142
164 143
163 143
163 144
162 145
161 146
160 147
159 148
159 149
158 150
157 151
156 152
155 153
154 154
153 155
152 156
151 157
151 158
150 159
149 160
148 161
147 162
146 163
146 164
145 165
144 166
143 167
142 168
141 169
140 170
139 171
138 172
137 173
136 173
135 174
134 175
134 176
134 177
133 178
133 179
133 180
133 181
133 182
133 183
132 184
131 185
131 186
130 187
129 188
129 189
130 190
129 191
128 192
128 193
127 194
126 195
125 196
124 197
124 198
123 199
123 200
122 201
121 202
120 203
119 203
119 204
119 205
118 206
117 207
116 207
115 208
114 208
114 209
113 210
113 211
112 212
111 212
110 213
110 214
109 215
108 216
107 216
106 217
105 218
104 219
103 220
102 220
101 220
100 221
99 222
98 223
97 223
96 224
95 224
94 224
93 225
92 225
91 225
90 225
89 225
88 225
87 225
86 225
85 225
84 225
83 225
82 226
81 226
81 227
82 227
83 228
84 229
85 230
86 230
87 231
87 232
88 233
88 234
89 235
90 236
90 237
91 238
92 239
92 240
92 241
92 242
93 243
93 244
93 245
94 246
94 247
94 248
95 249
95 250
95 251
95 252
96 253
96 254
96 255
97 256
97 257
97 258
97 259
98 260
98 261
98 262
98 263
99 264
99 265
99 266
100 267
100 268
100 269
100 270
101 271
101 272
101 273
101 274
102 275
102 276
102 277
101 278
101 279
101 280
101 281
101 282
101 283
102 284
102 285
103 286
103 287
103 288
104 289
104 290
105 291
105 292
105 293
106 294
106 295
107 296
107 297
107 298
107 299
108 300
108 301
109 302
109 303
109 304
109 305
110 306
110 307
110 308
110 309
111 310
111 311
112 312
112 313
112 314
112 315
113 316
113 317
113 318
113 319
114 320
114 321
114 322
115 323
115 324
115 325
115 326
115 327
115 328
115 329
114 330
114 331
114 332
114 333
114 334
115 335
116 336
116 337
117 338
117 339
118 340
118 341
119 342
119 343
120 344
120 345
120 346
120 347
121 348
121 349
121 350
122 351
123 352
122 353
122 354
123 355
123 356
123 357
123 358
123 359
123 360
123 361
124 362
124 363
123 364
123 365
122 366
123 367
123 368
123 369
124 370
124 371
125 372
125 373
126 374
127 375
127 376
128 377
128 378
129 379
130 380
130 381
131 382
132 383
132 384
133 385
134 386
135 387
135 388
136 389
136 390
137 390
138 391
138 392
139 393
140 394
141 395
142 396
143 397
144 398
145 399
145 400
145 401
145 402
146 403
147 404
148 405
149 406
150 406
151 407
152 408
153 408
154 409
155 410
156 411
157 412
158 413
159 414
160 415
161 416
162 416
163 416
164 417
165 418
166 418
167 419
168 419
169 420
170 420
171 421
172 421
173 421
174 422
175 422
176 423
177 424
178 424
179 424
180 425
181 425
182 425
183 426
184 426
185 427
186 427
187 427
188 428
189 428
190 428
191 428
192 428
193 429
194 429
195 429
196 429
197 429
198 429
199 429
200 429
201 429
202 429
203 429
204 429
205 429
206 430
207 430
208 430
209 430
210 430
211 430
212 431
213 432
214 432
215 433
216 433
217 433
218 434
219 434
220 434
221 434
222 434
223 435
224 435
225 435
226 435
227 436
228 436
229 436
230 436
231 437
232 437
233 437
234 438
235 438
236 438
237 439
238 439
239 439
240 440
241 440
242 440
243 441
244 442
245 442
246 443
247 443
248 443
249 443
250 443
251 444
252 444
253 444
254 444
255 444
256 444
257 444
258 444
259 445
260 445
261 445
262 445
263 445
264 445
265 445
266 445
267 445
268 445
269 445
270 445
271 445
272 445
273 445
274 444
275 444
276 444
277 444
278 444
279 444
280 444
281 444
282 444
283 444
284 444
285 444
286 444
287 444
288 444
289 445
290 446
290 447
291 447
292 447
293 447
294 447
295 447
296 446
297 446
298 446
299 445
300 445
301 445
302 445
303 445
304 445
305 445
306 445
307 445
308 445
309 445
310 444
311 445
312 445
313 445
314 445
315 444
316 444
317 444
318 444
319 444
320 444
321 444
322 444
323 444
324 444
325 444
326 444
327 444
328 444
329 444
330 444
331 444
332 444
333 444
334 444
335 444
336 444
337 443
338 443
339 443
340 442
341 442
342 441
343 441
344 441
345 440
346 440
347 439
348 439
349 438
350 438
351 438
352 437
353 437
354 436
355 436
356 436
357 435
358 435
359 435
360 434
361 434
362 434
363 433
364 433
365 433
366 432
367 432
368 432
369 431
370 431
371 431
372 430
373 430
374 430
375 429
376 429
377 428
378 428
379 428
380 427
381 427
382 426
383 426
384 426
385 426
386 425
387 424
388 424
389 424
390 424
391 423
392 423
393 422
394 422
395 422
396 421
397 421
398 421
399 421
400 420
401 420
402 420
403 420
404 419
405 419
406 419
407 419
408 419
409 419
410 418
411 418
412 418
413 418
414 418
415 418
416 418
417 417
418 417
419 417
420 417
421 417
422 416
423 416
424 415
425 414
426 414
427 414
428 413
429 413
430 412
431 412
432 411
433 410
434 410
435 410
436 409
437 409
438 408
439 408
440 407
441 407
442 407
443 406
444 406
445 405
446 405
447 404
448 403
449 402
450 402
451 402
452 401
453 401
454 401
455 400
456 400
457 400
458 399
459 398
460 398
461 397
462 397
463 397
464 396
465 396
466 396
467 396
468 395
469 394
470 394
471 394
472 393
473 393
474 392
475 392
476 392
477 391
478 390
479 390
480 390
481 390
482 389
483 389
484 388
485 388
486 387
487 387
488 386
489 386
490 386
491 385
492 385
493 385
494 384
495 384
496 384
497 383
498 383
499 383
500 383
501 382
502 382
503 382
504 381
505 381
506 381
507 380
508 380
509 380
510 379
511 379
512 379
513 378
514 378
515 378
516 378
517 377
518 377
519 377
520 376
521 376
522 376
523 376
524 375
525 375
526 374
527 374
528 374
529 374
530 374
531 373
532 373
533 373
534 373
535 372
536 372
537 372
538 372
539 371
540 371
541 370
542 370
543 370
544 370
545 369
546 369
547 369
548 369
549 368
550 368
551 368
552 368
553 367
554 367
555 367
556 367
557 367
558 366
559 366
560 366
561 366
562 365
563 365
564 365
565 365
566 365
567 365
568 364
569 364
570 364
571 364
572 364
573 364
574 363
575 363
576 363
577 363
578 362
579 362
580 362
581 362
582 362
583 361
584 361
585 361
586 361
587 360
588 360
589 360
590 359
591 359
592 359
593 358
594 358
595 358
596 357
597 357
598 356
599 356
600 356
601 355
602 355
603 354
604 354
605 354
606 353
607 353
608 353
609 353
610 352
611 352
612 352
613 352
614 352
615 351
616 351
617 351
618 351
619 351
620 351
621 351
622 351
623 351
624 351
625 351
626 351
627 350
628 350
629 350
630 350
631 350
632 350
633 350
634 350
635 350
636 350
637 350
638 350
639 350
640 349
641 350
642 350
643 350
644 350
645 350
646 349
647 350
648 349
649 350
650 349
651 349
652 349
653 349
654 349
655 349
656 349
657 349
658 349
659 349
660 349
661 349
662 349
663 349
664 349
665 349
666 349
667 349
668 349
669 349
670 349
671 348
672 348
673 348
674 348
675 348
676 348
677 348
678 348
679 348
680 348
681 348
682 348
683 348
684 347
685 347
686 347
687 347
688 347
689 347
690 347
691 347
692 347
693 347
694 347
695 347
696 347
697 346
698 346
699 346
700 346
701 346
702 346
703 346
704 346
705 345
706 345
707 345
708 345
709 345
710 345
711 344
712 344
713 344
714 344
715 343
716 342
717 342
718 341
719 340
720 339
721 338
721 337
722 336
722 335
722 334
723 333
723 332
723 331
723 330
723 329
723 328
723 327
724 326
724 325
724 324
723 323
723 322
722 321
721 321
720 321
719 321
718 321
717 321
716 321
715 321
714 321
713 322
712 322
711 322
710 322
709 323
708 323
707 323
706 323
705 324
704 324
703 324
702 324
701 324
700 324
699 324
698 325
697 325
696 325
695 325
694 325
693 325
692 326
691 326
690 326
689 326
688 326
687 326
686 326
685 326
684 327
683 327
682 327
681 327
680 327
679 327
678 327
677 327
676 327
675 328
674 328
673 328
672 328
671 328
670 328
669 328
668 328
667 328
666 328
665 328
664 328
663 328
662 328
661 328
660 329
659 328
658 328
657 328
656 328
655 328
654 328
653 328
652 329
651 329
650 328
649 328
648 328
647 328
646 328
645 328
644 328
643 328
642 328
641 328
640 328
639 327
638 326
637 326
636 327
635 327
634 327
633 327
632 327
631 327
630 327
629 326
628 326
627 327
626 327
625 326
624 326
623 326
622 326
621 326
620 325
619 325
618 325
617 325
616 324
615 324
614 323
613 322
612 322
611 321
610 321
609 320
609 319
608 318
607 317
606 316
605 316
604 315
603 314
602 313
602 312
601 311
600 310
599 309
598 308
597 307
597 306
596 305
595 304
595 303
594 302
593 301
593 300
592 299
592 298
591 297
590 296
589 295
588 294
588 293
587 292
586 291
586 290
585 289
584 288
584 287
583 286
582 285
582 284
582 283
581 282
580 281
579 280
579 279
578 278
577 277
577 276
577 275
576 274
575 273
574 272
573 271
573 270
572 269
571 268
571 267
570 266
570 265
569 265
568 264
568 263
567 262
566 261
565 260
564 259
564 258
563 257
563 256
562 255
561 254
561 253
560 252
559 251
559 250
558 249
557 248
556 247
556 246
555 245
554 244
554 243
553 242
552 241
551 240
551 239
550 238
549 237
548 236
548 235
547 234
546 233
545 232
545 231
544 230
544 229
543 228
542 227
541 226
540 225
539 224
539 223
538 222
537 221
536 220
535 219
534 218
533 217
532 216
532 215
531 214
530 213
529 212
529 211
528 210
527 209
526 208
525 207
524 207
523 206
523 205
522 204
521 204
520 203
519 202
518 201
517 200
516 199
515 198
514 197
513 197
512 196
512 195
511 195
510 194
509 193
508 193
507 192
507 191
506 191
505 190
504 190
503 189
502 188
501 187
500 186
499 186
498 185
497 185
496 184
495 183
494 183
493 182
492 181
491 181
490 180
489 179
488 178
487 178
486 177
485 177
484 176
483 176
482 175
481 175
480 174
479 174
478 173
477 173
476 172
475 172
474 171
473 170
472 170
471 169
470 168
469 168
468 167
467 166
466 166
465 165
464 165
463 164
462 163
461 163
460 162
459 162
458 161
457 161
456 160
455 159
454 158
453 158
452 158
451 157
450 156
449 155
448 155
447 154
447 153
446 152
445 151
444 150
443 149
443 148
442 147
441 146
440 145
439 144
438 143
438 142
437 141
436 140
435 139
434 138
434 137
433 136
432 135
431 134
430 133
429 132
428 131
427 130
426 129
425 128
425 127
424 126
423 125
422 124
421 123
421 122
420 121
419 120
418 120
417 119
416 120
415 119
414 119
413 119
412 118
411 118
410 118
409 117
408 116
407 116
406 115
405 115
404 114
403 114
402 113
401 113
400 112
399 111
398 111
397 110
396 110
395 109
394 109
393 108
392 107
391 106
390 106
389 105
388 104
387 104
386 103
385 102
384 102
383 101
382 100
381 99
380 98
379 98
378 97
377 96
376 95
375 95
374 94
373 93
372 92
371 92
370 91
369 91
368 90
367 89
366 89
365 88
364 88
363 88
362 89
361 89
360 90
359 89
358 89
357 89
356 89
355 89
354 89
353 88
352 88
351 88
350 88
349 88
348 88
347 88
346 88
345 87
344 87
343 87
342 87
341 86
340 86
339 86
338 86
337 86
336 86
335 86
334 85
333 85
332 85
331 85
330 85
329 85
328 84
327 84
326 84
325 84
324 83
323 83
322 83
321 83
320 82
319 82
318 82
317 82
316 82
315 81
314 81
313 81
312 81
311 81
310 80
309 80
308 80
307 80
306 80
305 80
