56 214
56 215
56 216
56 217
57 217
58 218
59 218
60 219
61 219
62 220
63 220
64 220
65 221
66 221
67 222
68 222
69 223
70 223
71 224
72 225
73 225
74 225
75 226
76 226
77 227
78 227
79 228
80 228
81 229
82 229
83 230
84 230
85 230
86 231
87 231
88 232
89 232
90 233
91 234
92 235
93 235
94 235
95 236
96 236
97 236
98 237
99 237
100 238
101 238
102 238
103 239
104 239
105 239
106 239
107 240
108 240
109 240
110 241
111 241
112 241
113 241
114 241
115 241
116 241
117 242
118 242
119 243
120 243
121 243
122 244
123 244
124 244
125 244
126 245
127 245
128 246
129 246
130 246
131 246
132 247
133 247
134 248
135 248
136 249
137 249
138 250
139 250
140 250
141 250
142 250
143 250
144 250
145 250
146 251
147 251
148 251
149 251
150 251
151 251
152 251
153 251
154 251
155 251
156 251
157 251
158 251
159 251
160 250
161 250
162 250
163 250
164 250
165 250
166 250
167 251
168 252
169 253
168 254
168 255
167 256
167 257
166 258
165 259
164 260
164 261
163 262
163 263
162 264
161 265
160 266
159 267
159 268
158 269
158 270
157 271
156 272
156 273
155 274
155 275
154 276
153 277
152 278
152 279
151 280
151 281
150 282
150 283
149 284
149 285
148 286
147 287
146 288
146 289
145 290
145 291
144 292
143 293
142 294
142 295
142 296
141 297
141 298
140 299
140 300
139 301
138 302
138 303
138 304
138 305
137 306
137 307
136 308
136 309
135 310
135 311
134 312
134 313
133 314
133 315
132 316
132 317
131 318
131 319
130 320
130 321
129 322
129 323
128 324
127 325
126 326
125 326
124 327
123 327
123 328
123 329
123 330
124 330
125 330
126 330
127 330
128 330
129 330
130 330
131 330
132 330
133 329
134 328
135 328
136 327
137 327
138 326
139 326
140 325
141 325
142 324
143 324
144 323
145 323
146 322
147 322
148 321
149 321
150 320
151 320
152 319
153 319
154 318
155 318
156 317
157 317
158 317
159 316
160 315
161 314
162 314
163 313
164 313
165 312
166 311
166 310
167 309
168 308
169 307
170 307
171 306
172 305
173 304
174 303
175 302
176 301
177 300
178 299
179 298
179 297
180 296
181 295
182 294
182 293
183 292
183 291
184 290
185 289
186 288
186 287
187 286
187 285
188 284
188 283
189 282
190 281
191 280
192 279
193 278
194 277
195 276
196 275
196 274
197 273
197 272
198 271
199 270
200 269
201 268
201 267
202 266
203 265
204 264
205 263
205 262
206 261
206 260
207 259
207 258
207 257
207 256
207 255
208 254
208 253
208 252
208 251
208 250
208 249
209 248
209 247
210 246
210 245
211 244
212 244
213 243
214 243
215 243
216 243
217 243
218 243
219 243
220 243
221 243
222 243
223 244
224 244
225 244
226 244
227 244
228 245
229 245
230 246
231 247
232 248
231 249
231 250
230 251
229 252
228 253
227 254
226 255
226 256
225 257
224 257
223 258
222 259
221 260
221 261
220 262
219 263
218 264
218 265
217 266
217 267
216 268
216 269
215 270
215 271
214 272
214 273
214 274
213 275
213 276
212 277
212 278
212 279
211 280
211 281
210 282
210 283
209 284
209 285
209 286
208 287
208 288
207 289
207 290
206 291
206 292
206 293
205 294
205 295
204 296
204 297
203 298
202 299
202 300
201 301
201 302
200 303
200 304
200 305
199 306
199 307
198 308
198 309
197 310
197 311
196 312
196 313
196 314
195 315
195 316
195 317
195 318
194 319
194 320
193 321
193 322
193 323
193 324
193 325
193 326
192 327
192 328
192 329
192 330
191 331
191 332
191 333
191 334
191 335
191 336
191 337
191 338
190 339
190 340
189 341
189 342
189 343
189 344
188 345
188 346
187 347
187 348
186 349
186 350
185 351
184 352
184 353
184 354
184 355
184 356
184 357
184 358
185 358
186 358
187 358
188 358
189 357
190 357
191 356
192 355
193 354
194 354
195 353
196 352
197 352
198 351
199 350
200 349
201 349
202 348
203 348
204 347
205 346
206 345
207 344
208 343
209 342
210 341
211 340
212 340
213 339
214 338
214 337
215 336
215 335
216 334
217 333
218 332
219 331
219 330
220 329
221 328
222 327
222 326
223 325
223 324
224 323
225 322
225 321
226 320
227 319
228 318
229 317
229 316
230 315
231 314
231 313
232 312
232 311
232 310
233 309
233 308
234 307
234 306
234 305
235 304
235 303
236 302
236 301
237 300
238 299
238 298
239 297
239 296
240 295
241 294
241 293
242 292
242 291
243 290
244 289
245 288
246 287
246 286
247 285
247 284
248 283
249 282
249 281
250 280
251 279
251 278
252 277
252 276
253 275
253 274
254 273
255 272
255 271
255 270
256 269
256 268
257 267
257 266
257 265
257 264
258 263
258 262
258 261
258 260
258 259
258 258
258 257
258 256
258 255
259 254
259 253
260 252
260 251
261 250
262 250
263 249
264 249
265 249
266 249
267 249
268 249
269 249
270 249
271 249
272 249
273 250
274 250
275 250
276 250
277 250
278 250
279 250
280 250
281 251
282 251
283 252
284 253
285 254
284 255
283 256
282 257
281 258
280 259
280 260
279 261
278 262
278 263
277 264
277 265
276 266
276 267
275 268
275 269
275 270
274 271
274 272
273 273
273 274
273 275
273 276
272 277
272 278
272 279
272 280
272 281
271 282
271 283
271 284
271 285
270 286
270 287
269 288
269 289
269 290
269 291
269 292
268 293
268 294
268 295
267 296
267 297
266 298
266 299
266 300
266 301
266 302
266 303
266 304
266 305
266 306
266 307
265 308
265 309
264 310
264 311
264 312
264 313
264 314
264 315
264 316
264 317
264 318
264 319
263 320
263 321
263 322
263 323
263 324
262 325
262 326
262 327
262 328
261 329
261 330
261 331
261 332
260 333
260 334
259 335
259 336
259 337
259 338
259 339
259 340
259 341
259 342
259 343
259 344
259 345
259 346
259 347
259 348
259 349
259 350
259 351
259 352
259 353
259 354
259 355
259 356
259 357
259 358
259 359
259 360
259 361
259 362
259 363
260 364
260 365
260 366
260 367
260 368
260 369
259 370
259 371
259 372
259 373
258 374
258 375
257 376
257 377
256 378
256 379
255 380
255 381
254 382
254 383
253 384
253 385
253 386
253 387
254 387
255 387
256 387
257 387
258 387
259 386
260 385
261 384
262 383
263 382
263 381
264 380
265 379
266 378
266 377
267 376
268 375
269 374
270 373
271 372
271 371
272 370
273 369
274 368
274 367
275 366
276 365
277 364
277 363
278 362
278 361
279 360
279 359
280 358
280 357
281 356
282 355
283 354
283 353
284 352
284 351
285 350
285 349
286 348
286 347
287 346
287 345
287 344
288 343
288 342
289 341
289 340
290 339
290 338
290 337
290 336
291 335
291 334
292 333
292 332
293 331
293 330
293 329
293 328
294 327
294 326
295 325
295 324
296 323
296 322
296 321
296 320
297 319
297 318
298 317
298 316
298 315
298 314
298 313
299 312
299 311
300 310
300 309
300 308
300 307
301 306
301 305
301 304
301 303
301 302
302 301
302 300
302 299
303 298
303 297
304 296
304 295
304 294
304 293
304 292
304 291
304 290
305 289
305 288
306 287
306 286
306 285
307 284
307 283
308 282
308 281
308 280
309 279
309 278
309 277
309 276
309 275
309 274
309 273
310 272
310 271
310 270
310 269
310 268
310 267
310 266
310 265
310 264
310 263
310 262
310 261
310 260
311 259
311 258
312 257
313 256
314 255
315 255
316 254
317 254
318 254
319 254
320 254
321 254
322 254
323 254
324 255
325 255
326 255
327 255
328 255
329 255
330 255
331 255
332 256
333 256
334 257
335 258
336 259
335 260
335 261
334 262
333 263
333 264
332 265
332 266
331 267
331 268
330 269
330 270
329 271
329 272
329 273
329 274
328 275
328 276
327 277
327 278
327 279
327 280
327 281
327 282
327 283
326 284
326 285
326 286
326 287
326 288
325 289
325 290
324 291
324 292
324 293
324 294
323 295
323 296
322 297
322 298
322 299
322 300
322 301
322 302
321 303
321 304
321 305
321 306
321 307
321 308
321 309
321 310
321 311
321 312
321 313
321 314
321 315
321 316
321 317
321 318
321 319
321 320
321 321
321 322
321 323
321 324
321 325
321 326
321 327
321 328
321 329
321 330
320 331
320 332
320 333
320 334
320 335
320 336
320 337
320 338
320 339
320 340
320 341
320 342
320 343
320 344
320 345
320 346
320 347
320 348
320 349
320 350
320 351
320 352
320 353
320 354
320 355
320 356
320 357
320 358
320 359
320 360
321 361
321 362
322 363
322 364
322 365
322 366
322 367
323 368
323 369
323 370
323 371
323 372
323 373
323 374
323 375
324 376
324 377
325 378
325 379
325 380
325 381
326 382
326 383
326 384
326 385
325 386
325 387
324 388
324 389
324 390
324 391
324 392
324 393
324 394
324 395
325 395
326 395
327 395
328 394
329 393
329 392
330 391
330 390
331 389
331 388
332 387
332 386
333 385
333 384
334 383
334 382
335 381
335 380
336 379
336 378
337 377
337 376
338 375
338 374
339 373
339 372
339 371
340 370
340 369
340 368
340 367
340 366
341 365
341 364
342 363
342 362
343 361
344 360
344 359
345 358
345 357
346 356
346 355
346 354
346 353
346 352
346 351
346 350
347 349
347 348
348 347
348 346
348 345
348 344
348 343
348 342
349 341
349 340
349 339
349 338
349 337
349 336
350 335
350 334
350 333
350 332
350 331
350 330
350 329
351 328
351 327
352 326
352 325
352 324
352 323
352 322
353 321
353 320
353 319
353 318
353 317
353 316
353 315
353 314
354 313
354 312
355 311
355 310
355 309
355 308
355 307
356 306
356 305
356 304
356 303
356 302
357 301
357 300
358 299
358 298
359 297
359 296
359 295
360 294
360 293
360 292
360 291
360 290
360 289
360 288
360 287
360 286
360 285
361 284
361 283
361 282
361 281
361 280
361 279
361 278
361 277
361 276
361 275
361 274
361 273
361 272
361 271
361 270
361 269
361 268
361 267
361 266
361 265
361 264
361 263
362 262
362 261
363 260
364 260
365 259
366 259
367 258
368 258
369 258
370 258
371 258
372 258
373 258
374 259
375 259
376 259
377 259
378 260
379 260
380 261
381 261
382 262
382 263
383 264
382 265
382 266
381 267
381 268
380 269
379 270
379 271
378 272
378 273
377 274
377 275
376 276
376 277
376 278
376 279
375 280
375 281
374 282
374 283
374 284
374 285
374 286
373 287
373 288
373 289
373 290
372 291
372 292
371 293
371 294
371 295
371 296
371 297
371 298
371 299
370 300
370 301
369 302
369 303
369 304
369 305
369 306
368 307
368 308
367 309
367 310
367 311
367 312
367 313
367 314
367 315
366 316
366 317
366 318
366 319
366 320
365 321
365 322
365 323
365 324
364 325
364 326
364 327
364 328
364 329
364 330
364 331
364 332
364 333
364 334
364 335
364 336
364 337
364 338
364 339
364 340
363 341
363 342
363 343
363 344
363 345
362 346
362 347
362 348
362 349
362 350
362 351
361 352
361 353
361 354
361 355
361 356
361 357
361 358
361 359
361 360
361 361
361 362
361 363
361 364
361 365
361 366
361 367
361 368
361 369
361 370
361 371
361 372
361 373
361 374
361 375
361 376
361 377
361 378
361 379
361 380
361 381
361 382
361 383
361 384
360 385
360 386
360 387
359 388
359 389
358 390
358 391
357 392
357 393
357 394
357 395
357 396
357 397
357 398
358 398
359 398
360 398
361 397
362 396
363 395
364 394
365 393
365 392
366 391
366 390
367 389
368 388
368 387
369 386
369 385
370 384
371 383
372 382
372 381
373 380
373 379
374 378
374 377
375 376
376 375
376 374
377 373
377 372
378 371
379 370
380 369
380 368
381 367
381 366
382 365
383 364
383 363
384 362
384 361
385 360
385 359
386 358
386 357
387 356
388 355
388 354
389 353
389 352
390 351
390 350
391 349
392 348
392 347
393 346
393 345
393 344
393 343
394 342
394 341
395 340
395 339
395 338
396 337
396 336
397 335
397 334
397 333
398 332
398 331
398 330
399 329
399 328
400 327
400 326
400 325
400 324
400 323
401 322
401 321
402 320
402 319
402 318
402 317
402 316
403 315
403 314
403 313
403 312
404 311
404 310
404 309
404 308
404 307
404 306
405 305
405 304
406 303
406 302
407 301
408 300
408 299
408 298
408 297
408 296
408 295
409 294
409 293
410 292
410 291
411 290
411 289
411 288
411 287
411 286
411 285
411 284
411 283
411 282
411 281
411 280
411 279
411 278
411 277
411 276
411 275
411 274
411 273
411 272
411 271
411 270
411 269
411 268
411 267
412 266
412 265
413 264
413 263
414 262
415 262
416 261
417 261
418 260
419 260
420 260
421 260
422 260
423 260
424 260
425 260
426 261
427 261
428 261
429 261
430 261
431 261
432 261
433 261
434 261
435 261
436 261
437 261
438 262
439 262
440 263
441 264
442 265
442 266
442 267
441 268
441 269
440 270
440 271
439 272
439 273
438 274
438 275
437 276
437 277
437 278
437 279
437 280
437 281
437 282
437 283
437 284
437 285
437 286
437 287
437 288
437 289
438 290
438 291
438 292
438 293
438 294
438 295
438 296
439 297
439 298
439 299
439 300
439 301
439 302
439 303
439 304
439 305
439 306
439 307
440 308
440 309
440 310
440 311
440 312
440 313
440 314
440 315
440 316
440 317
441 318
441 319
441 320
441 321
441 322
441 323
441 324
441 325
442 326
442 327
442 328
442 329
442 330
442 331
443 332
443 333
444 334
444 335
445 336
445 337
445 338
445 339
445 340
445 341
446 342
446 343
446 344
446 345
446 346
447 347
447 348
447 349
447 350
447 351
447 352
447 353
447 354
447 355
447 356
447 357
448 358
448 359
449 360
449 361
449 362
449 363
450 364
450 365
451 366
451 367
452 368
452 369
453 370
453 371
454 372
454 373
455 374
455 375
455 376
455 377
455 378
456 379
456 380
456 381
457 382
457 383
458 384
458 385
459 386
459 387
460 388
460 389
460 390
461 391
461 392
462 393
462 394
462 395
463 396
463 397
464 398
464 399
464 400
464 401
464 402
464 403
464 404
464 405
465 405
466 405
466 404
466 403
467 402
467 401
467 400
467 399
467 398
467 397
467 396
467 395
468 394
468 393
469 392
469 391
469 390
469 389
469 388
470 387
470 386
470 385
470 384
471 383
471 382
471 381
471 380
471 379
471 378
472 377
472 376
472 375
472 374
472 373
472 372
472 371
472 370
472 369
472 368
472 367
472 366
472 365
472 364
473 363
473 362
473 361
473 360
473 359
473 358
473 357
473 356
473 355
473 354
473 353
473 352
473 351
473 350
473 349
473 348
473 347
473 346
473 345
473 344
473 343
473 342
473 341
473 340
473 339
473 338
473 337
473 336
473 335
473 334
473 333
474 332
474 331
474 330
474 329
474 328
474 327
474 326
474 325
474 324
474 323
474 322
474 321
474 320
474 319
474 318
474 317
474 316
474 315
474 314
474 313
473 312
473 311
473 310
473 309
473 308
473 307
473 306
473 305
473 304
473 303
472 302
472 301
472 300
472 299
472 298
472 297
471 296
471 295
471 294
471 293
471 292
471 291
471 290
471 289
471 288
471 287
471 286
471 285
471 284
471 283
471 282
471 281
471 280
470 279
470 278
470 277
470 276
470 275
470 274
470 273
470 272
470 271
470 270
469 269
469 268
469 267
469 266
469 265
470 264
471 263
472 262
473 262
474 261
475 261
476 261
477 261
478 261
479 261
480 261
481 261
482 261
483 261
484 261
485 261
486 261
487 261
488 261
489 261
490 262
491 262
492 263
493 264
494 265
494 266
494 267
494 268
494 269
494 270
494 271
493 272
493 273
492 274
492 275
492 276
492 277
491 278
491 279
491 280
491 281
491 282
491 283
491 284
491 285
491 286
491 287
491 288
491 289
491 290
491 291
491 292
491 293
491 294
492 295
492 296
492 297
492 298
492 299
492 300
492 301
492 302
492 303
492 304
492 305
493 306
493 307
493 308
493 309
493 310
493 311
493 312
494 313
494 314
494 315
494 316
494 317
495 318
495 319
495 320
495 321
495 322
495 323
495 324
496 325
496 326
497 327
497 328
497 329
497 330
497 331
497 332
498 333
498 334
499 335
499 336
499 337
499 338
499 339
499 340
499 341
500 342
500 343
501 344
501 345
501 346
502 347
502 348
503 349
503 350
503 351
503 352
504 353
504 354
505 355
505 356
505 357
506 358
507 359
507 360
508 361
508 362
509 363
509 364
510 365
510 366
510 367
511 368
511 369
511 370
512 371
512 372
513 373
513 374
514 375
514 376
515 377
515 378
516 379
516 380
517 381
517 382
517 383
518 384
518 385
518 386
519 387
519 388
520 388
520 387
520 386
520 385
520 384
520 383
520 382
520 381
520 380
520 379
520 378
520 377
521 376
521 375
521 374
521 373
522 372
522 371
522 370
522 369
523 368
523 367
523 366
523 365
524 364
524 363
524 362
524 361
525 360
525 359
525 358
525 357
525 356
525 355
525 354
525 353
525 352
525 351
525 350
526 349
526 348
526 347
526 346
526 345
526 344
526 343
526 342
526 341
526 340
526 339
526 338
526 337
525 336
525 335
525 334
525 333
525 332
525 331
525 330
525 329
525 328
525 327
525 326
525 325
525 324
525 323
525 322
525 321
525 320
525 319
525 318
525 317
525 316
525 315
525 314
525 313
525 312
525 311
525 310
524 309
524 308
524 307
524 306
524 305
524 304
524 303
524 302
524 301
524 300
523 299
523 298
523 297
523 296
523 295
523 294
523 293
523 292
523 291
523 290
523 289
523 288
523 287
523 286
522 285
522 284
523 283
523 282
523 281
523 280
523 279
523 278
523 277
523 276
523 275
523 274
523 273
523 272
523 271
523 270
522 269
522 268
522 267
523 266
523 265
524 264
525 263
526 262
527 262
528 261
529 261
530 261
531 261
532 261
533 261
534 260
535 260
536 260
537 260
538 260
539 260
540 260
541 260
542 260
543 260
544 260
545 260
546 260
547 261
548 261
549 262
550 262
551 263
551 264
552 265
552 266
552 267
552 268
551 269
551 270
551 271
551 272
551 273
551 274
551 275
551 276
551 277
551 278
551 279
551 280
551 281
552 282
552 283
553 284
553 285
553 286
553 287
553 288
553 289
553 290
554 291
554 292
555 293
555 294
555 295
556 296
556 297
557 298
557 299
557 300
557 301
558 302
558 303
559 304
559 305
559 306
560 307
560 308
560 309
560 310
561 311
561 312
562 313
562 314
562 315
563 316
563 317
563 318
564 319
564 320
565 321
565 322
565 323
566 324
566 325
567 326
567 327
568 328
568 329
568 330
568 331
569 332
569 333
569 334
570 335
570 336
571 337
571 338
571 339
571 340
572 341
572 342
573 343
573 344
573 345
574 346
574 347
575 348
575 349
576 350
576 351
577 352
578 353
578 354
579 355
579 356
580 357
581 358
581 359
582 360
583 361
583 362
584 363
584 364
585 365
585 366
586 367
586 368
586 369
587 370
587 371
588 371
589 371
589 370
589 369
589 368
589 367
589 366
589 365
589 364
589 363
589 362
589 361
589 360
589 359
589 358
589 357
589 356
589 355
589 354
589 353
589 352
589 351
589 350
590 349
590 348
591 347
591 346
592 345
592 344
593 343
593 342
593 341
593 340
593 339
593 338
593 337
593 336
593 335
593 334
593 333
593 332
593 331
593 330
593 329
593 328
593 327
593 326
593 325
593 324
592 323
592 322
592 321
592 320
592 319
592 318
592 317
592 316
592 315
592 314
592 313
592 312
592 311
592 310
592 309
592 308
592 307
592 306
592 305
592 304
592 303
592 302
591 301
591 300
590 299
590 298
590 297
590 296
590 295
590 294
589 293
589 292
589 291
589 290
589 289
589 288
589 287
589 286
589 285
589 284
589 283
589 282
588 281
588 280
587 279
587 278
586 277
586 276
586 275
585 274
585 273
584 272
584 271
583 270
583 269
582 268
582 267
582 266
582 265
581 264
581 263
582 262
583 261
584 260
585 260
586 259
587 259
588 258
589 258
590 258
591 258
592 258
593 258
594 258
595 258
596 258
597 258
598 258
599 258
600 257
601 257
602 257
603 257
604 257
605 257
606 257
607 257
608 257
609 257
610 257
611 256
612 256
613 256
614 256
615 256
616 256
617 256
618 256
619 256
620 256
621 256
622 256
623 255
624 255
625 255
626 255
627 255
628 255
629 255
630 255
631 255
632 255
633 255
634 255
635 254
636 254
637 254
638 254
639 254
640 254
641 254
642 254
643 254
644 254
645 254
646 254
647 253
648 253
649 253
650 253
651 253
652 253
653 253
654 253
655 253
656 253
657 253
658 253
659 253
660 252
661 252
662 252
663 252
664 252
665 252
666 252
667 252
668 252
669 252
670 252
671 252
672 252
673 251
674 251
675 251
676 251
677 251
678 251
679 251
680 251
681 251
682 251
683 251
684 251
685 250
686 250
687 250
688 250
689 250
690 250
691 250
692 250
693 250
694 250
695 250
696 250
697 250
698 250
699 249
700 249
701 249
702 249
703 249
704 249
705 249
706 249
707 249
708 249
709 249
710 249
711 249
712 249
713 249
714 249
715 249
716 249
717 249
718 248
719 248
720 248
721 248
722 248
723 248
724 248
725 248
726 248
727 248
728 248
729 248
730 248
731 248
732 248
732 247
732 246
732 245
732 244
732 243
732 242
732 241
732 240
731 240
730 240
729 240
728 240
727 240
726 240
725 240
724 240
723 240
722 240
721 240
720 240
719 240
718 240
717 240
716 240
715 241
714 241
713 241
712 242
711 242
710 242
709 242
708 242
707 243
706 243
705 243
704 243
703 243
702 243
701 243
700 244
699 244
698 244
697 244
696 244
695 244
694 244
693 244
692 244
691 245
690 245
689 245
688 245
687 245
686 245
685 245
684 245
683 245
682 245
681 245
680 245
679 246
678 246
677 246
676 246
675 246
674 246
673 246
672 246
671 247
670 247
669 247
668 247
667 247
666 247
665 247
664 247
663 247
662 247
661 248
660 248
659 248
658 248
657 248
656 248
655 248
654 248
653 248
652 248
651 249
650 249
649 249
648 249
647 249
646 249
645 249
644 249
643 249
642 249
641 250
640 250
639 250
638 250
637 250
636 250
635 250
634 250
633 250
632 250
631 250
630 251
629 251
628 251
627 251
626 251
625 251
624 251
623 251
622 251
621 251
620 252
619 252
618 252
617 252
616 252
615 252
614 252
613 252
612 252
611 252
610 252
609 252
608 253
607 253
606 253
605 253
604 253
603 253
602 253
601 253
600 253
599 253
598 253
597 254
596 254
595 254
594 254
593 254
592 254
591 254
590 254
589 254
588 254
587 254
586 254
585 253
584 252
583 251
583 250
582 249
582 248
582 247
583 246
583 245
583 244
583 243
583 242
583 241
584 240
584 239
584 238
584 237
584 236
584 235
584 234
584 233
584 232
584 231
584 230
585 229
585 228
585 227
585 226
585 225
585 224
585 223
585 222
585 221
585 220
586 219
586 218
586 217
586 216
586 215
586 214
586 213
586 212
586 211
586 210
586 209
586 208
586 207
585 206
585 205
585 204
585 203
585 202
585 201
585 200
585 199
586 198
586 197
586 196
586 195
586 194
586 193
586 192
586 191
586 190
586 189
586 188
586 187
586 186
585 185
585 184
585 183
585 182
585 181
585 180
585 179
585 178
585 177
585 176
585 175
585 174
585 173
584 172
584 171
584 170
584 169
584 168
584 167
584 166
584 165
584 164
584 163
584 162
584 161
583 160
583 159
583 158
584 157
584 156
584 155
584 154
584 153
585 152
585 151
585 150
585 149
586 148
586 147
586 146
586 145
586 144
586 143
586 142
586 141
586 140
585 140
584 140
583 140
583 141
582 142
582 143
581 144
581 145
580 146
580 147
579 148
579 149
578 150
578 151
577 152
577 153
576 154
575 155
574 156
573 157
572 158
572 159
571 160
571 161
570 162
570 163
569 164
568 165
567 166
567 167
566 168
566 169
566 170
566 171
565 172
565 173
564 174
564 175
564 176
563 177
563 178
562 179
562 180
561 181
561 182
561 183
560 184
560 185
560 186
560 187
559 188
559 189
558 190
558 191
558 192
558 193
557 194
557 195
557 196
557 197
557 198
557 199
556 200
556 201
555 202
555 203
555 204
555 205
555 206
555 207
555 208
555 209
555 210
555 211
555 212
555 213
555 214
555 215
555 216
555 217
554 218
554 219
553 220
553 221
553 222
553 223
553 224
552 225
552 226
552 227
552 228
552 229
552 230
552 231
552 232
552 233
552 234
552 235
552 236
552 237
553 238
553 239
553 240
553 241
553 242
553 243
553 244
553 245
553 246
553 247
553 248
553 249
553 250
553 251
554 252
554 253
553 254
552 255
551 256
550 256
549 257
548 257
547 257
546 257
545 257
544 257
543 257
542 257
541 257
540 257
539 257
538 257
537 257
536 257
535 257
534 257
533 257
532 258
531 258
530 258
529 258
528 258
527 258
526 257
525 257
524 256
523 256
522 255
522 254
521 253
521 252
521 251
522 250
522 249
522 248
522 247
522 246
522 245
522 244
522 243
522 242
522 241
522 240
522 239
522 238
522 237
522 236
522 235
522 234
522 233
522 232
522 231
522 230
522 229
522 228
521 227
521 226
520 225
520 224
520 223
520 222
520 221
520 220
520 219
520 218
520 217
520 216
520 215
520 214
520 213
520 212
520 211
520 210
520 209
520 208
520 207
520 206
520 205
520 204
520 203
520 202
519 201
519 200
519 199
519 198
519 197
519 196
519 195
519 194
519 193
519 192
519 191
519 190
519 189
519 188
519 187
519 186
518 185
518 184
518 183
518 182
518 181
518 180
518 179
518 178
518 177
517 176
517 175
517 174
517 173
517 172
517 171
517 170
516 169
516 168
516 167
516 166
516 165
516 164
516 163
516 162
516 161
516 160
515 159
515 158
515 157
515 156
515 155
515 154
515 153
515 152
514 151
514 150
514 149
514 148
514 147
513 146
513 145
513 144
513 143
513 142
513 141
513 140
513 139
513 138
512 137
512 136
512 135
512 134
512 133
512 132
512 131
512 130
512 129
512 128
512 127
511 127
510 127
510 128
510 129
510 130
510 131
509 132
509 133
509 134
509 135
508 136
508 137
508 138
508 139
508 140
507 141
507 142
507 143
506 144
506 145
505 146
505 147
504 148
504 149
503 150
503 151
502 152
502 153
501 154
501 155
500 156
500 157
499 158
499 159
499 160
498 161
498 162
498 163
497 164
497 165
496 166
496 167
495 168
495 169
495 170
495 171
494 172
494 173
494 174
494 175
494 176
494 177
493 178
493 179
493 180
493 181
492 182
492 183
492 184
492 185
492 186
492 187
491 188
491 189
490 190
490 191
490 192
490 193
490 194
489 195
489 196
488 197
488 198
488 199
488 200
488 201
488 202
488 203
488 204
488 205
488 206
488 207
488 208
487 209
487 210
487 211
487 212
487 213
487 214
487 215
487 216
487 217
487 218
487 219
487 220
487 221
487 222
487 223
487 224
487 225
487 226
487 227
487 228
487 229
487 230
487 231
488 232
488 233
489 234
489 235
489 236
489 237
489 238
489 239
490 240
490 241
490 242
490 243
490 244
490 245
491 246
491 247
491 248
492 249
492 250
492 251
492 252
493 253
493 254
492 255
491 256
490 257
489 257
488 258
487 258
486 258
485 258
484 258
483 258
482 258
481 258
480 258
479 258
478 258
477 258
476 258
475 258
474 258
473 258
472 258
471 257
470 257
469 256
468 255
467 254
467 253
467 252
467 251
467 250
467 249
468 248
468 247
468 246
468 245
468 244
468 243
468 242
468 241
468 240
468 239
468 238
468 237
467 236
467 235
466 234
466 233
466 232
466 231
466 230
466 229
466 228
466 227
466 226
466 225
466 224
466 223
466 222
466 221
466 220
466 219
466 218
466 217
466 216
466 215
466 214
466 213
466 212
466 211
466 210
466 209
466 208
465 207
465 206
465 205
465 204
465 203
465 202
465 201
465 200
465 199
464 198
464 197
464 196
464 195
464 194
464 193
464 192
464 191
464 190
463 189
463 188
463 187
463 186
463 185
463 184
463 183
463 182
463 181
463 180
463 179
463 178
463 177
463 176
463 175
463 174
463 173
463 172
463 171
463 170
463 169
463 168
463 167
462 166
462 165
462 164
462 163
462 162
462 161
462 160
462 159
461 158
461 157
461 156
461 155
460 154
460 153
460 152
460 151
460 150
460 149
459 148
459 147
459 146
459 145
459 144
458 143
458 142
458 141
457 140
457 139
457 138
457 137
456 136
456 135
456 134
456 133
455 132
455 131
455 130
454 129
454 128
454 127
453 126
453 125
453 124
453 123
453 122
453 121
453 120
453 119
453 118
453 117
452 116
452 115
451 115
451 116
451 117
450 118
450 119
450 120
450 121
450 122
450 123
449 124
449 125
448 126
448 127
448 128
447 129
447 130
447 131
446 132
446 133
446 134
445 135
445 136
444 137
444 138
444 139
444 140
443 141
443 142
443 143
443 144
442 145
442 146
441 147
441 148
441 149
441 150
440 151
440 152
439 153
439 154
439 155
439 156
439 157
438 158
438 159
438 160
438 161
438 162
438 163
438 164
438 165
438 166
437 167
437 168
437 169
437 170
437 171
437 172
437 173
437 174
437 175
436 176
436 177
436 178
436 179
436 180
436 181
435 182
435 183
435 184
435 185
435 186
435 187
434 188
434 189
434 190
434 191
434 192
434 193
433 194
433 195
433 196
433 197
433 198
433 199
433 200
433 201
433 202
433 203
433 204
433 205
433 206
433 207
433 208
433 209
433 210
433 211
433 212
433 213
433 214
432 215
432 216
431 217
431 218
431 219
431 220
431 221
431 222
431 223
431 224
431 225
431 226
431 227
431 228
431 229
431 230
431 231
431 232
431 233
431 234
432 235
432 236
433 237
434 238
435 239
436 240
437 241
438 242
439 242
440 243
441 244
442 245
443 246
444 246
445 247
446 248
447 249
447 250
448 251
448 252
447 253
446 254
445 255
444 255
443 256
442 256
441 256
440 256
439 257
438 257
437 258
436 258
435 258
434 259
433 259
432 259
431 259
430 259
429 259
428 259
427 258
426 258
425 258
424 258
423 258
422 258
421 258
420 258
419 257
418 257
417 256
416 255
415 254
415 253
414 252
414 251
414 250
415 249
415 248
415 247
415 246
415 245
415 244
415 243
415 242
415 241
415 240
415 239
415 238
415 237
415 236
415 235
415 234
414 233
414 232
414 231
414 230
414 229
414 228
414 227
414 226
414 225
414 224
414 223
414 222
414 221
414 220
413 219
413 218
412 217
412 216
412 215
412 214
412 213
412 212
412 211
411 210
411 209
410 208
410 207
410 206
410 205
410 204
410 203
410 202
410 201
409 200
409 199
409 198
409 197
409 196
409 195
408 194
408 193
408 192
408 191
407 190
407 189
406 188
406 187
406 186
406 185
405 184
405 183
405 182
405 181
405 180
405 179
405 178
405 177
405 176
405 175
405 174
404 173
404 172
404 171
404 170
404 169
403 168
403 167
402 166
402 165
402 164
402 163
402 162
402 161
402 160
402 159
402 158
402 157
401 156
401 155
400 154
400 153
400 152
400 151
400 150
399 149
399 148
399 147
399 146
398 145
398 144
398 143
398 142
397 141
397 140
397 139
397 138
396 137
396 136
395 135
395 134
395 133
394 132
394 131
393 130
393 129
393 128
393 127
392 126
392 125
391 124
391 123
390 122
390 121
389 120
389 119
389 118
388 117
388 116
388 115
387 114
386 114
385 114
385 115
385 116
385 117
385 118
385 119
385 120
385 121
386 122
386 123
386 124
386 125
386 126
386 127
386 128
385 129
385 130
384 131
384 132
384 133
384 134
384 135
384 136
383 137
383 138
383 139
382 140
382 141
382 142
382 143
382 144
382 145
381 146
381 147
381 148
381 149
381 150
381 151
381 152
381 153
380 154
380 155
380 156
380 157
380 158
380 159
380 160
380 161
380 162
380 163
380 164
380 165
380 166
380 167
380 168
380 169
380 170
380 171
380 172
380 173
380 174
380 175
380 176
380 177
380 178
380 179
381 180
381 181
381 182
381 183
381 184
381 185
381 186
381 187
381 188
381 189
381 190
381 191
381 192
381 193
381 194
381 195
381 196
381 197
381 198
381 199
381 200
381 201
381 202
381 203
381 204
381 205
381 206
381 207
381 208
381 209
380 210
380 211
379 212
379 213
378 214
378 215
378 216
378 217
378 218
378 219
378 220
378 221
378 222
378 223
378 224
379 225
379 226
379 227
379 228
379 229
379 230
379 231
379 232
380 233
380 234
381 235
381 236
381 237
381 238
381 239
381 240
381 241
382 242
382 243
383 244
383 245
383 246
384 247
384 248
384 249
385 250
385 251
386 252
386 253
385 254
384 255
383 256
382 256
381 257
380 257
379 257
378 256
377 256
376 256
375 256
374 256
373 256
372 256
371 256
370 256
369 255
368 255
367 254
366 253
365 252
365 251
364 250
364 249
365 248
365 247
365 246
365 245
365 244
365 243
365 242
365 241
365 240
365 239
365 238
365 237
365 236
365 235
365 234
365 233
365 232
365 231
365 230
365 229
365 228
365 227
365 226
365 225
365 224
364 223
364 222
364 221
364 220
363 219
363 218
362 217
362 216
362 215
362 214
362 213
361 212
361 211
360 210
360 209
360 208
359 207
359 206
359 205
359 204
358 203
358 202
358 201
358 200
357 199
357 198
357 197
357 196
356 195
356 194
356 193
356 192
356 191
356 190
355 189
355 188
355 187
355 186
355 185
355 184
355 183
355 182
354 181
354 180
354 179
354 178
354 177
354 176
354 175
354 174
354 173
354 172
354 171
354 170
353 169
353 168
353 167
353 166
353 165
353 164
353 163
353 162
353 161
353 160
353 159
353 158
353 157
353 156
353 155
353 154
353 153
353 152
353 151
353 150
353 149
353 148
353 147
353 146
353 145
352 144
352 143
352 142
352 141
351 140
351 139
350 138
350 137
350 136
350 135
349 134
349 133
348 132
348 131
347 130
347 129
347 128
347 127
346 126
346 125
345 124
345 123
345 122
344 121
344 120
344 119
343 118
343 117
343 116
342 115
342 114
342 113
342 112
342 111
342 110
342 109
341 109
340 109
340 110
340 111
340 112
340 113
339 114
339 115
339 116
339 117
338 118
338 119
338 120
338 121
337 122
337 123
336 124
336 125
336 126
336 127
336 128
336 129
336 130
336 131
335 132
335 133
335 134
335 135
335 136
335 137
334 138
334 139
334 140
334 141
333 142
333 143
333 144
333 145
333 146
333 147
333 148
333 149
332 150
332 151
332 152
332 153
332 154
332 155
331 156
331 157
331 158
331 159
331 160
331 161
331 162
331 163
331 164
331 165
331 166
331 167
331 168
331 169
331 170
331 171
331 172
331 173
331 174
331 175
331 176
331 177
330 178
330 179
330 180
330 181
330 182
330 183
330 184
330 185
330 186
330 187
330 188
330 189
330 190
330 191
330 192
330 193
330 194
330 195
329 196
329 197
329 198
329 199
329 200
329 201
329 202
328 203
328 204
328 205
328 206
328 207
328 208
328 209
328 210
328 211
328 212
328 213
328 214
328 215
328 216
328 217
328 218
329 219
329 220
329 221
329 222
329 223
329 224
329 225
329 226
329 227
329 228
329 229
329 230
330 231
330 232
331 233
331 234
331 235
331 236
332 237
332 238
332 239
332 240
332 241
332 242
333 243
333 244
334 245
334 246
335 247
335 248
336 249
335 250
334 251
333 252
332 252
331 253
330 253
329 253
328 252
327 252
326 252
325 252
324 252
323 252
322 252
321 252
320 252
319 251
318 251
317 250
316 250
315 249
314 248
314 247
313 246
313 245
313 244
313 243
313 242
313 241
313 240
313 239
313 238
313 237
313 236
313 235
313 234
313 233
312 232
312 231
312 230
312 229
312 228
312 227
312 226
311 225
311 224
311 223
311 222
311 221
311 220
310 219
310 218
310 217
310 216
310 215
310 214
309 213
309 212
308 211
308 210
308 209
308 208
308 207
308 206
307 205
307 204
307 203
307 202
307 201
306 200
306 199
305 198
305 197
305 196
305 195
305 194
305 193
305 192
305 191
305 190
304 189
304 188
304 187
304 186
304 185
304 184
304 183
303 182
303 181
302 180
302 179
302 178
302 177
302 176
302 175
302 174
301 173
301 172
301 171
301 170
300 169
300 168
299 167
299 166
299 165
299 164
298 163
298 162
297 161
297 160
296 159
296 158
296 157
296 156
296 155
296 154
296 153
296 152
296 151
296 150
295 149
295 148
294 147
293 146
293 145
292 144
292 143
291 142
291 141
291 140
291 139
290 138
290 137
289 136
289 135
289 134
288 133
288 132
287 131
287 130
286 129
286 128
285 127
285 126
284 125
284 124
283 123
283 122
283 121
283 120
282 119
282 118
281 117
281 116
281 115
281 114
280 113
280 112
280 111
280 110
279 109
279 108
278 108
278 109
278 110
278 111
278 112
277 113
277 114
277 115
277 116
277 117
276 118
276 119
276 120
276 121
276 122
275 123
275 124
275 125
275 126
275 127
274 128
274 129
274 130
274 131
273 132
273 133
272 134
272 135
272 136
272 137
272 138
272 139
272 140
272 141
272 142
271 143
271 144
271 145
271 146
270 147
270 148
270 149
270 150
270 151
270 152
270 153
270 154
270 155
270 156
270 157
270 158
270 159
270 160
270 161
270 162
270 163
270 164
270 165
270 166
270 167
270 168
270 169
270 170
270 171
270 172
270 173
270 174
270 175
270 176
270 177
270 178
270 179
270 180
270 181
270 182
271 183
271 184
272 185
272 186
272 187
272 188
272 189
272 190
272 191
272 192
272 193
272 194
272 195
273 196
273 197
273 198
273 199
273 200
273 201
273 202
274 203
274 204
274 205
274 206
274 207
274 208
274 209
274 210
275 211
275 212
275 213
275 214
275 215
275 216
275 217
275 218
276 219
276 220
277 221
277 222
277 223
277 224
277 225
278 226
278 227
279 228
279 229
279 230
279 231
279 232
279 233
280 234
280 235
280 236
280 237
281 238
281 239
281 240
282 241
283 242
283 243
284 244
283 245
282 246
281 247
280 247
279 248
278 248
277 248
276 248
275 248
274 248
273 247
272 247
271 247
270 247
269 247
268 247
267 247
266 247
265 246
264 246
263 245
262 244
261 243
261 242
260 241
260 240
260 239
260 238
260 237
260 236
260 235
260 234
260 233
260 232
260 231
260 230
261 229
261 228
261 227
261 226
261 225
261 224
261 223
261 222
261 221
261 220
261 219
261 218
261 217
260 216
260 215
260 214
260 213
259 212
259 211
259 210
259 209
259 208
259 207
259 206
258 205
258 204
258 203
258 202
258 201
258 200
257 199
257 198
256 197
256 196
256 195
256 194
256 193
256 192
255 191
255 190
255 189
255 188
255 187
254 186
254 185
254 184
254 183
254 182
254 181
253 180
253 179
253 178
253 177
253 176
252 175
252 174
252 173
252 172
251 171
251 170
251 169
251 168
251 167
251 166
251 165
251 164
251 163
251 162
251 161
251 160
251 159
250 158
250 157
249 156
249 155
249 154
249 153
249 152
249 151
248 150
248 149
248 148
247 147
247 146
246 145
246 144
245 143
245 142
245 141
245 140
244 139
244 138
244 137
243 136
243 135
243 134
242 133
242 132
242 131
241 130
241 129
241 128
240 127
240 126
239 125
239 124
239 123
239 122
238 121
238 120
238 119
237 118
237 117
237 116
237 115
237 114
237 113
237 112
237 111
237 110
236 110
235 111
235 112
235 113
235 114
235 115
235 116
234 117
234 118
234 119
234 120
233 121
233 122
233 123
232 124
232 125
232 126
232 127
231 128
231 129
231 130
231 131
231 132
231 133
231 134
231 135
231 136
230 137
230 138
230 139
230 140
230 141
230 142
230 143
230 144
230 145
230 146
230 147
230 148
230 149
229 150
229 151
229 152
229 153
229 154
229 155
229 156
229 157
229 158
229 159
229 160
229 161
229 162
229 163
229 164
229 165
229 166
229 167
229 168
229 169
229 170
229 171
229 172
229 173
229 174
229 175
229 176
229 177
229 178
229 179
229 180
229 181
229 182
229 183
229 184
229 185
229 186
229 187
229 188
229 189
229 190
229 191
229 192
229 193
229 194
229 195
229 196
229 197
229 198
230 199
230 200
229 201
229 202
229 203
229 204
229 205
229 206
229 207
229 208
229 209
229 210
229 211
229 212
229 213
230 214
230 215
230 216
230 217
230 218
230 219
230 220
231 221
231 222
231 223
231 224
231 225
231 226
232 227
232 228
232 229
232 230
232 231
232 232
233 233
233 234
234 235
234 236
234 237
234 238
234 239
233 240
232 241
231 242
230 242
229 242
228 242
227 242
226 242
225 242
224 242
223 241
222 241
221 241
220 241
219 241
218 241
217 241
216 240
215 240
214 239
213 239
212 238
212 237
211 236
211 235
210 234
210 233
210 232
210 231
210 230
210 229
210 228
210 227
210 226
210 225
210 224
210 223
210 222
210 221
209 220
209 219
209 218
209 217
208 216
208 215
208 214
208 213
207 212
207 211
207 210
206 209
206 208
205 207
205 206
204 205
204 204
204 203
204 202
203 201
203 200
203 199
202 198
202 197
201 196
201 195
201 194
201 193
201 192
200 191
200 190
199 189
199 188
199 187
199 186
199 185
199 184
198 183
198 182
197 181
197 180
197 179
197 178
197 177
196 176
196 175
196 174
195 173
195 172
194 171
194 170
193 169
193 168
193 167
192 166
192 165
192 164
192 163
192 162
191 161
191 160
190 159
190 158
190 157
190 156
190 155
190 154
189 153
189 152
188 151
188 150
187 149
186 148
186 147
185 146
185 145
184 144
183 143
183 142
182 141
182 140
181 139
181 138
180 137
180 136
179 135
178 134
178 133
177 132
177 131
176 130
176 129
175 128
175 127
174 126
174 125
173 124
173 123
173 122
172 121
172 120
171 120
170 120
170 121
170 122
170 123
170 124
170 125
170 126
170 127
169 128
169 129
169 130
169 131
169 132
168 133
168 134
168 135
168 136
168 137
167 138
167 139
167 140
167 141
167 142
166 143
166 144
166 145
166 146
166 147
166 148
166 149
166 150
166 151
166 152
166 153
166 154
166 155
166 156
166 157
166 158
166 159
166 160
166 161
166 162
166 163
167 164
167 165
167 166
167 167
167 168
167 169
167 170
167 171
167 172
168 173
168 174
168 175
169 176
169 177
169 178
169 179
169 180
169 181
169 182
169 183
169 184
169 185
170 186
170 187
171 188
171 189
171 190
171 191
171 192
172 193
172 194
173 195
173 196
173 197
173 198
173 199
173 200
174 201
174 202
174 203
174 204
174 205
174 206
174 207
175 208
175 209
176 210
176 211
176 212
176 213
176 214
176 215
177 216
177 217
176 218
176 219
176 220
175 221
174 220
173 220
172 219
171 219
170 218
169 217
168 216
167 216
166 215
165 215
164 214
163 214
162 214
161 213
160 213
159 213
158 213
157 213
156 212
155 212
154 212
153 212
152 212
151 212
150 212
149 212
148 211
147 211
146 211
145 211
144 211
143 211
142 211
141 211
140 211
139 210
138 210
137 210
136 210
135 210
134 210
133 209
132 209
131 209
130 209
129 209
128 209
127 209
126 209
125 209
124 209
123 209
122 209
121 209
120 209
119 209
118 208
117 208
116 208
115 208
114 208
113 208
112 208
111 208
110 208
109 208
108 208
107 208
106 208
105 208
104 208
103 208
102 208
101 208
100 208
99 209
98 209
97 209
96 209
95 209
94 209
93 209
92 209
91 210
90 210
89 210
88 210
87 210
86 210
85 210
84 210
83 210
82 210
81 210
80 210
79 211
78 211
77 211
76 211
75 212
74 212
73 212
72 213
71 213
70 213
69 213
68 214
67 214
66 214
65 215
64 214
63 214
62 214
61 214
60 214
59 214
58 214
57 214
56 214
