404 70
403 71
402 71
401 71
400 71
399 71
398 71
397 71
396 71
395 71
394 71
393 71
392 71
391 71
390 71
389 71
388 72
387 72
386 72
385 72
384 72
383 72
382 72
381 72
380 72
379 72
378 72
377 72
376 72
375 72
374 73
373 73
372 73
371 73
370 73
369 73
368 73
367 73
366 73
365 73
364 74
363 74
362 74
361 74
360 74
359 74
358 74
357 74
356 74
355 74
354 74
353 74
352 74
351 73
350 74
349 73
348 73
347 73
346 73
345 73
344 73
343 74
342 74
341 73
340 73
339 73
338 73
337 73
336 74
335 74
334 74
333 74
332 74
331 74
330 74
329 74
328 74
327 74
326 74
325 74
324 74
323 74
322 74
321 74
320 74
319 74
318 74
317 74
316 75
315 75
314 75
313 75
312 75
311 75
310 75
309 75
308 75
307 75
306 75
305 75
304 75
303 75
302 75
301 76
300 76
299 76
298 76
297 76
296 76
295 76
294 76
293 76
292 76
291 76
290 76
289 76
288 76
287 76
286 76
285 76
284 76
283 77
282 77
281 77
280 77
279 77
278 77
277 77
276 77
275 77
274 77
273 77
272 77
271 78
270 78
269 78
268 78
267 78
266 78
265 78
264 78
263 78
262 78
261 78
260 78
259 79
258 79
257 79
256 79
255 79
254 79
253 79
252 79
251 79
250 80
249 80
248 80
247 80
246 80
245 80
244 80
243 80
242 81
241 81
240 81
239 81
238 82
237 82
236 82
235 82
234 82
233 82
232 82
231 82
230 82
229 82
228 82
227 82
226 82
225 82
224 83
223 83
222 83
221 83
220 83
219 84
218 84
217 84
216 84
215 84
214 85
213 85
212 85
211 85
210 85
209 85
208 85
207 85
206 86
205 86
204 86
203 86
202 86
201 86
200 86
199 86
198 86
197 86
196 87
195 87
194 87
193 87
192 87
191 87
190 87
189 87
188 88
187 88
186 88
185 88
184 88
183 88
182 88
181 89
180 89
179 89
178 89
177 89
176 89
175 89
174 90
173 90
172 90
171 90
170 90
169 90
168 91
167 91
166 91
165 91
164 91
163 91
162 91
161 91
160 92
159 92
158 92
157 92
156 92
155 92
154 92
153 93
152 93
151 93
150 93
149 93
148 94
147 94
146 94
145 94
144 94
143 94
142 95
141 95
140 95
139 95
138 95
137 96
136 96
135 96
134 96
133 96
132 97
131 97
130 97
129 97
128 98
127 98
126 98
125 99
124 99
123 99
122 99
121 99
120 100
119 100
118 100
117 100
116 100
115 101
114 101
113 101
112 101
111 102
110 102
109 102
108 103
107 103
106 103
105 104
104 104
103 104
102 105
101 105
100 105
99 105
98 106
97 106
96 107
95 107
94 107
93 108
92 108
91 108
90 109
89 109
88 109
87 110
86 110
85 110
84 111
83 111
82 112
81 112
80 113
79 113
78 113
77 113
76 114
75 114
74 114
73 115
72 115
71 115
70 116
69 116
68 117
67 117
66 117
65 118
64 118
63 119
62 119
61 119
60 120
59 120
58 121
57 121
56 121
55 122
54 122
53 123
52 123
51 123
50 124
49 124
48 125
47 125
46 126
45 126
44 127
43 128
42 128
41 129
40 129
39 129
38 130
37 130
36 131
35 132
34 133
33 134
32 135
31 136
30 137
31 136
32 136
33 137
34 137
35 137
36 138
37 138
38 138
39 138
40 139
41 139
42 139
43 139
44 140
45 140
46 140
47 141
48 141
49 141
50 142
51 142
52 142
53 142
54 142
55 143
56 143
57 143
58 144
59 144
60 144
61 144
62 145
63 145
64 145
65 146
66 146
67 146
68 146
69 146
70 147
71 147
72 147
73 147
74 148
75 148
76 148
77 148
78 149
79 149
80 149
81 149
82 150
83 150
84 150
85 150
86 151
87 151
88 151
89 151
90 151
91 152
92 152
93 152
94 152
95 153
96 153
97 153
98 154
99 154
100 154
101 154
102 154
103 154
104 155
105 155
106 155
107 156
108 156
109 156
110 157
111 157
112 157
113 157
114 158
115 158
116 158
117 158
118 159
119 159
120 159
121 160
122 160
123 160
124 160
125 160
126 161
127 161
128 161
129 161
130 161
131 162
132 162
133 162
134 162
135 162
136 162
137 163
138 163
139 163
140 164
141 164
142 164
143 164
144 164
145 164
146 164
147 164
148 165
149 165
150 165
151 165
152 165
153 166
154 166
155 166
156 166
157 167
158 167
159 167
160 167
161 167
162 167
163 167
164 167
165 167
166 167
167 167
168 168
169 168
170 168
171 168
172 168
173 168
174 168
175 169
176 169
177 169
178 169
179 169
180 170
181 170
182 170
183 170
184 170
185 171
186 171
187 171
188 171
189 171
190 171
191 171
192 171
193 172
194 172
195 172
196 172
197 172
198 173
199 173
200 173
201 173
202 173
203 173
204 174
205 174
206 174
207 174
208 174
209 174
210 174
211 174
212 174
213 175
214 175
215 175
216 175
217 175
218 175
219 175
220 175
221 175
222 175
223 176
224 176
225 176
226 176
227 176
228 176
229 176
230 176
231 176
232 176
233 176
234 176
235 176
236 176
237 177
238 177
239 177
240 177
241 177
242 177
243 177
244 177
245 177
246 177
247 177
248 177
249 177
250 177
251 177
252 178
253 178
254 178
255 178
256 178
257 178
258 178
259 178
260 178
261 178
262 178
263 178
264 178
265 179
266 179
267 179
268 179
269 179
270 179
271 179
272 179
273 179
274 179
275 179
276 179
277 179
278 179
279 179
280 179
281 179
282 179
283 179
284 179
285 179
286 180
287 180
288 180
289 180
290 180
291 180
292 180
293 180
294 180
295 180
296 180
297 180
298 180
299 180
300 180
301 180
302 180
303 180
304 180
305 181
306 181
307 181
308 181
309 181
310 181
311 181
312 181
313 181
314 181
315 181
316 181
317 181
318 181
319 181
320 181
321 181
322 182
323 182
324 182
325 182
326 182
327 182
328 182
329 182
330 182
331 182
332 182
333 182
334 182
335 182
336 182
337 182
338 182
339 182
340 182
341 182
342 182
343 182
344 182
345 182
346 182
347 182
348 182
349 182
350 182
351 182
352 182
353 182
354 182
355 182
356 182
357 182
358 182
359 182
360 182
361 182
362 182
363 182
364 181
365 181
366 181
367 181
368 181
369 182
370 182
371 181
372 181
373 182
374 182
375 182
376 182
377 182
378 181
379 181
380 182
381 182
382 182
383 182
384 182
385 182
386 182
387 182
388 182
389 182
390 182
391 182
392 182
393 181
394 181
395 181
396 181
397 181
398 181
399 181
400 181
401 181
402 181
403 180
404 180
405 180
406 180
407 180
408 180
409 180
410 180
411 180
412 180
413 180
414 180
415 180
416 180
417 180
418 179
419 179
420 179
421 179
422 179
423 179
424 179
425 179
426 179
427 179
428 179
429 179
430 178
431 178
432 178
433 178
434 178
435 178
436 178
437 178
438 177
439 177
440 177
441 177
442 177
443 177
444 177
445 177
446 177
447 177
448 177
449 177
450 177
451 177
452 176
453 176
454 176
455 176
456 176
457 176
458 176
459 175
460 175
461 175
462 175
463 175
464 175
465 175
466 175
467 175
468 175
469 174
470 174
471 174
472 174
473 174
474 174
475 174
476 173
477 173
478 173
479 173
480 173
481 173
482 173
483 173
484 173
485 172
486 172
487 172
488 172
489 172
490 172
491 172
492 172
493 172
494 172
495 171
496 171
497 171
498 171
499 171
500 171
501 171
502 171
503 170
504 170
505 170
506 170
507 169
508 169
509 169
510 169
511 169
512 168
513 168
514 168
515 168
516 168
517 167
518 167
519 167
520 167
521 167
522 167
523 167
524 167
525 166
526 166
527 166
528 166
529 166
530 165
531 165
532 165
533 165
534 165
535 165
536 164
537 164
538 164
539 164
540 164
541 164
542 163
543 163
544 163
545 163
546 163
547 163
548 162
549 162
550 162
551 162
552 161
553 161
554 161
555 161
556 161
557 160
558 160
559 160
560 160
561 160
562 159
563 159
564 159
565 159
566 159
567 159
568 158
569 158
570 158
571 158
572 158
573 157
574 157
575 157
576 157
577 156
578 156
579 156
580 156
581 155
582 155
583 155
584 155
585 155
586 155
587 155
588 155
589 154
590 154
591 154
592 154
593 153
594 153
595 153
596 153
597 153
598 153
599 152
600 152
601 152
602 152
603 152
604 152
605 151
606 151
607 151
608 151
609 151
610 151
611 150
612 150
613 150
614 150
615 150
616 150
617 149
618 149
619 149
620 149
621 149
622 149
623 148
624 148
625 148
626 148
627 147
628 147
629 147
630 147
631 147
632 146
633 146
634 146
635 146
636 145
637 145
638 145
639 145
640 144
641 144
642 144
643 143
644 143
645 143
646 143
647 143
648 142
649 142
650 142
651 141
652 141
653 141
654 141
655 140
656 140
657 140
658 139
659 139
660 139
661 139
662 138
663 138
664 138
665 137
666 137
667 137
668 136
669 136
670 136
671 135
672 135
673 134
674 134
675 134
676 134
677 133
678 133
679 132
680 132
681 132
682 131
683 131
684 131
685 130
686 130
687 130
688 129
689 129
690 129
691 128
692 128
693 128
694 127
695 127
696 127
697 126
698 126
699 126
700 126
701 125
702 125
703 125
704 125
705 125
706 125
707 125
708 125
709 124
710 124
711 124
712 124
713 124
714 124
715 124
716 124
717 124
718 124
719 124
720 124
721 124
722 124
723 124
724 124
725 124
726 124
727 124
728 124
729 124
730 124
731 124
732 124
733 124
734 124
735 124
736 124
737 124
738 123
739 123
740 123
741 123
742 123
743 123
744 122
745 123
746 122
747 122
748 122
749 123
748 124
747 125
746 125
747 126
748 127
749 127
750 128
751 128
752 128
753 129
754 129
755 129
756 130
757 130
757 129
758 128
758 127
758 126
759 125
759 124
759 123
759 122
759 121
758 120
758 119
758 118
759 117
759 116
760 115
760 114
761 113
762 112
761 111
760 110
759 110
758 110
757 109
756 109
755 109
754 109
753 109
752 109
751 109
750 109
749 109
748 109
747 110
746 110
745 110
744 110
743 110
742 110
741 110
740 111
739 111
738 111
737 111
736 111
735 111
734 111
733 111
732 112
731 112
730 112
729 112
728 112
727 112
726 112
725 112
724 112
723 112
722 112
721 112
720 112
719 112
718 112
717 112
716 112
715 112
714 112
713 112
712 112
711 112
710 112
709 111
708 111
707 111
706 111
705 110
704 110
703 110
702 109
701 109
700 109
699 108
698 108
697 107
696 106
695 106
694 106
693 105
692 105
691 105
690 104
689 104
688 104
687 103
686 103
685 103
684 102
683 102
682 101
681 101
680 101
679 100
678 100
677 99
676 99
675 99
674 99
673 98
672 98
671 97
670 97
669 97
668 97
667 96
666 96
665 96
664 95
663 95
662 95
661 95
660 94
659 94
658 94
657 94
656 93
655 93
654 93
653 93
652 93
651 92
650 92
649 92
648 92
647 92
646 91
645 91
644 91
643 91
642 90
641 90
640 90
639 90
638 90
637 89
636 89
635 89
634 89
633 89
632 89
631 88
630 88
629 88
628 88
627 87
626 87
625 87
624 87
623 87
622 86
621 86
620 86
619 86
618 86
617 85
616 85
615 85
614 85
613 85
612 85
611 85
610 84
609 84
608 84
607 84
606 84
605 84
604 84
603 83
602 83
601 83
600 83
599 83
598 83
597 83
596 82
595 82
594 82
593 82
592 82
591 82
590 82
589 82
588 82
587 82
586 81
585 81
584 81
583 81
582 81
581 81
580 81
579 81
578 81
577 81
576 80
575 80
574 80
573 80
572 80
571 80
570 80
569 80
568 80
567 80
566 80
565 80
564 80
563 79
562 79
561 79
560 79
559 79
558 79
557 79
556 78
555 78
554 78
553 78
552 78
551 78
550 78
549 77
548 77
547 77
546 77
545 77
544 76
543 76
542 76
541 76
540 76
539 76
538 76
537 76
536 75
535 75
534 75
533 75
532 75
531 75
530 75
529 75
528 74
527 74
526 74
525 74
524 74
523 74
522 74
521 74
520 74
519 74
518 74
517 74
516 73
515 73
514 73
513 73
512 73
511 73
510 73
509 73
508 73
507 73
506 73
505 73
504 72
503 72
502 72
501 72
500 72
499 72
498 72
497 72
496 72
495 72
494 72
493 72
492 71
491 71
490 71
489 71
488 71
487 71
486 71
485 71
484 71
483 71
482 71
481 71
480 71
479 71
478 70
477 70
476 70
475 70
474 70
473 70
472 70
471 70
470 70
469 70
468 70
467 70
466 70
465 70
464 70
463 70
462 70
461 70
460 70
459 70
458 70
457 70
456 70
455 70
454 70
453 70
452 70
451 70
450 70
449 70
448 70
447 70
446 70
445 70
444 70
443 70
442 70
441 70
440 70
439 70
438 70
437 70
436 70
435 70
434 70
433 70
432 70
431 70
430 70
429 70
428 70
427 70
426 70
425 70
424 70
423 70
422 70
421 70
420 70
419 70
418 70
417 70
416 70
415 70
414 70
413 70
412 70
411 70
410 70
409 70
408 70
407 70
406 70
405 70
404 70
