314 68
314 69
313 70
312 71
312 72
311 73
310 74
309 74
308 73
307 73
306 72
305 72
304 72
303 72
302 72
301 72
300 72
299 72
298 72
297 73
297 74
297 75
296 76
295 77
294 78
293 78
292 77
291 77
290 76
289 76
288 76
287 76
286 76
285 75
284 75
283 75
282 75
281 75
280 76
279 77
279 78
278 79
277 79
276 79
275 79
274 78
273 78
272 78
271 78
270 77
269 77
268 77
267 77
266 78
266 79
265 80
264 81
263 80
262 80
261 80
260 80
259 80
258 79
257 79
256 80
255 81
254 82
253 82
252 82
251 82
250 82
249 82
248 82
247 82
246 82
245 82
244 82
243 82
242 82
241 82
240 83
239 83
238 83
237 83
236 83
235 83
234 82
233 82
232 82
231 81
230 80
230 79
230 78
230 77
230 76
231 75
232 74
233 74
234 74
233 73
232 73
231 73
230 72
229 72
228 73
227 73
226 74
225 74
225 75
224 76
223 77
222 78
223 79
223 80
223 81
223 82
223 83
223 84
223 85
224 86
224 87
224 88
224 89
225 90
225 91
225 92
225 93
226 94
226 95
226 96
226 97
226 98
226 99
226 100
226 101
227 102
227 103
227 104
227 105
227 106
228 107
228 108
229 109
229 110
230 111
230 112
230 113
231 114
231 115
232 116
233 117
234 118
234 119
234 120
233 121
233 122
233 123
234 124
234 125
235 126
236 127
236 128
237 129
237 130
238 130
239 131
240 132
241 133
241 134
241 135
241 136
241 137
241 138
241 139
242 140
243 141
244 142
245 143
246 144
247 144
248 145
249 146
250 147
251 148
250 149
250 150
250 151
251 152
252 153
253 154
254 154
255 155
256 156
257 156
258 157
259 158
259 159
259 160
260 161
261 162
262 162
263 163
264 164
265 164
266 165
267 166
267 167
268 167
269 168
269 169
270 169
271 169
272 170
273 170
274 171
275 171
276 171
277 171
278 172
279 172
280 173
281 173
282 174
283 175
284 175
285 175
286 175
287 175
288 176
289 176
290 176
291 176
292 176
293 176
294 176
295 176
296 177
297 177
298 177
299 177
300 177
301 177
302 177
303 177
304 178
305 179
306 179
307 180
307 181
308 181
309 182
310 182
311 182
312 182
313 183
314 183
315 183
316 184
317 184
318 184
319 185
320 185
321 186
322 187
323 187
324 188
325 188
326 188
327 189
328 189
329 190
330 190
331 191
332 192
333 192
334 193
335 194
336 195
337 195
338 196
339 196
340 197
341 198
342 199
343 200
344 201
344 202
345 203
346 204
347 205
348 206
348 207
349 208
349 209
350 210
351 211
351 212
352 213
352 214
352 215
353 216
353 217
353 218
353 219
353 220
354 221
354 222
353 223
353 224
353 225
352 226
352 227
351 228
350 228
349 228
348 229
347 229
346 229
345 229
344 229
343 230
342 230
341 229
340 229
339 228
338 228
337 227
336 227
335 226
334 226
333 225
332 225
331 224
330 223
329 222
328 221
327 220
327 219
326 218
325 217
325 216
325 215
324 214
324 213
324 212
323 211
322 211
321 211
320 210
319 209
318 208
317 207
316 206
315 205
314 204
313 203
312 202
311 201
310 201
309 200
308 200
307 201
306 202
305 203
304 204
303 203
302 203
301 203
300 202
299 202
298 201
297 201
296 202
295 202
294 201
293 201
292 201
291 202
290 202
289 202
288 202
287 202
286 202
285 202
284 202
283 202
282 202
283 203
283 204
284 205
285 206
285 207
286 208
287 209
288 210
289 211
289 212
290 213
290 214
291 215
291 216
291 217
292 218
292 219
293 220
293 221
292 222
293 223
293 224
294 225
295 226
296 227
297 228
298 229
299 230
300 231
300 232
301 233
302 234
303 235
303 236
303 237
304 238
305 239
306 240
307 241
307 242
307 243
307 244
306 245
306 246
306 247
305 248
305 249
305 250
304 251
303 252
302 252
301 252
300 252
299 252
298 252
297 252
297 253
297 254
297 255
296 256
296 257
296 258
296 259
295 260
294 260
293 260
292 261
291 261
290 261
289 261
288 261
287 260
286 261
285 262
284 262
283 262
282 262
281 262
280 262
279 261
278 261
277 261
276 261
275 261
274 262
273 261
272 261
271 261
270 261
269 261
268 261
267 261
266 260
265 260
264 260
263 259
262 259
261 259
260 259
259 258
258 258
257 258
256 258
255 257
254 257
253 257
252 256
251 256
250 255
249 255
248 255
247 254
246 253
245 253
244 252
243 251
242 251
241 250
240 250
239 249
238 248
237 248
236 247
235 247
234 246
233 245
232 245
231 244
230 244
229 243
228 242
227 242
226 241
225 240
224 239
223 239
222 238
221 237
220 236
219 235
218 234
217 233
216 232
215 231
214 230
213 229
212 228
212 227
211 226
210 225
209 224
208 223
208 222
207 221
207 220
206 219
206 218
205 217
204 216
203 215
202 214
202 213
201 212
200 211
199 210
198 209
197 208
197 207
196 206
195 206
194 207
193 207
192 206
191 205
190 205
189 204
188 204
187 203
186 202
185 202
184 201
183 200
182 200
181 201
180 202
179 202
178 202
177 202
176 202
175 202
174 201
173 201
172 201
171 201
170 201
169 202
168 203
167 203
166 203
165 203
164 203
163 203
162 203
161 203
160 203
159 203
158 203
157 203
156 203
156 204
155 205
155 206
154 207
154 208
153 209
152 208
151 208
150 209
149 209
148 209
147 209
146 209
145 210
144 210
143 210
142 211
141 211
140 211
140 212
140 213
140 214
140 215
140 216
140 217
140 218
139 219
138 219
137 219
136 219
135 219
134 220
133 221
132 221
131 221
130 222
129 222
128 223
128 224
128 225
128 226
128 227
128 228
127 229
126 229
125 229
124 230
123 230
122 231
121 231
120 232
119 232
119 233
119 234
119 235
119 236
118 237
117 237
116 237
115 237
114 238
113 238
112 238
111 238
110 239
110 240
110 241
110 242
109 243
108 243
107 243
106 243
105 243
104 244
103 244
103 245
103 246
102 247
101 247
100 248
99 248
98 248
97 248
96 249
95 249
94 250
94 251
94 252
94 253
93 254
92 254
91 254
90 254
89 254
88 255
87 255
86 255
85 256
84 256
83 257
82 257
81 258
80 259
79 260
78 260
77 260
76 260
75 261
74 261
73 261
72 261
71 262
71 263
70 264
69 264
68 264
67 265
66 265
65 265
64 265
63 266
62 266
61 266
60 267
59 267
58 267
57 267
56 268
55 268
54 267
53 268
52 268
51 268
50 268
49 269
48 269
47 269
46 269
45 269
44 269
43 270
42 270
41 270
40 270
39 270
38 270
37 270
36 270
35 270
34 270
33 270
32 270
31 270
30 270
29 270
28 270
27 270
26 271
25 271
24 270
23 270
22 269
21 269
21 270
22 271
23 272
24 273
25 274
26 274
27 275
28 275
29 275
30 276
31 276
32 276
33 277
34 277
35 277
36 277
37 277
38 278
39 278
40 278
41 278
42 278
43 279
44 279
45 280
46 280
47 280
48 280
49 281
50 282
51 283
52 283
53 283
54 284
55 284
56 285
56 286
57 287
58 287
59 288
60 289
61 289
62 290
63 290
64 291
65 292
66 292
67 292
68 293
68 294
68 295
69 295
70 296
71 297
72 297
73 298
74 298
75 299
76 300
76 301
76 302
77 302
78 303
79 303
80 303
81 303
82 304
83 305
83 306
84 307
83 308
84 309
85 309
86 310
87 310
88 311
89 311
90 312
91 312
92 313
93 313
94 314
94 315
95 316
95 317
95 318
95 319
96 319
97 320
98 320
99 321
100 322
101 322
102 323
103 323
104 324
105 324
106 324
107 325
107 326
107 327
108 328
108 329
107 330
107 331
108 331
109 332
110 332
111 333
112 333
113 333
114 333
115 334
116 334
117 334
118 335
118 336
118 337
119 338
118 339
118 340
119 341
120 341
121 342
122 342
123 343
124 343
125 344
126 344
127 344
128 345
128 346
128 347
128 348
129 349
128 350
128 351
129 352
130 352
131 353
132 353
133 353
134 354
135 354
136 355
137 355
138 355
139 356
140 356
141 356
142 356
143 357
144 358
144 359
144 360
144 361
144 362
144 363
145 364
146 364
147 364
148 365
149 365
150 365
151 365
152 366
153 366
154 366
155 367
156 367
157 367
158 367
159 366
160 366
161 367
162 368
163 369
163 370
164 371
165 372
166 372
167 372
168 372
169 372
170 372
171 372
172 372
173 373
174 373
175 372
176 372
177 372
178 372
179 372
180 372
181 372
182 373
183 374
183 375
184 375
185 375
186 375
187 375
188 374
189 374
190 373
191 372
192 372
193 371
194 370
195 370
196 369
197 369
198 369
199 368
200 367
201 366
202 365
202 364
203 363
204 362
204 361
205 360
205 359
206 358
207 357
207 356
208 355
209 354
209 353
209 352
210 351
210 350
210 349
211 348
211 347
212 346
212 345
213 344
213 343
214 342
215 341
216 340
216 339
217 338
218 337
219 336
220 336
221 335
222 334
223 333
224 333
225 332
226 331
227 330
228 330
229 329
230 328
231 328
232 327
233 326
234 325
235 325
236 324
237 323
238 323
239 322
240 321
241 321
242 320
243 319
244 319
245 318
246 318
247 317
248 317
249 316
250 316
251 315
252 314
253 314
254 313
255 313
256 313
257 312
258 312
259 311
260 311
261 310
262 310
263 309
264 309
265 308
266 308
267 308
268 307
269 307
270 307
271 307
272 307
273 307
274 307
275 306
276 306
277 306
278 306
279 306
280 306
281 307
282 307
283 307
284 307
285 307
286 307
287 307
288 307
289 308
290 309
291 309
292 310
293 310
294 310
295 311
296 311
297 312
298 312
299 313
300 314
301 315
302 316
302 317
302 318
302 319
303 320
304 320
305 320
306 321
307 322
307 323
307 324
308 325
308 326
308 327
309 328
309 329
309 330
309 331
309 332
309 333
308 334
308 335
307 336
306 337
306 338
306 339
305 340
305 341
305 342
304 343
303 344
302 345
302 346
301 347
301 348
300 349
300 350
299 351
298 352
297 353
296 354
296 355
297 356
297 357
297 358
297 359
297 360
297 361
296 362
296 363
296 364
295 365
296 366
295 367
295 368
295 369
294 370
294 371
294 372
293 373
293 374
292 375
292 376
291 377
291 378
292 379
293 379
294 380
295 380
296 380
297 379
298 379
299 379
300 378
301 378
302 378
303 377
304 377
305 377
306 377
307 376
308 376
309 376
310 376
311 377
312 378
313 378
314 378
315 378
316 378
317 377
318 376
319 376
320 375
321 374
322 373
323 373
324 372
325 371
326 371
327 371
327 370
328 369
328 368
329 367
329 366
330 365
330 364
331 363
332 362
332 361
333 360
334 359
334 358
334 357
334 356
335 355
336 354
336 353
337 352
338 351
339 350
339 349
340 348
341 347
342 346
343 345
344 344
345 343
346 343
347 342
348 341
349 341
350 340
351 340
352 340
353 339
354 339
355 339
356 339
357 339
358 339
359 339
360 339
361 339
362 339
363 339
364 340
365 340
366 341
367 341
368 342
369 342
370 343
370 344
370 345
371 346
371 347
371 348
371 349
372 350
371 351
371 352
371 353
371 354
370 355
370 356
371 357
371 358
370 359
370 360
369 361
369 362
368 363
367 364
367 365
367 366
366 367
365 368
364 369
363 370
362 371
361 372
360 373
359 373
358 374
358 375
357 376
356 376
355 377
354 378
353 378
352 379
351 380
351 381
350 382
349 382
348 383
347 383
346 384
345 384
344 385
343 385
342 386
341 386
340 386
339 387
338 387
337 388
336 388
335 388
334 388
333 388
332 388
331 388
330 388
329 388
328 389
327 389
326 389
325 389
324 389
323 389
322 389
321 388
320 388
319 388
318 389
317 389
316 389
315 388
314 388
313 388
312 387
311 387
310 387
309 386
308 387
307 388
306 388
305 388
304 388
303 388
302 388
301 388
300 388
299 388
298 388
297 388
296 389
296 390
296 391
295 392
294 392
293 392
292 393
291 393
290 394
289 394
288 395
287 395
286 395
285 396
285 397
285 398
285 399
285 400
284 401
283 401
282 401
281 402
280 402
279 402
279 403
279 404
279 405
278 406
277 406
276 407
275 407
274 408
273 408
272 409
271 409
270 410
270 411
270 412
270 413
271 414
271 415
270 416
269 416
268 417
267 418
266 419
265 419
264 420
263 421
262 422
263 423
263 424
263 425
264 426
263 427
262 428
261 428
260 429
259 430
258 431
257 432
256 433
255 434
255 435
256 436
256 437
257 438
256 439
255 440
254 441
254 442
253 443
252 444
251 445
250 446
250 447
250 448
251 449
251 450
250 451
250 452
249 453
248 454
248 455
247 456
247 457
246 458
245 459
245 460
246 461
246 462
245 463
244 464
243 465
243 466
242 467
242 468
241 469
241 470
240 471
240 472
240 473
239 474
239 475
238 476
237 477
237 478
236 479
235 480
234 481
233 481
232 482
231 483
230 484
229 485
228 486
227 487
226 488
225 489
225 490
225 491
225 492
225 493
225 494
226 495
225 494
226 493
227 492
228 491
229 491
230 491
231 491
232 491
233 491
234 491
235 491
236 491
237 491
238 491
239 491
240 491
241 491
242 491
243 490
244 490
245 490
246 490
247 490
248 490
249 490
250 490
251 490
252 490
253 490
254 490
255 490
256 490
257 490
258 490
259 490
260 490
261 491
262 491
263 491
264 491
265 491
266 491
267 491
268 491
269 491
270 491
271 491
272 491
273 492
274 492
275 493
276 493
277 493
278 493
279 493
280 493
281 494
282 494
283 495
284 495
285 495
286 495
287 495
288 495
289 495
290 495
291 495
292 495
293 496
294 496
295 497
296 497
297 497
298 498
299 498
300 498
301 498
302 498
303 498
304 498
305 499
306 499
307 500
308 500
309 500
310 500
311 500
312 500
313 501
314 502
315 502
316 502
317 503
318 503
319 503
320 503
321 503
322 503
323 503
324 503
325 503
326 503
327 503
328 503
329 502
330 502
331 502
332 502
333 502
334 503
335 503
336 504
337 504
338 505
339 505
340 505
341 505
342 505
343 504
344 504
345 504
346 504
347 503
348 503
349 502
350 502
351 502
352 502
353 503
354 503
355 502
356 502
357 502
358 502
359 501
360 501
361 501
362 501
363 501
364 500
365 500
366 500
367 499
368 499
369 498
370 498
371 498
372 498
373 498
374 497
375 497
376 496
377 495
378 495
379 494
380 494
380 493
381 492
382 492
383 492
384 491
385 491
386 490
387 490
388 490
389 489
390 488
391 487
392 486
392 485
393 484
393 483
394 482
395 481
396 480
397 479
397 478
397 477
398 476
398 475
398 474
399 473
399 472
399 471
399 470
400 469
401 468
401 467
402 466
402 465
402 464
402 463
401 462
400 461
400 460
400 459
399 458
399 457
399 456
398 455
398 454
398 453
398 452
397 451
397 450
397 449
397 448
396 447
396 446
396 445
396 444
396 443
396 442
396 441
396 440
396 439
396 438
397 437
397 436
397 435
397 434
397 433
397 432
397 431
397 430
397 429
397 428
397 427
397 426
398 425
398 424
398 423
398 422
398 421
398 420
399 419
399 418
399 417
399 416
400 415
400 414
401 413
402 412
403 411
404 410
405 409
406 409
407 408
408 407
409 406
410 406
411 406
412 405
413 405
414 405
415 404
416 404
417 404
418 404
419 404
420 404
421 404
422 403
423 403
424 403
425 403
426 403
427 403
428 404
429 405
430 405
431 405
432 406
433 406
434 406
435 406
436 407
437 407
438 408
439 409
440 410
440 411
441 412
441 413
442 414
442 415
442 416
442 417
442 418
442 419
442 420
443 421
443 422
443 423
443 424
443 425
443 426
443 427
442 428
442 429
442 430
442 431
441 432
441 433
441 434
440 435
440 436
440 437
439 438
440 439
440 440
440 441
440 442
440 443
440 444
440 445
440 446
439 447
439 448
439 449
439 450
438 451
439 452
440 453
439 454
439 455
439 456
439 457
439 458
439 459
439 460
439 461
438 462
438 463
438 464
438 465
439 466
439 467
439 468
439 469
439 470
439 471
438 472
438 473
438 474
438 475
438 476
438 477
438 478
438 479
437 480
437 481
437 482
436 483
436 484
436 485
435 486
434 487
433 488
434 488
435 489
436 489
437 489
438 489
439 489
440 489
441 489
442 489
443 488
444 488
445 488
446 488
447 487
448 487
449 486
450 486
451 485
452 485
453 484
454 484
455 484
456 484
457 484
458 483
459 483
460 484
461 484
462 484
463 484
464 483
465 483
466 482
467 482
468 481
469 481
470 480
471 479
472 479
473 478
474 478
475 478
476 479
477 478
478 478
479 478
480 478
481 477
482 476
483 475
484 475
485 474
486 473
487 473
488 473
489 473
490 473
491 472
492 472
493 471
494 471
495 470
496 469
497 469
498 468
499 468
500 467
501 466
502 465
503 465
504 464
505 464
506 463
507 462
508 461
509 460
510 459
511 458
511 457
512 456
512 455
513 454
514 453
515 453
516 452
517 452
518 451
519 450
519 449
520 448
520 447
521 446
521 445
522 444
522 443
522 442
523 441
523 440
524 439
524 438
524 437
525 436
526 436
526 435
526 434
526 433
526 432
526 431
526 430
526 429
526 428
526 427
526 426
527 425
527 424
526 423
525 422
525 421
524 420
524 419
523 418
523 417
524 416
523 415
522 414
521 413
520 412
519 411
518 410
518 409
517 408
516 407
515 406
515 405
514 404
514 403
513 402
513 401
512 400
512 399
511 398
511 397
511 396
511 395
510 394
510 393
510 392
510 391
510 390
511 389
511 388
512 387
513 386
513 385
513 384
514 383
515 382
516 381
517 380
518 380
519 380
520 380
521 380
522 380
523 380
524 380
525 380
526 380
527 380
528 381
529 381
530 382
531 382
532 383
533 384
534 384
535 383
536 382
537 381
538 380
539 379
540 378
541 377
541 376
541 375
542 374
542 373
543 372
543 371
543 370
544 369
545 368
545 367
545 366
545 365
545 364
544 363
544 362
544 361
544 360
544 359
544 358
544 357
544 356
543 355
543 354
543 353
543 352
544 351
543 350
542 349
542 348
541 347
540 346
540 345
539 344
538 343
538 342
538 341
537 340
537 339
537 338
537 337
536 336
536 335
536 334
536 333
536 332
535 331
535 330
535 329
535 328
535 327
534 326
534 325
533 324
533 323
532 322
532 321
531 320
531 319
530 318
530 317
529 316
529 315
528 314
527 313
527 312
526 311
525 310
525 309
524 308
523 307
523 306
522 305
522 304
521 303
521 302
520 301
519 300
519 299
519 298
520 297
521 296
522 296
523 296
524 296
525 296
526 296
527 296
528 295
529 295
530 295
531 295
532 295
533 295
534 295
535 295
536 295
537 295
538 295
539 294
540 294
541 294
542 294
543 294
544 294
545 294
546 294
547 294
548 294
549 294
550 294
551 294
552 294
553 293
554 293
555 293
556 293
557 293
558 293
559 293
560 293
561 293
562 293
563 292
564 292
565 292
566 292
567 292
568 292
569 292
570 292
571 292
572 292
573 292
574 292
575 292
576 292
577 291
578 291
579 291
580 291
581 291
582 291
583 291
584 291
585 291
586 291
587 291
588 291
589 291
590 290
591 290
592 290
593 290
594 290
595 290
596 290
597 290
598 290
599 290
600 290
601 290
602 289
603 289
604 289
605 289
606 289
607 289
608 289
609 289
610 289
611 289
612 289
613 289
614 288
615 288
616 288
617 288
618 288
619 288
620 288
621 288
622 288
623 288
624 288
625 287
626 287
627 287
628 287
629 287
630 287
631 287
632 287
633 287
634 287
635 287
636 287
637 287
638 286
639 286
640 286
641 286
642 286
643 286
644 286
645 286
646 286
647 286
648 286
649 285
650 285
651 285
652 285
653 285
654 285
655 285
656 285
657 285
658 285
659 285
660 285
661 284
662 284
663 284
664 284
665 284
666 284
667 284
668 284
669 284
670 284
671 283
672 283
673 283
674 283
675 283
676 283
677 283
678 283
679 283
680 283
681 283
682 282
683 282
684 282
685 282
686 282
687 282
688 282
689 282
690 282
691 282
692 282
693 281
694 281
695 281
696 281
697 281
698 281
699 281
700 281
701 281
702 280
703 280
704 280
705 280
706 280
707 280
708 280
709 279
710 279
711 279
712 279
713 279
714 279
715 279
716 278
717 278
718 278
719 277
718 276
719 275
720 275
721 275
722 274
722 273
723 272
724 271
725 271
726 270
727 270
727 269
727 268
726 267
725 267
724 267
723 266
722 265
721 264
720 263
719 263
718 263
717 263
716 263
715 264
714 264
713 264
712 265
711 265
710 265
709 265
708 266
707 266
706 266
705 266
704 266
703 266
702 266
701 267
700 267
699 267
698 267
697 267
696 267
695 268
694 268
693 268
692 268
691 268
690 268
689 269
688 269
687 269
686 269
685 269
684 269
683 270
682 270
681 270
680 270
679 270
678 270
677 271
676 271
675 271
674 271
673 271
672 271
671 271
670 271
669 272
668 272
667 272
666 272
665 272
664 272
663 272
662 273
661 273
660 273
659 273
658 273
657 273
656 273
655 273
654 274
653 274
652 274
651 274
650 274
649 274
648 274
647 274
646 275
645 275
644 275
643 275
642 275
641 275
640 275
639 276
638 276
637 276
636 276
635 276
634 276
633 276
632 276
631 276
630 276
629 276
628 277
627 277
626 277
625 277
624 277
623 277
622 277
621 277
620 277
619 277
618 278
617 278
616 278
615 278
614 278
613 278
612 278
611 278
610 278
609 278
608 279
607 279
606 279
605 279
604 279
603 279
602 279
601 279
600 279
599 279
598 279
597 279
596 279
595 279
594 279
593 279
592 279
591 280
590 280
589 280
588 280
587 280
586 280
585 280
584 280
583 280
582 281
581 281
580 281
579 281
578 281
577 281
576 281
575 281
574 281
573 282
572 282
571 282
570 282
569 282
568 282
567 282
566 282
565 282
564 282
563 282
562 282
561 282
560 283
559 283
558 283
557 283
556 283
555 283
554 283
553 283
552 283
551 284
550 284
549 284
548 284
547 284
546 284
545 284
544 284
543 284
542 284
541 284
540 284
539 285
538 285
537 285
536 285
535 285
534 285
533 285
532 285
531 285
530 285
529 285
528 285
527 286
526 286
525 286
524 286
523 286
522 286
521 286
520 286
519 286
518 285
519 284
519 283
520 282
520 281
521 280
521 279
522 278
522 277
523 276
523 275
523 274
524 273
524 272
524 271
524 270
525 269
525 268
525 267
526 266
526 265
526 264
527 263
527 262
527 261
527 260
527 259
527 258
527 257
527 256
528 255
528 254
528 253
529 252
529 251
530 250
530 249
530 248
531 247
531 246
532 245
532 244
532 243
533 242
533 241
533 240
533 239
534 238
534 237
534 236
534 235
535 234
535 233
536 232
536 231
536 230
535 229
535 228
535 227
535 226
535 225
535 224
535 223
534 222
534 221
534 220
534 219
535 218
535 217
535 216
535 215
536 214
536 213
536 212
535 211
535 210
535 209
535 208
535 207
535 206
535 205
535 204
535 203
536 202
536 201
536 200
536 199
536 198
535 198
534 197
534 196
534 195
534 194
533 193
534 192
534 191
534 190
534 189
534 188
534 187
533 187
532 186
532 185
531 184
532 183
531 182
531 181
530 180
530 179
530 178
530 177
530 176
530 175
530 174
529 174
528 173
528 172
528 171
528 170
528 169
527 168
526 167
526 166
526 165
526 164
526 163
525 162
524 161
523 160
523 159
523 158
523 157
522 156
522 155
522 154
522 153
522 152
521 152
520 151
520 150
520 149
519 148
520 147
520 146
519 145
518 144
518 143
518 142
518 141
518 140
518 139
517 139
516 138
515 137
515 136
515 135
514 134
514 133
514 132
513 131
513 130
513 129
513 128
512 127
511 127
510 127
509 126
509 125
508 124
507 123
507 122
506 121
506 120
505 119
504 120
503 120
502 119
501 118
500 117
500 116
499 115
498 114
497 113
496 112
495 111
495 110
494 110
493 111
492 111
491 111
490 110
489 109
488 108
487 108
486 108
485 107
484 106
483 105
482 105
481 104
480 103
479 102
478 102
477 102
476 103
475 103
474 103
473 102
473 101
472 100
471 99
470 99
469 100
468 99
468 98
467 98
466 97
465 96
464 95
463 94
462 93
461 94
460 95
459 95
458 95
457 94
456 93
455 92
454 92
453 91
452 91
451 92
450 92
449 93
448 92
447 91
446 90
445 89
444 89
443 89
442 88
441 88
440 88
439 87
438 87
438 88
437 89
436 90
435 90
434 90
433 89
432 88
431 88
430 88
429 88
428 87
427 87
426 87
425 87
424 87
424 88
423 89
423 90
422 91
422 92
421 93
420 93
419 93
418 92
417 92
416 91
415 91
414 91
413 91
412 92
411 92
410 92
409 92
408 92
407 92
406 92
405 92
404 92
403 92
402 93
401 93
402 94
402 95
403 96
404 97
404 98
405 99
405 100
405 101
405 102
406 103
406 104
406 105
406 106
407 107
406 108
406 109
407 110
407 111
407 112
408 113
408 114
407 115
407 116
407 117
407 118
407 119
408 120
408 121
409 122
409 123
409 124
409 125
409 126
409 127
409 128
410 129
410 130
411 131
411 132
411 133
412 134
412 135
411 136
412 137
412 138
413 139
413 140
413 141
413 142
413 143
413 144
413 145
413 146
413 147
413 148
413 149
413 150
412 151
412 152
411 153
411 154
410 155
409 155
408 154
407 154
407 155
406 156
406 157
405 158
404 158
403 158
402 158
401 157
400 157
399 158
398 157
398 156
397 156
396 155
395 154
394 155
393 155
392 154
391 153
390 152
389 151
388 150
387 149
387 148
386 147
386 146
385 146
384 145
384 144
383 143
383 142
382 141
382 140
382 139
381 138
381 137
381 136
380 135
380 134
380 133
380 132
380 131
379 130
379 129
379 128
379 127
379 126
378 125
379 124
379 123
379 122
379 121
379 120
379 119
379 118
379 117
379 116
379 115
380 114
380 113
380 112
380 111
380 110
381 109
381 108
380 107
380 106
380 105
380 104
380 103
380 102
380 101
380 100
380 99
380 98
380 97
380 96
380 95
380 94
380 93
380 92
379 91
379 90
378 90
377 90
376 89
375 88
375 87
374 86
374 85
374 84
373 83
372 82
372 81
371 80
371 79
370 78
369 77
369 76
368 76
367 77
366 77
365 77
364 78
363 78
362 77
362 76
361 76
360 75
360 74
359 73
358 72
357 72
356 71
355 71
354 70
353 69
352 69
351 70
350 71
349 71
348 72
347 73
346 73
345 72
345 71
344 71
343 70
342 70
341 70
340 69
339 69
338 69
337 69
336 69
335 69
334 69
333 68
332 68
331 69
330 70
329 71
328 72
327 73
326 73
325 72
324 71
323 71
322 70
321 70
320 70
319 69
318 69
317 69
316 68
315 68
314 68
