83 282
83 283
83 284
83 285
83 286
83 287
83 288
83 289
83 290
83 291
83 292
83 293
83 294
83 295
84 296
85 297
86 298
87 298
88 299
89 300
90 301
91 302
92 303
93 304
94 304
95 305
96 305
97 306
98 306
99 307
100 308
101 309
102 310
102 311
102 312
102 313
102 314
101 315
101 316
101 317
101 318
101 319
101 320
100 321
100 322
100 323
100 324
100 325
100 326
100 327
100 328
100 329
100 330
100 331
101 332
102 333
103 333
104 334
105 335
106 336
107 337
108 337
109 338
110 338
111 338
112 339
113 339
114 339
115 339
116 339
117 339
118 340
119 340
120 340
121 340
122 340
123 340
124 340
125 340
126 340
127 340
128 340
129 340
130 340
131 340
132 340
133 340
134 340
135 340
136 340
137 340
138 340
139 340
140 340
141 340
142 340
143 340
144 340
145 340
146 341
147 342
148 343
148 344
147 345
147 346
146 347
146 348
145 349
145 350
145 351
145 352
145 353
145 354
145 355
145 356
145 357
145 358
145 359
145 360
145 361
145 362
145 363
145 364
145 365
145 366
145 367
145 368
145 369
145 370
145 371
145 372
145 373
145 374
145 375
146 376
147 377
148 378
149 379
150 380
150 381
151 382
152 383
153 384
154 385
155 386
156 386
157 387
158 388
159 388
160 388
161 389
162 389
163 389
164 389
165 390
166 390
167 391
168 391
169 391
170 391
171 391
172 391
173 391
174 391
175 391
176 391
177 391
178 391
179 391
180 391
181 391
182 391
183 391
184 391
185 391
186 390
187 390
188 390
189 390
190 390
191 390
192 390
193 389
194 389
195 388
196 387
197 386
198 385
199 384
200 383
201 382
202 382
203 381
204 381
205 380
206 380
207 379
208 379
209 378
210 378
211 378
212 378
213 378
214 378
215 379
216 379
217 379
218 380
219 380
220 381
221 382
222 383
222 384
223 385
223 386
222 387
222 388
222 389
221 390
221 391
221 392
220 393
220 394
220 395
220 396
220 397
220 398
220 399
220 400
220 401
220 402
220 403
220 404
220 405
220 406
220 407
220 408
220 409
220 410
220 411
220 412
220 413
220 414
220 415
220 416
220 417
220 418
221 419
221 420
222 421
223 421
224 422
225 423
226 424
226 425
227 426
227 427
228 428
228 429
228 430
229 431
229 432
230 433
230 434
231 434
232 434
233 434
234 434
235 434
236 434
237 434
238 434
239 434
240 434
241 434
242 434
243 434
244 434
245 434
246 434
247 434
248 434
249 434
250 433
251 433
252 433
253 432
254 432
255 431
256 431
257 431
258 430
259 430
260 429
261 429
262 428
263 428
264 428
265 427
266 427
267 426
268 426
269 425
270 425
271 425
272 424
273 424
274 424
275 424
276 423
277 422
278 422
279 421
280 420
281 419
282 418
283 418
284 417
285 416
286 416
287 415
288 415
289 414
290 414
291 413
292 413
293 412
294 412
295 412
296 411
297 411
298 410
299 409
300 409
301 408
302 408
303 407
304 406
305 405
306 404
307 403
308 402
309 401
310 400
311 399
312 398
313 397
314 396
315 395
316 395
317 394
318 393
319 393
320 392
321 391
322 391
323 390
324 389
325 389
326 388
327 387
328 387
329 386
330 385
331 385
332 384
333 383
334 382
335 381
336 380
337 379
338 379
339 378
340 377
341 376
342 375
343 374
344 374
345 373
346 372
347 371
348 370
349 370
350 369
351 368
352 367
353 366
354 366
355 365
356 364
357 363
358 362
359 362
360 361
361 360
362 359
363 358
364 358
365 357
366 357
367 356
368 356
369 355
370 355
371 355
372 356
373 357
373 358
373 359
372 360
372 361
371 362
371 363
370 364
369 365
369 366
368 367
368 368
367 369
367 370
367 371
367 372
367 373
367 374
367 375
367 376
367 377
367 378
367 379
368 380
369 380
370 381
370 382
371 383
371 384
372 385
373 386
374 386
375 387
376 387
377 388
378 388
379 388
380 388
381 389
382 389
383 389
384 389
385 389
386 390
387 390
388 390
389 390
390 390
391 390
392 390
393 390
394 390
395 390
396 390
397 390
398 390
399 390
400 390
401 390
402 390
403 390
404 390
405 390
406 390
407 390
408 390
409 390
410 390
411 390
412 390
413 390
414 389
415 389
416 389
417 389
418 389
419 389
420 389
421 389
422 389
423 389
424 388
425 388
426 388
427 388
428 387
429 387
430 387
431 386
432 386
433 386
434 386
435 385
436 385
437 385
438 384
439 383
440 382
441 382
442 381
443 380
444 379
445 379
446 378
447 377
448 376
449 375
450 375
451 374
452 373
453 372
454 372
455 371
456 370
457 369
458 368
459 367
460 366
461 365
462 364
463 363
464 362
465 361
466 360
467 359
468 358
468 357
469 356
470 355
471 355
472 354
473 354
474 355
475 356
476 357
477 358
478 358
479 358
480 358
481 358
482 359
483 359
484 359
485 359
486 359
487 359
488 359
489 359
490 359
491 359
492 359
493 359
494 359
495 359
496 359
497 359
498 359
499 359
500 359
501 359
502 358
503 358
504 358
505 358
506 358
507 358
508 358
509 358
510 357
511 357
512 357
513 357
514 356
515 356
516 356
517 356
518 355
519 355
520 355
521 355
522 354
523 354
524 354
525 354
526 353
527 353
528 352
529 352
530 352
531 351
532 351
533 350
534 350
535 350
536 349
537 348
538 348
539 347
540 347
541 346
542 346
543 345
544 345
545 344
546 344
547 343
548 343
549 343
550 343
551 343
552 343
553 343
554 343
555 343
556 343
557 343
558 343
559 343
560 343
561 343
562 343
563 343
564 343
565 343
566 342
567 342
568 342
569 341
570 341
571 341
572 341
573 340
574 340
575 339
576 338
577 338
578 337
579 336
580 336
581 335
582 335
583 334
584 333
585 333
586 332
587 331
588 330
589 330
590 329
591 329
592 328
593 328
594 327
595 327
596 326
597 326
598 326
599 326
600 326
601 326
602 326
603 326
604 326
605 326
606 326
607 326
608 326
609 325
610 324
611 323
612 322
613 321
614 320
615 319
615 318
616 317
616 316
617 315
618 314
618 313
619 312
620 311
621 310
621 309
622 308
622 307
622 306
622 305
622 304
622 303
622 302
622 301
622 300
622 299
622 298
622 297
622 296
623 295
623 294
624 293
624 292
625 291
626 291
627 290
628 290
629 289
630 289
631 289
632 289
633 289
634 289
635 289
636 289
637 289
638 289
639 289
640 289
641 289
642 289
643 289
644 289
645 289
646 289
647 289
648 289
649 289
650 289
651 289
652 289
653 289
654 289
655 289
656 289
657 289
658 289
659 289
660 289
661 289
662 290
663 290
664 290
665 290
666 290
667 290
668 290
669 290
670 290
671 290
672 290
673 290
674 291
675 291
676 291
677 291
678 291
679 291
680 291
681 291
682 291
683 291
684 291
685 291
686 291
687 291
688 291
689 291
690 291
691 291
692 291
693 291
694 291
695 291
696 291
697 291
698 291
698 290
699 289
699 288
700 287
700 286
701 285
702 285
703 284
704 284
705 283
705 282
705 281
705 280
705 279
705 278
705 277
705 276
705 275
705 274
705 273
705 272
704 272
703 272
702 272
701 272
700 272
699 272
698 272
697 272
696 272
695 272
694 272
693 272
692 273
691 273
690 273
689 274
688 274
687 274
686 274
685 274
684 274
683 274
682 274
681 274
680 274
679 274
678 274
677 274
676 274
675 274
674 274
673 274
672 273
671 273
670 273
669 273
668 273
667 273
666 273
665 273
664 273
663 273
662 273
661 273
660 273
659 273
658 273
657 273
656 273
655 273
654 273
653 273
652 273
651 273
650 273
649 273
648 273
647 273
646 273
645 273
644 273
643 273
642 273
641 273
640 273
639 273
638 273
637 273
636 272
635 272
634 271
633 271
632 270
631 270
630 269
629 268
628 267
628 266
627 265
627 264
627 263
627 262
627 261
627 260
627 259
627 258
627 257
627 256
627 255
627 254
627 253
627 252
627 251
626 250
626 249
625 248
624 247
623 246
622 245
621 244
620 243
620 242
619 241
618 240
617 239
616 238
615 237
614 236
613 236
612 235
611 234
610 233
609 232
608 231
607 231
606 230
605 230
604 229
603 229
602 228
601 228
600 228
599 227
598 227
597 226
596 226
595 225
594 225
593 224
592 224
591 223
590 223
589 222
588 222
587 221
586 220
585 220
584 219
583 219
582 218
581 217
580 217
579 217
578 217
577 216
576 216
575 215
574 215
573 215
572 215
571 214
570 214
569 214
568 213
567 213
566 213
565 212
564 212
563 212
562 212
561 211
560 211
559 211
558 210
557 210
556 210
555 209
554 209
553 208
552 208
551 208
550 208
549 208
548 207
547 207
546 207
545 206
544 206
543 206
542 206
541 205
540 205
539 205
538 204
537 204
536 204
535 204
534 204
533 204
532 203
531 203
530 203
529 203
528 203
527 202
526 202
525 202
524 202
523 202
522 201
521 201
520 201
519 201
518 201
517 201
516 201
515 201
514 201
513 201
512 201
511 201
510 201
509 201
508 201
507 201
506 202
506 203
506 204
506 205
505 206
505 207
504 208
504 209
504 210
504 211
504 212
503 213
503 214
502 215
502 216
501 217
500 218
499 218
498 219
497 219
496 220
495 220
494 221
493 221
492 222
491 222
490 222
489 221
488 221
487 220
486 220
485 219
484 219
483 218
482 218
481 217
480 216
479 215
478 214
478 213
477 212
476 211
476 210
475 209
475 208
474 207
473 206
473 205
472 204
472 203
471 202
471 201
470 200
469 199
468 198
468 197
467 196
466 195
465 194
465 193
464 192
463 191
462 190
462 189
461 188
460 187
459 186
459 185
458 184
458 183
457 182
456 181
456 180
455 179
454 178
454 177
453 176
453 175
452 174
451 173
450 172
449 171
448 170
448 169
447 168
446 167
445 166
444 165
443 164
442 163
441 162
440 161
439 161
438 160
437 160
436 159
435 159
434 158
433 158
432 157
431 157
430 156
429 155
428 155
427 154
426 153
425 153
424 152
423 151
422 150
421 150
420 149
419 148
418 147
417 147
416 147
415 147
414 147
413 147
412 146
411 146
410 146
409 146
408 145
407 145
406 144
405 144
404 144
403 144
402 144
401 144
400 144
399 144
398 144
397 144
396 144
395 144
394 143
393 143
392 143
391 143
390 143
389 143
388 143
387 143
386 143
385 143
384 143
383 143
382 143
381 143
380 143
379 143
378 143
377 144
376 144
375 144
374 144
373 144
372 144
371 144
370 145
369 145
368 145
367 146
366 146
365 146
364 147
363 148
363 149
362 150
361 151
361 152
361 153
360 154
360 155
360 156
360 157
360 158
360 159
360 160
360 161
360 162
360 163
360 164
360 165
360 166
360 167
360 168
360 169
360 170
360 171
360 172
360 173
360 174
360 175
360 176
360 177
360 178
360 179
360 180
361 181
361 182
362 183
363 184
363 185
364 186
364 187
365 188
365 189
366 190
366 191
367 192
367 193
367 194
367 195
368 196
368 197
368 198
368 199
368 200
369 201
369 202
369 203
369 204
370 205
369 206
369 207
368 208
367 209
366 210
365 210
364 210
363 209
362 209
361 208
360 208
359 207
358 206
357 206
356 205
355 204
354 203
353 202
352 202
351 201
350 200
349 199
348 199
347 198
346 197
345 197
344 196
343 195
342 194
341 194
340 193
339 192
338 191
337 190
337 189
336 188
335 187
334 186
333 186
332 185
331 184
330 184
329 183
328 182
327 182
326 181
325 180
324 179
323 178
323 177
322 176
321 175
321 174
320 173
319 172
318 171
317 171
316 170
315 169
314 168
313 167
312 167
311 166
310 166
309 165
308 165
307 164
306 164
305 163
304 163
303 162
302 162
301 161
300 161
299 160
298 159
297 158
296 158
295 157
294 156
293 155
292 154
291 153
290 153
289 152
288 151
287 150
286 149
286 148
285 147
284 146
283 145
282 144
281 143
280 142
279 141
278 140
277 139
276 139
275 138
274 138
273 137
272 137
271 136
270 135
269 134
268 133
267 132
266 132
265 131
264 131
263 130
262 130
261 129
260 129
259 129
258 129
257 129
256 129
255 129
254 129
253 128
252 128
251 128
250 128
249 128
248 128
247 128
246 128
245 128
244 128
243 128
242 128
241 128
240 128
239 128
238 128
237 128
236 128
235 128
234 128
233 128
232 128
231 128
230 128
229 129
228 129
227 129
226 130
225 130
224 130
223 130
222 131
221 132
220 133
220 134
219 135
219 136
218 137
218 138
218 139
217 140
217 141
217 142
217 143
217 144
217 145
216 146
216 147
216 148
216 149
216 150
216 151
216 152
216 153
216 154
216 155
216 156
216 157
216 158
216 159
216 160
216 161
216 162
216 163
216 164
216 165
216 166
216 167
217 168
217 169
217 170
217 171
217 172
217 173
217 174
218 175
218 176
218 177
218 178
218 179
218 180
217 181
216 182
215 183
214 183
213 183
212 183
211 183
210 182
209 182
208 181
207 181
206 180
205 180
204 179
203 179
202 178
201 178
200 178
199 178
198 177
197 177
196 177
195 176
194 176
193 175
192 175
191 174
190 174
189 173
188 172
187 171
186 170
185 169
184 169
183 169
182 169
181 169
180 169
179 169
178 169
177 169
176 170
175 170
174 171
173 171
172 172
171 173
170 174
170 175
169 176
169 177
168 178
168 179
167 180
166 181
165 182
165 183
164 184
164 185
163 186
163 187
162 188
162 189
161 190
161 191
161 192
160 193
160 194
160 195
160 196
160 197
160 198
160 199
160 200
160 201
160 202
160 203
160 204
160 205
160 206
160 207
160 208
160 209
159 210
159 211
158 212
157 213
156 214
155 214
154 215
153 215
152 215
151 214
150 214
149 214
148 214
147 214
146 214
145 214
144 214
143 214
142 214
141 214
140 214
139 214
138 214
137 215
136 215
135 215
134 216
133 216
132 217
131 218
130 219
129 220
128 221
127 222
126 223
125 224
124 225
124 226
123 227
122 228
121 229
121 230
120 231
120 232
119 233
119 234
118 235
118 236
117 237
117 238
117 239
116 240
116 241
116 242
115 243
115 244
114 245
114 246
113 247
112 248
111 248
110 249
109 249
108 250
107 250
106 250
105 251
104 251
103 252
102 253
101 254
100 255
99 256
99 257
98 258
98 259
97 260
97 261
96 262
95 263
94 264
93 265
93 266
92 267
91 268
90 269
90 270
89 271
88 272
88 273
87 274
87 275
86 276
86 277
85 278
85 279
84 280
84 281
83 282
