126 267
126 268
126 269
126 270
126 271
127 271
128 271
129 272
130 272
131 272
132 272
133 272
134 273
135 273
136 273
137 274
138 274
139 274
140 275
141 275
142 276
143 276
144 276
145 276
146 276
147 277
148 277
149 277
150 277
151 277
152 277
153 277
154 277
155 277
156 277
157 277
158 277
159 277
160 277
161 277
162 277
163 277
164 277
165 277
166 278
167 278
168 279
169 279
170 279
171 280
172 280
173 280
174 280
175 281
176 281
177 281
178 281
179 282
180 282
181 283
182 283
183 284
184 284
185 285
186 285
187 286
188 287
189 288
190 288
191 289
192 290
193 290
194 291
195 291
196 292
197 292
198 293
199 293
200 293
201 294
202 294
203 294
204 295
205 295
206 295
207 295
208 295
209 296
210 296
211 296
212 297
213 297
214 297
215 298
216 298
217 298
218 298
219 299
220 299
221 299
222 299
223 300
224 300
225 300
226 301
227 301
228 301
229 302
230 302
231 302
232 302
233 302
234 303
235 303
236 303
237 303
238 303
239 303
240 303
241 303
242 304
243 304
244 304
245 304
246 304
247 304
248 305
249 305
250 305
251 305
252 306
253 306
254 306
255 307
256 307
257 307
258 308
259 308
260 308
261 309
262 309
263 309
264 309
265 310
266 310
267 310
268 311
269 311
270 311
271 311
272 312
273 312
274 312
275 312
276 313
277 313
278 313
279 313
280 314
281 314
282 314
283 314
284 314
285 315
286 315
287 315
288 315
289 316
290 316
291 316
292 316
293 317
294 317
295 317
296 317
297 318
298 318
299 318
300 318
301 318
302 318
303 319
304 319
305 319
306 319
307 319
308 319
309 319
310 319
311 319
312 319
313 319
314 319
315 319
316 320
317 320
318 320
319 320
320 320
321 320
322 320
323 320
324 320
325 320
326 320
327 320
328 320
329 320
330 320
331 320
332 320
333 320
334 320
335 320
336 320
337 320
338 320
339 320
340 320
341 320
342 320
343 320
344 320
345 320
346 320
347 320
348 321
349 321
350 321
351 321
352 321
353 321
354 321
355 321
356 321
357 322
358 322
359 322
360 322
361 322
362 322
363 322
364 322
365 322
366 322
367 322
368 322
369 322
370 322
371 322
372 322
373 322
374 322
375 322
376 322
377 322
378 322
379 322
380 322
381 322
382 323
383 323
384 323
385 323
386 323
387 323
388 323
389 324
390 324
391 324
392 324
393 324
394 324
395 324
396 324
397 324
398 324
399 324
400 324
401 324
402 324
403 324
404 324
405 324
406 324
407 324
408 324
409 324
410 324
411 324
412 324
413 324
414 324
415 324
416 324
417 324
418 324
419 324
420 324
421 324
422 324
423 324
424 324
425 324
426 324
427 323
428 323
429 323
430 323
431 323
432 323
433 323
434 323
435 323
436 323
437 323
438 322
439 322
440 322
441 322
442 322
443 322
444 322
445 322
446 322
447 322
448 321
449 321
450 321
451 321
452 321
453 321
454 320
455 320
456 320
457 320
458 319
459 319
460 319
461 319
462 319
463 319
464 318
465 318
466 318
467 318
468 318
469 318
470 318
471 317
472 317
473 317
474 317
475 317
476 317
477 317
478 316
479 316
480 316
481 316
482 316
483 316
484 315
485 315
486 315
487 315
488 315
489 314
490 314
491 314
492 314
493 314
494 313
495 313
496 313
497 313
498 313
499 312
500 312
501 312
502 312
503 312
504 312
505 311
506 311
507 311
508 311
509 311
510 311
511 311
512 310
513 310
514 310
515 310
516 310
517 310
518 309
519 309
520 309
521 309
522 309
523 309
524 308
525 308
526 308
527 308
528 308
529 307
530 307
531 307
532 306
533 306
534 306
535 306
536 306
537 305
538 305
539 305
540 305
541 304
542 304
543 304
544 303
545 303
546 303
547 303
548 303
549 303
550 302
551 302
552 302
553 302
554 302
555 301
556 301
557 301
558 301
559 301
560 300
561 300
562 300
563 300
564 299
565 299
566 299
567 299
568 298
569 298
570 298
571 298
572 297
573 297
574 297
575 297
576 296
577 296
578 296
579 296
580 295
581 295
582 295
583 295
584 295
585 294
586 294
587 294
588 294
589 294
590 293
591 293
592 293
593 293
594 293
595 292
596 292
597 292
598 291
599 291
600 291
601 291
602 291
603 290
604 290
605 290
606 290
607 289
608 289
609 289
610 288
611 288
612 288
613 288
614 287
615 287
616 287
617 286
618 286
619 286
620 285
621 285
622 285
623 284
624 284
625 284
626 283
627 283
628 283
629 282
630 282
631 282
632 282
633 281
634 281
635 280
636 280
637 279
638 279
639 278
640 278
641 278
642 278
643 279
644 279
645 279
646 280
647 280
648 281
649 281
650 282
651 282
652 283
653 283
654 284
655 284
656 285
657 285
658 286
659 287
660 287
661 287
662 287
663 287
664 287
665 287
666 287
667 287
668 287
669 287
669 286
670 285
670 284
670 283
670 282
670 281
670 280
670 279
670 278
670 277
670 276
670 275
669 274
668 273
667 273
666 273
665 272
664 272
663 272
662 271
661 271
660 271
659 270
658 270
657 270
656 270
655 269
654 269
653 268
652 268
651 268
650 267
649 267
648 267
647 266
646 266
645 265
644 265
643 264
642 264
641 263
640 263
639 262
638 262
637 261
636 261
635 260
634 260
633 259
632 258
631 258
630 257
629 257
628 257
627 256
626 256
625 256
624 255
623 255
622 255
621 254
620 254
619 253
618 253
617 253
616 252
615 252
614 252
613 251
612 251
611 251
610 250
609 250
608 250
607 249
606 249
605 249
604 248
603 248
602 248
601 247
600 247
599 247
598 246
597 246
596 246
595 246
594 246
593 245
592 245
591 245
590 244
589 244
588 244
587 244
586 243
585 243
584 243
583 243
582 242
581 242
580 241
579 241
578 241
577 241
576 241
575 241
574 240
573 240
572 240
571 240
570 240
569 239
568 239
567 239
566 239
565 239
564 239
563 238
562 238
561 237
560 237
559 237
558 237
557 237
556 237
555 236
554 236
553 236
552 236
551 235
550 235
549 235
548 235
547 234
546 234
545 234
544 234
543 234
542 234
541 234
540 233
539 233
538 233
537 232
536 232
535 232
534 232
533 232
532 232
531 231
530 231
529 231
528 231
527 231
526 231
525 231
524 230
523 230
522 230
521 230
520 229
519 229
518 229
517 229
516 229
515 229
514 228
513 228
512 228
511 228
510 228
509 228
508 228
507 227
506 227
505 227
504 227
503 227
502 227
501 226
500 226
499 226
498 226
497 226
496 226
495 225
494 225
493 225
492 225
491 225
490 225
489 225
488 224
487 224
486 224
485 224
484 224
483 224
482 224
481 223
480 223
479 223
478 223
477 223
476 223
475 223
474 222
473 222
472 222
471 222
470 222
469 221
468 221
467 221
466 221
465 220
464 220
463 220
462 220
461 220
460 220
459 220
458 220
457 219
456 219
455 219
454 219
453 219
452 219
451 219
450 219
449 218
448 218
447 218
446 218
445 218
444 218
443 218
442 218
441 218
440 218
439 217
438 217
437 217
436 217
435 217
434 217
433 217
432 217
431 216
430 216
429 216
428 216
427 216
426 215
425 215
424 215
423 215
422 215
421 215
420 215
419 214
418 214
417 214
416 214
415 214
414 214
413 214
412 214
411 214
410 214
409 214
408 214
407 214
406 214
405 214
404 214
403 214
402 214
401 214
400 213
399 213
398 213
397 213
396 213
395 213
394 213
393 213
392 213
391 213
390 213
389 213
388 213
387 213
386 213
385 213
384 213
383 213
382 213
381 213
380 213
379 213
378 213
377 213
376 213
375 213
374 213
373 213
372 213
371 213
370 213
369 213
368 213
367 213
366 213
365 213
364 213
363 213
362 213
361 213
360 213
359 213
358 213
357 214
356 214
355 214
354 214
353 214
352 214
351 214
350 214
349 214
348 214
347 214
346 214
345 215
344 215
343 215
342 215
341 215
340 215
339 215
338 215
337 215
336 215
335 215
334 215
333 215
332 215
331 216
330 216
329 216
328 216
327 216
326 216
325 216
324 216
323 216
322 216
321 216
320 216
319 216
318 216
317 216
316 216
315 216
314 216
313 217
312 217
311 217
310 217
309 217
308 217
307 217
306 217
305 217
304 217
303 217
302 217
301 217
300 217
299 217
298 217
297 217
296 217
295 217
294 217
293 217
292 217
291 217
290 217
289 217
288 217
287 217
286 216
285 216
284 216
283 216
282 216
281 216
280 216
279 216
278 216
277 216
276 216
275 216
274 216
273 217
272 217
271 217
270 217
269 217
268 217
267 217
266 217
265 217
264 217
263 217
262 218
261 218
260 218
259 218
258 218
257 218
256 218
255 218
254 218
253 218
252 218
251 219
250 219
249 219
248 219
247 219
246 220
245 220
244 220
243 220
242 221
241 221
240 221
239 221
238 221
237 222
236 222
235 222
234 222
233 222
232 222
231 223
230 223
229 223
228 223
227 223
226 223
225 224
224 224
223 224
222 224
221 224
220 224
219 224
218 225
217 225
216 225
215 225
214 225
213 226
212 226
211 226
210 227
209 227
208 227
207 227
206 228
205 228
204 228
203 229
202 229
201 229
200 230
199 230
198 231
197 231
196 231
195 232
194 232
193 233
192 233
191 233
190 233
189 234
188 234
187 235
186 235
185 235
184 236
183 237
182 237
181 238
180 238
179 239
178 239
177 240
176 240
175 240
174 241
173 241
172 241
171 241
170 242
169 242
168 243
167 244
166 244
165 245
164 246
163 246
162 247
161 247
160 248
159 248
158 249
157 249
156 249
155 250
154 250
153 250
152 251
151 251
150 251
149 252
148 252
147 253
146 253
145 254
144 254
143 255
142 256
141 257
140 258
139 259
138 260
137 261
136 261
135 262
134 262
133 263
132 264
131 264
130 265
129 265
128 266
127 266
126 267
