413 105
414 105
415 106
415 107
414 108
413 107
412 107
412 108
411 109
411 110
411 111
410 112
410 113
411 114
412 115
411 116
410 116
409 115
408 114
408 113
407 113
406 112
405 112
404 112
403 112
402 111
401 111
400 110
399 110
398 110
397 109
396 109
395 109
394 109
393 108
392 108
391 107
390 107
389 107
388 106
387 106
386 106
386 107
387 107
388 107
389 107
390 107
391 108
390 109
389 109
388 109
388 110
388 111
388 112
388 113
388 114
388 115
388 116
387 117
386 116
385 115
384 115
383 115
382 116
381 115
380 115
379 115
378 116
377 115
376 115
375 116
374 116
373 115
373 114
372 114
371 113
370 113
369 113
368 112
367 112
366 111
365 111
364 111
363 110
362 110
361 110
360 109
361 110
362 111
363 112
363 113
363 114
363 115
364 116
364 117
364 118
364 119
363 120
363 121
364 122
363 123
362 123
361 124
361 125
361 126
361 127
361 128
362 129
362 130
361 131
360 132
359 131
358 130
357 130
356 131
355 131
354 131
353 131
352 131
351 131
350 131
349 131
348 132
347 132
346 132
345 132
344 132
343 131
342 131
341 130
340 130
339 130
338 130
337 129
336 129
336 130
337 131
337 132
337 133
338 134
337 135
337 136
337 137
337 138
338 139
337 140
338 141
337 142
336 143
335 142
335 141
335 140
334 140
333 139
332 139
331 139
330 138
329 138
328 138
327 137
326 137
325 137
324 137
323 136
322 136
321 136
320 136
319 136
318 136
317 136
316 135
315 136
314 137
313 137
314 137
315 138
314 139
314 140
314 141
315 142
315 143
315 144
315 145
314 146
313 145
312 145
311 145
310 145
309 146
308 145
307 145
306 146
305 146
304 147
303 147
302 147
301 148
300 148
299 148
298 148
297 148
296 148
295 148
294 148
293 147
292 147
291 147
290 147
289 147
288 146
287 146
286 146
285 146
284 146
285 146
286 147
287 147
288 147
289 148
288 149
288 150
288 151
289 152
289 153
289 154
289 155
289 156
289 157
289 158
290 159
289 160
289 161
290 162
290 163
290 164
290 165
291 165
292 166
292 167
291 168
290 168
289 167
288 167
287 167
286 168
285 168
284 169
283 169
282 170
281 170
280 171
279 172
278 171
277 172
276 172
275 172
274 172
273 173
273 174
274 175
275 176
275 177
275 178
275 179
275 180
275 181
276 182
276 183
277 184
276 185
275 186
274 186
273 186
272 186
271 186
270 186
269 186
268 186
267 186
266 186
265 187
264 187
263 187
262 187
261 187
260 187
259 187
258 187
257 187
256 187
255 187
254 187
253 187
252 187
251 187
252 187
253 188
252 189
251 189
251 190
251 191
251 192
251 193
252 194
251 195
250 195
249 195
248 195
247 195
246 196
245 197
244 197
243 198
242 198
241 198
242 199
241 200
240 200
239 199
238 198
237 198
236 198
235 198
234 199
233 199
232 199
231 199
230 198
229 198
228 198
227 198
228 199
229 200
230 201
231 202
232 203
233 204
234 205
235 206
236 207
237 208
237 209
238 210
238 211
237 212
236 212
235 211
236 212
237 212
238 213
239 214
239 215
238 216
237 216
236 216
235 217
234 217
233 218
232 219
231 219
230 219
229 220
228 220
227 220
226 220
225 221
224 221
223 221
223 222
224 223
224 224
224 225
224 226
224 227
225 228
225 229
224 230
223 229
222 229
221 229
220 229
219 230
218 230
217 230
216 231
215 231
214 232
213 232
212 233
211 234
210 234
209 234
208 235
207 235
206 236
205 236
204 236
203 236
202 236
201 236
200 236
199 237
198 236
197 236
196 236
195 236
194 236
193 236
193 237
194 237
195 237
196 237
197 238
196 239
195 239
196 240
196 241
196 242
197 243
197 244
198 245
198 246
198 247
199 248
199 249
198 250
197 251
196 251
195 252
194 252
193 252
192 253
191 253
190 253
189 254
188 254
187 254
186 254
185 254
184 253
183 254
182 254
181 253
180 253
180 254
179 255
179 256
179 257
179 258
180 259
179 260
178 260
177 260
176 260
175 261
174 261
173 261
172 261
171 261
170 261
169 262
168 262
167 262
166 262
165 262
164 262
163 262
162 263
161 263
160 263
159 263
158 263
157 263
156 263
155 264
154 263
153 263
152 263
151 263
150 264
149 263
148 263
147 263
146 263
145 264
146 265
146 266
146 267
146 268
147 269
147 270
147 271
147 272
146 273
145 273
144 273
143 273
142 273
141 273
140 274
139 274
138 274
137 274
136 274
135 274
134 274
133 274
132 273
131 274
130 274
129 273
129 274
129 275
129 276
128 277
127 277
126 277
125 277
124 277
123 278
122 277
121 276
120 276
119 276
118 276
117 276
116 275
115 275
114 275
113 275
112 274
111 274
110 274
109 274
108 273
107 272
106 272
105 272
105 273
105 274
105 275
105 276
105 277
106 278
105 279
104 279
103 280
102 280
101 280
100 280
99 280
98 280
97 281
96 281
95 281
94 281
93 281
92 280
91 280
90 280
89 280
88 279
87 279
86 279
86 280
86 281
85 282
84 282
83 282
83 283
83 284
83 285
83 286
83 287
83 288
83 289
82 290
83 291
84 291
85 292
86 292
87 292
88 292
89 293
90 293
91 293
92 294
93 294
94 294
95 294
96 295
97 295
98 296
99 296
100 296
101 297
102 297
103 298
102 299
102 300
103 300
104 300
105 300
106 301
105 302
106 302
107 302
108 303
109 304
110 304
111 304
112 304
113 304
114 304
115 304
116 304
117 304
118 304
119 304
120 304
121 304
122 304
123 304
124 304
125 304
126 304
127 304
128 305
129 305
130 305
131 305
132 305
133 306
134 306
135 306
136 306
137 307
138 307
139 307
140 308
141 307
142 308
142 309
143 309
144 310
143 311
143 312
142 313
141 314
141 315
141 316
141 317
142 317
143 316
144 316
145 316
146 316
147 316
148 316
149 316
150 317
150 318
150 319
151 318
152 319
153 319
154 318
155 319
156 319
157 319
158 319
159 319
160 319
161 319
162 319
163 319
164 319
165 319
166 320
167 320
168 319
169 320
170 320
171 321
171 322
170 323
171 324
172 324
173 325
174 325
175 325
176 326
177 326
178 326
179 327
179 328
180 328
181 329
182 329
183 330
182 331
182 332
182 333
181 334
181 335
180 336
179 337
178 338
177 338
176 339
175 339
176 339
177 339
178 339
179 339
180 339
181 340
180 341
179 341
180 342
181 342
182 342
183 343
183 344
182 345
181 345
182 345
183 345
184 345
185 346
186 346
187 346
188 346
189 347
190 347
191 347
192 348
193 348
194 349
193 350
194 351
195 351
196 351
197 351
198 351
199 351
200 351
201 352
201 353
202 353
203 353
204 353
205 354
206 354
207 354
208 354
209 355
210 355
211 356
212 355
213 356
214 357
213 358
214 359
213 360
213 361
213 362
214 363
215 363
216 363
217 363
218 364
219 364
220 365
221 366
222 367
223 367
224 367
225 368
226 369
227 369
228 370
229 370
230 371
229 372
228 372
227 372
227 373
228 374
227 375
227 376
226 377
226 378
225 379
225 380
224 381
223 382
222 383
221 384
220 384
220 385
221 385
222 386
222 387
223 387
224 387
225 388
226 388
227 388
228 388
229 389
228 390
227 390
226 390
227 390
228 391
229 392
230 391
231 391
232 392
233 392
234 392
235 392
236 392
237 392
238 393
238 394
239 394
240 394
241 395
242 395
243 396
244 395
245 396
245 397
244 398
243 399
243 400
244 400
245 401
246 401
247 401
248 400
249 401
250 401
251 402
252 403
253 403
254 403
255 403
256 403
257 403
258 404
259 404
260 404
261 404
262 404
263 404
264 404
265 404
266 405
267 406
266 407
266 408
265 409
264 410
264 411
264 412
265 412
266 412
267 412
268 413
269 413
270 413
271 413
272 414
273 414
274 415
274 416
275 416
276 416
277 416
278 417
279 417
280 418
281 418
282 419
283 420
284 421
284 422
284 423
284 424
284 425
284 426
285 427
285 428
285 429
284 430
284 431
284 432
283 433
283 434
282 435
281 436
280 436
279 437
278 437
279 437
280 437
281 436
282 436
283 436
284 436
285 436
286 436
287 436
288 437
287 438
286 438
285 439
284 439
283 439
284 439
285 439
286 438
287 438
288 439
289 438
290 438
291 438
292 438
293 438
294 439
295 439
296 438
297 439
297 440
296 441
296 442
297 442
298 442
299 442
300 442
301 441
302 441
303 441
304 442
305 442
306 442
307 441
308 442
309 442
310 441
311 441
312 442
312 443
312 444
311 445
311 446
311 447
312 447
313 447
314 447
315 446
316 447
317 447
318 447
319 447
320 447
321 447
322 447
323 447
324 447
325 447
326 447
327 447
328 447
329 446
330 447
331 447
332 447
333 447
334 447
335 447
336 447
337 447
338 447
339 447
340 448
340 449
340 450
340 451
340 452
339 453
339 454
340 455
341 454
342 454
343 454
344 454
345 453
346 454
346 455
347 455
348 454
349 455
350 455
351 455
352 454
353 455
354 455
355 456
356 455
357 456
358 456
359 457
359 458
359 459
360 460
360 461
361 462
361 463
361 464
361 465
361 466
361 467
361 468
361 469
360 470
360 471
359 472
360 472
361 473
360 474
361 473
362 473
363 472
364 472
365 473
366 472
367 472
368 472
369 472
370 472
371 472
372 471
373 471
374 472
373 473
374 473
375 473
376 473
377 473
378 473
379 472
380 472
381 472
382 472
383 472
384 472
385 472
386 473
387 474
387 475
387 476
388 476
389 476
390 477
391 476
392 476
393 476
394 476
395 476
396 475
397 475
398 474
399 474
400 473
401 473
402 472
403 472
404 473
405 473
406 473
407 473
408 474
408 475
408 476
407 477
407 478
408 479
409 479
410 479
411 478
412 478
412 477
413 476
414 477
415 476
416 475
417 475
418 474
419 473
420 472
421 472
422 471
423 470
424 470
425 470
426 469
427 468
428 468
429 468
430 468
431 467
432 467
433 467
434 467
435 467
436 468
436 469
437 470
437 471
436 472
436 473
437 474
438 474
439 473
440 473
441 472
442 472
443 471
444 470
445 469
446 468
447 467
448 466
449 465
450 465
451 464
452 463
453 463
454 462
455 461
456 460
457 460
458 459
459 458
460 457
461 457
462 456
463 456
464 455
465 455
466 454
467 454
468 454
469 454
470 453
471 453
472 454
471 455
472 456
473 457
473 458
474 458
475 457
476 456
477 455
476 455
475 455
474 454
474 453
475 452
476 452
477 453
478 452
479 451
479 450
480 449
481 449
482 448
483 447
483 446
482 445
483 444
484 444
485 443
485 442
486 441
486 440
487 439
488 438
489 437
489 436
490 435
490 434
491 433
492 432
493 431
494 430
495 429
495 428
496 427
495 426
495 425
496 424
497 425
498 425
499 424
499 423
500 422
500 421
501 420
501 419
501 418
502 417
502 416
503 415
503 414
504 413
504 412
505 411
506 410
506 409
507 408
507 407
508 406
508 405
509 404
510 403
510 402
511 401
511 400
512 399
512 398
513 397
513 396
514 395
515 394
515 393
516 392
517 391
518 390
518 389
519 388
520 387
520 386
520 385
521 384
521 383
522 382
523 381
524 380
523 379
524 378
525 377
525 376
526 375
527 374
527 373
528 372
528 371
529 370
530 369
531 368
531 367
532 366
532 365
533 364
534 363
534 362
535 361
535 360
535 359
536 358
536 357
537 356
538 355
538 354
539 353
540 352
541 351
541 350
542 349
543 348
543 347
544 346
543 346
542 345
543 344
544 344
545 344
545 343
544 343
543 342
543 341
542 340
542 339
542 338
543 337
543 336
543 335
544 334
545 334
546 333
547 333
548 333
548 332
549 331
550 331
551 331
552 330
553 329
553 328
553 327
552 327
551 326
552 325
552 324
553 323
553 322
554 321
554 320
554 319
555 318
556 317
557 317
558 316
558 315
559 314
560 314
561 314
562 313
563 312
564 311
565 310
566 310
567 310
566 309
567 308
568 307
569 307
570 307
570 306
569 306
568 305
569 304
570 304
571 304
572 303
573 302
574 302
574 301
575 300
576 300
576 299
577 298
578 297
579 297
580 297
581 296
582 296
583 295
584 295
585 294
586 294
587 294
588 294
589 294
590 293
591 293
592 293
593 293
594 293
595 293
596 293
597 293
598 293
599 293
600 292
601 293
602 293
603 292
604 292
605 292
606 292
607 292
608 292
609 292
610 292
611 292
612 292
613 292
614 292
615 292
616 292
617 292
618 292
619 292
620 291
621 291
622 291
623 291
624 291
625 291
626 290
627 291
628 291
629 291
630 290
631 291
632 290
633 290
634 290
635 290
636 290
637 290
638 290
639 290
640 290
641 290
642 289
643 289
644 289
645 289
646 289
647 289
648 289
649 289
650 289
651 289
652 289
653 289
654 289
655 288
656 288
657 288
658 288
659 288
660 288
661 288
662 287
663 288
664 288
665 287
666 287
667 287
668 287
669 287
670 287
671 287
672 286
673 286
674 287
675 286
676 286
677 286
678 286
679 286
680 285
681 285
682 285
683 285
684 284
685 284
686 284
687 284
688 284
689 284
690 284
691 284
692 284
693 283
694 283
695 283
696 282
697 282
698 282
699 282
700 281
701 281
702 281
703 281
704 280
705 280
706 279
707 279
708 279
709 279
710 278
711 278
712 278
713 277
714 277
715 277
716 277
717 276
718 276
719 275
720 274
721 274
722 274
723 273
724 272
725 272
726 272
727 271
728 271
729 271
730 270
731 269
732 269
733 268
734 268
735 267
736 267
737 267
738 266
739 266
740 265
741 264
742 263
743 263
744 263
745 262
746 262
747 261
748 260
749 259
750 258
751 258
752 257
753 256
754 256
755 255
756 254
757 253
758 253
759 252
758 251
757 250
757 249
756 248
756 247
755 247
754 248
753 248
754 249
753 250
752 251
751 251
750 252
749 252
748 252
747 253
746 253
746 254
745 255
744 255
743 254
744 255
744 256
743 257
742 258
741 259
741 260
740 261
739 261
738 262
737 262
736 262
735 262
734 263
733 263
734 263
735 264
734 265
733 265
732 265
731 265
730 264
730 263
730 264
731 265
730 266
729 267
728 267
727 267
726 267
725 267
724 268
723 268
722 268
721 268
720 269
719 269
718 269
717 269
716 269
715 269
714 270
713 270
712 270
711 271
710 271
711 271
712 271
713 272
713 273
712 274
711 274
710 274
709 274
708 274
707 275
706 275
705 275
704 275
703 275
702 275
701 276
700 276
699 276
698 277
697 277
696 277
695 277
694 277
693 277
692 278
691 278
690 278
689 278
688 278
689 278
690 278
691 278
692 278
693 278
694 279
694 280
693 281
692 280
691 280
690 280
689 280
688 280
687 280
686 281
685 281
684 280
683 281
682 281
681 280
680 281
679 282
678 282
677 282
676 282
675 282
674 282
673 282
672 282
671 282
670 282
669 282
668 282
667 282
666 282
665 282
664 282
663 283
662 283
661 283
660 284
659 284
658 284
657 284
656 283
655 284
654 284
653 284
652 284
651 283
650 284
649 283
648 283
647 284
646 284
645 284
644 284
643 284
642 284
641 284
640 284
640 285
639 286
638 285
637 286
636 285
635 285
634 285
633 285
632 285
631 285
630 286
629 286
628 286
627 286
626 286
625 286
624 286
623 287
622 286
621 286
620 286
619 286
618 287
617 287
616 287
615 286
614 286
613 287
612 287
611 286
612 285
613 284
614 284
615 284
616 284
617 284
618 284
619 284
618 284
617 284
616 284
615 284
614 284
613 284
612 284
611 284
610 284
609 284
608 284
607 284
606 284
605 284
604 284
603 284
602 284
601 284
600 284
599 284
598 284
598 285
597 286
596 286
595 286
594 286
593 286
592 286
591 286
590 286
589 286
588 285
589 284
588 284
587 284
586 283
585 283
584 283
583 282
582 282
581 283
580 282
579 282
578 281
577 280
576 280
575 279
575 278
574 277
573 277
572 276
572 275
572 274
572 273
571 273
570 272
570 271
569 270
569 269
568 269
567 268
567 267
566 267
565 266
565 265
565 264
564 263
563 262
562 261
562 260
561 259
560 258
559 257
559 256
558 255
557 254
556 253
556 252
555 251
554 250
554 249
553 248
552 247
551 246
551 245
550 244
549 243
548 242
547 241
547 240
546 239
546 238
545 237
544 236
544 235
543 234
542 233
542 232
541 231
540 230
540 229
539 228
538 227
537 226
536 225
536 224
535 223
534 222
534 221
533 220
532 219
532 218
531 217
530 216
529 215
528 214
527 213
527 212
526 211
526 210
525 209
524 208
523 207
522 206
522 205
521 204
520 203
519 202
519 201
518 200
517 199
516 198
516 197
515 196
514 195
514 194
513 194
512 193
512 192
511 191
511 190
510 189
509 188
509 187
508 186
507 185
506 184
506 183
505 182
505 181
504 180
503 179
503 178
502 177
501 176
500 175
499 174
500 173
499 172
499 171
498 170
497 169
497 168
496 167
496 166
495 165
494 164
494 163
493 162
493 161
492 160
492 159
492 158
491 157
490 156
490 155
490 154
489 153
488 152
487 151
487 150
486 149
486 148
485 147
484 146
483 145
483 144
482 144
481 143
482 142
482 141
481 142
480 143
479 144
478 143
478 142
479 141
480 140
481 139
480 138
480 137
480 136
479 135
479 134
479 133
478 133
477 132
476 133
476 134
476 135
475 136
474 137
474 138
474 139
473 140
472 140
471 140
470 141
469 140
468 139
469 138
470 138
471 138
470 137
469 136
468 136
467 135
466 134
465 133
464 133
463 132
462 131
461 130
460 130
459 129
458 130
457 129
457 128
457 127
456 127
457 128
457 129
457 130
457 131
457 132
458 133
458 134
459 134
460 135
459 136
458 136
458 137
458 138
458 139
458 140
459 141
459 142
459 143
458 144
457 143
456 144
455 145
454 146
453 146
454 147
453 148
452 149
451 148
451 147
450 147
449 146
449 145
448 144
447 143
447 142
447 141
446 141
445 140
444 139
444 138
443 138
442 139
441 138
441 137
441 136
442 135
442 134
441 133
441 132
441 131
440 130
440 129
439 129
438 128
439 127
439 126
438 125
439 124
438 123
438 122
437 122
436 121
435 120
434 120
433 119
432 118
431 118
430 117
429 116
428 115
427 114
426 113
425 113
424 112
423 112
422 111
421 110
420 109
419 108
418 108
417 107
416 106
415 106
414 105
413 105
