301 69
300 70
299 70
299 71
298 72
297 72
296 73
295 73
294 73
293 74
292 74
291 73
290 73
289 74
288 74
287 73
286 73
285 72
284 72
283 72
282 71
281 71
280 71
279 71
278 71
277 72
276 73
275 74
275 75
274 76
274 77
273 78
272 79
271 79
270 79
269 79
268 79
267 80
266 80
265 81
264 81
263 81
262 81
261 81
260 81
259 81
258 81
257 80
256 80
255 80
254 80
253 81
252 81
251 81
250 82
250 83
250 84
250 85
250 86
249 87
248 87
247 87
246 88
245 89
244 89
243 89
242 89
241 89
240 89
239 89
238 89
237 90
236 90
235 90
234 90
233 91
232 91
231 92
231 93
230 94
230 95
230 96
230 97
229 98
228 98
228 99
227 100
226 100
225 100
224 100
223 100
222 101
221 101
220 101
219 101
218 101
217 101
216 102
215 102
214 103
213 104
213 105
212 106
212 107
212 108
213 109
212 110
212 111
212 112
211 113
211 114
210 115
209 115
208 115
207 115
206 115
205 115
204 115
203 115
202 115
201 115
200 115
199 116
198 116
197 116
196 116
195 117
194 117
194 118
193 119
193 120
193 121
192 122
192 123
192 124
191 125
190 125
189 126
188 126
187 126
186 126
185 126
184 127
183 128
182 128
181 128
180 128
179 128
178 128
177 127
176 128
175 128
174 129
174 130
174 131
174 132
174 133
174 134
173 135
173 136
173 137
173 138
173 139
173 140
172 141
171 141
170 141
169 142
168 142
167 142
166 142
165 142
164 142
163 142
162 142
161 142
160 141
159 141
158 140
157 140
156 140
155 141
154 142
153 143
152 144
152 145
151 146
150 146
149 147
149 148
149 149
148 150
147 150
146 150
145 151
144 152
143 152
142 152
141 153
140 153
139 153
138 154
137 154
136 154
135 154
134 155
133 155
132 156
131 157
130 158
130 159
129 160
128 161
127 162
126 163
125 163
124 164
123 164
122 165
121 166
120 166
119 167
118 167
117 168
116 168
115 168
114 168
113 168
112 169
111 169
110 169
109 170
108 170
107 171
107 172
107 173
106 174
105 174
104 175
103 176
102 176
101 176
100 176
99 176
98 177
97 178
96 178
95 178
94 178
94 179
93 180
92 181
91 182
90 183
89 183
88 183
87 183
86 183
85 184
84 184
83 184
82 185
81 185
80 186
79 187
78 187
77 188
76 189
75 190
74 190
73 191
72 192
71 193
70 193
70 194
69 195
69 196
69 197
68 198
68 199
67 200
67 201
67 202
68 203
68 204
69 205
69 206
69 207
70 208
71 209
71 210
72 211
72 212
73 213
74 214
75 215
76 216
77 217
78 218
79 219
80 219
81 220
82 220
83 221
83 222
83 223
83 224
84 225
85 226
86 227
86 228
86 229
87 230
88 231
89 231
90 232
91 233
92 233
93 234
94 235
94 236
95 236
96 237
97 237
98 238
97 239
96 239
97 240
97 241
98 242
99 243
100 244
101 245
102 246
103 247
104 247
105 248
106 248
107 248
108 249
109 250
110 250
111 251
111 252
112 252
113 253
114 253
115 254
115 255
115 256
115 257
116 258
117 259
118 260
119 261
120 261
121 262
122 262
123 262
124 263
125 264
124 265
124 266
125 266
126 267
126 268
125 269
125 270
126 271
126 272
127 273
128 274
129 275
130 275
131 276
132 276
133 277
134 278
135 279
135 280
136 281
137 282
136 283
136 284
136 285
136 286
137 287
137 288
138 288
139 289
140 289
141 290
142 290
143 291
144 291
145 291
146 291
147 292
148 292
149 293
150 293
151 293
152 294
152 295
152 296
153 297
153 298
154 299
155 300
156 300
157 301
158 301
159 302
160 303
159 304
160 305
160 306
160 307
160 308
160 309
161 310
162 311
163 312
164 312
165 312
166 313
167 313
168 313
169 313
170 313
171 314
172 314
173 314
174 315
175 315
176 315
177 316
178 317
179 317
180 318
181 319
181 320
181 321
182 321
183 322
182 323
182 324
182 325
182 326
182 327
183 328
183 329
184 330
185 331
186 332
187 333
188 333
189 333
190 334
191 335
192 335
193 336
194 336
195 336
196 337
197 338
198 339
198 340
199 340
200 341
201 342
201 343
201 344
201 345
201 346
202 347
203 348
204 349
205 349
206 349
207 350
208 350
209 350
210 350
211 350
212 351
213 351
214 351
215 352
216 353
217 354
218 355
218 356
218 357
218 358
219 359
220 360
221 361
222 361
223 361
224 362
225 362
226 362
227 362
228 363
229 363
230 364
231 364
232 365
233 365
234 366
233 367
233 368
234 369
235 370
234 371
235 372
236 373
237 373
238 374
239 374
240 374
241 375
242 375
243 375
244 375
245 376
246 376
247 376
248 376
249 376
250 376
251 376
252 376
253 376
254 376
255 377
256 377
257 378
258 379
258 380
258 381
259 382
259 383
260 383
261 384
262 384
263 384
264 384
265 384
266 384
267 384
268 384
269 384
270 384
271 383
272 383
273 383
274 383
275 383
276 383
277 384
278 384
279 384
280 384
281 385
282 385
283 385
284 385
285 385
286 385
287 385
288 385
289 386
290 386
291 386
292 387
292 388
293 388
294 389
295 390
296 390
297 391
298 391
299 391
300 391
301 391
302 391
303 391
304 390
305 390
306 390
307 390
308 389
309 389
310 389
311 388
312 388
313 388
314 388
315 388
316 388
317 388
318 388
319 388
320 389
321 390
322 391
323 391
324 391
325 391
326 391
327 391
328 391
329 391
330 390
331 390
332 389
333 388
334 388
335 387
336 387
337 386
338 386
339 386
340 386
341 385
342 385
343 385
344 384
345 383
346 383
347 383
348 383
349 382
350 381
351 382
351 383
352 384
351 383
352 382
353 382
354 382
355 383
356 383
357 382
358 381
359 381
359 380
360 379
361 379
361 378
362 377
363 376
364 376
365 376
366 375
367 375
368 375
369 375
370 374
371 374
372 374
373 373
374 373
375 372
376 371
377 371
378 371
379 371
380 371
381 371
382 370
383 369
384 369
385 369
386 369
387 368
388 368
389 367
390 366
391 365
391 364
392 363
393 363
394 363
395 363
396 363
397 363
398 363
399 363
400 363
401 364
402 365
403 365
404 365
405 365
406 365
407 365
408 364
409 363
410 363
411 362
412 361
413 360
414 359
415 358
416 358
417 357
418 356
419 356
420 356
421 356
422 356
423 355
424 356
425 356
426 356
427 356
428 356
429 355
430 355
431 355
432 355
433 355
434 355
435 355
436 355
437 355
438 355
439 355
440 355
441 355
442 355
443 355
444 354
445 354
446 354
447 354
448 354
449 354
450 353
451 352
452 352
453 351
454 350
455 349
456 348
457 347
457 346
458 345
458 344
459 343
460 342
461 341
461 340
461 339
462 338
463 337
463 336
464 335
464 334
465 333
466 333
467 333
468 332
469 331
470 330
471 329
472 328
473 327
474 326
475 325
475 324
476 323
477 322
477 321
478 320
478 319
479 318
479 317
480 316
480 315
481 314
482 313
482 312
482 311
483 310
484 309
485 310
485 311
486 311
487 310
488 309
489 308
490 308
491 307
492 306
492 305
493 304
493 303
493 302
493 301
493 300
493 299
494 298
494 297
494 296
494 295
494 294
494 293
495 292
495 291
495 290
495 289
496 288
496 287
496 286
496 285
497 284
497 283
497 282
497 281
497 280
498 279
498 278
498 277
499 276
499 275
499 274
499 273
500 272
500 271
500 270
500 269
500 268
501 267
501 266
502 265
502 264
502 263
502 262
503 261
503 260
504 259
503 258
504 257
505 256
505 255
505 254
506 253
506 252
506 251
507 250
507 249
508 248
508 247
507 246
508 245
509 245
509 244
509 243
510 242
511 243
511 242
512 241
513 241
514 241
515 240
516 240
517 240
518 241
519 240
520 239
521 239
522 239
523 239
524 238
525 238
526 237
527 237
528 237
529 237
530 237
531 237
532 236
533 236
534 237
535 237
536 236
537 237
538 237
539 237
540 237
541 237
542 237
543 237
544 237
545 237
546 237
547 237
548 237
549 237
550 237
551 237
552 237
553 237
554 237
555 237
556 237
557 238
558 238
559 238
560 238
561 238
562 238
563 238
564 239
565 238
566 238
567 239
568 239
569 239
570 239
571 239
572 239
573 239
574 239
575 239
576 239
577 240
578 239
579 240
580 240
581 240
582 240
583 240
584 241
585 241
586 241
587 241
588 241
589 241
590 242
591 242
592 242
593 242
594 242
595 242
596 242
597 243
598 243
599 243
600 243
601 243
602 244
603 244
604 244
605 244
606 244
607 244
608 245
609 244
610 244
611 245
612 245
613 246
614 246
615 246
616 246
617 246
618 247
619 247
620 247
621 247
622 247
623 248
624 248
625 248
626 248
627 248
628 248
629 248
630 249
631 249
632 249
633 250
634 250
635 250
636 250
637 250
638 250
639 251
640 251
641 251
642 251
643 251
644 252
645 252
646 252
647 252
648 252
649 253
650 253
651 253
652 253
653 253
654 253
655 254
656 254
657 254
658 254
659 254
660 254
661 255
662 255
663 255
664 255
665 255
666 255
667 256
668 256
669 256
670 257
671 257
672 256
673 256
674 257
675 256
676 256
677 256
678 257
679 256
680 256
681 256
682 256
683 256
684 256
685 255
686 255
687 254
688 254
689 255
690 254
691 254
692 254
693 253
694 253
695 253
696 253
697 253
698 253
699 253
700 253
701 253
702 252
703 251
704 250
705 249
704 249
703 249
702 249
701 248
701 247
701 246
700 246
699 245
699 244
700 243
700 242
700 241
699 240
699 241
698 242
698 243
698 244
697 245
696 245
695 244
695 243
696 242
696 241
695 242
694 241
694 240
695 239
696 239
696 238
695 238
694 239
693 240
692 240
691 241
690 242
689 242
688 242
688 243
688 244
687 245
686 245
685 245
684 245
683 245
682 246
681 246
680 246
679 246
678 245
677 245
676 245
675 245
674 245
673 245
672 245
671 245
670 244
670 243
669 243
668 243
667 243
666 243
665 243
664 243
663 242
662 242
661 242
660 243
659 243
658 242
657 241
656 241
655 241
654 240
653 240
652 240
651 240
651 241
650 242
649 242
648 241
648 240
647 240
646 240
645 241
644 240
643 240
642 240
641 240
640 239
640 238
639 238
638 239
637 240
636 239
635 239
634 238
633 238
632 237
631 237
630 237
629 237
628 237
627 237
626 237
625 236
624 236
623 236
622 236
621 235
620 235
619 235
618 236
617 236
616 235
615 235
614 234
613 234
612 234
611 234
610 234
609 233
608 233
607 233
606 234
605 234
604 233
603 233
602 232
601 232
600 233
599 232
599 231
598 231
597 231
596 230
595 230
594 230
593 230
592 230
591 230
590 230
589 229
588 229
587 229
586 229
585 229
584 229
583 228
582 228
581 228
580 228
579 227
578 227
577 228
576 227
575 227
574 227
573 227
572 227
571 226
570 226
569 226
568 225
567 225
566 225
565 225
564 225
563 225
562 225
561 225
560 225
559 225
558 225
557 224
556 224
555 224
554 224
553 224
552 224
551 224
550 224
549 224
548 224
547 224
546 224
545 223
544 223
543 223
542 223
541 223
540 223
539 223
538 223
537 223
536 223
535 223
534 223
533 222
532 222
531 222
530 222
529 222
528 222
527 222
526 222
525 222
524 221
523 221
522 221
521 220
520 220
519 220
518 219
517 219
516 218
515 217
514 216
513 215
512 214
512 213
512 212
511 212
510 211
511 210
511 209
510 208
509 207
510 206
509 205
508 204
508 203
507 202
507 201
507 200
507 199
506 198
506 197
506 196
506 195
505 194
505 193
505 192
505 191
504 190
504 189
504 188
503 187
503 186
502 185
502 184
502 183
501 182
501 181
501 180
500 179
500 178
500 177
500 176
499 175
499 174
499 173
499 172
499 171
499 170
499 169
499 168
499 167
499 166
498 165
498 164
497 164
496 165
495 166
494 165
494 164
494 163
494 162
494 161
494 160
493 159
493 158
493 157
492 156
492 155
492 154
492 153
492 152
491 151
491 150
491 149
491 148
490 147
490 146
490 145
489 144
489 143
489 142
489 141
489 140
489 139
488 138
488 137
487 136
487 135
487 134
487 133
486 132
486 131
485 130
485 129
484 128
484 127
483 126
482 126
481 125
482 124
483 123
482 123
481 122
480 121
480 120
479 119
479 118
479 117
479 116
479 115
478 114
479 113
478 112
478 111
477 110
476 109
477 108
476 107
475 107
474 106
474 105
473 104
472 104
471 104
470 104
469 105
468 105
467 104
466 104
465 104
464 104
463 103
463 102
462 101
461 100
460 99
459 98
458 97
457 96
456 96
455 95
455 94
454 94
453 93
452 93
451 92
451 91
451 90
451 89
450 88
449 87
449 86
448 85
447 84
446 83
445 83
444 82
443 82
442 82
441 82
440 82
439 83
438 83
437 84
436 84
435 84
434 84
433 84
432 84
431 83
430 82
429 81
428 81
427 80
426 80
425 80
424 79
423 79
422 79
421 79
420 79
419 78
418 78
417 78
416 77
416 76
415 75
414 74
413 73
412 72
411 72
410 71
409 71
408 71
407 71
406 70
405 71
404 71
403 71
402 71
401 72
401 73
401 74
401 75
401 76
401 77
400 78
399 78
398 79
397 80
396 81
395 81
394 81
393 82
392 81
391 81
390 81
389 80
388 79
387 79
386 78
385 78
384 78
383 78
382 79
381 79
380 79
379 79
378 79
377 79
376 78
375 77
375 76
374 76
373 75
372 74
371 74
370 73
369 72
368 72
367 72
366 72
365 73
364 74
363 75
362 76
362 77
361 78
360 79
359 78
359 79
360 79
361 80
360 81
359 81
358 81
357 81
356 80
355 80
354 79
353 79
352 79
351 79
350 79
349 79
348 80
347 81
346 81
345 80
344 80
343 79
343 78
342 77
342 76
341 76
340 75
339 74
339 73
338 72
337 72
336 71
335 71
334 70
333 70
332 70
331 69
330 69
329 69
328 69
327 69
326 70
325 71
325 72
324 73
323 73
322 73
321 73
321 74
320 75
319 75
318 74
317 74
316 74
315 73
314 73
313 74
312 74
311 73
311 72
310 72
309 71
308 71
307 70
306 70
305 70
304 69
303 69
302 69
301 69
