319 57
318 58
317 58
316 58
315 59
314 59
313 59
312 60
311 60
310 60
309 61
308 61
307 61
306 61
305 61
304 61
303 61
302 61
301 61
300 61
299 61
298 61
297 61
296 60
295 60
294 60
293 60
292 60
291 59
290 60
289 59
288 59
287 59
286 59
285 59
284 59
283 60
282 60
281 60
281 61
281 62
280 63
279 64
278 65
277 66
276 66
275 66
274 66
273 66
272 65
271 65
270 64
269 64
268 64
267 63
266 63
265 63
264 63
263 63
262 64
261 64
260 65
260 66
259 67
258 68
257 69
256 70
255 70
254 70
253 69
252 69
251 69
250 69
249 69
248 68
247 68
246 68
245 68
244 69
243 70
242 70
241 71
240 71
239 72
238 72
237 72
236 72
235 72
234 71
233 71
232 70
231 70
230 70
229 70
228 70
227 70
226 71
225 72
224 73
223 74
222 74
221 75
220 75
219 75
218 75
217 74
216 74
215 74
214 74
213 74
212 74
211 74
210 73
209 73
208 73
207 73
206 73
205 73
204 73
203 73
202 73
201 73
200 73
199 74
198 74
197 74
196 74
195 74
194 74
193 74
192 75
191 75
190 75
189 76
188 76
188 77
187 78
186 79
185 80
184 80
183 81
182 81
181 81
180 81
179 81
178 82
177 82
176 81
175 82
174 82
173 82
172 83
171 83
170 83
169 84
168 84
167 84
166 84
165 84
164 84
163 85
162 85
162 86
162 87
162 88
161 89
160 90
159 91
158 91
157 91
156 91
155 91
154 91
153 91
152 91
151 92
150 92
149 93
148 94
147 94
146 95
145 95
144 96
144 97
143 98
142 98
141 99
140 99
140 100
141 101
140 102
140 103
140 104
139 105
138 106
137 106
136 107
135 107
134 107
133 107
132 108
131 109
130 110
130 111
130 112
129 113
128 113
128 114
127 115
126 116
125 116
124 116
123 116
122 117
121 117
120 117
119 117
118 117
117 118
116 118
115 118
114 119
113 119
112 120
111 121
110 122
109 122
108 123
107 124
106 124
106 125
105 126
104 127
103 127
102 127
101 128
100 128
99 129
98 129
97 130
96 131
97 132
96 133
96 134
95 135
94 135
93 136
92 136
91 136
90 137
89 137
89 138
88 139
87 140
86 140
85 140
84 141
83 141
82 142
81 142
80 143
79 144
78 145
77 145
76 146
75 147
74 147
73 148
72 149
71 149
70 149
70 150
69 151
68 151
67 151
66 152
65 152
64 153
63 153
62 154
61 154
60 155
59 155
58 156
57 156
56 156
55 157
54 157
53 157
52 158
51 158
50 158
49 158
48 158
48 159
49 160
49 161
50 162
51 163
52 164
52 165
53 166
54 167
54 168
55 169
55 170
56 171
57 172
57 173
58 174
58 175
59 176
60 177
60 178
60 179
61 180
62 181
62 182
63 183
64 184
65 185
66 186
66 187
66 188
66 189
66 190
67 191
68 192
69 193
70 194
70 195
70 196
71 197
72 198
73 199
74 200
75 201
76 202
77 203
77 204
78 205
79 206
80 207
81 208
81 209
82 210
82 211
83 212
84 213
84 214
85 214
86 215
86 216
87 217
87 218
87 219
88 220
89 221
90 222
91 222
92 223
93 224
94 224
95 225
96 226
95 227
95 228
96 229
97 230
98 231
98 232
99 232
100 233
101 234
102 234
103 235
104 236
105 237
106 238
107 239
107 240
107 241
107 242
108 243
109 244
110 245
111 246
112 246
113 247
114 247
115 248
115 249
116 249
117 250
118 251
119 251
120 252
121 253
121 254
122 255
123 256
124 257
124 258
124 259
125 260
126 261
127 262
128 263
128 264
129 265
130 265
131 266
132 267
133 267
134 268
135 268
136 269
137 269
138 270
139 270
140 270
141 270
142 270
143 270
144 270
145 271
146 272
147 273
148 274
149 275
149 276
150 276
151 277
152 278
153 278
154 279
155 280
156 281
157 282
158 282
159 283
160 283
161 283
162 283
163 284
162 285
163 285
164 285
165 286
166 286
167 287
168 286
169 287
170 288
171 288
172 289
173 289
174 290
175 290
176 290
177 291
178 291
179 291
180 292
181 292
182 292
183 293
184 293
185 294
186 295
186 296
187 297
188 298
189 299
190 299
191 300
192 300
193 301
194 302
195 302
196 302
197 303
198 304
199 304
200 304
201 304
202 304
203 304
204 304
205 305
206 305
207 305
208 305
209 305
210 305
211 306
212 306
213 306
214 306
215 306
216 306
217 306
218 307
219 307
220 307
221 308
222 308
223 309
223 310
224 311
225 311
226 312
227 312
228 313
229 313
230 314
231 314
232 315
233 315
234 315
235 316
236 316
237 316
238 317
239 317
240 317
241 317
242 317
243 317
244 317
245 317
246 317
247 317
248 317
249 317
250 317
251 317
252 317
253 317
254 317
255 316
256 316
257 316
258 316
259 316
260 316
261 316
262 316
263 316
264 316
265 316
266 316
267 316
268 316
269 316
270 316
271 316
272 316
273 317
274 317
275 317
276 318
277 318
278 318
279 318
280 318
281 318
282 319
283 319
284 319
285 320
286 320
287 320
288 320
289 320
290 320
291 319
292 320
293 320
294 319
295 319
296 318
297 318
298 317
299 317
300 316
301 315
302 315
303 314
304 314
305 314
306 315
307 315
308 316
309 317
310 317
311 318
312 319
313 319
314 320
315 320
316 320
317 320
318 320
319 320
320 320
321 320
322 320
323 320
324 320
325 320
326 320
327 320
328 320
329 319
330 319
331 319
332 318
333 318
334 317
335 317
336 317
337 317
338 317
339 316
340 316
341 316
342 316
343 316
344 316
345 316
346 316
347 316
348 316
349 316
350 316
351 316
352 317
353 317
354 317
355 317
356 317
357 317
358 317
359 317
360 317
361 316
362 316
363 316
364 316
365 316
366 316
367 316
368 316
369 316
370 316
371 316
372 316
373 316
374 317
375 317
376 317
377 316
378 316
379 316
380 316
381 316
382 315
383 315
384 315
385 315
386 315
387 315
388 314
389 314
390 314
391 313
392 313
393 313
394 313
395 312
396 313
397 313
398 313
399 313
400 313
401 313
402 313
403 313
404 313
405 313
406 313
407 313
408 313
409 313
410 312
411 312
412 312
412 311
413 310
414 310
415 309
416 310
416 309
417 308
418 308
419 307
420 307
421 307
422 306
423 306
424 305
425 305
426 305
427 304
428 304
429 304
430 303
431 303
432 303
433 303
434 303
435 303
436 303
437 303
438 303
439 303
440 303
441 303
442 303
443 303
444 302
445 302
446 302
447 302
448 301
449 300
450 300
451 300
452 299
453 298
454 298
455 297
456 297
457 297
458 297
459 297
460 297
461 297
462 297
463 297
464 297
465 297
466 297
467 296
468 296
469 296
470 296
471 295
472 295
473 294
474 294
475 294
476 293
477 293
478 292
479 292
480 291
481 291
482 291
483 291
484 290
485 290
486 290
487 289
488 289
489 289
490 288
491 288
491 287
492 286
493 287
494 287
495 286
496 286
497 286
496 285
497 284
498 284
499 284
500 284
501 283
502 283
503 283
504 282
505 282
506 281
507 280
508 280
509 280
509 279
510 278
511 278
512 277
513 277
514 276
515 275
516 275
517 274
518 275
519 275
518 275
517 274
518 273
519 273
520 273
521 273
522 272
523 272
524 271
525 271
526 271
527 270
528 270
529 269
530 268
531 268
532 268
533 267
534 267
535 267
536 266
537 266
538 265
539 265
540 264
541 264
542 264
543 263
544 264
545 263
546 262
547 262
548 261
549 261
550 261
550 260
551 259
552 260
553 259
554 258
555 257
556 256
557 256
558 255
559 255
560 254
561 253
562 252
563 251
564 251
565 250
566 250
567 249
568 248
569 247
570 247
571 246
572 246
572 245
573 244
574 244
574 243
575 242
576 243
577 242
578 241
579 241
580 241
581 240
582 240
583 240
584 240
585 239
586 239
587 239
588 239
589 238
590 238
591 238
591 237
592 236
593 237
594 237
594 236
595 235
596 235
597 235
598 235
599 235
600 234
601 234
602 233
603 233
604 233
605 232
606 232
606 231
607 230
608 230
609 230
610 229
611 229
612 229
613 229
614 229
615 228
616 228
617 227
618 226
619 226
620 225
621 225
622 224
623 224
624 224
625 224
626 223
627 223
628 222
629 222
629 221
630 220
631 219
632 219
633 218
634 218
635 217
636 216
637 215
638 215
639 214
640 215
640 214
640 213
641 212
642 212
643 213
643 212
644 211
645 212
644 211
645 210
646 209
647 209
648 208
649 208
650 207
651 206
652 206
653 205
654 204
655 204
656 203
657 202
658 202
658 201
659 200
660 199
661 199
662 198
663 198
664 197
665 198
664 197
665 196
666 195
667 194
668 194
669 193
670 192
671 191
672 190
673 189
674 188
675 187
676 186
676 185
677 184
678 183
679 183
680 182
681 181
682 180
683 179
684 178
685 177
686 176
687 175
688 174
688 173
689 172
690 171
690 170
691 169
691 168
692 167
693 166
693 165
693 164
694 163
695 162
695 161
696 160
696 159
697 158
697 157
697 156
698 155
698 154
698 153
698 152
698 151
699 150
699 149
699 148
699 147
699 146
699 145
699 144
699 143
699 142
700 141
700 140
701 139
702 139
703 139
704 139
705 138
706 138
707 138
708 138
709 137
710 137
711 137
712 137
713 136
714 136
715 135
716 135
717 135
718 134
719 134
720 134
721 133
722 132
723 132
724 131
725 131
726 131
726 130
727 129
728 129
729 128
730 128
731 127
732 126
733 125
734 124
735 124
734 123
733 123
732 122
733 121
732 120
731 119
731 118
730 118
729 118
728 119
727 119
726 119
725 120
724 120
723 120
722 121
721 121
720 122
719 122
718 122
717 122
716 123
715 123
714 123
713 124
712 124
711 124
710 124
709 125
708 125
707 125
706 126
705 126
704 126
703 126
702 125
702 124
701 123
701 122
700 121
699 120
698 119
697 118
697 117
696 116
695 115
694 115
693 114
692 113
691 112
690 112
689 111
688 110
687 109
686 109
685 108
684 107
683 107
682 106
681 106
680 105
679 105
678 105
677 104
676 104
675 103
674 103
673 102
672 102
671 102
670 101
669 100
668 100
667 99
666 99
665 98
664 98
663 98
662 98
661 97
660 97
659 97
658 97
657 96
656 96
655 96
654 95
653 95
652 94
651 94
650 93
649 93
648 92
647 91
646 91
645 90
644 89
643 88
642 88
641 87
640 87
639 86
638 86
637 85
636 85
635 84
634 84
633 83
632 82
631 82
630 81
629 81
628 80
627 80
626 79
625 79
624 78
623 78
622 78
621 77
620 77
619 77
618 76
617 76
616 76
615 76
614 75
613 75
612 75
611 75
610 74
609 74
608 74
607 74
606 74
605 73
604 73
603 73
602 73
601 73
600 73
599 73
598 73
597 73
596 73
595 73
594 72
593 72
592 72
591 72
590 72
589 72
588 71
587 71
586 71
585 71
584 70
583 70
582 70
581 69
580 69
579 69
578 69
577 68
576 68
575 68
574 68
573 68
572 68
571 68
570 68
569 68
568 68
567 67
566 67
565 67
564 67
563 66
562 67
561 67
560 67
559 67
558 66
557 66
556 66
555 65
554 65
553 65
552 65
551 64
550 64
549 63
548 63
547 62
546 62
545 62
544 62
543 62
542 62
541 61
540 61
539 61
538 61
537 61
536 61
535 61
534 61
533 61
532 61
531 61
530 61
529 61
528 61
527 61
526 61
525 61
524 61
523 61
522 61
521 61
520 61
519 61
518 61
517 61
516 61
515 60
514 61
513 61
512 61
511 61
510 61
509 61
508 61
507 61
506 61
505 62
504 62
503 62
502 62
501 63
500 63
499 63
498 64
497 64
496 64
495 64
494 64
493 64
492 64
491 64
490 63
489 63
488 62
487 62
486 62
485 62
484 61
483 61
482 61
481 61
480 61
479 60
478 60
477 60
476 60
475 60
474 60
473 59
472 59
471 59
470 59
469 59
468 59
467 59
466 59
465 59
464 59
463 59
462 59
461 59
460 59
459 59
458 59
457 58
456 58
455 58
454 58
453 58
452 58
451 58
450 58
449 57
448 58
447 58
446 58
445 58
444 59
443 60
442 60
441 60
440 60
439 60
438 60
437 59
436 60
435 59
434 60
433 60
432 59
431 59
430 59
429 59
428 59
427 59
426 59
425 58
424 58
423 58
422 58
421 58
420 57
419 58
418 58
417 58
416 58
415 58
414 58
413 58
412 58
411 58
410 58
409 59
408 59
407 59
406 60
405 60
404 60
403 61
402 61
401 61
400 61
399 61
398 61
397 61
396 61
395 61
394 62
393 62
392 62
391 63
391 64
390 65
389 65
388 66
387 67
386 67
386 68
385 69
384 70
384 71
383 72
382 73
381 73
380 73
379 73
378 73
377 73
376 72
375 72
374 71
374 70
373 69
372 68
371 67
370 67
369 67
368 67
367 67
366 67
365 67
364 67
363 67
362 67
361 67
360 67
359 66
358 66
357 66
356 65
355 65
354 64
353 64
352 63
351 62
350 62
349 62
348 61
347 61
346 61
345 60
344 60
343 60
342 59
341 59
340 59
339 59
338 59
337 59
336 58
335 58
334 58
333 58
332 58
331 58
330 57
329 57
328 57
327 57
326 57
325 57
324 57
323 57
322 57
321 57
320 57
319 57
