382 102
381 103
380 103
379 103
378 103
377 103
376 103
375 103
374 103
373 103
372 103
371 103
370 103
369 103
368 104
367 104
366 104
365 104
364 104
363 104
362 104
361 104
360 104
359 104
358 104
357 105
356 105
355 105
354 105
353 105
352 105
351 105
350 105
349 105
348 106
347 106
346 106
345 106
344 106
343 106
342 106
341 106
340 106
339 106
338 106
337 106
336 106
335 106
334 106
333 106
332 106
331 106
330 106
329 106
328 106
327 106
326 106
325 106
324 106
323 106
322 106
321 106
320 106
319 106
318 106
317 107
316 107
315 107
314 107
313 107
312 108
311 108
310 108
309 109
308 109
307 109
306 109
305 109
304 110
303 110
302 110
301 110
300 111
299 111
298 111
297 111
296 112
295 112
294 112
293 112
292 112
291 113
290 113
289 113
288 114
287 114
286 114
285 114
284 114
283 115
282 115
281 115
280 116
279 116
278 116
277 116
276 116
275 116
274 117
273 117
272 117
271 117
270 118
269 118
268 118
267 118
266 119
265 119
264 119
263 120
262 120
261 121
260 121
259 121
258 121
257 121
256 122
255 122
254 122
253 123
252 123
251 123
250 123
249 123
248 123
247 124
246 124
245 124
244 125
243 125
242 126
241 126
240 127
239 127
238 127
237 128
236 128
235 128
234 128
233 129
232 129
231 129
230 129
229 130
228 130
227 130
226 130
225 130
224 131
223 131
222 131
221 131
220 131
219 131
218 131
217 132
216 132
215 132
214 133
213 133
212 133
211 133
210 134
209 134
208 134
207 135
206 135
205 136
204 136
203 136
202 136
201 136
200 137
199 137
198 138
197 138
196 138
195 138
194 138
193 139
192 139
191 139
190 139
189 139
188 139
187 140
186 140
185 140
184 140
183 141
182 141
181 141
180 141
179 142
178 142
177 143
176 143
175 143
174 144
173 144
172 144
171 145
170 145
169 145
168 146
167 146
166 146
165 147
164 147
163 148
162 148
161 149
160 149
159 150
158 150
157 150
156 150
155 151
154 151
153 151
152 152
151 152
150 152
149 153
148 153
147 154
146 154
145 154
144 155
143 155
142 156
141 156
140 156
139 157
138 157
137 158
136 158
135 158
134 159
133 159
132 160
131 160
130 160
129 160
128 161
127 161
126 161
125 162
124 162
123 163
122 163
121 164
120 165
119 165
118 166
117 166
116 167
115 167
114 168
113 168
112 169
111 169
110 170
109 171
108 171
107 172
106 172
105 173
104 174
103 175
102 175
101 176
100 176
99 177
98 178
97 178
96 179
95 180
94 180
93 181
92 181
91 182
90 183
89 183
89 184
88 185
87 185
86 186
85 187
84 188
84 189
83 190
83 191
82 192
82 193
81 194
81 195
80 196
80 197
79 198
78 199
78 200
77 201
77 202
77 203
76 204
77 205
77 206
78 207
79 208
80 209
81 210
82 211
82 212
83 213
84 214
85 215
86 216
86 217
86 218
87 219
88 219
89 220
89 221
90 222
90 223
91 224
92 224
93 225
94 226
95 227
95 228
96 229
96 230
97 231
98 232
99 233
100 234
101 235
102 236
103 236
104 237
105 238
106 238
107 239
108 239
109 240
110 241
111 241
112 242
113 242
114 243
115 244
116 244
117 245
118 246
119 246
120 247
121 248
122 249
123 249
124 250
125 251
126 252
127 252
128 253
129 254
130 255
131 256
132 256
133 257
134 257
135 258
136 259
137 259
138 260
138 261
139 261
140 262
141 263
142 263
143 264
144 265
145 266
146 266
147 266
148 267
149 268
150 268
151 269
152 270
153 270
154 270
155 271
155 272
156 272
157 273
158 273
159 274
160 274
161 275
162 276
163 276
164 277
165 278
166 279
167 279
168 279
169 280
170 280
171 281
172 282
173 282
174 283
175 283
176 284
177 284
178 285
179 285
180 285
181 285
182 285
183 286
184 286
185 287
186 287
187 287
188 288
189 288
190 288
191 289
192 289
193 290
194 290
195 290
196 291
197 291
198 291
199 292
200 292
201 292
202 293
203 293
204 293
205 294
206 294
207 295
208 295
209 295
210 296
211 296
212 297
213 298
214 298
215 298
216 299
217 299
218 300
219 300
220 300
221 301
222 301
223 302
224 302
225 303
226 303
227 304
228 304
229 304
230 305
231 305
232 305
233 306
234 306
235 307
236 307
237 307
238 308
239 308
240 309
241 309
242 309
243 310
244 310
245 310
246 311
247 311
248 312
249 312
250 312
251 313
252 313
253 313
254 314
255 314
256 315
257 315
258 315
259 316
260 316
261 316
262 317
263 317
264 317
265 317
266 317
267 318
268 318
269 319
270 319
271 319
272 319
273 319
274 319
275 320
276 320
277 320
278 320
279 321
280 321
281 321
282 322
283 323
284 323
285 323
286 323
287 323
288 323
289 324
290 324
291 324
292 324
293 324
294 324
295 325
296 325
297 325
298 325
299 326
300 326
301 326
302 326
303 327
304 327
305 327
306 327
307 327
308 327
309 328
310 328
311 328
312 328
313 328
314 329
315 329
316 329
317 329
318 329
319 329
320 330
321 330
322 330
323 330
324 330
325 330
326 331
327 331
328 331
329 331
330 331
331 331
332 331
333 332
334 332
335 332
336 332
337 332
338 332
339 332
340 333
341 333
342 333
343 333
344 333
345 333
346 334
347 334
348 334
349 334
350 334
351 335
352 335
353 335
354 335
355 335
356 335
357 336
358 336
359 336
360 336
361 336
362 336
363 337
364 337
365 337
366 337
367 337
368 337
369 337
370 337
371 338
372 338
373 338
374 338
375 338
376 338
377 338
378 338
379 338
380 338
381 338
382 338
383 338
384 338
385 338
386 338
387 338
388 338
389 339
390 339
391 339
392 339
393 339
394 339
395 339
396 339
397 339
398 339
399 338
400 338
401 338
402 338
403 338
404 339
405 338
406 338
407 338
408 339
409 339
410 339
411 338
412 338
413 339
414 338
415 338
416 338
417 338
418 338
419 338
420 338
421 338
422 338
423 338
424 338
425 337
426 337
427 337
428 336
429 336
430 336
431 336
432 336
433 336
434 336
435 336
436 335
437 335
438 335
439 335
440 335
441 335
442 334
443 334
444 334
445 334
446 334
447 334
448 334
449 333
450 333
451 333
452 332
453 332
454 332
455 331
456 331
457 331
458 331
459 331
460 330
461 330
462 330
463 330
464 329
465 329
466 329
467 328
468 328
469 328
470 328
471 328
472 327
473 327
474 327
475 326
476 326
477 326
478 325
479 325
480 325
481 325
482 325
483 324
484 324
485 323
486 323
487 323
488 322
489 322
490 322
491 321
492 321
493 320
494 320
495 320
496 320
497 320
498 319
499 319
500 319
501 318
502 318
503 318
504 317
505 317
506 317
507 316
508 316
509 315
510 315
511 314
512 314
513 313
514 313
515 312
516 312
517 311
518 311
519 311
520 310
521 310
522 310
523 309
524 309
525 308
526 308
527 308
528 308
529 308
529 307
530 306
531 306
532 306
533 306
534 305
535 305
536 305
537 305
538 305
539 304
540 304
541 304
542 304
543 304
544 304
545 304
546 303
547 303
548 303
549 303
550 302
551 302
552 302
553 301
554 301
555 300
556 300
557 300
558 300
559 300
560 300
561 299
562 298
563 298
564 298
565 298
566 297
567 297
568 296
569 296
570 295
571 295
572 294
573 293
574 293
575 293
576 293
577 292
578 292
579 291
580 291
581 291
582 290
583 290
584 290
585 290
586 289
587 288
588 288
589 287
590 287
591 287
592 287
593 286
594 285
595 285
596 285
597 284
598 283
599 283
600 282
601 282
602 281
603 280
604 280
605 279
606 279
607 279
608 278
609 278
610 277
611 277
612 277
613 276
614 276
615 275
616 274
617 274
618 273
619 272
620 271
621 271
622 270
623 270
623 269
624 268
625 268
626 267
627 267
628 267
629 267
630 266
631 266
632 265
633 265
634 264
635 263
636 263
637 262
638 262
639 261
640 260
641 260
642 260
643 260
644 259
645 259
646 258
647 258
648 258
649 257
650 257
651 256
652 256
653 256
654 255
655 255
656 255
657 254
658 253
659 253
660 252
661 251
662 251
663 251
664 251
665 250
666 249
667 249
668 249
669 249
670 249
671 248
672 248
673 247
674 247
675 246
676 246
677 245
678 245
679 245
680 244
681 244
682 244
683 244
684 244
685 244
686 244
687 243
688 243
689 243
690 243
691 243
692 242
693 242
694 242
695 242
696 242
697 242
698 241
699 241
700 241
701 241
702 241
703 241
704 241
705 241
706 241
707 241
708 241
709 241
710 240
711 240
712 240
713 240
714 240
715 240
716 240
717 239
718 239
719 239
720 238
721 237
722 236
722 235
722 234
723 233
723 232
722 231
721 232
720 231
720 230
721 229
722 228
721 227
721 226
720 225
719 225
718 225
717 225
716 224
715 224
714 224
713 224
712 224
711 224
710 224
709 223
708 223
707 222
706 222
705 222
704 222
703 222
702 222
701 222
700 222
699 222
698 222
697 221
696 220
695 219
694 218
693 217
692 216
691 216
690 215
689 215
688 214
687 213
686 213
685 212
684 212
683 211
682 210
681 210
680 209
679 208
678 208
677 207
676 207
675 206
674 206
673 205
672 205
671 204
670 204
669 203
668 203
667 202
666 201
665 201
664 200
663 200
662 199
661 198
660 198
659 197
658 197
657 196
656 195
655 195
654 194
653 194
652 193
651 193
650 192
649 191
648 191
647 190
646 190
645 189
644 189
643 188
642 187
641 187
640 187
639 186
638 186
637 185
636 185
635 185
634 184
633 184
632 183
631 183
630 182
629 182
628 181
627 181
626 180
625 179
624 179
623 178
622 178
621 177
620 177
619 176
618 175
617 175
616 174
615 173
614 173
613 172
612 172
611 171
610 171
609 170
608 170
607 169
606 169
605 168
604 168
603 167
602 167
601 166
600 165
599 165
598 164
597 163
596 163
595 163
594 162
593 161
592 161
591 161
590 160
589 160
588 160
587 159
586 159
585 158
584 158
583 158
582 157
581 157
580 156
579 156
578 156
577 155
576 155
575 155
574 154
573 154
572 154
571 153
570 153
569 153
568 152
567 152
566 151
565 151
564 150
563 150
562 149
561 149
560 148
559 148
558 147
557 147
556 147
555 146
554 146
553 145
552 145
551 144
550 144
549 143
548 143
547 142
546 142
545 142
544 141
543 141
542 141
541 140
540 140
539 139
538 139
537 139
536 138
535 138
534 138
533 137
532 137
531 137
530 137
529 136
528 136
527 136
526 135
525 135
524 135
523 134
522 134
521 134
520 133
519 133
518 133
517 132
516 132
515 132
514 131
513 131
512 131
511 130
510 130
509 130
508 129
507 129
506 128
505 128
504 128
503 128
502 127
501 127
500 127
499 127
498 127
497 126
496 126
495 126
494 125
493 125
492 125
491 125
490 125
489 125
488 125
487 124
486 124
485 124
484 124
483 124
482 124
481 123
480 123
479 123
478 122
477 122
476 122
475 122
474 122
473 121
472 121
471 121
470 121
469 120
468 120
467 119
466 119
465 119
464 118
463 117
462 117
461 117
460 116
459 116
458 116
457 115
456 115
455 115
454 115
453 114
452 114
451 114
450 113
449 113
448 112
447 112
446 112
445 112
444 112
443 111
442 111
441 111
440 111
439 111
438 111
437 110
436 110
435 110
434 110
433 109
432 109
431 109
430 109
429 109
428 109
427 109
426 109
425 109
424 108
423 108
422 108
421 107
420 107
419 107
418 107
417 107
416 107
415 107
414 107
413 107
412 107
411 106
410 106
409 106
408 106
407 106
406 106
405 105
404 105
403 105
402 105
401 105
400 105
399 105
398 105
397 104
396 104
395 104
394 104
393 104
392 103
391 103
390 103
389 103
388 103
387 103
386 103
385 103
384 103
383 103
382 102
