437 37
437 38
437 39
437 40
437 41
437 42
437 43
437 44
437 45
437 46
437 47
437 48
436 49
436 50
436 51
435 52
435 53
435 54
435 55
435 56
435 57
435 58
435 59
435 60
434 61
433 62
433 63
433 64
433 65
433 66
433 67
433 68
433 69
433 70
433 71
433 72
433 73
433 74
432 75
432 76
432 77
432 78
431 79
431 80
431 81
431 82
431 83
431 84
430 85
430 86
430 87
430 88
429 89
429 90
428 91
427 91
427 92
428 93
428 94
428 95
428 96
428 97
428 98
428 99
427 100
427 101
427 102
427 103
427 104
427 105
427 106
426 107
426 108
426 109
426 110
425 111
424 111
424 112
424 113
424 114
424 115
424 116
424 117
424 118
424 119
424 120
424 121
424 122
423 123
423 124
423 125
423 126
423 127
422 128
421 129
420 129
420 130
420 131
420 132
419 133
419 134
419 135
419 136
419 137
419 138
418 139
418 140
418 141
418 142
418 143
417 144
416 145
416 146
416 147
416 148
416 149
416 150
416 151
416 152
416 153
416 154
416 155
416 156
416 157
416 158
416 159
416 160
416 161
416 162
416 163
416 164
416 165
416 166
415 167
414 167
414 168
415 169
415 170
415 171
415 172
415 173
415 174
415 175
415 176
415 177
415 178
415 179
415 180
414 181
414 182
413 183
413 184
413 185
413 186
413 187
414 188
414 189
414 190
414 191
415 192
414 193
414 194
415 195
415 196
416 197
416 198
417 199
417 200
418 201
418 202
419 203
419 204
420 205
421 206
421 207
421 208
422 209
422 210
423 211
424 212
425 213
426 214
426 215
427 216
428 217
429 218
430 219
431 220
432 221
432 222
433 223
434 224
435 225
436 226
437 227
438 228
439 228
440 229
441 230
441 231
442 232
443 233
443 234
443 235
443 236
443 237
442 238
441 238
440 238
439 238
438 238
437 239
436 239
435 239
434 239
433 239
432 239
431 239
430 239
429 239
428 239
427 239
426 239
425 239
424 239
423 239
422 239
421 240
420 240
419 240
418 240
417 240
416 240
415 240
414 240
413 240
412 241
411 241
410 241
409 241
408 241
407 241
406 241
405 241
404 241
403 241
402 241
401 242
400 242
399 242
398 242
397 242
396 242
395 242
394 243
393 243
392 243
391 243
390 243
389 243
388 243
387 243
386 243
385 244
384 244
383 244
382 244
381 244
380 244
379 244
378 245
377 245
376 245
375 245
374 245
373 245
372 245
371 245
370 245
369 245
368 246
367 245
366 245
365 244
365 243
365 242
365 241
365 240
365 239
365 238
365 237
365 236
365 235
365 234
365 233
365 232
365 231
365 230
365 229
365 228
365 227
365 226
365 225
365 224
365 223
365 222
365 221
365 220
365 219
365 218
365 217
365 216
365 215
365 214
364 213
364 212
364 211
364 210
364 209
364 208
364 207
363 206
363 205
363 204
363 203
363 202
363 201
362 200
362 199
362 198
362 197
362 196
361 195
361 194
361 193
360 192
360 191
360 190
360 189
359 188
359 187
359 186
359 185
358 184
358 183
357 182
357 181
356 180
355 179
355 178
354 177
353 176
353 175
352 174
352 173
352 172
351 171
351 170
350 169
350 168
349 167
349 166
349 165
348 164
348 163
348 162
347 161
347 160
346 159
346 158
345 157
345 156
345 155
344 154
343 153
343 152
342 151
341 150
341 149
340 148
340 147
340 146
340 145
339 144
339 143
338 142
338 141
338 140
337 139
337 138
337 137
336 136
336 135
335 134
334 133
333 132
333 131
332 130
331 129
331 128
331 127
330 126
330 125
329 124
329 123
328 122
328 121
328 120
327 119
326 118
326 117
325 116
324 115
323 114
323 113
322 112
321 112
320 111
320 110
319 109
319 108
319 107
318 106
318 105
317 104
317 103
316 102
315 101
315 100
314 99
313 98
312 97
311 96
310 95
310 94
309 93
309 92
309 91
308 90
307 89
306 88
305 87
304 86
303 85
302 84
301 83
300 82
300 81
299 80
299 79
298 78
298 77
297 76
296 75
295 74
295 73
294 73
293 72
293 71
292 70
292 69
291 68
291 67
290 66
290 65
289 64
289 63
288 62
288 61
287 60
286 59
286 58
285 57
284 56
283 55
283 54
282 53
281 52
280 51
280 50
279 49
278 49
278 50
278 51
278 52
278 53
277 54
277 55
277 56
277 57
277 58
277 59
277 60
277 61
277 62
277 63
277 64
277 65
277 66
278 67
278 68
278 69
278 70
278 71
278 72
278 73
278 74
278 75
277 76
277 77
278 78
278 79
278 80
278 81
279 82
279 83
279 84
279 85
279 86
279 87
280 88
280 89
280 90
279 91
278 91
279 92
279 93
280 94
280 95
280 96
281 97
281 98
281 99
281 100
281 101
281 102
282 103
282 104
281 105
280 106
280 107
281 108
281 109
282 110
282 111
282 112
283 113
283 114
284 115
284 116
284 117
285 118
285 119
285 120
285 121
285 122
285 123
286 124
286 125
286 126
285 127
284 128
284 129
285 130
285 131
285 132
285 133
286 134
286 135
286 136
287 137
287 138
287 139
287 140
288 141
288 142
288 143
288 144
287 145
287 146
287 147
288 148
288 149
289 150
289 151
289 152
290 153
290 154
290 155
291 156
291 157
291 158
292 159
292 160
292 161
292 162
291 163
291 164
292 165
292 166
293 167
293 168
294 169
295 170
295 171
296 172
296 173
296 174
296 175
297 176
297 177
297 178
296 179
295 179
295 180
296 181
296 182
297 183
297 184
298 185
298 186
298 187
299 188
299 189
299 190
300 191
300 192
300 193
300 194
299 195
300 196
300 197
301 198
302 199
302 200
303 201
303 202
304 203
304 204
305 205
305 206
305 207
305 208
306 209
307 210
308 211
309 212
310 213
310 214
311 215
312 216
313 217
314 218
315 219
316 220
316 221
317 222
318 222
319 223
320 224
321 225
322 226
323 226
324 227
325 228
326 229
327 229
328 230
329 231
330 231
331 232
332 232
333 233
334 233
335 234
336 234
337 235
338 235
339 236
340 236
341 236
342 237
343 238
344 238
345 238
346 239
347 239
348 240
349 240
350 241
351 241
352 242
353 242
354 243
355 244
355 245
354 246
353 245
353 246
352 247
351 247
350 247
349 247
348 247
347 247
346 247
345 247
344 247
343 247
342 247
341 246
340 246
339 246
338 246
337 246
336 246
335 246
334 246
333 246
332 246
331 246
330 246
329 246
328 246
327 246
326 246
325 246
324 246
323 246
322 246
321 246
320 247
319 247
318 247
317 247
316 247
315 247
314 247
313 247
312 247
311 247
310 247
309 247
308 247
307 247
306 247
305 247
304 247
303 247
302 247
301 248
300 248
299 248
298 248
297 248
296 248
295 248
294 248
293 248
292 249
291 249
290 249
289 249
288 249
287 250
286 250
285 250
284 250
283 250
282 250
281 250
280 251
279 251
278 251
277 251
276 251
275 251
274 252
273 252
272 252
271 252
270 252
269 253
268 253
267 253
266 253
265 252
265 251
265 250
265 249
265 248
265 247
265 246
265 245
265 244
265 243
265 242
265 241
265 240
265 239
265 238
265 237
265 236
265 235
265 234
265 233
265 232
265 231
265 230
265 229
265 228
265 227
264 226
264 225
264 224
264 223
264 222
264 221
263 220
263 219
263 218
262 217
262 216
262 215
261 214
261 213
261 212
260 211
260 210
259 210
258 209
258 208
257 207
256 207
255 207
254 207
253 207
252 207
251 207
250 207
249 206
248 207
247 207
246 207
245 208
244 208
243 208
242 208
241 208
240 208
239 208
238 207
237 207
236 206
235 205
234 204
234 203
234 202
233 201
233 200
232 199
232 198
231 197
231 196
230 195
229 194
228 193
227 192
227 191
226 190
226 189
226 188
225 187
225 186
224 185
223 184
222 184
221 183
220 182
220 181
219 180
219 179
219 178
218 177
218 176
217 175
217 174
217 173
216 172
216 171
215 170
214 169
214 168
214 167
214 166
213 165
213 164
213 163
213 162
212 161
212 160
211 160
210 159
209 158
209 157
208 156
208 155
207 154
206 153
206 152
205 151
205 150
204 149
203 150
202 150
201 150
200 151
199 151
198 152
197 152
196 153
195 153
194 154
193 154
192 154
191 154
190 154
189 154
188 154
187 154
187 155
187 156
187 157
188 158
188 159
188 160
188 161
189 162
189 163
190 164
190 165
191 166
191 167
191 168
192 169
193 170
193 171
194 172
194 173
195 174
195 175
195 176
194 177
195 178
195 179
195 180
196 181
196 182
197 183
198 184
198 185
199 186
199 187
199 188
200 189
200 190
200 191
200 192
200 193
201 194
201 195
202 196
203 197
203 198
204 199
205 200
205 201
206 202
206 203
206 204
207 205
207 206
207 207
208 208
207 209
207 210
207 211
208 212
209 213
210 214
210 215
211 216
212 217
213 218
213 219
214 220
214 221
214 222
215 223
215 224
216 225
217 226
217 227
218 228
219 229
220 230
220 231
220 232
221 233
222 234
223 235
224 236
225 236
226 237
227 238
228 239
229 240
230 241
231 242
232 242
233 243
234 244
235 244
236 245
237 245
238 245
239 246
240 246
241 247
242 248
243 248
244 249
245 249
246 250
247 250
248 251
247 252
246 252
245 252
244 252
243 252
242 252
241 251
240 252
239 251
238 251
237 251
236 250
235 250
234 250
233 250
232 249
231 249
230 248
229 248
228 248
227 247
226 247
225 246
224 246
223 246
222 245
221 245
220 245
219 244
218 244
217 243
216 243
215 243
214 242
213 242
212 242
211 241
210 241
209 241
208 240
207 240
206 240
205 239
204 239
203 239
202 238
201 238
200 238
199 238
198 237
197 237
196 237
195 236
194 236
193 235
192 235
191 235
190 234
189 234
188 234
187 234
186 234
185 234
184 234
183 234
182 234
181 234
180 234
179 233
178 233
177 233
176 232
175 232
174 231
173 231
172 231
171 230
170 230
169 230
168 229
167 230
166 230
165 230
164 230
163 230
162 230
161 230
160 230
159 230
158 229
157 229
156 229
155 229
154 229
153 229
152 229
151 229
150 230
149 229
148 229
147 229
146 229
145 229
144 229
143 229
142 229
141 229
140 229
139 229
138 229
138 230
138 231
137 232
136 232
135 232
134 232
133 232
132 232
131 232
130 231
129 232
128 232
127 232
126 232
125 231
124 231
123 231
122 231
121 231
120 230
119 230
118 231
117 232
116 232
115 232
114 233
113 233
112 233
111 233
110 233
109 233
108 232
107 232
106 232
105 232
104 232
103 233
102 233
101 233
100 233
99 233
98 233
97 233
96 233
95 233
94 233
93 232
92 232
91 233
91 234
90 235
89 235
88 235
87 235
86 236
85 236
84 236
83 236
82 236
81 236
80 237
79 237
78 237
78 238
77 239
76 239
75 239
74 240
73 240
72 240
71 240
70 240
69 240
68 240
67 240
66 240
65 240
64 240
63 240
62 240
61 240
60 240
59 240
58 240
57 240
56 241
55 242
54 242
53 242
52 242
51 242
50 242
49 242
48 242
47 242
46 242
45 242
44 242
43 242
42 242
41 242
40 242
39 242
38 242
37 243
36 243
35 243
34 243
33 243
32 243
31 243
30 243
29 243
28 244
27 244
26 244
25 244
24 245
23 245
22 246
23 247
24 247
25 247
26 248
27 248
28 248
29 248
30 248
31 249
32 249
33 249
34 249
35 249
36 250
37 250
38 251
39 251
40 252
41 252
42 252
43 253
44 253
45 254
46 254
47 254
48 255
48 256
49 256
50 256
51 256
52 256
53 256
54 257
55 257
56 257
57 257
58 258
59 258
60 258
61 258
62 259
63 259
64 259
65 259
66 260
67 261
68 262
68 263
68 264
69 264
70 264
71 265
72 265
73 265
74 265
75 265
76 266
77 266
78 266
79 267
80 267
81 268
81 269
81 270
82 270
83 270
84 271
85 271
86 271
87 271
88 271
89 272
90 272
91 272
92 273
93 274
93 275
94 275
95 275
96 275
97 274
98 274
99 274
100 274
101 274
102 274
103 274
104 274
105 274
106 274
107 275
108 275
109 275
110 275
111 276
112 277
113 277
114 277
115 278
116 278
117 278
118 278
119 278
120 278
121 278
122 278
123 279
124 279
125 279
126 280
127 280
128 280
129 280
130 280
131 281
132 281
133 282
132 283
133 283
134 283
135 283
136 283
137 283
138 283
139 282
140 282
141 282
142 282
143 282
144 282
145 282
146 282
147 282
148 282
149 282
150 283
150 284
151 284
152 284
153 284
154 284
155 283
156 283
157 283
158 282
159 282
160 282
161 282
162 281
163 281
164 281
165 281
166 281
167 281
168 281
169 281
170 281
171 281
172 281
173 281
174 280
175 280
176 279
177 279
178 279
179 279
180 278
181 278
182 278
183 278
184 277
185 277
186 277
187 276
188 276
189 276
190 275
191 275
192 275
193 275
194 275
195 274
196 274
197 273
198 273
199 272
200 272
201 272
202 271
203 271
204 271
205 270
206 270
207 269
208 269
209 268
210 268
211 268
212 267
213 267
214 266
215 266
216 266
217 265
218 265
219 265
220 264
221 264
222 264
223 264
224 263
225 263
226 263
227 263
228 262
229 262
230 262
231 261
232 261
233 261
234 261
235 261
236 260
237 260
238 260
239 260
240 260
241 260
242 260
243 259
244 259
245 260
246 260
247 260
248 261
249 262
248 263
247 263
246 263
245 264
244 264
243 265
242 265
241 265
240 266
239 266
238 267
237 267
236 268
235 268
234 269
233 269
232 270
231 270
230 271
229 272
228 272
227 273
226 274
225 274
224 275
223 276
222 277
221 278
220 279
219 279
218 280
217 281
216 282
215 282
214 283
213 284
212 284
212 285
211 286
210 287
209 288
208 289
207 290
206 291
205 292
204 293
204 294
204 295
203 296
202 297
202 298
201 299
200 300
199 301
198 302
197 303
196 304
196 305
196 306
196 307
195 308
194 309
194 310
193 311
192 312
192 313
191 314
190 315
189 316
188 317
188 318
188 319
188 320
187 321
186 322
186 323
185 324
184 325
184 326
183 327
183 328
184 329
184 330
183 331
183 332
183 333
182 334
182 335
182 336
181 337
181 338
180 339
180 340
179 341
178 342
178 343
177 344
177 345
176 346
177 347
177 348
176 349
176 350
176 351
175 352
175 353
175 354
174 355
174 356
173 357
173 358
172 359
172 360
171 361
171 362
172 362
173 363
173 364
173 365
172 366
172 367
173 367
174 367
175 368
176 368
177 369
178 369
179 369
180 369
181 368
182 368
183 369
184 369
185 369
186 369
187 369
188 369
189 369
190 369
191 369
192 370
193 371
193 372
194 373
194 374
195 375
195 376
195 377
195 378
195 379
195 380
195 381
195 382
196 383
196 384
197 385
198 386
199 385
200 386
201 385
202 385
203 384
204 383
205 382
206 381
207 380
208 379
209 378
210 377
211 376
212 375
213 374
214 373
214 372
215 371
216 370
216 369
217 368
218 368
218 367
219 366
220 365
221 364
222 363
223 363
223 362
224 361
224 360
225 359
226 358
226 357
227 356
228 355
229 355
230 354
231 353
232 352
232 351
233 350
233 349
234 348
234 347
235 346
236 345
236 344
237 343
238 342
239 341
240 340
240 339
241 338
241 337
241 336
242 335
242 334
242 333
243 332
243 331
244 330
244 329
245 328
245 327
245 326
246 325
246 324
247 323
247 322
248 321
248 320
249 319
249 318
249 317
250 316
250 315
250 314
251 313
251 312
252 311
252 310
252 309
253 308
253 307
254 306
254 305
254 304
254 303
255 302
255 301
255 300
256 299
256 298
256 297
256 296
257 295
257 294
257 293
258 292
258 291
258 290
258 289
259 288
259 287
259 286
260 285
260 284
260 283
260 282
261 281
261 280
261 279
262 278
262 277
262 276
262 275
263 274
263 273
263 272
264 271
264 270
264 269
264 268
264 267
264 266
264 265
264 264
264 263
265 262
265 261
265 260
265 259
265 258
266 257
267 257
268 257
269 256
270 256
271 256
272 256
273 255
274 255
275 255
276 255
277 255
278 254
279 254
280 254
281 254
282 253
283 253
284 253
285 253
286 253
287 252
288 252
289 252
290 252
291 251
292 251
293 251
294 251
295 251
296 250
297 250
298 250
299 250
300 250
301 250
302 250
303 250
304 249
305 249
306 249
307 249
308 249
309 249
310 249
311 249
312 249
313 249
314 249
315 248
316 248
317 248
318 248
319 248
320 248
321 248
322 248
323 248
324 248
325 248
326 248
327 248
328 248
329 248
330 248
331 248
332 248
333 248
334 248
335 248
336 248
337 248
338 248
339 248
340 248
341 249
342 249
343 249
344 249
345 249
346 249
347 250
348 250
349 250
350 250
351 250
352 250
353 250
354 251
354 252
353 253
352 254
351 254
350 254
349 254
348 255
347 255
346 255
345 255
344 256
343 256
342 256
341 257
340 257
339 257
338 258
337 258
336 259
335 259
334 260
333 260
332 261
331 262
330 262
329 263
328 263
327 264
326 265
325 265
324 266
323 266
322 267
321 268
320 268
319 269
318 270
317 271
316 272
315 272
314 273
313 274
313 275
312 276
311 277
310 278
310 279
309 280
308 281
307 282
306 283
305 284
304 285
303 286
302 287
301 288
301 289
301 290
301 291
301 292
300 293
300 294
299 295
298 296
298 297
297 298
296 299
295 300
294 301
294 302
293 303
292 304
293 305
292 306
292 307
291 308
290 309
289 310
289 311
288 312
287 313
288 314
288 315
287 316
287 317
286 318
285 319
285 320
284 321
284 322
284 323
284 324
284 325
283 326
283 327
282 328
282 329
281 330
280 331
280 332
281 333
281 334
280 335
280 336
279 337
279 338
278 339
278 340
277 341
277 342
277 343
276 344
276 345
276 346
277 347
277 348
276 349
276 350
276 351
275 352
274 353
274 354
273 355
273 356
272 357
272 358
272 359
272 360
271 361
271 362
270 363
270 364
271 365
271 366
271 367
271 368
270 369
270 370
269 371
269 372
268 373
268 374
267 375
267 376
266 377
266 378
265 379
264 380
263 381
262 382
263 383
264 384
264 385
264 386
263 387
263 388
263 389
262 390
261 391
261 392
260 393
260 394
259 395
259 396
258 397
258 398
257 399
257 400
256 401
256 402
257 403
256 404
256 405
256 406
255 407
255 408
254 409
254 410
253 411
253 412
252 413
252 414
251 415
251 416
251 417
250 418
249 419
248 420
248 421
247 422
246 423
245 424
244 425
243 426
243 427
244 427
245 427
246 427
247 427
248 426
249 426
250 426
251 425
252 425
253 424
254 424
255 423
256 422
257 422
258 421
259 420
260 420
261 419
262 418
263 417
264 417
265 416
266 415
267 414
268 413
269 412
270 411
271 410
272 410
273 410
274 409
275 408
276 407
277 406
278 406
278 405
279 404
280 404
281 403
282 402
283 401
284 400
284 399
285 398
286 397
286 396
287 395
288 394
289 393
290 392
291 391
292 391
293 391
294 391
294 390
295 389
296 389
297 389
298 388
298 387
299 386
300 385
301 384
302 384
303 383
304 382
305 381
306 380
307 379
308 378
309 377
309 376
310 375
310 374
311 373
312 372
313 371
314 370
314 369
315 368
316 367
317 366
318 365
319 364
320 363
321 362
322 362
323 361
324 360
325 359
326 358
326 357
327 356
327 355
328 354
329 353
330 352
330 351
331 350
332 349
333 348
334 347
335 346
336 346
337 345
338 344
339 343
340 344
340 343
341 342
341 341
342 340
342 339
343 338
343 337
344 336
344 335
345 334
346 333
346 332
347 331
348 330
348 329
349 328
350 327
351 326
352 325
352 324
353 323
353 322
353 321
354 320
354 319
354 318
355 317
355 316
355 315
356 314
356 313
356 312
357 311
357 310
358 309
358 308
358 307
358 306
359 305
359 304
359 303
359 302
360 301
360 300
360 299
360 298
361 297
361 296
361 295
361 294
362 293
362 292
362 291
362 290
363 289
363 288
363 287
363 286
364 285
364 284
364 283
364 282
364 281
365 280
365 279
365 278
365 277
365 276
365 275
365 274
365 273
365 272
365 271
366 270
366 269
366 268
366 267
366 266
366 265
366 264
366 263
366 262
366 261
366 260
366 259
366 258
366 257
366 256
366 255
366 254
366 253
366 252
366 251
367 250
368 249
369 249
370 248
371 248
372 248
373 248
374 248
375 247
376 247
377 247
378 247
379 247
380 247
381 247
382 246
383 246
384 246
385 246
386 246
387 246
388 246
389 245
390 245
391 245
392 245
393 245
394 245
395 244
396 244
397 244
398 244
399 244
400 244
401 244
402 244
403 243
404 243
405 243
406 243
407 243
408 243
409 243
410 243
411 243
412 242
413 242
414 242
415 242
416 242
417 242
418 242
419 242
420 242
421 242
422 242
423 242
424 242
425 242
426 242
427 242
428 242
429 242
430 242
431 242
432 242
433 242
434 242
435 242
436 242
437 242
438 242
439 242
440 242
441 242
442 242
443 242
444 242
445 243
446 244
445 245
444 246
443 247
442 248
441 248
440 249
439 250
438 250
437 251
436 252
435 252
434 253
433 254
432 255
431 256
430 257
429 258
428 259
427 260
426 261
425 262
424 263
423 264
422 265
421 266
420 267
419 268
419 269
419 270
418 271
417 272
417 273
417 274
416 275
416 276
415 277
414 278
414 279
415 280
415 281
414 282
414 283
414 284
414 285
413 286
413 287
413 288
413 289
412 290
412 291
411 292
412 293
412 294
412 295
412 296
412 297
412 298
412 299
412 300
412 301
412 302
411 303
411 304
412 305
412 306
412 307
412 308
412 309
412 310
412 311
411 312
411 313
411 314
411 315
411 316
411 317
412 318
412 319
412 320
412 321
411 322
411 323
411 324
411 325
411 326
411 327
410 328
410 329
410 330
410 331
409 332
410 332
411 332
412 333
412 334
412 335
412 336
412 337
412 338
412 339
412 340
412 341
411 342
411 343
411 344
411 345
411 346
411 347
411 348
412 349
412 350
412 351
413 352
413 353
413 354
413 355
413 356
413 357
413 358
413 359
413 360
412 361
412 362
412 363
413 364
413 365
413 366
414 367
414 368
414 369
414 370
414 371
414 372
413 373
413 374
413 375
413 376
413 377
413 378
413 379
414 380
415 381
415 382
415 383
415 384
415 385
415 386
415 387
415 388
415 389
415 390
415 391
415 392
415 393
415 394
415 395
415 396
415 397
415 398
415 399
415 400
415 401
416 401
417 402
417 403
417 404
417 405
418 406
418 407
418 408
418 409
418 410
418 411
418 412
418 413
418 414
418 415
418 416
418 417
417 418
417 419
418 420
418 421
418 422
418 423
418 424
418 425
419 426
418 427
418 428
418 429
419 428
420 427
421 427
422 426
423 425
424 425
425 424
426 423
426 422
427 421
427 420
428 419
428 418
428 417
429 416
429 415
430 414
430 413
431 412
431 411
432 410
432 409
432 408
432 407
433 406
433 405
434 404
434 403
435 402
436 401
436 400
437 399
437 398
437 397
438 396
438 395
439 394
439 393
440 392
440 391
441 390
441 389
441 388
441 387
442 386
442 385
443 384
443 383
443 382
444 381
445 380
446 379
446 378
447 377
447 376
447 375
448 374
448 373
448 372
449 371
449 370
449 369
450 368
451 367
452 366
453 365
453 364
454 363
454 362
454 361
455 360
455 359
456 358
456 357
456 356
457 355
457 354
457 353
458 352
458 351
459 350
459 349
460 348
460 347
461 346
461 345
461 344
462 343
462 342
462 341
463 340
463 339
463 338
463 337
464 336
464 335
465 334
465 333
465 332
466 331
466 330
467 329
467 328
468 327
468 326
468 325
468 324
469 323
469 322
469 321
470 320
470 319
470 318
470 317
470 316
471 315
471 314
471 313
471 312
471 311
471 310
472 309
472 308
472 307
472 306
472 305
472 304
473 303
473 302
473 301
473 300
473 299
473 298
473 297
472 296
472 295
472 294
472 293
472 292
472 291
472 290
472 289
472 288
472 287
472 286
472 285
472 284
472 283
472 282
472 281
472 280
472 279
472 278
471 277
471 276
471 275
471 274
470 273
470 272
470 271
470 270
469 269
469 268
469 267
468 266
468 265
468 264
467 263
466 262
466 261
465 260
465 259
464 258
464 257
464 256
463 255
463 254
462 253
462 252
461 251
461 250
460 249
460 248
459 247
459 246
458 245
458 244
458 243
458 242
459 241
460 240
461 239
462 238
463 238
464 238
465 238
466 237
467 237
468 237
469 237
470 236
471 236
472 236
473 236
474 236
475 236
476 235
477 235
478 235
479 235
480 235
481 235
482 234
483 234
484 234
485 234
486 234
487 234
488 233
489 233
490 233
491 233
492 233
493 233
494 232
495 232
496 232
497 232
498 232
499 232
500 232
501 232
502 231
503 231
504 231
505 231
506 231
507 231
508 231
509 231
510 231
511 231
512 230
513 230
514 230
515 230
516 230
517 230
518 230
519 230
520 230
521 230
522 230
523 230
524 230
525 230
526 230
527 231
527 232
526 233
525 234
524 235
523 236
522 237
521 237
520 238
519 239
518 240
517 240
516 241
515 242
514 243
514 244
513 245
512 246
511 247
510 248
510 249
509 250
508 251
508 252
507 253
506 254
506 255
505 256
504 257
504 258
504 259
504 260
504 261
504 262
504 263
503 264
503 265
503 266
502 267
502 268
502 269
501 270
501 271
502 272
502 273
502 274
502 275
502 276
502 277
502 278
502 279
502 280
502 281
502 282
502 283
502 284
502 285
502 286
502 287
502 288
501 289
501 290
501 291
502 292
503 293
503 294
503 295
503 296
503 297
503 298
503 299
503 300
503 301
503 302
504 303
505 304
505 305
505 306
506 307
506 308
506 309
506 310
506 311
506 312
506 313
506 314
507 315
507 316
507 317
507 318
507 319
507 320
508 321
508 322
508 323
508 324
508 325
508 326
508 327
508 328
508 329
508 330
509 331
509 332
509 333
509 334
509 335
510 336
511 337
511 338
511 339
511 340
511 341
512 342
512 343
512 344
512 345
512 346
512 347
512 348
512 349
512 350
512 351
513 351
514 352
514 353
514 354
515 355
515 356
515 357
515 358
516 359
516 360
516 361
516 362
516 363
517 364
517 365
517 366
517 367
518 368
518 369
518 370
518 371
518 372
519 373
519 374
519 375
519 376
520 377
521 378
521 379
521 380
522 381
522 382
522 383
522 384
523 385
523 386
524 387
524 388
525 389
525 390
526 391
527 390
527 389
527 388
528 387
529 388
530 387
530 386
531 385
531 384
531 383
532 382
532 381
532 380
532 379
532 378
533 377
533 376
533 375
533 374
533 373
533 372
533 371
534 370
534 369
534 368
534 367
535 366
535 365
535 364
535 363
535 362
535 361
536 360
536 359
536 358
536 357
536 356
537 355
537 354
537 353
538 352
538 351
538 350
538 349
539 348
539 347
539 346
540 345
540 344
540 343
541 342
541 341
541 340
542 339
543 338
543 337
543 336
544 335
544 334
545 333
545 332
545 331
546 330
546 329
547 328
547 327
548 326
548 325
548 324
548 323
549 322
549 321
549 320
549 319
550 318
550 317
550 316
551 315
551 314
552 313
552 312
552 311
552 310
552 309
552 308
553 307
553 306
553 305
553 304
553 303
553 302
553 301
553 300
553 299
554 298
554 297
554 296
554 295
554 294
554 293
554 292
554 291
555 290
555 289
555 288
555 287
555 286
555 285
555 284
555 283
555 282
555 281
555 280
555 279
554 278
554 277
554 276
554 275
554 274
554 273
554 272
554 271
554 270
554 269
553 268
553 267
553 266
553 265
553 264
552 263
552 262
552 261
552 260
551 259
551 258
551 257
550 256
550 255
550 254
549 253
549 252
549 251
548 250
548 249
547 248
547 247
546 246
546 245
545 244
545 243
544 242
544 241
543 240
542 239
541 238
541 237
540 236
540 235
539 234
539 233
539 232
539 231
540 230
541 229
542 228
543 228
544 228
545 227
546 227
547 227
548 227
549 226
550 226
551 226
552 226
553 226
554 225
555 225
556 225
557 225
558 225
559 225
560 225
561 225
562 224
563 224
564 224
565 224
566 224
567 224
568 224
569 224
570 224
571 224
572 224
573 224
574 224
575 224
576 224
577 224
578 224
579 224
580 224
581 224
582 224
583 224
584 224
585 224
586 224
587 225
588 225
589 225
590 225
591 225
592 225
593 226
592 227
591 228
590 228
589 229
589 230
588 231
587 232
586 233
586 234
585 235
585 236
584 237
584 238
583 239
583 240
582 241
582 242
582 243
582 244
582 245
582 246
582 247
582 248
582 249
582 250
582 251
582 252
582 253
582 254
582 255
582 256
582 257
582 258
582 259
582 260
582 261
583 262
583 263
583 264
583 265
583 266
583 267
583 268
583 269
583 270
583 271
583 272
583 273
583 274
584 275
584 276
584 277
584 278
584 279
584 280
584 281
584 282
584 283
584 284
584 285
585 286
585 287
586 288
586 289
587 290
587 291
587 292
587 293
587 294
588 295
589 296
590 297
590 298
591 299
591 300
592 301
592 302
592 303
593 304
593 305
594 306
594 307
595 308
596 309
596 310
597 311
597 312
598 313
598 314
598 315
599 316
599 317
600 318
601 319
602 320
602 321
603 322
604 323
604 324
605 325
605 326
606 327
607 328
607 329
608 330
608 331
609 332
609 333
610 333
611 334
612 335
613 336
614 337
614 338
615 339
616 340
617 341
618 341
619 342
620 341
621 340
622 339
622 338
622 337
622 336
622 335
623 334
623 333
623 332
623 331
623 330
623 329
623 328
623 327
623 326
623 325
624 324
624 323
624 322
624 321
624 320
624 319
624 318
624 317
624 316
624 315
624 314
624 313
624 312
624 311
624 310
624 309
624 308
624 307
624 306
624 305
624 304
624 303
624 302
624 301
624 300
624 299
624 298
624 297
624 296
623 295
623 294
623 293
623 292
623 291
623 290
623 289
623 288
623 287
623 286
623 285
623 284
623 283
623 282
622 281
622 280
622 279
622 278
622 277
622 276
622 275
621 274
621 273
621 272
621 271
621 270
621 269
621 268
621 267
620 266
620 265
620 264
620 263
620 262
619 261
619 260
619 259
618 258
618 257
618 256
617 255
617 254
616 253
615 252
615 251
614 250
614 249
613 248
612 247
611 246
610 245
610 244
609 244
608 243
608 242
608 241
607 241
606 240
606 239
605 238
605 237
604 236
604 235
603 234
602 233
602 232
602 231
602 230
602 229
602 228
603 227
604 226
605 226
606 226
607 226
608 225
609 225
610 225
611 224
612 224
613 224
614 224
615 224
616 224
617 224
618 224
619 224
620 224
621 224
622 224
623 224
624 224
625 224
626 224
627 224
628 224
629 224
630 224
631 224
632 224
633 223
634 223
635 223
636 223
637 223
638 223
639 223
640 223
641 223
642 223
643 223
644 223
645 223
646 223
647 223
648 223
649 223
650 223
651 223
652 223
653 224
654 224
655 224
656 224
657 224
658 224
659 224
660 224
661 224
662 224
663 224
664 224
665 224
666 224
667 224
668 225
669 225
670 225
671 225
672 225
673 226
674 226
675 226
676 226
677 226
678 226
679 226
680 227
681 227
682 227
683 227
684 227
685 227
686 227
687 228
688 228
689 228
690 228
691 229
692 229
693 229
694 230
695 230
696 230
697 230
698 231
699 231
700 231
701 232
702 232
703 232
704 233
705 233
706 233
707 234
708 234
709 234
710 235
711 235
712 236
713 236
714 237
715 237
716 238
717 238
718 239
719 239
720 240
721 240
722 241
723 241
724 242
725 242
726 243
727 243
728 244
729 244
730 245
731 246
732 246
733 246
734 247
735 248
736 248
737 249
738 250
739 250
740 251
741 252
742 252
743 253
744 253
745 254
746 255
747 255
748 256
749 256
750 256
751 257
752 257
753 258
754 258
755 258
756 258
757 258
758 258
759 258
760 258
761 257
762 256
762 255
762 254
762 253
761 252
760 251
759 251
758 251
757 250
756 250
755 250
754 250
753 250
752 250
751 249
750 249
749 249
748 248
747 248
746 248
745 247
744 247
743 246
742 246
741 245
740 245
739 244
738 244
737 243
736 243
735 242
734 242
733 241
732 241
731 240
730 240
729 239
728 238
727 238
726 237
725 237
724 237
723 236
722 236
721 235
720 235
719 234
718 234
717 234
716 233
715 233
714 232
713 232
712 231
711 231
710 231
709 230
708 230
707 230
706 229
705 229
704 229
703 228
702 228
701 228
700 228
699 227
698 227
697 227
696 226
695 226
694 226
693 226
692 225
691 225
690 225
689 225
688 224
687 224
686 224
685 224
684 224
683 224
682 223
681 223
680 223
679 223
678 223
677 223
676 223
675 222
674 222
673 222
672 222
671 222
670 222
669 221
668 221
667 221
666 221
665 221
664 221
663 221
662 221
661 221
660 221
659 221
658 221
657 221
656 220
655 220
654 220
653 220
652 220
651 220
650 220
649 220
648 220
647 220
646 220
645 220
644 220
643 220
642 220
641 220
640 220
639 220
638 220
637 220
636 220
635 220
634 220
633 220
632 220
631 220
630 220
629 220
628 220
627 220
626 220
625 220
624 220
623 220
622 220
621 220
620 220
619 220
618 220
617 220
616 220
615 220
614 220
613 220
612 220
611 220
610 220
609 220
608 220
607 220
606 220
605 220
604 220
603 219
602 219
601 218
600 217
600 216
600 215
601 214
601 213
602 212
603 211
604 210
605 209
606 209
607 208
608 207
609 206
610 205
611 204
612 204
613 203
614 202
615 201
616 200
616 199
617 198
618 197
619 196
619 195
620 194
620 193
621 192
621 191
622 190
622 189
623 188
623 187
624 186
624 185
625 184
625 183
626 182
626 181
627 180
627 179
627 178
628 177
628 176
628 175
629 174
629 173
629 172
630 171
630 170
631 169
631 168
631 167
632 166
632 165
632 164
632 163
633 162
633 161
633 160
633 159
633 158
633 157
634 156
634 155
634 154
634 153
634 152
634 151
634 150
634 149
634 148
634 147
634 146
634 145
634 144
634 143
634 142
634 141
634 140
634 139
634 138
634 137
635 136
635 135
635 134
635 133
635 132
635 131
635 130
635 129
635 128
635 127
635 126
635 125
636 124
636 123
636 122
636 121
637 120
637 119
637 118
637 117
637 116
637 115
638 114
638 113
638 112
638 111
638 110
638 109
639 108
639 107
639 106
639 105
639 104
639 103
638 103
637 103
636 104
635 104
634 104
633 105
632 105
631 106
630 107
629 108
628 109
627 109
626 110
625 111
625 112
624 113
623 114
622 115
621 116
620 117
619 118
619 119
618 120
618 121
617 122
617 123
616 124
615 125
614 126
613 126
612 127
612 128
611 129
610 130
610 131
609 132
609 133
608 134
607 135
606 136
605 137
605 138
604 139
603 140
603 141
602 142
601 143
601 144
600 145
599 145
598 146
598 147
597 148
597 149
597 150
596 151
596 152
595 153
595 154
594 155
593 155
592 156
592 157
592 158
591 159
591 160
590 161
589 161
589 162
588 163
588 164
588 165
587 166
587 167
586 168
585 168
585 169
585 170
584 171
584 172
584 173
584 174
583 175
583 176
582 177
582 178
581 179
581 180
580 181
580 182
580 183
579 184
579 185
579 186
579 187
579 188
579 189
579 190
579 191
578 192
578 193
578 194
578 195
578 196
578 197
579 198
579 199
579 200
579 201
580 202
580 203
581 204
581 205
582 206
582 207
583 208
583 209
584 210
585 211
585 212
586 213
587 214
588 215
588 216
589 217
590 218
590 219
589 220
588 220
587 220
586 220
585 220
584 220
583 220
582 220
581 220
580 220
579 220
578 220
577 220
576 220
575 220
574 220
573 220
572 220
571 220
570 220
569 220
568 220
567 221
566 221
565 221
564 221
563 221
562 221
561 221
560 221
559 221
558 221
557 221
556 221
555 221
554 222
553 222
552 222
551 222
550 222
549 222
548 222
547 222
546 223
545 223
544 223
543 223
542 223
541 223
540 223
539 223
538 223
537 222
537 221
536 220
536 219
537 218
537 217
538 216
538 215
539 214
539 213
540 212
540 211
540 210
541 209
541 208
542 207
542 206
542 205
543 204
543 203
543 202
544 201
544 200
544 199
544 198
545 197
545 196
545 195
545 194
545 193
546 192
546 191
546 190
546 189
546 188
546 187
546 186
546 185
546 184
546 183
546 182
546 181
546 180
547 179
547 178
547 177
547 176
547 175
547 174
547 173
547 172
547 171
547 170
547 169
547 168
547 167
547 166
547 165
547 164
547 163
547 162
547 161
547 160
547 159
547 158
547 157
547 156
547 155
547 154
547 153
547 152
547 151
547 150
547 149
547 148
546 147
546 146
546 145
546 144
546 143
545 142
545 141
545 140
545 139
545 138
545 137
544 136
544 135
544 134
544 133
544 132
544 131
543 130
543 129
543 128
543 127
543 126
543 125
542 124
542 123
542 122
541 121
541 120
541 119
541 118
540 117
540 116
540 115
540 114
539 113
539 112
539 111
538 110
538 109
538 108
538 107
537 106
537 105
537 104
536 103
536 102
535 101
535 100
535 99
534 98
534 97
533 96
533 95
533 94
532 94
531 93
531 92
530 91
529 90
529 89
529 88
529 87
528 86
528 85
528 84
527 83
527 82
527 81
526 80
526 79
526 78
526 77
526 76
525 75
525 74
525 73
524 72
524 71
524 70
523 69
523 68
523 67
522 66
522 65
522 64
522 63
522 62
521 61
521 60
520 59
520 58
519 57
519 56
518 55
517 54
517 53
516 52
515 51
514 52
514 53
513 54
513 55
513 56
512 57
512 58
512 59
512 60
512 61
511 62
511 63
511 64
511 65
510 66
510 67
510 68
510 69
510 70
510 71
510 72
510 73
509 74
508 74
508 75
508 76
508 77
508 78
508 79
508 80
508 81
508 82
508 83
508 84
508 85
507 86
507 87
507 88
507 89
506 90
505 90
505 91
505 92
505 93
504 94
504 95
504 96
504 97
504 98
504 99
504 100
504 101
504 102
503 103
502 103
502 104
502 105
502 106
502 107
501 108
501 109
501 110
501 111
501 112
500 113
500 114
499 115
498 116
498 117
498 118
498 119
498 120
498 121
498 122
498 123
498 124
498 125
498 126
498 127
498 128
498 129
498 130
497 131
496 131
496 132
496 133
496 134
496 135
496 136
496 137
496 138
495 139
495 140
495 141
494 142
494 143
494 144
494 145
494 146
494 147
494 148
494 149
494 150
494 151
494 152
494 153
494 154
494 155
493 156
492 157
492 158
492 159
493 160
493 161
493 162
493 163
493 164
493 165
492 166
492 167
492 168
492 169
493 170
493 171
493 172
493 173
494 174
494 175
494 176
494 177
495 178
495 179
495 180
495 181
495 182
495 183
495 184
495 185
495 186
496 187
496 188
496 189
497 190
497 191
497 192
498 193
498 194
498 195
499 196
499 197
500 198
501 199
502 200
502 201
503 202
504 203
505 204
505 205
506 206
507 207
508 208
509 209
510 210
511 211
512 212
513 213
514 214
515 215
516 216
517 216
518 217
519 218
520 219
521 220
522 220
523 221
524 222
525 223
524 224
523 225
522 225
521 225
520 226
519 226
518 226
517 226
516 226
515 226
514 226
513 227
512 227
511 227
510 227
509 227
508 227
507 227
506 228
505 228
504 228
503 228
502 228
501 228
500 228
499 229
498 229
497 229
496 229
495 229
494 229
493 229
492 230
491 230
490 230
489 230
488 230
487 230
486 231
485 231
484 231
483 231
482 231
481 231
480 232
479 232
478 232
477 232
476 232
475 232
474 232
473 233
472 233
471 233
470 233
469 233
468 233
467 233
466 234
465 234
464 234
463 234
462 234
461 234
460 235
459 235
458 235
457 235
456 234
455 233
455 232
455 231
456 230
457 229
457 228
457 227
458 226
458 225
459 224
459 223
460 222
460 221
460 220
461 219
461 218
462 217
462 216
463 215
463 214
464 213
464 212
464 211
465 210
465 209
466 208
466 207
466 206
467 205
467 204
467 203
468 202
468 201
468 200
468 199
468 198
468 197
468 196
469 195
469 194
469 193
469 192
469 191
469 190
469 189
469 188
469 187
469 186
469 185
469 184
469 183
469 182
469 181
469 180
469 179
469 178
469 177
469 176
469 175
469 174
469 173
469 172
469 171
469 170
469 169
470 168
470 167
470 166
470 165
470 164
469 163
469 162
469 161
469 160
469 159
469 158
469 157
469 156
469 155
469 154
469 153
469 152
469 151
468 150
468 149
468 148
468 147
468 146
467 145
467 144
467 143
467 142
466 141
466 140
466 139
466 138
466 137
466 136
465 135
465 134
465 133
465 132
464 131
464 130
463 129
463 128
462 127
462 126
462 125
462 124
461 123
461 122
461 121
461 120
461 119
461 118
460 117
460 116
460 115
460 114
460 113
460 112
460 111
459 110
459 109
459 108
459 107
459 106
458 105
458 104
458 103
458 102
458 101
458 100
458 99
458 98
458 97
457 96
457 95
457 94
457 93
456 92
456 91
456 90
456 89
456 88
456 87
455 86
455 85
455 84
455 83
454 82
454 81
454 80
453 79
453 78
453 77
453 76
453 75
453 74
453 73
452 72
452 71
452 70
452 69
452 68
451 67
451 66
451 65
450 64
450 63
450 62
449 61
449 60
449 59
448 58
448 57
448 56
447 55
447 54
447 53
446 52
446 51
446 50
445 49
445 48
444 47
444 46
443 45
443 44
442 43
442 42
441 41
440 40
440 39
439 38
438 37
437 37
