353 36
352 37
351 37
350 37
349 37
348 37
347 37
346 37
345 37
344 37
343 38
342 38
341 38
340 38
339 38
338 38
337 38
336 38
335 38
334 38
333 38
332 38
331 38
330 38
329 38
328 39
327 39
326 39
325 39
324 39
323 39
322 39
321 39
320 40
319 40
318 40
317 40
316 40
315 40
314 40
313 40
312 40
311 40
310 41
309 41
308 41
307 41
306 40
305 40
304 41
303 41
302 41
301 41
300 41
299 41
298 41
297 41
296 41
295 41
294 41
293 41
292 41
291 41
290 41
289 41
288 41
287 41
286 41
285 41
284 40
283 40
282 40
281 40
280 40
279 40
278 40
277 40
276 40
275 40
274 40
273 40
272 40
271 40
270 40
269 40
268 40
267 40
266 39
265 39
264 39
263 39
262 39
261 39
260 39
259 39
258 39
257 39
256 39
255 39
254 39
253 39
252 39
251 39
250 39
249 39
248 39
247 39
246 39
245 39
244 39
243 39
242 39
241 39
240 39
239 39
238 39
237 39
236 39
235 39
234 39
233 39
232 40
231 39
230 39
229 39
228 39
227 39
226 40
225 40
224 40
223 40
222 40
221 40
220 40
219 40
218 40
217 40
216 40
215 40
214 40
213 40
212 40
211 40
210 40
209 40
208 40
207 40
206 40
205 40
204 40
203 41
202 41
201 41
200 41
199 41
198 41
197 41
196 41
195 41
194 41
193 41
192 41
191 42
190 41
189 41
188 41
187 42
186 42
185 42
184 42
183 42
182 42
181 42
180 42
179 42
178 43
177 43
176 43
175 43
174 43
173 43
172 43
171 43
170 44
169 44
168 44
167 44
166 45
165 45
164 45
163 45
162 46
161 46
160 46
159 46
158 46
157 46
156 47
155 47
154 47
153 47
152 47
151 47
150 47
149 48
148 48
147 48
146 48
145 48
144 48
143 49
142 49
141 49
140 49
139 49
138 49
137 50
136 50
135 50
134 50
133 50
132 50
131 50
130 50
129 50
128 51
127 51
126 51
125 51
124 51
123 52
122 52
121 52
120 52
119 52
118 53
117 53
116 53
115 54
114 54
113 54
112 54
111 55
110 55
109 55
108 55
107 56
106 56
105 56
104 57
103 57
102 57
101 57
100 58
99 58
98 59
97 59
96 59
95 59
94 60
93 60
92 61
91 61
90 61
89 62
88 62
87 62
86 63
85 63
84 63
83 64
82 64
81 65
80 65
79 66
78 66
77 67
76 67
75 67
74 68
73 68
72 69
71 69
70 70
69 70
68 71
67 71
66 72
65 72
64 73
63 73
62 74
61 74
60 75
59 75
58 76
57 76
56 77
55 77
54 78
53 78
52 79
51 79
50 79
49 80
48 80
47 80
46 81
45 81
44 82
43 82
42 82
41 83
40 83
39 84
38 84
37 84
36 84
35 85
34 85
33 85
32 86
31 86
30 86
29 87
28 87
28 88
28 89
29 90
30 90
31 91
32 91
33 92
34 92
35 92
36 93
37 93
38 93
39 93
40 93
41 93
42 93
43 94
44 94
45 94
46 94
47 94
48 94
49 94
50 94
51 94
52 94
53 94
54 94
55 95
56 95
57 95
58 95
59 95
60 95
61 96
62 96
63 96
64 96
65 96
66 96
67 97
68 97
69 97
70 97
71 97
72 97
73 98
74 98
75 98
76 98
77 98
78 99
79 99
80 99
81 99
82 99
83 100
84 100
85 100
86 100
87 100
88 100
89 101
90 101
91 101
92 102
93 102
94 102
95 102
96 103
97 103
98 103
99 103
100 103
101 104
102 104
103 104
104 104
105 104
106 104
107 105
108 105
109 105
110 105
111 105
112 106
113 106
114 106
115 106
116 106
117 106
118 107
119 107
120 107
121 107
122 107
123 108
124 108
125 108
126 108
127 108
128 109
129 109
130 109
131 109
132 109
133 110
134 110
135 110
136 110
137 111
138 111
139 111
140 111
141 112
142 112
143 112
144 112
145 112
146 113
147 113
148 113
149 113
150 114
151 114
152 114
153 114
154 114
155 115
156 115
157 115
158 115
159 116
160 116
161 116
162 116
163 117
164 117
165 117
166 117
167 117
168 118
169 118
170 118
171 118
172 118
173 119
174 119
175 119
176 119
177 119
178 120
179 120
180 120
181 120
182 120
183 121
184 121
185 121
186 121
187 122
188 122
189 122
190 122
191 122
192 123
193 123
194 123
195 123
196 123
197 124
198 124
199 124
200 124
201 124
202 125
203 125
204 125
205 125
206 126
207 126
208 126
209 126
210 126
211 127
212 127
213 127
214 127
215 128
216 128
217 128
218 128
219 128
220 129
221 129
222 129
223 129
224 129
225 130
226 130
227 130
228 130
229 130
230 131
231 131
232 131
233 131
234 131
235 131
236 132
237 132
238 132
239 132
240 132
241 132
242 133
243 133
244 133
245 133
246 133
247 133
248 133
249 134
250 134
251 134
252 134
253 135
254 135
255 135
256 135
257 135
258 136
259 136
260 136
261 136
262 136
263 137
264 137
265 137
266 137
267 137
268 137
269 138
270 138
271 138
272 138
273 138
274 139
275 139
276 139
277 139
278 140
279 140
280 140
281 140
282 140
283 140
284 141
285 141
286 141
287 141
288 141
289 142
290 142
291 142
292 142
293 142
294 142
295 142
296 143
297 143
298 143
299 143
300 143
301 143
302 143
303 143
304 143
305 144
306 144
307 144
308 144
309 144
310 144
311 145
312 145
313 145
314 145
315 145
316 145
317 145
318 145
319 145
320 145
321 146
322 146
323 146
324 146
325 146
326 146
327 146
328 146
329 146
330 146
331 146
332 146
333 146
334 147
335 147
336 147
337 147
338 147
339 147
340 147
341 147
342 147
343 147
344 147
345 147
346 147
347 147
348 147
349 148
350 148
351 148
352 148
353 148
354 148
355 148
356 148
357 148
358 148
359 148
360 148
361 148
362 148
363 148
364 148
365 149
366 149
367 149
368 149
369 149
370 149
371 149
372 149
373 149
374 149
375 149
376 149
377 149
378 149
379 149
380 149
381 149
382 149
383 149
384 149
385 149
386 149
387 149
388 149
389 149
390 149
391 149
392 149
393 149
394 149
395 149
396 149
397 149
398 149
399 149
400 149
401 149
402 149
403 149
404 149
405 149
406 148
407 148
408 148
409 148
410 148
411 148
412 148
413 148
414 148
415 148
416 148
417 148
418 148
419 148
420 148
421 148
422 148
423 148
424 148
425 148
426 148
427 148
428 148
429 147
430 147
431 147
432 147
433 147
434 147
435 147
436 147
437 147
438 147
439 147
440 147
441 147
442 147
443 147
444 147
445 147
446 147
447 147
448 147
449 147
450 147
451 146
452 146
453 146
454 146
455 146
456 146
457 146
458 146
459 146
460 146
461 146
462 146
463 146
464 146
465 146
466 146
467 146
468 145
469 145
470 145
471 145
472 145
473 145
474 145
475 145
476 145
477 145
478 145
479 145
480 145
481 145
482 145
483 145
484 144
485 144
486 144
487 144
488 144
489 144
490 144
491 144
492 144
493 144
494 144
495 144
496 144
497 144
498 144
499 144
500 143
501 143
502 143
503 143
504 143
505 143
506 143
507 143
508 143
509 143
510 143
511 143
512 143
513 142
514 142
515 142
516 142
517 142
518 142
519 142
520 142
521 141
522 141
523 141
524 141
525 141
526 141
527 141
528 141
529 141
530 140
531 140
532 140
533 140
534 140
535 140
536 140
537 140
538 140
539 139
540 139
541 139
542 139
543 139
544 139
545 139
546 139
547 139
548 138
549 138
550 138
551 138
552 138
553 138
554 138
555 138
556 138
557 138
558 138
559 137
560 137
561 137
562 137
563 137
564 137
565 137
566 136
567 136
568 136
569 136
570 136
571 136
572 136
573 135
574 135
575 135
576 135
577 134
578 134
579 134
580 134
581 134
582 134
583 133
584 133
585 133
586 133
587 133
588 133
589 132
590 132
591 132
592 132
593 132
594 131
595 131
596 131
597 131
598 131
599 130
600 130
601 130
602 129
603 129
604 129
605 129
606 129
607 128
608 128
609 128
610 128
611 128
612 127
613 127
614 127
615 127
616 126
617 126
618 126
619 125
620 125
621 125
622 125
623 124
624 124
625 124
626 124
627 123
628 123
629 123
630 123
631 122
632 122
633 122
634 122
635 121
636 121
637 121
638 120
639 120
640 120
641 119
642 119
643 119
644 118
645 118
646 118
647 117
648 117
649 117
650 116
651 116
652 116
653 115
654 115
655 114
656 114
657 113
658 113
659 112
660 112
661 112
662 111
663 111
664 110
665 109
666 109
667 108
668 108
669 107
670 107
671 106
672 106
673 105
674 104
675 104
676 103
677 103
678 102
679 102
680 101
681 100
682 100
683 99
684 99
685 98
686 98
687 97
688 97
689 97
690 96
691 96
692 95
693 95
694 95
695 94
696 94
697 94
698 93
699 93
700 93
701 92
702 92
703 92
704 91
705 91
706 91
707 90
708 90
709 90
710 90
711 89
712 89
713 89
714 89
715 88
716 88
717 88
718 88
719 87
720 87
721 87
722 87
723 86
724 86
725 86
726 86
727 86
728 85
729 85
730 85
731 85
732 85
733 84
734 84
735 84
736 84
737 84
738 84
739 84
740 83
741 83
742 83
743 83
744 83
745 83
746 83
747 82
748 82
749 82
750 82
751 82
752 82
753 81
754 81
755 81
756 81
757 81
758 80
759 80
760 80
761 80
762 80
763 80
764 79
765 79
766 79
767 79
768 79
769 78
770 78
771 78
772 77
773 76
773 75
774 74
774 73
774 72
775 71
776 70
776 69
776 68
776 67
777 66
778 65
778 64
777 63
777 62
776 61
775 61
774 61
773 61
772 61
771 62
770 62
769 62
768 62
767 63
766 63
765 63
764 63
763 64
762 64
761 64
760 65
759 65
758 65
757 65
756 65
755 65
754 66
753 66
752 66
751 66
750 66
749 67
748 67
747 67
746 67
745 67
744 68
743 68
742 68
741 68
740 68
739 68
738 69
737 69
736 69
735 69
734 69
733 69
732 70
731 70
730 70
729 70
728 70
727 70
726 70
725 70
724 70
723 70
722 71
721 71
720 71
719 71
718 71
717 71
716 71
715 71
714 71
713 70
712 70
711 70
710 70
709 70
708 70
707 70
706 70
705 70
704 69
703 69
702 69
701 69
700 69
699 69
698 68
697 68
696 68
695 68
694 67
693 67
692 67
691 67
690 66
689 66
688 66
687 65
686 65
685 65
684 65
683 64
682 64
681 64
680 63
679 63
678 63
677 63
676 62
675 62
674 62
673 62
672 62
671 61
670 61
669 61
668 61
667 61
666 60
665 60
664 60
663 60
662 60
661 60
660 59
659 59
658 59
657 59
656 59
655 58
654 58
653 58
652 58
651 58
650 58
649 57
648 57
647 57
646 57
645 57
644 57
643 57
642 57
641 56
640 56
639 56
638 56
637 56
636 56
635 56
634 55
633 55
632 55
631 55
630 55
629 55
628 55
627 55
626 55
625 54
624 54
623 54
622 54
621 54
620 54
619 54
618 54
617 54
616 53
615 53
614 53
613 53
612 53
611 53
610 53
609 53
608 53
607 53
606 53
605 53
604 52
603 52
602 52
601 52
600 52
599 52
598 52
597 52
596 51
595 51
594 51
593 51
592 51
591 51
590 51
589 50
588 50
587 50
586 50
585 50
584 50
583 50
582 50
581 50
580 50
579 50
578 50
577 50
576 50
575 49
574 49
573 49
572 49
571 49
570 49
569 49
568 49
567 49
566 49
565 48
564 48
563 48
562 48
561 48
560 48
559 48
558 48
557 48
556 48
555 48
554 48
553 48
552 48
551 48
550 48
549 48
548 48
547 47
546 47
545 47
544 47
543 47
542 47
541 47
540 47
539 47
538 47
537 47
536 47
535 47
534 47
533 47
532 47
531 47
530 47
529 47
528 47
527 47
526 47
525 47
524 47
523 47
522 47
521 47
520 47
519 47
518 46
517 47
516 47
515 47
514 46
513 46
512 46
511 46
510 46
509 46
508 46
507 46
506 46
505 46
504 46
503 46
502 46
501 45
500 45
499 45
498 45
497 45
496 45
495 45
494 45
493 45
492 45
491 45
490 45
489 45
488 44
487 44
486 44
485 44
484 44
483 44
482 44
481 44
480 43
479 43
478 43
477 43
476 43
475 43
474 43
473 43
472 43
471 43
470 42
469 42
468 42
467 42
466 42
465 42
464 42
463 42
462 42
461 42
460 42
459 42
458 42
457 42
456 41
455 41
454 41
453 41
452 41
451 41
450 41
449 41
448 41
447 41
446 41
445 40
444 40
443 40
442 40
441 40
440 40
439 40
438 40
437 40
436 40
435 40
434 39
433 39
432 39
431 39
430 39
429 39
428 39
427 39
426 39
425 39
424 38
423 38
422 38
421 38
420 38
419 38
418 38
417 38
416 38
415 38
414 38
413 38
412 37
411 38
410 37
409 37
408 37
407 37
406 37
405 37
404 37
403 37
402 37
401 37
400 37
399 37
398 37
397 37
396 37
395 37
394 37
393 37
392 37
391 37
390 36
389 36
388 36
387 36
386 36
385 36
384 36
383 36
382 36
381 36
380 36
379 36
378 36
377 36
376 36
375 36
374 36
373 36
372 36
371 36
370 36
369 36
368 36
367 36
366 36
365 36
364 36
363 36
362 36
361 36
360 36
359 36
358 36
357 36
356 36
355 36
354 36
353 36
