250 107
249 108
248 109
248 110
248 111
247 112
246 113
246 114
245 115
245 116
245 117
244 118
244 119
244 120
243 121
243 122
243 123
242 124
242 125
242 126
242 127
242 128
241 129
241 130
241 131
241 132
241 133
241 134
241 135
241 136
241 137
241 138
241 139
241 140
241 141
241 142
241 143
241 144
241 145
241 146
240 147
240 148
240 149
240 150
240 151
240 152
240 153
240 154
239 155
239 156
238 157
238 158
238 159
237 160
237 161
237 162
237 163
237 164
237 165
237 166
237 167
237 168
237 169
237 170
237 171
237 172
237 173
237 174
237 175
237 176
237 177
237 178
237 179
237 180
237 181
237 182
237 183
237 184
236 185
236 186
236 187
236 188
236 189
236 190
236 191
236 192
236 193
236 194
236 195
236 196
236 197
236 198
236 199
237 200
237 201
237 202
237 203
237 204
238 205
238 206
239 207
239 208
239 209
239 210
240 211
240 212
241 213
241 214
241 215
241 216
242 217
242 218
242 219
243 220
243 221
243 222
244 223
244 224
244 225
244 226
245 227
245 228
245 229
245 230
246 231
246 232
245 233
246 234
247 235
247 236
247 237
247 238
248 239
248 240
248 241
248 242
249 243
249 244
249 245
249 246
250 247
250 248
250 249
250 250
250 251
251 252
251 253
251 254
252 255
252 256
253 257
254 258
254 259
255 260
255 261
255 262
256 263
256 264
257 265
257 266
258 267
258 268
259 269
259 270
260 271
261 272
261 273
261 274
262 275
263 276
263 277
262 278
261 278
260 279
259 279
258 279
257 278
256 279
255 279
254 279
253 279
252 279
251 279
250 279
249 279
248 279
247 279
246 279
245 279
244 279
243 279
242 278
241 278
240 278
239 278
238 278
237 278
236 278
235 278
234 278
233 278
232 278
231 278
230 278
229 278
228 278
227 278
226 278
225 278
224 278
223 278
222 278
221 278
220 278
219 278
218 278
217 279
216 279
215 279
214 279
213 279
212 279
211 280
210 280
209 280
208 280
207 280
206 280
205 281
204 281
203 281
202 281
201 281
200 281
199 281
198 281
197 281
196 281
195 282
194 282
193 282
192 283
191 283
190 284
189 284
188 284
187 285
186 285
185 285
184 286
183 287
182 287
181 287
180 288
179 289
178 289
177 290
176 290
175 291
174 292
173 292
172 293
171 294
170 294
169 295
168 295
167 295
166 296
165 296
164 297
163 297
162 297
161 298
160 298
159 298
158 299
157 299
156 300
155 300
154 301
153 301
152 302
151 302
150 303
149 304
148 304
147 305
146 306
145 306
144 307
143 307
142 308
141 309
140 309
139 310
138 310
137 311
136 311
135 311
134 311
133 311
132 311
131 312
130 312
129 312
128 312
127 313
126 314
125 314
124 315
123 315
122 316
121 316
120 317
119 318
118 319
117 319
116 320
116 321
115 322
115 323
115 324
114 325
113 325
112 326
111 327
110 327
109 328
108 329
108 330
107 331
106 332
105 333
105 334
104 335
104 336
103 337
102 338
101 339
101 340
100 341
100 342
100 343
99 344
99 345
99 346
98 347
98 348
98 349
98 350
98 351
98 352
98 353
98 354
98 355
98 356
98 357
98 358
98 359
98 360
98 361
98 362
98 363
98 364
99 365
99 366
99 367
100 368
101 369
101 370
101 371
102 372
102 373
102 374
103 375
104 376
104 377
105 378
105 379
106 380
107 381
107 382
106 383
107 383
108 384
108 385
109 386
109 387
110 388
111 389
112 390
112 391
113 392
114 393
115 394
115 395
116 396
117 396
118 396
119 397
120 398
121 398
122 398
123 398
124 399
125 399
126 399
127 399
128 399
129 399
130 399
131 399
132 400
133 400
134 400
135 400
136 401
137 401
138 402
139 403
140 403
141 404
142 404
143 405
144 406
145 407
146 408
147 409
148 409
149 410
150 411
151 412
152 413
153 413
154 414
155 415
156 415
157 416
158 416
159 417
160 418
161 418
162 419
163 420
164 420
165 421
166 422
167 423
168 424
169 425
170 426
171 426
172 427
173 428
174 428
175 429
176 430
177 430
178 431
179 431
180 431
181 432
182 432
183 432
184 433
185 433
186 433
187 433
188 433
189 433
190 434
191 434
192 434
193 434
194 434
195 434
196 434
197 434
198 434
199 434
200 434
201 434
202 434
203 434
204 434
205 434
206 434
207 434
208 434
209 434
210 434
211 434
212 434
213 435
214 435
215 435
216 435
217 436
218 436
219 436
220 436
221 436
222 436
223 436
224 436
225 436
226 437
227 437
228 437
229 438
230 438
231 439
232 439
233 440
234 440
235 440
236 441
237 441
238 442
239 442
240 443
241 443
242 443
243 443
244 444
245 444
246 444
247 444
248 445
249 445
250 445
251 445
252 446
253 446
254 446
255 446
256 447
257 448
256 449
256 450
255 451
255 452
254 453
254 454
253 455
252 456
252 457
251 458
251 459
250 460
250 461
249 462
249 463
249 464
248 465
248 466
247 467
247 468
246 469
246 470
246 471
245 472
245 473
245 474
245 475
245 476
244 477
245 478
245 479
245 480
245 481
244 482
244 483
244 484
244 485
244 486
244 487
244 488
244 489
244 490
244 491
243 492
243 493
243 494
243 495
242 496
242 497
242 498
241 499
241 500
241 501
241 502
241 503
240 504
240 505
239 506
239 507
238 508
238 509
238 510
237 511
237 512
236 513
236 514
235 515
235 516
235 517
234 518
234 519
233 520
233 521
233 522
232 523
232 524
232 525
232 526
232 527
231 528
231 529
231 530
231 531
231 532
231 533
231 534
231 535
231 536
231 537
231 538
230 539
230 540
230 541
230 542
230 543
230 544
230 545
230 546
230 547
230 548
230 549
230 550
230 551
229 552
229 553
229 554
229 555
228 556
228 557
228 558
227 559
227 560
226 561
226 562
225 563
225 564
225 565
224 566
224 567
224 568
224 569
224 570
224 571
224 572
224 573
224 574
224 575
225 576
225 577
225 578
225 579
225 580
225 581
226 582
226 583
226 584
226 585
226 586
227 587
227 588
227 589
227 590
227 591
227 592
228 593
228 594
228 595
228 596
228 597
229 598
229 599
229 600
229 601
229 602
230 603
230 604
231 605
231 606
231 607
232 608
231 609
232 610
233 611
233 612
234 613
235 614
235 615
236 616
236 617
237 618
238 619
239 620
240 621
241 622
242 622
243 623
244 623
245 623
246 623
247 623
248 623
249 623
250 623
251 623
252 623
253 623
254 623
255 623
256 623
257 623
258 623
259 623
260 623
261 623
262 623
263 623
264 623
265 623
266 623
267 623
268 623
269 623
270 623
271 622
272 623
273 622
274 622
275 622
276 622
277 622
278 621
279 621
280 621
281 620
282 620
283 620
284 619
285 619
286 619
287 618
288 617
289 616
290 616
291 615
292 615
293 614
294 614
295 614
296 613
297 612
298 612
299 611
300 610
301 609
302 609
303 609
304 608
305 608
305 607
306 606
307 606
308 606
309 605
310 605
311 604
312 603
313 602
314 602
315 601
316 601
317 600
318 599
319 599
320 599
320 598
321 597
322 596
322 595
323 594
324 594
325 593
326 593
326 592
327 591
328 592
328 591
329 590
330 589
331 588
332 587
333 586
334 585
334 584
335 583
335 582
335 581
336 580
336 579
337 578
338 577
339 576
340 575
341 574
342 573
343 572
344 572
345 571
346 570
347 569
348 568
349 568
350 567
351 566
352 566
353 565
354 564
355 563
356 562
357 561
358 560
359 559
360 558
360 557
361 556
362 555
362 554
363 553
364 552
364 551
365 550
365 549
366 548
367 547
368 546
368 545
369 544
370 543
370 542
371 541
372 540
372 539
373 538
373 537
374 536
374 535
375 534
376 533
376 532
377 531
378 530
379 529
380 528
380 527
381 526
382 525
383 524
384 523
385 522
385 521
386 520
387 519
387 518
388 517
388 516
389 515
390 514
390 513
391 512
391 511
392 510
392 509
393 508
393 507
394 506
395 505
395 504
396 503
397 502
397 501
398 500
399 499
399 498
400 497
401 496
402 495
403 494
403 493
404 492
405 491
406 490
406 489
407 488
408 487
408 486
409 485
409 484
410 483
411 482
411 481
412 480
413 479
414 478
414 477
415 476
416 475
417 474
417 473
418 472
418 471
419 470
419 469
420 468
421 467
422 466
422 465
423 464
424 463
425 462
425 461
426 460
426 459
427 458
428 457
428 456
429 455
429 454
430 453
430 452
431 451
431 450
432 449
432 448
433 447
433 446
434 445
434 444
435 443
436 442
436 441
436 440
437 439
437 438
438 437
439 436
440 435
441 434
442 433
443 432
443 431
444 430
445 429
446 428
446 427
447 426
448 425
448 424
449 423
449 422
450 421
451 420
451 419
452 418
452 417
453 416
453 415
454 414
454 413
454 412
455 411
455 410
455 409
456 408
456 407
456 406
456 405
456 404
456 403
457 402
457 401
457 400
457 399
457 398
457 397
457 396
457 395
457 394
457 393
456 392
456 391
456 390
456 389
456 388
455 387
455 386
455 385
454 384
453 383
453 382
452 381
452 380
451 379
450 378
449 377
449 376
448 375
447 374
447 373
446 372
446 371
447 370
448 370
449 370
450 369
451 369
452 369
453 369
454 369
455 368
456 368
457 368
458 368
459 368
460 367
461 367
462 367
463 367
464 366
465 366
466 366
467 365
468 365
469 365
470 364
471 364
472 364
473 364
474 363
475 363
476 363
477 362
478 362
479 362
480 362
481 361
482 361
483 361
484 360
485 360
486 360
487 360
488 359
489 359
490 358
491 358
492 357
493 357
494 357
495 357
496 356
497 356
498 355
499 355
500 355
501 354
502 354
503 353
504 353
505 353
506 352
507 352
508 352
509 351
510 351
511 350
512 350
513 350
514 349
515 349
516 349
517 348
518 348
519 347
520 347
521 347
522 346
523 346
524 345
525 345
526 345
527 344
528 344
529 343
530 343
531 342
532 342
533 341
534 341
535 341
536 340
537 340
538 339
539 339
540 338
541 338
542 338
543 337
544 337
545 336
546 336
547 335
548 335
549 335
550 334
551 334
552 333
553 333
554 333
555 332
556 332
557 331
558 331
559 331
560 330
561 329
562 329
563 328
564 328
565 328
566 327
567 327
568 326
569 326
570 325
571 325
572 324
573 324
574 323
575 323
576 322
577 322
578 321
579 321
580 320
581 320
582 320
583 319
584 318
585 318
586 317
587 317
588 316
589 316
590 316
591 315
592 314
593 314
594 314
595 313
596 312
597 312
598 312
599 311
600 310
601 310
602 309
603 309
604 308
605 308
606 307
607 307
608 306
609 305
610 305
611 305
612 304
613 304
614 303
615 303
616 302
617 302
618 301
619 300
620 300
621 299
622 299
623 299
624 298
625 297
626 297
627 296
628 295
629 295
630 294
631 294
632 293
633 293
634 292
635 292
636 291
637 290
638 290
639 290
640 289
641 288
642 287
643 287
644 286
645 286
646 285
647 285
648 284
649 284
650 283
651 282
652 282
653 281
654 280
655 280
656 279
657 278
658 278
659 277
660 277
661 276
662 276
663 275
664 274
665 274
666 273
667 272
668 272
669 271
670 270
671 270
672 269
673 268
674 268
675 267
676 267
677 266
678 266
679 265
680 264
681 264
682 263
683 262
684 262
685 261
686 261
687 260
688 260
689 260
690 259
691 258
692 258
693 257
694 257
695 257
696 256
697 256
698 256
699 255
700 255
701 255
702 254
703 254
704 254
705 253
706 253
707 252
708 252
709 252
710 251
711 251
712 250
713 250
714 250
715 249
716 249
717 249
718 249
719 249
720 249
721 249
722 248
723 248
724 247
725 246
726 245
727 244
728 243
729 243
730 242
729 241
728 240
727 239
726 239
725 239
724 238
723 238
722 238
721 237
720 237
719 236
718 235
717 234
717 233
717 232
716 231
716 230
716 229
716 228
715 227
714 227
713 226
712 226
711 226
710 226
709 227
708 228
707 228
706 229
705 230
704 231
703 231
702 232
701 233
700 233
699 234
698 235
697 236
696 236
695 237
694 238
693 238
693 239
692 240
691 240
690 241
689 241
688 242
687 243
686 244
685 245
684 245
683 246
682 247
681 248
680 248
679 249
678 250
677 251
676 252
675 253
674 253
673 254
672 255
671 256
670 257
669 257
668 258
667 259
666 259
665 260
664 261
663 262
662 262
661 263
660 264
659 265
658 265
657 266
656 267
655 268
654 268
653 269
652 269
651 270
650 271
649 271
648 272
647 273
646 273
645 274
644 275
643 275
642 276
641 277
640 277
639 278
638 278
637 279
636 280
635 280
634 281
633 281
632 282
631 282
630 283
629 284
628 284
627 285
626 285
625 286
624 287
623 287
622 288
621 288
620 289
619 289
618 290
617 290
616 291
615 292
614 292
613 293
612 293
611 294
610 294
609 295
608 295
607 296
606 296
605 297
604 297
603 298
602 298
601 299
600 300
599 300
598 300
597 301
596 301
595 302
594 302
593 303
592 304
591 304
590 305
589 305
588 306
587 306
586 307
585 307
584 308
583 308
582 309
581 309
580 310
579 310
578 311
577 311
576 312
575 312
574 313
573 313
572 314
571 314
570 315
569 315
568 316
567 316
566 317
565 317
564 317
563 318
562 318
561 319
560 319
559 320
558 320
557 321
556 321
555 322
554 322
553 323
552 323
551 324
550 324
549 324
548 325
547 325
546 326
545 326
544 327
543 327
542 328
541 328
540 329
539 329
538 329
537 330
536 330
535 331
534 331
533 332
532 332
531 333
530 333
529 333
528 334
527 334
526 335
525 335
524 336
523 336
522 336
521 337
520 337
519 338
518 338
517 338
516 339
515 339
514 340
513 340
512 340
511 341
510 341
509 342
508 342
507 342
506 343
505 343
504 344
503 344
502 344
501 345
500 345
499 345
498 346
497 346
496 347
495 347
494 347
493 348
492 348
491 348
490 349
489 349
488 349
487 350
486 350
485 350
484 351
483 351
482 351
481 351
480 352
479 352
478 352
477 353
476 353
475 353
474 353
473 354
472 354
471 354
470 354
469 355
468 355
467 355
466 355
465 356
464 356
463 356
462 356
461 356
460 356
459 357
458 357
457 357
456 357
455 357
454 357
453 357
452 357
451 357
450 357
449 358
448 358
447 358
446 358
445 358
444 358
443 358
442 357
441 357
440 357
439 356
438 355
438 354
438 353
439 352
440 352
441 351
442 350
443 349
443 348
444 347
445 346
445 345
446 344
447 343
448 342
448 341
449 340
449 339
450 338
450 337
451 336
451 335
451 334
451 333
452 332
452 331
452 330
452 329
452 328
452 327
452 326
452 325
452 324
452 323
452 322
452 321
452 320
452 319
452 318
451 317
451 316
450 315
450 314
450 313
449 312
449 311
448 310
448 309
447 308
446 307
445 306
445 305
444 305
443 304
442 303
441 302
441 301
440 300
440 299
439 298
438 297
437 296
437 295
436 294
436 293
435 292
435 291
434 290
433 289
433 288
432 287
432 286
431 285
431 284
430 283
430 282
429 281
429 280
428 279
427 278
427 277
426 276
426 275
425 274
425 273
424 272
423 271
423 270
422 269
422 268
421 267
421 266
420 265
420 264
419 263
419 262
418 261
417 260
417 259
416 258
416 257
415 256
414 255
413 254
412 253
411 252
411 251
410 250
409 249
408 248
407 247
406 247
405 246
404 245
403 244
402 243
401 242
401 241
400 240
399 239
398 238
398 237
397 236
397 235
396 234
395 233
395 232
394 231
393 230
392 229
391 228
391 227
390 226
389 225
388 224
387 223
386 222
385 221
384 220
383 219
382 218
381 217
380 216
380 215
379 214
379 213
378 212
378 211
378 210
378 209
379 208
378 207
378 206
378 205
378 204
378 203
378 202
378 201
377 200
377 199
376 198
375 197
374 196
374 195
373 194
372 193
371 192
370 191
369 190
368 189
367 188
366 187
365 186
364 185
363 184
362 183
361 182
360 182
359 181
359 180
358 179
357 178
356 177
355 176
354 175
353 174
353 173
352 172
351 171
350 170
350 169
349 168
348 167
347 166
346 165
345 164
344 163
343 162
342 161
341 160
340 159
339 158
338 157
337 156
336 155
335 154
335 153
334 152
334 151
333 150
333 149
333 148
332 147
332 146
331 145
330 144
329 143
328 142
327 141
326 140
325 139
324 138
323 137
322 137
321 136
320 135
319 134
318 134
317 133
316 133
315 132
314 131
313 130
312 130
311 130
310 129
309 129
308 128
307 128
306 127
305 127
304 126
303 126
302 125
301 125
300 124
299 124
298 124
297 123
296 123
295 123
294 122
293 122
292 121
291 121
290 121
289 120
288 120
287 120
286 119
285 119
284 119
283 119
282 119
281 118
280 118
279 118
278 118
277 118
276 118
275 118
274 118
273 118
272 117
271 117
270 117
269 116
268 116
267 116
266 116
265 115
264 114
263 114
262 114
261 113
260 113
259 112
258 111
257 110
256 110
255 109
254 108
253 108
252 107
251 107
250 107
