397 74
397 75
396 76
396 77
395 78
394 79
394 80
393 81
392 82
391 83
390 84
390 85
389 86
389 87
388 88
387 89
387 90
386 91
386 92
385 93
384 93
383 92
382 92
381 92
380 91
379 91
378 91
377 90
376 89
375 89
376 89
377 90
377 91
376 92
375 91
374 91
373 92
372 93
371 93
370 92
369 92
368 91
367 91
366 90
365 90
364 89
363 89
362 89
361 89
360 88
359 88
358 87
357 86
356 85
355 84
355 85
354 86
353 87
353 88
352 89
351 90
350 91
350 92
349 93
348 93
347 92
346 91
345 91
344 90
343 90
342 89
341 89
340 88
339 88
338 88
337 87
336 86
335 85
334 84
334 83
333 83
333 84
332 85
331 86
330 87
329 86
328 85
327 84
326 84
325 83
324 83
323 82
322 82
321 81
320 80
319 79
319 78
318 79
318 80
317 81
317 82
316 83
315 84
314 85
314 86
313 87
314 88
313 89
312 89
311 88
310 87
309 87
308 87
307 86
306 86
305 86
304 85
303 84
302 83
302 84
301 85
300 86
299 85
298 84
298 83
297 83
296 82
296 81
295 81
294 80
293 79
293 78
292 78
292 79
292 80
291 81
290 82
290 83
289 84
289 85
288 86
287 85
286 85
285 84
284 84
283 84
282 83
281 83
280 82
279 82
278 81
277 80
276 79
275 78
274 77
274 78
274 79
273 80
273 81
272 82
271 83
270 83
269 82
268 82
267 82
266 81
265 81
264 81
263 81
262 81
261 81
260 81
259 80
258 80
258 81
258 82
258 83
258 84
258 85
257 86
257 87
257 88
257 89
256 90
256 91
255 92
255 93
255 94
256 95
255 96
255 97
255 98
255 99
255 100
255 101
255 102
255 103
255 104
255 105
254 106
253 106
252 106
251 106
250 106
249 107
248 107
247 107
246 108
245 108
244 108
243 108
242 108
241 108
240 108
239 107
238 107
239 108
238 109
238 110
237 111
237 112
237 113
236 114
236 115
236 116
236 117
235 118
234 118
233 117
232 117
231 117
230 117
229 117
228 116
227 116
226 116
225 115
224 115
223 115
222 114
221 114
221 115
220 116
219 116
218 115
217 115
216 115
215 115
214 115
213 115
212 115
211 115
210 115
209 114
208 114
208 115
209 116
209 117
208 118
208 119
208 120
207 121
208 122
208 123
207 124
206 123
205 122
204 122
203 122
202 122
201 122
200 122
199 122
198 122
197 122
196 123
195 123
194 123
193 123
192 123
191 123
190 124
189 124
188 124
188 125
188 126
189 127
189 128
189 129
188 130
188 131
188 132
188 133
188 134
188 135
187 136
186 137
185 138
184 138
184 139
185 140
185 141
186 142
186 143
186 144
186 145
186 146
187 147
187 148
187 149
188 150
188 151
187 152
186 152
185 152
184 153
183 153
182 153
181 154
180 154
179 155
178 155
177 155
176 154
175 154
176 155
176 156
175 157
175 158
174 159
173 159
172 159
171 160
170 159
169 159
168 160
167 160
166 159
165 160
166 161
166 162
166 163
166 164
166 165
166 166
166 167
166 168
166 169
165 170
164 170
163 170
162 170
161 170
160 170
159 170
158 170
157 170
156 171
155 170
154 170
153 170
152 169
151 169
150 169
151 170
151 171
151 172
151 173
151 174
150 175
149 174
148 174
147 173
146 174
145 174
144 174
143 174
142 174
141 175
140 175
139 174
138 175
137 175
137 176
138 177
138 178
138 179
138 180
138 181
139 182
139 183
139 184
139 185
139 186
140 187
139 188
138 189
137 190
136 190
135 191
134 191
135 192
136 193
136 194
136 195
137 196
137 197
137 198
138 199
138 200
138 201
139 202
140 203
141 204
140 205
139 205
138 206
137 207
136 207
136 208
135 209
134 209
133 210
132 211
131 211
130 212
129 212
128 212
127 213
126 213
126 214
127 215
127 216
127 217
127 218
128 219
128 220
128 221
128 222
127 223
126 223
125 223
124 224
123 224
122 225
121 225
120 226
119 226
118 226
118 227
117 228
116 228
115 229
114 230
113 230
112 231
111 232
111 233
112 234
113 235
113 236
114 237
114 238
115 239
115 240
115 241
116 242
117 243
117 244
118 245
118 246
118 247
119 248
120 249
119 250
118 250
117 251
116 252
115 251
114 251
113 252
112 253
111 252
110 251
109 251
108 250
107 250
106 250
105 249
104 249
104 250
103 251
102 250
101 250
100 250
99 251
98 251
97 250
96 250
96 251
97 252
97 253
97 254
97 255
97 256
97 257
97 258
97 259
97 260
97 261
96 262
95 261
94 261
93 260
92 259
91 259
90 259
89 259
88 258
87 258
86 258
85 258
84 257
83 257
82 258
81 259
80 259
79 258
78 257
77 257
76 257
75 257
74 257
73 256
72 256
71 256
70 256
69 256
68 255
67 255
67 256
66 257
65 258
65 259
65 260
64 261
63 260
62 260
61 259
60 259
59 258
58 258
57 258
56 257
55 257
54 257
53 257
52 256
51 256
50 255
49 255
48 255
47 255
46 254
45 253
44 252
43 251
42 250
41 250
40 251
39 252
38 253
37 253
36 253
35 252
34 251
33 251
32 250
31 250
30 250
29 250
28 250
27 250
26 250
25 250
24 251
23 251
24 252
25 253
26 254
26 255
27 256
27 257
26 258
27 259
28 260
29 261
30 261
31 262
32 263
33 264
33 265
34 265
35 266
36 267
35 268
34 269
35 270
34 271
33 271
34 272
35 272
36 272
37 272
38 273
39 273
40 274
41 275
42 275
43 276
44 277
45 277
46 277
47 277
48 278
49 278
50 279
51 280
52 281
53 281
54 282
55 283
55 284
55 285
55 286
55 287
55 288
55 289
55 290
55 291
56 291
57 291
58 292
59 293
60 293
61 294
62 295
63 296
64 297
65 298
66 298
67 298
68 299
69 299
70 300
71 300
72 301
73 301
74 302
75 302
76 303
77 303
78 304
79 304
80 304
81 305
82 306
82 307
82 308
82 309
82 310
82 311
82 312
82 313
83 314
83 315
83 316
84 316
85 316
86 315
87 315
86 314
87 313
87 312
88 311
88 310
89 309
90 308
91 307
92 307
93 306
94 306
95 306
96 305
97 305
98 305
99 305
100 304
101 304
102 304
103 304
104 305
104 306
105 307
105 308
106 309
106 310
106 311
107 312
106 313
105 313
105 314
104 315
103 316
102 317
102 318
102 319
102 320
101 321
100 321
100 322
100 323
99 324
99 325
98 326
98 327
97 328
96 328
96 329
97 329
98 330
99 331
100 332
101 333
102 334
103 335
103 336
104 336
105 337
106 338
107 339
108 340
107 341
107 342
106 343
106 344
105 345
105 346
104 347
104 348
104 349
104 350
104 351
103 352
102 353
102 354
101 355
100 356
99 356
100 357
101 357
102 357
103 357
104 358
103 359
104 360
105 361
106 362
107 362
108 363
109 363
110 364
111 365
112 365
113 366
113 367
113 368
112 369
112 370
112 371
113 371
114 371
115 371
116 371
117 371
118 372
119 373
118 374
119 374
120 374
121 374
122 374
123 374
124 375
125 375
126 375
127 376
127 377
127 378
127 379
127 380
127 381
127 382
126 383
126 384
127 385
128 385
129 385
130 386
130 387
131 387
132 388
133 389
134 390
135 391
136 392
137 393
138 394
139 394
140 395
141 396
140 397
140 398
139 399
138 400
138 401
138 402
138 403
138 404
137 405
137 406
136 407
136 408
137 409
138 410
139 411
139 412
138 413
137 414
137 415
137 416
137 417
137 418
137 419
136 420
136 421
135 422
134 423
134 424
133 425
134 426
135 426
136 426
137 427
138 427
139 428
140 429
139 430
140 431
141 431
142 430
143 431
143 432
144 432
145 432
146 433
147 433
148 434
149 433
150 434
150 435
150 436
150 437
150 438
149 439
150 440
151 440
152 440
153 440
154 440
155 440
156 440
157 440
158 440
159 441
158 442
157 442
156 442
157 443
158 443
159 443
160 443
161 443
162 444
163 444
164 444
165 445
166 445
167 445
168 445
169 445
170 445
171 445
172 445
173 445
174 445
175 445
176 445
177 445
178 445
179 445
180 446
181 447
182 448
182 449
182 450
182 451
182 452
181 453
180 454
181 454
182 455
183 455
184 455
185 455
186 455
187 455
188 456
189 457
189 458
190 458
191 458
192 458
193 459
193 460
193 461
194 460
195 460
196 461
197 461
198 462
199 463
200 463
201 464
201 465
202 466
202 467
202 468
202 469
202 470
202 471
203 472
203 473
203 474
203 475
203 476
203 477
204 477
205 478
205 479
205 480
205 481
206 482
205 483
205 484
206 485
205 486
205 487
206 488
207 488
208 488
209 489
210 489
211 489
212 490
212 491
213 492
214 492
215 492
216 493
217 494
218 494
219 493
220 494
221 494
222 494
223 494
224 493
225 493
226 493
227 493
228 493
229 494
230 494
231 494
232 495
232 496
233 497
233 498
234 498
235 498
236 497
237 498
238 499
239 500
240 499
241 500
242 499
243 499
244 500
245 499
246 499
247 499
248 499
249 499
250 499
251 499
252 499
253 499
254 499
255 499
256 498
257 498
258 498
259 498
260 499
261 498
262 499
263 500
264 501
265 502
266 503
266 504
267 504
268 503
269 503
270 504
271 503
272 504
273 504
274 504
275 505
276 505
277 505
278 505
279 505
280 505
281 505
282 506
283 506
284 506
285 506
286 507
286 508
286 509
287 509
288 508
289 508
290 508
291 508
292 509
291 510
290 510
291 510
292 510
293 511
294 511
295 511
296 511
297 511
298 511
299 511
300 511
301 511
302 511
303 511
304 512
305 512
306 513
306 514
307 515
308 516
308 517
309 518
310 519
310 520
311 520
312 521
313 522
313 523
314 524
315 524
315 523
316 522
317 523
317 524
318 523
319 523
320 523
321 523
322 523
323 522
324 522
325 522
326 522
327 521
328 521
329 521
330 521
331 520
332 520
333 520
334 520
335 520
336 520
337 520
338 520
339 521
340 520
341 521
342 522
342 523
343 522
344 521
345 520
346 520
347 520
348 520
349 519
350 519
351 519
352 519
353 518
354 518
355 518
355 517
356 516
357 516
358 516
359 515
360 514
361 514
362 513
363 513
364 513
365 513
366 513
367 513
368 514
369 514
370 514
371 515
372 516
373 517
374 517
374 516
375 515
376 514
377 514
378 514
379 513
380 513
381 513
382 512
383 512
384 512
385 512
386 512
387 511
388 511
389 511
390 510
391 510
392 510
393 509
394 509
395 509
396 509
397 509
398 508
399 508
400 509
401 509
402 509
403 509
404 510
404 511
404 512
405 512
406 511
407 510
408 510
409 510
410 510
411 509
412 509
413 509
414 509
415 509
416 509
417 508
418 508
419 508
420 508
421 507
422 507
423 506
424 506
425 505
426 505
427 505
428 504
429 504
430 504
431 504
432 503
433 503
434 503
435 503
436 503
437 503
438 504
439 505
440 506
441 507
442 508
443 509
444 510
445 511
446 512
447 512
448 513
449 514
450 515
451 516
452 517
453 516
454 515
455 514
456 514
457 513
458 512
459 512
460 511
461 511
462 511
463 511
464 511
465 511
466 512
467 513
468 513
468 512
469 511
470 510
471 509
472 508
473 507
474 507
475 507
476 506
477 506
478 506
479 506
480 506
481 506
482 506
483 506
484 506
485 506
486 507
487 508
488 507
488 506
489 505
490 504
491 503
491 502
492 501
493 501
493 500
494 499
495 498
495 497
496 496
497 496
498 495
499 495
500 495
501 495
502 495
503 495
504 496
505 496
506 496
507 496
508 496
509 496
510 497
511 497
512 497
512 496
512 495
513 494
514 493
515 492
516 491
517 490
518 490
519 489
519 488
520 487
521 486
521 485
522 484
523 484
524 484
525 483
526 484
527 484
527 483
528 482
528 481
529 480
530 479
531 478
532 477
533 476
534 475
535 475
536 475
537 474
538 474
539 474
540 474
541 474
542 474
543 474
544 475
545 474
546 475
547 475
548 475
549 475
550 475
550 474
550 473
551 472
551 471
551 470
552 469
553 470
552 469
553 468
554 467
555 468
556 468
556 467
556 466
557 465
557 464
558 463
559 462
560 461
561 462
561 461
562 460
563 461
562 460
562 459
563 458
564 459
565 460
566 459
567 458
567 457
568 456
569 457
570 456
571 456
572 456
573 455
574 455
575 455
576 454
577 455
578 455
579 455
580 455
581 455
582 455
583 454
584 454
585 455
586 455
586 454
586 453
587 452
587 451
588 450
589 449
590 448
590 447
591 446
592 445
592 444
593 443
594 442
595 442
596 443
597 443
597 442
597 441
598 440
598 439
598 438
599 437
599 436
600 435
600 434
601 433
602 432
602 431
603 430
604 430
605 430
606 430
607 430
608 430
609 430
609 429
609 428
610 427
610 426
611 425
612 424
613 423
613 422
614 421
615 420
616 419
616 418
617 417
617 416
618 415
619 414
620 413
621 413
622 413
623 413
624 414
625 414
626 415
627 415
628 415
629 416
630 416
631 417
632 417
633 417
634 417
635 417
635 416
636 415
637 414
638 413
639 412
640 412
640 411
640 410
641 409
642 408
643 407
644 407
645 406
646 406
646 405
647 404
648 403
649 404
649 405
650 404
650 403
650 402
650 401
650 400
651 399
652 398
652 397
653 396
653 395
654 394
654 393
655 392
655 391
656 390
657 389
658 389
659 389
660 389
661 389
662 389
663 389
664 389
665 389
664 388
665 387
666 387
667 387
668 387
668 386
667 385
668 384
668 383
668 382
668 381
668 380
668 379
669 378
669 377
670 376
671 376
671 375
670 374
670 373
670 372
671 371
671 370
671 369
671 368
671 367
672 366
672 365
672 364
673 363
673 362
674 361
675 361
676 361
677 360
678 360
679 360
680 360
681 360
682 359
683 359
684 359
685 359
686 359
686 358
686 357
686 356
686 355
686 354
686 353
687 352
688 351
687 350
687 349
687 348
687 347
687 346
687 345
687 344
687 343
687 342
687 341
687 340
687 339
687 338
687 337
687 336
688 335
689 334
690 334
691 334
692 334
693 333
692 332
692 331
692 330
692 329
691 328
691 327
690 326
690 325
689 324
688 323
688 322
688 321
687 320
688 319
689 319
690 318
691 318
692 317
693 316
693 315
692 314
692 313
691 312
690 311
689 310
688 309
688 308
688 307
687 306
686 305
686 304
685 304
684 303
683 302
682 301
682 300
681 299
680 298
679 297
678 296
677 296
676 295
675 294
674 294
673 293
672 292
671 292
670 291
670 290
671 289
672 289
673 289
674 289
675 289
676 290
677 289
678 288
679 288
680 288
681 288
682 288
683 288
684 287
685 287
686 287
687 287
688 287
689 287
690 286
691 286
692 286
693 285
694 285
695 285
696 285
697 284
698 284
699 284
700 284
701 283
702 283
703 283
704 283
705 282
706 282
707 282
708 282
709 281
710 281
711 281
712 281
713 280
714 280
715 280
716 279
717 279
718 279
719 279
720 279
721 278
722 278
723 278
724 277
725 277
726 276
727 276
728 276
729 275
730 275
731 275
732 275
733 275
734 274
735 274
736 274
737 273
738 273
739 273
740 272
741 272
742 272
743 271
744 271
745 270
746 270
747 270
748 270
749 269
750 269
751 268
752 268
753 268
754 267
755 267
756 266
757 266
758 266
759 265
760 265
761 264
762 264
763 264
764 264
765 263
766 263
767 263
768 263
769 262
770 262
771 262
772 262
773 262
774 262
775 262
776 261
777 262
776 261
776 260
777 259
778 259
779 260
780 260
781 259
782 258
781 257
781 256
782 255
782 254
782 253
782 252
781 252
780 251
780 250
780 249
780 248
779 248
778 248
777 248
776 248
775 248
774 248
773 248
772 248
771 248
770 249
769 249
768 250
767 249
766 250
765 250
764 250
763 251
762 251
761 251
760 252
759 253
758 254
757 254
756 254
755 255
754 256
753 256
752 256
751 257
750 257
749 258
748 259
747 259
746 260
745 260
744 260
743 261
742 261
741 261
740 262
739 263
738 263
737 263
736 264
735 264
734 264
733 265
732 265
731 265
730 266
729 266
728 266
727 267
726 267
725 267
724 268
723 268
722 268
721 269
720 269
719 269
718 270
717 270
716 271
715 271
714 271
713 271
712 271
711 272
710 272
709 273
708 273
707 273
706 273
705 273
704 273
703 274
702 274
701 274
700 275
699 275
698 275
697 275
696 276
695 276
694 276
693 276
692 276
691 277
690 277
689 277
688 277
687 277
686 278
685 278
684 278
683 278
682 278
681 278
680 279
679 279
678 279
677 279
676 279
675 280
674 279
674 278
674 279
673 280
672 280
671 280
670 280
669 280
668 280
667 279
668 278
668 277
669 276
669 275
670 274
670 273
670 272
670 271
671 270
671 269
672 268
672 267
672 266
673 265
673 264
674 263
674 262
674 261
675 260
676 259
676 258
675 257
675 256
674 255
673 254
672 254
671 253
670 252
670 251
670 250
670 249
671 248
670 247
670 246
670 245
669 244
669 243
669 242
669 241
669 240
669 239
669 238
668 237
668 236
667 235
666 235
665 235
664 235
663 235
662 234
661 234
660 233
660 232
660 231
659 230
659 229
658 228
658 227
657 226
657 225
656 224
656 223
656 222
656 221
655 221
654 221
653 221
652 220
651 219
651 218
651 217
651 216
651 215
650 214
650 213
650 212
649 211
648 210
648 209
647 208
647 207
647 206
647 205
646 206
645 207
644 207
643 208
642 208
641 208
640 208
639 208
638 208
637 208
636 207
636 206
635 205
634 204
634 203
633 202
633 201
633 200
632 199
632 198
632 197
632 196
631 196
630 196
629 195
629 194
629 193
629 192
629 191
628 190
628 189
628 188
628 187
627 187
626 187
625 187
624 188
623 188
622 188
621 188
620 189
619 188
619 187
619 186
618 185
618 184
617 183
617 182
616 181
616 180
615 179
615 178
615 177
615 176
615 175
615 174
614 175
613 175
612 175
611 176
610 176
609 175
609 174
608 173
608 172
607 171
606 170
605 169
604 168
603 167
603 166
602 166
601 166
600 165
600 164
600 163
599 162
599 163
598 164
597 164
596 164
595 165
594 166
593 166
592 167
591 167
590 168
589 168
588 168
587 169
586 170
585 170
584 169
583 168
582 167
581 166
581 165
580 164
580 163
579 162
578 161
577 160
577 159
576 158
575 157
574 156
574 155
573 154
572 153
572 152
571 152
570 153
569 154
568 154
567 155
566 155
565 154
564 153
564 152
563 151
562 150
561 149
560 148
560 147
559 146
559 145
558 145
557 146
556 147
555 147
554 146
554 145
554 144
553 143
552 142
551 141
550 140
549 140
548 139
547 138
546 137
545 137
544 138
543 139
542 140
541 141
540 142
539 143
538 144
537 143
537 142
536 141
535 140
534 139
533 138
532 137
531 136
530 135
530 134
529 133
529 132
528 131
527 131
526 132
525 132
524 133
523 132
523 131
522 130
521 129
520 128
519 127
518 126
517 125
516 124
515 123
514 122
513 121
512 122
511 123
510 124
509 124
508 125
507 125
506 126
505 127
504 126
503 125
502 124
501 123
500 122
499 122
498 121
497 120
496 119
495 118
494 117
493 117
492 116
492 115
491 114
491 113
490 114
489 114
488 115
487 115
486 116
485 115
484 114
484 113
483 112
482 112
481 111
480 110
480 109
479 110
478 109
477 109
476 108
475 107
475 106
475 105
474 104
475 103
474 103
473 104
472 104
471 105
470 105
469 106
468 106
467 107
466 108
465 108
464 107
464 106
463 106
462 105
461 104
460 103
459 103
458 102
457 101
456 100
455 99
454 98
454 97
453 97
452 98
451 99
450 98
449 97
449 96
448 95
447 94
446 93
445 92
445 91
444 90
443 91
442 92
441 93
440 94
440 95
439 96
438 96
437 95
437 94
436 93
435 92
434 91
434 90
433 89
432 88
431 87
430 86
429 85
428 84
427 83
426 82
425 81
425 80
424 80
424 81
423 82
422 82
421 83
420 84
419 85
418 86
417 85
416 84
415 83
414 82
413 82
412 81
411 80
410 80
409 79
408 78
407 78
406 78
405 78
404 77
403 77
402 77
401 76
400 76
399 75
398 74
397 74
