189 33
188 34
187 34
186 35
185 35
184 35
183 35
182 35
181 35
180 35
179 35
178 35
177 35
176 36
175 36
174 36
173 36
172 36
171 37
170 37
169 38
168 38
167 39
166 40
165 40
164 40
164 41
163 42
162 42
161 42
160 43
159 43
158 44
157 44
157 45
156 46
155 46
155 47
155 48
154 49
153 49
153 50
153 51
153 52
153 53
153 54
153 55
153 56
153 57
152 58
152 59
152 60
152 61
151 62
151 63
151 64
150 65
149 66
148 67
147 68
147 69
147 70
146 71
146 72
145 73
144 74
144 75
143 76
142 76
141 77
140 78
139 78
138 79
137 79
136 79
135 79
134 80
133 80
132 80
131 81
130 81
129 81
128 82
127 82
127 83
126 84
125 85
124 85
123 86
122 87
121 87
120 88
119 89
118 90
118 91
117 92
116 93
116 94
115 95
115 96
114 97
114 98
114 99
114 100
114 101
113 102
113 103
113 104
112 105
111 105
110 106
110 107
109 108
108 109
108 110
107 111
107 112
107 113
106 114
106 115
105 116
105 117
104 118
104 119
104 120
103 121
103 122
103 123
103 124
103 125
103 126
103 127
103 128
103 129
102 130
101 131
100 131
99 131
98 131
97 131
96 132
95 132
94 132
93 132
92 132
91 132
90 133
89 133
88 134
87 134
86 134
85 134
84 135
83 135
82 136
81 136
81 137
80 138
80 139
80 140
80 141
80 142
80 143
80 144
80 145
79 146
78 147
77 148
76 149
75 150
75 151
74 152
73 153
72 154
71 154
71 155
70 156
70 157
70 158
69 159
69 160
69 161
69 162
69 163
68 164
68 165
68 166
68 167
68 168
68 169
68 170
68 171
68 172
67 173
67 174
67 175
67 176
67 177
67 178
67 179
67 180
68 181
68 182
68 183
68 184
68 185
68 186
69 187
68 188
67 188
67 189
67 190
66 191
66 192
66 193
65 194
65 195
65 196
65 197
65 198
65 199
66 200
66 201
66 202
67 203
67 204
68 205
68 206
69 207
69 208
69 209
69 210
70 211
70 212
70 213
70 214
71 215
71 216
72 217
72 218
72 219
72 220
71 221
70 221
69 222
68 223
67 223
66 224
65 224
64 225
63 226
62 227
61 228
61 229
60 230
59 231
59 232
59 233
59 234
60 235
61 236
61 237
61 238
62 239
63 240
64 241
64 242
65 243
65 244
65 245
65 246
66 247
67 248
67 249
68 250
68 251
69 252
69 253
70 254
70 255
71 256
71 257
72 258
72 259
72 260
72 261
71 262
70 263
69 264
68 265
67 265
66 266
66 267
66 268
66 269
65 270
65 271
65 272
66 273
65 274
65 275
65 276
65 277
65 278
66 279
66 280
66 281
67 282
67 283
67 284
68 285
68 286
67 287
67 288
66 289
66 290
66 291
66 292
66 293
67 294
68 295
68 296
68 297
69 298
69 299
70 300
71 301
72 302
72 303
72 304
71 305
71 306
71 307
70 308
69 309
69 310
69 311
70 312
70 313
71 314
72 315
73 315
74 316
75 316
76 317
76 318
77 319
78 320
78 321
79 322
80 323
80 324
80 325
81 326
81 327
81 328
81 329
81 330
80 331
80 332
80 333
80 334
80 335
79 336
79 337
80 338
80 339
81 340
82 341
83 342
84 342
85 343
86 344
87 345
87 346
88 347
88 348
88 349
88 350
89 351
88 352
88 353
88 354
88 355
89 356
90 357
90 358
91 359
92 360
92 361
92 362
92 363
93 364
93 365
93 366
93 367
93 368
94 369
95 370
95 371
95 372
96 373
97 374
97 375
98 376
99 377
99 378
100 379
100 380
101 381
101 382
102 383
102 384
103 385
104 386
105 387
106 387
107 388
108 388
109 389
110 389
111 390
112 390
113 390
114 390
115 391
116 391
117 391
118 391
119 392
120 392
121 391
122 391
123 391
124 390
125 390
126 390
127 390
128 389
129 388
130 388
131 387
132 387
133 387
134 386
135 386
136 385
137 385
138 384
139 384
139 383
140 382
141 382
142 382
143 382
143 381
144 380
145 380
146 380
147 379
148 379
149 378
150 377
151 376
152 376
153 375
154 374
155 373
156 373
156 372
157 371
158 371
158 370
159 369
160 369
161 368
161 367
162 366
163 366
164 366
165 365
166 364
167 364
168 363
169 362
170 362
170 361
171 360
172 360
173 359
174 358
175 358
176 357
177 356
178 356
179 355
180 354
181 353
182 352
183 352
184 351
185 350
186 350
187 349
188 348
189 347
190 347
191 346
192 345
193 344
194 343
195 343
196 342
197 342
198 341
199 341
200 340
201 339
202 338
203 337
204 336
205 336
206 336
207 335
208 334
209 333
210 332
211 332
212 331
213 331
214 330
215 329
216 328
217 327
218 326
219 326
220 325
221 324
222 323
223 323
223 322
224 321
225 321
226 320
227 320
228 319
229 318
230 317
231 317
232 316
233 315
234 315
235 314
236 313
236 312
237 311
238 311
239 310
240 309
241 309
242 308
243 307
244 306
245 305
246 304
247 304
248 303
249 302
250 301
251 300
252 300
253 299
254 298
255 297
256 296
257 295
258 295
259 295
260 294
261 293
262 292
263 292
264 291
265 290
266 289
267 288
268 288
269 288
270 288
271 287
272 287
273 286
274 286
275 285
276 285
277 285
278 284
279 284
280 284
281 283
282 282
283 282
284 282
285 281
286 281
287 281
288 280
289 280
290 280
291 279
292 279
293 279
294 278
295 278
296 278
297 277
298 277
299 277
300 276
301 276
302 276
303 276
304 275
305 275
306 275
307 275
308 274
309 274
310 274
311 274
312 273
313 273
314 273
315 273
316 272
317 272
318 272
319 272
320 272
321 272
322 272
323 272
324 272
325 272
326 272
327 271
328 271
329 271
330 271
331 271
332 271
333 271
334 271
335 271
336 271
337 271
338 270
339 270
340 270
341 270
342 270
343 270
344 270
345 270
346 270
347 270
348 270
349 270
350 270
351 271
352 271
353 271
354 271
355 271
356 271
357 271
358 271
359 272
360 272
361 272
362 272
363 272
364 272
365 272
366 272
367 272
368 272
369 272
370 273
371 273
372 273
373 273
374 274
375 274
376 274
377 275
378 275
379 275
380 275
381 275
382 276
383 276
384 276
385 276
386 276
387 276
388 277
389 277
390 277
391 277
392 277
393 278
394 278
395 278
396 279
397 279
398 279
399 279
400 279
401 280
402 280
403 280
404 280
405 280
406 280
407 281
408 281
409 281
410 281
411 281
412 282
413 282
414 282
415 282
416 282
417 283
418 283
419 283
420 283
421 283
422 283
423 284
424 284
425 284
426 284
427 284
428 285
429 285
430 285
431 285
432 285
433 285
434 285
435 285
436 285
437 286
438 286
439 286
440 286
441 286
442 287
443 287
444 287
445 287
446 287
447 288
448 288
449 288
450 288
451 288
452 288
453 288
454 289
455 289
456 289
457 289
458 289
459 289
460 290
461 290
462 290
463 290
464 290
465 291
466 291
467 291
468 291
469 291
470 291
471 292
472 292
473 292
474 292
475 292
476 292
477 293
478 293
479 293
480 293
481 293
482 294
483 294
484 294
485 294
486 294
487 294
488 294
489 295
490 295
491 295
492 295
493 295
494 295
495 295
496 296
497 296
498 296
499 296
500 296
501 296
502 296
503 297
504 297
505 297
506 297
507 297
508 297
509 297
510 298
511 298
512 298
513 298
514 298
515 298
516 298
517 299
518 299
519 299
520 299
521 299
522 299
523 299
524 300
525 300
526 300
527 300
528 300
529 300
530 300
531 300
532 301
533 301
534 301
535 301
536 301
537 301
538 301
539 302
540 302
541 302
542 302
543 302
544 302
545 302
546 302
547 302
548 303
549 303
550 303
551 303
552 303
553 303
554 303
555 303
556 304
557 304
558 304
559 304
560 304
561 304
562 304
563 305
564 305
565 305
566 305
567 305
568 305
569 305
570 305
571 306
572 306
573 306
574 306
575 307
576 307
577 307
578 307
579 307
580 307
581 307
582 308
583 308
584 308
585 308
586 308
587 308
588 308
589 308
590 307
591 307
592 307
593 308
592 309
593 309
594 309
595 309
596 309
597 309
598 309
599 309
600 310
601 310
602 310
603 310
604 310
605 309
606 309
607 309
608 309
609 309
610 310
610 311
611 311
612 311
613 311
614 311
615 311
616 311
617 310
618 310
619 310
620 310
621 310
622 310
623 310
624 310
625 310
626 310
627 310
628 310
629 310
630 311
631 311
632 311
633 311
634 311
635 311
636 311
637 311
638 311
639 311
640 311
641 311
642 311
643 311
644 311
645 311
646 311
647 311
648 311
649 312
650 312
651 312
652 312
653 312
654 313
655 313
656 313
657 312
658 312
659 312
660 312
661 312
662 312
663 312
664 312
665 312
666 312
667 312
668 312
669 312
670 312
671 312
672 312
673 313
674 313
675 312
676 312
677 312
678 313
679 313
680 313
681 313
682 313
683 313
684 313
685 313
686 313
687 313
688 313
689 313
690 313
691 313
692 313
693 313
694 313
695 313
696 313
697 313
698 313
699 313
700 313
701 313
702 313
703 312
704 312
705 312
706 312
707 311
708 311
708 310
708 309
709 308
710 308
709 307
708 306
709 305
710 305
711 306
711 305
710 304
711 303
710 302
709 301
708 301
707 301
707 302
706 303
705 303
704 303
703 304
702 304
701 305
700 305
699 306
698 307
697 307
696 307
695 308
694 308
693 308
692 308
691 308
690 308
689 308
688 309
687 309
686 309
685 309
684 309
683 309
682 309
681 309
680 309
679 309
678 308
677 308
676 308
675 308
674 308
673 308
672 308
671 308
670 308
669 308
668 308
667 308
666 308
665 308
664 308
663 308
662 308
661 308
660 308
659 308
658 308
657 308
656 308
655 308
654 308
653 308
652 308
651 308
650 308
649 308
648 308
647 308
646 308
645 308
644 308
643 308
642 308
641 308
640 308
639 308
638 308
637 307
636 307
635 307
634 307
633 307
632 307
631 307
630 307
629 307
628 307
627 307
626 307
625 307
624 307
623 306
622 306
621 306
620 306
619 306
618 306
617 306
616 306
615 306
614 306
613 305
612 305
611 305
610 305
609 305
608 305
607 305
606 305
605 305
604 305
603 305
602 305
601 304
600 304
599 304
598 304
597 304
596 304
595 304
594 303
593 303
592 303
591 303
590 303
589 303
588 303
587 303
586 303
585 302
584 302
583 302
582 302
581 302
580 302
579 302
578 302
577 302
576 302
575 302
574 301
573 301
572 301
571 301
570 301
569 301
568 301
567 301
566 300
565 300
564 300
563 300
562 300
561 300
560 299
559 299
558 299
557 299
556 299
555 299
554 299
553 299
552 299
551 299
550 299
549 298
548 298
547 298
546 298
545 298
544 298
543 298
542 298
541 298
540 297
539 297
538 297
537 297
536 297
535 297
534 297
533 296
532 296
531 296
530 296
529 296
528 296
527 296
526 296
525 295
524 295
523 295
522 295
521 295
520 295
519 295
518 295
517 294
516 294
515 294
514 294
513 294
512 294
511 294
510 294
509 294
508 293
507 293
506 293
505 293
504 293
503 293
502 293
501 292
500 292
499 292
498 292
497 292
496 292
495 291
494 291
493 291
492 291
491 291
490 291
489 291
488 290
487 290
486 290
485 290
484 290
483 290
482 289
481 289
480 289
479 289
478 289
477 288
476 288
475 288
474 288
473 287
472 287
471 287
470 287
469 286
468 286
467 286
466 286
465 285
464 285
463 285
462 285
461 285
460 285
459 285
458 284
457 284
456 284
455 284
454 284
453 283
452 283
451 283
450 283
449 283
448 282
447 282
446 282
445 282
444 282
443 282
442 282
441 282
440 281
439 281
438 281
437 281
436 280
435 280
434 280
433 280
432 280
431 280
430 280
429 280
428 279
427 279
426 279
425 278
424 278
423 278
422 278
421 278
420 277
419 277
418 277
417 277
416 277
415 277
414 276
413 276
412 276
411 276
410 276
409 276
408 275
407 275
406 274
405 274
404 274
403 274
402 274
401 274
400 273
399 273
398 273
397 273
396 273
395 273
394 272
393 272
392 272
391 272
390 272
389 271
388 271
387 271
386 271
385 270
384 270
383 270
382 270
381 269
380 269
379 269
378 269
377 269
376 268
375 268
374 268
373 268
372 267
371 267
370 267
369 266
368 266
367 266
366 265
365 265
364 265
363 265
362 264
361 264
360 263
359 263
358 262
357 262
356 261
355 261
354 260
353 260
352 259
351 259
350 258
349 258
348 258
347 257
346 257
345 256
344 255
343 254
342 253
341 253
340 252
339 251
338 251
337 250
336 249
335 248
334 247
333 246
332 246
331 245
330 244
330 243
329 242
328 242
327 241
326 240
325 239
324 238
323 237
322 236
321 235
320 234
320 233
319 232
318 231
317 230
316 229
315 228
314 227
314 226
313 225
312 224
311 223
310 222
309 221
309 220
308 219
307 218
306 217
305 216
304 215
304 214
303 213
303 212
302 211
301 210
300 209
299 208
298 207
298 206
297 205
297 204
296 203
295 202
295 201
294 200
294 199
293 198
292 197
292 196
292 195
291 194
290 193
289 192
289 191
289 190
288 189
288 188
288 187
287 186
287 185
286 184
286 183
286 182
285 181
285 180
284 179
284 178
284 177
283 176
282 175
282 174
282 173
281 172
281 171
280 170
280 169
279 168
278 167
278 166
277 165
277 164
276 163
276 162
275 161
275 160
274 159
273 158
273 157
272 156
272 155
271 154
271 153
270 152
270 151
269 150
269 149
268 148
268 147
267 146
267 145
266 144
266 143
265 142
265 141
264 140
264 139
263 138
262 137
262 136
261 135
261 134
260 133
260 132
259 131
258 130
258 129
257 128
256 127
256 126
255 125
255 124
254 123
253 122
253 121
252 120
252 119
251 118
250 117
250 116
249 115
249 114
248 113
247 112
246 111
246 110
245 109
245 108
244 107
243 106
243 105
242 104
241 103
241 102
240 101
240 100
239 99
239 98
238 97
237 96
236 95
236 94
235 93
235 92
234 91
233 90
233 89
232 88
232 87
231 86
230 85
230 84
229 83
229 82
228 81
228 80
227 79
226 78
225 77
225 76
224 75
224 74
223 73
223 72
222 71
221 70
220 69
220 68
219 67
219 66
218 65
217 64
217 63
216 62
215 61
215 60
214 59
213 58
213 57
212 56
211 55
210 54
210 53
209 52
208 51
207 50
207 49
206 49
205 48
204 47
204 46
203 45
203 44
202 43
201 42
200 41
199 40
198 39
197 38
196 37
196 36
195 35
194 35
193 34
192 34
191 33
190 33
189 33
