20 355
20 356
20 357
20 358
20 359
21 359
22 359
23 359
24 359
25 359
26 359
27 359
28 359
29 359
30 359
31 359
32 360
33 360
34 360
35 361
36 361
37 361
38 361
39 362
40 362
41 363
42 363
43 363
44 363
45 363
46 363
47 364
48 364
49 365
50 365
51 366
51 367
52 368
53 369
54 369
55 369
56 370
57 370
58 370
59 370
60 370
61 370
62 370
63 370
64 370
65 370
66 370
67 370
68 370
69 370
70 370
71 370
72 370
73 370
74 371
75 371
76 371
77 371
78 371
79 371
80 371
81 371
82 371
83 371
84 371
85 371
86 370
87 369
88 368
89 367
90 366
91 366
92 365
93 365
94 364
95 364
96 363
97 363
98 363
99 363
100 363
101 363
102 363
103 363
104 363
105 364
106 364
107 365
108 365
109 365
110 365
111 365
112 365
113 365
114 365
115 364
116 363
117 362
118 361
119 360
120 359
121 358
121 357
121 356
122 355
122 354
123 353
123 352
124 351
125 350
126 349
127 350
128 350
129 351
129 352
130 353
129 354
129 355
129 356
129 357
129 358
129 359
129 360
129 361
129 362
128 363
128 364
128 365
128 366
128 367
128 368
128 369
128 370
128 371
128 372
128 373
128 374
128 375
128 376
128 377
128 378
128 379
128 380
128 381
128 382
128 383
128 384
128 385
128 386
128 387
128 388
129 389
129 390
129 391
130 392
130 393
130 394
131 395
131 396
132 397
132 398
133 399
133 400
134 401
134 402
134 403
134 404
134 405
134 406
134 407
134 408
134 409
134 410
135 411
135 412
135 413
136 414
136 415
136 416
136 417
137 418
137 419
137 420
137 421
136 422
136 423
136 424
136 425
136 426
136 427
136 428
135 429
135 430
135 431
135 432
134 433
134 434
134 435
134 436
134 437
134 438
134 439
134 440
134 441
134 442
135 442
136 442
137 442
138 442
139 441
139 440
140 439
141 438
142 437
142 436
143 435
144 434
144 433
145 432
146 431
147 430
148 429
149 429
150 428
151 427
152 426
153 425
153 424
154 423
154 422
155 421
155 420
156 419
157 419
158 418
159 417
160 416
161 415
161 414
162 413
163 412
164 411
165 410
166 409
167 408
168 407
168 406
169 405
170 404
170 403
171 402
172 401
173 400
174 400
175 399
176 399
177 398
178 397
179 397
180 396
181 395
182 395
183 394
184 394
185 393
186 393
187 394
188 395
189 396
189 397
190 398
190 399
190 400
190 401
190 402
190 403
190 404
190 405
190 406
190 407
190 408
191 409
191 410
191 411
192 412
192 413
192 414
193 415
193 416
194 417
194 418
195 419
195 420
196 421
196 422
196 423
197 424
197 425
197 426
197 427
198 428
198 429
199 430
199 431
199 432
199 433
200 434
200 435
200 436
200 437
200 438
200 439
200 440
201 441
201 442
201 443
201 444
201 445
201 446
202 447
202 448
203 448
204 448
205 448
206 448
207 448
207 447
208 446
208 445
209 444
209 443
210 442
211 441
211 440
212 439
213 438
214 437
214 436
215 435
216 434
216 433
217 432
218 431
219 430
220 429
221 428
222 427
223 426
224 425
225 425
226 424
227 423
228 422
229 421
230 420
231 419
232 418
233 417
234 416
235 415
236 414
237 413
238 412
239 411
239 410
240 409
241 408
242 407
242 406
243 405
244 404
245 403
245 402
246 401
247 400
247 399
248 398
248 397
249 396
250 395
251 394
252 395
253 396
254 397
254 398
255 399
255 400
255 401
255 402
256 403
256 404
256 405
256 406
256 407
257 408
257 409
257 410
257 411
258 412
258 413
259 414
259 415
259 416
260 417
260 418
260 419
261 420
261 421
261 422
262 423
262 424
262 425
263 426
263 427
263 428
264 429
264 430
265 431
265 432
266 433
266 434
266 435
267 436
267 437
268 438
268 439
268 440
269 441
269 442
269 443
269 444
270 445
270 446
270 447
270 448
270 449
270 450
270 451
270 452
271 452
272 452
273 452
274 452
275 452
276 451
276 450
277 449
277 448
278 447
278 446
279 445
279 444
280 443
280 442
281 441
281 440
282 439
282 438
283 437
283 436
284 435
285 434
285 433
286 432
287 431
288 430
289 429
290 428
291 427
292 426
293 425
294 424
295 423
296 422
297 421
298 420
299 419
300 418
300 417
301 416
302 415
302 414
303 413
304 412
304 411
305 410
306 409
307 408
308 407
309 406
309 405
310 404
310 403
310 402
311 401
311 400
311 399
311 398
311 397
311 396
311 395
311 394
311 393
311 392
311 391
311 390
311 389
311 388
311 387
311 386
311 385
311 384
311 383
311 382
311 381
311 380
311 379
311 378
311 377
311 376
312 375
312 374
313 373
313 372
313 371
314 370
314 369
314 368
314 367
314 366
315 365
315 364
315 363
315 362
315 361
315 360
315 359
316 358
316 357
317 356
317 355
317 354
317 353
317 352
317 351
317 350
317 349
317 348
317 347
318 346
318 345
319 344
320 343
321 342
322 343
323 344
324 345
324 346
325 347
325 348
325 349
325 350
325 351
326 352
326 353
326 354
325 355
325 356
325 357
325 358
325 359
325 360
325 361
325 362
325 363
325 364
325 365
325 366
325 367
325 368
325 369
325 370
325 371
325 372
325 373
326 374
326 375
326 376
326 377
326 378
326 379
327 380
327 381
327 382
327 383
327 384
328 385
328 386
328 387
328 388
328 389
328 390
329 391
329 392
329 393
329 394
330 395
330 396
330 397
331 398
331 399
332 400
332 401
332 402
333 403
333 404
333 405
333 406
334 407
334 408
335 409
336 410
337 411
338 412
339 413
339 414
340 415
341 416
342 417
342 418
343 419
343 420
344 421
344 422
345 423
345 424
346 425
346 426
346 427
347 428
347 429
347 430
347 431
347 432
348 433
349 433
350 433
351 433
352 433
353 433
354 433
355 433
356 432
357 431
357 430
358 429
358 428
359 427
359 426
360 425
360 424
361 423
361 422
362 421
362 420
363 419
364 418
365 417
366 417
367 416
368 415
369 414
370 413
370 412
371 411
372 410
372 409
373 408
374 407
374 406
375 405
376 404
376 403
377 402
377 401
378 400
378 399
378 398
379 397
379 396
379 395
379 394
380 393
380 392
380 391
381 390
381 389
382 388
383 387
384 386
385 387
386 388
387 389
388 390
388 391
389 392
390 393
390 394
391 395
391 396
392 397
392 398
393 399
393 400
394 401
394 402
394 403
395 404
395 405
395 406
396 407
396 408
396 409
396 410
397 411
397 412
397 413
397 414
397 415
398 415
399 415
400 415
401 415
402 415
403 415
403 414
404 413
404 412
405 411
405 410
406 409
406 408
407 407
407 406
408 405
408 404
409 403
409 402
410 401
411 400
412 399
413 398
414 397
415 396
415 395
416 394
417 393
418 392
419 391
420 390
420 389
421 388
421 387
422 386
422 385
423 384
424 383
425 382
425 381
426 380
426 379
427 378
427 377
428 376
428 375
429 374
429 373
430 372
431 371
432 370
433 371
434 372
435 373
435 374
436 375
436 376
436 377
436 378
437 379
437 380
437 381
437 382
438 383
438 384
438 385
439 386
440 387
440 388
441 389
441 390
442 391
442 392
443 393
443 394
443 395
444 396
444 397
445 398
445 399
445 400
446 401
446 402
446 403
447 404
447 405
447 406
448 407
448 408
449 408
450 408
451 408
452 408
453 408
454 408
455 408
455 407
456 406
456 405
457 404
457 403
458 402
458 401
459 400
460 399
461 398
462 397
463 396
464 395
465 394
465 393
466 392
466 391
467 390
467 389
468 388
469 387
470 386
471 385
471 384
472 383
473 382
474 381
475 380
476 379
477 378
477 377
478 376
479 375
480 374
480 373
481 372
481 371
482 370
482 369
483 368
484 367
485 366
486 365
487 364
488 363
488 362
489 361
490 360
491 360
492 359
493 360
494 361
495 362
495 363
496 364
496 365
496 366
496 367
497 368
497 369
497 370
497 371
497 372
497 373
497 374
497 375
497 376
497 377
497 378
498 379
498 380
498 381
498 382
498 383
498 384
499 385
499 386
499 387
499 388
499 389
500 390
500 391
500 392
500 393
501 394
501 395
501 396
501 397
502 398
502 399
502 400
502 401
502 402
503 403
503 404
503 405
504 406
504 407
504 408
504 409
504 410
504 411
505 411
506 411
507 411
508 411
509 411
510 411
511 411
512 410
513 409
513 408
514 407
514 406
515 405
515 404
516 403
516 402
517 401
517 400
518 399
519 398
519 397
520 396
520 395
521 394
522 393
523 393
524 392
525 391
526 390
527 389
528 388
529 387
530 386
531 385
532 384
533 383
534 382
535 381
535 380
536 379
537 378
538 377
538 376
539 375
540 374
540 373
541 372
541 371
542 370
542 369
542 368
543 367
543 366
544 365
544 364
545 363
545 362
546 361
547 360
547 359
548 358
549 357
550 356
551 355
551 354
552 353
553 352
554 351
555 351
556 351
557 351
558 352
558 353
559 354
559 355
559 356
559 357
559 358
559 359
559 360
559 361
559 362
559 363
559 364
560 365
560 366
560 367
560 368
561 369
561 370
561 371
562 372
562 373
562 374
562 375
562 376
562 377
562 378
563 379
563 380
563 381
563 382
563 383
563 384
564 385
564 386
564 387
564 388
564 389
564 390
565 391
565 392
565 393
566 394
566 395
566 396
567 397
567 398
567 399
568 400
568 401
568 402
568 403
568 404
569 405
569 406
569 407
569 408
569 409
570 409
571 409
572 409
573 409
574 409
575 408
575 407
575 406
576 405
576 404
577 403
577 402
578 401
578 400
579 399
580 398
581 397
581 396
582 395
583 394
584 393
585 392
585 391
586 390
587 389
588 388
589 387
590 386
591 385
592 384
593 383
594 382
594 381
595 380
596 379
596 378
597 377
598 376
599 375
599 374
600 373
601 372
601 371
602 370
603 369
603 368
604 367
605 366
606 365
607 364
608 363
608 362
609 361
610 360
610 359
611 358
612 357
612 356
612 355
613 354
613 353
613 352
613 351
613 350
614 349
614 348
615 347
615 346
615 345
615 344
615 343
615 342
615 341
616 340
616 339
616 338
616 337
616 336
616 335
616 334
616 333
616 332
616 331
616 330
616 329
616 328
615 327
615 326
615 325
615 324
615 323
615 322
616 321
616 320
617 319
617 318
617 317
617 316
617 315
617 314
617 313
617 312
617 311
617 310
617 309
617 308
616 307
615 306
614 305
613 304
612 303
612 302
611 301
612 300
613 299
614 298
615 298
616 297
617 297
618 297
619 297
620 297
621 297
622 297
623 297
624 297
625 297
626 297
627 297
628 297
629 297
630 297
631 297
632 297
633 297
634 297
635 297
636 297
637 297
638 297
639 297
640 297
641 298
642 298
643 299
644 300
645 301
645 302
644 303
644 304
643 305
642 306
642 307
641 308
641 309
640 310
639 311
638 312
637 313
637 314
637 315
637 316
637 317
637 318
637 319
637 320
637 321
637 322
637 323
637 324
637 325
637 326
636 327
636 328
636 329
636 330
636 331
636 332
636 333
636 334
636 335
636 336
635 337
635 338
634 339
634 340
633 341
633 342
633 343
633 344
633 345
633 346
633 347
633 348
634 348
635 349
636 349
637 350
638 350
639 351
640 352
641 353
641 354
642 355
642 356
643 357
643 358
643 359
643 360
643 361
643 362
643 363
643 364
642 365
642 366
641 367
640 368
639 369
638 370
638 371
638 372
638 373
638 374
638 375
638 376
638 377
638 378
638 379
638 380
638 381
638 382
638 383
638 384
638 385
638 386
638 387
639 387
640 387
641 387
642 387
643 387
644 386
644 385
645 384
646 383
647 382
648 381
649 380
650 379
651 378
652 377
653 376
654 376
655 375
656 374
657 374
658 373
659 372
660 371
661 370
662 369
663 368
664 367
665 366
666 365
666 364
667 363
668 362
668 361
669 360
669 359
670 358
670 357
671 356
672 355
673 355
674 354
675 354
676 353
677 352
678 351
678 350
678 349
678 348
678 347
678 346
679 345
679 344
679 343
679 342
679 341
679 340
679 339
679 338
680 337
680 336
681 335
682 334
683 333
684 333
685 332
686 332
687 332
688 332
689 332
690 332
691 332
692 332
693 331
693 330
694 329
694 328
694 327
694 326
694 325
694 324
694 323
694 322
694 321
694 320
695 319
695 318
696 317
696 316
697 315
697 314
697 313
697 312
697 311
697 310
697 309
697 308
697 307
697 306
696 305
696 304
695 303
695 302
696 301
697 300
698 299
699 299
700 298
701 298
702 298
703 298
704 298
705 298
706 298
707 298
708 298
709 298
710 298
711 298
712 298
713 298
714 298
715 298
716 298
717 298
718 297
719 297
720 297
721 297
722 297
723 297
724 297
725 297
726 297
727 297
728 297
729 297
730 297
731 297
732 297
733 297
734 297
735 297
736 297
737 297
738 297
739 297
740 297
741 297
742 297
743 297
744 297
745 297
746 297
747 297
748 297
749 297
750 297
751 297
752 297
753 297
754 297
755 297
756 297
757 297
758 297
759 297
760 297
761 297
762 297
763 298
764 298
765 298
766 299
767 299
768 299
769 299
770 299
771 299
772 299
773 299
774 299
775 299
775 298
776 297
776 296
776 295
776 294
776 293
776 292
776 291
776 290
776 289
775 289
774 289
773 289
772 289
771 289
770 289
769 289
768 289
767 289
766 289
765 289
764 289
763 289
762 289
761 290
760 290
759 290
758 290
757 291
756 291
755 291
754 291
753 291
752 291
751 291
750 291
749 292
748 292
747 292
746 292
745 292
744 292
743 292
742 292
741 292
740 292
739 292
738 292
737 293
736 293
735 293
734 293
733 293
732 293
731 293
730 293
729 293
728 293
727 293
726 293
725 293
724 293
723 293
722 293
721 293
720 293
719 293
718 293
717 293
716 293
715 293
714 293
713 293
712 293
711 293
710 293
709 293
708 293
707 293
706 293
705 293
704 293
703 293
702 293
701 293
700 293
699 293
698 293
697 293
696 293
695 293
694 293
693 293
692 293
691 293
690 293
689 293
688 293
687 293
686 293
685 293
684 293
683 293
682 293
681 293
680 292
679 292
678 292
677 292
676 292
675 292
674 292
673 292
672 292
671 292
670 292
669 292
668 292
667 292
666 292
665 292
664 292
663 293
662 293
661 293
660 293
659 293
658 293
657 293
656 293
655 293
654 293
653 293
652 293
651 293
650 293
649 293
648 293
647 293
646 293
645 293
644 293
643 293
642 293
641 293
640 293
639 293
638 293
637 293
636 293
635 293
634 293
633 293
632 293
631 293
630 293
629 293
628 292
627 292
626 291
625 291
624 290
624 289
623 288
624 287
624 286
625 285
625 284
626 283
627 282
627 281
628 280
628 279
628 278
628 277
628 276
628 275
628 274
629 273
629 272
629 271
629 270
629 269
629 268
629 267
629 266
629 265
629 264
629 263
629 262
629 261
629 260
629 259
629 258
628 257
627 256
626 256
625 255
625 254
624 253
624 252
623 251
623 250
622 249
621 248
620 247
619 246
618 246
617 245
617 244
616 243
616 242
615 241
615 240
615 239
615 238
615 237
615 236
614 235
614 234
613 233
613 232
612 231
612 230
611 229
611 228
611 227
610 226
610 225
609 224
609 223
608 222
608 221
607 220
607 219
606 218
606 217
606 216
605 215
605 214
604 213
604 212
603 211
603 210
603 209
602 208
602 207
601 206
601 205
600 204
600 203
599 202
599 201
598 200
598 199
597 198
597 197
597 196
596 195
596 194
595 193
595 192
595 191
595 190
594 189
594 188
594 187
594 186
593 186
592 186
591 186
590 186
589 186
588 186
587 186
586 186
585 187
585 188
585 189
584 190
584 191
583 192
583 193
582 194
582 195
581 196
581 197
580 198
580 199
579 200
579 201
578 202
578 203
577 204
577 205
576 206
576 207
576 208
575 209
575 210
574 211
574 212
573 213
573 214
572 215
572 216
571 217
571 218
570 219
570 220
569 221
568 222
568 223
567 224
567 225
566 226
566 227
566 228
566 229
566 230
566 231
565 232
565 233
564 234
563 235
562 236
561 235
560 235
559 234
559 233
558 232
558 231
557 230
557 229
557 228
556 227
556 226
556 225
556 224
555 223
555 222
555 221
555 220
555 219
554 218
554 217
554 216
553 215
553 214
553 213
552 212
552 211
552 210
551 209
551 208
550 207
550 206
550 205
549 204
549 203
548 202
548 201
548 200
547 199
547 198
547 197
546 196
546 195
546 194
545 193
544 192
543 191
542 190
541 189
540 189
539 188
538 187
537 186
536 185
535 184
535 183
534 182
533 181
532 180
531 179
530 178
530 177
529 176
529 175
528 174
528 173
527 172
527 171
526 170
526 169
525 168
525 167
525 166
525 165
524 164
523 164
522 164
521 164
520 164
520 165
519 166
519 167
519 168
519 169
518 170
518 171
518 172
517 173
517 174
516 175
516 176
515 177
515 178
514 179
513 180
513 181
512 182
511 183
511 184
510 185
510 186
509 187
509 188
509 189
508 190
508 191
508 192
508 193
508 194
507 195
507 196
506 197
506 198
506 199
506 200
506 201
505 202
505 203
505 204
505 205
505 206
505 207
505 208
504 209
504 210
504 211
504 212
504 213
504 214
504 215
504 216
504 217
504 218
504 219
504 220
504 221
504 222
503 223
503 224
503 225
503 226
503 227
502 228
502 229
501 230
500 231
499 232
498 231
497 230
496 229
496 228
495 227
495 226
495 225
494 224
494 223
494 222
494 221
493 220
493 219
493 218
493 217
492 216
492 215
491 214
491 213
490 212
490 211
490 210
489 209
489 208
488 207
488 206
487 205
487 204
487 203
486 202
485 201
485 200
484 199
483 198
483 197
482 196
481 195
480 194
480 193
479 192
478 191
477 190
476 189
476 188
475 187
474 186
473 185
473 184
472 183
471 182
470 181
469 180
468 179
467 178
466 177
465 176
464 175
463 174
462 173
461 172
460 171
459 170
458 169
457 168
456 167
456 166
455 165
455 164
454 163
454 162
453 161
453 160
452 159
452 158
451 157
451 156
450 156
449 156
448 156
447 156
446 156
445 156
445 157
445 158
445 159
445 160
444 161
444 162
444 163
443 164
443 165
443 166
443 167
442 168
442 169
442 170
441 171
441 172
440 173
440 174
439 175
439 176
438 177
438 178
437 179
437 180
436 181
436 182
436 183
435 184
435 185
435 186
435 187
435 188
434 189
434 190
434 191
434 192
434 193
434 194
434 195
433 196
433 197
433 198
433 199
433 200
433 201
433 202
433 203
433 204
433 205
433 206
432 207
432 208
432 209
432 210
432 211
432 212
432 213
432 214
432 215
432 216
432 217
432 218
432 219
432 220
432 221
432 222
432 223
432 224
432 225
432 226
432 227
432 228
432 229
432 230
432 231
433 232
433 233
433 234
433 235
433 236
433 237
433 238
433 239
433 240
433 241
433 242
433 243
433 244
432 245
431 246
430 247
429 246
428 245
427 244
427 243
426 242
426 241
426 240
425 239
425 238
425 237
425 236
424 235
424 234
424 233
423 232
423 231
423 230
422 229
422 228
421 227
421 226
420 225
420 224
419 223
418 222
417 221
417 220
416 219
415 218
414 217
414 216
413 215
413 214
412 213
411 212
410 211
409 210
408 209
407 208
406 207
405 206
404 205
403 204
402 203
401 202
400 201
399 200
398 200
397 199
396 198
395 197
394 197
393 196
392 195
391 194
390 193
389 192
388 191
387 190
386 190
385 189
384 188
383 187
382 187
381 186
380 186
379 185
378 185
377 184
376 184
375 183
374 183
373 182
372 181
371 180
370 179
369 178
368 177
368 176
367 175
366 174
365 174
364 174
363 174
362 174
361 174
361 175
361 176
361 177
361 178
361 179
361 180
361 181
361 182
361 183
361 184
361 185
361 186
361 187
361 188
360 189
360 190
360 191
360 192
360 193
360 194
359 195
359 196
359 197
359 198
359 199
359 200
359 201
359 202
359 203
359 204
359 205
359 206
359 207
359 208
359 209
359 210
358 211
358 212
357 213
356 214
355 215
354 215
353 214
352 214
351 213
350 212
349 211
349 210
348 209
347 208
346 207
345 206
344 206
343 205
342 204
341 203
340 202
339 201
338 201
337 200
336 199
335 198
334 198
333 197
332 197
331 196
330 196
329 195
328 195
327 194
326 193
325 193
324 193
323 192
322 192
321 191
320 191
319 190
318 190
317 189
316 189
315 188
314 188
313 187
312 186
311 186
310 185
309 185
308 184
307 183
307 182
306 181
305 180
305 179
304 178
303 177
303 176
302 176
301 176
300 176
299 176
298 176
297 176
297 177
297 178
297 179
297 180
297 181
297 182
297 183
297 184
297 185
297 186
297 187
298 188
298 189
298 190
298 191
298 192
298 193
299 194
298 195
298 196
298 197
298 198
298 199
298 200
298 201
297 202
297 203
297 204
297 205
297 206
297 207
296 208
296 209
296 210
296 211
296 212
295 213
295 214
295 215
295 216
294 217
294 218
293 219
292 220
291 221
290 220
289 220
288 219
287 218
286 217
285 216
284 215
284 214
283 213
282 212
281 211
280 210
279 209
278 208
277 207
276 207
275 206
274 206
273 205
272 205
271 204
270 204
269 203
268 202
267 201
267 200
266 199
265 198
264 197
263 196
262 195
261 194
260 193
260 192
259 191
258 190
258 189
257 188
257 187
256 186
255 186
254 186
253 186
252 186
252 187
252 188
252 189
252 190
252 191
252 192
252 193
252 194
252 195
251 196
251 197
251 198
251 199
251 200
250 201
250 202
250 203
249 204
249 205
249 206
248 207
248 208
248 209
247 210
247 211
247 212
247 213
247 214
246 215
246 216
246 217
246 218
246 219
246 220
246 221
246 222
246 223
246 224
245 225
245 226
245 227
244 228
244 229
243 230
242 231
241 232
240 231
239 230
238 229
237 228
237 227
236 226
235 225
235 224
234 223
233 222
232 221
231 220
230 219
229 218
228 218
227 217
226 216
225 215
224 215
223 214
222 213
221 212
220 211
219 210
218 209
217 208
216 207
215 206
214 205
213 205
212 204
211 204
210 203
209 203
208 202
207 202
206 201
205 201
204 200
203 199
202 199
201 198
200 197
199 196
198 195
197 195
196 194
195 193
194 193
193 192
192 191
191 190
190 189
189 188
188 187
187 186
187 185
186 184
186 183
185 182
185 181
184 181
183 181
182 181
182 182
182 183
182 184
182 185
182 186
182 187
182 188
182 189
182 190
182 191
182 192
182 193
182 194
182 195
182 196
181 197
181 198
181 199
181 200
181 201
181 202
180 203
180 204
180 205
179 206
179 207
179 208
179 209
178 210
178 211
178 212
178 213
178 214
178 215
178 216
178 217
178 218
178 219
178 220
178 221
178 222
178 223
177 224
177 225
176 226
176 227
175 228
174 229
173 229
172 229
171 228
170 228
169 227
168 226
167 225
167 224
166 223
165 222
164 221
163 220
162 220
161 219
160 218
159 217
158 217
157 216
156 216
155 215
154 215
153 214
152 213
151 212
150 212
149 211
148 210
147 210
146 209
145 208
144 208
143 207
142 207
141 206
140 206
139 206
138 205
137 205
136 205
135 204
134 204
133 204
132 203
131 203
130 202
129 202
128 201
127 201
126 200
125 200
124 199
123 198
122 197
121 196
121 195
120 194
119 193
118 192
117 191
117 190
116 189
115 188
114 188
113 188
112 188
112 189
112 190
112 191
112 192
112 193
112 194
112 195
112 196
113 197
113 198
113 199
113 200
113 201
114 202
114 203
114 204
114 205
115 206
115 207
115 208
115 209
116 210
116 211
116 212
116 213
116 214
116 215
116 216
116 217
116 218
116 219
116 220
116 221
116 222
116 223
116 224
116 225
116 226
116 227
116 228
116 229
116 230
116 231
116 232
117 233
117 234
117 235
117 236
117 237
117 238
118 239
118 240
118 241
119 242
119 243
120 244
120 245
120 246
120 247
120 248
120 249
120 250
120 251
120 252
120 253
120 254
120 255
120 256
120 257
120 258
120 259
120 260
120 261
120 262
121 263
121 264
121 265
121 266
121 267
121 268
121 269
120 270
119 271
118 271
117 271
116 270
115 270
114 269
114 268
113 267
112 266
111 265
110 265
109 264
108 263
107 262
106 262
105 262
104 261
103 261
102 261
101 261
100 260
99 260
98 260
97 260
96 260
95 260
94 260
93 260
92 260
91 260
90 260
89 260
88 260
87 260
86 260
85 260
84 260
83 260
82 260
81 259
80 259
79 258
78 258
77 258
76 258
75 257
74 257
73 257
72 257
71 257
70 257
69 257
68 257
68 258
68 259
68 260
68 261
68 262
69 263
69 264
70 265
70 266
71 267
71 268
71 269
72 270
72 271
72 272
73 273
73 274
73 275
74 276
74 277
74 278
74 279
74 280
74 281
74 282
74 283
74 284
74 285
75 286
75 287
75 288
75 289
76 290
76 291
76 292
76 293
76 294
76 295
77 296
77 297
78 298
79 299
80 299
81 300
82 300
83 301
84 301
85 302
85 303
86 304
86 305
86 306
85 307
85 308
84 309
83 309
82 310
81 310
80 311
79 311
78 312
77 312
76 312
75 312
74 312
73 312
72 312
71 312
70 312
69 312
68 312
67 312
66 312
65 312
64 312
63 312
62 312
61 313
60 313
59 313
58 314
57 315
56 316
55 317
54 317
53 318
52 319
51 320
50 321
49 322
48 323
48 324
47 325
46 326
45 327
44 328
44 329
43 330
43 331
42 332
42 333
41 334
41 335
40 336
39 337
38 338
37 339
36 340
36 341
35 342
35 343
34 344
34 345
33 346
33 347
32 348
31 349
30 349
29 350
28 350
27 351
26 351
25 352
24 352
23 353
22 354
21 354
20 355
