285 32
285 33
285 34
285 35
285 36
285 37
285 38
285 39
285 40
285 41
285 42
285 43
285 44
285 45
285 46
285 47
284 48
284 49
283 50
283 51
282 52
282 53
281 54
280 55
279 56
278 57
277 58
276 58
275 59
274 59
273 60
272 59
271 59
271 60
271 61
271 62
271 63
271 64
271 65
271 66
270 67
270 68
270 69
270 70
269 71
269 72
268 73
268 74
268 75
267 76
267 77
267 78
266 79
266 80
265 81
265 82
264 83
263 84
262 85
261 86
260 87
259 88
258 88
257 88
256 87
255 87
254 87
253 86
252 85
251 84
250 83
249 82
248 82
247 81
246 80
245 79
244 78
243 77
242 76
241 75
240 74
239 74
238 73
237 72
236 72
235 71
234 71
233 70
232 69
231 69
230 68
229 67
228 67
227 66
226 65
225 65
224 64
223 63
222 62
221 61
220 61
219 60
218 59
217 58
216 58
215 57
214 56
213 55
212 55
211 54
210 53
209 52
208 52
207 51
206 50
205 49
204 48
203 47
202 46
201 45
201 44
200 43
200 44
200 45
200 46
200 47
200 48
200 49
200 50
199 51
199 52
198 53
197 54
197 55
196 56
195 57
194 58
193 59
192 59
191 60
190 60
189 61
188 61
187 61
186 61
185 61
184 62
183 62
182 62
181 62
180 62
179 62
178 62
177 62
176 62
175 62
174 62
173 62
172 62
171 62
170 61
169 61
168 61
167 61
166 61
165 60
164 60
163 60
162 60
161 60
160 59
159 59
158 58
157 58
156 57
156 56
155 56
154 56
154 57
154 58
154 59
154 60
153 61
153 62
152 63
151 63
150 64
149 65
148 65
147 65
146 66
145 66
144 66
143 67
142 67
141 67
140 67
139 67
138 67
137 67
136 68
135 68
134 68
133 68
132 68
131 68
130 68
129 68
128 68
127 68
126 68
125 67
124 66
123 66
122 65
121 65
122 66
123 67
124 68
124 69
125 70
126 71
126 72
127 73
127 74
128 75
129 76
129 77
130 78
130 79
130 80
130 81
130 82
130 83
130 84
130 85
130 86
130 87
130 88
130 89
130 90
129 91
129 92
128 93
127 94
126 95
127 96
128 96
129 97
129 98
130 99
131 100
131 101
132 102
133 103
133 104
134 105
134 106
135 107
135 108
135 109
136 110
136 111
136 112
137 113
137 114
137 115
138 116
138 117
138 118
139 119
139 120
139 121
139 122
139 123
139 124
139 125
139 126
139 127
139 128
139 129
139 130
139 131
138 132
138 133
137 134
136 134
135 135
134 135
133 135
132 136
131 135
131 136
132 136
133 137
134 137
135 138
136 138
137 139
138 139
139 140
140 141
141 142
142 143
143 143
144 144
145 145
146 145
147 146
148 147
149 148
150 149
151 149
152 150
153 151
154 152
155 152
156 153
157 154
158 155
159 155
160 156
161 157
162 158
163 159
164 160
165 160
166 161
167 162
168 162
169 163
170 164
171 165
172 166
173 167
174 168
175 169
176 170
177 171
178 172
178 173
179 173
180 174
180 175
179 176
178 177
177 177
176 178
175 178
174 179
173 179
172 179
171 179
170 179
169 180
168 180
167 180
166 180
165 180
164 180
163 180
162 180
161 180
160 180
159 180
158 179
157 179
156 179
155 179
154 179
153 179
152 178
151 178
150 178
149 178
148 178
147 178
146 178
145 178
144 178
143 178
142 178
141 178
140 178
139 178
138 178
137 177
136 177
135 177
134 177
133 177
132 177
131 177
130 177
129 177
128 177
127 177
126 177
125 177
124 177
123 177
122 177
121 177
120 177
119 177
118 177
117 177
116 177
115 177
114 178
113 178
112 178
111 178
110 178
109 178
108 178
107 178
106 178
105 178
104 177
103 177
102 177
101 177
100 177
99 177
98 177
97 176
98 177
99 177
100 178
101 179
102 180
103 181
103 182
103 183
104 184
104 185
103 186
103 187
103 188
103 189
103 190
103 191
103 192
102 193
102 194
102 195
101 196
101 197
100 198
100 199
99 200
98 201
97 202
97 203
96 204
95 205
94 206
93 206
92 207
91 208
90 208
89 209
88 209
87 210
86 210
85 211
84 211
83 212
82 212
81 213
80 213
79 214
78 214
77 215
76 215
75 216
74 216
73 216
72 216
71 217
70 217
69 217
68 218
69 218
70 219
71 219
72 220
72 221
72 222
72 223
72 224
72 225
72 226
72 227
72 228
71 229
71 230
71 231
70 232
70 233
69 234
69 235
68 236
68 237
67 238
67 239
66 240
65 241
64 242
63 243
62 244
61 245
60 245
59 246
58 247
57 247
56 248
55 248
54 249
53 250
52 250
51 250
52 251
53 251
54 251
55 251
56 251
57 251
58 251
59 251
60 251
61 252
62 252
63 253
64 253
65 254
66 255
67 256
68 256
69 257
69 258
70 259
71 260
72 261
73 262
74 263
74 264
75 265
75 266
75 267
76 268
76 269
77 270
77 271
77 272
77 273
77 274
77 275
76 276
75 277
76 277
77 277
78 276
79 277
80 277
81 277
82 277
83 277
84 278
85 278
86 278
87 279
88 279
89 280
90 280
91 280
92 281
93 281
94 282
95 282
96 282
97 283
98 284
99 284
100 285
101 286
102 286
103 287
104 288
105 288
106 289
107 290
108 291
109 292
109 293
110 294
110 295
111 296
111 297
111 298
111 299
111 300
111 301
111 302
110 303
110 304
110 305
109 306
110 305
111 305
112 304
113 303
114 303
115 303
116 302
117 302
118 302
119 302
120 302
121 302
122 302
123 302
124 302
125 302
126 302
127 302
128 301
129 301
130 301
131 301
132 301
133 301
134 301
135 300
136 300
137 300
138 300
139 300
140 300
141 300
142 299
143 299
144 299
145 299
146 299
147 299
148 298
149 298
150 298
151 298
152 298
153 297
154 297
155 297
156 297
157 297
158 297
159 297
160 297
161 297
162 296
163 296
164 296
165 296
166 296
167 296
168 296
169 296
170 297
169 298
168 299
167 299
166 300
165 301
164 301
163 302
162 302
161 303
160 303
159 304
158 304
157 304
156 305
155 305
154 306
153 306
152 307
151 307
150 308
149 308
148 309
147 309
146 310
145 311
144 312
143 312
142 313
141 314
140 314
139 315
138 315
137 316
136 317
135 318
134 318
133 319
132 320
131 321
130 321
129 322
128 322
127 323
126 323
125 323
124 324
123 324
122 324
121 324
122 325
123 325
124 325
125 325
126 325
127 326
128 326
129 327
130 328
131 329
131 330
131 331
132 332
132 333
132 334
132 335
132 336
133 337
133 338
132 339
132 340
132 341
132 342
132 343
132 344
132 345
131 346
131 347
131 348
130 349
130 350
130 351
129 352
129 353
129 354
128 355
128 356
128 357
127 358
127 359
126 360
126 361
125 362
125 363
124 364
123 365
123 366
122 367
121 368
121 369
120 370
119 371
118 372
117 372
116 373
117 373
118 373
119 373
120 374
121 374
122 375
123 376
123 377
123 378
124 379
124 380
124 381
124 382
124 383
124 384
124 385
124 386
123 387
123 388
123 389
122 390
122 391
122 392
121 393
121 394
120 395
120 396
119 397
118 398
118 399
117 400
116 401
116 402
115 403
114 404
115 404
116 403
117 403
118 402
119 402
120 401
121 401
122 401
123 400
124 400
125 400
126 400
127 400
128 400
129 400
130 400
131 400
132 400
133 400
134 400
135 400
136 400
137 400
138 400
139 401
140 401
141 401
142 402
143 402
144 403
145 403
146 404
147 405
148 406
149 407
150 408
150 409
150 410
150 411
149 412
150 411
151 411
152 410
153 410
154 409
155 409
156 409
157 408
158 408
159 408
160 408
161 408
162 407
163 407
164 407
165 407
166 407
167 407
168 407
169 407
170 407
171 407
172 407
173 408
174 408
175 408
176 408
177 408
178 408
179 408
180 408
181 409
182 409
183 410
184 410
185 410
186 411
187 412
188 413
189 413
190 414
191 415
192 416
193 417
193 418
194 419
194 420
195 421
195 422
195 423
195 424
195 425
195 426
195 427
195 428
195 429
195 430
195 431
195 430
196 429
197 428
197 427
198 426
199 425
200 424
201 423
202 422
203 421
204 420
205 419
206 418
207 418
208 417
209 416
210 415
211 415
212 414
213 413
214 412
215 412
216 411
217 411
218 410
219 409
220 408
221 408
222 407
223 407
224 406
225 405
226 405
227 405
228 404
229 404
230 403
231 402
232 401
233 400
234 400
235 399
236 398
237 398
238 397
239 396
240 396
241 395
242 394
243 394
244 393
245 393
246 392
247 392
248 391
249 391
250 391
251 390
252 390
253 390
254 389
255 389
256 389
257 389
258 390
259 391
259 392
260 393
260 394
261 395
261 396
262 397
262 398
262 399
263 400
263 401
264 402
264 403
264 404
264 405
265 406
265 407
265 408
266 409
266 410
266 411
266 412
266 413
266 414
267 415
267 416
267 417
267 418
267 419
267 420
267 421
268 421
269 421
270 422
271 422
272 422
273 422
274 423
275 423
276 424
277 425
278 426
279 427
280 428
281 429
281 430
282 431
282 432
283 433
283 434
283 435
284 436
284 437
284 438
284 439
284 440
284 441
284 442
284 441
285 440
285 439
286 438
286 437
287 436
287 435
288 434
289 433
289 432
290 431
291 430
292 429
292 428
293 427
294 426
295 425
296 424
297 423
297 422
298 421
299 420
300 419
301 419
302 418
303 417
304 417
305 417
306 417
307 417
308 416
309 416
310 416
311 416
312 416
313 415
313 414
313 413
313 412
313 411
314 410
314 409
314 408
314 407
315 406
315 405
316 404
316 403
317 402
318 401
319 400
320 399
321 398
322 398
323 397
324 396
325 395
326 395
327 394
328 394
329 393
330 393
331 393
332 393
333 393
334 393
335 393
336 393
337 394
338 394
339 395
340 395
341 396
342 397
343 398
343 399
343 398
343 397
342 396
342 395
342 394
342 393
342 392
342 391
342 390
341 389
341 388
341 387
342 386
342 385
342 384
342 383
342 382
343 381
343 380
343 379
343 378
343 377
344 376
344 375
344 374
344 373
345 372
345 371
345 370
345 369
346 368
346 367
346 366
346 365
346 364
346 363
346 362
345 361
345 360
345 359
345 358
346 357
347 356
348 355
348 354
349 353
350 352
350 351
351 350
352 349
352 348
353 347
354 346
355 345
356 344
357 344
358 343
359 343
360 343
361 342
362 342
363 342
364 342
365 342
366 342
367 342
368 342
369 342
370 342
371 343
372 343
373 343
374 343
375 343
376 343
377 344
378 344
379 344
380 345
381 345
382 345
383 346
384 346
385 347
386 348
387 349
388 350
389 350
390 351
391 351
390 350
389 349
388 348
388 347
387 346
387 345
386 344
386 343
386 342
385 341
385 340
385 339
384 338
384 337
384 336
384 335
384 334
384 333
384 332
384 331
384 330
384 329
384 328
384 327
384 326
384 325
383 324
383 323
383 322
383 321
383 320
383 319
382 318
382 317
382 316
382 315
381 314
381 313
381 312
381 311
380 310
380 309
380 308
380 307
380 306
379 305
379 304
378 303
378 302
377 301
377 300
376 299
376 298
375 297
375 296
375 295
375 294
374 293
374 292
374 291
374 290
373 289
373 288
373 287
373 286
372 285
372 284
372 283
371 282
371 281
371 280
371 279
371 278
371 277
370 276
370 275
369 274
369 273
369 272
369 271
369 270
368 269
368 268
368 267
368 266
367 265
367 264
367 263
366 262
366 261
365 260
365 259
365 258
364 257
363 256
363 255
362 254
362 253
361 252
360 251
360 250
359 249
358 248
357 247
356 246
356 245
355 244
356 243
357 243
358 243
359 243
360 242
361 242
362 242
363 242
364 242
365 242
366 242
367 241
368 241
369 241
370 241
371 241
372 241
373 241
374 241
375 241
376 241
377 241
378 241
379 241
380 241
381 241
382 241
383 241
384 241
385 241
386 241
387 241
388 241
389 241
390 241
391 241
392 241
393 241
394 241
395 241
396 241
397 241
398 241
399 241
400 241
401 241
402 241
403 241
404 241
405 241
406 241
407 241
408 241
409 241
410 241
411 241
412 241
413 241
414 241
415 241
416 241
417 241
418 241
419 241
420 241
421 242
422 242
423 242
424 242
425 242
426 242
427 242
428 242
429 242
430 242
431 242
432 242
433 242
434 242
435 242
436 242
437 242
438 243
439 243
440 243
441 243
442 243
443 243
444 243
445 243
446 243
447 243
448 243
449 244
450 244
451 244
452 244
453 244
454 244
455 244
456 244
457 245
458 245
459 245
460 245
461 245
462 245
463 245
464 245
465 246
466 246
467 246
468 246
469 246
470 246
471 246
472 247
473 247
474 247
475 247
476 247
477 247
478 248
479 248
480 248
481 248
482 248
483 248
484 248
485 249
486 249
487 249
488 249
489 249
490 249
491 250
492 250
493 250
494 250
495 250
496 250
497 250
498 251
499 251
500 251
501 251
502 251
503 251
504 251
505 252
506 252
507 252
508 252
509 252
510 252
511 252
512 252
513 253
514 253
515 253
516 253
517 253
518 253
519 253
520 253
521 254
522 254
523 254
524 254
525 254
526 254
527 254
528 254
529 254
530 255
531 255
532 255
533 255
534 255
535 255
536 255
537 256
538 256
539 256
540 256
541 256
542 256
543 256
544 257
545 257
546 257
547 257
548 257
549 257
550 258
551 258
552 258
553 258
554 258
555 258
556 259
557 259
558 259
559 259
560 259
561 260
562 260
563 260
564 260
565 260
566 260
567 261
568 261
569 261
570 261
571 261
572 261
573 262
574 262
575 262
576 262
577 262
578 262
579 263
580 263
581 263
582 263
583 263
584 264
585 264
586 264
587 264
588 264
589 265
590 265
591 265
592 265
593 265
594 265
595 266
596 266
597 266
598 266
599 267
600 267
601 267
602 267
603 267
604 268
605 268
606 268
607 268
608 268
609 269
610 269
611 269
612 269
613 269
614 270
615 270
616 270
617 270
618 271
619 271
620 271
621 271
622 271
623 272
624 272
625 272
626 272
627 272
628 273
629 273
630 273
631 273
632 274
633 274
634 274
635 274
636 275
637 275
638 275
639 275
640 276
641 276
642 276
643 276
644 276
645 277
646 277
647 277
648 277
649 278
650 278
651 278
652 278
653 279
654 279
655 279
656 279
657 280
658 280
659 280
660 281
661 281
662 281
663 281
664 281
665 282
666 282
667 282
668 282
669 283
670 283
671 283
672 283
673 284
674 284
675 284
676 285
677 285
678 285
679 286
680 286
681 286
682 286
683 286
684 287
685 287
686 287
687 287
688 288
689 288
690 288
691 289
692 289
693 289
694 290
695 290
696 290
697 290
698 291
699 291
700 291
701 291
702 292
703 292
704 292
705 293
706 293
707 293
708 293
709 294
710 294
711 294
712 295
713 295
714 295
715 295
716 296
717 296
718 296
719 297
720 297
721 297
722 297
723 298
724 298
725 298
726 299
727 299
728 299
729 299
730 300
731 300
732 300
733 300
734 301
735 301
736 301
737 302
738 302
739 302
740 303
741 303
742 303
743 304
744 304
745 304
746 305
747 305
748 305
749 306
750 306
751 306
752 307
753 307
754 308
755 308
756 308
757 309
758 309
759 309
760 310
761 310
762 310
763 311
764 311
765 311
766 312
767 312
768 313
769 313
770 314
771 314
772 315
773 315
774 316
775 316
776 316
777 316
778 316
778 315
778 314
779 313
780 312
780 311
781 310
781 309
780 308
779 308
778 308
777 308
776 308
775 307
774 307
773 306
772 305
771 305
770 304
769 304
768 303
767 303
766 303
765 303
764 303
763 303
762 303
761 303
760 303
759 302
758 302
757 302
756 302
755 302
754 301
753 301
752 301
751 300
750 300
749 300
748 300
747 300
746 299
745 299
744 299
743 298
742 298
741 298
740 298
739 297
738 297
737 297
736 296
735 296
734 296
733 296
732 295
731 295
730 295
729 295
728 294
727 294
726 294
725 294
724 293
723 293
722 293
721 292
720 292
719 292
718 292
717 291
716 291
715 291
714 290
713 290
712 290
711 290
710 289
709 289
708 289
707 289
706 288
705 288
704 288
703 287
702 287
701 287
700 287
699 286
698 286
697 286
696 285
695 285
694 285
693 285
692 284
691 284
690 284
689 283
688 283
687 283
686 283
685 282
684 282
683 282
682 282
681 281
680 281
679 281
678 280
677 280
676 280
675 280
674 279
673 279
672 279
671 278
670 278
669 278
668 278
667 277
666 277
665 277
664 277
663 276
662 276
661 276
660 275
659 275
658 275
657 275
656 274
655 274
654 274
653 274
652 273
651 273
650 273
649 273
648 272
647 272
646 272
645 272
644 271
643 271
642 271
641 271
640 270
639 270
638 270
637 270
636 269
635 269
634 269
633 269
632 268
631 268
630 268
629 268
628 268
627 267
626 267
625 267
624 267
623 267
622 266
621 266
620 266
619 266
618 266
617 265
616 265
615 265
614 265
613 265
612 264
611 264
610 264
609 264
608 263
607 263
606 263
605 263
604 263
603 263
602 262
601 262
600 262
599 262
598 262
597 261
596 261
595 261
594 261
593 261
592 260
591 260
590 260
589 260
588 260
587 259
586 259
585 259
584 259
583 259
582 259
581 258
580 258
579 258
578 258
577 258
576 258
575 257
574 257
573 257
572 257
571 257
570 257
569 256
568 256
567 256
566 256
565 256
564 256
563 255
562 255
561 255
560 255
559 255
558 255
557 254
556 254
555 254
554 254
553 254
552 254
551 254
550 253
549 253
548 253
547 253
546 253
545 253
544 252
543 252
542 252
541 252
540 252
539 252
538 252
537 252
536 251
535 251
534 251
533 251
532 251
531 251
530 251
529 251
528 250
527 250
526 250
525 250
524 250
523 250
522 250
521 250
520 250
519 250
518 249
517 249
516 249
515 249
514 249
513 249
512 249
511 249
510 249
509 249
508 248
507 248
506 248
505 248
504 248
503 248
502 247
501 247
500 247
499 247
498 247
497 247
496 247
495 246
494 246
493 246
492 246
491 246
490 246
489 246
488 245
487 245
486 245
485 245
484 245
483 245
482 245
481 244
480 244
479 244
478 244
477 244
476 243
475 243
474 243
473 243
472 243
471 243
470 243
469 242
468 242
467 242
466 242
465 242
464 241
463 241
462 241
461 241
460 241
459 241
458 241
457 241
456 241
455 240
454 240
453 240
452 240
451 240
450 240
449 240
448 239
447 239
446 239
445 239
444 239
443 239
442 239
441 239
440 239
439 238
438 238
437 238
436 238
435 238
434 238
433 238
432 238
431 237
430 237
429 237
428 237
427 237
426 237
425 237
424 237
423 237
422 237
421 237
420 237
419 237
418 237
417 237
416 237
415 237
414 237
413 237
412 237
411 236
410 236
409 236
408 236
407 236
406 236
405 236
404 236
403 236
402 236
401 236
400 236
399 236
398 236
397 236
396 236
395 236
394 236
393 236
392 236
391 236
390 236
389 236
388 236
387 236
386 236
385 236
384 236
383 236
382 236
381 236
380 236
379 236
378 236
377 236
376 236
375 236
374 237
373 237
372 237
371 237
370 237
369 237
368 237
367 237
366 237
365 237
364 237
363 237
362 237
361 237
360 237
359 237
358 236
357 235
358 234
359 233
360 232
361 231
362 230
363 229
363 228
364 227
364 226
365 225
366 224
367 223
367 222
367 221
368 220
368 219
368 218
368 217
369 216
369 215
370 214
370 213
370 212
371 211
371 210
372 209
372 208
372 207
373 206
373 205
373 204
374 203
374 202
375 201
375 200
376 199
376 198
377 197
377 196
378 195
379 194
379 193
379 192
379 191
380 190
380 189
380 188
381 187
381 186
381 185
382 184
382 183
383 182
383 181
383 180
384 179
384 178
384 177
384 176
385 175
385 174
385 173
386 172
386 171
386 170
386 169
386 168
386 167
387 166
387 165
387 164
387 163
388 162
388 161
388 160
388 159
388 158
389 157
389 156
389 155
390 154
390 153
390 152
390 151
390 150
390 149
391 148
391 147
391 146
391 145
392 144
392 143
392 142
393 141
393 140
394 139
395 138
395 137
396 136
396 135
397 134
398 134
399 133
398 133
397 133
396 134
395 134
394 135
393 135
392 136
391 136
390 137
389 137
388 137
387 137
386 137
385 138
384 138
383 138
382 138
381 138
380 138
379 139
378 139
377 139
376 139
375 140
374 140
373 140
372 141
371 141
370 141
369 141
368 142
367 142
366 142
365 142
364 142
363 142
362 142
361 142
360 141
359 141
358 140
357 139
356 138
355 137
354 136
353 135
353 134
352 133
352 132
352 131
351 130
351 129
351 128
351 127
351 126
350 125
350 124
350 123
350 122
349 121
349 120
349 119
349 118
349 117
349 116
348 115
348 114
348 113
348 112
348 111
348 110
347 109
347 108
347 107
347 106
347 105
346 104
346 103
346 102
346 101
346 100
346 99
346 98
345 97
345 96
345 95
345 94
345 93
345 92
345 91
345 90
345 89
345 88
345 87
345 86
345 85
345 84
345 83
345 84
345 85
344 86
344 87
343 88
342 89
341 90
340 90
339 91
338 91
337 91
336 92
335 92
334 92
333 92
332 91
331 91
330 91
329 90
328 89
327 89
326 88
325 87
324 86
324 85
323 84
323 83
322 82
322 81
321 80
321 79
320 78
320 77
319 76
319 75
318 74
317 73
317 72
316 71
316 70
315 69
315 68
314 67
314 66
313 65
312 64
312 63
312 62
311 61
311 60
311 59
310 58
310 57
310 56
309 57
308 58
307 58
306 58
305 58
304 58
303 58
302 57
301 57
300 56
299 55
298 54
297 53
296 52
295 51
294 50
293 49
292 48
292 47
291 46
291 45
290 44
290 43
289 42
288 41
288 40
288 39
287 38
287 37
286 36
286 35
285 34
285 33
285 32
