369 123
369 124
369 125
368 126
368 127
367 128
366 129
365 130
364 130
363 131
362 132
361 133
360 134
359 135
358 136
357 136
356 137
355 138
354 139
353 139
352 140
351 140
350 141
349 141
348 142
347 142
346 143
345 143
344 143
343 143
342 143
341 144
340 144
339 144
338 144
337 144
336 145
335 144
334 144
333 144
332 145
331 145
330 144
329 144
328 144
327 144
326 144
325 144
324 144
323 144
322 144
321 144
320 143
319 143
318 143
317 143
316 143
315 143
314 143
313 143
312 143
311 143
310 143
309 143
308 143
307 142
306 142
305 142
304 142
303 142
302 142
301 142
300 142
299 141
298 141
297 141
296 141
295 141
294 140
293 140
292 140
291 140
290 140
289 140
288 139
287 139
286 139
285 139
284 138
283 138
282 138
281 137
280 137
280 138
279 139
278 140
277 141
276 142
275 143
274 143
273 144
272 145
271 146
270 147
269 147
268 147
267 147
266 148
265 148
264 149
263 149
262 149
261 149
260 150
259 150
258 151
257 150
256 150
255 150
254 150
253 151
252 151
251 151
250 151
249 151
248 151
247 151
246 151
245 151
244 151
243 151
242 151
241 151
240 152
239 152
238 152
237 152
236 152
235 152
234 152
233 152
232 153
231 153
230 153
229 154
228 154
227 154
226 154
225 154
224 155
224 156
223 157
223 158
222 159
221 159
221 160
220 161
219 162
218 163
217 163
216 163
215 164
214 165
213 166
212 166
211 167
210 168
209 168
208 169
207 169
206 170
205 170
204 170
203 171
202 172
201 172
200 173
199 173
198 173
197 174
196 175
195 175
194 176
193 176
193 177
192 178
191 179
190 180
189 181
188 181
187 181
186 182
185 182
184 183
184 184
183 185
183 186
182 187
181 188
181 189
180 190
180 191
180 192
179 193
179 194
178 195
177 196
177 197
176 198
175 199
174 200
173 201
172 202
172 203
171 204
171 205
170 206
170 207
170 208
169 209
169 210
170 211
170 212
171 213
171 214
171 215
172 216
173 217
173 218
174 219
175 220
176 221
176 222
177 223
177 224
178 224
179 225
180 226
180 227
181 227
182 228
183 229
183 230
184 231
185 232
186 232
187 233
188 234
189 235
190 236
190 237
191 238
192 239
193 240
194 241
194 242
195 242
196 243
197 244
198 245
199 246
200 247
201 248
202 248
203 249
204 249
205 250
205 251
206 252
206 253
207 254
208 255
209 256
210 257
210 258
211 259
212 260
213 261
213 262
214 263
214 264
214 265
215 266
215 267
216 268
216 269
217 270
217 271
218 272
218 273
218 274
219 275
219 276
219 277
219 278
220 278
221 278
222 277
223 278
224 278
225 278
226 278
227 279
228 279
229 279
230 280
231 281
232 281
233 282
234 282
235 282
236 283
237 283
238 283
239 284
240 285
241 286
242 286
243 286
244 287
245 288
246 288
247 289
248 289
249 289
250 290
251 290
252 291
253 292
254 292
255 292
256 293
257 293
258 293
259 294
260 294
261 295
262 295
263 296
264 296
265 297
266 297
267 298
268 298
269 299
270 299
271 300
272 300
273 301
274 302
275 302
276 302
277 303
278 303
279 303
280 304
281 305
282 305
283 306
284 307
285 307
286 308
287 309
288 309
289 310
290 311
291 312
291 313
292 314
293 315
294 316
295 317
296 318
297 319
297 320
298 321
299 322
299 323
300 324
301 325
301 326
302 327
302 328
303 329
303 330
304 330
305 329
306 328
307 328
308 329
309 329
310 329
311 329
312 329
313 329
314 329
315 329
316 330
317 330
318 330
319 330
320 330
321 331
322 331
323 331
324 332
325 332
326 332
327 332
328 332
329 332
330 333
331 334
332 334
333 334
334 334
335 335
336 335
337 336
338 336
339 337
340 337
341 338
342 338
343 338
344 339
345 340
346 340
347 340
348 341
349 341
350 342
351 342
352 343
353 343
354 344
355 345
356 345
357 345
358 345
359 345
360 346
361 346
362 346
363 346
364 347
365 347
366 346
367 347
368 347
369 347
370 347
371 347
372 347
373 347
374 347
375 347
376 347
377 348
378 347
379 348
380 348
381 348
382 348
383 348
384 348
385 349
386 349
387 349
388 349
389 349
390 349
391 350
392 350
393 350
394 350
395 350
396 350
397 351
398 351
399 351
400 352
401 353
402 353
403 353
404 353
405 354
406 355
407 355
408 356
409 356
410 357
411 357
412 358
413 359
414 360
415 361
416 361
417 362
418 362
419 363
419 364
420 365
421 365
422 364
423 364
424 364
425 364
426 364
427 363
428 363
429 362
430 362
431 362
432 362
433 362
434 361
435 360
436 360
437 359
438 359
439 358
440 358
441 358
442 358
443 359
443 358
444 357
445 357
446 357
447 357
448 356
449 356
450 356
451 356
452 356
453 356
454 356
455 356
456 356
457 355
458 355
459 355
460 355
461 355
462 355
463 355
464 355
465 355
466 355
467 355
468 356
469 356
470 356
471 356
472 357
473 356
474 357
475 357
476 358
477 358
478 358
479 359
480 359
481 359
482 359
483 358
484 358
485 358
486 358
487 357
488 357
489 357
490 356
491 357
492 356
493 356
494 356
495 355
496 355
497 355
498 355
499 354
500 354
501 354
502 353
503 353
504 353
505 353
506 353
507 353
508 353
509 352
510 351
511 352
512 352
513 352
514 352
515 352
516 352
517 352
518 351
519 351
520 352
521 352
522 352
523 352
524 352
525 352
526 353
527 352
528 352
529 352
530 353
531 354
532 354
533 354
534 355
535 355
536 356
537 356
538 356
539 356
540 356
541 357
542 357
543 357
544 358
544 359
544 358
545 357
546 357
547 356
548 355
549 354
550 354
551 353
551 352
552 351
553 351
554 351
555 350
555 349
556 348
557 348
558 347
559 347
560 346
561 345
562 344
563 343
564 342
565 343
566 342
567 342
568 342
569 341
570 341
571 340
572 340
573 340
574 339
575 338
576 338
577 338
578 338
579 338
580 338
581 337
582 336
583 335
584 335
584 334
585 333
586 333
587 332
587 331
588 330
589 329
590 328
591 327
591 326
592 325
593 324
594 323
595 322
596 321
597 320
598 320
598 319
599 318
600 317
601 316
602 315
603 314
604 313
604 312
604 311
605 310
606 310
606 309
606 308
607 307
608 306
608 305
609 304
610 303
610 302
610 301
611 300
612 300
612 299
612 298
613 297
613 296
612 295
613 294
614 293
615 293
615 292
615 291
616 290
616 289
617 288
617 287
617 286
618 285
618 284
618 283
619 282
619 281
619 280
620 279
621 278
622 277
623 277
624 277
625 277
626 277
627 277
628 278
629 278
630 277
631 277
632 277
633 277
634 277
635 278
636 277
637 277
638 277
639 277
640 277
641 277
642 277
643 277
644 277
645 278
646 278
647 277
648 277
649 277
650 276
651 276
652 276
653 276
654 276
655 276
656 275
657 276
657 277
658 277
659 278
660 278
661 278
662 278
663 278
663 277
664 276
665 275
665 274
665 273
665 272
665 271
666 270
667 269
667 268
667 267
668 266
668 265
669 264
669 263
668 262
667 262
666 262
665 262
664 263
663 263
662 263
661 263
660 263
659 264
658 264
657 265
656 265
655 265
654 265
653 265
652 265
651 265
650 264
649 263
648 264
647 264
646 264
645 264
644 264
643 264
642 263
641 264
640 265
639 265
638 265
637 265
638 266
637 267
637 268
636 269
635 268
635 267
635 266
635 265
635 264
634 263
633 263
632 263
632 264
631 265
630 264
630 263
629 262
628 263
628 264
627 265
626 265
625 264
625 263
624 263
623 263
622 262
621 261
620 261
619 261
618 260
618 259
617 258
617 257
617 256
617 255
617 254
616 253
616 252
615 251
615 250
615 249
615 248
614 247
613 246
613 245
613 244
612 243
612 242
612 241
611 240
610 240
609 239
608 239
607 238
608 237
608 236
607 235
606 234
605 233
605 232
604 231
604 230
603 229
602 228
602 227
601 226
600 225
600 224
599 223
598 222
597 221
596 220
595 219
594 218
593 217
592 216
592 215
591 215
590 215
589 214
589 213
588 212
587 211
586 210
585 209
584 208
583 207
583 206
582 205
581 204
580 203
579 202
579 201
579 200
579 199
578 198
577 198
576 197
575 197
574 197
573 197
572 197
571 196
570 196
569 196
568 196
567 196
566 196
565 196
564 195
563 195
562 195
561 195
560 194
559 194
558 193
557 193
556 193
555 193
554 192
553 191
552 191
551 191
550 190
549 189
548 189
547 189
546 189
545 188
545 187
544 186
543 186
542 186
541 185
540 184
539 184
538 184
537 184
536 183
535 183
534 183
533 182
532 182
531 181
530 181
529 180
528 180
527 179
526 178
525 178
524 177
523 176
522 176
521 175
520 175
519 174
518 173
517 173
516 172
515 171
514 170
513 170
512 169
511 168
510 167
509 166
508 166
507 165
506 164
506 163
505 163
504 163
503 162
503 161
502 161
501 162
500 163
499 163
498 163
497 163
496 163
495 163
494 164
493 164
492 165
491 165
490 165
489 164
488 165
487 165
486 165
485 165
484 165
483 164
482 164
481 164
480 164
479 163
478 163
477 163
476 163
475 163
474 163
473 162
472 161
471 161
470 161
469 161
468 160
467 159
466 158
465 158
464 158
463 157
462 156
461 155
460 155
459 154
458 153
457 152
456 152
455 151
454 150
453 149
452 148
452 147
451 146
450 145
449 145
448 144
448 143
447 142
446 141
446 140
445 139
444 138
444 137
443 137
442 138
441 139
440 139
439 139
438 139
437 139
436 139
435 139
434 139
433 139
432 140
431 140
430 141
429 141
428 141
427 141
426 141
425 141
424 140
423 141
422 141
421 140
420 140
419 140
418 140
417 140
416 140
415 139
414 139
413 139
412 139
411 139
410 139
409 139
408 138
407 138
406 138
405 138
404 138
403 138
402 138
401 138
400 138
399 138
398 138
397 138
396 138
395 138
394 137
393 137
392 137
391 137
390 136
389 136
388 135
387 135
386 134
385 134
384 133
383 133
382 133
381 132
380 132
379 131
378 131
377 130
376 130
375 129
374 129
373 128
372 127
372 126
371 126
370 125
370 124
369 123
