365 60
365 61
365 62
364 63
364 64
364 65
363 66
363 67
362 68
362 69
361 70
360 69
359 69
360 70
360 71
359 72
359 73
359 74
358 75
358 76
358 77
357 78
357 79
357 80
357 81
356 82
355 82
354 82
353 82
352 82
351 81
351 80
351 81
351 82
350 83
349 83
349 84
348 85
347 86
347 87
347 88
347 89
346 90
345 90
344 89
343 88
342 88
341 88
340 88
339 88
338 87
337 86
336 85
337 86
336 87
335 88
335 89
335 90
334 91
333 90
332 89
331 88
330 89
329 89
328 88
327 87
326 87
326 88
325 89
324 88
324 87
323 87
322 87
321 87
320 87
319 86
318 86
317 85
317 84
317 85
318 86
317 87
316 88
315 89
314 90
314 91
313 92
312 92
311 93
310 92
309 91
308 90
307 90
306 89
305 88
305 87
305 86
305 85
304 84
303 83
302 82
302 81
301 80
301 81
300 82
299 83
298 82
298 81
298 80
297 79
297 78
296 77
295 77
294 76
293 75
292 74
291 74
292 75
291 76
291 77
290 78
289 79
289 80
288 81
287 80
286 81
286 82
286 83
285 84
284 83
283 82
282 81
281 81
280 80
279 79
278 78
278 79
278 80
277 81
276 80
275 79
274 78
273 78
272 77
271 76
270 76
269 75
268 74
267 73
267 72
266 72
266 73
266 74
265 75
264 76
263 77
263 78
263 79
262 80
261 79
261 78
261 77
260 77
259 76
258 76
257 75
256 75
255 74
254 74
253 73
252 73
251 72
250 71
251 72
250 73
250 74
249 75
248 76
247 75
247 74
246 74
245 73
244 72
244 71
243 70
242 69
241 69
240 69
239 68
238 68
237 67
236 67
235 68
235 69
235 70
234 71
233 72
233 73
233 74
232 75
232 76
232 77
231 78
231 79
231 80
231 81
231 82
231 83
230 84
229 84
228 85
227 84
226 83
226 84
226 85
226 86
226 87
226 88
225 89
224 88
224 89
224 90
224 91
224 92
223 93
222 92
221 92
220 91
219 91
218 91
217 92
216 93
215 94
215 95
214 96
213 95
212 94
211 93
210 93
209 92
208 92
207 92
206 92
205 91
204 91
203 90
202 89
202 90
203 91
202 92
201 93
201 94
201 95
200 96
199 96
199 97
199 98
199 99
199 100
199 101
198 102
197 101
196 100
195 99
194 99
193 99
192 98
191 98
190 98
189 97
189 98
188 99
187 98
186 98
185 97
184 97
183 97
182 97
181 96
180 96
179 96
178 96
179 97
178 98
178 99
177 100
177 101
177 102
177 103
176 104
175 103
174 102
173 102
172 101
171 101
170 101
169 101
168 100
167 100
166 99
165 99
164 98
163 97
163 98
163 99
162 100
162 101
162 102
161 103
160 102
159 103
158 104
157 103
157 102
158 101
157 100
157 99
156 99
155 98
154 98
153 97
152 97
151 96
150 96
149 95
148 94
149 95
149 96
148 97
148 98
148 99
148 100
148 101
148 102
148 103
147 104
147 105
148 106
147 107
146 107
145 108
144 108
145 109
146 110
146 111
146 112
145 113
145 114
146 115
145 116
146 117
146 118
146 119
146 120
145 121
144 121
143 121
142 122
141 122
140 122
139 122
140 123
140 124
141 125
141 126
141 127
141 128
141 129
140 130
139 130
139 131
140 132
140 133
140 134
140 135
141 136
141 137
142 138
141 139
140 139
139 139
138 140
137 140
136 140
135 140
134 139
134 140
135 141
134 142
133 142
132 143
131 143
130 143
129 143
128 142
127 142
128 142
129 143
129 144
130 145
129 146
129 147
130 148
129 149
128 149
127 149
126 148
125 148
124 149
123 149
122 148
121 148
120 148
119 148
118 148
117 148
116 148
115 147
114 147
114 148
115 149
115 150
115 151
115 152
114 153
114 154
113 155
112 155
111 155
110 155
109 156
108 156
108 157
108 158
108 159
108 160
108 161
109 162
108 163
107 164
107 165
107 166
107 167
106 168
105 169
105 170
106 171
105 172
104 172
103 172
102 171
101 170
101 169
100 169
99 170
99 171
99 172
99 173
99 174
99 175
99 176
99 177
100 178
99 179
98 179
97 179
96 179
95 179
94 180
93 181
92 182
91 183
90 183
89 183
90 184
91 185
91 186
92 187
92 188
93 189
93 190
94 191
94 192
95 193
96 194
95 195
94 196
93 197
94 198
95 199
95 200
96 201
96 202
97 203
98 204
97 205
96 206
95 206
94 206
94 207
95 208
94 209
93 209
92 210
91 211
90 212
89 212
88 211
88 212
89 212
90 213
90 214
91 215
91 216
91 217
91 218
92 219
91 220
90 220
89 220
88 221
87 221
86 221
86 222
85 223
84 223
83 224
82 224
81 224
80 224
80 225
81 226
80 227
79 227
78 227
77 228
76 228
75 229
74 230
73 230
74 230
75 230
76 231
77 232
78 233
79 233
80 234
80 235
81 236
82 237
82 238
83 239
84 239
85 240
84 241
84 242
83 243
82 244
81 244
82 245
83 246
84 247
85 248
86 249
86 250
87 251
88 252
87 253
86 253
85 253
84 254
83 255
82 256
81 257
80 258
79 258
79 259
80 260
81 261
82 262
81 263
80 263
79 264
78 265
77 265
76 266
75 267
74 268
73 268
73 269
74 269
75 270
76 271
77 271
78 272
79 272
80 273
79 274
78 274
77 274
76 275
75 275
74 276
73 276
73 277
72 278
71 278
70 277
69 276
68 276
67 275
66 276
65 275
65 274
65 273
65 272
64 271
63 271
62 270
62 269
61 268
61 267
61 266
61 265
61 264
61 263
61 262
61 261
62 260
62 259
63 258
64 259
65 259
64 259
63 258
62 257
62 256
62 255
62 254
61 253
62 252
63 251
64 250
65 249
66 249
67 249
68 248
68 247
68 246
68 245
69 244
69 243
69 242
69 241
69 240
69 239
70 238
70 237
69 237
68 237
67 236
67 235
67 234
67 233
68 232
68 231
67 230
67 229
67 228
67 227
67 226
66 225
66 224
65 224
64 225
63 225
63 226
62 227
62 228
61 229
61 230
61 231
60 232
59 233
59 234
59 235
58 236
57 236
56 237
55 237
54 237
53 237
52 237
51 237
50 238
50 239
49 240
48 240
47 239
46 239
47 240
47 241
47 242
47 243
47 244
47 245
47 246
47 247
47 248
48 249
47 250
46 250
45 250
44 251
43 252
42 252
41 253
40 253
39 253
38 253
39 254
39 255
40 256
40 257
40 258
41 259
41 260
40 261
39 261
40 262
41 263
41 264
42 265
42 266
42 267
43 268
44 269
45 270
46 271
45 272
44 272
43 273
42 273
43 273
44 274
45 275
46 276
46 277
47 278
48 279
49 280
50 281
49 282
49 283
49 284
49 285
50 286
51 287
52 288
53 289
54 290
53 291
52 291
51 292
50 292
49 293
48 294
47 295
46 296
46 297
47 298
46 299
45 299
44 300
43 301
42 302
41 301
41 302
42 303
43 304
44 305
44 306
45 307
46 308
47 308
48 309
49 310
50 310
51 311
52 312
53 312
54 313
54 314
53 315
52 315
53 316
54 317
55 318
56 318
57 319
58 320
59 321
59 322
60 323
61 324
62 324
63 325
64 325
65 325
66 326
65 327
65 328
65 329
65 330
65 331
64 332
63 333
62 333
63 333
64 333
65 334
66 335
67 336
68 337
69 337
70 338
69 339
70 340
71 341
72 342
73 342
74 343
75 344
74 345
73 345
72 346
71 347
70 348
69 348
69 349
70 350
69 351
68 352
67 353
66 353
65 354
64 354
63 354
64 354
65 355
65 356
66 357
66 358
67 359
67 360
66 361
65 361
64 362
63 363
62 364
61 365
60 366
59 367
59 368
58 369
57 369
56 370
55 371
54 372
53 372
52 372
53 372
54 373
55 373
56 374
57 375
58 376
59 377
60 377
61 378
62 378
63 379
64 379
65 379
66 380
67 380
68 381
68 382
68 383
68 384
67 385
66 386
65 387
66 387
67 387
68 388
69 389
70 390
71 390
72 391
73 392
74 393
74 394
75 394
76 395
77 395
78 396
79 396
80 396
81 397
81 398
80 399
79 400
79 401
79 402
80 403
79 404
79 405
78 406
77 407
76 407
77 407
78 407
79 407
80 408
81 409
82 410
83 410
84 410
85 411
84 412
84 413
83 414
84 414
85 415
86 415
87 416
88 416
89 416
90 416
91 417
91 418
90 419
89 419
88 419
87 420
86 421
86 422
85 423
84 424
85 424
86 425
85 426
85 427
84 428
84 429
84 430
83 431
82 432
81 433
80 433
80 434
81 434
82 435
83 436
84 437
85 438
86 438
87 439
87 440
86 441
85 442
85 443
84 444
83 445
83 446
84 447
83 448
82 449
82 450
81 451
80 452
80 453
79 454
78 454
78 455
79 455
80 456
81 457
82 458
81 459
80 460
79 461
78 461
77 462
77 463
76 464
75 465
74 465
73 466
72 466
71 467
70 467
69 467
70 468
71 469
71 470
72 471
73 472
74 473
75 474
76 474
77 475
78 475
79 475
80 476
81 477
81 478
80 479
81 479
82 479
83 479
84 480
85 481
86 481
87 481
88 481
89 481
90 481
91 482
92 482
93 482
94 482
95 482
96 483
96 484
96 485
96 486
96 487
96 488
97 489
96 490
96 491
95 492
94 492
95 492
96 492
97 492
98 492
99 492
100 493
101 494
102 494
103 494
104 494
105 495
106 494
107 494
108 494
109 494
110 493
111 493
112 494
112 495
113 496
113 497
114 496
115 497
116 498
117 499
117 500
117 501
117 502
116 503
115 504
114 505
115 505
116 504
117 505
118 506
119 506
120 507
121 507
122 507
123 508
123 509
122 510
121 511
122 511
123 511
124 512
125 513
126 514
127 514
128 515
127 516
127 517
126 518
126 519
125 520
124 521
125 521
126 522
127 522
128 523
127 524
127 525
127 526
127 527
127 528
127 529
126 530
125 531
124 532
125 532
126 533
127 534
127 535
128 536
129 536
130 537
130 538
130 539
129 540
128 541
128 542
128 543
128 544
129 545
128 546
127 546
127 547
126 548
126 549
126 550
126 551
125 552
124 553
123 554
124 554
125 555
125 556
126 556
127 557
127 558
126 559
126 560
125 561
125 562
125 563
125 564
124 565
124 566
124 567
124 568
123 569
123 570
122 571
121 572
122 572
123 572
124 572
125 572
126 572
127 573
128 572
129 573
130 573
131 572
132 572
133 572
134 571
135 571
136 571
137 571
138 571
139 570
140 570
141 570
142 569
143 569
144 568
145 568
146 567
147 567
148 567
149 568
149 569
149 570
149 571
149 572
150 572
151 571
152 571
153 571
154 571
155 571
156 571
157 571
158 571
159 571
160 571
161 571
162 571
163 571
164 571
165 570
166 570
167 570
168 570
169 570
170 569
171 570
171 571
172 572
173 573
174 574
174 575
175 576
176 577
176 578
176 579
176 580
175 581
176 581
177 581
178 580
179 580
180 580
181 580
182 580
183 580
184 581
185 580
186 580
187 580
188 579
189 579
190 579
191 578
192 579
193 578
194 578
195 578
196 578
197 578
198 578
199 578
200 578
201 578
202 578
203 578
204 579
205 579
206 579
207 579
208 579
209 580
209 581
210 581
211 581
212 582
211 583
211 584
212 583
213 583
214 584
215 584
216 585
217 586
218 586
219 587
220 588
219 589
218 590
217 591
216 591
217 591
218 592
219 592
220 593
221 594
221 595
220 596
220 597
220 598
219 599
218 600
219 601
219 602
218 603
217 604
218 605
218 606
217 607
217 608
216 609
215 610
214 611
215 611
216 611
217 612
216 613
215 613
215 614
215 615
215 616
214 617
214 618
213 619
212 620
213 620
214 621
215 622
216 623
216 624
216 625
215 626
214 627
214 628
213 629
212 630
212 631
211 632
210 633
210 634
209 635
208 636
207 637
207 638
206 639
205 640
205 641
204 642
203 642
202 642
203 642
204 642
205 643
206 643
207 644
208 644
209 645
209 646
210 646
211 647
212 647
213 647
214 647
215 647
216 647
217 647
218 647
219 646
220 646
221 646
222 645
223 646
224 646
225 645
226 644
227 643
228 644
229 644
230 643
231 643
232 643
233 643
234 643
235 642
236 642
237 642
238 642
239 642
240 642
241 642
242 641
243 642
243 643
244 644
245 645
246 646
246 647
246 648
246 649
247 648
248 647
249 647
250 647
251 646
252 647
253 647
254 646
255 646
256 645
257 644
258 643
259 643
260 644
261 644
262 645
263 645
264 645
265 644
266 644
267 645
268 645
269 645
270 645
271 646
272 647
272 648
272 649
273 648
274 649
274 650
274 651
274 652
275 653
275 654
276 655
276 656
275 657
275 658
276 657
277 657
278 657
279 656
280 656
281 656
282 656
283 656
284 656
285 656
286 656
287 656
288 656
289 656
290 656
291 655
292 655
293 654
294 655
295 654
296 653
297 653
298 653
299 653
300 652
301 652
302 652
303 653
303 654
303 655
304 654
305 654
306 654
307 655
308 655
309 654
310 654
311 654
312 653
313 653
314 652
315 652
316 652
317 652
318 651
319 652
320 652
321 652
322 652
323 652
324 653
324 654
324 655
325 655
326 654
327 655
327 656
328 657
328 658
329 659
329 660
329 661
328 662
329 662
330 661
331 660
332 660
333 661
334 660
335 660
336 659
337 660
338 660
339 660
340 659
341 660
342 659
343 659
344 658
345 657
346 657
347 656
348 656
349 655
350 654
351 654
352 654
353 654
354 653
355 653
356 653
357 654
356 655
357 655
358 654
359 654
360 653
361 653
362 652
363 652
364 651
365 651
366 651
367 650
368 650
369 650
369 649
370 648
371 647
372 646
372 645
373 644
374 645
374 646
374 647
373 648
374 649
375 650
376 650
377 650
378 650
379 650
380 651
381 651
382 652
383 652
384 653
384 654
384 655
384 656
385 656
386 655
387 655
388 656
389 656
390 656
391 656
392 656
393 656
394 656
395 655
396 656
396 657
397 657
398 656
399 656
400 657
401 657
402 657
403 657
404 657
405 657
406 658
407 659
407 660
407 661
408 661
409 662
409 663
409 664
409 665
409 666
409 667
409 668
409 669
410 669
411 669
412 670
411 671
411 672
411 673
412 674
412 675
412 676
412 677
412 678
412 679
411 680
412 680
413 680
414 680
415 681
416 681
417 682
418 682
419 683
419 684
420 685
420 686
420 687
420 688
419 689
420 690
420 691
419 692
420 693
420 694
420 695
421 696
421 697
421 698
421 699
421 700
421 701
421 702
421 703
421 704
420 705
421 705
422 705
423 705
424 705
425 706
425 707
425 708
426 708
427 708
428 708
429 709
430 709
431 710
432 709
433 709
434 708
435 708
436 708
437 707
438 707
439 706
440 705
441 704
442 704
443 703
444 703
445 703
446 702
447 702
448 703
449 702
450 702
451 702
452 702
453 701
454 701
455 701
456 702
457 702
458 702
459 703
460 703
461 704
461 705
462 705
462 704
463 703
464 702
465 701
466 700
467 699
468 698
469 698
470 697
471 696
472 695
473 694
474 694
475 693
476 692
477 692
478 692
479 692
480 693
481 694
482 694
483 695
484 695
485 696
486 697
486 698
486 699
486 700
487 699
488 698
489 698
490 698
491 697
492 697
493 696
494 695
495 694
496 694
497 694
498 693
499 694
499 693
500 692
500 691
501 690
502 689
503 688
504 687
505 687
506 687
507 686
508 687
509 686
510 686
511 687
511 688
512 687
513 686
514 685
514 684
515 683
516 682
517 682
517 681
518 680
519 680
520 679
521 678
522 678
523 679
524 679
525 680
525 681
526 680
527 680
528 681
529 681
530 681
531 682
532 682
533 682
534 682
535 683
536 684
537 684
538 685
537 686
538 686
539 685
540 684
541 683
542 682
543 681
544 680
545 679
545 678
546 677
547 678
548 678
548 677
549 676
549 675
549 674
550 673
551 672
551 671
552 670
553 670
554 670
555 670
556 670
557 669
558 669
559 670
559 671
559 670
559 669
559 668
560 667
560 666
561 665
562 664
562 663
563 662
564 661
565 661
565 660
566 659
567 658
568 657
569 657
570 656
571 656
572 656
573 656
574 655
575 656
575 655
576 654
577 654
578 655
579 654
579 653
579 652
579 651
580 650
581 649
581 648
582 647
582 646
582 645
583 644
584 644
585 644
586 644
586 643
586 642
586 641
587 640
588 639
589 638
590 637
591 636
592 637
593 636
594 637
595 638
596 638
597 638
598 639
599 639
600 639
601 639
602 639
603 639
604 639
605 639
606 639
607 639
608 639
609 640
610 641
610 642
611 642
611 641
612 640
613 639
614 638
614 637
615 636
615 635
615 634
616 633
617 634
618 634
618 633
617 632
617 631
617 630
617 629
616 630
615 631
614 631
613 630
612 631
611 630
610 630
609 629
609 628
608 627
608 626
608 625
608 624
608 623
607 622
607 621
607 620
607 619
607 618
608 617
609 616
609 615
610 614
611 613
612 613
612 612
613 611
614 611
615 610
616 609
617 609
618 609
619 609
620 609
621 609
622 609
623 609
624 609
625 608
626 608
627 608
628 608
629 607
630 606
631 605
632 604
633 605
633 604
634 603
635 602
636 601
636 600
636 599
637 598
637 597
638 596
639 596
640 596
640 595
641 594
641 593
641 592
641 591
642 590
643 590
644 589
645 589
646 589
647 589
648 589
649 589
650 589
651 589
652 589
653 589
654 589
655 589
656 589
657 589
658 589
659 588
660 588
661 589
661 590
661 591
661 590
662 589
662 588
663 587
664 586
665 585
666 584
666 583
667 582
666 581
666 580
667 579
668 580
669 580
669 579
669 578
670 577
670 576
670 575
670 574
670 573
671 572
671 571
672 570
673 570
673 569
674 568
675 567
676 567
677 567
678 567
678 566
677 565
677 564
676 563
676 562
676 561
676 560
677 559
677 558
677 557
678 556
679 556
680 555
681 555
682 554
683 553
684 552
685 552
686 552
686 551
686 550
686 549
687 548
688 547
689 546
690 545
690 544
691 543
692 543
693 542
694 542
695 542
696 542
697 542
698 542
699 542
700 543
701 543
702 543
703 544
704 544
705 544
706 544
707 544
708 544
709 543
710 543
711 543
712 543
713 543
714 543
715 542
716 542
717 542
718 542
719 542
720 542
721 542
722 542
723 542
724 542
725 542
726 543
727 543
728 543
729 543
730 543
731 543
732 542
733 542
734 542
735 542
736 542
737 543
737 542
737 541
737 540
737 539
738 538
739 537
739 536
739 535
739 534
739 533
739 532
738 531
738 530
738 529
739 528
739 527
739 526
739 525
739 524
739 523
740 522
741 522
742 522
743 521
744 521
745 521
746 520
747 520
748 520
747 519
747 518
747 517
747 516
747 515
747 514
747 513
747 512
747 511
748 510
748 509
748 508
747 507
747 506
747 505
747 504
747 503
747 502
747 501
747 500
748 499
749 499
750 498
751 497
752 496
753 495
754 494
755 494
756 493
757 493
758 493
759 493
759 492
758 491
757 490
757 489
757 488
757 487
757 486
756 485
757 484
758 484
757 483
756 482
756 481
755 480
755 479
754 478
755 477
756 476
757 476
757 475
756 474
756 473
756 472
755 471
755 470
755 469
754 468
754 467
754 466
754 465
753 464
753 463
754 462
755 461
756 460
757 459
758 458
759 457
760 456
761 455
762 454
763 455
763 454
762 453
761 452
761 451
762 450
761 449
761 448
761 447
761 446
760 445
760 444
760 443
759 442
758 441
759 440
760 439
761 439
761 438
760 437
760 436
759 435
758 434
757 434
756 433
757 432
757 431
756 430
756 429
755 428
754 427
754 426
755 425
756 424
757 423
758 422
759 421
760 422
759 421
758 420
758 419
757 418
756 417
756 416
756 415
755 414
754 413
755 412
754 411
754 410
753 409
753 408
752 407
752 406
752 405
751 404
752 403
753 402
754 401
755 401
756 400
756 399
755 398
755 397
756 396
757 395
758 394
759 394
760 394
761 394
762 394
761 393
761 392
761 391
761 390
761 389
760 388
761 387
762 387
761 386
760 385
759 384
759 383
758 382
757 381
756 381
755 380
756 379
757 378
757 377
758 376
759 377
759 376
758 375
757 374
756 373
755 373
754 372
753 371
752 370
751 369
750 368
749 368
748 367
749 366
750 365
750 364
750 363
750 362
750 361
751 360
752 360
753 360
752 360
751 359
750 358
749 357
748 356
748 355
747 354
746 353
746 352
745 352
744 352
743 351
744 350
745 349
746 348
745 348
744 347
743 346
742 345
741 344
740 343
741 342
742 342
743 341
743 340
744 339
744 338
745 337
746 337
745 337
744 336
744 335
745 334
746 333
747 332
748 331
749 331
750 331
751 331
750 331
749 330
749 329
748 328
748 327
747 327
746 326
746 325
746 324
745 323
744 322
743 322
742 321
741 321
740 320
740 319
740 318
741 317
742 316
741 316
740 316
739 315
738 315
737 314
736 314
735 313
734 313
733 312
732 311
731 311
730 310
730 309
730 308
729 307
729 306
729 305
730 304
729 304
728 304
727 304
726 304
725 304
724 304
723 304
722 304
721 304
720 304
719 304
718 304
717 305
716 304
715 303
714 302
713 303
712 303
711 303
710 302
709 302
708 302
707 302
706 302
705 301
705 300
705 299
704 298
704 297
704 296
705 295
705 294
704 294
703 294
702 293
701 293
700 293
699 293
698 292
697 292
696 291
697 290
698 289
699 289
700 288
701 288
702 288
703 287
704 286
705 285
706 285
707 285
708 285
709 284
710 284
711 284
711 283
712 282
713 282
714 282
715 281
716 281
717 280
718 280
719 280
720 279
721 279
722 278
723 279
724 278
725 278
726 278
727 278
728 277
729 277
730 278
731 277
732 277
733 276
734 275
735 274
736 275
737 275
737 274
737 273
737 272
737 271
737 270
737 269
738 268
739 268
739 267
740 266
741 266
741 265
741 264
740 264
739 264
738 264
737 264
736 264
735 264
735 265
734 266
733 265
733 264
733 263
732 262
731 262
730 262
729 262
728 262
727 263
726 263
725 263
724 264
723 264
722 264
721 265
720 265
719 266
718 266
717 266
716 267
715 267
714 268
713 268
712 269
711 269
710 270
709 270
708 271
707 271
706 272
705 273
704 273
703 274
702 274
701 273
702 272
702 271
702 270
703 269
703 268
702 269
701 269
700 269
699 269
698 269
697 268
696 267
695 267
694 267
693 267
692 266
693 265
694 265
695 264
695 263
696 262
696 261
696 260
696 259
697 258
697 257
696 257
695 257
694 256
695 255
696 255
696 254
697 253
697 252
697 251
697 250
697 249
698 248
698 247
698 246
698 245
698 244
698 243
697 244
696 245
695 245
694 245
693 244
692 244
691 244
690 244
689 243
690 242
689 241
690 240
690 239
690 238
690 237
690 236
689 235
689 234
688 235
687 235
686 236
685 235
685 234
685 233
686 232
686 231
685 230
685 229
685 228
684 227
683 226
683 225
683 224
682 225
681 226
680 226
679 226
678 227
677 227
676 227
675 227
675 228
674 229
673 228
672 227
671 227
670 226
669 226
668 225
668 224
668 223
668 222
668 221
668 220
668 219
668 218
667 217
666 216
666 215
666 214
667 213
666 212
666 211
666 210
665 211
664 211
663 211
662 211
661 210
661 209
661 208
661 207
661 206
661 205
661 204
661 203
661 202
661 201
661 200
660 199
661 198
660 197
660 196
660 195
660 194
659 194
658 194
657 194
656 193
655 193
654 193
653 192
653 191
653 190
652 189
652 188
651 187
651 186
651 185
652 184
652 183
652 182
652 181
652 180
652 179
652 178
652 177
651 178
650 178
649 177
648 177
647 178
646 177
646 176
646 175
645 174
645 173
644 172
644 171
643 172
642 171
642 170
642 169
642 168
643 167
643 166
642 165
642 164
642 163
641 164
640 165
639 165
638 165
637 166
636 166
635 166
634 166
633 167
632 167
631 167
630 167
629 166
629 165
630 164
629 164
628 165
627 165
626 166
625 166
624 167
623 167
622 166
622 165
622 164
621 163
620 162
620 161
620 160
619 160
618 159
618 158
617 157
617 156
618 155
618 154
617 154
616 154
615 154
614 154
613 154
612 154
611 155
610 155
609 154
609 153
609 152
609 151
608 150
608 149
607 148
607 147
607 146
607 145
606 146
605 147
604 146
604 145
604 144
604 143
604 142
604 141
604 140
603 139
603 138
602 137
601 136
600 135
600 134
600 135
600 136
599 137
598 138
597 138
596 139
595 140
595 141
594 142
593 141
592 140
592 139
592 138
591 139
591 140
590 141
589 141
588 142
587 143
587 144
586 145
585 144
585 143
585 142
585 141
584 140
584 139
583 139
582 139
581 138
580 137
580 136
579 135
579 134
579 133
579 134
578 135
577 135
577 136
576 137
575 137
574 136
575 135
574 134
574 133
573 132
572 131
571 131
570 130
570 129
569 129
568 128
568 127
567 126
566 125
566 126
567 127
566 128
565 129
564 130
563 131
562 132
561 133
560 134
559 133
558 132
557 131
557 130
556 131
556 132
555 133
554 132
554 131
554 130
553 129
552 128
552 127
552 126
551 125
551 124
551 123
551 122
551 123
550 124
549 125
548 125
547 126
546 126
546 127
545 128
544 127
544 126
543 125
542 124
542 123
541 122
540 121
539 120
539 119
539 118
538 118
537 119
536 120
535 121
534 120
534 119
534 118
533 117
533 116
532 115
532 114
532 113
531 112
531 111
531 110
531 109
532 108
531 108
530 109
529 110
528 110
527 110
526 110
525 111
524 111
523 112
522 113
521 113
520 113
519 114
519 115
518 116
517 116
516 115
515 114
514 114
513 113
513 112
512 113
512 114
511 115
510 116
509 117
508 118
507 119
507 120
506 121
505 122
504 121
503 120
502 120
501 119
500 118
499 118
499 119
498 120
497 119
497 118
496 117
495 117
494 116
493 115
493 114
493 113
493 114
492 115
491 116
490 117
489 117
488 118
488 119
487 120
486 120
485 119
485 118
485 117
484 116
483 115
482 114
481 113
480 113
479 112
478 111
477 110
477 109
476 110
475 111
474 112
473 113
472 113
471 112
471 111
470 110
469 109
468 108
467 107
466 106
466 107
465 108
464 107
463 106
462 106
461 106
460 106
459 106
458 105
457 105
456 104
456 105
457 106
457 107
456 108
456 109
456 110
455 111
455 112
455 113
455 114
454 115
453 114
452 113
451 113
451 114
450 115
449 116
449 117
448 118
448 119
448 120
447 121
446 120
445 119
444 119
443 120
442 119
441 119
440 118
439 117
438 116
438 115
438 116
438 117
437 118
436 117
436 116
436 115
435 114
434 115
433 114
433 113
432 112
431 112
430 112
429 111
428 111
427 110
427 109
426 108
426 107
426 106
426 105
425 104
425 103
425 102
425 101
424 100
424 99
424 98
423 97
423 96
423 95
423 94
422 93
422 92
422 91
422 90
421 90
420 89
419 89
420 89
421 90
420 91
420 92
419 93
419 94
418 95
417 94
416 93
416 92
415 92
414 91
413 90
412 89
411 89
410 88
410 87
410 86
409 87
408 88
407 89
406 88
406 87
406 86
405 85
404 84
403 83
403 82
402 82
401 82
400 81
399 80
399 79
398 79
398 80
397 81
396 82
395 83
394 83
393 84
392 85
391 84
391 83
390 82
389 81
388 80
388 79
387 80
386 80
385 79
385 78
384 77
384 76
383 75
383 74
382 74
381 75
380 76
379 76
378 76
377 75
376 74
375 73
375 72
374 71
374 70
373 69
373 68
373 69
372 70
371 70
370 69
370 68
370 67
369 66
369 65
368 64
368 63
367 62
366 61
365 60
