174 31
173 32
173 33
173 34
173 35
173 36
173 37
173 38
173 39
173 40
173 41
173 42
173 43
174 44
174 45
174 46
174 47
174 48
174 49
174 50
174 51
175 52
175 53
175 54
175 55
175 56
175 57
175 58
175 59
175 60
175 61
175 62
175 63
175 64
175 65
175 66
175 67
174 68
174 69
174 70
174 71
174 72
174 73
174 74
174 75
174 76
174 77
174 78
174 79
174 80
174 81
174 82
173 83
173 84
173 85
172 86
172 87
171 88
170 89
169 89
168 90
167 90
166 90
165 90
164 90
163 90
162 90
161 90
160 89
159 89
158 89
157 88
156 88
155 87
154 86
154 87
155 88
155 89
156 90
157 91
158 92
159 93
160 94
161 95
162 95
163 96
164 97
164 98
165 99
166 100
167 101
167 102
168 103
168 104
169 105
169 106
170 107
171 108
172 109
172 110
173 111
173 112
174 113
174 114
175 115
176 116
176 117
177 118
178 119
179 120
180 121
180 122
181 123
182 124
183 125
183 126
184 127
185 128
186 128
187 129
188 130
189 131
189 132
190 133
191 134
192 135
193 136
193 137
194 138
195 139
196 140
197 141
198 142
198 143
199 144
200 145
200 146
201 147
201 148
202 149
202 150
203 151
203 152
204 153
204 154
203 155
202 156
201 156
200 156
199 156
198 155
197 155
196 154
195 154
194 154
193 153
192 153
191 153
190 152
189 152
188 152
187 151
186 151
185 150
184 150
183 150
182 149
181 149
180 149
179 148
178 148
177 148
176 147
175 147
174 147
173 147
172 146
171 146
170 146
169 145
168 145
167 144
166 144
165 143
164 143
163 142
162 142
161 142
160 141
159 141
158 140
157 140
156 139
155 139
154 138
153 138
152 137
151 136
150 136
149 136
148 135
147 134
146 133
145 134
145 135
145 136
145 137
145 138
144 139
144 140
144 141
144 142
144 143
144 144
143 145
142 146
141 147
140 147
139 147
138 147
137 147
136 146
135 146
134 146
133 146
132 146
131 145
130 145
129 145
128 145
127 144
126 144
125 144
124 143
123 143
122 143
121 143
120 142
119 142
118 141
117 141
116 140
115 140
114 140
113 139
112 139
111 138
110 138
109 138
108 137
107 137
106 136
105 136
104 135
103 134
102 134
101 133
100 132
99 132
98 131
97 130
96 129
95 129
94 128
93 127
92 126
91 125
90 124
90 125
90 126
90 127
90 128
90 129
91 130
91 131
91 132
91 133
91 134
92 135
92 136
92 137
92 138
92 139
92 140
92 141
92 142
92 143
92 144
92 145
92 146
92 147
91 148
91 149
91 150
91 151
91 152
91 153
90 154
90 155
90 156
89 157
88 158
87 159
86 159
85 159
84 160
83 160
82 160
81 160
80 160
79 161
78 161
77 161
76 161
75 161
74 161
73 162
72 162
71 162
70 163
69 163
68 163
67 164
66 164
65 164
64 164
63 164
62 164
61 164
60 164
59 164
58 163
57 163
56 163
55 162
54 162
55 163
56 164
56 165
57 166
57 167
58 168
58 169
58 170
58 171
58 172
58 173
58 174
57 175
57 176
56 177
55 178
54 179
53 179
52 180
51 180
50 181
49 181
48 182
47 182
46 182
45 182
44 182
43 182
42 182
41 182
40 182
39 183
38 183
37 182
36 182
35 182
34 182
33 181
32 181
33 182
33 183
34 184
35 185
36 186
37 186
38 187
39 187
40 188
41 188
42 189
43 190
44 191
45 191
46 192
47 192
48 193
49 194
50 195
51 196
52 196
53 197
54 198
55 199
56 200
56 201
57 202
58 203
58 204
59 205
59 206
59 207
59 208
59 209
59 210
59 211
59 212
59 213
58 214
57 215
56 216
55 217
54 217
53 218
52 218
51 219
50 219
51 219
52 219
53 219
54 219
55 219
56 219
57 220
58 220
59 220
60 220
61 220
62 220
63 221
64 221
65 221
66 222
67 222
68 222
69 222
70 223
71 223
72 224
73 224
74 225
75 225
76 225
77 226
78 226
79 226
80 227
81 227
82 228
83 228
84 229
85 230
86 230
87 231
88 231
89 232
90 232
91 233
92 233
93 234
94 235
94 236
94 237
94 238
94 239
94 240
93 241
93 242
93 243
93 244
92 245
92 246
91 247
91 248
91 249
90 250
90 251
89 252
89 253
88 254
88 255
87 256
87 257
86 258
85 259
85 260
84 261
83 262
82 263
81 264
80 265
79 265
78 266
77 266
78 266
79 266
80 266
81 267
82 266
83 266
84 266
85 266
86 266
87 266
88 265
89 265
90 265
91 265
92 265
93 265
94 265
95 265
96 265
97 265
98 265
99 265
100 265
101 265
102 264
103 264
104 264
105 264
106 264
107 264
108 264
109 263
110 263
111 263
112 263
113 263
114 263
115 263
116 263
117 264
118 264
119 264
120 264
121 264
122 264
123 264
124 264
125 265
126 265
127 264
128 264
129 264
130 264
131 264
132 263
133 263
134 263
135 263
136 262
137 262
138 262
139 262
140 262
141 263
142 263
143 263
144 263
145 263
146 263
147 264
148 264
149 265
150 265
151 266
152 266
153 267
154 268
154 269
155 270
155 271
155 272
154 273
153 273
152 272
151 272
150 272
149 271
148 271
147 271
146 270
145 270
144 270
143 270
142 270
141 270
140 270
139 270
138 270
137 270
136 271
135 271
134 271
133 272
132 272
131 272
130 273
129 273
128 274
127 274
126 275
125 275
124 276
123 277
122 278
121 278
120 279
119 279
118 280
117 280
116 280
115 280
114 281
113 281
112 281
111 282
110 282
109 283
108 283
107 283
106 284
105 284
104 284
103 285
102 285
101 285
100 285
99 286
98 286
97 287
96 287
95 287
94 288
93 288
92 288
93 288
94 288
95 289
96 289
97 289
98 290
99 291
100 291
101 292
101 293
102 294
102 295
102 296
103 297
103 298
103 299
103 300
103 301
103 302
102 303
102 304
101 305
100 306
99 307
98 308
97 309
96 310
95 311
94 312
94 313
93 314
93 315
92 316
91 317
90 318
90 319
89 320
88 321
87 322
86 323
85 324
84 325
83 326
82 327
81 327
80 328
79 329
78 329
77 330
76 330
75 331
74 331
73 332
72 332
71 333
70 333
69 334
68 334
67 334
66 334
65 335
64 335
65 335
66 336
67 336
68 336
69 336
70 336
71 336
72 336
73 337
74 337
75 337
76 336
77 336
78 336
79 336
80 336
81 337
82 337
83 337
84 337
85 336
86 336
87 337
88 337
89 337
90 337
91 337
92 338
93 338
94 338
95 338
96 339
97 339
98 339
99 339
100 339
101 340
102 340
103 340
104 341
105 341
106 341
107 342
108 342
109 342
110 342
111 343
112 344
113 345
113 346
114 347
114 348
114 349
114 350
114 351
114 352
113 353
113 354
113 355
112 356
112 357
112 358
112 359
112 360
112 361
113 360
114 359
115 358
116 357
117 356
118 356
119 355
120 355
121 354
122 354
123 353
124 353
125 353
126 352
127 352
128 352
129 352
130 352
131 352
132 352
133 351
134 351
135 351
136 351
137 351
138 351
139 351
140 351
141 351
142 351
143 351
144 351
145 350
146 350
147 350
148 350
149 350
150 350
151 350
152 351
152 352
153 353
153 354
153 355
154 356
154 357
154 358
154 359
154 360
155 361
155 362
155 363
155 364
155 365
155 366
155 367
155 368
155 369
155 370
154 371
154 372
154 373
154 374
153 375
153 376
152 377
152 378
152 379
152 380
152 381
153 380
153 379
154 378
155 377
156 376
157 376
157 375
158 374
159 374
160 373
161 372
162 371
163 371
164 370
165 369
166 369
167 368
168 368
169 368
170 367
171 367
172 366
173 366
174 365
175 364
176 364
177 363
178 363
179 362
180 362
181 361
182 361
183 360
184 360
185 360
186 359
187 359
188 359
189 358
190 358
191 357
192 357
193 357
194 356
195 356
196 356
197 355
198 354
199 354
200 353
201 352
202 352
203 351
204 351
205 350
206 349
207 348
208 348
209 347
210 347
211 346
212 346
213 345
214 345
215 344
216 343
217 343
218 342
219 342
220 341
221 340
222 339
223 338
224 337
225 336
226 335
227 335
228 335
229 334
230 334
231 335
231 336
232 337
233 338
233 339
233 340
234 341
234 342
235 343
235 344
236 345
236 346
236 347
236 348
236 349
236 350
236 351
235 352
235 353
235 354
235 355
235 356
235 357
235 358
236 359
236 360
236 361
236 362
236 363
237 364
237 365
237 366
238 367
238 368
239 369
239 370
240 371
240 372
241 373
241 374
241 375
242 376
242 377
242 378
243 379
243 380
243 381
243 382
244 383
244 384
244 385
244 386
244 387
244 388
244 389
244 390
244 391
243 392
243 393
243 394
242 395
242 396
241 397
241 398
241 399
241 400
240 401
240 402
240 403
241 404
241 405
241 406
242 407
242 406
242 405
242 404
243 403
243 402
244 401
245 400
246 399
247 398
248 397
248 396
249 395
250 394
250 393
251 392
252 391
252 390
253 389
254 388
255 387
255 386
256 385
257 384
258 383
259 383
260 382
261 381
262 381
263 380
264 379
265 379
266 378
267 378
268 377
269 377
270 377
271 377
272 377
273 378
274 378
274 377
275 376
276 375
276 374
277 373
277 372
278 371
278 370
279 369
280 368
281 367
281 366
282 365
282 364
283 363
283 362
284 361
285 360
286 359
287 358
288 358
289 358
290 358
291 359
292 360
293 361
294 362
295 363
296 363
297 364
298 365
299 366
300 367
301 367
302 368
303 368
304 369
305 370
306 370
307 371
308 371
309 372
310 372
311 373
312 373
313 374
314 375
315 376
316 376
317 377
318 377
319 378
320 379
320 378
319 377
319 376
318 375
318 374
317 373
317 372
316 371
316 370
315 369
315 368
314 367
314 366
314 365
314 364
313 363
313 362
313 361
313 360
313 359
313 358
313 357
313 356
312 355
312 354
312 353
311 352
311 351
310 350
310 349
309 348
309 347
310 346
310 345
310 344
311 343
311 342
311 341
311 340
311 339
311 338
311 337
311 336
311 335
311 334
311 333
311 332
311 331
311 330
312 329
311 328
311 327
311 326
311 325
311 324
312 323
312 322
312 321
313 320
314 319
315 318
316 317
317 316
318 315
319 316
320 316
321 316
322 317
323 318
324 318
325 318
326 318
327 319
327 320
328 320
329 321
330 322
330 323
331 324
332 325
333 326
334 326
335 327
336 328
337 329
338 330
339 330
340 331
341 331
342 332
343 332
344 333
345 333
346 334
347 334
348 334
349 335
350 335
351 336
352 336
353 337
354 338
355 338
356 338
357 339
358 339
359 340
360 341
361 341
362 342
363 342
364 343
365 344
366 344
367 345
367 346
367 345
367 344
366 343
366 342
366 341
365 340
365 339
364 338
364 337
363 336
363 335
362 334
362 333
361 332
361 331
360 330
360 329
360 328
360 327
359 326
359 325
359 324
359 323
359 322
358 321
358 320
357 319
357 318
356 317
356 316
356 315
355 314
355 313
354 312
353 311
353 310
353 309
352 308
352 307
352 306
352 305
352 304
352 303
352 302
351 301
351 300
351 299
351 298
351 297
351 296
350 295
350 294
349 293
349 292
348 291
348 290
348 289
348 288
347 287
347 286
347 285
347 284
347 283
346 282
346 281
346 280
345 279
345 278
345 277
344 276
344 275
343 274
343 273
342 272
341 271
341 270
341 269
341 268
341 267
341 266
341 265
341 264
341 263
340 262
340 261
340 260
340 259
340 258
339 257
339 256
339 255
338 254
338 253
338 252
338 251
338 250
338 249
337 248
337 247
337 246
337 245
337 244
337 243
337 242
337 241
337 240
336 239
336 238
336 237
336 236
336 235
335 234
335 233
334 232
334 231
334 230
333 229
333 228
332 227
332 226
332 225
331 224
330 223
330 222
331 221
332 221
333 221
334 220
335 220
336 220
337 220
338 219
339 219
340 219
341 219
342 219
343 219
344 218
345 218
346 218
347 218
348 218
349 218
350 217
351 217
352 217
353 217
354 217
355 217
356 216
357 216
358 216
359 216
360 216
361 216
362 216
363 216
364 215
365 215
366 215
367 215
368 215
369 215
370 215
371 214
372 214
373 214
374 214
375 214
376 214
377 214
378 214
379 214
380 213
381 213
382 213
383 213
384 213
385 213
386 213
387 213
388 213
389 213
390 213
391 212
392 212
393 212
394 212
395 212
396 212
397 212
398 212
399 212
400 212
401 212
402 212
403 212
404 212
405 212
406 212
407 212
408 212
409 212
410 212
411 212
412 212
413 211
414 211
415 211
416 211
417 211
418 211
419 211
420 211
421 211
422 211
423 211
424 211
425 211
426 211
427 211
428 211
429 211
430 211
431 211
432 211
433 210
434 210
435 210
436 210
437 210
438 210
439 210
440 210
441 210
442 210
443 210
444 210
445 210
446 210
447 210
448 210
449 210
450 210
451 210
452 210
453 210
454 210
455 210
456 210
457 210
458 210
459 210
460 210
461 210
462 210
463 210
464 210
465 210
466 210
467 210
468 210
469 210
470 210
471 210
472 210
473 210
474 210
475 210
476 210
477 210
478 210
479 210
480 210
481 210
482 210
483 210
484 210
485 210
486 210
487 210
488 210
489 210
490 210
491 210
492 210
493 210
494 210
495 210
496 210
497 210
498 211
499 211
500 211
501 211
502 211
503 211
504 211
505 211
506 211
507 211
508 211
509 211
510 211
511 211
512 211
513 211
514 211
515 211
516 211
517 211
518 211
519 211
520 211
521 211
522 211
523 211
524 211
525 211
526 211
527 211
528 211
529 211
530 211
531 211
532 211
533 211
534 211
535 211
536 212
537 212
538 212
539 212
540 212
541 212
542 212
543 212
544 212
545 212
546 212
547 212
548 212
549 212
550 212
551 212
552 212
553 212
554 212
555 212
556 212
557 212
558 212
559 212
560 212
561 212
562 212
563 212
564 212
565 212
566 213
567 213
568 213
569 213
570 213
571 213
572 213
573 213
574 213
575 213
576 213
577 213
578 213
579 213
580 213
581 213
582 213
583 213
584 213
585 213
586 213
587 213
588 213
589 213
590 213
591 213
592 213
593 214
594 214
595 214
596 214
597 214
598 214
599 214
600 214
601 214
602 214
603 214
604 214
605 214
606 214
607 214
608 214
609 214
610 214
611 215
612 215
613 215
614 215
615 215
616 215
617 215
618 215
619 215
620 215
621 215
622 215
623 215
624 215
625 215
626 215
627 216
628 216
629 216
630 216
631 216
632 216
633 216
634 216
635 216
636 216
637 216
638 216
639 216
640 216
641 216
642 216
643 216
644 216
645 216
646 216
647 216
648 216
649 217
650 217
651 217
652 217
653 217
654 217
655 217
656 217
657 217
658 217
659 217
660 217
661 217
662 217
663 217
664 217
665 218
666 218
667 218
668 218
669 218
670 218
671 218
672 218
673 218
674 218
675 218
676 218
677 218
678 218
679 218
680 218
681 219
682 219
683 219
684 219
685 219
686 219
687 219
688 219
689 219
690 219
691 219
692 220
693 220
694 220
695 220
696 220
697 220
698 220
699 220
700 220
701 220
702 221
703 221
704 221
705 221
706 221
707 221
708 221
709 221
710 221
711 222
712 222
713 222
714 222
715 222
716 222
717 222
718 222
719 222
720 222
721 223
722 223
723 223
724 223
725 223
726 223
727 223
728 224
729 224
730 224
731 224
732 224
733 224
734 224
735 224
736 224
737 225
738 225
739 225
740 225
741 225
742 225
743 225
744 225
745 226
746 226
747 226
748 226
749 226
750 226
751 226
752 226
753 227
754 227
755 227
756 227
757 227
758 227
759 227
760 227
761 227
762 227
763 227
764 227
765 227
766 227
767 227
768 227
769 227
770 226
771 227
772 226
773 226
774 226
774 225
773 224
773 223
774 222
774 221
774 220
774 219
773 218
774 217
773 217
772 217
771 218
770 218
769 218
768 219
767 219
766 219
765 219
764 220
763 220
762 220
761 220
760 221
759 221
758 221
757 221
756 221
755 221
754 221
753 221
752 221
751 221
750 221
749 221
748 221
747 221
746 221
745 221
744 221
743 221
742 221
741 221
740 221
739 220
738 220
737 220
736 220
735 220
734 220
733 220
732 220
731 220
730 219
729 219
728 219
727 219
726 219
725 219
724 219
723 219
722 219
721 219
720 218
719 218
718 218
717 218
716 218
715 218
714 218
713 218
712 218
711 218
710 217
709 217
708 217
707 217
706 217
705 217
704 217
703 217
702 217
701 217
700 216
699 216
698 216
697 216
696 216
695 216
694 216
693 216
692 216
691 216
690 216
689 216
688 215
687 215
686 215
685 215
684 215
683 215
682 215
681 215
680 215
679 215
678 215
677 215
676 215
675 214
674 214
673 214
672 214
671 214
670 214
669 214
668 214
667 214
666 214
665 214
664 214
663 214
662 214
661 214
660 214
659 214
658 214
657 213
656 213
655 213
654 213
653 213
652 213
651 213
650 213
649 213
648 213
647 213
646 213
645 213
644 213
643 213
642 213
641 213
640 213
639 213
638 213
637 213
636 213
635 213
634 213
633 213
632 212
631 212
630 212
629 212
628 212
627 212
626 212
625 212
624 212
623 212
622 212
621 212
620 212
619 212
618 212
617 212
616 212
615 211
614 211
613 211
612 211
611 211
610 211
609 211
608 211
607 211
606 211
605 211
604 211
603 211
602 211
601 211
600 211
599 211
598 211
597 211
596 211
595 211
594 210
593 210
592 210
591 210
590 210
589 210
588 210
587 210
586 210
585 210
584 210
583 210
582 210
581 210
580 210
579 210
578 210
577 210
576 210
575 210
574 210
573 210
572 210
571 210
570 210
569 210
568 209
567 209
566 209
565 209
564 209
563 209
562 209
561 209
560 209
559 209
558 209
557 209
556 209
555 209
554 209
553 209
552 209
551 209
550 209
549 209
548 209
547 209
546 209
545 209
544 209
543 209
542 209
541 209
540 209
539 209
538 209
537 209
536 208
535 208
534 208
533 208
532 208
531 208
530 208
529 208
528 208
527 208
526 208
525 208
524 208
523 208
522 208
521 208
520 208
519 208
518 208
517 208
516 208
515 208
514 208
513 208
512 208
511 208
510 208
509 208
508 208
507 208
506 208
505 208
504 208
503 208
502 208
501 208
500 208
499 208
498 208
497 208
496 207
495 207
494 207
493 207
492 207
491 207
490 207
489 207
488 207
487 207
486 207
485 207
484 207
483 207
482 207
481 207
480 207
479 207
478 207
477 207
476 207
475 207
474 207
473 207
472 207
471 207
470 207
469 207
468 207
467 207
466 207
465 207
464 207
463 207
462 207
461 207
460 207
459 207
458 207
457 207
456 207
455 207
454 207
453 207
452 207
451 207
450 207
449 207
448 207
447 207
446 207
445 207
444 207
443 207
442 207
441 207
440 207
439 207
438 207
437 207
436 207
435 207
434 207
433 207
432 208
431 208
430 208
429 208
428 208
427 208
426 208
425 208
424 208
423 208
422 208
421 208
420 208
419 208
418 208
417 208
416 208
415 208
414 208
413 208
412 209
411 209
410 209
409 209
408 209
407 209
406 209
405 209
404 209
403 209
402 209
401 209
400 209
399 209
398 209
397 209
396 209
395 209
394 209
393 210
392 210
391 210
390 210
389 210
388 210
387 210
386 210
385 210
384 210
383 210
382 210
381 210
380 210
379 210
378 210
377 211
376 211
375 211
374 211
373 211
372 211
371 211
370 211
369 212
368 212
367 212
366 212
365 212
364 212
363 212
362 213
361 213
360 213
359 213
358 213
357 213
356 213
355 213
354 213
353 213
352 214
351 214
350 214
349 214
348 214
347 214
346 214
345 215
344 215
343 215
342 215
341 215
340 215
339 216
338 216
337 216
336 216
335 216
334 216
333 216
332 215
333 214
334 213
335 212
336 211
337 210
338 210
339 209
340 208
341 207
342 206
343 205
344 204
344 203
345 202
345 201
346 200
347 199
347 198
347 197
348 196
349 195
349 194
350 193
351 192
351 191
352 190
352 189
353 188
354 187
354 186
355 185
356 184
356 183
357 182
358 181
358 180
359 179
360 178
360 177
361 176
361 175
362 174
362 173
362 172
363 171
364 170
364 169
365 168
365 167
365 166
366 165
366 164
366 163
367 162
367 161
367 160
367 159
367 158
368 157
368 156
368 155
368 154
368 153
369 152
369 151
369 150
370 149
370 148
370 147
370 146
370 145
371 144
371 143
371 142
371 141
371 140
371 139
371 138
371 137
371 136
371 135
371 134
371 133
372 132
372 131
372 130
372 129
372 128
372 127
372 126
372 125
372 124
372 123
372 122
371 122
371 123
370 124
370 125
369 126
369 127
369 128
368 129
367 130
367 131
366 132
365 133
365 134
364 135
363 136
362 137
361 138
360 139
359 139
358 140
357 141
356 141
355 142
354 142
353 143
352 143
351 143
350 144
349 144
348 145
347 145
346 145
345 146
344 146
343 146
342 147
341 147
340 148
339 148
338 147
338 146
338 145
338 144
338 143
339 142
339 141
339 140
339 139
339 138
339 137
339 136
339 135
339 134
340 133
340 132
340 131
340 130
340 129
340 128
340 127
341 126
341 125
341 124
341 123
341 122
341 121
341 120
341 119
341 118
340 117
340 116
340 115
340 114
340 113
340 112
340 111
340 110
339 109
339 108
339 107
339 106
339 105
339 104
339 103
338 102
338 101
338 100
338 99
338 98
338 97
338 96
338 95
338 94
337 95
337 96
336 97
336 98
335 99
335 100
334 101
334 102
333 103
332 104
331 105
330 106
329 107
328 108
327 108
326 108
325 107
324 106
323 105
323 104
322 103
322 102
322 101
321 100
321 99
320 98
319 97
318 96
317 95
316 94
315 93
314 92
314 91
314 90
313 89
313 88
312 87
312 86
311 85
311 84
311 83
311 82
310 81
310 80
310 79
309 78
309 77
309 76
309 75
309 74
309 73
309 72
309 71
309 70
309 69
309 68
309 67
309 66
309 65
309 64
309 63
309 62
309 61
309 62
308 63
308 64
307 65
306 66
306 67
306 68
305 69
305 70
304 71
304 72
304 73
303 74
303 75
302 76
302 77
301 78
300 79
300 80
299 81
299 82
298 83
297 84
297 85
296 86
296 87
295 88
295 89
294 90
293 91
292 92
292 93
291 94
290 95
289 96
289 97
288 98
287 99
287 100
286 101
285 102
284 103
283 104
282 105
282 106
281 107
280 108
280 109
279 110
279 111
278 112
277 111
276 110
275 109
274 108
273 107
273 106
273 105
272 104
271 103
271 102
271 101
270 100
270 99
269 98
268 97
268 96
267 95
266 94
266 93
266 92
266 91
266 90
266 89
265 88
265 87
265 86
265 85
265 84
264 83
264 82
264 81
264 80
263 79
263 78
263 77
262 76
262 75
261 74
260 74
259 74
258 73
257 72
257 71
256 70
256 69
255 68
255 67
254 66
254 65
253 64
253 63
253 62
252 61
252 60
251 59
251 58
251 57
250 56
250 55
250 54
250 53
250 52
250 51
250 50
250 49
250 48
250 47
250 46
250 45
250 44
250 43
249 44
249 45
249 46
248 47
248 48
247 49
247 50
246 51
246 52
245 53
245 54
244 55
243 56
242 57
241 58
240 59
239 60
238 61
237 62
237 63
236 64
235 65
234 65
233 66
232 67
231 67
230 66
229 66
228 66
227 65
226 65
225 65
224 65
223 64
222 64
221 63
220 62
219 62
218 61
217 60
216 60
215 59
214 58
213 57
212 56
211 55
210 54
209 53
208 52
207 51
206 50
206 49
205 48
205 47
205 46
204 47
204 48
204 49
204 50
204 51
203 52
202 53
201 54
200 54
199 54
198 53
197 53
196 53
195 52
194 52
193 51
192 51
191 51
190 50
189 50
188 49
187 48
186 48
185 47
184 46
183 45
182 44
181 43
180 42
179 41
178 40
177 39
177 38
176 37
176 36
175 35
175 34
174 33
174 32
174 31
