55 220
55 221
55 222
55 223
55 224
55 225
55 226
55 227
55 228
55 229
56 230
57 231
58 232
59 233
60 233
61 234
62 234
63 234
64 234
65 234
66 234
67 234
68 235
69 235
70 235
71 235
72 236
73 236
74 237
75 238
76 239
76 240
75 241
74 242
73 243
72 243
72 244
72 245
72 246
72 247
72 248
72 249
72 250
72 251
73 252
74 253
75 254
75 255
76 256
77 257
77 258
78 259
79 260
80 261
81 262
81 263
82 264
83 265
84 266
84 267
85 268
86 269
86 270
87 271
87 272
88 273
88 274
89 275
89 276
90 277
91 278
91 279
92 280
92 281
93 282
93 283
94 284
95 285
96 286
96 287
97 288
98 289
98 290
99 291
100 292
101 293
102 294
103 295
104 296
105 297
106 298
107 299
108 300
108 301
109 302
110 303
111 304
112 305
113 306
114 307
115 308
116 309
117 310
118 311
119 312
120 313
121 314
122 315
123 316
124 317
124 318
125 319
126 320
127 321
128 322
129 323
130 324
131 325
132 326
133 327
134 328
135 329
136 330
137 331
138 332
139 333
140 334
141 334
142 335
143 336
144 337
145 338
146 338
147 339
148 340
149 340
150 341
151 341
152 342
153 343
154 343
155 344
156 344
157 345
158 345
159 346
160 346
161 347
162 347
163 348
164 348
165 349
166 350
167 351
168 351
169 351
170 351
171 351
172 351
173 351
174 351
175 351
176 351
177 351
178 351
178 350
179 349
179 348
180 347
180 346
180 345
181 344
181 343
182 342
183 341
184 340
185 340
186 341
187 341
188 342
189 342
190 342
191 342
192 342
193 342
194 341
195 340
196 340
197 340
198 340
199 341
200 341
201 342
201 343
202 344
203 345
204 345
205 346
205 347
206 348
206 349
207 350
207 351
208 352
209 352
210 352
211 353
212 353
213 354
214 355
215 356
214 357
214 358
213 359
213 360
212 361
212 362
212 363
212 364
212 365
212 366
213 366
214 367
215 367
216 368
216 369
217 370
217 371
217 372
217 373
217 374
217 375
217 376
217 377
217 378
217 379
217 380
218 380
219 381
220 382
221 382
222 383
223 383
224 384
225 384
226 385
227 385
228 386
229 387
230 388
231 388
232 389
233 389
234 390
235 390
236 391
237 391
238 392
239 392
240 393
241 394
242 394
243 394
244 395
245 395
246 395
247 396
248 396
249 397
250 397
251 398
252 398
253 398
254 399
255 399
256 399
257 399
258 400
259 400
260 400
261 401
262 401
263 401
264 401
265 402
266 402
267 402
268 403
269 403
270 403
271 404
272 404
273 404
274 405
275 405
276 405
277 405
278 406
279 406
280 406
281 407
282 407
283 407
284 407
285 407
286 407
287 407
288 408
289 408
290 408
291 408
292 408
293 409
294 409
295 409
296 409
297 409
298 409
299 409
300 409
301 409
302 409
303 409
304 409
305 409
306 409
307 409
308 409
309 409
310 409
311 409
312 409
313 409
314 409
315 409
316 409
317 409
318 409
319 409
320 409
321 409
322 409
323 409
324 409
325 409
326 409
327 409
328 409
329 409
330 408
331 408
332 408
333 408
334 408
335 408
336 408
337 407
338 407
339 407
340 407
341 407
342 406
343 406
344 406
345 406
346 406
347 405
348 405
349 405
350 405
351 405
352 404
353 404
354 404
355 404
356 404
357 404
358 404
359 403
360 403
361 403
362 403
363 403
364 403
365 403
366 403
367 402
368 402
369 402
370 402
371 402
372 402
373 402
374 402
375 402
376 402
377 402
378 402
379 402
380 402
381 402
382 402
383 402
384 401
385 401
386 401
387 401
388 401
389 401
390 401
391 401
392 401
393 401
394 401
395 401
396 401
397 401
398 401
399 401
400 401
401 401
402 401
403 401
404 401
405 401
406 401
407 402
408 402
409 402
410 402
411 402
412 402
413 402
414 402
415 402
416 403
417 403
418 403
419 403
420 403
421 403
422 403
423 403
424 404
425 404
426 404
427 404
428 404
429 404
430 405
431 405
432 405
433 405
434 405
435 405
436 405
437 405
438 405
439 405
440 405
441 405
442 405
443 405
444 405
445 405
446 405
447 405
448 405
449 405
450 405
451 405
452 405
453 405
454 405
455 405
456 405
457 405
458 405
459 405
460 405
461 405
462 405
463 405
464 405
465 405
466 405
467 405
468 404
469 404
470 404
471 404
472 404
473 404
474 404
475 403
476 403
477 403
478 403
479 403
480 403
481 402
482 402
483 402
484 402
485 402
486 401
487 401
488 401
489 401
490 400
491 400
492 400
493 399
494 399
495 399
496 399
497 398
498 398
499 398
500 397
501 397
502 396
503 396
504 396
505 395
506 395
507 395
508 394
509 394
510 393
511 393
512 393
513 392
514 392
515 392
516 391
517 391
518 390
519 390
520 389
521 389
522 389
523 388
524 388
525 388
526 387
527 387
528 386
529 386
530 386
531 385
532 385
533 384
534 384
535 383
536 383
537 383
538 382
539 382
540 381
541 381
542 380
543 380
544 380
545 379
546 379
547 378
548 378
549 378
550 377
551 377
552 376
553 376
554 375
555 375
556 374
557 374
558 373
559 373
560 372
561 372
562 371
563 371
564 370
565 370
566 369
567 369
568 368
569 368
570 367
571 367
572 366
573 366
574 365
575 365
576 364
577 364
578 363
579 363
580 362
581 362
582 361
583 361
584 360
585 360
586 359
587 358
588 358
589 357
590 356
591 356
592 355
593 355
594 354
595 354
596 353
597 352
598 352
599 351
600 351
601 350
602 349
603 349
604 348
605 347
606 346
607 346
608 345
609 344
610 344
611 343
612 342
613 342
614 341
615 340
616 339
617 339
618 338
619 337
620 336
621 336
622 335
623 334
624 333
625 332
626 332
627 331
628 330
629 330
630 329
631 328
632 327
633 326
634 326
635 325
636 324
637 323
638 323
639 322
640 321
641 320
642 320
643 319
644 318
645 318
646 317
647 316
648 315
649 315
650 314
651 313
652 313
653 312
654 311
655 311
656 310
657 309
658 309
659 308
660 308
661 307
662 306
663 306
664 305
665 305
666 304
667 304
668 303
669 303
670 302
671 302
672 301
673 301
674 300
675 300
676 299
677 299
678 299
679 298
680 298
681 298
682 297
683 297
684 296
685 296
686 296
687 295
688 295
689 294
690 294
691 294
692 294
693 293
694 293
695 293
696 293
697 292
698 292
699 292
700 292
701 292
702 292
703 291
704 291
705 291
706 291
707 291
708 291
709 291
710 290
711 290
712 290
713 290
714 291
715 291
716 291
717 291
718 291
719 291
720 291
721 291
722 291
723 291
724 292
725 292
726 292
727 292
728 292
729 292
730 292
731 293
732 293
733 293
734 293
735 293
736 293
737 293
738 293
739 293
740 293
741 293
742 293
743 293
744 293
745 293
746 293
747 293
748 293
749 293
750 293
751 293
752 293
753 293
754 293
755 293
756 293
757 293
758 293
759 293
760 293
761 293
762 293
763 293
764 293
765 293
765 292
765 291
765 290
765 289
766 288
766 287
767 286
767 285
767 284
767 283
767 282
767 281
767 280
767 279
767 278
767 277
767 276
767 275
767 274
766 274
765 274
764 274
763 274
762 274
761 274
760 274
759 274
758 274
757 274
756 274
755 274
754 275
753 275
752 275
751 275
750 275
749 275
748 275
747 275
746 275
745 276
744 276
743 276
742 276
741 276
740 276
739 277
738 277
737 277
736 277
735 277
734 277
733 277
732 277
731 277
730 277
729 277
728 277
727 278
726 278
725 278
724 278
723 278
722 278
721 278
720 277
719 277
718 277
717 277
716 277
715 277
714 277
713 277
712 277
711 277
710 277
709 277
708 277
707 277
706 277
705 276
704 276
703 275
702 275
701 274
700 274
699 273
698 273
697 272
696 272
695 271
695 270
694 269
694 268
693 267
692 266
691 265
690 265
689 264
688 263
687 262
686 261
685 260
684 259
683 258
682 257
681 256
680 255
679 254
678 254
677 253
676 252
675 251
674 250
673 249
672 248
671 247
670 246
669 245
668 244
667 243
666 243
665 242
664 241
663 240
662 239
661 238
660 237
659 236
658 236
657 235
656 234
655 233
654 232
653 231
652 230
651 229
650 229
649 228
648 227
647 226
646 225
645 224
644 224
643 223
642 222
641 221
640 221
639 220
638 219
637 218
636 218
635 217
634 216
633 215
632 215
631 214
630 214
629 213
628 212
627 212
626 211
625 210
624 210
623 209
622 208
621 208
620 207
619 206
618 206
617 205
616 205
615 204
614 203
613 203
612 202
611 201
610 201
609 200
608 200
607 199
606 198
605 198
604 197
603 196
602 195
601 195
600 194
599 194
598 193
597 193
596 192
595 191
594 191
593 190
592 190
591 189
590 189
589 189
588 188
587 188
586 187
585 187
584 187
583 186
582 186
581 186
580 185
579 185
578 184
577 184
576 184
575 183
574 183
573 183
572 182
571 182
570 182
569 181
568 181
567 180
566 180
565 180
564 180
563 179
562 179
561 179
560 178
559 178
558 178
557 177
556 177
555 177
554 176
553 176
552 176
551 176
550 175
549 175
548 174
547 174
546 174
545 174
544 174
543 173
542 173
541 173
540 173
539 172
538 172
537 172
536 172
535 171
534 171
533 171
532 171
531 170
530 170
529 170
528 170
527 169
526 169
525 169
524 169
523 169
522 168
521 168
520 168
519 168
518 168
517 167
516 167
515 167
514 167
513 166
512 166
511 166
510 166
509 166
508 166
507 165
506 165
505 165
504 165
503 165
502 165
501 164
500 164
499 164
498 164
497 164
496 163
495 163
494 163
493 163
492 163
491 163
490 163
489 162
488 162
487 162
486 162
485 162
484 162
483 162
482 162
481 162
480 162
479 162
478 162
477 162
476 162
475 162
474 161
473 161
472 161
471 161
470 161
469 161
468 161
467 161
466 161
465 161
464 161
463 161
462 161
461 161
460 161
459 161
458 161
457 161
456 161
455 161
454 161
453 160
452 160
451 160
450 160
449 160
448 160
447 160
446 160
445 160
444 160
443 160
442 160
441 160
440 160
439 160
438 160
437 160
436 159
435 159
434 159
433 159
432 159
431 159
430 159
429 159
428 159
427 159
426 159
425 159
424 158
423 158
422 158
421 158
420 158
419 158
418 158
417 158
416 158
415 158
414 158
413 158
412 158
411 158
410 158
409 158
408 158
407 158
406 158
405 158
404 158
403 158
402 157
401 157
400 157
399 157
398 157
397 157
396 157
395 157
394 157
393 157
392 157
391 157
390 157
389 156
388 156
387 156
386 155
385 155
384 155
383 155
382 155
381 154
380 154
379 154
378 154
377 153
376 153
375 153
374 152
373 152
372 152
371 152
370 152
369 152
368 151
367 151
366 151
365 150
364 150
363 150
362 150
361 150
360 150
359 149
358 149
357 149
356 149
355 149
354 149
353 149
352 149
351 149
350 148
349 148
348 148
347 148
346 148
345 148
344 148
343 148
342 148
341 148
340 148
339 148
338 148
337 148
336 148
335 148
334 148
333 148
332 148
331 148
330 148
329 148
328 148
327 148
326 148
325 148
324 148
323 148
322 148
321 148
320 148
319 148
318 148
317 148
316 148
315 148
314 148
313 149
312 149
311 149
310 149
309 149
308 149
307 149
306 150
305 150
304 150
303 150
302 150
301 150
300 151
299 151
298 151
297 151
296 151
295 151
294 152
293 152
292 152
291 152
290 153
289 153
288 153
287 153
286 154
285 154
284 154
283 154
282 155
281 155
280 155
279 156
278 156
277 156
276 156
275 156
274 157
273 157
272 157
271 157
270 157
269 158
268 158
267 158
266 158
265 159
264 159
263 159
262 159
261 160
260 160
259 160
258 160
257 161
256 161
255 161
254 161
253 162
252 162
251 162
250 162
249 163
248 163
247 163
246 163
245 164
244 164
243 164
242 164
241 165
240 165
239 166
238 166
237 166
236 166
235 167
234 167
233 168
232 168
231 168
230 169
229 169
228 170
227 170
226 171
225 171
224 172
223 173
222 173
221 174
220 174
219 175
218 175
217 176
216 177
215 177
214 178
213 178
212 179
211 179
210 180
209 181
208 182
207 182
206 183
205 183
204 184
203 184
202 185
201 186
200 187
199 188
198 188
197 189
196 189
195 190
194 191
193 191
192 192
191 193
190 193
189 194
188 194
187 195
186 196
185 196
184 197
183 197
182 198
181 198
180 199
179 199
178 200
177 201
176 201
175 202
174 202
173 203
172 203
171 204
170 204
169 204
168 204
167 204
166 204
165 205
164 205
163 206
162 206
161 207
160 207
159 207
158 208
157 208
156 208
155 208
154 208
153 208
152 209
151 209
150 209
149 209
148 209
147 209
146 209
145 209
144 210
143 210
142 210
141 210
140 210
139 210
138 210
137 210
136 210
135 210
134 210
133 210
132 211
131 211
130 211
129 211
128 211
127 211
126 211
125 212
124 212
123 212
122 212
121 212
120 212
119 212
118 212
117 212
116 212
115 213
114 213
113 213
112 213
111 214
110 214
109 215
108 215
107 215
106 216
105 216
104 217
103 217
102 217
101 216
100 216
99 216
98 216
97 216
96 216
96 217
95 218
95 219
94 220
94 221
93 222
92 223
91 223
90 224
89 224
88 225
87 225
86 225
85 225
84 224
83 224
82 224
81 224
80 224
79 225
79 226
78 227
77 228
76 229
75 230
74 230
73 231
72 231
71 232
70 232
69 231
68 231
67 230
67 229
66 228
65 227
64 227
63 226
63 225
62 224
61 223
60 222
59 221
58 220
57 220
56 220
55 220
