365 22
364 23
363 24
363 25
363 26
363 27
363 28
363 29
363 30
363 31
363 32
364 33
364 34
364 35
364 36
364 37
364 38
364 39
364 40
365 41
365 42
365 43
366 44
366 45
366 46
366 47
367 48
367 49
367 50
368 51
368 52
367 53
366 52
365 51
364 50
363 50
362 49
361 48
360 47
359 47
358 46
357 46
356 45
355 45
354 44
353 44
352 43
351 43
350 42
349 42
348 42
347 41
346 41
345 41
344 41
343 41
342 41
342 42
342 43
342 44
343 45
343 46
344 47
344 48
345 49
346 50
347 51
348 52
349 53
349 54
350 55
351 56
352 57
353 58
354 58
355 59
356 60
357 60
358 61
358 62
358 63
358 64
358 65
358 66
359 67
359 68
360 69
361 70
361 71
362 72
363 73
364 74
365 75
366 75
367 76
368 77
367 78
366 78
365 79
364 80
364 81
365 82
365 83
366 84
367 85
368 85
369 86
370 87
371 87
372 88
373 88
374 89
375 89
376 90
377 91
376 92
375 93
375 94
375 95
376 96
377 97
378 98
379 99
380 100
381 100
382 101
383 102
384 102
385 103
386 104
385 105
385 106
386 107
386 108
387 109
387 110
388 111
389 112
390 113
391 114
392 114
393 115
394 116
395 116
396 117
397 117
398 118
398 119
397 120
396 120
395 121
394 121
394 122
394 123
394 124
395 125
396 126
397 127
398 128
399 128
400 129
401 130
402 130
403 131
404 131
405 132
406 132
407 133
408 134
408 135
409 136
410 137
411 138
412 139
413 140
414 141
415 142
416 142
417 143
418 144
419 144
420 145
421 145
422 146
421 147
420 148
419 148
418 149
417 149
417 150
417 151
417 152
417 153
418 154
419 155
420 156
421 157
422 157
423 158
424 159
425 159
426 160
427 160
428 160
429 161
430 162
430 163
430 164
430 165
430 166
430 167
431 168
432 168
433 169
434 170
435 171
436 172
437 172
438 173
439 174
440 174
441 175
442 175
443 176
442 177
441 178
441 179
440 180
440 181
440 182
440 183
441 184
442 185
443 186
444 187
445 188
446 188
447 189
448 189
449 190
450 191
451 191
452 191
453 192
454 192
455 193
456 193
457 194
458 195
457 196
456 197
455 198
455 199
454 200
455 201
455 202
456 203
457 204
458 205
459 205
460 206
461 206
462 207
463 208
464 208
465 209
466 209
467 209
468 210
469 210
470 210
471 211
472 212
472 213
472 214
472 215
471 216
472 217
472 218
472 219
473 220
474 221
475 222
476 223
477 223
478 224
479 224
480 224
481 225
482 225
483 226
484 226
485 226
486 226
487 226
488 226
489 227
490 227
491 227
492 227
493 226
494 226
495 226
496 226
497 225
498 225
499 225
500 226
500 227
501 228
502 229
502 230
503 231
503 232
503 233
504 234
504 235
503 236
502 236
501 236
500 236
499 236
498 236
497 236
496 236
495 236
494 236
493 236
492 236
491 236
490 236
489 236
488 236
487 236
486 236
485 236
484 236
483 236
482 235
481 235
480 235
479 235
478 235
477 235
476 235
475 235
474 235
473 235
472 235
471 235
470 235
469 235
468 235
467 235
466 235
465 235
464 234
463 234
462 234
461 234
460 234
459 234
458 234
457 234
456 233
455 232
454 231
453 230
452 229
452 228
453 227
454 226
455 225
456 224
456 223
456 222
457 221
457 220
457 219
458 218
458 217
458 216
458 215
458 214
458 213
458 212
458 211
457 210
457 209
456 208
456 207
455 206
454 206
453 206
452 206
451 206
450 207
449 208
448 209
448 210
448 211
447 212
446 211
446 210
446 209
446 208
446 207
446 206
446 205
446 204
446 203
445 202
445 201
445 200
445 199
444 198
444 197
444 196
443 195
443 194
442 193
441 192
441 191
440 190
439 190
438 189
437 188
436 187
436 186
436 185
436 184
436 183
436 182
435 181
435 180
435 179
434 178
434 177
433 176
433 175
432 174
431 173
430 173
429 172
428 172
427 173
426 173
426 174
425 175
425 176
425 177
424 178
423 178
422 177
423 176
422 175
422 174
422 173
422 172
422 171
421 170
421 169
421 168
421 167
420 166
420 165
420 164
419 163
419 162
418 161
417 160
417 159
416 158
415 157
415 156
414 155
413 155
412 154
411 154
410 154
409 155
408 154
408 153
408 152
407 151
407 150
406 149
406 148
405 147
405 146
404 145
403 144
402 143
401 142
400 142
399 141
398 141
397 141
396 142
395 141
394 140
394 139
394 138
393 137
393 136
392 135
392 134
391 133
391 132
390 131
390 130
389 129
388 128
387 127
386 127
385 126
384 126
383 127
382 128
382 129
381 130
380 129
380 128
379 127
379 126
379 125
378 124
378 123
377 122
376 121
375 120
375 119
374 118
373 117
372 116
371 115
370 115
369 115
368 115
367 114
366 113
366 112
365 111
365 110
364 109
364 108
363 107
362 106
362 105
361 104
360 103
359 102
358 102
357 101
356 101
355 101
354 101
353 102
352 101
351 100
350 99
350 98
349 97
348 96
348 95
347 94
346 93
345 93
344 92
343 91
342 91
341 90
340 89
340 88
339 87
339 86
338 85
337 84
337 83
336 82
336 81
335 80
334 79
333 79
332 79
331 79
330 80
329 79
328 78
327 77
327 76
326 75
326 74
325 73
324 72
324 71
323 70
322 69
321 68
320 67
319 67
318 66
317 66
316 66
315 66
314 65
313 64
313 63
312 62
312 61
311 60
311 59
310 58
310 57
309 56
308 55
307 55
306 54
305 54
304 53
304 52
303 51
303 50
302 49
302 48
301 47
301 46
300 45
300 44
299 43
298 42
298 41
297 40
296 39
295 38
294 37
293 36
292 36
291 36
290 36
289 37
289 38
289 39
289 40
289 41
289 42
289 43
289 44
290 45
290 46
290 47
290 48
290 49
290 50
290 51
291 52
291 53
291 54
290 55
289 55
288 54
287 53
286 52
285 52
284 51
283 50
282 49
281 49
280 48
279 48
278 47
277 46
276 46
275 45
274 45
273 45
272 45
272 46
271 47
271 48
272 49
272 50
272 51
273 52
274 53
274 54
275 55
275 56
276 57
277 58
278 59
279 60
280 61
281 62
282 62
283 63
284 64
285 64
286 64
287 64
288 63
289 63
290 64
291 65
291 66
292 67
291 68
290 68
289 67
288 67
287 67
286 67
285 67
284 66
283 66
282 66
281 66
280 66
279 66
278 66
277 66
276 67
276 68
276 69
277 70
277 71
278 72
279 73
280 73
281 74
281 75
282 75
283 76
284 76
285 77
286 78
287 78
288 78
289 79
289 80
288 81
287 82
287 83
288 84
289 85
290 86
290 87
291 87
292 88
293 89
294 89
295 90
296 90
297 91
298 91
299 91
300 92
301 92
302 93
303 94
303 95
303 96
304 97
305 98
306 99
307 99
308 100
309 100
310 101
311 101
312 102
313 102
314 102
315 103
315 104
314 105
313 105
313 106
312 107
313 108
313 109
314 110
315 111
316 111
317 112
318 112
319 113
320 113
321 113
322 114
323 114
324 114
325 115
326 115
327 116
327 117
327 118
328 119
329 120
330 121
331 122
332 123
333 123
334 124
335 125
336 125
337 126
338 127
338 128
337 129
336 129
336 130
336 131
336 132
337 133
338 134
339 135
340 136
341 136
342 137
343 137
344 138
345 138
346 138
347 139
348 140
349 141
349 142
349 143
350 144
351 144
352 145
353 146
354 147
355 147
356 148
357 149
358 149
359 149
360 150
361 150
362 151
363 152
362 153
361 153
360 154
359 155
359 156
359 157
359 158
360 159
361 160
362 161
363 162
364 162
365 163
366 163
367 164
368 164
369 165
370 166
370 167
370 168
370 169
371 170
371 171
372 172
373 173
374 174
375 175
376 175
377 176
378 176
379 177
380 177
381 177
382 178
383 178
384 179
385 179
386 179
387 180
387 181
386 182
385 183
385 184
384 185
385 186
385 187
385 188
386 189
387 189
388 190
389 191
390 191
391 192
392 192
393 193
394 193
395 194
396 194
397 194
398 195
398 196
398 197
398 198
399 199
399 200
400 201
400 202
401 203
402 204
403 204
404 205
405 206
406 206
407 207
408 207
409 207
410 208
411 208
412 208
413 209
414 209
415 209
416 209
417 210
418 210
419 210
420 210
421 210
422 211
421 212
420 212
419 212
418 212
417 212
416 213
415 214
415 215
415 216
415 217
415 218
416 219
417 220
418 221
419 221
420 222
421 222
422 223
423 223
424 224
425 224
426 224
427 224
428 225
429 225
430 225
431 225
432 225
433 225
434 225
435 225
436 225
437 224
438 224
439 224
440 223
441 223
442 222
443 221
444 222
445 223
446 224
447 225
447 226
447 227
448 228
448 229
449 230
449 231
449 232
449 233
448 234
447 234
446 234
445 234
444 234
443 234
442 234
441 234
440 234
439 233
438 233
437 233
436 233
435 233
434 233
433 233
432 233
431 233
430 233
429 233
428 233
427 232
426 232
425 232
424 232
423 232
422 232
421 232
420 232
419 232
418 232
417 232
416 232
415 232
414 232
413 232
412 232
411 231
410 231
409 231
408 231
407 231
406 231
405 231
404 230
403 230
402 230
401 229
400 228
399 227
398 226
397 225
398 224
398 223
399 222
399 221
399 220
399 219
399 218
398 217
398 216
398 215
398 214
397 213
397 212
396 211
396 210
395 209
394 208
393 208
392 207
391 207
390 207
389 206
389 205
389 204
389 203
389 202
388 201
388 200
388 199
387 198
387 197
386 196
385 195
384 194
383 194
382 193
381 193
380 193
379 194
378 194
378 195
377 196
377 197
377 198
377 199
377 200
377 201
377 202
377 203
377 204
377 205
377 206
377 207
378 208
378 209
377 210
376 209
375 208
374 208
373 207
373 206
372 205
373 204
374 203
374 202
374 201
374 200
374 199
374 198
374 197
374 196
374 195
374 194
374 193
374 192
373 191
373 190
373 189
372 188
372 187
372 186
371 185
371 184
370 183
369 182
369 181
368 180
367 179
366 178
365 177
364 177
363 177
362 177
361 177
360 177
359 178
358 178
357 177
357 176
357 175
356 174
356 173
356 172
355 171
355 170
354 169
353 168
353 167
352 166
351 165
350 164
349 163
348 163
347 162
346 162
345 162
344 163
343 164
342 163
341 162
341 161
340 160
340 159
339 158
339 157
338 156
337 155
337 154
336 153
335 152
334 152
333 151
332 151
331 151
330 151
329 152
329 153
328 154
328 155
327 156
326 155
326 154
326 153
325 152
325 151
324 150
324 149
323 148
322 147
322 146
321 145
320 144
319 143
318 142
317 141
316 141
315 140
314 140
313 140
312 140
311 140
310 140
309 139
309 138
308 137
307 136
307 135
306 134
305 133
305 132
304 131
303 130
302 130
301 129
300 129
299 129
298 129
297 130
297 131
296 132
295 131
295 130
294 129
293 128
293 127
292 126
291 125
290 124
289 123
289 122
288 122
287 121
286 120
285 120
284 119
283 119
282 119
282 120
281 121
280 121
279 120
279 119
278 118
277 117
277 116
276 115
275 114
274 113
273 112
272 112
271 111
270 111
269 111
269 112
268 113
267 114
266 113
265 112
264 111
264 110
263 109
262 108
261 108
260 107
259 106
258 105
257 104
256 103
255 103
254 103
253 104
252 103
251 102
250 101
250 100
249 99
249 98
248 97
247 96
246 95
245 94
244 93
243 92
242 92
241 92
240 93
240 94
240 95
239 96
238 95
237 94
237 93
236 92
235 91
234 90
234 89
233 89
232 88
231 87
230 86
229 85
228 85
227 85
226 85
225 86
225 87
225 88
225 89
225 90
225 91
226 92
226 93
226 94
226 95
227 96
227 97
227 98
228 99
228 100
229 101
229 102
230 103
230 104
231 105
231 106
230 107
229 106
228 106
227 105
226 105
225 104
226 103
226 102
226 101
226 100
225 99
225 98
225 97
224 96
224 95
223 94
222 93
221 92
220 91
219 90
218 89
217 88
216 87
215 86
214 86
213 85
212 85
211 84
210 84
209 84
208 84
207 84
206 85
206 86
205 87
204 87
203 86
202 85
201 84
200 84
199 83
198 83
197 82
196 81
195 81
194 81
193 81
192 81
191 80
190 80
189 80
188 79
187 79
186 79
185 79
184 79
183 79
182 79
181 79
180 79
179 80
178 81
178 82
179 83
180 84
181 84
182 85
183 85
184 86
185 87
186 87
187 88
188 89
189 90
190 90
191 91
192 92
191 93
190 93
189 93
188 93
187 93
186 93
185 93
184 93
183 94
182 94
181 95
180 95
179 96
178 97
178 98
178 99
177 100
176 99
175 99
174 98
173 98
172 97
171 97
170 98
169 98
168 97
168 96
167 95
166 94
165 94
164 93
163 94
162 95
162 96
162 97
162 98
162 99
162 100
162 101
162 102
163 103
163 104
164 105
164 106
165 107
165 108
166 109
166 110
166 111
166 112
166 113
165 114
164 114
163 113
162 113
161 112
160 112
159 111
159 110
159 109
159 108
159 107
159 106
158 105
157 104
157 103
156 102
155 101
154 100
153 99
152 98
151 97
150 96
149 95
148 95
147 94
146 93
145 93
144 92
143 92
142 91
141 91
140 91
139 90
138 90
137 90
136 89
135 89
134 89
133 89
132 89
131 89
130 89
129 89
128 89
127 89
126 90
126 91
127 92
127 93
127 94
128 95
129 96
130 96
131 97
132 98
133 99
134 100
135 100
136 101
137 102
138 103
139 103
140 104
141 105
141 106
140 107
139 107
138 107
137 106
136 106
135 106
134 106
133 106
132 106
131 106
130 106
129 106
128 106
127 106
126 107
125 107
124 107
123 108
122 109
122 110
123 111
123 112
124 113
125 113
126 114
127 114
128 115
129 115
130 115
131 115
132 116
133 116
134 116
135 116
136 116
137 117
138 117
139 118
139 119
139 120
139 121
140 122
140 123
141 124
142 124
143 125
144 125
145 125
146 126
147 126
148 126
149 126
150 127
151 127
152 127
153 128
154 129
155 130
156 130
157 131
158 131
159 131
160 132
161 132
162 132
163 132
164 132
165 132
166 133
167 133
168 133
169 134
169 135
170 136
171 136
172 137
173 138
174 138
175 139
176 139
177 139
178 140
179 140
180 140
181 140
182 140
183 140
184 141
185 142
185 143
184 144
183 144
182 145
182 146
182 147
183 148
184 149
185 149
186 149
187 150
188 150
189 150
190 151
191 151
192 151
193 151
194 151
195 151
196 151
197 152
198 152
199 153
200 154
201 154
202 155
203 155
204 156
205 156
206 156
207 157
208 157
209 157
210 157
211 158
212 158
213 158
214 158
215 158
216 158
217 159
218 160
217 161
217 162
217 163
217 164
218 165
219 166
220 166
221 167
222 167
223 167
224 167
225 168
226 168
227 168
228 169
229 169
230 169
231 169
232 169
233 169
234 169
235 169
236 169
237 169
238 169
239 170
238 171
237 171
236 171
235 172
234 173
233 173
232 174
231 175
231 176
231 177
232 178
233 179
234 180
234 181
234 182
234 183
234 184
234 185
234 186
234 187
234 188
234 189
235 190
235 191
235 192
235 193
235 194
236 195
236 196
236 197
237 198
237 199
237 200
238 201
238 202
237 203
236 203
235 202
234 202
233 201
233 200
233 199
233 198
233 197
233 196
233 195
233 194
233 193
233 192
232 191
232 190
232 189
231 188
231 187
231 186
230 185
229 184
229 183
228 182
228 181
227 180
226 179
226 178
225 177
224 176
223 175
222 175
221 174
220 173
219 173
218 172
217 172
216 172
215 172
214 172
214 173
213 174
213 175
213 176
213 177
213 178
212 179
211 178
211 177
210 176
209 175
209 174
208 173
208 172
207 171
206 170
205 169
204 168
203 167
202 166
201 165
200 165
199 164
198 164
197 163
196 163
195 162
194 162
193 163
192 163
191 164
191 165
191 166
190 167
189 166
188 165
187 164
187 163
186 163
185 162
184 161
183 160
182 159
181 158
180 158
179 157
178 157
177 156
176 156
175 156
174 156
173 157
173 158
172 159
173 160
172 161
171 161
170 160
169 159
168 158
167 157
166 156
165 155
165 154
164 153
163 152
162 151
161 151
160 150
159 150
158 151
157 152
156 153
155 153
154 152
154 151
153 150
152 150
151 149
150 148
149 147
148 147
147 146
146 145
145 145
144 144
143 144
142 143
141 143
140 143
139 143
138 143
137 143
136 144
135 143
134 143
133 142
132 141
131 141
130 140
129 140
128 141
127 142
126 143
125 142
124 141
123 140
122 139
121 138
121 137
120 136
119 135
118 134
117 133
116 132
115 131
114 130
113 130
112 130
111 130
110 129
109 130
108 130
107 130
106 129
105 128
104 127
103 126
102 125
102 124
101 123
100 123
99 122
98 121
97 121
96 121
95 121
94 122
93 122
92 121
91 120
90 119
89 118
88 117
87 117
86 116
85 115
84 115
83 114
82 114
81 115
80 116
80 117
80 118
80 119
80 120
81 121
81 122
81 123
81 124
82 125
82 126
82 127
83 128
83 129
84 130
84 131
85 132
85 133
86 134
86 135
87 136
88 137
88 138
88 139
89 140
90 140
91 141
92 141
93 142
94 142
95 142
96 143
96 144
95 145
94 145
93 145
92 145
91 145
90 145
89 146
88 146
87 146
86 146
85 147
84 147
83 147
82 148
81 148
80 148
79 149
78 149
77 150
76 150
75 151
75 152
74 153
75 154
75 155
76 155
77 156
78 156
79 157
80 157
81 157
82 157
83 157
84 157
85 157
86 157
87 157
88 157
89 157
90 157
91 157
92 158
93 158
94 159
95 159
96 160
97 160
98 161
99 161
100 161
101 162
102 162
103 162
104 163
104 164
104 165
104 166
105 167
106 168
107 168
108 169
109 169
110 170
111 170
112 170
113 170
114 171
115 171
116 171
117 171
118 171
119 172
120 173
120 174
121 174
122 175
123 175
124 176
125 176
126 176
127 176
128 177
129 177
130 177
131 177
132 177
133 177
134 178
135 178
136 178
137 178
138 178
139 179
138 180
137 181
137 182
136 183
136 184
137 185
137 186
138 186
139 186
140 187
141 187
142 187
143 187
144 187
145 187
146 187
147 187
148 187
149 188
149 189
150 190
150 191
151 192
152 192
153 193
154 193
155 193
156 194
157 194
158 194
159 194
160 194
161 194
162 194
163 194
164 194
165 195
166 195
167 195
168 195
169 195
170 195
171 195
172 196
172 197
171 198
171 199
171 200
172 201
173 202
174 202
175 202
176 203
177 203
178 204
178 205
178 206
179 207
179 208
179 209
180 210
181 211
181 212
182 213
182 214
181 215
180 214
179 214
178 213
177 212
176 211
175 210
174 210
173 209
172 209
171 208
170 207
169 207
168 206
167 206
166 206
165 205
164 205
163 205
162 205
161 205
160 205
159 205
158 205
157 206
157 207
157 208
156 209
155 209
154 208
153 207
152 207
151 206
150 206
149 205
148 205
147 205
146 204
145 204
144 204
143 204
142 204
141 204
140 204
139 204
138 205
137 206
136 205
135 205
134 204
133 204
132 204
131 203
130 203
129 203
128 203
127 203
126 203
125 204
125 205
125 206
126 207
126 208
126 209
127 210
128 211
127 212
126 212
125 211
124 211
123 210
122 210
121 210
120 209
119 209
118 209
117 209
116 208
115 208
114 208
113 208
112 208
111 207
110 207
109 207
108 208
107 208
106 209
106 210
105 211
104 211
103 211
102 211
101 211
100 211
99 211
98 211
97 212
96 211
95 210
94 209
93 209
92 208
91 208
90 207
89 206
88 206
87 206
86 205
85 205
84 205
83 204
82 204
81 204
80 204
79 204
79 205
79 206
78 207
79 208
79 209
80 210
80 211
79 212
78 211
77 210
76 210
75 209
74 209
73 208
72 208
71 207
70 206
69 206
68 206
67 205
66 205
65 205
64 204
63 204
62 204
61 205
60 206
60 207
60 208
61 209
61 210
62 211
63 212
63 213
64 214
65 215
66 216
67 217
68 218
69 219
70 219
71 220
72 221
73 222
74 223
75 223
76 224
77 224
78 224
79 225
79 226
78 227
77 227
76 227
75 227
74 227
73 227
72 227
71 227
70 227
69 227
68 227
69 227
70 227
71 227
72 227
73 227
74 227
75 227
76 227
77 227
78 227
79 228
78 229
77 230
76 230
75 231
74 232
73 233
72 234
71 235
70 236
69 237
68 238
67 239
67 240
66 241
65 242
65 243
64 244
64 245
64 246
64 247
65 248
66 248
67 248
68 248
69 247
70 247
71 246
72 246
73 246
74 245
75 245
76 244
77 244
78 243
79 242
80 242
81 241
82 240
83 240
84 240
85 240
86 240
87 240
88 240
89 240
90 240
91 240
92 239
93 239
94 239
95 238
96 238
97 237
98 237
99 237
100 238
99 239
99 240
100 241
101 241
102 241
103 241
104 241
105 240
106 240
107 239
108 239
109 238
110 239
110 240
110 241
110 242
110 243
111 243
112 244
113 244
114 244
115 244
116 244
117 243
118 243
119 243
120 243
121 242
122 242
123 241
124 241
125 241
126 240
127 240
128 241
127 242
127 243
126 244
126 245
125 246
125 247
125 248
126 249
126 250
127 250
128 250
129 249
130 249
131 249
132 248
133 248
134 248
135 248
136 247
137 247
138 246
139 246
140 246
141 247
141 248
142 249
143 249
144 249
145 250
146 249
147 249
148 249
149 249
150 248
151 248
152 248
153 247
154 247
155 247
156 246
157 246
158 245
159 246
159 247
159 248
159 249
160 250
161 250
162 250
163 250
164 250
165 251
165 252
165 253
165 254
165 255
166 256
167 257
167 258
168 259
168 260
167 261
166 261
165 261
164 261
163 261
162 261
161 261
160 261
159 261
158 261
157 261
156 261
155 262
154 262
153 262
152 262
151 262
150 262
149 262
148 262
147 262
146 262
145 262
144 262
143 262
142 262
141 262
140 262
139 262
138 262
137 262
136 263
135 263
134 264
133 264
133 265
133 266
133 267
132 268
133 269
132 270
131 270
130 270
129 271
128 271
127 271
126 271
125 271
124 272
123 272
122 272
121 273
120 273
119 274
118 275
118 276
118 277
119 278
120 279
121 279
122 280
121 281
120 282
119 282
118 282
117 283
116 283
115 284
114 284
113 284
112 284
111 285
110 285
109 286
108 286
107 287
106 288
105 289
105 290
105 291
106 292
107 292
108 293
109 293
110 293
111 293
112 293
113 293
114 293
115 293
116 293
117 292
118 292
119 292
120 292
121 292
122 292
123 292
124 291
125 291
126 292
125 293
124 294
124 295
123 296
122 297
121 298
120 298
119 298
118 299
117 299
116 299
115 299
114 300
113 300
112 301
111 301
110 302
109 302
109 303
109 304
109 305
110 306
111 307
112 307
113 307
114 307
115 307
116 307
117 306
118 306
119 305
120 305
121 304
122 304
123 303
124 302
125 302
126 301
127 301
128 300
129 300
130 299
131 299
132 299
133 300
133 301
133 302
134 303
135 303
136 303
137 303
138 303
139 302
140 302
141 301
142 300
143 300
144 299
145 298
146 297
147 296
148 295
149 294
149 293
150 292
151 292
152 291
153 291
154 291
155 290
156 290
157 289
158 289
159 288
160 288
161 289
161 290
162 291
162 292
163 292
164 292
165 291
166 291
167 291
168 290
169 289
170 288
171 288
172 287
173 287
174 286
175 285
176 286
176 287
176 288
175 289
175 290
175 291
174 292
174 293
173 294
172 294
171 294
170 294
169 294
168 294
167 294
166 294
165 294
164 294
163 294
162 294
161 295
160 295
159 295
158 295
157 296
156 296
155 296
154 297
153 297
152 298
151 299
150 299
150 300
150 301
151 302
152 303
153 303
154 304
155 304
156 304
157 305
158 305
159 305
160 305
161 305
162 306
163 306
164 306
165 306
166 306
167 307
168 307
169 307
170 307
171 307
172 307
173 307
174 307
175 307
176 307
177 307
178 307
179 307
180 308
179 309
178 309
177 310
176 311
176 312
175 313
174 313
173 314
172 315
171 316
170 317
169 318
168 319
167 320
166 321
165 322
165 323
164 324
163 325
163 326
163 327
163 328
164 329
165 329
166 329
167 329
168 329
169 329
170 328
171 328
172 327
173 327
174 327
175 326
176 326
177 325
178 324
179 323
180 322
181 322
182 321
183 320
184 319
185 318
185 317
186 316
186 315
187 314
187 313
188 312
189 311
189 310
190 309
191 308
192 307
192 306
193 305
194 304
195 304
196 304
197 304
198 303
199 303
200 303
201 304
200 305
199 306
198 307
197 308
196 309
195 310
195 311
194 312
193 313
193 314
192 315
192 316
191 317
191 318
190 319
190 320
189 321
189 322
189 323
189 324
188 325
189 326
189 327
190 328
191 328
192 327
193 327
194 326
195 325
196 324
197 324
198 323
199 322
199 321
200 320
201 320
201 319
202 318
203 319
203 320
204 321
205 321
206 322
207 321
208 321
209 320
210 320
211 319
212 319
213 318
214 317
215 316
216 316
217 315
218 316
219 316
220 316
221 316
222 316
223 316
224 316
225 315
226 315
227 314
228 314
229 313
230 312
231 312
232 311
233 310
234 311
235 311
236 312
237 312
238 312
239 312
240 311
241 311
242 311
243 310
244 310
245 309
246 308
247 307
248 307
248 306
249 305
250 305
251 304
252 303
253 303
254 303
255 303
256 302
257 302
258 302
259 301
260 301
261 301
262 300
263 300
264 299
265 299
266 298
267 297
268 297
269 296
270 297
270 298
269 299
268 300
268 301
268 302
268 303
267 304
268 305
268 306
269 306
270 307
269 308
268 309
267 310
266 311
265 312
264 313
263 313
262 313
261 313
260 313
259 314
258 314
257 314
256 314
255 314
254 314
253 314
252 315
251 315
250 316
249 316
248 317
247 317
246 317
245 317
244 317
243 317
242 317
241 317
240 317
239 317
238 317
237 318
236 318
235 318
234 319
233 320
232 321
232 322
233 323
234 324
235 324
236 325
237 325
238 326
239 326
240 326
241 327
242 327
243 327
244 327
245 327
246 328
247 328
248 328
249 328
250 328
251 329
252 329
253 329
254 329
255 329
256 329
257 328
258 329
259 330
258 331
257 331
256 332
255 333
254 333
253 334
252 334
251 334
250 334
249 333
248 333
247 333
246 333
245 333
244 333
243 334
242 334
241 334
240 334
239 333
238 333
237 332
236 332
235 332
234 332
233 332
232 332
231 333
230 333
229 333
228 334
227 334
226 335
225 335
224 336
223 337
222 337
221 338
220 339
220 340
220 341
220 342
220 343
221 344
222 345
222 346
222 347
221 348
220 349
219 350
219 351
218 352
218 353
219 354
220 354
221 354
222 354
223 354
224 354
225 353
226 353
227 352
228 352
229 352
230 351
231 351
232 350
233 349
234 349
235 348
236 348
237 347
238 347
239 346
240 346
241 346
242 346
243 345
244 345
245 344
246 343
247 342
248 341
249 340
250 339
250 338
251 337
251 336
252 335
253 335
254 334
255 335
255 336
254 337
253 338
252 339
252 340
251 341
251 342
250 343
250 344
249 345
249 346
248 347
248 348
247 349
247 350
246 351
246 352
246 353
246 354
246 355
247 356
248 356
249 357
250 357
251 356
252 356
253 355
254 354
255 353
255 352
256 351
257 350
258 349
258 348
259 347
260 346
260 345
261 344
261 343
262 342
262 341
263 340
263 339
263 338
264 337
264 336
264 335
265 334
265 333
265 332
265 331
264 330
265 329
266 328
267 328
268 327
269 327
270 328
269 329
268 330
268 331
268 332
267 333
267 334
267 335
267 336
266 337
266 338
266 339
266 340
266 341
265 342
265 343
265 344
265 345
265 346
266 347
267 348
268 347
269 347
270 346
271 345
271 344
272 343
272 342
273 341
274 341
275 342
276 342
277 342
278 341
279 341
280 340
281 339
281 338
282 337
283 336
284 335
285 334
285 333
286 332
287 331
287 330
288 329
289 329
290 328
291 329
291 330
290 331
290 332
290 333
290 334
289 335
289 336
289 337
290 338
291 339
292 338
293 338
294 338
295 337
296 336
297 336
298 335
298 334
299 333
300 332
300 331
301 330
302 329
303 330
303 331
303 332
304 333
305 333
306 334
307 333
308 333
309 333
310 332
311 332
312 331
312 330
313 329
314 329
315 328
316 327
317 326
317 325
318 324
319 323
320 323
321 324
322 325
323 325
324 325
325 324
326 324
327 324
328 323
329 322
330 321
331 321
332 320
333 319
334 318
334 317
335 316
336 315
337 314
338 315
338 316
339 317
340 317
341 318
342 318
343 317
344 317
345 316
346 315
347 314
348 313
348 312
349 311
349 310
349 309
350 308
351 309
352 310
353 310
354 310
355 310
356 309
357 309
358 309
359 308
360 307
361 307
362 306
363 305
364 304
365 303
366 302
367 301
368 300
369 299
369 298
370 297
371 296
371 295
372 294
372 293
373 292
373 291
374 290
374 289
375 288
375 287
375 286
375 285
374 284
375 283
376 282
377 281
378 281
379 280
380 280
381 281
380 282
380 283
379 284
379 285
378 286
378 287
377 288
377 289
376 290
376 291
376 292
375 293
375 294
375 295
374 296
374 297
374 298
374 299
374 300
374 301
375 302
376 303
377 303
378 303
379 302
380 302
381 301
382 300
383 300
384 299
384 298
385 297
386 296
386 295
387 294
387 293
388 292
389 292
390 292
391 293
392 292
393 292
394 292
395 291
396 291
397 290
398 289
399 289
400 288
400 287
401 286
402 286
402 285
403 284
404 283
404 282
405 281
406 280
407 281
407 282
408 282
409 282
410 283
411 283
412 282
413 282
414 281
415 280
416 280
417 279
417 278
418 277
419 277
419 276
420 275
421 274
421 273
422 272
423 272
424 273
425 273
426 273
427 272
428 272
429 271
430 270
431 270
432 269
432 268
433 267
434 266
435 265
435 264
436 263
437 262
437 261
438 260
439 259
440 260
440 261
441 261
442 261
443 262
444 262
445 261
446 260
447 260
448 259
448 258
449 257
449 256
450 255
450 254
450 253
450 252
451 251
451 250
451 249
451 248
451 247
451 246
451 245
450 244
450 243
449 242
449 241
450 240
451 239
452 239
453 238
454 237
455 237
456 237
457 237
458 237
459 237
460 237
461 237
462 237
463 237
464 237
465 237
466 237
467 237
468 237
469 237
470 237
471 238
472 238
473 238
474 238
475 238
476 238
477 238
478 238
479 238
480 238
481 238
482 238
483 238
484 238
485 238
486 238
487 238
488 238
489 238
490 238
491 239
492 239
493 239
494 239
495 239
496 239
497 239
498 239
499 239
500 239
501 239
502 239
503 240
504 241
504 242
504 243
503 244
503 245
502 246
501 247
500 246
499 246
498 245
497 245
496 244
495 244
494 244
493 244
492 244
491 244
490 244
489 244
488 244
487 244
486 244
485 244
484 245
483 245
482 245
481 246
480 246
479 247
478 247
477 248
476 249
475 250
474 250
474 251
473 252
473 253
473 254
472 255
471 256
470 256
469 256
468 256
467 256
466 257
465 257
464 257
463 258
462 258
461 259
460 259
459 259
458 260
457 261
456 262
455 263
455 264
455 265
455 266
455 267
455 268
454 269
453 269
452 269
451 270
450 270
449 271
448 271
447 271
446 272
445 272
445 273
444 274
443 275
443 276
443 277
443 278
443 279
444 280
443 281
442 282
441 282
440 282
439 282
438 283
437 283
436 283
435 284
434 284
433 284
432 285
431 285
430 286
429 287
428 288
428 289
427 290
428 291
428 292
428 293
429 294
428 295
427 295
426 296
425 296
424 296
423 297
422 297
421 298
420 298
420 299
419 300
418 301
417 302
417 303
417 304
416 305
415 306
414 306
413 306
412 307
411 307
410 308
409 308
408 309
407 310
406 311
406 312
406 313
406 314
406 315
405 316
404 316
403 316
402 317
401 317
400 317
399 318
398 318
397 319
396 320
395 320
395 321
394 322
394 323
394 324
395 325
396 326
396 327
395 328
394 328
393 328
392 328
391 329
390 329
389 329
388 330
387 330
386 330
385 331
384 331
383 332
382 332
381 333
380 334
379 335
379 336
379 337
378 338
377 339
376 339
375 340
374 340
373 341
372 342
371 343
371 344
370 345
370 346
369 347
368 347
367 347
366 348
365 348
364 348
363 348
362 349
361 349
360 349
359 350
358 350
357 351
356 352
356 353
355 354
355 355
355 356
354 357
353 357
352 357
351 358
350 358
349 359
348 359
347 360
346 361
345 362
345 363
345 364
345 365
344 366
343 367
342 367
341 367
340 367
339 367
338 367
337 367
336 367
335 367
334 367
333 368
332 368
331 368
330 368
329 369
328 369
327 369
326 370
325 370
325 371
324 372
323 373
323 374
324 375
325 376
326 376
327 376
328 376
329 377
330 377
331 376
332 376
333 376
334 376
335 376
336 376
337 376
338 376
339 375
340 375
341 375
342 375
343 375
344 375
345 375
346 375
347 375
348 375
349 375
350 374
351 374
352 375
352 376
351 377
350 378
349 378
348 379
348 380
347 381
346 382
345 383
345 384
344 385
344 386
343 387
343 388
342 389
342 390
341 391
341 392
341 393
341 394
341 395
341 396
341 397
342 397
343 398
344 398
345 397
346 397
347 396
348 395
348 394
348 393
349 392
349 391
349 390
349 389
349 388
350 387
351 386
352 385
353 385
354 385
355 384
356 383
357 382
358 381
359 380
359 379
360 378
360 377
361 376
362 377
362 378
362 379
362 380
361 381
361 382
361 383
361 384
360 385
361 386
361 387
362 388
363 388
364 388
365 387
366 387
367 386
368 385
368 384
369 383
369 382
370 381
370 380
371 379
372 379
373 379
374 380
375 379
376 379
377 379
378 378
379 377
380 376
381 375
381 374
382 373
383 372
384 371
384 370
385 369
386 369
387 370
388 369
389 369
390 369
391 368
392 367
392 366
393 365
394 364
395 363
396 362
397 361
397 360
398 359
398 358
399 357
400 356
401 357
401 358
401 359
401 360
402 360
403 360
404 360
405 360
406 359
407 359
408 358
408 357
409 356
410 355
411 354
412 353
413 354
414 355
414 356
415 356
416 356
417 357
416 358
415 359
414 360
413 361
412 362
411 363
410 363
409 364
408 364
407 364
406 365
405 365
404 366
403 367
402 368
402 369
401 370
402 371
403 371
404 372
405 372
406 372
407 372
408 371
409 371
410 371
411 371
412 371
413 370
414 370
415 370
416 370
417 369
418 369
419 369
420 368
421 368
422 367
423 367
424 366
425 365
426 365
427 364
428 364
429 365
429 366
428 367
427 368
427 369
427 370
426 371
426 372
426 373
425 374
425 375
424 376
424 377
424 378
423 379
422 380
422 381
421 382
421 383
420 384
420 385
420 386
421 387
421 388
422 389
423 389
424 389
425 388
426 388
427 387
428 386
429 385
430 385
431 384
432 383
433 382
434 381
434 380
435 379
436 378
436 377
436 376
437 375
437 374
438 373
439 372
440 372
441 371
442 371
443 370
444 369
445 369
446 369
447 368
447 367
447 366
448 365
448 364
449 363
449 362
450 361
451 360
452 359
453 358
454 359
455 360
456 360
457 360
458 359
459 359
460 358
461 357
462 356
462 355
463 354
464 353
464 352
465 351
465 350
466 349
467 349
468 349
469 348
470 348
471 347
472 346
473 345
474 344
475 343
476 342
476 341
477 340
478 339
479 339
480 339
481 339
482 339
483 338
484 337
485 336
486 335
487 334
488 333
488 332
489 331
490 330
491 329
492 330
493 331
494 332
495 332
496 332
497 332
498 332
499 331
500 330
501 329
502 328
502 327
503 326
503 325
504 324
504 323
505 322
506 321
507 321
508 321
509 321
510 320
511 319
512 318
513 317
513 316
514 315
515 314
515 313
516 312
516 311
517 310
517 309
518 308
519 308
520 308
521 308
522 308
523 307
524 307
525 306
526 305
527 304
528 303
528 302
529 301
529 300
530 299
530 298
531 297
532 296
533 296
534 296
535 295
536 295
537 294
538 293
538 292
539 291
540 290
541 289
541 288
542 287
542 286
543 285
543 284
544 283
544 282
544 281
545 280
546 279
547 279
548 278
549 278
550 277
551 276
552 275
553 274
553 273
554 272
555 271
555 270
556 269
557 268
558 269
559 269
560 269
561 269
562 269
563 269
564 269
565 268
565 267
566 266
566 265
567 264
567 263
567 262
568 261
568 260
568 259
568 258
568 257
568 256
568 255
568 254
568 253
568 252
568 251
567 250
567 249
567 248
568 247
569 246
570 246
571 245
572 245
573 244
574 244
575 244
576 244
577 244
578 244
579 244
580 244
581 245
582 245
583 245
584 245
585 245
586 245
587 245
588 245
589 245
590 245
591 245
592 246
593 246
594 246
595 247
596 246
597 246
598 246
599 246
600 246
601 246
602 247
603 247
604 247
605 247
606 247
607 247
608 247
609 247
610 247
611 247
612 247
613 247
614 247
615 247
616 247
617 248
618 249
619 250
619 251
618 252
618 253
617 254
617 255
616 256
615 255
614 255
613 254
612 253
611 253
610 252
609 252
608 252
607 252
606 251
605 251
604 251
603 251
602 251
601 251
600 251
599 251
598 252
597 252
596 252
595 253
594 253
593 253
592 254
591 255
590 255
589 256
589 257
588 258
588 259
588 260
589 261
590 262
589 263
588 263
587 263
586 263
585 264
584 264
583 264
582 265
581 265
580 266
579 267
578 267
577 268
576 269
575 270
575 271
575 272
575 273
575 274
575 275
575 276
574 277
573 277
572 277
571 277
570 278
569 278
568 278
567 279
566 279
565 280
564 281
563 282
562 283
561 284
561 285
561 286
561 287
561 288
561 289
562 290
561 291
560 291
559 292
558 292
557 293
556 293
555 294
554 294
553 295
552 296
551 297
550 298
549 299
548 300
547 301
546 302
545 303
544 304
543 304
542 304
541 305
540 305
539 306
538 307
537 308
536 309
536 310
535 311
535 312
535 313
535 314
534 315
533 315
532 316
531 316
530 317
529 317
528 318
527 319
526 320
526 321
525 322
525 323
525 324
525 325
524 326
523 326
522 327
521 328
520 328
519 329
518 329
517 330
516 330
515 331
515 332
515 333
515 334
516 335
517 335
518 336
518 337
517 338
516 339
515 339
514 340
513 340
512 340
511 340
510 341
509 341
508 342
507 342
506 343
505 343
504 344
503 344
502 345
501 345
500 346
500 347
499 348
499 349
499 350
500 351
501 352
502 352
503 352
504 352
505 352
506 352
507 352
508 352
509 352
510 352
511 352
512 352
513 353
514 354
513 355
512 356
511 357
511 358
510 359
509 360
508 361
507 362
507 363
507 364
506 365
506 366
506 367
506 368
506 369
507 370
508 371
509 371
510 371
511 371
512 370
513 369
514 368
515 367
516 366
517 365
518 364
519 363
520 364
520 365
519 366
519 367
519 368
519 369
518 370
518 371
518 372
518 373
517 374
517 375
517 376
517 377
517 378
517 379
518 380
519 381
520 381
521 381
522 381
523 380
524 379
525 378
526 377
526 376
527 375
528 374
528 373
529 372
529 371
530 370
530 369
531 368
531 367
532 366
532 365
533 364
533 363
534 362
535 362
536 362
537 361
538 360
539 360
539 359
540 358
540 357
541 356
541 355
542 354
543 353
544 352
545 353
545 354
545 355
544 356
544 357
545 358
545 359
546 360
547 360
548 360
549 360
550 360
551 359
552 359
553 359
554 359
555 358
556 358
557 358
558 357
559 357
560 357
561 356
562 356
563 356
564 355
565 355
566 354
567 353
568 353
569 352
570 351
571 350
572 349
573 348
574 347
575 346
576 345
577 344
577 343
578 342
579 341
580 341
581 340
582 340
583 339
584 339
585 338
586 338
587 337
588 336
589 335
590 334
591 333
592 332
593 332
594 331
595 331
596 330
597 330
598 329
599 328
600 328
600 327
601 326
602 326
602 325
603 324
604 323
605 322
606 322
607 321
608 321
609 320
610 320
611 319
612 318
613 317
614 316
614 315
615 314
616 313
617 312
618 312
619 311
620 311
621 310
622 310
623 309
624 309
625 308
626 307
627 307
628 306
629 306
630 306
631 305
632 304
633 304
634 303
635 302
636 302
637 301
638 300
639 300
640 299
641 298
641 297
642 296
643 295
643 294
644 293
645 293
646 293
647 292
648 291
649 290
650 289
651 289
652 288
653 288
654 288
655 287
656 287
657 287
658 288
659 287
660 287
661 287
662 286
663 285
664 285
665 284
666 283
667 283
668 282
669 281
670 280
671 279
672 278
673 277
673 276
674 275
675 275
676 275
677 276
678 276
679 275
680 275
681 275
682 274
683 273
684 272
684 271
685 270
685 269
686 268
686 267
686 266
687 265
687 264
687 263
686 262
686 261
686 260
686 259
686 258
687 257
688 256
689 256
690 256
691 255
692 255
693 254
694 254
695 254
696 254
697 255
698 255
699 255
700 255
701 255
702 255
703 255
704 255
705 255
706 255
707 256
708 256
709 256
710 256
711 256
712 256
713 256
714 256
715 256
716 256
717 257
718 257
719 257
720 257
721 257
722 257
723 257
724 257
725 257
726 257
727 257
728 258
729 258
730 258
731 258
732 258
733 258
734 258
735 258
736 258
737 258
738 258
739 258
740 258
741 259
742 259
743 259
744 259
745 259
746 259
747 260
748 260
749 260
750 260
751 260
752 260
753 260
754 261
755 261
756 261
757 260
757 259
757 258
757 257
758 256
758 255
758 254
757 253
756 253
755 253
754 253
753 253
752 254
751 254
750 254
749 254
748 254
747 254
746 255
745 255
744 255
743 255
742 255
741 255
740 255
739 255
738 255
737 255
736 255
735 254
734 254
733 254
732 254
731 254
730 254
729 254
728 254
727 254
726 254
725 254
724 254
723 254
722 254
721 253
720 253
719 253
718 253
717 253
716 253
715 253
714 253
713 253
712 253
711 253
710 252
709 252
708 252
707 252
706 252
705 252
704 252
703 252
702 252
701 251
700 251
699 251
698 251
697 251
696 251
695 251
694 251
693 251
692 250
691 250
690 250
689 250
688 250
687 250
686 249
685 249
684 248
684 247
683 246
683 245
682 244
682 243
682 242
683 241
684 240
685 239
685 238
685 237
686 236
686 235
686 234
686 233
686 232
686 231
686 230
686 229
686 228
686 227
685 226
685 225
685 224
684 223
684 222
683 221
683 220
682 219
682 218
682 217
683 216
683 215
683 214
683 213
683 212
683 211
683 210
683 209
683 208
683 207
682 206
682 205
682 204
682 203
681 202
681 201
680 200
680 199
680 198
679 197
678 197
677 196
676 195
677 194
676 193
676 192
676 191
676 190
676 189
676 188
676 187
676 186
676 185
675 184
675 183
674 182
674 181
673 180
673 179
672 178
672 177
672 176
672 175
673 174
673 173
673 172
673 171
673 170
673 169
674 168
673 167
673 166
674 165
674 164
674 163
673 162
673 161
673 160
672 159
672 158
671 157
671 156
670 156
669 155
668 154
668 153
668 152
669 151
669 150
669 149
669 148
669 147
669 146
669 145
669 144
669 143
669 142
669 141
669 140
668 139
668 138
668 137
667 137
666 136
665 136
664 136
663 136
662 137
661 138
660 139
659 140
658 140
657 139
656 138
656 137
655 137
654 136
653 135
653 134
652 133
651 132
651 131
650 130
650 129
650 128
650 127
650 126
650 125
650 126
649 127
648 128
648 129
647 130
646 131
645 131
644 130
643 129
643 128
642 127
641 126
641 125
640 125
640 126
640 127
639 128
638 127
638 126
637 125
637 124
636 123
636 122
636 121
635 120
635 119
635 118
634 117
634 116
633 115
633 114
633 113
632 112
631 111
631 110
631 109
630 108
630 107
630 106
630 105
629 104
629 103
629 102
628 101
628 100
628 99
628 98
629 97
630 96
631 95
632 94
632 93
632 92
632 91
633 90
633 89
633 88
633 87
633 86
633 85
633 84
633 83
633 82
633 81
633 80
633 79
632 78
632 77
632 76
632 75
632 74
631 73
631 72
631 71
630 70
630 69
630 68
629 67
629 66
628 65
627 64
627 63
626 62
625 61
624 60
624 59
623 58
623 57
622 56
622 55
621 54
621 53
620 52
620 51
619 50
619 49
618 49
617 48
617 47
616 46
615 45
614 45
613 44
612 44
611 44
610 45
609 46
609 47
609 48
609 49
609 50
609 51
609 52
609 53
610 54
610 55
610 56
610 57
610 58
611 59
611 60
611 61
611 62
611 63
611 64
612 65
612 66
611 67
610 67
609 66
608 65
607 64
606 63
605 63
604 62
603 61
602 61
601 60
600 59
599 59
598 58
597 57
596 57
595 56
594 56
593 56
592 57
591 58
591 59
591 60
591 61
591 62
592 63
592 64
592 65
593 66
593 67
594 68
594 69
595 70
596 71
596 72
597 73
598 74
599 75
599 76
600 77
601 78
602 79
603 80
604 80
605 79
606 79
607 79
608 79
609 80
610 80
611 81
612 82
613 83
614 84
615 84
616 85
617 86
618 86
619 87
620 87
621 88
621 89
622 90
622 91
623 92
623 93
624 94
625 95
625 96
625 97
626 98
626 99
625 100
624 99
623 98
622 98
621 97
620 97
619 96
618 96
617 95
616 95
615 95
614 95
614 96
614 97
614 98
615 99
615 100
616 101
617 102
618 103
618 104
617 105
616 104
615 104
614 104
613 104
612 104
611 104
610 104
609 105
608 106
607 106
606 105
606 104
606 103
605 102
605 101
604 101
603 100
602 100
601 100
600 99
600 98
600 97
600 96
600 95
600 94
600 93
600 92
600 91
600 90
600 89
600 88
600 87
599 86
599 85
599 84
598 83
597 82
596 82
595 83
594 82
594 81
594 80
594 79
593 78
593 77
593 76
593 75
593 74
592 73
592 72
592 71
591 70
591 69
590 68
590 67
589 66
588 65
588 64
588 63
588 62
588 61
588 60
588 59
588 58
588 57
587 56
587 55
587 54
587 53
587 52
586 51
586 50
585 49
585 48
584 47
583 46
583 45
582 45
581 45
580 46
579 47
578 48
577 49
577 50
577 51
577 52
576 53
576 54
576 55
576 56
576 57
576 58
575 59
575 60
575 61
575 62
575 63
575 64
575 65
575 66
575 67
575 68
575 69
575 70
575 71
575 72
575 73
575 74
575 75
574 76
573 75
573 74
572 73
571 72
570 71
569 70
568 69
567 68
566 67
565 66
564 65
563 65
562 64
561 63
560 63
559 62
558 61
557 61
556 60
555 59
554 59
553 58
552 58
551 57
550 57
549 57
548 57
547 58
547 59
547 60
547 61
547 62
547 63
547 64
548 65
548 66
549 67
549 68
550 69
550 70
551 71
551 72
552 73
553 74
554 75
555 76
556 77
556 78
557 79
558 80
558 81
557 82
557 83
557 84
557 85
558 86
558 87
558 88
559 89
559 90
560 91
561 92
561 93
562 94
563 95
564 96
564 97
564 98
564 99
564 100
564 101
564 102
565 103
565 104
565 105
566 106
566 107
567 108
567 109
567 110
568 111
568 112
569 113
569 114
568 115
568 116
568 117
568 118
568 119
568 120
568 121
569 122
569 123
570 124
570 125
571 126
571 127
572 128
573 129
573 130
574 131
574 132
574 133
574 134
574 135
574 136
574 137
574 138
574 139
575 140
575 141
575 142
576 143
576 144
577 145
577 146
577 147
577 148
576 149
576 150
575 151
575 152
575 153
575 154
576 155
576 156
577 157
577 158
577 159
578 160
579 161
580 162
580 163
581 164
582 165
582 166
582 167
581 168
581 169
581 170
581 171
581 172
581 173
581 174
581 175
582 176
582 177
582 178
583 179
583 180
584 181
585 182
586 183
587 184
588 185
588 186
589 187
588 188
587 189
586 190
585 191
585 192
584 193
584 194
584 195
584 196
584 197
584 198
585 199
585 200
586 201
586 202
587 203
588 204
589 205
590 206
591 207
592 208
593 208
594 209
595 209
596 210
596 211
595 212
594 213
593 214
593 215
592 216
592 217
592 218
592 219
593 220
593 221
593 222
594 223
594 224
595 225
596 226
597 227
598 227
599 228
600 228
601 229
602 229
603 230
604 230
605 230
606 231
607 231
608 231
609 231
610 231
611 231
612 231
613 232
614 233
614 234
614 235
614 236
614 237
615 238
615 239
615 240
615 241
615 242
614 243
613 244
612 244
611 244
610 244
609 244
608 243
607 243
606 243
605 243
604 243
603 243
602 243
601 243
600 243
599 243
598 243
597 243
596 243
595 243
594 243
593 242
592 242
591 242
590 242
589 242
588 242
587 242
586 242
585 242
584 242
583 242
582 242
581 241
580 241
579 241
578 241
577 241
576 241
575 241
574 241
573 241
572 240
571 240
570 240
569 240
568 239
567 238
566 237
565 236
565 235
564 234
565 233
566 232
567 231
567 230
568 229
568 228
568 227
568 226
568 225
568 224
568 223
568 222
567 221
567 220
567 219
566 218
566 217
565 216
565 215
564 214
563 214
562 213
561 212
562 211
562 210
561 209
562 208
562 207
562 206
562 205
561 204
561 203
561 202
561 201
560 200
560 199
559 198
559 197
558 196
557 195
556 195
555 195
554 195
553 195
552 195
551 195
550 194
550 193
550 192
550 191
550 190
550 189
550 188
550 187
549 186
549 185
549 184
548 183
547 182
547 181
546 180
546 179
545 178
544 178
543 177
542 176
542 175
542 174
542 173
542 172
542 171
542 170
542 169
541 168
541 167
541 166
540 165
539 164
539 163
538 162
538 161
537 160
536 160
535 159
534 159
533 160
532 160
531 159
531 158
531 157
531 156
530 155
530 154
530 153
530 152
530 151
529 150
529 149
528 148
528 147
528 146
527 145
526 144
525 143
524 142
523 142
522 142
521 142
520 143
519 142
519 141
519 140
518 139
518 138
517 137
517 136
517 135
516 134
516 133
515 132
515 131
514 130
513 129
512 129
511 128
510 128
509 128
508 129
507 128
506 127
506 126
506 125
506 124
506 123
506 122
505 121
505 120
504 119
504 118
503 117
502 116
501 116
500 117
499 118
498 118
497 117
497 116
497 115
497 114
496 113
496 112
496 111
495 110
495 109
494 108
494 107
493 106
492 105
492 104
491 103
490 103
489 102
488 102
487 102
486 101
486 100
486 99
485 98
485 97
485 96
484 95
484 94
483 93
483 92
482 91
482 90
481 89
480 89
479 88
478 89
477 88
477 87
477 86
477 85
477 84
477 83
477 82
477 81
476 80
475 79
474 79
473 79
472 80
471 80
471 81
470 82
470 83
469 84
469 85
468 86
468 87
467 88
466 87
466 86
466 85
467 84
467 83
467 82
468 81
468 80
468 79
468 78
468 77
468 76
468 75
467 74
467 73
467 72
467 71
467 70
467 69
466 68
466 67
465 66
465 65
465 64
464 63
464 62
464 61
464 60
464 59
463 58
463 57
462 56
462 55
461 55
460 54
459 54
458 55
457 56
457 57
457 58
456 59
456 60
456 61
456 62
456 63
456 64
456 65
456 66
456 67
456 68
456 69
456 70
456 71
456 72
456 73
456 74
455 75
454 74
453 73
452 72
451 71
450 70
450 69
449 68
448 67
447 66
446 65
445 64
444 64
443 63
442 62
441 61
440 61
439 60
438 59
437 59
436 59
435 59
434 59
433 60
433 61
433 62
434 63
434 64
434 65
435 66
435 67
436 68
436 69
437 70
437 71
437 72
438 73
439 74
439 75
440 76
440 77
441 78
440 79
440 80
440 81
441 82
441 83
441 84
442 85
442 86
443 87
443 88
444 89
445 90
445 91
446 92
447 93
448 94
449 95
449 96
448 97
448 98
447 99
448 100
448 101
449 102
449 103
450 104
451 105
452 106
453 107
454 107
455 108
456 109
457 110
458 111
458 112
459 113
459 114
460 115
461 116
462 117
463 118
464 119
465 120
466 121
467 122
466 123
466 124
466 125
466 126
467 127
467 128
468 129
469 130
470 131
471 132
472 133
473 134
474 134
475 135
476 136
477 137
476 138
475 139
474 140
474 141
474 142
474 143
475 144
476 145
476 146
477 146
478 147
479 148
480 148
481 149
482 150
483 150
484 151
485 151
486 152
487 153
486 154
485 154
484 155
483 156
483 157
483 158
483 159
483 160
484 161
485 162
486 163
487 163
488 164
489 165
490 165
491 166
492 166
493 167
494 168
495 169
495 170
496 171
496 172
497 173
498 174
498 175
499 175
500 176
501 177
502 178
503 179
504 179
505 180
506 181
506 182
506 183
506 184
505 185
506 186
506 187
506 188
507 189
508 190
509 191
510 192
511 192
512 193
513 194
514 194
515 195
516 196
517 196
518 197
519 197
520 198
521 199
520 200
520 201
520 202
519 203
519 204
518 205
518 206
519 207
519 208
520 209
521 210
522 211
523 211
524 212
525 212
526 213
527 213
528 214
529 214
530 215
531 215
532 215
533 216
533 217
533 218
534 219
534 220
534 221
535 222
535 223
536 224
537 225
538 226
539 226
540 227
541 228
542 228
543 229
544 229
545 230
546 230
547 230
548 230
549 230
550 231
551 231
552 231
553 231
554 231
555 231
556 230
557 230
558 231
559 232
560 233
560 234
561 235
561 236
561 237
561 238
561 239
560 240
559 240
558 240
557 240
556 240
555 240
554 239
553 239
552 239
551 239
550 239
549 239
548 239
547 239
546 239
545 239
544 239
543 239
542 239
541 238
540 238
539 238
538 238
537 238
536 238
535 238
534 238
533 238
532 238
531 238
530 238
529 238
528 238
527 238
526 237
525 237
524 237
523 237
522 237
521 237
520 237
519 237
518 237
517 237
516 237
515 237
514 236
513 236
512 236
511 236
510 235
509 234
508 233
507 232
507 231
507 230
507 229
508 228
509 227
509 226
509 225
509 224
509 223
509 222
510 221
510 220
510 219
509 218
509 217
509 216
509 215
508 214
508 213
508 212
507 211
506 210
505 209
504 208
503 207
503 206
503 205
503 204
503 203
503 202
503 201
503 200
503 199
503 198
502 197
502 196
502 195
501 194
501 193
500 192
499 191
498 190
497 190
496 190
495 190
494 190
493 191
492 190
491 189
491 188
491 187
491 186
490 185
490 184
490 183
489 182
489 181
488 180
488 179
487 178
486 177
485 176
484 175
483 174
482 173
482 172
482 171
482 170
482 169
481 168
481 167
481 166
481 165
480 164
480 163
480 162
480 161
479 160
479 159
478 158
477 157
476 156
475 155
474 155
473 155
472 155
471 156
470 157
469 157
468 156
468 155
468 154
468 153
467 152
467 151
467 150
467 149
466 148
466 147
465 146
465 145
464 145
463 144
462 143
461 143
460 143
459 143
458 144
457 145
456 144
456 143
456 142
456 141
456 140
455 139
455 138
455 137
454 136
454 135
453 134
453 133
452 132
452 131
451 130
450 129
449 128
448 128
447 127
446 126
445 125
445 124
445 123
445 122
445 121
444 120
444 119
444 118
443 117
443 116
442 115
442 114
441 113
440 113
439 113
438 113
437 113
436 114
435 115
434 116
433 115
433 114
433 113
433 112
433 111
432 110
432 109
431 108
431 107
431 106
430 105
430 104
429 103
428 102
428 101
427 101
426 100
425 100
424 99
423 98
423 97
423 96
423 95
422 94
422 93
422 92
421 91
421 90
420 89
420 88
419 87
418 87
417 86
416 86
415 87
415 88
414 89
414 90
413 91
412 90
411 89
411 88
411 87
411 86
410 85
410 84
410 83
409 82
409 81
408 80
408 79
407 78
406 77
406 76
405 75
404 74
403 73
402 73
401 72
400 71
400 70
400 69
400 68
400 67
399 66
399 65
398 64
398 63
397 62
397 61
396 60
395 59
394 58
393 58
392 59
391 60
390 61
389 60
389 59
388 58
388 57
388 56
387 55
387 54
387 53
386 52
386 51
385 50
385 49
384 48
383 47
383 46
382 45
381 45
380 44
379 44
378 43
378 42
378 41
378 40
377 39
377 38
376 37
376 36
376 35
375 34
375 33
374 32
373 31
373 30
372 29
372 28
371 27
370 26
370 25
369 25
368 24
367 23
366 22
365 22
