159 1
158 2
157 3
156 4
155 5
154 6
153 7
152 8
151 9
150 9
149 10
148 11
147 11
146 12
145 12
144 13
143 14
142 14
141 14
141 15
140 16
139 17
138 17
137 18
136 18
135 18
135 19
134 20
134 21
133 22
132 22
131 23
131 24
130 25
129 25
128 26
127 27
126 28
125 29
125 30
124 31
123 31
123 32
122 33
122 34
122 35
121 36
121 37
120 38
119 39
118 40
117 41
117 42
116 43
115 44
114 45
113 46
113 47
112 48
111 49
110 50
110 51
110 52
109 53
109 54
109 55
108 56
108 57
107 58
107 59
107 60
107 61
106 62
106 63
105 64
105 65
105 66
104 67
105 68
105 69
104 70
103 71
103 72
103 73
103 74
103 75
103 76
102 77
102 78
101 79
100 78
99 77
98 76
97 75
96 74
95 74
94 74
93 73
92 73
91 72
90 72
89 72
88 71
87 71
86 70
85 69
84 69
83 68
82 67
81 66
80 66
79 66
78 65
77 65
76 65
75 65
74 64
73 63
72 63
71 62
70 62
69 62
68 61
67 61
66 61
65 60
64 59
63 59
62 58
61 58
60 58
59 58
58 58
57 57
56 57
55 57
54 57
53 57
52 56
51 56
50 56
49 56
48 55
47 55
46 55
45 55
44 56
43 55
42 55
41 55
40 55
39 55
38 55
37 55
36 55
35 55
34 55
33 55
32 55
31 55
30 56
29 56
28 56
27 56
26 56
25 56
24 56
23 56
22 57
21 57
20 57
19 57
18 57
17 57
16 57
15 57
14 57
13 57
12 57
11 57
10 57
9 57
8 57
7 57
6 57
5 57
4 57
3 57
2 57
1 57
1 58
2 58
3 59
3 60
4 61
5 62
6 63
7 63
8 64
9 65
9 66
10 67
11 68
12 69
12 70
13 71
14 72
14 73
15 74
16 75
16 76
17 77
18 78
18 79
19 80
19 81
20 82
20 83
21 84
22 85
22 86
23 87
24 88
24 89
25 90
26 91
27 92
28 93
29 94
30 95
31 96
32 97
33 98
33 99
34 100
35 101
36 102
37 103
38 104
39 105
40 106
41 107
42 107
43 108
44 109
45 110
46 111
47 112
48 112
49 112
50 113
51 114
52 115
53 115
54 116
55 116
56 117
57 117
58 118
59 119
60 119
61 120
62 120
63 121
64 121
65 122
66 122
67 122
68 122
69 123
70 123
71 124
72 124
73 125
74 125
75 125
76 126
77 126
78 126
79 127
80 128
81 128
82 128
83 128
84 129
85 129
86 130
87 130
88 130
89 131
90 131
91 132
92 132
93 132
94 133
95 133
96 133
97 134
98 134
99 134
100 134
101 135
102 135
103 135
104 135
105 135
106 135
107 135
108 135
109 135
110 134
111 134
112 134
113 133
114 132
115 131
115 130
116 129
117 130
117 131
117 132
118 133
118 134
119 135
119 136
119 137
119 138
120 139
120 140
120 141
121 142
121 143
121 144
122 145
122 146
122 147
123 148
123 149
123 150
124 151
124 152
125 153
125 154
125 155
126 156
126 157
127 158
127 159
127 160
128 161
128 162
129 163
129 164
130 165
130 166
131 167
131 168
132 169
132 170
133 171
133 172
134 173
135 174
135 175
136 176
137 177
137 178
138 179
139 180
140 181
141 182
142 183
143 184
144 185
145 186
146 187
147 188
148 189
147 190
146 190
145 189
144 189
143 188
142 188
141 188
140 187
139 186
138 186
137 186
136 185
135 185
134 185
133 184
132 184
131 183
130 183
129 183
128 183
127 183
126 182
125 182
124 182
123 182
122 182
121 182
120 182
119 182
118 183
117 183
116 183
115 183
114 183
113 183
112 184
111 184
110 184
109 185
108 185
107 185
106 185
105 186
104 186
103 187
102 187
101 188
100 188
99 189
98 189
97 190
96 190
95 191
94 192
93 192
92 193
91 194
90 194
89 194
88 195
87 196
86 196
85 197
84 198
83 199
82 199
81 200
80 201
79 201
78 202
77 203
76 204
75 205
74 206
73 207
72 208
71 208
70 209
69 210
69 211
68 212
67 213
66 214
65 215
65 216
64 217
63 218
62 219
61 220
60 221
59 222
58 223
57 224
56 225
55 225
55 226
54 227
53 228
53 229
52 230
51 231
51 232
50 233
49 234
49 235
48 236
47 237
47 238
46 239
45 240
45 241
45 242
44 243
44 244
43 245
42 246
41 247
41 248
41 249
40 250
40 251
39 252
39 253
38 254
37 255
36 256
36 257
36 258
35 259
34 260
33 261
33 262
32 263
32 264
31 265
31 266
30 267
30 268
30 269
29 270
29 271
29 272
28 273
27 273
27 274
26 275
26 276
26 277
25 278
25 279
24 280
24 281
23 282
23 283
23 284
22 285
22 286
21 287
21 288
20 289
20 290
19 291
19 292
18 293
18 294
17 295
17 296
17 297
16 298
16 299
15 300
15 301
15 302
14 303
13 304
12 305
11 306
11 307
10 308
9 309
8 310
7 311
6 312
5 313
5 314
4 315
3 316
2 316
1 317
1 318
1 319
1 320
2 320
3 319
4 319
5 318
6 318
7 318
8 317
9 317
10 317
11 317
12 316
13 316
14 316
15 316
16 315
17 315
18 315
19 315
20 315
21 315
22 314
23 314
24 314
25 314
26 313
27 314
28 314
29 313
30 313
31 313
32 313
33 313
34 313
35 313
36 313
37 312
38 312
39 312
40 312
41 312
42 311
43 311
44 311
45 311
46 311
47 310
48 310
49 310
50 310
51 310
52 310
53 310
54 309
55 309
56 309
57 309
58 308
59 308
60 308
61 308
62 308
63 307
64 307
65 307
66 307
67 306
68 306
69 305
70 305
71 304
72 304
73 304
74 303
75 303
76 302
77 302
78 302
79 301
80 301
81 300
82 299
83 299
84 298
85 297
86 296
87 296
88 296
89 295
90 294
91 294
92 294
93 293
94 292
95 291
96 290
97 289
98 288
99 287
100 286
101 285
102 285
103 284
104 283
105 282
106 282
107 281
108 281
109 281
110 280
110 279
111 278
112 278
113 277
114 276
115 276
116 275
117 274
118 273
119 272
120 272
121 271
122 270
123 269
124 269
125 268
125 267
126 266
127 265
128 264
128 263
129 262
130 261
131 260
132 259
133 258
134 257
135 256
135 255
136 254
137 254
138 253
139 252
139 251
140 250
141 249
142 248
143 247
144 246
145 245
145 244
146 243
147 242
148 241
149 240
149 239
150 238
151 237
151 236
152 235
152 234
153 233
153 232
154 231
154 230
155 229
155 228
156 227
157 226
157 225
158 224
158 223
159 222
159 221
160 220
160 219
161 218
161 217
161 216
162 215
162 214
162 213
162 212
163 211
163 210
163 209
163 208
163 207
163 206
163 205
162 204
163 203
164 202
165 202
166 203
167 203
168 204
169 205
170 206
171 206
172 207
173 208
174 208
175 209
176 210
177 211
178 211
179 212
180 213
181 213
182 214
183 215
184 215
185 216
186 217
187 217
188 218
189 219
190 219
191 220
192 220
193 221
194 222
195 222
196 223
197 223
198 224
199 224
200 225
201 226
202 226
203 227
204 227
205 228
206 228
207 229
208 229
209 230
210 230
211 231
212 231
213 232
214 232
215 233
216 233
217 234
216 235
215 235
214 235
213 234
212 234
211 234
210 234
209 234
208 234
207 233
206 233
205 233
204 234
203 234
202 234
201 234
200 234
199 234
198 235
197 235
196 235
195 235
194 235
193 236
192 236
191 237
190 237
189 237
188 238
187 238
186 238
185 239
184 239
183 240
182 240
181 240
180 241
179 241
178 242
177 242
176 242
175 243
174 244
173 244
172 245
171 246
170 247
169 247
168 248
167 249
166 250
165 250
164 251
163 252
162 253
161 253
160 254
159 255
158 256
157 256
156 257
155 258
154 258
153 259
152 260
151 260
150 261
149 262
148 262
147 263
146 264
145 265
144 266
143 267
142 268
141 269
140 270
139 271
138 272
137 273
136 274
135 275
134 276
133 277
132 278
131 279
130 280
129 281
128 282
128 283
127 284
126 285
126 286
125 287
125 288
124 289
123 290
123 291
122 292
122 293
121 294
120 295
119 296
119 297
118 298
118 299
118 300
118 301
117 302
116 303
115 304
115 305
114 306
113 307
113 308
113 309
112 310
112 311
111 312
111 313
110 314
110 315
109 316
109 317
108 318
108 319
107 320
107 321
106 322
106 323
105 324
105 325
105 326
104 327
104 328
103 329
103 330
103 331
103 332
103 333
103 334
102 335
102 336
102 337
101 338
101 339
100 340
100 341
100 342
100 343
100 344
99 345
99 346
99 347
98 348
98 349
98 350
98 351
98 352
98 353
98 354
97 355
97 356
97 357
97 358
97 359
97 360
96 361
96 362
96 363
96 364
96 365
96 366
96 367
95 368
95 369
94 370
94 371
94 372
94 373
93 374
93 375
93 376
92 377
92 378
92 379
92 380
91 381
91 382
90 383
90 384
89 385
88 386
88 387
87 388
86 389
86 390
85 391
84 392
83 393
82 394
81 395
81 396
82 395
83 395
84 394
85 393
86 392
87 391
88 391
89 390
90 389
91 388
92 387
93 387
94 386
95 386
96 385
97 384
98 384
99 383
100 382
101 382
102 382
103 381
104 381
105 380
106 380
107 380
108 380
109 379
110 379
111 378
112 378
113 378
114 377
115 377
116 377
117 376
118 376
119 376
120 376
121 375
122 374
123 374
124 374
125 374
126 374
127 374
128 373
129 372
130 372
131 371
132 371
133 371
134 370
135 370
136 370
137 369
138 368
139 368
140 367
141 367
142 366
143 365
144 365
145 364
146 364
147 364
148 363
149 363
150 363
151 362
152 362
153 361
154 360
155 360
156 360
157 360
158 359
159 359
160 358
161 359
162 358
163 357
164 356
165 356
166 355
167 354
168 354
169 353
170 353
171 353
172 352
173 351
174 351
175 350
176 349
177 349
178 348
179 347
180 347
181 346
182 345
183 344
184 344
185 343
186 342
187 341
188 340
189 339
190 338
190 337
191 336
192 335
193 334
194 333
195 332
195 331
196 330
197 329
198 328
199 327
199 326
200 325
201 324
202 323
203 322
204 321
205 320
206 319
207 319
207 318
208 317
208 316
209 315
210 314
210 313
211 312
211 311
212 310
213 309
214 308
214 307
215 306
216 305
217 304
217 303
218 302
219 301
220 300
221 299
222 298
222 297
223 296
224 295
225 294
225 293
226 292
227 291
227 290
228 289
228 288
229 287
230 286
230 285
231 284
232 283
232 282
232 281
233 280
234 279
235 278
235 277
236 276
236 275
237 274
238 273
239 272
239 271
239 270
240 269
240 268
241 267
241 266
242 265
242 264
243 263
243 262
243 261
244 260
244 259
244 258
244 257
244 256
244 255
244 254
244 253
244 252
244 251
244 250
243 249
243 248
242 247
243 246
244 246
245 247
246 247
247 248
248 248
249 248
250 249
251 249
252 250
253 250
254 251
255 251
256 251
257 252
258 252
259 253
260 253
261 254
262 254
263 254
264 255
265 255
266 256
267 256
268 257
269 257
270 258
271 258
272 258
273 259
274 259
275 260
276 260
277 261
278 261
279 262
280 262
281 262
282 263
283 263
284 264
285 264
286 264
287 265
288 265
289 266
290 266
291 267
292 267
293 267
294 268
295 268
296 269
297 269
298 269
299 270
300 270
301 271
302 271
303 271
304 272
305 272
306 272
307 273
308 273
309 274
310 275
311 275
312 275
313 276
312 277
311 277
310 277
309 277
308 277
307 277
306 276
305 276
304 276
303 276
302 276
301 276
300 276
299 276
298 276
297 276
296 276
295 276
294 276
293 276
292 276
291 276
290 276
289 277
288 277
287 277
286 278
285 278
284 278
283 278
282 278
281 278
280 279
279 279
278 280
277 280
276 280
275 280
274 281
273 282
272 282
271 283
270 284
269 285
268 286
267 286
266 287
265 288
264 288
263 289
262 290
261 291
260 292
259 293
258 294
257 295
257 296
256 297
255 298
254 298
254 299
253 300
252 301
251 302
251 303
250 304
249 305
249 306
248 307
247 308
247 309
246 310
246 311
245 312
244 313
244 314
243 315
242 316
242 317
241 318
240 319
240 320
239 321
238 322
237 323
237 324
236 325
236 326
235 327
234 328
233 329
233 330
232 331
232 332
231 333
231 334
230 335
230 336
229 337
229 338
229 339
228 340
228 341
228 342
227 343
227 344
226 345
226 346
226 347
226 348
226 349
225 350
225 351
225 352
224 353
224 354
224 355
224 356
224 357
223 358
223 359
223 360
223 361
223 362
223 363
223 364
223 365
223 366
223 367
223 368
222 369
222 370
222 371
222 372
222 373
222 374
222 375
222 376
222 377
222 378
221 379
221 380
221 381
221 382
221 383
220 384
220 385
220 386
220 387
220 388
220 389
219 390
220 391
220 392
219 393
219 394
218 395
218 396
217 397
217 398
217 399
217 400
217 401
216 402
216 403
216 404
216 405
216 406
215 407
215 408
214 409
214 410
213 411
213 412
212 413
212 414
211 415
210 416
209 417
208 418
207 419
206 420
205 421
204 422
204 423
203 424
202 425
201 426
200 427
200 428
199 429
200 429
201 428
202 427
203 427
204 426
205 425
206 425
207 424
208 423
209 423
210 422
211 421
212 420
213 420
214 419
215 418
216 418
217 417
218 416
219 415
220 415
221 415
222 414
223 414
224 414
225 413
226 413
227 413
228 412
229 411
230 411
231 411
232 411
233 410
234 410
235 410
236 409
237 409
238 409
239 409
240 408
241 408
242 408
243 407
244 407
245 407
246 406
247 406
248 405
249 405
250 405
251 405
252 404
253 404
254 403
255 403
256 403
257 402
258 401
259 401
260 400
261 400
262 399
263 399
264 398
265 398
266 397
267 396
268 396
269 395
270 394
271 394
272 393
273 392
274 391
275 391
276 390
277 389
278 388
279 388
280 387
280 386
281 385
281 384
282 383
283 382
283 381
284 380
285 379
286 378
287 377
288 376
288 375
289 374
290 373
291 372
292 371
292 370
293 369
294 368
295 367
296 366
296 365
297 364
298 363
298 362
299 361
300 360
300 359
301 358
301 357
302 356
302 355
303 354
304 353
304 352
305 351
305 350
306 349
306 348
307 347
308 346
309 345
309 344
309 343
310 342
311 341
312 340
312 339
313 338
313 337
314 336
314 335
315 334
315 333
316 332
317 331
317 330
318 329
319 328
320 327
320 326
321 325
321 324
322 323
322 322
323 321
323 320
324 319
324 318
325 317
325 316
326 315
326 314
327 313
327 312
327 311
327 310
327 309
328 308
328 307
328 306
328 305
328 304
328 303
329 302
329 301
329 300
329 299
329 298
329 297
329 296
329 295
329 294
329 293
329 292
329 291
329 290
328 289
328 288
328 287
328 286
327 285
327 284
326 283
326 282
327 281
328 281
329 282
330 282
331 282
332 283
333 283
334 283
335 283
336 284
337 284
338 285
339 285
340 285
341 286
342 286
343 286
344 287
345 287
346 288
347 288
348 288
349 288
350 289
351 289
352 290
353 290
354 290
355 291
356 291
357 291
358 292
359 292
360 292
361 293
362 293
363 294
364 294
365 294
366 295
367 295
368 295
369 296
370 296
371 296
372 297
373 297
374 298
375 298
376 298
377 299
378 299
379 299
380 300
381 300
382 300
383 301
384 301
385 302
386 302
387 302
388 303
389 303
390 303
391 304
392 304
393 305
394 305
395 305
396 305
397 306
398 306
399 307
399 308
399 309
398 310
397 311
397 312
396 313
395 314
394 314
393 313
393 312
392 311
391 310
390 310
389 310
388 309
387 309
386 309
385 309
384 309
383 309
382 309
381 309
380 309
379 309
378 309
377 310
376 310
375 310
374 310
373 310
372 311
371 311
370 311
369 312
368 312
367 313
366 314
365 315
364 315
363 316
362 317
361 317
360 318
359 319
358 320
357 321
356 322
356 323
355 324
354 325
353 325
352 326
351 327
350 328
349 329
348 329
347 330
347 331
346 332
346 333
345 334
345 335
344 336
344 337
343 338
343 339
342 340
341 341
341 342
340 343
340 344
339 345
339 346
338 347
338 348
338 349
337 350
337 351
337 352
337 353
337 354
336 355
336 356
335 357
335 358
335 359
335 360
335 361
334 362
334 363
333 364
333 365
333 366
333 367
332 368
332 369
332 370
332 371
331 372
331 373
331 374
331 375
330 376
330 377
330 378
330 379
330 380
330 381
330 382
330 383
330 384
330 385
329 386
329 387
329 388
329 389
329 390
329 391
330 392
330 393
330 394
330 395
330 396
330 397
330 398
330 399
330 400
330 401
330 402
330 403
330 404
330 405
331 406
331 407
331 408
331 409
332 410
332 411
332 412
333 413
334 414
334 415
334 416
335 417
335 418
335 419
336 420
337 421
337 422
338 423
338 424
338 425
339 426
340 427
340 428
340 429
341 430
341 431
342 432
342 433
342 434
343 435
343 436
344 437
344 438
344 439
345 440
345 441
345 442
345 443
345 444
345 445
345 446
345 447
345 448
345 449
345 450
345 451
345 452
345 453
345 454
345 455
345 456
345 457
345 458
345 459
345 460
344 461
344 462
344 463
345 462
345 461
346 460
346 459
347 458
347 457
347 456
348 455
348 454
349 453
349 452
349 451
350 450
350 449
351 448
351 447
351 446
351 445
352 444
352 443
353 442
353 441
354 440
355 439
355 438
356 437
356 436
357 435
358 434
359 433
360 432
361 431
361 430
362 429
363 428
364 427
365 426
366 426
367 425
368 424
369 423
370 423
371 422
372 421
373 420
374 419
375 419
376 418
377 417
378 416
379 415
380 414
381 413
382 412
383 411
384 410
384 409
385 408
386 407
386 406
387 405
388 404
388 403
389 402
390 401
390 400
390 399
391 398
391 397
392 396
392 395
393 394
393 393
394 392
394 391
395 390
395 389
396 388
396 387
397 386
397 385
398 384
398 383
398 382
399 381
399 380
399 379
400 378
400 377
400 376
401 375
401 374
401 373
402 372
402 371
402 370
402 369
403 368
403 367
404 366
404 365
404 364
404 363
404 362
404 361
404 360
405 359
405 358
405 357
406 356
406 355
406 354
406 353
407 352
407 351
408 350
408 349
408 348
409 347
409 346
409 345
410 344
410 343
410 342
410 341
410 340
410 339
411 338
411 337
411 336
412 335
412 334
412 333
412 332
412 331
412 330
413 329
413 328
413 327
413 326
412 325
412 324
412 323
412 322
412 321
411 320
411 319
411 318
410 317
410 316
409 315
409 314
408 313
408 312
407 311
408 310
409 310
410 311
411 311
412 311
413 312
414 312
415 312
416 312
417 313
418 313
419 314
420 314
421 314
422 315
423 315
424 315
425 316
426 316
427 316
428 317
429 317
430 317
431 318
432 318
433 319
434 319
435 319
436 320
437 320
438 320
439 321
440 321
441 321
442 322
443 322
444 322
445 323
446 323
447 324
448 324
449 324
450 325
451 325
452 325
453 326
454 326
455 326
456 327
457 327
458 328
459 328
460 328
461 329
462 329
463 330
464 330
465 330
466 331
467 331
468 331
469 332
470 332
471 333
472 333
473 334
474 335
474 336
473 337
472 337
471 337
470 337
469 337
468 337
467 338
466 338
465 338
464 338
463 338
462 339
461 339
460 339
459 339
458 339
457 339
456 339
455 339
454 340
453 340
452 340
451 340
450 340
449 341
448 341
447 341
446 342
445 343
444 343
443 343
442 343
441 344
440 344
439 345
438 346
437 346
436 346
435 347
434 348
433 348
432 349
431 350
430 351
429 352
428 353
427 354
427 355
426 356
425 357
424 358
424 359
423 360
422 361
422 362
421 363
421 364
420 365
420 366
419 367
418 368
417 369
417 370
416 371
416 372
415 373
415 374
415 375
414 376
414 377
414 378
414 379
413 380
413 381
413 382
412 383
412 384
411 385
411 386
411 387
411 388
411 389
410 390
410 391
410 392
410 393
409 394
409 395
409 396
408 397
408 398
408 399
408 400
407 401
407 402
407 403
407 404
407 405
407 406
407 407
406 408
406 409
406 410
406 411
406 412
406 413
406 414
406 415
405 416
405 417
405 418
405 419
405 420
405 421
405 422
405 423
405 424
405 425
405 426
405 427
405 428
405 429
406 430
406 431
406 432
406 433
406 434
406 435
406 436
406 437
406 438
406 439
407 440
407 441
407 442
407 443
407 444
407 445
407 446
407 447
407 448
407 449
407 450
407 451
407 452
408 453
408 454
408 455
408 456
408 457
408 458
409 459
409 460
409 461
409 462
409 463
410 464
410 465
410 466
410 467
409 468
410 469
410 470
410 471
410 472
411 473
411 474
411 475
411 476
412 477
412 478
412 479
412 480
413 481
413 482
412 483
412 484
412 485
412 486
412 487
411 488
411 489
411 490
411 491
410 492
410 493
410 494
409 495
409 496
409 497
409 498
409 499
409 500
409 501
409 502
410 503
410 504
410 503
409 502
409 501
410 500
410 499
411 498
411 497
412 496
412 495
413 494
414 493
415 492
415 491
416 490
417 489
417 488
418 487
419 486
419 485
420 484
421 483
422 483
422 482
423 481
424 480
425 479
426 478
427 477
428 477
429 476
430 475
431 475
432 474
433 473
434 472
435 472
436 471
437 470
438 470
439 469
440 468
441 467
442 466
443 465
444 464
445 463
446 462
447 462
447 461
448 460
449 459
450 458
451 457
452 456
453 455
454 454
455 453
456 453
456 452
457 451
458 450
459 449
460 448
461 447
461 446
462 445
462 444
463 443
463 442
464 441
465 440
466 439
466 438
467 437
468 437
468 436
468 435
469 434
469 433
470 432
470 431
471 430
471 429
472 428
473 427
474 426
474 425
475 424
475 423
475 422
476 421
476 420
477 419
477 418
478 417
478 416
478 415
478 414
479 413
479 412
480 411
480 410
481 409
481 408
481 407
482 406
482 405
482 404
482 403
482 402
482 401
483 400
483 399
484 398
484 397
484 396
484 395
485 394
485 393
486 392
486 391
486 390
486 389
486 388
486 387
486 386
487 385
487 384
487 383
487 382
488 381
488 380
488 379
488 378
489 377
489 376
489 375
489 374
489 373
489 372
489 371
489 370
490 369
489 368
489 367
490 366
490 365
490 364
490 363
490 362
490 361
490 360
490 359
490 358
491 357
491 356
491 355
491 354
491 353
490 352
490 351
490 350
490 349
489 348
489 347
488 346
488 345
487 344
487 343
486 342
486 341
485 340
484 339
485 338
486 338
487 339
488 339
489 339
490 340
491 340
492 340
493 340
494 341
495 341
496 342
497 342
498 342
499 343
500 343
501 344
502 344
503 344
504 345
505 345
506 346
507 346
508 346
509 347
510 347
511 348
512 348
513 348
514 349
515 349
516 350
517 350
518 350
519 351
520 351
521 352
522 352
523 352
524 353
525 353
526 353
527 354
528 354
529 355
530 355
531 356
532 356
533 356
534 357
535 357
536 358
537 358
538 358
539 359
540 359
541 360
542 360
543 361
544 361
545 362
546 362
547 362
548 363
549 363
550 364
551 364
552 364
553 365
553 366
554 367
554 368
553 369
552 370
551 370
550 370
549 370
548 370
547 369
546 369
545 369
544 369
543 369
542 369
541 369
540 369
539 368
538 368
537 368
536 369
535 369
534 369
533 368
532 368
531 368
530 369
529 369
528 369
527 369
526 370
525 370
524 370
523 371
522 372
521 372
520 372
519 373
518 373
517 374
516 375
515 375
514 376
513 377
512 377
511 378
510 379
509 380
508 381
507 382
506 383
505 384
504 385
504 386
503 387
502 388
501 389
500 390
499 391
499 392
498 393
498 394
497 395
497 396
497 397
496 398
496 399
496 400
495 401
495 402
495 403
494 404
493 405
493 406
492 407
492 408
492 409
491 410
491 411
491 412
491 413
491 414
490 415
490 416
490 417
490 418
490 419
489 420
489 421
489 422
489 423
489 424
489 425
488 426
488 427
488 428
488 429
488 430
488 431
488 432
488 433
488 434
488 435
488 436
488 437
488 438
488 439
488 440
488 441
488 442
488 443
488 444
488 445
488 446
488 447
488 448
488 449
488 450
488 451
488 452
488 453
488 454
489 455
489 456
489 457
489 458
489 459
489 460
490 461
490 462
490 463
490 464
490 465
490 466
490 467
490 468
490 469
491 470
491 471
491 472
492 473
492 474
493 475
493 476
493 477
493 478
494 479
494 480
494 481
495 482
495 483
495 484
496 485
496 486
496 487
497 488
497 489
497 490
498 491
499 492
500 493
500 494
501 495
501 496
501 497
501 498
502 499
502 500
502 501
503 502
503 503
503 504
503 505
504 506
504 507
504 508
504 509
504 510
504 511
504 512
504 513
504 514
504 515
504 516
504 517
504 518
504 519
505 520
505 521
505 522
505 523
505 524
505 525
505 526
504 527
503 527
504 527
505 527
506 526
506 525
506 524
507 523
507 522
507 521
508 520
508 519
508 518
508 517
509 516
509 515
509 514
510 513
510 512
511 511
511 510
512 509
513 508
513 507
514 506
515 505
516 505
516 504
517 503
518 502
519 502
520 501
520 500
521 499
522 498
523 497
524 496
525 495
526 494
527 493
527 492
528 491
529 490
530 490
530 489
531 488
532 487
532 486
533 485
534 484
535 483
536 482
536 481
537 480
538 480
539 479
539 478
539 477
540 476
541 475
541 474
541 473
542 472
543 471
544 470
544 469
545 468
546 468
546 467
546 466
546 465
547 464
547 463
547 462
548 461
549 461
549 460
550 459
551 458
551 457
552 456
552 455
552 454
552 453
553 452
554 451
555 450
555 449
556 448
556 447
556 446
557 445
558 444
558 443
558 442
559 441
559 440
559 439
560 438
560 437
561 436
561 435
562 434
562 433
562 432
562 431
563 430
563 429
563 428
563 427
563 426
563 425
564 424
564 423
564 422
565 421
565 420
565 419
566 418
566 417
566 416
566 415
566 414
567 413
567 412
567 411
567 410
567 409
567 408
568 407
568 406
568 405
568 404
568 403
568 402
568 401
568 400
568 399
567 398
567 397
567 396
567 395
567 394
568 393
568 392
568 391
568 390
568 389
568 388
568 387
567 386
567 385
567 384
567 383
567 382
566 381
566 380
565 379
564 378
564 377
564 376
564 375
563 374
563 373
563 372
562 371
563 370
564 370
565 370
566 371
567 371
568 372
569 372
570 372
571 373
572 373
573 374
574 374
575 374
576 375
577 375
578 376
579 376
580 377
581 377
582 378
583 378
584 378
585 379
586 379
587 380
588 380
589 381
590 381
591 382
592 382
593 382
594 383
595 383
596 384
597 384
598 385
599 385
600 386
601 386
602 387
603 387
604 387
605 388
606 388
607 389
608 389
609 390
610 390
611 391
612 391
613 392
614 392
615 393
616 393
617 394
618 394
619 395
620 395
621 395
622 396
623 396
624 397
625 398
626 398
627 398
628 399
629 400
630 400
631 401
632 401
633 401
634 402
635 402
636 403
637 403
638 404
639 404
640 405
641 406
642 406
643 406
644 407
645 408
645 409
645 410
644 411
643 411
642 411
641 410
640 409
639 409
638 408
637 408
636 408
635 408
634 408
633 408
632 407
631 407
630 407
629 407
628 407
627 407
626 407
625 407
624 407
623 407
622 407
621 407
620 408
619 408
618 408
617 408
616 409
615 409
614 409
613 410
612 410
611 410
610 411
609 411
608 412
607 412
606 413
605 414
604 415
603 416
602 416
601 417
600 418
599 418
598 419
597 420
596 421
595 422
594 423
593 424
593 425
593 426
592 427
591 428
590 428
589 429
588 430
588 431
587 432
587 433
586 434
586 435
585 436
585 437
585 438
584 439
584 440
583 441
583 442
583 443
583 444
582 445
582 446
582 447
582 448
582 449
582 450
581 451
581 452
581 453
581 454
581 455
581 456
581 457
581 458
581 459
581 460
582 461
582 462
582 463
582 464
582 465
582 466
582 467
582 468
582 469
582 470
582 471
582 472
582 473
583 474
583 475
583 476
583 477
583 478
583 479
583 480
584 481
584 482
584 483
584 484
584 485
585 486
585 487
585 488
585 489
585 490
586 491
586 492
586 493
587 494
587 495
588 496
588 497
588 498
588 499
589 500
589 501
589 502
589 503
590 504
590 505
591 506
591 507
591 508
592 509
592 510
592 511
593 512
593 513
594 514
594 515
595 516
596 517
596 518
597 519
598 520
598 521
599 522
599 523
599 524
600 525
600 526
600 527
600 528
601 529
601 530
601 531
601 532
601 533
601 534
601 535
601 536
601 537
601 538
601 539
601 540
601 541
601 542
601 543
602 544
603 545
602 544
602 543
603 542
603 541
603 540
603 539
603 538
603 537
604 536
604 535
604 534
605 533
605 532
605 531
606 530
607 529
607 528
608 527
608 526
609 525
610 524
611 523
612 522
613 521
614 520
615 520
616 519
617 518
618 517
619 516
620 515
621 515
622 514
623 513
624 512
624 511
625 510
626 509
627 508
628 507
628 506
629 505
630 504
631 503
632 502
633 501
634 500
634 499
635 498
636 497
637 496
638 495
638 494
639 493
640 492
641 491
641 490
642 489
643 488
643 487
644 486
644 485
644 484
645 483
646 482
646 481
647 480
647 479
647 478
648 477
648 476
649 475
650 474
650 473
650 472
650 471
651 470
651 469
651 468
652 467
652 466
652 465
653 464
653 463
653 462
654 461
654 460
654 459
655 458
655 457
655 456
655 455
655 454
656 453
656 452
656 451
656 450
657 449
657 448
657 447
657 446
657 445
657 444
658 443
658 442
658 441
658 440
658 439
658 438
658 437
658 436
658 435
657 434
657 433
657 432
657 431
657 430
657 429
657 428
657 427
657 426
657 425
657 424
656 423
656 422
656 421
655 420
655 419
654 418
654 417
653 416
653 415
653 414
652 413
653 412
654 412
655 412
656 413
657 413
658 414
659 414
660 415
661 415
662 415
663 416
664 416
665 417
666 417
667 418
668 418
669 419
670 419
671 420
672 420
673 421
674 421
675 422
676 422
677 423
678 423
679 424
680 424
681 425
682 425
683 425
684 426
685 426
686 427
687 427
688 428
689 428
690 429
691 429
692 430
693 430
694 431
695 431
696 432
697 432
698 433
699 433
700 434
701 434
702 435
703 435
704 436
705 436
706 437
707 437
708 438
709 438
710 439
711 439
712 440
713 440
714 441
715 441
716 442
717 442
718 442
719 443
720 443
721 444
722 444
723 445
724 445
725 446
726 446
727 447
728 447
729 448
730 448
731 449
732 449
733 450
734 451
735 451
736 451
737 452
738 453
739 453
740 454
741 455
741 456
740 457
739 457
738 457
737 456
736 455
735 455
734 455
733 455
732 455
731 455
730 455
729 455
728 455
727 455
726 455
725 455
724 455
723 455
722 456
721 456
720 457
719 457
718 457
717 458
716 458
715 458
714 459
713 460
712 460
711 461
710 462
709 463
708 463
708 464
707 465
706 465
705 466
705 467
704 468
704 469
703 470
702 471
702 472
702 473
701 474
701 475
701 476
700 477
700 478
700 479
700 480
699 481
699 482
699 483
699 484
698 485
698 486
698 487
698 488
698 489
698 490
697 491
697 492
697 493
697 494
697 495
697 496
697 497
696 498
696 499
697 500
697 501
696 502
696 503
697 504
697 505
697 506
697 507
698 508
698 509
698 510
698 511
698 512
699 513
699 514
699 515
699 516
699 517
700 518
700 519
700 520
700 521
700 522
701 523
702 524
702 525
703 526
703 527
704 528
704 529
705 530
705 531
706 532
706 533
707 534
708 535
708 536
709 537
710 538
710 539
711 540
711 541
712 542
713 543
713 544
714 545
714 546
715 547
716 548
717 549
717 550
718 550
719 550
720 550
721 550
722 550
723 550
723 549
724 548
724 547
725 546
725 545
726 544
727 543
727 542
728 541
729 540
730 539
731 539
732 538
732 537
733 536
733 535
734 534
735 534
735 533
736 532
736 531
737 530
738 529
739 529
739 528
740 527
741 526
741 525
742 524
743 523
744 522
745 521
745 520
746 519
747 518
747 517
748 516
748 515
749 514
749 513
750 512
750 511
750 510
751 509
751 508
751 507
751 506
752 505
752 504
752 503
752 502
752 501
753 500
753 499
753 498
753 497
753 496
753 495
754 494
754 493
754 492
754 491
754 490
754 489
755 488
755 487
755 486
755 485
755 484
755 483
755 482
756 481
756 480
756 479
756 478
756 477
756 476
756 475
755 474
755 473
755 472
755 471
755 470
754 469
754 468
753 467
753 466
752 465
752 464
751 463
751 462
750 461
750 460
751 459
752 460
753 460
754 460
755 461
756 461
757 462
758 462
759 463
760 463
761 464
762 464
763 465
764 465
765 466
766 466
767 466
768 467
769 467
770 468
771 468
772 469
773 469
774 469
775 470
776 470
777 471
778 471
779 472
780 473
781 473
782 474
783 474
784 474
785 475
786 475
787 476
788 476
789 477
790 477
791 478
792 478
793 479
794 479
795 480
796 480
797 481
798 481
799 481
800 482
800 481
800 480
800 479
800 478
800 477
799 476
798 476
797 475
796 475
795 474
794 474
793 473
792 473
791 472
790 472
789 471
788 471
787 471
786 470
785 470
784 469
783 469
782 468
781 468
780 467
779 467
778 466
777 466
776 465
775 465
774 464
773 464
772 463
771 463
770 462
769 462
768 461
767 461
766 460
765 460
764 460
763 459
762 459
761 458
760 457
759 457
758 456
759 455
760 455
761 454
762 454
763 454
764 453
765 453
766 453
767 452
768 452
769 451
770 450
771 450
772 449
773 448
774 448
775 447
775 446
776 445
777 444
778 443
779 443
780 442
781 441
782 440
783 439
784 438
785 437
786 437
787 436
788 436
788 435
789 434
790 433
791 432
791 431
792 430
793 429
794 428
795 427
796 426
797 425
798 424
799 423
799 422
800 421
800 420
800 419
800 418
800 417
800 416
800 415
800 414
800 413
800 412
800 411
800 410
800 409
800 408
800 407
800 406
800 405
800 404
800 403
800 402
800 401
800 400
800 399
800 398
800 397
800 396
800 395
800 394
800 393
800 392
800 391
800 390
800 389
800 388
800 387
800 386
800 385
800 384
800 383
800 382
800 381
800 380
800 379
800 378
800 377
799 377
798 377
797 377
796 377
795 377
794 378
793 378
792 378
791 378
790 378
789 379
788 379
787 379
786 379
785 379
784 379
783 379
782 380
781 380
780 380
779 380
778 380
777 381
776 381
775 381
774 381
773 382
772 382
771 382
770 383
769 383
768 384
767 384
766 385
765 385
764 386
763 387
762 387
761 388
760 388
759 389
758 389
757 390
756 391
755 391
754 392
753 393
752 394
751 395
750 396
749 397
748 398
747 399
747 400
746 401
745 402
744 403
743 404
743 405
742 406
741 407
741 408
740 409
740 410
739 411
739 412
739 413
738 414
738 415
738 416
737 417
737 418
737 419
737 420
737 421
736 422
736 423
736 424
736 425
736 426
736 427
736 428
736 429
736 430
736 431
736 432
737 433
737 434
737 435
737 436
738 437
738 438
738 439
738 440
739 441
739 442
740 443
741 444
742 445
743 446
744 446
745 447
744 448
743 449
742 449
741 449
740 448
739 448
738 448
737 447
736 447
735 446
734 446
733 445
732 445
731 444
730 444
729 443
728 443
727 443
726 442
725 442
724 441
723 441
722 440
721 440
720 439
719 439
718 438
717 438
716 437
715 437
714 436
713 436
712 435
711 435
710 435
709 434
708 433
707 433
706 433
705 432
704 432
703 431
702 431
701 430
700 430
699 429
698 429
697 428
696 428
695 427
694 427
693 426
692 426
691 425
690 425
689 425
688 424
687 423
686 423
685 423
684 422
683 421
682 421
681 421
680 420
679 420
678 419
677 419
676 418
675 418
674 417
673 417
672 416
671 416
670 415
669 415
668 414
667 414
666 413
665 413
664 412
663 412
662 411
661 411
660 411
659 410
658 410
657 409
656 409
655 408
654 408
653 407
652 407
651 406
650 406
649 405
648 405
647 404
646 404
645 403
644 402
645 401
646 401
647 400
648 400
649 399
650 398
651 398
652 397
653 397
654 396
655 396
656 395
657 395
658 394
659 394
660 393
661 393
662 392
663 392
664 391
665 391
666 390
667 389
668 389
669 388
670 388
671 387
672 387
673 386
674 385
675 385
676 384
677 384
678 384
679 383
680 383
681 382
682 382
683 381
684 381
685 380
686 380
687 380
688 379
689 379
690 378
691 378
692 377
693 377
694 376
695 375
696 375
697 374
698 373
698 372
699 371
700 370
701 369
702 368
703 367
703 366
704 365
705 364
705 363
706 362
707 361
708 361
708 360
709 359
710 358
711 357
712 356
713 355
714 354
715 354
715 353
716 352
717 352
717 351
717 350
718 349
719 348
719 347
720 346
721 345
722 344
723 343
723 342
724 341
725 340
725 339
726 338
727 337
727 336
728 335
728 334
729 333
729 332
730 331
730 330
731 329
731 328
732 327
732 326
733 325
733 324
733 323
734 322
735 321
735 320
735 319
735 318
736 317
736 316
737 315
737 314
737 313
738 312
739 311
739 310
740 309
740 308
741 307
741 306
742 305
743 304
744 305
745 306
745 305
746 304
746 303
746 302
746 301
746 300
745 300
744 299
743 300
742 300
741 300
740 301
739 301
738 302
737 302
736 302
735 303
734 303
733 303
732 303
731 303
730 302
729 302
728 302
727 302
726 302
725 302
724 302
723 302
722 302
721 301
720 301
719 301
718 302
717 302
716 302
715 302
714 302
713 302
712 302
711 302
710 302
709 302
708 303
707 303
706 303
705 303
704 303
703 303
702 303
701 303
700 303
699 303
698 304
697 304
696 304
695 304
694 304
693 304
692 305
691 305
690 304
689 305
688 305
687 306
686 306
685 306
684 306
683 307
682 307
681 307
680 307
679 308
678 308
677 308
676 309
675 309
674 309
673 310
672 311
671 311
670 312
669 312
668 313
667 313
666 314
665 314
664 314
663 315
662 315
661 316
660 317
659 318
658 318
657 318
656 319
655 319
654 320
653 321
652 321
651 322
650 322
649 322
648 323
647 324
646 325
645 326
644 327
643 328
642 329
642 330
641 331
641 332
640 333
639 333
639 334
638 335
637 336
636 337
635 338
635 339
634 340
634 341
633 342
632 343
632 344
631 345
631 346
630 347
630 348
630 349
630 350
630 351
629 352
629 353
629 354
629 355
628 356
628 357
628 358
628 359
628 360
627 361
627 362
627 363
627 364
627 365
627 366
627 367
627 368
627 369
628 370
628 371
628 372
628 373
628 374
628 375
628 376
629 377
629 378
630 379
630 380
630 381
631 382
631 383
632 384
632 385
633 386
633 387
634 388
634 389
635 390
635 391
636 392
637 393
637 394
638 395
638 396
638 397
638 398
637 399
636 399
635 399
634 398
633 398
632 397
631 397
630 396
629 396
628 396
627 395
626 395
625 394
624 394
623 393
622 393
621 392
620 392
619 391
618 391
617 390
616 390
615 389
614 389
613 388
612 388
611 388
610 387
609 386
608 386
607 386
606 385
605 385
604 384
603 384
602 383
601 383
600 382
599 382
598 382
597 381
596 381
595 380
594 380
593 379
592 379
591 378
590 378
589 377
588 377
587 377
586 376
585 376
584 375
583 375
582 374
581 374
580 373
579 373
578 372
577 372
576 372
575 371
574 371
573 370
572 370
571 369
570 369
569 369
568 368
567 368
566 367
565 367
564 366
563 366
562 365
561 365
560 364
559 364
558 364
557 363
556 363
555 362
554 361
554 360
555 359
556 359
557 359
558 358
559 358
560 357
561 356
562 356
563 356
564 355
565 355
566 355
567 354
568 353
569 352
570 352
571 351
572 350
573 349
574 348
575 347
576 346
576 345
577 344
578 343
579 342
580 341
581 340
582 339
583 338
584 337
585 336
586 335
586 334
587 333
588 332
588 331
589 330
590 329
591 328
592 327
592 326
593 325
594 324
595 323
596 322
596 321
597 320
598 319
598 318
599 317
599 316
600 315
601 314
602 313
602 312
603 311
603 310
604 309
605 308
606 307
606 306
607 305
608 304
609 303
610 302
610 301
611 300
611 299
612 298
612 297
613 296
614 295
615 294
615 293
616 292
616 291
617 290
618 289
618 288
618 287
619 286
620 285
620 284
620 283
621 282
621 281
621 280
622 279
622 278
623 277
623 276
623 275
623 274
624 273
624 272
624 271
624 270
624 269
625 268
625 267
625 266
625 265
625 264
625 263
625 262
626 261
626 260
626 259
626 258
626 257
626 256
626 255
626 254
626 253
626 252
626 251
626 250
626 249
627 248
627 247
627 246
627 245
627 244
627 243
627 242
627 241
627 240
627 239
627 238
627 237
627 236
628 235
628 234
628 233
628 232
629 231
629 230
630 229
630 228
631 227
631 226
632 225
633 224
633 223
634 222
635 221
636 220
637 219
637 218
638 217
639 217
640 216
641 215
640 215
639 215
638 216
637 217
636 217
635 218
634 219
633 220
632 221
631 222
630 223
629 224
628 224
627 225
626 226
625 227
624 227
623 228
622 229
621 229
620 230
619 230
618 231
617 231
616 231
615 232
614 232
613 233
612 233
611 234
610 234
609 235
608 235
607 235
606 235
605 236
604 236
603 236
602 236
601 237
600 237
599 237
598 238
597 238
596 239
595 239
594 240
593 240
592 240
591 241
590 241
589 242
588 242
587 242
586 243
585 243
584 243
583 244
582 245
581 245
580 246
579 246
578 247
577 247
576 248
575 249
574 250
573 250
572 251
571 252
570 252
569 253
568 254
567 255
566 256
565 257
564 258
563 259
562 260
561 260
560 261
559 262
558 263
557 264
556 265
555 266
554 267
553 268
552 269
551 270
551 271
550 272
549 273
548 274
548 275
547 276
547 277
546 278
546 279
546 280
545 281
544 282
544 283
543 284
542 285
541 286
540 287
540 288
539 289
539 290
538 291
538 292
538 293
538 294
537 295
537 296
537 297
536 298
535 299
535 300
535 301
535 302
535 303
534 304
534 305
534 306
534 307
533 308
533 309
533 310
533 311
533 312
533 313
533 314
532 315
532 316
532 317
532 318
532 319
531 320
532 321
532 322
532 323
532 324
532 325
532 326
532 327
532 328
532 329
532 330
533 331
533 332
533 333
534 334
534 335
534 336
534 337
535 338
535 339
536 340
536 341
537 342
537 343
538 344
538 345
539 346
540 347
540 348
541 349
542 350
542 351
543 352
544 353
545 354
545 355
545 356
544 357
543 357
542 357
541 357
540 356
539 356
538 355
537 355
536 355
535 354
534 354
533 353
532 353
531 353
530 352
529 352
528 351
527 351
526 351
525 350
524 350
523 350
522 349
521 349
520 348
519 348
518 347
517 347
516 347
515 346
514 346
513 345
512 345
511 345
510 344
509 344
508 343
507 343
506 343
505 342
504 342
503 341
502 341
501 341
500 340
499 340
498 339
497 339
496 339
495 338
494 338
493 338
492 337
491 337
490 337
489 336
488 336
487 335
486 335
485 334
484 334
483 334
482 333
481 333
480 332
479 332
478 332
477 331
476 331
475 330
474 330
473 330
472 329
471 328
472 327
473 327
474 326
475 326
476 325
477 325
478 324
479 324
480 323
480 322
481 321
482 320
483 319
484 318
485 317
486 316
487 315
488 314
488 313
489 312
490 311
490 310
491 309
492 308
493 307
493 306
494 305
495 304
495 303
496 302
496 301
497 300
497 299
498 298
498 297
499 296
499 295
500 294
500 293
501 292
501 291
502 290
502 289
502 288
503 287
503 286
504 285
504 284
505 283
505 282
505 281
506 280
506 279
506 278
507 277
507 276
507 275
508 274
508 273
508 272
509 271
509 270
509 269
510 268
510 267
511 266
511 265
512 264
512 263
512 262
512 261
513 260
513 259
513 258
513 257
514 256
514 255
514 254
514 253
514 252
515 251
515 250
516 249
516 248
516 247
516 246
516 245
516 244
516 243
516 242
517 241
517 240
517 239
518 238
518 237
518 236
518 235
518 234
518 233
518 232
519 231
519 230
519 229
519 228
519 227
519 226
519 225
519 224
519 223
519 222
519 221
519 220
520 219
520 218
519 217
519 216
519 215
519 214
520 213
520 212
520 211
520 210
520 209
520 208
520 207
519 206
519 205
519 204
519 203
519 202
519 201
519 200
519 199
518 198
518 197
518 196
518 195
518 194
518 193
518 192
518 191
518 190
518 189
517 188
517 187
517 186
517 185
517 184
517 183
517 182
517 181
517 180
517 179
517 178
517 177
518 176
518 175
518 174
518 173
518 172
518 171
518 170
519 169
519 168
519 167
519 166
520 165
520 164
521 163
522 163
522 162
522 161
522 160
522 159
521 159
520 160
519 161
519 162
518 163
518 164
517 165
516 166
515 167
514 168
513 169
512 170
511 171
510 171
509 172
508 172
507 173
506 174
505 174
504 175
503 175
502 176
501 176
500 177
499 177
498 178
497 178
496 179
495 180
494 180
493 180
492 181
491 182
490 183
489 184
488 185
487 186
486 187
485 187
484 188
483 189
482 189
481 190
480 191
479 192
478 192
477 193
476 194
475 195
474 196
473 197
472 198
471 199
470 200
470 201
469 202
468 203
467 204
466 205
465 206
464 207
464 208
463 209
462 210
461 211
460 212
459 213
458 214
458 215
457 216
456 217
456 218
455 219
454 220
453 221
453 222
452 223
451 224
451 225
450 226
449 227
449 228
448 229
447 230
447 231
446 232
446 233
445 234
445 235
444 236
443 237
443 238
442 239
441 240
441 241
441 242
440 243
440 244
439 245
439 246
439 247
438 248
438 249
438 250
437 251
437 252
437 253
436 254
436 255
436 256
436 257
436 258
435 259
435 260
435 261
435 262
435 263
435 264
435 265
435 266
435 267
435 268
434 269
434 270
434 271
434 272
434 273
434 274
434 275
434 276
434 277
434 278
434 279
434 280
434 281
435 282
435 283
435 284
435 285
436 286
436 287
436 288
436 289
437 290
437 291
437 292
437 293
438 294
438 295
438 296
439 297
439 298
440 299
440 300
441 301
441 302
442 303
443 304
444 305
444 306
445 307
446 308
447 309
448 310
449 311
449 312
450 313
451 314
452 315
453 315
454 316
455 317
455 318
456 318
457 319
458 320
459 321
460 322
461 322
462 322
463 323
464 324
463 325
462 325
461 325
460 324
459 324
458 324
457 324
456 323
455 323
454 323
453 323
452 322
451 322
450 322
449 321
448 321
447 321
446 320
445 320
444 320
443 319
442 319
441 318
440 318
439 318
438 317
437 317
436 317
435 317
434 316
433 316
432 315
431 315
430 315
429 314
428 314
427 314
426 313
425 313
424 313
423 312
422 312
421 312
420 311
419 311
418 311
417 310
416 310
415 309
414 309
413 309
412 308
411 308
410 308
409 307
408 307
407 307
406 306
405 306
404 305
403 305
402 305
401 304
400 303
401 302
402 302
403 301
404 300
405 299
406 299
407 298
408 297
409 296
410 295
411 294
412 293
413 292
414 291
414 290
415 289
415 288
415 287
416 286
416 285
417 284
417 283
418 282
418 281
418 280
419 279
419 278
419 277
420 276
420 275
420 274
421 273
421 272
421 271
421 270
421 269
421 268
422 267
422 266
422 265
422 264
422 263
422 262
423 261
423 260
423 259
423 258
423 257
423 256
424 255
424 254
424 253
424 252
424 251
425 250
425 249
425 248
425 247
424 246
424 245
423 244
423 243
423 242
422 241
421 240
420 240
419 240
418 239
418 238
419 237
419 236
419 235
418 234
418 233
417 232
416 231
415 231
414 231
413 232
412 232
411 232
410 232
409 233
408 233
407 233
406 232
405 232
404 231
405 230
406 229
407 228
408 227
409 226
409 225
409 224
410 223
411 223
412 222
413 221
414 220
414 219
414 218
414 217
415 216
415 215
415 214
414 213
414 212
414 211
414 210
413 210
412 210
411 209
410 208
409 207
409 206
409 205
409 204
409 203
409 202
408 201
408 200
408 199
408 198
408 197
407 196
407 195
406 194
405 193
405 192
405 191
405 190
404 189
404 188
404 187
404 186
403 185
403 184
403 183
402 182
401 181
400 181
399 180
398 179
397 178
396 177
396 176
395 175
394 174
393 173
392 172
391 171
390 171
389 170
388 171
387 171
386 172
385 172
384 173
384 174
383 175
382 176
381 176
380 177
379 178
378 179
378 180
377 181
376 181
376 182
375 183
374 184
374 185
373 186
373 187
372 188
371 189
371 190
371 191
370 192
370 193
369 194
369 195
369 196
368 197
368 198
367 199
367 200
367 201
367 202
366 203
365 204
365 205
365 206
365 207
364 208
364 209
364 210
364 211
363 212
363 213
363 214
363 215
363 216
362 217
362 218
362 219
361 220
361 221
361 222
361 223
361 224
360 225
360 226
360 227
360 228
359 229
359 230
358 231
358 232
358 233
358 234
358 235
357 236
357 237
357 238
357 239
357 240
357 241
357 242
357 243
357 244
357 245
357 246
357 247
357 248
357 249
357 250
356 251
356 252
357 253
357 254
357 255
357 256
358 257
358 258
358 259
358 260
358 261
359 262
359 263
359 264
359 265
359 266
359 267
359 268
360 269
360 270
360 271
360 272
361 273
361 274
362 275
363 276
363 277
364 278
364 279
365 280
365 281
366 282
367 283
367 284
368 285
369 286
370 287
371 288
372 288
373 289
374 290
375 290
376 291
377 292
378 292
379 293
380 293
381 294
382 294
383 294
384 294
385 293
386 294
387 294
388 295
389 296
389 297
389 298
388 299
387 299
386 299
385 299
384 298
383 298
382 298
381 297
380 297
379 297
378 296
377 296
376 296
375 295
374 295
373 295
372 294
371 294
370 294
369 293
368 293
367 293
366 292
365 292
364 291
363 291
362 291
361 290
360 290
359 290
358 289
357 289
356 289
355 288
354 288
353 288
352 287
351 287
350 287
349 286
348 286
347 285
346 285
345 285
344 284
343 284
342 284
341 283
340 283
339 283
338 282
337 282
336 281
335 281
334 281
333 280
332 280
331 280
330 279
329 279
328 278
327 278
326 277
325 277
324 276
325 275
326 274
327 274
328 274
329 273
330 273
331 272
332 272
333 271
334 270
335 269
336 268
337 267
338 266
338 265
339 264
340 263
341 262
341 261
342 260
342 259
343 258
343 257
343 256
344 255
344 254
344 253
344 252
345 251
345 250
345 249
346 248
346 247
347 246
347 245
347 244
348 243
348 242
349 241
349 240
349 239
349 238
350 237
350 236
350 235
350 234
350 233
350 232
350 231
350 230
351 229
351 228
351 227
351 226
351 225
352 224
352 223
352 222
352 221
352 220
352 219
352 218
352 217
352 216
353 215
353 214
353 213
353 212
353 211
353 210
353 209
353 208
353 207
354 206
354 205
354 204
354 203
354 202
354 201
355 200
355 199
355 198
356 197
356 196
356 195
356 194
356 193
355 192
355 191
355 190
355 189
355 188
355 187
355 186
355 185
356 184
356 183
356 182
356 181
356 180
356 179
356 178
356 177
356 176
356 175
356 174
356 173
356 172
356 171
356 170
356 169
356 168
356 167
356 166
355 165
355 164
355 163
355 162
354 161
354 160
354 159
354 158
354 157
354 156
354 155
354 154
354 153
354 152
353 151
353 150
353 149
353 148
352 147
352 146
352 145
352 144
351 143
351 142
351 141
351 140
350 139
350 138
350 137
350 136
349 135
349 134
349 133
349 132
348 131
348 130
348 129
348 128
347 127
347 126
346 125
346 124
346 123
345 122
345 121
345 120
344 119
344 118
344 117
343 116
343 115
343 114
342 113
341 112
341 111
340 110
340 109
340 108
339 107
339 106
338 105
338 104
338 103
337 102
337 101
336 100
336 99
336 98
336 97
335 96
334 95
334 94
334 93
333 92
333 91
333 90
332 89
332 88
332 87
332 86
332 85
331 84
330 84
329 83
330 82
330 81
330 80
330 79
329 78
329 77
328 76
327 76
326 75
325 76
324 76
323 77
323 78
322 79
322 80
322 81
322 82
322 83
323 83
322 82
323 81
322 80
323 79
323 78
324 77
325 76
326 76
327 77
328 78
328 79
327 80
327 81
327 82
326 83
326 84
325 85
325 86
324 87
324 88
324 89
323 90
322 91
322 92
321 93
321 94
320 95
320 96
319 97
318 98
318 99
317 100
316 101
316 102
315 103
314 104
313 105
312 106
312 107
311 108
310 109
309 109
309 110
308 111
307 111
307 112
306 113
305 114
304 115
304 116
303 117
302 118
301 119
300 120
300 121
299 122
298 123
298 124
297 125
297 126
296 127
295 128
294 129
294 130
293 131
293 132
292 133
292 134
291 135
291 136
290 137
290 138
289 139
289 140
288 141
288 142
287 143
287 144
286 145
286 146
286 147
285 148
285 149
285 150
284 151
284 152
283 153
283 154
283 155
283 156
282 157
282 158
282 159
281 160
281 161
281 162
280 163
280 164
280 165
280 166
279 167
279 168
279 169
279 170
279 171
278 172
278 173
278 174
277 175
277 176
277 177
276 178
276 179
276 180
276 181
276 182
276 183
276 184
276 185
276 186
275 187
275 188
275 189
275 190
275 191
275 192
275 193
275 194
275 195
275 196
275 197
274 198
274 199
275 200
275 201
275 202
275 203
275 204
275 205
275 206
275 207
275 208
275 209
275 210
275 211
275 212
275 213
275 214
275 215
275 216
275 217
275 218
275 219
274 220
274 221
275 222
275 223
275 224
276 225
276 226
276 227
276 228
276 229
276 230
277 231
277 232
277 233
277 234
278 235
278 236
279 237
279 238
279 239
280 240
280 241
281 242
281 243
282 244
283 245
284 246
285 247
285 248
286 249
287 250
288 251
288 252
289 253
290 254
290 255
291 256
292 256
293 257
294 257
295 258
296 259
297 260
298 261
299 262
300 263
301 263
302 264
303 265
304 265
305 266
306 267
307 268
308 268
309 269
308 270
307 270
306 270
305 269
304 269
303 269
302 269
301 268
300 268
299 267
298 267
297 267
296 266
295 266
294 265
293 265
292 265
291 264
290 264
289 264
288 263
287 263
286 262
285 262
284 261
283 261
282 261
281 260
280 260
279 259
278 259
277 258
276 258
275 257
274 257
273 257
272 256
271 256
270 255
269 255
268 255
267 254
266 254
265 253
264 253
263 252
262 252
261 251
260 251
259 250
258 250
257 250
256 249
255 249
254 248
253 248
252 247
251 247
250 246
249 246
248 245
247 245
246 244
245 243
244 243
243 242
242 241
242 240
243 239
244 239
245 239
246 239
247 238
248 237
249 236
250 235
251 234
252 234
252 233
253 232
254 231
254 230
255 229
255 228
256 227
256 226
257 225
257 224
257 223
258 222
259 221
259 220
260 219
260 218
261 217
261 216
261 215
262 214
262 213
263 212
263 211
264 210
264 209
264 208
265 207
265 206
265 205
265 204
266 203
266 202
266 201
267 200
267 199
267 198
268 197
268 196
268 195
268 194
269 193
269 192
269 191
270 190
270 189
270 188
270 187
271 186
271 185
271 184
271 183
271 182
271 181
272 180
272 179
272 178
271 177
271 176
271 175
272 174
272 173
272 172
272 171
272 170
272 169
273 168
273 167
273 166
273 165
273 164
274 163
274 162
274 161
274 160
274 159
273 158
273 157
273 156
273 155
273 154
273 153
273 152
273 151
273 150
273 149
273 148
273 147
274 146
274 145
275 144
275 143
275 142
276 141
276 140
277 139
278 138
278 137
279 136
280 135
280 134
281 133
281 132
281 131
282 130
282 129
282 128
283 127
283 126
283 125
283 124
283 123
283 122
284 121
284 120
283 119
283 118
284 117
283 116
283 115
284 114
284 113
283 112
283 111
284 110
284 109
284 108
284 107
284 106
284 105
284 104
284 103
284 102
284 101
284 100
284 99
283 98
283 97
283 96
283 95
283 94
283 93
283 92
283 91
283 90
282 89
282 88
282 87
282 86
282 85
282 84
281 83
281 82
281 81
281 80
281 79
281 78
280 77
280 76
280 75
280 74
280 73
280 72
279 71
278 70
278 69
278 68
278 67
278 66
277 65
276 65
275 64
274 63
274 62
274 63
273 64
272 64
271 64
270 65
269 64
269 63
270 62
271 62
272 61
273 60
273 59
274 58
275 57
274 56
273 55
273 54
272 53
271 52
271 51
270 50
270 49
269 48
268 47
267 48
266 48
265 49
264 49
263 50
262 50
262 51
261 52
260 53
259 53
259 54
258 55
257 56
256 56
255 57
254 58
253 59
252 59
252 60
251 61
250 61
249 61
249 62
248 63
247 64
246 65
245 66
244 67
243 68
242 68
241 69
240 70
240 71
239 72
238 72
237 73
236 74
235 75
234 76
234 77
233 78
232 79
231 80
230 80
229 81
228 82
227 83
226 83
226 84
225 85
224 85
223 84
223 83
224 82
224 81
224 80
223 79
223 78
223 77
223 76
223 75
222 74
222 73
223 72
223 71
222 70
222 69
223 68
223 67
223 66
223 65
224 64
223 63
222 62
223 61
222 60
222 59
222 58
222 57
222 56
222 55
222 54
222 53
221 52
221 51
221 50
221 49
220 48
221 47
221 46
221 45
221 44
220 43
220 42
220 41
220 40
220 39
219 38
219 37
219 36
219 35
219 34
218 33
218 32
218 31
218 30
217 29
217 28
216 27
216 26
215 25
214 24
214 23
213 22
213 21
213 20
213 19
212 18
211 18
210 17
209 17
208 18
207 19
206 19
207 19
208 18
209 18
210 19
210 20
210 21
210 22
210 23
209 24
209 25
209 26
208 27
207 28
206 28
206 29
205 30
204 31
203 32
202 33
201 34
200 34
199 34
198 35
197 36
196 37
195 37
194 37
193 38
192 39
191 40
190 41
189 41
188 42
187 43
186 44
185 44
184 45
183 45
182 46
181 46
180 47
179 48
178 49
177 49
176 50
175 51
174 52
173 53
172 53
171 54
170 53
170 52
170 51
170 50
169 49
170 48
170 47
170 46
170 45
170 44
170 43
170 42
170 41
170 40
171 39
170 38
170 37
170 36
171 35
171 34
170 33
171 32
171 31
171 30
170 29
171 28
170 27
170 26
170 25
170 24
169 23
169 22
170 21
169 20
169 19
168 18
168 17
169 16
169 15
168 14
168 13
168 12
168 11
168 10
167 9
167 8
167 7
168 6
168 5
167 4
167 3
167 2
167 1
166 1
165 1
164 1
163 1
162 1
161 1
160 1
159 1
