32 345
32 346
32 347
32 348
32 349
32 350
33 351
34 351
35 351
36 351
37 351
38 351
39 351
40 351
41 351
42 351
43 352
44 352
45 352
46 352
47 353
48 353
49 353
50 353
51 353
52 353
53 353
54 353
55 353
56 353
57 354
58 354
59 354
60 355
61 355
62 355
63 355
64 356
65 356
66 356
67 356
68 357
69 357
70 357
71 357
72 357
73 357
74 357
75 358
76 358
77 359
78 359
79 360
80 361
81 362
82 363
83 363
84 364
85 364
86 364
87 364
88 364
89 364
90 365
91 365
92 366
93 366
94 367
95 367
96 368
97 369
98 369
99 369
100 370
101 370
102 371
103 371
104 372
105 373
105 374
106 375
106 376
107 377
108 378
109 378
110 378
111 378
112 378
113 379
114 379
115 379
116 379
117 380
118 380
119 380
120 381
121 381
122 382
123 382
124 383
124 384
125 385
125 386
126 387
126 388
126 389
127 390
128 390
129 390
130 391
131 391
132 391
133 391
134 391
135 391
136 392
137 392
138 392
139 392
140 393
141 393
142 394
143 394
144 395
145 396
145 397
146 398
146 399
147 400
147 401
147 402
147 403
147 404
147 405
147 406
147 407
148 407
149 407
150 407
151 407
152 407
153 407
154 407
155 407
156 407
157 408
158 408
159 409
160 409
161 409
162 410
163 410
164 410
165 411
166 411
167 412
168 412
169 413
170 413
171 414
172 415
173 416
173 417
174 418
174 419
174 420
174 421
174 422
175 422
176 422
177 422
178 422
179 422
180 423
181 423
182 423
183 423
184 424
185 424
186 425
187 425
188 425
189 426
190 426
191 426
192 426
193 426
194 426
195 426
196 426
197 426
198 427
199 427
200 428
201 428
202 429
202 430
203 431
203 432
204 433
204 434
205 434
206 434
207 434
208 434
209 435
210 435
211 435
212 435
213 435
214 435
215 435
216 435
217 435
218 435
219 435
220 436
221 436
222 437
223 437
224 438
225 439
226 439
227 439
228 439
229 439
230 439
231 439
232 439
233 439
234 439
235 439
236 439
237 439
238 439
239 439
240 439
241 439
242 439
243 439
244 439
245 438
246 439
247 439
248 440
249 440
250 441
251 441
252 442
253 443
254 443
255 443
256 443
257 443
258 443
259 443
260 443
261 443
262 443
263 443
264 443
265 443
266 443
267 443
268 443
269 443
270 443
271 443
272 443
273 443
274 444
275 444
276 444
277 444
278 444
279 444
280 444
281 444
282 444
283 444
284 444
285 444
286 444
287 444
288 444
289 444
290 444
291 444
292 443
293 443
294 443
295 443
296 443
297 443
298 444
299 444
300 445
301 445
302 445
303 445
304 445
305 445
306 445
307 445
308 445
309 445
310 445
311 445
312 445
313 445
314 445
315 445
316 445
317 445
318 445
319 445
320 445
321 445
322 445
323 446
324 446
325 446
326 446
327 446
328 446
329 446
330 446
331 446
332 446
333 446
334 446
335 446
336 446
337 445
338 445
339 445
340 444
341 444
342 444
343 443
344 443
345 443
346 443
347 443
348 443
349 443
350 443
351 443
352 443
353 443
354 443
355 443
356 443
357 443
358 443
359 442
360 442
361 442
362 442
363 442
364 442
365 442
366 442
367 442
368 442
369 442
370 442
371 442
372 441
373 441
374 440
375 440
376 439
377 439
378 439
379 439
380 439
381 439
382 439
383 439
384 438
385 438
386 437
387 437
388 437
389 438
390 438
391 438
392 438
393 438
394 438
395 438
396 438
397 438
398 438
399 438
400 438
401 438
402 437
403 437
404 436
405 436
406 435
407 435
408 435
409 434
410 434
411 434
412 434
413 434
414 434
415 433
416 433
417 432
418 432
419 431
420 431
421 431
422 430
423 429
424 428
425 428
426 427
427 427
428 426
429 426
430 425
431 425
432 424
433 424
434 424
435 423
436 423
437 422
438 422
439 421
440 421
441 420
442 420
443 419
444 418
445 418
446 417
447 416
448 416
449 415
450 415
451 414
452 414
453 413
454 413
455 412
456 411
457 410
458 409
459 408
460 407
461 406
462 406
463 405
464 404
465 403
466 402
467 401
468 400
469 399
470 398
471 397
472 396
473 395
474 394
475 393
476 392
477 391
477 390
478 389
479 388
480 387
481 386
481 385
482 384
483 383
483 382
484 381
485 380
486 379
486 378
487 377
487 376
488 375
489 374
490 373
490 372
491 371
492 370
493 369
493 368
494 367
494 366
495 365
495 364
496 363
497 362
497 361
498 360
498 359
499 358
500 357
501 356
501 355
502 354
502 353
503 352
504 351
505 350
506 349
507 348
507 347
508 346
509 345
509 344
510 343
510 342
511 341
511 340
511 339
511 338
512 337
512 336
513 335
513 334
513 333
514 332
514 331
514 330
515 329
515 328
515 327
515 326
516 325
516 324
517 323
517 322
517 321
518 320
518 319
518 318
518 317
518 316
519 315
519 314
519 313
519 312
519 311
519 310
520 309
520 308
520 307
520 306
520 305
520 304
521 303
521 302
521 301
521 300
522 299
522 298
523 297
523 296
524 295
524 294
524 293
525 292
525 291
525 290
526 289
526 288
526 287
527 286
527 285
527 284
527 283
528 282
528 281
529 280
529 279
530 278
530 277
531 276
531 275
532 274
532 273
533 272
534 272
535 271
536 271
537 270
538 270
539 269
540 269
541 268
542 268
543 268
544 268
545 268
546 268
547 268
548 268
549 268
550 268
551 268
552 268
553 268
554 269
555 269
556 270
557 270
558 271
558 272
559 272
560 272
561 272
562 272
562 271
563 270
564 270
565 269
566 269
567 268
568 268
569 268
570 268
571 268
572 268
573 268
574 268
575 268
576 268
577 268
578 268
579 268
580 269
581 269
582 269
583 269
584 269
585 269
586 269
587 269
588 269
589 269
590 269
591 269
592 269
593 269
594 269
595 269
596 270
597 270
598 270
599 270
600 270
601 270
602 270
603 270
604 270
605 270
606 270
607 270
608 271
609 271
610 271
611 271
612 271
613 271
614 271
615 271
616 271
617 271
618 271
619 271
620 271
621 271
622 271
623 271
624 271
625 271
626 272
627 272
628 272
629 272
630 272
631 272
632 272
633 272
634 272
635 272
636 272
637 273
638 273
639 273
640 273
641 273
642 273
643 273
644 273
645 273
646 273
647 273
648 273
649 273
650 274
651 274
652 274
653 274
654 274
655 274
656 274
657 274
658 274
659 274
660 274
661 274
662 275
663 275
664 275
665 275
666 275
667 275
668 275
669 275
670 275
671 275
672 275
673 275
674 275
675 276
676 276
677 276
678 276
679 276
680 276
681 276
682 276
683 277
684 277
685 277
686 277
687 277
688 277
689 277
690 277
691 277
692 277
693 277
694 277
695 277
696 277
697 277
698 278
699 278
700 278
701 278
702 278
703 278
704 278
705 278
706 278
707 278
708 278
709 278
710 278
711 278
712 278
713 278
714 278
715 278
716 278
717 278
718 278
719 278
720 278
721 278
722 278
723 278
724 278
725 278
726 278
727 278
728 278
729 278
730 278
731 278
732 278
733 278
734 278
735 278
736 278
737 278
738 278
739 277
740 277
741 277
742 277
743 276
744 276
745 276
745 275
745 274
745 273
745 272
745 271
745 270
745 269
745 268
745 267
744 267
743 267
742 267
741 267
740 267
739 267
738 267
737 267
736 267
735 267
734 268
733 268
732 269
731 269
730 269
729 269
728 269
727 269
726 269
725 269
724 269
723 269
722 269
721 269
720 269
719 269
718 269
717 269
716 269
715 269
714 269
713 269
712 269
711 269
710 269
709 269
708 269
707 269
706 269
705 269
704 269
703 269
702 269
701 268
700 268
699 268
698 268
697 268
696 268
695 268
694 268
693 268
692 268
691 268
690 268
689 268
688 268
687 268
686 268
685 268
684 268
683 268
682 268
681 268
680 267
679 267
678 267
677 267
676 267
675 267
674 267
673 267
672 267
671 267
670 267
669 267
668 267
667 266
666 266
665 266
664 266
663 266
662 266
661 266
660 266
659 266
658 266
657 266
656 266
655 266
654 266
653 266
652 265
651 265
650 265
649 265
648 265
647 265
646 265
645 265
644 265
643 265
642 265
641 265
640 265
639 265
638 265
637 264
636 264
635 264
634 264
633 264
632 264
631 264
630 264
629 264
628 264
627 264
626 264
625 264
624 264
623 264
622 264
621 264
620 264
619 264
618 264
617 264
616 264
615 263
614 263
613 263
612 263
611 263
610 263
609 263
608 263
607 263
606 263
605 263
604 263
603 263
602 263
601 263
600 263
599 263
598 263
597 263
596 263
595 262
594 262
593 262
592 262
591 262
590 262
589 262
588 262
587 262
586 262
585 262
584 262
583 262
582 262
581 262
580 262
579 262
578 262
577 262
576 262
575 262
574 261
573 261
572 261
571 261
570 261
569 261
568 261
567 261
566 261
565 261
564 261
563 261
562 261
561 261
560 261
559 261
558 261
557 261
556 261
555 261
554 261
553 261
552 261
551 261
550 261
549 261
548 261
547 261
546 261
545 261
544 261
543 261
542 261
541 261
540 261
539 261
538 260
537 260
536 259
535 259
534 258
533 258
532 257
531 257
530 256
529 255
528 254
527 253
527 252
526 251
525 250
525 249
524 248
524 247
523 246
523 245
522 244
522 243
521 242
521 241
520 240
520 239
519 238
519 237
518 236
518 235
517 234
517 233
516 232
516 231
515 230
515 229
514 228
514 227
513 226
513 225
512 224
512 223
511 222
511 221
511 220
510 219
510 218
509 217
509 216
508 215
507 214
506 213
506 212
505 211
504 210
503 209
503 208
502 207
501 206
500 205
500 204
499 203
498 202
497 201
496 200
496 199
495 198
494 197
493 196
492 196
491 195
490 194
489 193
488 192
487 191
486 190
485 189
484 189
483 188
482 188
481 187
480 186
479 185
478 185
477 184
476 183
475 182
474 182
473 181
472 181
471 180
470 180
469 179
468 179
467 178
466 177
465 177
464 176
463 175
462 174
461 173
460 173
459 172
458 171
457 171
456 170
455 170
454 170
453 170
452 169
451 169
450 168
449 168
448 167
447 167
446 166
445 165
444 165
443 164
442 164
441 163
440 163
439 163
438 163
437 162
436 162
435 161
434 161
433 161
432 161
431 160
430 160
429 160
428 160
427 160
426 160
425 160
424 160
423 160
422 160
421 159
420 159
419 158
418 158
417 157
416 157
415 156
414 156
413 155
412 155
411 155
410 154
409 154
408 153
407 153
406 153
405 153
404 153
403 153
402 153
401 153
400 153
399 153
398 153
397 153
396 154
395 154
394 154
393 154
392 154
391 153
390 153
389 153
388 152
387 152
386 152
385 152
384 152
383 151
382 151
381 151
380 151
379 151
378 151
377 151
376 151
375 151
374 151
373 152
372 153
371 153
370 154
369 154
368 155
367 155
366 155
365 155
364 155
363 155
362 155
361 155
360 155
359 155
358 155
357 155
356 155
355 155
354 155
353 155
352 155
351 155
350 155
349 155
348 155
347 155
346 155
345 155
344 155
343 155
342 155
341 155
340 155
339 155
338 155
337 155
336 156
336 157
335 158
334 158
333 159
332 159
331 160
330 160
329 160
328 160
327 160
326 160
325 160
324 160
323 160
322 160
321 160
320 160
319 160
318 160
317 160
316 160
315 160
314 160
313 161
312 161
311 162
310 163
309 163
308 164
307 164
306 165
305 165
304 165
303 164
302 164
301 164
300 164
299 164
298 164
297 164
296 164
295 164
294 165
294 166
293 167
293 168
292 169
291 169
290 170
289 170
288 171
287 171
286 171
285 171
284 171
283 171
282 171
281 171
280 172
279 172
278 171
277 171
276 171
275 171
274 171
273 171
272 171
271 171
270 172
270 173
269 174
269 175
268 176
267 176
266 177
265 177
264 178
263 178
262 178
261 178
260 178
259 178
258 179
257 179
256 179
255 179
254 179
253 179
252 180
251 180
250 180
249 180
248 181
247 181
246 181
245 181
244 182
243 182
243 183
243 184
242 185
242 186
241 187
241 188
240 189
239 189
238 190
237 190
236 191
235 191
234 191
233 191
232 191
231 191
230 192
229 192
228 192
227 192
226 192
225 193
224 193
223 194
223 195
223 196
222 197
222 198
221 199
221 200
220 201
219 201
218 202
217 202
216 203
215 203
214 203
213 203
212 203
211 203
210 203
209 204
208 204
207 204
206 204
205 204
204 205
203 205
202 205
201 205
201 206
201 207
201 208
201 209
201 210
201 211
201 212
201 213
200 214
200 215
199 216
198 216
197 217
196 217
195 218
194 218
193 218
192 219
191 219
190 219
189 220
188 220
187 221
186 222
185 223
185 224
184 225
183 226
182 226
181 227
180 227
179 228
178 228
177 228
176 228
175 229
174 229
173 230
172 230
171 231
171 232
171 233
171 234
171 235
171 236
171 237
171 238
171 239
171 240
170 241
170 242
169 243
168 243
167 244
166 245
165 245
164 246
163 247
162 247
161 248
160 249
159 250
159 251
159 252
159 253
159 254
159 255
159 256
159 257
159 258
159 259
158 260
157 261
156 262
155 262
154 263
153 263
152 264
151 264
150 265
149 265
148 266
147 267
146 267
145 268
145 269
145 270
145 271
145 272
145 273
145 274
145 275
145 276
145 277
144 278
143 279
142 280
141 280
140 281
139 281
138 281
137 281
136 282
135 282
134 283
133 283
132 283
131 284
130 284
130 285
130 286
130 287
129 288
129 289
128 290
127 291
126 292
125 292
124 293
123 293
122 293
121 294
120 294
119 295
118 295
117 296
116 296
116 297
115 298
115 299
114 300
114 301
113 302
112 302
111 303
110 304
109 304
108 305
107 305
106 306
105 307
104 307
103 308
103 309
102 310
102 311
101 312
101 313
100 314
99 314
98 315
97 315
96 316
95 316
94 317
93 317
92 317
91 318
90 319
89 320
88 320
87 321
86 321
85 322
84 322
83 323
82 323
81 323
80 324
80 325
79 326
78 327
77 327
76 328
75 328
74 329
73 329
72 329
71 330
70 331
69 332
68 333
67 333
66 334
65 334
64 335
63 335
62 335
61 336
60 337
59 338
58 338
57 339
56 339
55 340
54 340
53 340
52 340
51 340
50 341
49 341
48 341
47 342
46 342
45 343
44 343
43 343
42 344
41 344
40 344
39 345
38 345
37 345
36 345
35 345
34 345
33 345
32 345
