343 25
343 26
344 27
344 28
343 29
343 30
343 31
343 32
342 33
341 34
341 35
341 36
341 37
340 38
339 38
338 38
338 39
338 40
337 41
336 42
335 41
334 41
333 41
332 40
331 39
330 39
330 40
329 41
328 41
327 40
326 40
325 40
324 40
323 41
323 42
322 43
321 44
320 43
319 44
318 44
317 43
316 43
315 43
314 42
313 42
312 41
312 42
312 43
312 44
312 45
311 46
310 47
309 48
309 49
309 50
308 51
307 51
306 51
305 51
304 51
303 51
302 50
301 50
300 49
300 50
300 51
299 52
298 52
297 52
296 51
295 51
294 50
293 50
292 49
291 49
290 48
289 47
289 46
288 46
288 47
288 48
287 49
286 50
285 51
284 51
283 51
282 51
281 51
280 51
279 51
278 50
277 50
276 50
275 49
274 49
273 49
272 50
271 49
270 49
270 50
269 51
268 52
267 52
266 51
265 51
264 50
263 50
262 49
261 49
260 49
259 49
258 48
257 48
256 47
255 47
254 46
253 45
252 44
252 45
252 46
252 47
251 48
250 49
250 50
249 51
249 52
248 53
248 54
247 55
246 55
245 55
244 56
243 56
242 56
241 56
240 56
240 57
241 58
240 59
240 60
240 61
240 62
239 63
238 63
237 63
236 63
235 63
234 64
233 64
232 64
231 64
230 65
230 66
229 67
228 67
227 67
226 67
225 67
224 67
223 67
222 67
221 67
220 67
219 67
218 67
218 68
218 69
217 70
217 71
217 72
217 73
216 74
215 73
214 73
213 73
212 73
211 73
210 73
209 72
208 72
208 73
207 74
206 74
205 73
204 73
203 74
202 74
201 74
200 74
199 73
198 73
197 73
196 73
195 72
194 71
194 72
194 73
194 74
194 75
193 76
193 77
193 78
193 79
192 80
191 79
190 79
189 79
188 79
187 79
186 78
185 79
184 80
183 80
182 80
181 79
180 79
179 79
178 79
178 80
178 81
177 82
177 83
176 84
175 85
174 84
173 84
172 84
171 84
170 83
169 83
168 83
167 83
166 83
165 83
164 83
163 83
162 82
162 83
162 84
162 85
163 86
163 87
163 88
162 89
162 90
162 91
162 92
162 93
162 94
162 95
161 96
160 96
159 96
158 97
157 97
156 96
156 97
156 98
156 99
156 100
155 101
154 101
155 102
155 103
156 104
155 105
154 105
153 106
152 106
151 106
150 106
149 106
149 107
149 108
148 109
147 109
146 109
145 109
144 109
143 109
142 109
141 109
141 110
142 111
142 112
141 113
140 114
140 115
140 116
139 117
138 117
137 117
136 117
135 117
134 117
133 118
132 119
131 119
130 119
129 119
128 119
127 118
126 118
127 119
127 120
127 121
126 122
126 123
126 124
126 125
125 126
124 126
123 126
122 126
121 126
120 126
119 126
118 126
117 126
117 127
116 128
115 129
114 129
113 129
112 129
111 129
110 129
109 129
110 130
110 131
111 132
111 133
112 134
112 135
112 136
112 137
111 138
111 139
112 140
112 141
113 142
113 143
112 144
111 145
111 146
110 147
109 148
108 148
107 149
108 150
109 151
109 152
109 153
110 154
110 155
109 156
108 156
108 157
108 158
107 159
106 159
105 159
104 159
103 160
102 160
102 161
103 162
103 163
103 164
102 165
102 166
102 167
103 168
102 169
101 169
100 169
99 169
98 170
97 171
96 171
95 171
94 171
93 171
94 172
94 173
93 174
92 175
91 175
90 175
89 175
88 175
87 175
86 176
85 176
84 176
83 177
82 177
81 177
80 177
79 177
80 178
81 179
81 180
82 181
82 182
83 183
84 184
84 185
84 186
83 187
84 188
84 189
85 190
85 191
84 192
83 193
84 194
85 195
85 196
86 197
86 198
85 199
84 199
83 200
82 201
81 202
80 202
79 201
78 201
79 202
79 203
79 204
79 205
79 206
79 207
78 208
77 209
76 209
75 209
74 209
73 209
72 209
71 209
71 210
71 211
70 212
69 213
68 213
67 213
66 213
65 214
64 214
63 214
62 214
62 215
63 216
63 217
64 218
64 219
64 220
64 221
64 222
64 223
64 224
64 225
64 226
63 227
62 227
61 228
60 228
59 228
58 229
57 229
56 229
55 229
54 229
53 229
53 230
53 231
52 232
51 233
50 233
49 234
48 234
47 234
46 234
46 235
45 236
44 237
43 237
42 237
41 238
40 238
39 239
38 240
37 240
36 241
36 242
37 243
38 244
38 245
39 246
39 247
40 248
41 249
42 250
43 251
43 252
44 253
44 254
45 255
45 256
45 257
45 258
45 259
45 260
45 261
44 262
44 263
43 264
42 265
41 266
40 267
39 268
38 269
37 269
38 270
39 271
39 272
40 273
41 274
42 275
42 276
43 276
44 277
44 278
44 279
44 280
44 281
45 282
45 283
45 284
44 285
44 286
43 287
44 287
45 287
46 287
47 287
48 288
49 289
49 290
49 291
50 291
51 291
52 291
53 291
54 291
55 292
56 292
57 293
57 294
58 294
59 295
60 295
61 296
61 297
62 297
63 298
64 299
63 300
63 301
62 302
62 303
63 304
64 305
64 306
64 307
63 308
62 309
61 310
60 311
59 312
58 312
58 313
59 313
60 314
61 315
61 316
62 317
63 317
64 318
65 318
66 319
66 320
66 321
67 321
68 321
69 322
70 323
71 324
71 325
72 326
72 327
72 328
71 329
71 330
71 331
72 331
73 332
74 333
75 334
75 335
75 336
75 337
74 338
73 339
72 340
73 341
74 342
74 343
75 344
75 345
74 346
74 347
73 348
73 349
72 350
71 351
70 352
69 353
68 353
69 353
70 354
71 354
72 355
73 356
73 357
74 358
75 359
76 359
77 360
78 361
79 361
80 362
81 363
81 364
81 365
82 365
83 365
84 366
85 367
86 368
87 369
88 370
88 371
88 372
88 373
87 374
87 375
88 375
89 376
90 376
91 377
91 378
92 379
92 380
92 381
93 381
94 382
95 383
96 384
97 385
97 386
97 387
97 388
97 389
96 390
95 391
94 392
95 392
96 392
97 393
98 394
99 395
100 396
100 397
99 398
99 399
99 400
99 401
99 402
99 403
99 404
98 405
98 406
98 407
97 408
97 409
98 409
99 409
100 410
101 410
102 411
103 412
103 413
104 414
105 415
106 415
107 415
108 416
109 416
110 416
111 416
112 417
113 417
114 417
115 418
116 419
117 420
118 420
119 420
120 420
121 421
122 422
123 422
124 423
125 424
126 424
127 425
128 425
129 425
130 426
130 427
131 427
132 428
132 429
132 430
132 431
132 432
132 433
131 434
132 434
133 434
134 434
135 434
136 434
137 435
136 436
137 436
138 437
139 437
140 437
141 437
142 437
143 437
144 437
145 438
146 439
147 439
148 439
149 440
150 440
151 440
152 441
153 441
154 442
155 442
156 442
157 443
158 443
159 444
160 445
160 446
161 447
161 448
162 449
162 450
162 451
162 452
162 453
162 454
163 455
163 456
163 457
162 458
162 459
162 460
161 461
162 461
163 460
164 459
165 459
166 459
167 460
168 460
169 461
170 462
171 462
172 462
173 462
174 462
175 462
176 463
177 463
178 463
179 463
180 463
181 463
182 463
183 463
184 464
185 464
186 464
187 464
188 464
189 464
190 464
191 464
192 465
193 465
194 466
195 467
196 468
197 468
198 468
199 468
200 468
201 469
202 469
203 469
204 470
205 470
206 470
207 470
208 470
209 470
210 470
211 471
212 471
213 471
214 471
215 471
216 471
217 471
218 471
219 471
220 471
221 472
222 472
223 472
224 472
225 473
226 473
227 473
228 473
229 473
230 473
231 474
232 474
233 474
234 474
235 474
236 474
237 474
238 475
239 475
240 475
241 476
242 476
243 476
244 477
245 477
246 478
247 479
248 479
249 479
250 480
251 481
252 481
253 482
253 483
253 484
254 484
255 484
256 485
256 486
257 487
257 488
257 489
257 490
257 491
257 492
257 493
257 494
257 495
258 494
259 493
260 493
261 492
262 492
263 492
264 492
265 491
266 491
267 492
268 492
269 492
270 492
271 492
272 491
273 491
274 491
275 491
276 491
277 491
278 491
279 490
280 490
281 490
282 490
283 490
284 490
285 490
286 490
287 491
288 491
289 491
290 491
291 491
292 491
293 491
294 491
295 491
296 491
297 491
298 491
299 491
300 491
301 491
302 491
303 491
304 491
305 492
306 492
307 492
308 492
309 492
310 492
311 492
312 492
313 492
314 492
315 491
316 491
317 491
318 491
319 490
320 490
321 490
322 490
323 490
324 490
325 489
326 489
327 489
328 488
329 488
330 488
331 488
332 488
333 487
334 487
335 487
336 487
337 487
338 487
339 487
340 487
341 487
342 487
343 487
344 487
345 487
346 487
347 486
348 486
349 486
350 486
351 486
352 486
353 485
354 485
355 485
356 484
357 484
358 483
359 483
360 482
361 482
362 482
363 481
364 481
365 481
366 480
367 480
368 480
369 480
370 480
371 479
372 479
373 479
374 478
375 478
376 477
377 477
378 477
379 477
380 477
381 477
382 477
383 477
384 476
385 476
386 476
387 476
388 476
389 475
390 475
391 475
392 475
393 474
394 474
395 474
396 474
397 473
398 473
399 473
400 473
401 472
402 471
403 471
404 471
405 471
406 470
407 470
408 470
409 470
410 469
411 469
412 469
413 469
414 468
415 468
416 468
417 467
418 467
419 467
420 467
421 466
422 466
423 466
424 466
425 467
426 467
427 467
428 467
429 468
430 468
431 468
432 468
433 467
434 467
435 467
436 467
437 467
438 467
439 466
440 466
441 465
442 465
443 464
444 464
445 464
446 463
447 463
448 462
449 462
450 462
451 462
452 461
453 460
454 460
455 459
456 459
457 458
458 458
459 458
460 457
461 457
462 457
463 457
464 456
465 456
466 456
467 456
468 455
469 454
470 454
471 453
472 453
473 452
474 452
475 451
476 450
477 450
478 450
479 449
480 449
481 448
482 448
483 448
484 448
485 447
486 447
487 447
488 447
489 447
490 447
491 447
492 448
493 448
494 448
495 449
496 449
497 448
498 448
499 448
500 448
501 448
502 448
503 447
504 447
505 446
506 446
507 446
508 446
509 445
510 445
511 445
512 444
513 443
514 443
515 443
516 443
517 442
518 442
519 442
520 442
521 441
522 441
523 440
524 440
525 439
526 438
527 437
528 436
529 435
530 434
531 434
532 433
533 433
534 433
535 432
536 432
537 432
538 432
539 432
540 431
541 430
542 429
543 428
544 427
545 426
546 425
547 425
548 424
549 423
550 422
551 421
552 421
553 420
554 419
555 419
556 418
557 418
558 418
559 417
560 417
561 416
562 415
563 414
564 413
565 412
566 412
566 411
567 410
568 409
569 408
570 407
571 406
572 405
572 404
573 403
574 403
575 403
575 402
575 401
575 400
576 399
576 398
577 397
577 396
578 395
579 394
579 393
580 392
581 391
581 390
582 389
583 388
584 387
585 386
585 385
586 384
587 383
587 382
588 381
589 380
590 379
590 378
591 377
592 376
592 375
593 374
594 373
594 372
595 371
596 370
597 369
598 368
598 367
599 366
600 365
601 364
602 363
603 362
603 361
604 360
605 359
606 358
607 357
608 356
609 355
609 354
610 353
611 353
612 352
612 351
613 350
614 349
614 348
615 347
616 346
617 345
618 344
618 343
619 342
620 341
621 340
622 339
623 339
624 338
625 337
625 336
626 335
627 335
628 334
629 333
630 332
631 332
632 331
633 331
634 330
635 329
636 328
637 327
638 326
639 325
640 325
641 324
641 323
641 322
641 321
642 320
642 319
643 318
643 317
643 316
644 315
644 314
645 313
645 312
646 311
647 310
648 309
648 308
648 307
648 306
649 305
649 304
649 303
649 302
649 301
649 300
649 299
649 298
649 297
649 296
649 295
650 294
650 293
651 292
652 292
653 292
654 292
655 292
656 292
657 292
658 291
659 291
660 292
661 292
662 292
663 292
664 292
665 292
666 292
667 292
668 292
669 292
670 292
671 292
672 293
673 293
674 293
675 293
676 292
677 293
678 293
679 293
680 293
681 292
682 293
683 293
684 293
685 293
686 293
687 293
688 293
689 293
690 293
691 293
692 293
693 293
694 293
695 293
696 293
697 293
698 293
699 293
700 293
701 293
702 293
703 292
704 293
705 293
706 293
707 293
708 293
709 293
710 292
711 292
712 293
713 292
714 292
715 292
716 293
717 293
718 292
719 292
720 292
721 292
722 293
723 293
724 292
725 292
726 292
727 292
728 292
729 292
730 292
731 292
732 292
733 292
734 292
735 292
736 291
737 291
738 291
739 291
740 290
741 290
742 290
743 289
744 289
745 288
746 288
747 288
748 287
749 286
750 285
750 284
751 283
752 282
752 281
752 280
752 279
752 278
752 277
752 276
752 275
752 274
751 274
750 275
751 276
750 277
749 277
748 277
747 278
746 279
745 278
744 277
743 277
743 278
743 279
742 280
741 280
740 280
739 280
738 280
737 280
736 280
735 280
734 281
733 281
732 281
731 281
730 282
729 282
728 281
727 282
726 281
725 281
724 282
723 282
722 282
721 282
720 282
719 282
718 282
717 283
716 282
715 282
714 282
713 283
712 283
711 283
710 282
709 282
708 283
707 282
706 282
705 282
704 282
703 283
702 283
701 283
700 282
699 282
698 283
697 282
696 283
695 283
694 283
693 283
692 283
691 283
690 283
689 283
688 283
687 283
686 283
685 282
684 283
683 283
682 282
681 282
680 282
679 282
678 282
677 282
676 282
675 282
674 282
673 282
672 281
671 282
670 282
669 282
668 282
667 282
666 282
665 281
664 281
663 281
662 281
661 281
660 281
659 281
658 281
657 280
656 280
655 281
654 281
653 280
652 280
651 280
650 279
650 278
650 277
649 276
650 275
651 274
651 273
652 272
652 271
653 270
653 269
654 268
655 267
655 266
656 265
656 264
657 263
657 262
658 261
658 260
659 259
659 258
659 257
659 256
660 255
661 256
661 255
661 254
661 253
661 252
661 251
662 250
662 249
662 248
661 248
660 247
661 246
661 245
661 244
661 243
662 242
662 241
663 240
663 239
662 238
662 237
663 236
663 235
663 234
663 233
663 232
664 231
664 230
663 230
662 230
661 229
661 228
661 227
661 226
661 225
661 224
661 223
661 222
661 221
661 220
660 219
660 218
660 217
660 216
660 215
660 214
660 213
660 212
660 211
659 211
658 211
657 211
656 210
656 209
656 208
656 207
656 206
655 205
655 204
655 203
655 202
655 201
655 200
655 199
655 198
654 198
653 198
652 198
651 197
651 196
650 195
650 194
650 193
649 192
648 191
648 190
647 189
647 188
647 187
647 186
647 187
646 188
645 188
644 189
643 189
642 190
641 189
640 189
639 189
638 189
637 190
636 189
636 188
635 187
634 186
633 185
633 184
632 183
631 183
630 183
629 183
628 182
628 181
627 180
627 179
626 178
626 177
625 176
625 175
625 174
624 173
623 172
622 171
622 170
621 169
621 168
620 167
619 166
618 165
618 164
617 163
617 162
616 162
615 162
614 163
613 162
612 161
611 160
610 159
609 158
608 157
607 156
606 155
605 154
604 153
603 152
603 151
602 150
602 149
602 148
601 147
601 146
601 145
600 144
600 143
600 142
599 141
599 140
598 139
597 138
597 137
597 136
596 135
596 134
595 134
594 134
593 133
592 132
592 131
591 130
590 129
589 128
589 127
588 126
588 125
588 124
587 124
586 123
585 123
584 122
584 121
583 120
582 119
582 118
582 117
581 117
580 117
579 116
579 115
578 114
578 113
577 113
576 112
576 111
575 110
575 109
575 108
575 107
574 107
573 108
572 108
571 108
570 108
569 108
568 107
567 106
567 105
566 104
565 103
565 102
564 101
563 101
562 100
561 99
560 98
559 98
558 97
557 96
557 95
556 94
555 95
554 95
553 96
552 96
551 95
550 94
549 93
548 92
547 91
546 90
545 91
544 91
543 91
542 90
541 89
540 89
539 88
538 88
537 87
536 86
535 85
534 84
533 83
532 84
531 85
530 86
529 86
528 87
527 87
526 88
525 88
524 88
523 87
522 86
521 85
520 85
519 84
518 83
517 82
516 82
515 82
514 82
513 81
512 80
511 79
510 79
509 78
509 77
508 77
507 78
506 78
505 78
504 78
503 78
502 77
501 77
500 76
499 76
498 76
497 75
496 75
495 74
494 74
493 74
492 73
491 73
490 72
489 71
488 71
487 70
486 70
485 69
484 69
483 68
482 67
481 66
480 66
479 65
478 65
477 64
476 63
476 64
475 65
474 66
473 66
472 65
471 65
470 64
470 63
469 63
468 64
467 63
466 62
465 62
464 61
463 60
463 59
462 59
461 60
460 60
459 59
458 60
457 60
456 59
455 58
454 58
453 57
452 57
451 56
450 55
449 54
448 53
447 54
446 54
445 53
445 52
444 51
443 51
442 50
441 49
440 48
439 48
438 47
438 46
438 45
438 46
437 47
437 48
436 49
435 50
434 50
433 51
432 52
431 52
430 51
429 51
428 50
427 49
426 48
425 48
424 47
423 47
422 48
421 48
420 47
419 47
418 46
417 46
416 45
415 44
414 44
413 44
412 44
411 43
410 42
409 42
408 42
407 41
406 41
405 40
404 39
403 38
403 39
402 40
401 40
400 41
399 41
398 41
397 40
396 39
395 38
394 37
393 37
392 36
392 35
391 35
390 36
389 36
388 36
387 35
386 35
385 35
384 34
383 34
382 33
381 32
380 32
379 33
378 33
377 33
376 34
375 33
374 33
373 32
372 32
371 31
370 31
369 31
368 32
367 31
366 31
365 31
364 30
363 29
363 30
362 31
361 31
360 32
359 32
358 31
357 30
356 30
355 29
354 29
353 29
352 28
351 27
350 28
349 28
348 28
347 27
346 27
345 26
344 26
343 25
