306 49
305 50
304 50
303 50
302 50
301 50
300 51
299 52
298 53
297 54
297 55
296 56
295 56
294 55
293 55
292 55
291 55
290 55
289 55
288 55
287 55
286 55
285 54
284 54
283 53
282 53
281 54
280 55
279 55
278 55
277 55
276 54
275 54
274 54
273 54
272 53
271 53
270 53
269 53
268 52
267 53
267 54
266 55
265 56
264 57
263 58
262 59
261 59
260 59
259 59
258 59
257 58
256 58
255 57
254 58
253 59
252 58
251 58
250 57
249 57
248 57
247 57
246 57
245 56
244 56
243 56
242 55
242 56
242 57
242 58
241 59
240 59
239 60
238 61
237 61
236 61
235 61
234 60
233 60
232 60
231 60
230 59
229 59
228 58
227 59
226 60
225 61
224 61
223 61
222 60
221 60
220 60
219 59
218 58
217 58
216 58
215 58
214 57
213 57
212 56
211 56
210 55
209 55
209 56
209 57
209 58
209 59
209 60
208 61
207 62
207 63
206 64
206 65
206 66
206 67
206 68
206 69
206 70
206 71
206 72
206 73
206 74
207 75
207 76
207 77
207 78
207 79
206 80
205 81
204 82
204 83
204 84
203 85
203 86
203 87
203 88
202 89
202 90
202 91
201 92
200 92
199 93
198 93
197 93
196 94
195 94
194 94
193 94
193 95
192 96
191 97
190 97
189 97
188 98
187 98
186 98
185 98
184 98
183 98
182 98
181 98
180 98
179 98
180 99
180 100
180 101
179 102
178 103
177 103
177 104
177 105
176 106
176 107
176 108
175 109
174 110
173 111
172 111
171 111
170 111
169 112
168 112
167 112
166 111
165 111
165 112
164 113
163 114
162 113
161 114
160 114
159 114
158 114
157 114
156 114
155 114
154 114
153 114
153 115
153 116
153 117
153 118
152 119
151 120
150 121
149 122
148 123
147 124
146 124
145 124
144 123
143 123
142 123
142 124
141 125
140 126
139 126
138 125
137 125
136 125
135 125
134 124
133 124
132 123
131 123
130 123
129 122
128 123
128 124
129 125
129 126
129 127
129 128
128 129
128 130
128 131
128 132
128 133
128 134
128 135
128 136
129 137
129 138
129 139
130 140
130 141
130 142
131 143
131 144
132 145
132 146
131 147
131 148
131 149
131 150
131 151
130 152
130 153
130 154
130 155
129 156
129 157
129 158
129 159
130 160
130 161
130 162
130 163
130 164
131 165
131 166
131 167
131 168
131 169
130 170
129 171
128 172
128 173
127 174
126 174
125 175
124 176
123 176
122 177
121 177
120 177
119 178
118 178
117 178
117 179
118 179
119 180
118 181
118 182
117 183
117 184
117 185
116 186
116 187
115 188
114 189
113 190
112 190
111 191
110 192
109 192
108 192
107 193
106 193
107 194
107 195
107 196
106 197
105 198
104 199
103 200
102 200
101 200
100 201
99 201
98 201
97 202
96 202
96 203
97 203
98 204
98 205
99 206
100 207
100 208
101 209
101 210
101 211
102 212
102 213
103 214
104 215
104 216
105 217
105 218
105 219
106 220
106 221
106 222
106 223
106 224
107 225
108 226
109 227
109 228
110 229
110 230
111 231
111 232
112 233
112 234
112 235
112 236
111 237
111 238
110 239
110 240
109 241
108 242
107 242
106 242
106 243
106 244
106 245
106 246
105 247
105 248
105 249
104 250
104 251
103 252
102 253
101 253
100 254
99 254
99 255
99 256
99 257
98 258
97 259
97 260
96 261
96 262
95 263
94 264
94 265
93 266
92 267
91 268
90 268
89 269
88 270
87 271
86 272
87 273
88 273
89 273
90 274
91 274
92 275
93 276
94 276
95 277
96 278
96 279
97 280
97 281
98 282
99 282
100 282
101 282
102 282
103 283
104 283
105 284
105 285
106 286
106 287
106 288
106 289
105 290
104 290
103 290
102 290
101 290
100 291
99 291
98 291
97 291
97 292
97 293
96 294
95 295
94 296
93 296
92 297
91 297
90 298
89 298
89 299
90 299
91 300
91 301
91 302
91 303
91 304
91 305
92 306
92 307
91 308
91 309
91 310
90 311
89 312
88 312
87 312
86 313
85 314
84 315
83 316
82 316
81 316
80 317
79 317
78 317
77 317
77 318
77 319
77 320
77 321
77 322
77 323
76 324
75 325
74 325
73 326
72 326
71 326
70 326
69 327
68 328
67 328
66 328
65 329
64 329
63 329
62 329
61 330
60 331
60 332
59 333
58 333
57 334
56 335
55 335
54 335
53 336
52 336
51 337
50 337
49 338
48 339
47 340
46 340
47 340
48 340
49 341
50 341
51 341
52 341
53 341
54 341
55 341
56 341
57 341
58 342
59 342
60 343
61 342
62 342
63 342
64 342
65 342
66 343
67 343
68 342
69 342
70 343
71 343
72 343
73 343
74 344
74 345
75 346
76 347
77 347
78 348
79 347
80 347
81 346
82 346
83 346
84 346
85 346
86 346
87 346
88 346
89 346
90 346
91 346
92 346
93 347
94 348
95 349
96 350
96 351
96 352
97 353
98 354
98 355
98 356
99 356
100 356
101 356
102 356
103 356
104 356
105 357
106 357
107 357
108 357
109 358
110 358
111 359
112 360
112 361
113 362
114 363
115 363
116 364
117 365
117 366
117 367
117 368
116 369
116 370
116 371
116 372
116 373
116 374
116 375
116 376
116 377
116 378
115 379
115 380
115 381
115 382
114 383
114 384
114 385
115 385
116 384
117 384
118 385
119 385
120 385
121 385
122 385
123 386
124 386
125 387
126 388
127 389
127 390
128 391
128 392
129 392
130 392
131 392
132 393
133 393
134 394
135 394
136 395
136 396
137 397
137 398
137 399
137 400
138 401
138 402
138 403
139 404
139 405
140 406
140 407
140 408
140 409
140 410
140 411
140 412
139 413
139 414
139 415
139 416
138 417
138 418
137 419
137 420
137 421
137 422
136 423
136 424
136 425
135 426
134 427
133 428
133 429
132 430
131 431
130 432
131 432
132 432
133 432
134 432
135 432
136 432
137 432
138 433
139 433
140 434
141 434
142 434
143 435
144 435
145 435
146 435
147 435
148 435
149 436
150 436
151 437
152 438
152 439
153 440
154 441
154 442
155 442
156 441
157 441
158 441
159 441
160 441
161 442
162 442
163 442
164 442
165 443
166 443
167 444
168 444
169 444
170 444
171 445
172 446
172 447
172 448
172 449
173 450
173 451
174 451
175 451
176 451
177 452
178 453
179 454
179 455
180 456
180 457
181 458
181 459
180 460
180 461
180 462
180 463
179 464
179 465
178 466
178 467
178 468
177 469
178 470
178 471
178 472
178 473
178 474
177 475
177 476
177 477
177 478
176 479
175 480
174 481
173 482
173 483
173 484
173 485
172 486
172 487
172 488
171 489
171 490
170 491
169 492
169 493
168 494
167 495
167 496
168 495
169 495
170 496
171 496
172 497
173 497
174 497
175 497
176 497
177 497
178 497
179 498
180 498
181 498
182 498
183 499
184 500
185 500
186 501
187 502
187 503
188 503
189 503
190 503
191 503
192 503
193 503
194 504
195 504
196 504
197 504
198 504
199 504
200 504
201 504
202 505
203 506
203 507
204 508
204 509
205 510
205 511
206 512
207 513
208 513
209 512
210 512
211 512
212 512
213 512
214 512
215 512
216 512
217 512
218 512
219 513
220 514
221 514
222 514
223 514
224 514
225 513
226 514
227 514
228 515
228 516
228 517
228 518
228 519
228 520
228 521
229 522
229 523
230 523
231 524
232 525
232 526
232 527
232 528
232 529
232 530
232 531
232 532
232 533
232 534
231 535
231 536
231 537
231 538
231 539
232 540
232 541
232 542
232 543
232 544
231 545
231 546
231 547
231 548
231 549
231 550
231 551
232 552
233 553
233 554
234 555
235 556
236 555
237 555
238 554
239 554
240 553
241 553
242 553
243 553
244 553
245 554
246 554
247 554
248 553
249 553
250 553
251 553
252 553
253 553
254 553
255 554
255 555
256 555
257 555
258 555
259 555
260 555
261 554
262 553
263 553
264 554
265 553
266 553
267 552
268 552
269 552
270 552
271 552
272 552
273 553
273 554
274 555
274 556
275 556
276 556
277 556
278 555
279 555
280 555
281 554
282 554
283 554
284 554
285 553
286 553
287 553
288 552
289 553
290 553
291 554
292 553
293 553
294 552
295 552
296 551
297 551
298 551
299 550
300 550
301 550
302 549
303 549
304 550
305 551
306 552
306 553
307 553
308 554
308 555
309 556
310 557
311 557
312 557
313 556
314 555
315 554
316 554
317 553
318 553
319 553
320 553
321 554
322 554
323 554
324 554
325 553
326 553
327 553
328 553
329 553
330 553
331 553
332 554
333 555
333 556
334 556
335 557
336 558
337 559
337 560
337 561
338 562
338 563
338 564
338 565
338 566
338 567
338 568
338 569
339 570
339 571
340 572
341 573
341 574
341 575
341 576
342 575
343 574
344 573
345 573
346 572
347 572
348 571
349 571
350 571
351 571
352 571
353 572
354 573
355 572
356 571
357 570
358 570
359 569
360 569
361 570
362 569
363 570
364 571
365 571
366 570
367 570
368 569
369 568
370 568
371 568
372 567
373 567
374 567
375 566
376 566
377 567
378 568
379 568
380 568
381 569
382 570
383 571
383 570
384 569
385 568
386 567
387 566
388 565
389 564
390 564
391 563
392 562
393 562
394 563
395 563
395 562
396 561
397 561
398 560
399 560
400 560
401 560
402 561
403 562
404 563
405 564
406 565
407 564
408 563
409 563
410 562
411 561
412 560
413 560
414 560
415 560
416 560
416 559
417 558
418 558
419 557
420 557
421 556
422 555
423 555
424 555
425 556
426 556
426 555
427 554
428 553
429 553
430 552
431 552
432 551
433 551
434 550
435 550
436 549
437 548
438 549
439 550
440 551
441 551
442 551
443 551
444 552
445 553
446 553
446 552
447 551
448 550
449 550
450 549
450 548
451 547
452 546
453 545
454 544
455 543
456 543
457 544
458 543
459 542
460 541
461 540
462 540
463 539
464 538
465 537
466 536
467 536
468 535
469 535
470 535
471 535
472 535
473 534
473 533
474 532
475 532
476 531
477 530
478 529
479 529
480 528
481 527
482 527
483 527
484 528
484 529
485 530
485 531
486 531
487 531
488 532
489 532
490 531
491 530
492 529
493 528
494 528
495 528
496 528
497 527
498 526
499 525
499 524
500 523
501 522
502 521
503 521
504 521
505 521
506 521
506 520
506 519
507 518
508 517
509 516
510 515
511 515
512 514
513 514
514 513
515 513
516 513
517 513
518 513
519 513
520 512
521 511
522 510
523 509
524 509
525 508
526 507
527 507
528 508
529 507
530 506
531 505
532 504
533 504
533 503
534 502
535 502
536 502
537 503
538 503
539 503
540 503
541 504
542 504
543 505
544 506
545 506
546 507
547 507
547 506
548 505
549 504
550 503
551 502
552 501
553 502
553 501
554 500
555 499
556 498
557 497
558 496
559 497
560 497
561 498
562 498
563 497
564 496
565 495
566 494
567 493
568 492
569 491
570 490
571 490
572 490
573 490
574 490
575 490
576 490
577 491
578 490
578 489
579 488
580 487
580 486
581 485
582 484
583 483
583 482
584 481
585 480
586 480
587 480
588 480
588 479
589 478
589 477
590 476
591 475
592 474
592 473
593 472
594 472
595 472
596 472
597 472
598 472
599 472
600 472
601 473
601 472
601 471
602 470
603 469
603 468
604 467
604 466
604 465
605 464
606 464
607 464
608 465
608 464
608 463
608 462
608 461
609 460
609 459
609 458
610 457
611 457
612 456
613 457
614 457
615 456
615 455
616 454
616 453
617 452
618 451
619 450
620 449
621 448
622 447
623 446
624 445
625 446
626 446
627 446
628 446
629 446
630 446
631 446
632 447
633 446
634 445
634 444
634 443
635 442
635 441
634 440
634 439
634 438
635 437
636 436
637 435
638 435
639 434
640 434
641 434
642 434
642 433
642 432
642 431
643 430
643 429
643 428
644 427
645 426
645 425
645 424
646 423
647 422
647 421
647 420
648 419
649 418
650 418
651 417
651 416
651 415
652 414
652 413
653 412
653 411
653 410
654 409
655 408
656 407
657 406
658 405
659 405
660 405
661 405
662 406
663 407
664 406
664 405
665 404
665 403
665 402
666 401
666 400
666 399
666 398
666 397
667 396
668 396
668 395
668 394
669 393
669 392
669 391
669 390
669 389
669 388
669 387
670 386
670 385
671 384
671 383
671 382
670 381
671 380
672 379
673 378
674 377
675 377
676 377
677 377
677 376
677 375
678 374
678 373
678 372
679 371
680 370
680 369
680 368
680 367
680 366
681 365
681 364
680 363
681 362
682 361
683 360
683 359
683 358
683 357
683 356
683 355
683 354
683 353
682 352
682 351
682 350
682 349
682 348
683 347
682 346
682 345
681 345
680 344
681 343
682 343
683 342
683 341
684 340
684 339
684 338
684 337
685 336
685 335
685 334
685 333
685 332
686 331
687 330
687 329
686 328
686 327
685 326
685 325
685 324
685 323
685 322
685 321
685 320
685 319
685 318
685 317
685 316
685 315
685 314
685 313
685 312
685 311
685 310
684 309
684 308
684 307
684 306
684 305
683 304
683 303
682 302
682 301
682 300
683 299
684 299
685 299
686 299
687 299
688 299
689 299
690 299
691 299
692 299
693 299
694 299
695 299
696 299
697 300
698 300
699 300
700 300
701 300
702 300
703 300
704 300
705 300
706 300
707 300
708 300
709 301
710 301
711 301
712 301
713 301
714 301
715 301
716 301
717 302
718 302
719 302
720 302
721 303
722 303
723 303
724 303
725 303
726 303
727 303
728 303
729 303
730 303
731 303
732 303
733 303
734 303
735 303
736 303
737 303
738 303
739 304
740 304
741 304
742 304
743 304
744 304
745 304
746 304
747 304
748 304
749 304
750 304
751 304
752 304
753 304
754 305
755 305
756 305
757 305
758 305
759 305
760 305
761 305
762 306
763 306
764 307
765 307
766 307
767 306
768 305
769 306
770 306
771 307
772 307
773 306
773 305
772 304
772 303
772 302
772 301
771 300
771 299
770 298
769 297
769 296
768 295
767 295
766 294
765 294
764 294
763 294
762 294
761 293
760 293
759 293
758 293
757 293
756 293
755 293
754 293
753 293
752 293
751 294
750 294
749 294
748 293
747 294
746 294
745 294
744 294
743 294
742 294
741 294
740 295
739 295
738 295
737 295
736 295
735 295
734 295
733 295
732 295
731 295
730 295
729 295
728 295
727 295
726 295
725 295
724 295
723 295
722 295
721 295
720 294
719 294
718 294
717 294
716 294
715 294
714 294
713 294
712 294
711 294
710 294
709 294
708 293
707 293
706 293
705 293
704 293
703 293
702 293
701 293
700 293
699 293
698 293
697 293
696 292
695 292
694 292
693 292
692 292
691 292
690 291
689 291
688 291
687 291
686 290
685 290
684 289
685 288
686 288
687 287
688 286
689 285
690 285
691 284
692 283
693 282
694 281
695 280
695 279
696 278
697 277
697 276
698 275
698 274
699 273
699 272
699 271
700 270
700 269
701 268
701 267
701 266
701 265
702 264
702 263
702 262
703 261
703 260
703 259
704 258
704 257
704 256
705 255
705 254
705 253
706 252
706 251
707 250
707 249
708 248
707 247
706 247
705 246
705 245
705 244
705 243
706 242
706 241
706 240
706 239
707 238
707 237
707 236
708 235
707 234
707 233
707 232
707 231
707 230
707 229
707 228
707 227
708 226
708 225
707 225
706 224
705 223
704 222
704 221
704 220
704 219
704 218
703 217
703 216
703 215
703 214
704 213
704 212
703 212
702 211
701 210
701 209
701 208
701 207
702 206
702 205
702 204
703 203
703 202
702 202
701 201
700 200
699 200
698 199
697 199
696 199
695 198
695 197
694 196
694 195
694 194
694 193
693 192
693 191
694 190
693 190
692 189
691 188
691 187
691 186
690 185
690 184
690 183
690 182
689 181
689 180
689 179
688 179
687 179
686 179
685 179
684 179
683 179
682 178
682 177
681 176
681 175
681 174
680 173
680 172
680 171
679 170
679 169
679 168
678 167
677 167
676 167
675 167
674 167
673 166
673 165
673 164
672 163
672 162
672 161
671 161
670 161
669 160
669 159
668 158
668 157
667 156
666 156
665 156
664 157
663 157
662 157
661 158
660 158
659 159
658 158
657 158
656 158
656 159
655 160
654 161
653 161
652 162
651 162
650 161
649 160
648 159
647 158
646 157
646 156
646 155
645 155
644 155
643 154
642 154
641 154
640 153
640 152
639 151
639 150
638 149
637 148
637 147
636 147
635 147
634 147
633 147
632 146
632 145
631 144
631 143
630 142
630 141
629 140
629 139
628 139
627 139
626 139
625 139
624 139
623 139
622 139
621 139
620 139
619 139
618 140
617 141
616 140
615 139
614 138
613 137
612 136
611 136
610 135
609 134
609 133
608 132
607 132
606 132
605 132
604 132
603 131
602 130
602 129
601 128
600 127
600 126
599 125
598 124
598 123
597 123
596 123
595 122
595 121
594 120
594 119
593 118
593 117
593 116
592 117
591 117
590 117
589 117
588 118
587 118
586 119
585 119
584 119
583 120
582 120
581 120
580 119
580 118
579 117
578 117
577 116
576 115
576 114
575 113
574 112
574 111
573 111
572 111
571 111
570 111
569 112
568 111
568 110
567 109
566 108
565 107
564 106
563 105
563 104
562 103
561 102
560 101
559 102
558 103
557 103
556 104
555 104
554 105
553 105
552 105
551 104
550 103
549 103
548 102
547 101
546 100
545 101
544 100
543 99
542 98
541 97
540 96
539 96
538 97
537 98
536 98
535 99
534 98
533 98
532 97
531 97
530 96
529 95
528 95
527 94
526 93
525 92
524 93
523 94
522 94
521 93
520 92
519 91
518 90
517 89
516 88
515 87
515 86
514 87
513 87
512 88
511 89
510 89
509 90
508 90
507 91
506 91
505 90
504 90
504 91
503 92
502 93
501 93
500 93
499 92
498 92
497 91
496 91
495 90
494 90
493 89
492 89
491 88
491 87
490 88
489 88
488 88
487 89
486 88
485 87
484 87
483 86
482 86
481 85
480 84
480 83
479 84
478 84
477 84
476 84
475 83
474 82
473 81
472 80
471 79
470 78
470 77
469 77
468 77
467 78
466 78
465 79
464 79
463 80
462 79
461 78
460 78
459 77
458 76
457 76
456 75
455 75
454 74
453 73
452 73
451 72
451 71
450 71
449 70
448 69
448 68
447 67
446 66
445 67
444 67
443 68
442 69
441 69
440 70
439 69
438 68
437 67
436 66
435 65
434 65
433 64
432 63
431 62
430 61
430 62
429 63
428 63
427 64
426 65
425 65
424 64
423 64
422 63
421 62
420 61
419 60
418 59
417 59
416 59
415 58
414 57
413 56
412 55
411 55
411 56
410 57
409 58
408 59
407 60
406 61
405 62
404 62
403 62
402 62
402 63
402 64
401 65
401 66
400 67
399 67
398 66
397 66
396 66
395 65
394 65
393 65
392 65
391 65
390 65
389 65
388 64
387 64
386 63
385 62
384 61
384 60
383 61
382 61
381 62
380 62
379 62
378 63
377 63
376 62
375 61
374 61
373 61
372 60
371 60
370 59
369 59
368 58
368 57
367 56
366 57
365 58
364 59
363 58
362 58
361 57
360 57
359 56
358 56
357 56
356 55
355 54
354 54
353 53
352 52
351 51
350 51
350 52
349 53
348 54
347 55
346 55
346 56
345 57
344 58
343 58
342 58
341 58
340 58
339 58
338 57
337 57
336 57
335 57
334 56
333 57
332 57
331 56
330 56
329 55
328 55
327 54
326 53
325 53
324 54
323 55
322 55
321 55
320 55
319 54
318 54
317 53
316 53
315 53
314 52
313 51
312 51
311 52
310 52
309 52
308 51
307 51
306 50
307 49
306 49
