360 59
359 60
358 60
357 60
356 60
355 60
354 60
353 60
352 60
351 60
350 60
349 60
348 60
347 60
346 60
345 60
344 60
343 60
342 60
341 60
340 60
339 60
338 60
337 60
336 60
335 61
334 61
333 61
332 61
331 61
330 61
329 61
328 62
327 62
326 62
325 62
324 62
323 62
322 62
321 62
320 62
319 62
318 62
317 63
316 63
315 63
314 63
313 63
312 63
311 63
310 63
309 63
308 63
307 63
306 63
305 63
304 63
303 63
302 63
301 63
300 63
299 63
298 63
297 63
296 63
295 63
294 63
293 63
292 63
291 63
290 63
289 63
288 63
287 63
286 64
285 64
284 64
283 64
282 64
281 64
280 64
279 64
278 65
277 65
276 65
275 65
274 66
273 66
272 66
271 66
270 67
269 67
268 67
267 68
266 68
265 68
264 69
263 69
262 69
261 70
260 70
259 70
258 71
257 71
256 72
255 72
254 73
253 73
252 74
251 74
250 75
249 75
248 76
247 76
246 77
245 78
244 78
243 79
242 79
241 80
240 80
239 81
238 81
237 82
236 83
235 83
234 84
233 84
232 85
231 86
230 86
229 87
228 87
227 88
226 88
225 89
224 89
223 90
222 91
221 91
220 92
219 92
218 93
217 94
216 94
215 95
214 95
213 96
212 97
211 97
210 97
209 98
208 99
207 99
206 100
205 100
204 101
203 101
202 102
201 103
200 103
199 104
198 105
197 105
196 105
195 106
194 106
193 107
192 108
191 108
190 109
189 109
188 110
187 111
186 111
185 112
184 113
183 113
182 114
181 115
180 116
179 117
178 117
177 118
176 119
175 120
174 121
173 121
172 122
171 123
170 124
169 124
168 125
167 126
166 127
165 128
164 129
163 130
162 131
161 132
160 133
159 134
158 135
158 136
157 137
156 138
155 139
154 140
153 141
152 142
151 143
150 144
149 145
148 146
147 147
146 148
145 149
144 150
143 151
142 152
141 153
140 154
140 155
139 156
138 157
137 158
136 159
135 160
134 161
133 162
132 163
131 164
130 165
129 166
128 167
127 168
126 169
125 170
124 171
123 172
122 173
121 174
120 175
119 176
118 177
117 178
116 179
115 180
114 181
113 182
112 183
111 183
110 184
109 185
108 185
107 186
106 187
105 187
104 188
103 189
102 189
101 190
100 191
99 192
98 193
97 193
96 194
95 195
94 195
93 196
92 197
91 197
90 198
89 198
88 199
87 200
86 200
85 201
84 201
83 202
82 202
81 203
80 203
79 204
78 204
77 205
76 205
75 206
74 206
73 207
72 207
71 208
70 208
69 209
68 209
67 210
66 210
65 211
64 212
63 213
62 213
62 214
61 215
60 215
59 216
59 217
60 217
61 217
62 218
63 218
64 218
65 219
66 219
67 219
68 220
69 220
70 221
71 221
72 222
73 222
74 223
75 223
76 224
77 224
78 225
79 226
80 227
81 228
82 228
83 229
84 230
85 230
86 231
86 232
87 232
88 233
89 234
90 235
91 236
92 237
93 238
94 239
95 239
96 240
97 241
98 242
99 243
100 244
101 244
102 245
103 246
104 247
105 248
106 249
107 249
108 250
109 251
110 252
111 253
112 254
113 255
114 256
115 257
116 258
117 258
118 259
119 260
120 261
121 262
122 262
123 263
124 264
125 265
126 266
127 266
128 267
129 268
130 269
131 270
132 271
133 272
134 273
135 273
136 274
137 275
138 276
139 277
140 278
141 278
142 279
143 280
144 281
145 282
146 283
147 283
148 284
149 285
150 285
151 286
152 287
153 287
154 288
155 289
156 290
157 290
158 291
159 292
160 292
161 292
162 293
163 293
164 294
165 294
166 295
167 295
168 295
169 296
170 296
171 297
172 298
173 298
174 299
175 300
176 300
177 301
178 302
179 302
180 303
181 304
182 304
183 305
184 306
185 307
186 308
187 309
188 309
189 310
190 311
191 311
192 312
193 313
193 314
194 314
195 315
196 316
197 316
198 317
199 318
199 319
200 319
201 320
202 320
203 321
204 321
205 322
206 323
207 324
208 324
209 325
210 326
211 326
212 327
213 327
214 328
215 328
216 329
217 329
218 330
219 330
220 331
221 331
222 332
223 332
224 333
225 333
226 334
227 335
228 335
229 335
230 336
231 336
232 337
233 337
234 338
235 338
236 339
237 339
238 340
239 340
240 341
241 341
242 342
243 342
244 343
245 343
246 344
247 345
248 345
249 346
250 346
251 347
252 348
253 349
254 349
255 350
256 350
257 351
258 352
259 352
260 352
261 353
262 353
263 354
264 354
265 354
266 355
267 355
268 356
269 356
270 356
271 357
272 357
273 358
274 358
275 358
276 359
277 359
278 359
279 360
280 360
281 360
282 361
283 361
284 361
285 362
286 362
287 362
288 363
289 363
290 363
291 364
292 364
293 364
294 364
295 365
296 365
297 365
298 366
299 366
300 366
301 367
302 367
303 367
304 368
305 368
306 368
307 369
308 369
309 369
310 370
311 371
312 371
313 371
314 372
315 372
316 372
317 373
318 373
319 374
320 374
321 374
322 375
323 375
324 375
325 376
326 376
327 376
328 376
329 376
330 377
331 377
332 377
333 377
334 377
335 377
336 377
337 377
338 377
339 377
340 378
341 378
342 378
343 378
344 378
345 378
346 377
347 377
348 377
349 377
350 377
351 377
352 377
353 376
354 376
355 376
356 376
357 375
358 375
359 376
360 376
361 376
362 376
363 376
364 376
365 376
366 376
367 376
368 376
369 376
370 376
371 376
372 375
373 375
374 375
375 375
376 374
377 374
378 374
379 374
380 374
381 374
382 374
383 373
384 373
385 373
386 373
387 373
388 373
389 372
390 372
391 372
392 372
393 372
394 372
395 372
396 372
397 372
398 372
399 372
400 372
401 372
402 372
403 372
404 372
405 373
406 373
407 373
408 373
409 373
410 373
411 373
412 374
413 374
414 374
415 374
416 374
417 374
418 374
419 374
420 374
421 374
422 374
423 374
424 374
425 374
426 374
427 374
428 373
429 373
430 373
431 373
432 373
433 373
434 373
435 372
436 372
437 372
438 372
439 372
440 371
441 371
442 371
443 371
444 371
445 370
446 370
447 370
448 370
449 370
450 369
451 369
452 369
453 369
454 368
455 368
456 368
457 368
458 368
459 367
460 367
461 367
462 367
463 366
464 366
465 366
466 366
467 365
468 365
469 365
470 365
471 364
472 364
473 364
474 363
475 363
476 362
477 362
478 361
479 361
480 361
481 360
482 360
483 359
484 359
485 358
486 358
487 357
488 356
489 356
490 355
491 354
492 353
493 352
494 351
495 350
495 349
496 348
497 347
498 346
498 345
499 344
499 343
500 342
500 341
501 340
501 339
502 338
502 337
502 336
503 335
503 334
503 333
504 332
504 331
504 330
504 329
504 328
505 327
505 326
505 325
505 324
505 323
505 322
505 321
505 320
505 319
505 318
505 317
505 316
505 315
505 314
505 313
505 312
505 311
505 310
505 309
505 308
505 307
505 306
504 305
504 304
504 303
504 302
504 301
504 300
504 299
504 298
503 297
503 296
503 295
503 294
503 293
503 292
503 291
503 290
502 289
502 288
501 287
501 286
500 285
500 284
500 283
499 282
499 281
499 280
499 279
499 278
499 277
499 276
499 275
499 274
499 273
499 272
498 271
498 270
498 269
498 268
498 267
498 266
498 265
498 264
498 263
498 262
498 261
498 260
498 259
498 258
498 257
499 256
498 255
498 254
498 253
498 252
498 251
498 250
498 249
499 248
499 247
499 246
499 245
500 244
500 243
501 242
501 241
502 240
503 239
504 238
504 237
505 236
506 235
507 234
508 233
509 233
510 232
511 232
512 231
513 231
514 231
515 230
516 230
517 230
518 230
519 230
520 229
521 229
522 229
523 229
524 229
525 229
526 228
527 228
528 228
529 228
530 228
531 228
532 227
533 227
534 227
535 227
536 227
537 227
538 227
539 227
540 226
541 226
542 226
543 226
544 226
545 226
546 226
547 225
548 225
549 225
550 225
551 225
552 225
553 225
554 225
555 225
556 225
557 225
558 225
559 225
560 225
561 224
562 224
563 224
564 224
565 224
566 224
567 224
568 224
569 224
570 224
571 224
572 224
573 224
574 223
575 223
576 223
577 223
578 223
579 223
580 223
581 223
582 223
583 223
584 223
585 223
586 223
587 223
588 223
589 222
590 222
591 222
592 222
593 222
594 222
595 222
596 222
597 222
598 222
599 222
600 222
601 222
602 222
603 222
604 222
605 221
606 221
607 221
608 221
609 221
610 221
611 221
612 221
613 221
614 221
615 220
616 220
617 220
618 220
619 220
620 220
621 220
622 220
623 220
624 220
625 220
626 220
627 219
628 219
629 219
630 219
631 219
632 219
633 219
634 219
635 219
636 219
637 219
638 219
639 218
640 218
641 218
642 218
643 218
644 218
645 218
646 218
647 218
648 218
649 217
650 217
651 217
652 217
653 217
654 217
655 217
656 217
657 217
658 217
659 217
660 216
661 216
662 216
663 216
664 216
665 216
666 216
667 216
668 216
669 215
670 215
671 215
672 215
673 215
674 215
675 215
676 215
677 215
678 215
679 215
680 214
681 214
682 214
683 214
684 214
685 214
686 214
687 214
688 214
689 214
690 214
691 214
692 214
693 213
694 213
695 213
696 213
697 213
698 213
699 213
700 213
701 213
702 213
703 213
704 213
705 213
706 212
707 212
708 212
709 212
710 212
711 212
712 212
713 212
714 212
715 212
716 212
717 212
718 212
719 212
720 212
721 212
722 212
723 212
724 212
725 212
726 213
727 213
728 213
729 213
730 213
731 213
732 213
733 213
734 214
735 214
736 214
737 214
738 214
739 214
740 214
741 214
742 215
743 215
744 215
745 215
746 215
747 215
748 215
749 215
750 215
751 215
752 214
753 214
754 214
755 213
755 212
756 211
756 210
756 209
757 208
757 207
757 206
756 205
755 204
754 204
753 203
752 202
751 202
750 201
749 201
748 201
747 200
746 200
745 200
744 200
743 200
742 200
741 200
740 200
739 200
738 200
737 200
736 200
735 200
734 200
733 200
732 200
731 200
730 201
729 201
728 201
727 201
726 201
725 201
724 201
723 201
722 201
721 201
720 201
719 201
718 201
717 202
716 202
715 202
714 202
713 202
712 202
711 202
710 202
709 202
708 202
707 202
706 202
705 202
704 203
703 203
702 203
701 203
700 203
699 203
698 203
697 203
696 203
695 203
694 203
693 203
692 203
691 203
690 203
689 204
688 204
687 204
686 204
685 204
684 204
683 204
682 204
681 204
680 204
679 204
678 204
677 204
676 204
675 205
674 205
673 205
672 205
671 205
670 205
669 205
668 205
667 206
666 206
665 206
664 206
663 206
662 206
661 206
660 206
659 206
658 206
657 206
656 207
655 207
654 207
653 207
652 207
651 207
650 207
649 207
648 207
647 207
646 207
645 207
644 207
643 208
642 208
641 208
640 208
639 208
638 208
637 208
636 208
635 208
634 208
633 209
632 209
631 209
630 209
629 209
628 209
627 209
626 209
625 209
624 209
623 209
622 209
621 209
620 209
619 209
618 209
617 210
616 210
615 210
614 210
613 210
612 210
611 210
610 210
609 210
608 210
607 210
606 210
605 210
604 210
603 210
602 211
601 211
600 211
599 211
598 211
597 211
596 211
595 211
594 211
593 211
592 211
591 211
590 211
589 211
588 211
587 211
586 211
585 211
584 212
583 212
582 212
581 212
580 212
579 212
578 212
577 212
576 212
575 212
574 212
573 212
572 212
571 212
570 212
569 212
568 212
567 212
566 212
565 212
564 213
563 213
562 213
561 213
560 213
559 213
558 213
557 213
556 213
555 213
554 214
553 214
552 214
551 214
550 214
549 214
548 214
547 214
546 214
545 214
544 214
543 214
542 214
541 214
540 214
539 214
538 214
537 214
536 214
535 214
534 214
533 214
532 214
531 215
530 215
529 215
528 215
527 215
526 215
525 215
524 215
523 215
522 215
521 215
520 215
519 215
518 215
517 214
516 214
515 214
514 214
513 214
512 214
511 214
510 214
509 213
508 213
507 213
506 213
505 213
504 212
503 211
502 211
501 210
500 209
499 209
498 208
497 207
496 206
495 205
494 204
493 203
492 202
491 201
491 200
490 199
489 198
489 197
488 196
488 195
487 194
487 193
486 192
486 191
486 190
485 189
485 188
485 187
485 186
485 185
485 184
486 183
486 182
486 181
486 180
486 179
487 178
487 177
487 176
487 175
488 174
488 173
488 172
488 171
489 170
489 169
489 168
489 167
490 166
490 165
490 164
490 163
490 162
490 161
491 160
491 159
491 158
491 157
491 156
491 155
491 154
491 153
491 152
491 151
491 150
491 149
491 148
491 147
491 146
491 145
491 144
491 143
491 142
491 141
491 140
491 139
491 138
491 137
491 136
491 135
491 134
491 133
491 132
490 131
490 130
490 129
490 128
489 127
489 126
489 125
488 124
488 123
488 122
487 121
487 120
487 119
486 118
486 117
485 116
485 115
485 114
484 113
484 112
484 111
483 110
483 109
482 108
481 107
481 106
480 105
480 104
479 103
478 102
478 101
477 100
476 99
475 98
475 97
474 97
473 96
472 95
471 94
470 93
469 92
468 92
467 91
466 90
465 90
464 89
463 88
462 88
461 87
460 86
459 86
458 85
457 85
456 84
455 84
454 83
453 82
452 82
451 81
450 81
449 80
448 80
447 79
446 79
445 79
444 79
443 78
442 78
441 78
440 77
439 77
438 76
437 76
436 76
435 76
434 75
433 75
432 75
431 74
430 74
429 74
428 74
427 73
426 73
425 73
424 72
423 72
422 72
421 72
420 71
419 71
418 71
417 70
416 70
415 70
414 69
413 69
412 69
411 69
410 68
409 68
408 68
407 67
406 67
405 67
404 67
403 67
402 67
401 66
400 66
399 65
398 65
397 65
396 65
395 65
394 64
393 64
392 64
391 64
390 63
389 63
388 63
387 63
386 62
385 62
384 62
383 62
382 61
381 61
380 61
379 61
378 61
377 60
376 60
375 60
374 60
373 60
372 60
371 60
370 59
369 59
368 60
367 60
366 60
365 60
364 60
363 60
362 60
361 60
360 59
