347 42
346 43
345 43
344 43
343 43
342 43
341 44
340 44
339 44
338 44
337 44
336 45
335 45
334 45
333 46
332 46
331 46
330 46
329 47
328 47
327 47
326 47
325 47
324 47
323 47
322 47
321 46
320 47
319 47
318 47
317 47
316 48
315 49
314 49
313 49
312 49
311 49
310 50
309 50
308 51
307 51
306 52
305 52
304 52
303 53
302 53
301 53
300 53
299 53
298 53
297 53
296 53
295 53
294 53
293 53
292 53
291 53
290 53
289 52
288 51
287 51
286 50
285 51
284 50
283 50
282 51
281 51
280 52
279 52
278 53
277 52
276 52
275 51
274 51
273 51
272 51
271 51
270 51
269 51
268 51
267 51
266 52
265 52
264 52
263 52
262 52
261 51
260 51
259 51
258 51
257 51
256 50
255 50
254 50
253 50
252 50
251 50
250 49
249 49
248 49
247 49
246 49
245 49
244 49
243 49
242 49
241 48
240 48
239 49
238 49
237 49
236 49
235 48
234 49
233 49
232 49
231 49
230 49
229 49
228 49
227 50
226 50
225 50
224 51
223 51
222 51
221 51
220 52
219 52
218 52
217 53
216 53
215 54
214 54
213 55
212 55
211 55
210 55
209 55
208 56
207 56
206 56
205 57
204 57
203 58
202 58
201 58
200 58
199 59
198 60
197 60
196 61
195 62
194 62
193 63
193 64
192 65
191 65
190 66
189 66
188 66
187 67
186 67
185 68
184 68
183 68
182 68
181 69
180 69
179 69
178 70
177 70
176 70
175 70
174 71
173 71
172 71
171 72
170 72
169 73
168 73
167 74
166 74
165 75
164 75
163 75
162 76
161 76
160 77
159 77
158 78
157 79
156 79
155 80
154 81
153 82
152 83
151 83
150 84
149 85
148 86
147 86
146 87
145 87
144 88
143 89
142 89
141 90
140 90
139 91
138 92
137 93
136 93
135 94
134 94
133 95
132 95
131 96
130 97
129 97
128 98
127 99
126 99
125 100
124 101
123 101
122 102
121 103
120 104
119 105
118 105
118 106
117 107
116 107
115 108
114 109
113 110
112 111
111 112
110 113
109 114
108 115
107 116
106 117
105 117
105 118
104 119
103 119
102 120
101 121
100 122
99 123
98 123
97 124
96 125
95 126
94 127
93 128
92 128
91 129
90 130
89 131
88 132
87 132
86 133
85 134
84 135
83 136
82 137
81 138
81 139
80 140
79 141
78 142
77 143
76 144
75 145
75 146
74 147
73 147
73 148
72 149
71 150
70 151
69 152
68 153
68 154
67 155
66 156
66 157
65 158
64 159
64 160
63 161
62 162
62 163
61 164
61 165
61 166
60 167
59 168
59 169
58 170
58 171
57 172
56 173
56 174
55 175
54 176
54 177
53 178
52 179
52 180
51 181
50 182
50 183
49 184
49 185
48 186
47 187
47 188
46 189
46 190
45 191
44 192
44 193
43 194
42 195
41 196
41 197
40 198
39 199
39 200
38 201
38 202
38 203
38 204
38 205
38 206
39 207
40 208
41 209
42 210
43 211
44 212
45 213
46 214
47 214
48 215
49 216
50 217
51 218
52 218
53 219
54 219
55 220
56 221
57 222
57 223
58 224
59 224
60 225
61 226
62 227
63 227
64 228
65 229
66 229
67 230
68 231
68 232
69 232
70 233
71 234
72 235
73 236
74 237
75 237
76 238
77 239
78 239
79 240
80 240
81 241
82 241
83 241
84 242
85 243
86 244
87 245
88 245
89 246
90 247
91 248
92 248
93 249
93 250
94 250
95 251
96 251
97 252
98 252
99 253
99 254
100 254
101 255
102 256
103 257
104 258
105 259
106 260
107 260
108 261
109 262
110 263
111 264
112 265
113 266
114 267
115 268
116 269
117 270
118 271
119 272
120 273
121 273
122 274
123 275
124 276
125 276
126 277
127 278
128 278
129 279
130 280
131 280
132 281
133 282
134 282
135 283
136 284
137 284
138 285
139 286
140 286
141 287
142 288
143 288
144 289
145 290
146 291
147 291
148 292
149 292
150 293
151 293
152 294
153 294
154 294
155 295
156 295
157 296
158 296
159 296
160 297
161 297
162 297
163 298
164 298
165 298
166 299
167 299
168 300
169 300
170 301
171 301
172 302
173 302
174 303
175 304
176 304
177 305
178 305
179 306
180 306
181 306
182 307
183 307
184 307
185 308
186 308
187 308
188 308
189 309
190 309
191 309
192 309
193 310
194 310
195 311
196 311
197 311
198 311
199 312
200 313
201 313
202 313
203 314
204 314
205 314
206 315
207 315
208 315
209 316
210 316
211 316
212 317
213 317
214 317
215 317
216 318
217 318
218 318
219 319
220 319
221 319
222 319
223 319
224 319
225 320
226 320
227 320
228 320
229 320
230 320
231 321
232 321
233 321
234 321
235 321
236 322
237 322
238 322
239 322
240 323
241 323
242 323
243 323
244 323
245 322
246 322
247 322
248 322
249 322
250 322
251 322
252 322
253 322
254 322
255 322
256 322
257 322
258 322
259 322
260 323
261 323
262 323
263 323
264 323
265 324
266 324
267 324
268 324
269 324
270 325
271 325
272 325
273 325
274 326
275 326
276 326
277 326
278 326
279 327
280 327
281 327
282 328
283 328
284 328
285 328
286 328
287 328
288 328
289 328
290 328
291 327
292 327
293 327
294 326
295 326
296 326
297 326
298 326
299 326
300 327
301 327
302 328
303 328
304 328
305 329
306 329
307 329
308 329
309 329
310 328
311 328
311 327
312 326
313 326
314 325
315 325
316 324
317 324
318 324
319 324
320 324
321 325
322 325
323 325
324 326
325 326
326 326
327 326
328 326
329 327
330 328
331 328
332 329
333 329
334 329
335 330
336 330
337 331
338 331
339 332
340 332
341 332
342 333
343 333
344 334
345 334
346 334
347 334
348 335
349 335
350 335
351 335
352 336
353 336
354 336
355 336
356 336
357 336
358 336
359 336
360 336
361 336
362 336
363 336
364 336
365 336
366 336
367 335
368 335
369 335
370 335
371 335
372 334
373 334
374 334
375 334
376 333
377 333
378 333
379 333
380 333
381 333
382 332
383 332
384 332
385 331
386 331
387 331
388 331
389 330
390 330
391 329
392 329
393 328
394 328
395 327
396 327
397 326
398 326
399 325
400 325
401 325
402 324
403 324
404 324
405 324
406 323
407 323
408 323
409 322
410 322
411 322
412 322
413 321
414 321
415 320
416 320
417 320
418 320
419 319
420 319
421 319
422 318
423 318
424 317
425 317
426 316
427 316
428 316
429 315
430 314
431 314
432 313
433 312
434 312
435 311
436 310
437 309
438 308
439 307
440 307
441 306
442 305
443 304
444 303
445 303
446 302
447 301
448 300
449 299
450 298
451 298
452 297
453 297
454 296
455 295
456 295
457 294
458 293
459 292
460 291
461 290
462 289
462 288
463 287
463 286
464 285
464 284
464 283
464 282
465 281
465 280
466 279
467 279
467 278
468 277
469 277
470 276
471 276
472 275
473 275
474 275
475 275
476 275
477 275
478 275
479 275
480 274
481 274
482 274
483 273
484 273
485 272
486 271
487 272
488 271
489 270
490 269
491 269
492 268
492 267
493 266
493 265
494 264
495 264
496 264
497 263
498 262
499 262
500 261
501 260
502 259
503 259
504 258
505 258
506 258
507 257
508 257
509 256
510 256
511 256
512 255
513 254
514 254
515 253
516 253
517 253
518 252
519 252
520 252
521 252
522 251
523 251
524 251
525 251
526 250
527 250
528 251
529 250
530 249
531 248
532 248
533 247
534 247
534 246
535 245
536 245
537 244
538 243
539 243
539 242
540 241
541 241
542 240
542 239
542 238
543 237
544 236
545 235
546 235
547 234
548 234
549 233
550 233
551 232
552 232
553 231
554 231
555 230
556 229
557 228
558 228
559 227
560 227
561 226
562 226
563 226
564 226
565 226
566 225
567 225
568 224
569 224
570 223
571 222
572 221
573 220
574 219
575 218
576 217
577 216
578 215
579 215
580 214
581 214
582 213
583 213
584 212
585 211
586 211
587 210
588 209
589 208
590 208
591 207
592 206
593 205
594 205
595 205
596 205
597 204
598 204
599 204
600 204
601 204
602 204
603 204
604 204
605 204
606 204
607 204
608 204
609 204
610 204
611 204
612 204
613 205
614 205
615 205
616 205
617 205
618 205
619 205
620 205
621 206
622 206
623 206
624 206
625 206
626 207
627 207
628 207
629 207
630 208
631 208
632 208
633 208
634 208
635 209
636 209
637 209
638 209
639 209
640 210
641 210
642 210
643 210
644 211
645 211
646 211
647 211
648 211
649 212
650 212
651 212
652 212
653 212
654 212
655 212
656 213
657 213
658 213
659 213
660 214
661 214
662 214
663 214
664 215
665 215
666 215
667 216
668 216
669 216
670 216
671 216
672 217
673 217
674 217
675 217
676 218
677 218
678 218
679 218
680 219
681 219
682 219
683 219
684 219
685 220
686 220
687 220
688 220
689 221
690 221
691 221
692 221
693 221
694 221
695 222
696 222
697 222
698 222
699 222
700 222
701 223
702 223
703 223
704 223
705 223
706 223
707 224
708 224
709 224
710 224
711 224
712 224
713 224
714 224
715 224
716 223
717 223
718 223
719 222
720 222
721 223
722 222
723 222
724 221
725 220
726 219
727 219
728 219
729 218
730 218
731 217
731 216
732 215
733 215
732 214
732 213
732 212
731 212
730 212
729 211
728 211
727 212
726 212
725 212
724 212
723 212
722 212
721 212
720 211
719 211
718 211
717 211
716 211
715 211
714 211
713 211
712 211
711 210
710 210
709 210
708 210
707 210
706 210
705 210
704 209
703 209
702 209
701 209
700 209
699 209
698 208
697 208
696 208
695 208
694 208
693 208
692 207
691 207
690 207
689 207
688 207
687 206
686 206
685 206
684 206
683 205
682 205
681 205
680 205
679 204
678 204
677 204
676 204
675 204
674 203
673 203
672 203
671 203
670 202
669 202
668 202
667 202
666 201
665 201
664 201
663 201
662 201
661 201
660 200
659 200
658 200
657 200
656 199
655 199
654 199
653 199
652 199
651 198
650 198
649 198
648 198
647 198
646 197
645 197
644 197
643 197
642 196
641 196
640 196
639 196
638 196
637 196
636 195
635 195
634 195
633 194
632 194
631 194
630 194
629 194
628 193
627 193
626 193
625 193
624 193
623 192
622 192
621 192
620 192
619 191
618 191
617 191
616 191
615 191
614 190
613 190
612 190
611 190
610 190
609 190
608 189
607 189
606 189
605 189
604 188
603 188
602 188
601 187
600 187
599 187
598 186
597 186
596 185
595 184
594 183
593 182
592 181
591 180
590 179
589 178
588 178
587 177
586 177
585 176
584 175
583 175
582 174
581 174
580 173
579 173
578 172
577 171
576 171
575 170
574 170
573 170
572 170
571 169
570 169
569 169
568 168
567 168
566 167
565 167
564 166
563 165
562 164
562 163
561 162
560 161
559 160
558 159
557 158
557 157
556 156
555 155
554 154
553 153
552 152
552 151
551 150
550 149
549 148
548 147
547 146
547 145
546 145
545 144
544 143
543 142
542 141
541 141
540 140
539 139
538 138
537 137
536 136
535 135
534 134
533 134
532 133
531 132
530 131
529 130
528 129
527 128
526 127
525 126
524 125
523 124
522 123
521 122
520 121
519 121
518 120
517 119
516 119
515 118
514 118
513 117
512 116
511 116
510 115
509 115
508 115
507 115
506 115
505 114
504 113
504 112
503 111
502 110
501 109
500 108
499 107
498 106
497 105
496 104
495 103
494 103
493 102
492 101
491 101
490 100
489 100
488 99
487 99
486 99
485 99
484 99
483 99
482 99
481 99
480 99
479 99
478 98
477 98
476 98
475 98
474 98
473 97
472 96
471 95
470 94
470 93
469 92
468 91
467 90
466 89
465 88
464 88
463 87
462 86
461 86
460 85
459 85
458 84
457 84
456 83
455 83
454 83
453 82
452 82
451 81
450 81
449 80
449 79
448 78
447 78
446 77
445 76
444 76
443 75
442 75
441 74
440 73
439 73
438 72
438 71
437 70
436 70
435 69
434 68
433 67
432 66
431 66
430 65
429 65
428 64
427 63
426 62
425 62
424 61
423 61
422 60
421 60
420 59
419 58
418 58
417 57
416 57
415 56
414 56
413 55
412 54
411 54
410 53
409 53
408 52
407 52
406 52
405 52
404 51
403 50
402 49
401 49
400 48
399 48
398 48
397 47
396 47
395 46
394 46
393 46
392 45
391 45
390 45
389 45
388 44
387 44
386 44
385 44
384 43
383 43
382 43
381 43
380 43
379 43
378 43
377 43
376 43
375 43
374 43
373 43
372 43
371 43
370 43
369 43
368 43
367 43
366 43
365 43
364 43
363 43
362 43
361 43
360 43
359 43
358 43
357 43
356 43
355 43
354 43
353 43
352 42
351 42
350 42
349 42
348 42
347 42
