80 254
80 255
80 256
80 257
80 258
80 259
81 260
82 260
83 261
84 261
85 262
86 262
87 263
88 264
89 265
90 266
91 267
92 268
93 268
94 269
95 269
96 270
97 270
98 271
99 271
100 272
101 272
102 273
103 273
104 273
105 274
106 274
107 274
108 275
109 275
110 275
111 275
112 276
113 276
114 277
115 277
116 277
117 277
118 278
119 278
120 278
121 278
122 279
123 279
124 280
125 280
126 281
127 281
128 281
129 282
130 282
131 282
132 282
133 283
134 283
135 283
136 283
137 283
138 284
139 284
140 284
141 284
142 285
143 285
144 285
145 285
146 286
147 286
148 286
149 287
150 287
151 287
152 287
153 287
154 288
155 288
156 288
157 288
158 289
159 289
160 289
161 290
162 290
163 290
164 290
165 291
166 291
167 291
168 291
169 292
170 292
171 292
172 292
173 292
174 293
175 293
176 293
177 293
178 293
179 293
180 294
181 294
182 294
183 294
184 295
185 295
186 295
187 295
188 296
189 296
190 296
191 297
192 297
193 297
194 297
195 297
196 298
197 298
198 298
199 298
200 298
201 299
202 299
203 299
204 299
205 299
206 299
207 300
208 300
209 300
210 300
211 301
212 301
213 301
214 301
215 301
216 302
217 302
218 302
219 303
220 303
221 303
222 303
223 304
224 304
225 304
226 304
227 305
228 305
229 305
230 305
231 306
232 306
233 306
234 306
235 306
236 307
237 307
238 307
239 307
240 307
241 308
242 308
243 308
244 308
245 308
246 308
247 308
248 308
249 309
250 309
251 309
252 309
253 309
254 309
255 310
256 310
257 310
258 310
259 310
260 310
261 310
262 310
263 310
264 311
265 311
266 311
267 311
268 311
269 311
270 311
271 311
272 311
273 311
274 311
275 312
276 312
277 312
278 312
279 312
280 312
281 312
282 313
283 313
284 313
285 313
286 313
287 313
288 313
289 313
290 313
291 314
292 314
293 314
294 314
295 314
296 314
297 314
298 314
299 314
300 314
301 314
302 314
303 314
304 314
305 314
306 314
307 314
308 314
309 314
310 314
311 315
312 315
313 315
314 315
315 315
316 315
317 315
318 316
319 316
320 316
321 316
322 316
323 316
324 316
325 316
326 316
327 317
328 317
329 317
330 317
331 317
332 317
333 317
334 317
335 317
336 317
337 317
338 317
339 317
340 317
341 317
342 317
343 317
344 317
345 317
346 317
347 317
348 317
349 318
350 318
351 318
352 318
353 318
354 318
355 318
356 318
357 318
358 318
359 318
360 318
361 318
362 318
363 318
364 318
365 318
366 318
367 318
368 318
369 318
370 318
371 318
372 318
373 318
374 318
375 318
376 318
377 318
378 318
379 318
380 318
381 318
382 318
383 318
384 318
385 318
386 318
387 318
388 318
389 318
390 317
391 317
392 317
393 317
394 317
395 317
396 316
397 316
398 316
399 316
400 316
401 316
402 315
403 315
404 315
405 315
406 315
407 315
408 314
409 314
410 314
411 314
412 314
413 314
414 313
415 313
416 313
417 313
418 313
419 313
420 313
421 313
422 313
423 313
424 312
425 312
426 312
427 312
428 312
429 312
430 312
431 311
432 311
433 311
434 311
435 311
436 311
437 311
438 311
439 311
440 311
441 311
442 311
443 311
444 311
445 310
446 310
447 310
448 310
449 310
450 310
451 310
452 309
453 309
454 309
455 309
456 309
457 309
458 309
459 309
460 309
461 309
462 308
463 308
464 308
465 308
466 308
467 308
468 308
469 308
470 308
471 307
472 307
473 307
474 307
475 307
476 307
477 306
478 306
479 306
480 306
481 306
482 306
483 305
484 305
485 305
486 305
487 305
488 304
489 304
490 304
491 304
492 303
493 303
494 303
495 303
496 303
497 303
498 303
499 302
500 302
501 302
502 301
503 301
504 301
505 301
506 300
507 300
508 300
509 299
510 299
511 299
512 299
513 298
514 298
515 298
516 298
517 297
518 297
519 297
520 297
521 296
522 296
523 296
524 296
525 295
526 295
527 295
528 294
529 294
530 294
531 294
532 293
533 293
534 293
535 293
536 292
537 292
538 292
539 292
540 291
541 291
542 291
543 291
544 291
545 290
546 290
547 290
548 290
549 290
550 290
551 289
552 289
553 289
554 289
555 288
556 288
557 288
558 287
559 287
560 287
561 287
562 287
563 286
564 286
565 286
566 285
567 285
568 285
569 285
570 284
571 284
572 284
573 284
574 283
575 283
576 283
577 283
578 283
579 282
580 282
581 282
582 281
583 281
584 281
585 281
586 280
587 280
588 280
589 280
590 280
591 280
592 279
593 279
594 279
595 279
596 278
597 278
598 278
599 278
600 277
601 277
602 277
603 277
604 276
605 276
606 276
607 275
608 275
609 275
610 275
611 274
612 274
613 274
614 273
615 273
616 273
617 272
618 272
619 272
620 271
621 271
622 271
623 271
624 270
625 270
626 270
627 269
628 269
629 269
630 268
631 268
632 267
633 267
634 266
635 266
636 265
637 265
638 265
639 264
640 264
641 263
642 263
643 263
644 262
645 262
646 261
647 261
648 261
649 260
650 260
651 260
652 259
653 259
654 258
655 258
656 258
657 257
658 257
659 256
660 256
661 255
662 255
663 254
664 254
665 254
666 255
667 255
668 256
669 256
670 257
671 257
672 258
673 259
674 259
675 260
676 261
676 262
677 263
677 264
678 265
678 266
679 267
679 268
680 269
680 270
681 271
681 272
682 273
683 273
684 273
685 273
686 273
687 273
688 273
689 273
690 273
691 273
692 272
693 271
694 270
694 269
694 268
694 267
694 266
694 265
694 264
694 263
694 262
694 261
694 260
694 259
694 258
694 257
694 256
693 255
692 254
691 253
690 252
689 251
688 250
687 249
686 248
685 247
684 246
683 246
682 245
681 244
680 243
679 243
678 242
677 242
676 241
675 241
674 240
673 240
672 239
671 239
670 238
669 238
668 238
667 237
666 237
665 237
664 237
663 237
662 237
661 237
660 236
659 236
658 236
657 236
656 235
655 235
654 235
653 235
652 235
651 234
650 234
649 234
648 234
647 234
646 234
645 234
644 234
643 233
642 233
641 233
640 233
639 233
638 233
637 233
636 233
635 233
634 233
633 233
632 232
631 232
630 232
629 232
628 232
627 232
626 232
625 231
624 231
623 231
622 230
621 230
620 230
619 230
618 229
617 229
616 228
615 228
614 227
613 226
612 226
611 225
610 225
609 224
608 224
607 223
606 223
605 222
605 221
604 220
604 219
603 219
602 219
601 219
600 219
599 219
598 220
597 220
596 221
595 220
594 220
593 220
592 219
591 219
590 218
589 218
588 217
587 217
586 216
585 216
584 215
583 214
582 214
581 214
580 214
579 213
578 213
577 213
576 213
575 213
574 213
573 213
572 213
571 213
570 213
569 213
568 213
567 213
566 212
565 212
564 211
563 211
562 211
561 211
560 211
559 211
558 211
557 211
556 211
555 211
554 211
553 212
552 212
551 212
550 211
549 211
548 211
547 211
546 211
545 211
544 211
543 211
542 211
541 210
540 210
539 210
538 210
537 210
536 210
535 210
534 210
533 210
532 210
531 210
530 210
529 210
528 210
527 210
526 210
525 210
524 209
523 209
522 209
521 209
520 208
519 208
518 208
517 208
516 208
515 208
514 208
513 207
512 207
511 207
510 207
509 207
508 207
507 207
506 207
505 207
504 207
503 207
502 207
501 207
500 207
499 207
498 207
497 207
496 207
495 207
494 206
493 206
492 206
491 206
490 206
489 206
488 206
487 206
486 206
485 206
484 206
483 206
482 206
481 206
480 206
479 206
478 206
477 206
476 206
475 206
474 206
473 206
472 206
471 206
470 206
469 205
468 205
467 205
466 205
465 205
464 205
463 205
462 205
461 205
460 205
459 205
458 205
457 205
456 205
455 205
454 205
453 205
452 205
451 205
450 205
449 205
448 205
447 205
446 205
445 205
444 204
443 204
442 204
441 204
440 204
439 204
438 204
437 204
436 204
435 204
434 204
433 204
432 204
431 204
430 204
429 204
428 204
427 204
426 204
425 205
424 205
423 205
422 205
421 205
420 205
419 205
418 205
417 205
416 205
415 205
414 205
413 205
412 205
411 205
410 205
409 205
408 205
407 205
406 205
405 205
404 205
403 205
402 205
401 205
400 205
399 205
398 206
397 206
396 206
395 206
394 206
393 206
392 206
391 206
390 206
389 206
388 206
387 206
386 206
385 206
384 206
383 206
382 206
381 206
380 207
379 207
378 207
377 206
376 206
375 206
374 206
373 206
372 206
371 206
370 206
369 206
368 205
367 205
366 205
365 205
364 205
363 205
362 205
361 205
360 205
359 205
358 205
357 205
356 205
355 205
354 205
353 205
352 205
351 205
350 205
349 205
348 205
347 205
346 205
345 205
344 205
343 205
342 205
341 204
340 204
339 204
338 204
337 204
336 204
335 204
334 204
333 204
332 204
331 204
330 204
329 204
328 204
327 204
326 204
325 204
324 204
323 204
322 204
321 204
320 204
319 204
318 204
317 204
316 204
315 204
314 204
313 204
312 204
311 204
310 205
309 205
308 205
307 205
306 205
305 205
304 205
303 205
302 205
301 205
300 205
299 206
298 206
297 206
296 206
295 206
294 206
293 206
292 206
291 206
290 206
289 207
288 207
287 207
286 207
285 207
284 207
283 207
282 207
281 207
280 207
279 207
278 207
277 207
276 207
275 207
274 207
273 207
272 207
271 208
270 208
269 208
268 208
267 208
266 208
265 208
264 208
263 208
262 208
261 208
260 208
259 208
258 208
257 208
256 208
255 208
254 208
253 208
252 209
251 209
250 209
249 209
248 209
247 209
246 209
245 209
244 210
243 210
242 210
241 211
240 211
239 211
238 211
237 211
236 211
235 211
234 211
233 211
232 211
231 211
230 211
229 211
228 211
227 211
226 211
225 211
224 211
223 211
222 211
221 212
220 212
219 212
218 212
217 212
216 212
215 213
214 213
213 213
212 213
211 213
210 214
209 214
208 214
207 215
206 215
205 216
204 216
203 217
202 217
201 218
200 218
199 218
198 218
197 218
196 218
195 218
194 218
193 219
192 219
191 219
190 219
189 220
188 220
187 221
186 221
185 222
184 222
183 223
182 223
181 223
180 223
179 223
178 223
177 223
176 223
175 223
174 224
173 224
172 224
171 225
170 225
169 226
168 226
167 226
166 226
165 227
164 227
163 227
162 227
161 227
160 228
159 228
158 228
157 228
156 228
155 228
154 228
153 228
152 228
151 228
150 228
149 228
149 229
148 230
147 230
146 231
145 231
144 232
143 232
142 233
141 233
140 233
139 234
138 234
137 235
136 235
135 236
134 236
133 236
132 237
131 237
130 238
129 238
128 239
127 239
126 239
125 239
124 240
123 240
122 240
121 241
120 241
119 241
118 242
117 242
116 242
115 243
114 243
113 244
112 244
111 245
110 245
109 246
108 246
107 247
106 247
105 248
104 248
103 249
102 249
101 250
100 250
99 251
98 251
97 252
96 252
95 253
94 253
93 253
92 254
91 254
90 255
89 255
88 255
87 255
86 254
85 254
84 254
83 254
82 254
81 254
80 254
