429 48
428 49
427 49
428 50
428 51
429 52
429 53
430 54
431 55
432 56
433 57
433 58
434 59
435 60
436 61
436 62
437 63
437 64
438 65
439 66
439 67
439 68
439 69
440 70
440 71
440 72
441 73
441 74
441 75
441 76
442 77
442 78
442 79
443 80
443 81
443 82
444 83
444 84
444 85
445 86
445 87
446 88
446 89
447 90
447 91
448 92
448 93
449 94
449 95
449 96
449 97
450 98
451 99
451 100
450 101
451 101
452 102
453 103
453 104
453 105
454 106
454 107
454 108
455 109
455 110
455 111
456 112
455 113
456 114
456 115
457 116
457 117
457 118
458 119
458 120
458 121
458 122
459 123
459 124
459 125
459 126
460 127
460 128
461 129
461 130
462 131
462 132
463 133
463 134
464 135
464 136
464 137
465 138
465 139
465 140
465 141
466 142
466 143
467 144
467 145
468 146
468 147
469 148
469 149
469 150
470 151
470 152
471 153
471 154
472 155
472 156
473 157
473 158
474 159
474 160
475 161
475 162
476 163
476 164
477 165
477 166
478 167
478 168
479 169
480 170
480 171
481 172
482 173
482 174
483 175
483 176
484 177
485 178
485 179
486 180
487 181
487 182
488 183
489 184
489 185
490 186
491 187
492 188
492 189
493 190
494 191
495 192
495 193
496 194
496 195
497 196
497 197
497 198
498 199
499 200
500 201
501 202
502 203
502 204
503 205
503 206
503 207
504 208
505 209
506 210
506 211
507 212
508 213
508 214
509 215
509 216
510 217
510 218
511 219
511 220
512 221
512 222
513 223
513 224
514 225
514 226
515 227
515 228
515 229
516 230
515 231
514 231
513 231
512 231
511 230
510 230
509 229
508 229
507 228
506 228
505 227
504 226
503 225
502 224
501 223
501 222
500 221
499 220
498 219
497 218
496 217
496 216
495 215
494 214
493 213
492 212
491 212
490 211
489 210
488 209
487 209
486 208
485 208
484 207
483 207
482 206
481 205
480 204
479 204
478 203
477 202
476 202
475 201
474 200
473 199
472 199
471 198
470 198
469 197
468 196
467 196
466 195
465 194
464 194
463 193
462 193
461 193
460 192
459 191
458 191
457 190
456 190
455 189
454 189
453 189
452 189
451 188
450 187
449 187
448 186
447 186
446 186
445 185
444 185
443 185
442 184
441 184
440 184
439 183
438 183
437 182
436 182
435 182
434 181
433 181
432 181
431 181
430 180
429 180
428 180
427 180
426 179
425 179
424 178
423 178
422 177
421 177
420 176
419 176
418 175
417 175
416 174
415 174
414 173
413 173
412 172
411 172
410 171
409 171
408 170
407 170
406 169
405 168
404 168
403 167
402 166
401 166
400 165
399 164
398 164
397 163
396 163
395 162
394 162
393 161
392 161
391 160
390 160
389 159
388 159
387 158
386 158
385 158
384 157
383 157
382 156
381 156
380 156
379 155
378 155
377 155
376 154
375 154
374 154
373 153
372 153
371 153
370 152
369 152
368 151
367 151
366 150
365 150
364 150
363 150
362 149
361 149
360 148
359 148
358 148
357 148
356 148
355 147
354 147
353 147
352 146
351 146
350 146
349 145
348 145
347 144
346 144
345 144
344 143
343 143
342 143
341 142
340 142
339 142
338 141
337 141
336 140
335 140
334 139
333 139
332 138
331 138
330 137
329 137
328 137
327 136
326 136
325 135
324 135
323 135
322 134
321 134
320 134
319 134
318 133
317 133
316 133
315 133
314 132
313 132
312 131
311 131
310 130
309 130
308 130
307 129
306 129
305 128
304 128
303 128
302 128
301 127
300 127
299 127
298 126
297 126
296 125
295 125
294 125
293 124
292 124
291 124
290 124
289 123
288 123
287 122
286 121
285 121
284 120
283 120
282 119
281 119
280 119
279 118
278 118
277 117
276 117
275 116
274 116
273 115
272 115
271 115
270 114
269 114
268 114
267 114
266 114
265 114
264 115
263 115
262 115
261 115
260 115
259 114
258 113
257 113
256 113
255 113
254 112
253 112
252 112
251 111
250 110
250 109
250 108
249 107
249 106
249 105
248 104
247 103
246 103
245 102
244 102
243 102
242 101
241 101
240 100
239 100
238 100
237 99
236 99
235 99
234 99
233 99
232 98
231 98
230 98
229 98
228 98
227 98
226 98
225 98
224 98
223 98
222 98
221 98
220 98
219 98
218 98
217 98
216 99
215 99
214 100
213 101
212 101
211 102
212 102
213 103
214 104
215 104
216 105
217 105
218 106
219 107
220 108
221 108
222 109
223 110
224 110
225 110
226 111
227 112
228 113
229 113
230 114
231 115
232 115
233 116
234 116
235 117
236 118
237 118
238 118
239 119
240 119
241 120
242 120
243 121
244 122
245 123
245 124
246 125
246 126
247 127
247 128
248 128
249 129
250 130
251 131
252 132
253 133
254 134
255 135
255 136
256 136
257 137
257 138
258 138
259 139
259 140
260 140
261 141
261 142
262 143
263 144
264 145
265 146
266 146
267 147
267 148
268 149
269 150
270 151
271 152
272 153
273 154
274 155
275 156
276 157
276 158
277 158
278 159
278 160
279 161
280 162
280 163
281 164
282 164
283 165
283 166
284 167
285 168
286 169
287 170
288 170
289 171
289 172
290 173
291 174
292 175
292 176
293 177
294 178
295 179
295 180
296 181
297 182
298 183
299 184
300 185
301 186
302 187
303 188
304 188
305 189
306 190
307 191
308 192
309 193
310 194
311 195
312 196
313 197
314 198
315 199
316 200
317 201
318 201
319 202
320 203
321 204
322 204
323 205
324 206
325 207
326 208
327 209
328 210
329 211
330 212
331 212
332 213
333 214
334 214
335 215
336 216
337 217
338 218
339 218
340 219
341 220
342 221
343 222
344 222
345 223
346 224
347 225
348 225
349 226
350 227
351 228
352 228
353 229
354 230
355 230
356 231
357 231
358 232
359 233
360 233
361 234
362 235
363 235
364 236
365 237
366 237
367 238
368 239
369 240
370 240
371 241
372 242
373 243
374 244
375 245
376 246
377 247
378 248
379 249
380 250
381 250
382 251
383 252
384 253
385 254
386 254
387 255
388 256
389 257
390 258
391 259
392 260
393 260
394 261
395 262
396 263
397 264
398 265
399 266
400 266
401 267
402 268
403 269
404 269
405 270
406 271
407 272
408 272
409 273
410 273
411 274
412 274
413 275
414 275
415 276
416 276
417 277
418 277
419 278
420 278
421 278
422 279
423 279
424 279
425 280
426 280
427 280
428 280
429 281
430 281
431 281
432 281
433 282
434 282
435 282
436 282
437 283
438 283
439 283
440 284
441 284
442 284
443 285
444 285
445 286
446 286
447 287
448 287
449 288
450 289
451 289
452 290
453 291
454 291
455 292
456 293
457 293
458 294
459 294
460 295
461 295
462 296
463 296
464 297
465 297
466 297
467 298
468 299
467 300
466 300
465 300
464 300
463 301
462 301
461 301
460 301
459 301
458 301
457 301
456 302
455 302
454 302
453 302
452 302
451 302
450 302
449 302
448 302
447 302
446 302
445 302
444 302
443 302
442 302
441 302
440 303
439 303
438 303
437 303
436 303
435 303
434 303
433 303
432 303
431 303
430 303
429 303
428 303
427 304
426 304
425 304
424 304
423 304
422 304
421 304
420 304
419 304
418 304
417 304
416 305
415 305
414 305
413 305
412 305
411 305
410 305
409 305
408 305
407 305
406 305
405 305
404 305
403 305
402 305
401 305
400 305
399 305
398 305
397 305
396 306
395 306
394 306
393 306
392 306
391 306
390 306
389 306
388 306
387 307
386 307
385 307
384 307
383 307
382 307
381 307
380 308
379 308
378 308
377 308
376 308
375 309
374 309
373 309
372 309
371 310
370 310
369 310
368 310
367 311
366 311
365 311
364 312
363 312
362 312
361 312
360 312
359 313
358 313
357 313
356 313
355 314
354 314
353 314
352 314
351 315
350 315
349 315
348 316
347 316
346 317
345 317
344 318
343 318
342 319
341 319
340 320
339 320
338 321
337 321
336 322
335 322
334 322
333 323
332 323
331 324
330 324
329 324
328 325
327 325
326 325
325 325
324 325
323 325
322 325
321 325
320 325
319 325
318 325
317 325
316 325
315 325
314 325
313 325
312 326
312 327
312 328
312 329
311 330
310 330
309 330
308 330
307 330
306 330
305 330
304 331
303 331
302 331
301 331
300 331
299 332
298 332
297 332
296 332
295 332
294 333
293 333
292 333
291 333
290 334
289 334
288 334
287 335
286 335
285 335
284 336
283 336
282 337
281 337
280 337
279 338
278 338
277 339
276 339
275 340
274 341
273 341
272 342
271 342
270 343
269 343
268 343
267 344
266 345
265 345
264 346
263 346
262 347
261 347
260 348
259 348
258 348
257 349
256 349
255 349
254 349
253 350
252 350
251 351
250 351
249 351
248 352
247 353
246 353
245 354
244 354
243 354
242 355
241 355
240 355
239 356
238 356
237 356
236 356
235 357
234 357
233 357
232 358
231 358
230 359
229 359
228 360
227 360
226 361
225 361
224 362
223 362
222 363
221 363
220 364
219 364
218 365
217 365
216 366
215 366
214 367
213 367
212 367
211 368
210 368
209 368
208 369
207 369
206 370
205 370
204 370
203 371
202 371
201 372
200 372
199 373
198 373
197 373
196 373
195 374
194 374
193 375
192 375
191 376
190 376
189 377
188 377
187 377
186 378
185 378
184 378
183 379
182 379
181 380
180 380
179 380
178 381
177 381
176 381
175 382
174 382
173 383
172 383
171 383
170 384
169 384
168 385
167 386
166 386
165 387
164 387
163 387
162 388
161 388
160 389
159 389
158 389
157 389
156 389
155 390
154 390
153 391
152 391
151 391
150 392
149 392
148 393
147 393
146 393
145 393
144 394
143 394
142 394
141 394
140 394
139 395
138 395
137 395
136 395
135 396
134 396
133 396
132 396
131 396
130 397
129 397
128 397
127 397
126 397
125 398
124 398
123 398
122 398
121 399
120 399
119 399
118 400
117 400
116 400
115 400
114 400
113 400
112 401
111 401
110 401
109 402
108 402
107 402
106 403
105 403
104 404
103 404
102 404
101 405
100 405
99 405
98 405
97 405
96 405
95 406
94 406
93 406
92 407
91 407
90 407
89 407
88 407
87 408
86 408
85 408
84 408
83 409
82 409
81 409
80 409
79 410
78 410
77 410
76 411
75 411
74 411
73 412
72 412
71 412
70 412
69 413
68 413
67 413
66 413
65 413
64 413
63 414
62 414
61 414
60 414
59 414
58 415
57 415
56 416
55 416
54 416
53 417
52 417
51 417
50 418
49 418
48 419
47 419
46 420
45 420
44 421
43 421
42 422
41 423
40 424
39 425
38 426
38 427
37 428
38 429
39 429
40 430
41 430
42 431
43 431
44 432
45 432
46 432
47 432
48 432
49 433
50 432
51 432
52 432
53 432
54 432
55 431
56 431
57 431
58 431
59 431
60 431
61 432
62 432
63 433
64 433
65 433
66 433
67 433
68 433
69 433
70 433
71 433
72 433
73 433
74 433
75 433
76 433
77 433
78 433
79 433
80 433
81 433
82 433
83 433
84 433
85 433
86 433
87 433
88 433
89 433
90 433
91 433
92 433
93 433
94 433
95 433
96 433
97 432
98 432
99 432
100 432
101 432
102 432
103 432
104 432
105 432
106 432
107 432
108 432
109 432
110 433
111 433
112 433
113 433
114 433
115 433
116 433
117 433
118 433
119 433
120 433
121 433
122 433
123 433
124 433
125 433
126 433
127 433
128 433
129 433
130 433
131 433
132 433
133 433
134 433
135 433
136 433
137 433
138 433
139 433
140 433
141 433
142 433
143 433
144 433
145 433
146 433
147 433
148 433
149 433
150 433
151 433
152 433
153 433
154 433
155 433
156 433
157 433
158 433
159 433
160 433
161 434
162 434
163 434
164 434
165 434
166 434
167 434
168 434
169 434
170 435
171 435
172 435
173 435
174 435
175 435
176 435
177 435
178 435
179 435
180 435
181 435
182 435
183 435
184 435
185 435
186 435
187 435
188 435
189 435
190 435
191 435
192 435
193 435
194 434
195 434
196 434
197 434
198 434
199 434
200 434
201 433
202 433
203 433
204 433
205 433
206 433
207 433
208 433
209 433
210 433
211 433
212 432
213 432
214 432
215 432
216 432
217 432
218 432
219 432
220 432
221 432
222 432
223 432
224 432
225 432
226 432
227 432
228 432
229 432
230 432
231 432
232 432
233 432
234 432
235 432
236 432
237 432
238 432
239 432
240 432
241 432
242 432
243 432
244 432
245 432
246 432
247 432
248 432
249 432
250 432
251 432
252 432
253 432
254 432
255 432
256 432
257 432
258 432
259 432
260 432
261 432
262 432
263 431
264 431
265 431
266 431
267 430
268 430
269 430
270 430
271 430
272 430
273 429
274 429
275 429
276 429
277 429
278 429
279 429
280 429
281 429
282 429
283 429
284 428
285 428
286 428
287 428
288 428
289 428
290 427
291 427
292 427
293 427
294 426
295 426
296 425
297 425
298 424
299 424
300 424
301 423
302 423
303 422
304 422
305 421
306 421
307 421
308 420
309 420
310 420
311 419
312 419
313 419
314 418
315 418
316 417
317 417
318 417
319 417
320 418
321 419
322 419
323 419
324 419
325 419
326 419
327 419
328 419
329 419
330 419
331 419
332 419
333 419
334 418
335 418
336 418
337 417
338 417
339 417
340 416
341 416
342 415
343 414
344 414
345 414
346 414
347 413
348 413
349 413
350 413
351 413
352 413
353 413
354 413
355 413
356 413
357 413
358 413
359 413
360 413
361 412
362 412
363 413
364 413
365 413
366 413
367 413
368 413
369 413
370 413
371 414
372 414
373 414
374 414
375 415
376 415
377 415
378 414
379 414
380 414
381 413
382 413
383 413
384 412
385 412
386 411
387 411
388 411
389 410
390 410
391 410
392 410
393 409
394 409
395 409
396 409
397 408
398 408
399 408
400 407
401 407
402 407
403 406
404 406
405 406
406 406
407 405
408 405
409 405
410 405
411 405
412 405
413 405
414 404
415 404
416 404
417 404
418 404
419 404
420 404
421 404
422 404
423 404
424 404
425 404
426 404
427 403
428 403
429 403
430 402
431 402
432 402
433 402
434 401
435 401
436 400
437 400
438 400
439 400
440 399
441 399
442 399
443 398
444 398
445 398
446 397
447 397
448 397
449 396
450 395
451 395
452 394
453 394
454 394
455 393
456 393
457 392
458 391
459 391
460 390
461 389
462 389
463 388
464 388
465 387
466 386
467 386
468 385
469 385
470 384
471 383
472 383
473 382
474 381
475 381
476 380
477 379
478 379
479 378
480 377
481 376
482 376
483 375
484 375
485 374
486 374
487 374
488 373
489 373
490 372
491 372
492 372
493 372
494 371
495 371
496 371
497 370
498 370
499 369
500 369
501 368
502 368
503 367
504 367
505 366
506 366
507 365
508 365
509 364
510 364
511 363
512 363
513 362
514 362
515 361
516 360
517 360
518 359
519 359
520 358
521 358
522 357
523 357
524 356
525 355
526 355
527 354
528 353
529 353
530 352
531 352
532 351
533 350
534 350
535 349
536 348
537 347
538 347
539 346
540 346
541 345
542 344
543 344
544 343
545 343
546 342
547 342
548 341
549 341
550 341
551 340
552 340
553 339
554 338
555 338
556 337
557 337
558 337
559 336
560 336
561 336
562 335
563 335
564 335
565 334
566 334
567 334
568 333
569 333
570 333
571 332
572 332
573 332
574 332
575 332
576 331
577 331
578 331
579 331
580 331
581 330
582 330
583 330
584 330
585 330
586 330
587 331
587 332
586 333
586 334
585 335
584 336
583 337
582 338
581 339
580 340
579 341
578 342
577 343
576 344
575 345
574 346
573 347
572 348
571 349
570 350
569 350
568 351
567 352
566 353
565 353
564 354
563 355
562 356
561 356
560 357
559 357
558 358
557 358
556 359
555 359
554 360
553 360
552 361
551 361
550 362
549 362
548 363
547 363
546 364
545 364
544 364
543 365
542 365
541 366
540 366
539 366
538 367
537 367
536 368
535 368
534 369
533 369
532 370
531 370
530 371
529 371
528 372
527 373
526 373
525 374
524 374
523 375
522 375
521 376
520 376
519 377
518 377
517 378
516 378
515 379
514 380
513 380
512 381
511 382
510 382
509 383
508 384
507 385
506 385
505 386
504 387
503 388
502 389
501 390
500 391
499 392
498 393
497 394
497 395
496 396
495 397
494 398
494 399
493 400
492 401
491 402
490 403
490 404
489 405
488 406
487 407
486 408
485 409
484 409
483 410
482 411
481 412
480 413
479 414
478 415
477 416
476 417
475 418
474 419
473 420
472 420
471 421
470 422
469 423
468 424
467 425
466 426
465 427
465 428
464 429
463 430
462 431
462 432
461 433
461 434
461 435
460 436
460 437
459 438
459 439
458 440
457 441
456 442
456 443
455 444
454 445
453 445
452 446
451 447
450 448
450 449
449 450
448 451
447 452
446 453
445 454
444 455
444 456
443 457
442 458
442 459
441 460
440 461
440 462
439 463
438 464
437 465
437 466
436 467
435 468
435 469
434 470
433 471
433 472
432 473
431 474
431 475
430 476
429 477
429 478
428 479
427 480
426 481
426 482
425 483
425 484
424 485
424 486
423 487
423 488
422 489
421 490
421 491
420 492
420 493
419 494
419 495
418 496
418 497
417 498
417 499
417 500
416 501
416 502
415 503
415 504
414 505
414 506
414 507
413 508
413 509
413 510
412 511
412 512
411 513
411 514
410 515
409 516
409 517
408 518
408 519
408 520
407 521
407 522
407 523
406 524
406 525
406 526
405 527
405 528
404 529
404 530
404 531
403 532
403 533
403 534
402 535
402 536
401 537
401 538
401 539
401 540
400 541
400 542
399 543
399 544
399 545
398 546
398 547
398 548
397 549
397 550
396 551
396 552
396 553
396 554
395 555
395 556
395 557
394 558
394 559
394 560
393 561
393 562
392 563
391 564
391 565
390 566
390 567
389 568
388 569
388 570
387 571
387 572
387 573
386 574
386 575
385 576
385 577
385 578
384 579
384 580
384 581
383 582
383 583
383 584
382 585
382 586
381 587
381 588
380 589
380 590
380 591
379 592
378 593
378 594
377 595
377 596
376 597
375 598
375 599
374 600
373 601
373 602
372 603
372 604
371 605
371 606
370 607
370 608
369 609
369 610
368 611
367 612
367 613
366 614
366 615
365 616
365 617
364 618
364 619
363 620
362 621
362 622
361 623
361 624
360 625
359 626
358 627
358 628
357 629
356 630
355 631
354 632
353 633
353 634
352 635
351 636
351 637
350 638
350 639
349 640
349 641
348 642
348 643
347 644
347 645
346 646
346 647
345 648
344 649
343 650
342 651
341 652
340 652
339 653
338 653
339 654
340 654
341 654
342 654
343 654
344 654
345 653
346 653
347 652
348 651
349 651
350 650
351 650
352 649
353 649
354 649
355 648
356 647
357 647
358 646
359 645
360 645
361 644
362 644
363 643
364 642
365 641
366 640
367 640
368 639
368 638
369 637
370 636
371 636
372 635
373 634
374 633
375 632
376 632
377 631
378 630
379 629
380 629
381 628
382 627
383 626
384 625
385 624
386 624
387 623
388 623
389 622
390 621
391 621
392 620
393 619
394 619
395 618
396 617
397 616
398 615
399 615
400 614
401 613
402 612
403 611
404 610
405 610
406 609
407 608
408 608
409 607
410 607
411 606
412 605
413 605
414 604
415 603
416 602
417 601
418 600
419 600
420 599
421 599
422 598
423 598
424 597
425 597
426 596
427 596
428 595
429 594
430 593
431 593
432 592
433 591
434 590
435 589
436 588
437 587
438 587
439 586
440 585
441 584
442 583
443 582
444 582
445 581
446 580
447 580
448 579
449 578
450 577
451 576
452 576
453 575
454 574
455 573
456 572
457 571
458 570
459 569
460 568
461 567
462 566
463 565
463 564
464 563
464 562
465 561
466 560
467 559
467 558
468 557
469 556
469 555
470 554
471 553
472 552
473 551
474 550
475 549
476 548
477 547
478 546
479 545
480 544
480 543
481 542
482 541
483 540
484 539
485 538
485 537
486 536
487 535
488 535
488 534
489 533
490 532
490 531
491 530
492 529
492 528
493 527
494 526
495 525
496 524
497 523
498 522
499 521
499 520
500 519
501 518
501 517
502 516
503 515
503 514
504 513
504 512
505 511
506 510
506 509
507 508
508 507
508 506
509 505
510 504
511 503
512 502
513 501
514 500
515 499
516 498
517 497
518 496
519 496
520 495
521 494
522 493
523 492
524 491
525 490
526 489
527 488
528 487
528 486
529 485
530 484
530 483
531 482
531 481
532 480
533 479
533 478
534 477
535 476
535 475
536 474
536 473
537 472
537 471
537 470
537 469
538 468
538 467
538 466
538 465
539 464
539 463
539 462
539 461
540 460
540 459
540 458
540 457
541 456
541 455
542 454
542 453
543 452
544 451
545 450
546 451
546 452
546 453
545 454
545 455
545 456
545 457
544 458
544 459
544 460
544 461
544 462
544 463
544 464
543 465
543 466
543 467
543 468
543 469
543 470
543 471
543 472
543 473
543 474
544 475
544 476
544 477
544 478
544 479
543 480
543 481
543 482
543 483
543 484
543 485
543 486
543 487
543 488
543 489
543 490
543 491
543 492
543 493
543 494
543 495
543 496
543 497
542 498
542 499
542 500
542 501
542 502
542 503
542 504
542 505
542 506
542 507
542 508
542 509
542 510
542 511
542 512
541 513
541 514
541 515
541 516
541 517
541 518
541 519
541 520
541 521
541 522
541 523
541 524
540 525
540 526
540 527
540 528
541 529
541 530
541 531
541 532
541 533
541 534
541 535
541 536
541 537
541 538
541 539
541 540
541 541
541 542
542 543
542 544
542 545
542 546
542 547
542 548
542 549
542 550
542 551
542 552
542 553
542 554
542 555
542 556
542 557
542 558
542 559
542 560
542 561
542 562
542 563
542 564
542 565
542 566
542 567
542 568
542 569
542 570
543 571
543 572
543 573
543 574
543 575
543 576
543 577
543 578
543 579
543 580
544 581
544 582
544 583
544 584
543 585
543 586
543 587
543 588
543 589
543 590
543 591
543 592
543 593
543 594
543 595
543 596
544 597
544 598
544 599
544 600
545 601
545 602
545 603
545 604
545 605
545 606
546 607
546 608
546 609
547 610
547 611
547 612
547 613
547 614
548 615
548 616
548 617
549 618
549 619
549 620
549 621
549 622
550 623
550 624
550 625
550 626
551 627
551 628
551 629
552 630
552 631
552 632
552 633
553 634
553 635
553 636
553 637
553 638
554 639
554 640
554 641
554 642
554 643
555 644
555 645
555 646
556 647
556 648
556 649
557 650
557 651
558 652
558 653
559 654
559 655
559 656
560 657
560 658
561 659
561 660
561 661
562 662
562 663
563 664
563 665
563 666
564 667
564 668
564 669
565 670
565 671
566 672
567 673
568 673
569 673
570 672
571 672
571 671
571 670
572 669
572 668
572 667
571 666
570 665
569 664
568 663
567 662
568 661
568 660
568 659
569 658
569 657
570 656
570 655
570 654
570 653
571 652
571 651
571 650
571 649
572 648
572 647
572 646
573 645
573 644
573 643
574 642
574 641
574 640
575 639
575 638
576 637
576 636
576 635
577 634
577 633
577 632
578 631
578 630
578 629
578 628
578 627
579 626
579 625
579 624
579 623
580 622
580 621
580 620
581 619
581 618
582 617
583 616
583 615
583 614
584 613
584 612
584 611
584 610
584 609
584 608
584 607
585 606
585 605
585 604
585 603
586 602
586 601
586 600
587 599
587 598
588 597
588 596
589 595
590 594
590 593
591 592
591 591
592 590
592 589
592 588
593 587
594 586
594 585
595 584
595 583
596 582
596 581
597 580
597 579
597 578
598 577
598 576
599 575
599 574
599 573
600 572
600 571
601 570
601 569
602 568
602 567
603 566
603 565
604 564
604 563
605 562
605 561
606 560
606 559
607 558
607 557
607 556
607 555
607 554
607 553
608 552
608 551
608 550
608 549
608 548
608 547
608 546
608 545
609 544
609 543
609 542
610 541
610 540
611 539
611 538
612 537
612 536
612 535
613 534
613 533
613 532
613 531
614 530
614 529
614 528
615 527
615 526
615 525
616 524
616 523
616 522
617 521
617 520
617 519
617 518
618 517
618 516
618 515
619 514
619 513
619 512
620 511
620 510
620 509
621 508
621 507
622 506
622 505
622 504
623 503
623 502
623 501
623 500
624 499
624 498
624 497
625 496
625 495
625 494
625 493
626 492
626 491
626 490
626 489
627 488
627 487
627 486
627 485
627 484
627 483
627 482
627 481
627 480
627 479
627 478
626 477
626 476
626 475
626 474
626 473
625 472
625 471
625 470
625 469
625 468
624 467
624 466
624 465
624 464
623 463
623 462
623 461
623 460
622 459
622 458
622 457
622 456
622 455
622 454
622 453
622 452
621 451
621 450
621 449
621 448
621 447
621 446
621 445
621 444
621 443
621 442
621 441
621 440
621 439
621 438
621 437
621 436
621 435
621 434
621 433
621 432
621 431
621 430
620 429
620 428
620 427
620 426
620 425
620 424
620 423
620 422
620 421
620 420
620 419
620 418
619 417
619 416
619 415
619 414
619 413
618 412
618 411
618 410
618 409
618 408
617 407
617 406
617 405
617 404
616 403
616 402
616 401
616 400
615 399
615 398
615 397
615 396
615 395
615 394
615 393
616 392
615 391
615 390
615 389
615 388
615 387
615 386
616 385
617 386
618 387
618 388
619 389
619 390
620 391
620 392
621 393
621 394
622 395
623 396
624 397
625 398
626 399
626 400
627 401
628 402
628 403
629 404
630 405
630 406
631 407
632 408
632 409
633 410
633 411
634 412
635 413
635 414
636 415
637 416
638 417
638 418
639 419
640 420
641 421
642 422
642 423
643 424
644 425
645 426
646 427
647 428
648 428
649 429
650 430
651 431
651 432
652 432
653 433
653 434
654 435
655 436
656 437
657 438
658 439
659 440
660 441
661 442
662 443
663 444
663 445
664 446
665 447
666 448
666 449
667 450
668 451
669 452
670 453
671 454
672 455
673 456
674 457
675 458
676 459
677 460
678 460
679 461
680 462
681 463
681 464
682 465
683 466
684 467
685 468
685 469
685 470
686 471
686 472
687 473
687 474
687 475
687 476
688 477
688 478
688 479
688 480
689 481
689 482
689 483
689 484
689 485
689 486
689 487
690 486
691 485
692 484
692 483
692 482
693 481
693 480
693 479
693 478
694 477
694 476
694 475
694 474
694 473
694 472
694 471
694 470
694 469
694 468
693 467
693 466
693 465
693 464
693 463
692 462
692 461
692 460
691 459
691 458
691 457
691 456
690 455
690 454
690 453
689 452
689 451
689 450
689 449
688 448
688 447
688 446
688 445
687 444
687 443
687 442
687 441
687 440
687 439
687 438
686 437
686 436
686 435
685 434
685 433
685 432
684 431
684 430
684 429
683 428
683 427
682 426
682 425
681 424
681 423
681 422
680 421
680 420
679 419
679 418
679 417
678 416
677 415
677 414
677 413
676 412
676 411
675 410
675 409
674 408
673 407
673 406
672 405
672 404
672 403
671 402
671 401
670 400
670 399
669 398
669 397
668 396
668 395
668 394
667 393
667 392
666 391
666 390
665 389
665 388
664 387
664 386
663 385
663 384
662 383
661 382
661 381
660 380
659 379
659 378
658 377
657 376
657 375
656 374
656 373
655 372
654 371
654 370
653 369
652 368
651 367
650 366
649 365
648 364
647 363
647 362
646 361
645 360
644 359
643 358
642 357
642 356
641 355
640 354
639 353
638 352
638 351
637 350
636 349
635 348
634 347
633 346
632 345
631 345
630 344
629 343
628 342
627 342
626 341
625 340
624 340
623 339
622 339
621 338
620 338
619 337
618 337
617 336
616 336
615 335
614 334
613 334
612 333
611 332
610 331
611 330
612 330
613 330
614 330
615 330
616 330
617 330
618 330
619 330
620 330
621 329
622 329
623 330
624 330
625 330
626 330
627 330
628 330
629 330
630 330
631 330
632 330
633 330
634 330
635 330
636 330
637 330
638 330
639 330
640 330
641 330
642 330
643 330
644 330
645 330
646 330
647 330
648 330
649 331
650 330
651 331
652 331
653 331
654 331
655 331
656 331
657 331
658 331
659 331
660 331
661 331
662 331
663 331
664 331
665 331
666 331
667 332
668 332
669 332
670 332
671 332
672 332
673 332
674 332
675 332
676 332
677 332
678 332
679 332
680 332
681 332
682 332
683 332
684 332
685 332
686 332
687 332
688 333
689 333
690 333
691 333
692 333
693 333
694 333
695 333
696 333
697 333
698 333
699 333
700 333
701 333
702 333
703 333
704 333
705 333
706 333
707 334
708 334
709 334
710 334
711 334
712 334
713 334
714 334
715 334
716 334
717 334
718 334
719 334
720 334
721 334
722 334
723 334
724 334
725 335
726 335
727 335
728 335
729 335
730 335
731 335
732 335
733 335
734 335
735 335
736 335
737 335
738 335
739 335
740 335
741 334
742 333
743 333
744 332
743 331
743 330
743 329
742 328
742 327
742 326
742 325
742 324
742 323
742 322
741 321
741 320
741 319
740 318
739 318
738 318
737 318
736 318
735 318
734 319
733 319
732 319
731 319
730 319
729 319
728 319
727 319
726 319
725 320
724 320
723 320
722 320
721 320
720 320
719 320
718 320
717 320
716 320
715 320
714 320
713 320
712 320
711 320
710 320
709 320
708 320
707 320
706 321
705 320
704 320
703 320
702 320
701 320
700 320
699 320
698 320
697 320
696 320
695 320
694 320
693 320
692 320
691 320
690 320
689 320
688 320
687 320
686 320
685 320
684 320
683 320
682 320
681 320
680 320
679 320
678 320
677 320
676 320
675 320
674 320
673 320
672 320
671 320
670 320
669 319
668 319
667 319
666 319
665 319
664 319
663 319
662 319
661 319
660 318
659 317
660 316
661 316
662 316
663 316
664 315
665 315
666 314
667 314
668 314
669 313
670 312
671 312
672 311
672 310
671 309
670 308
669 308
668 308
667 307
666 307
665 307
664 306
663 306
662 306
661 306
660 305
659 305
658 305
657 304
656 304
655 304
654 304
653 304
652 304
651 304
650 304
649 304
648 304
647 304
646 304
645 304
644 304
643 305
642 305
641 305
640 305
639 305
638 306
637 306
636 306
635 306
634 307
633 307
632 307
631 307
630 307
629 308
628 308
627 308
626 308
625 308
624 308
623 308
622 309
621 309
620 309
619 309
618 309
617 309
616 310
615 310
614 311
613 311
612 312
611 312
610 313
609 313
608 314
607 314
606 313
605 312
605 311
604 310
603 309
602 308
601 308
600 307
599 306
598 305
597 304
596 303
596 302
596 301
595 300
595 299
595 298
595 297
595 296
595 295
595 294
595 293
595 292
595 291
595 290
595 289
595 288
595 287
596 286
596 285
596 284
596 283
596 282
596 281
597 280
597 279
597 278
597 277
597 276
597 275
597 274
598 273
598 272
598 271
598 270
598 269
597 268
597 267
597 266
597 265
597 264
597 263
596 262
596 261
596 260
596 259
595 258
595 257
594 256
594 255
594 254
593 253
593 252
593 251
592 250
592 249
592 248
592 247
592 246
592 245
591 244
591 243
591 242
591 241
591 240
591 239
591 238
591 237
590 236
590 235
590 234
590 233
590 232
590 231
589 230
589 229
589 228
589 227
588 226
588 225
588 224
587 223
587 222
586 221
586 220
586 219
585 218
585 217
585 216
585 215
584 214
584 213
584 212
584 211
584 210
583 209
583 208
583 207
582 206
582 205
582 204
581 203
581 202
580 201
580 200
579 199
579 198
578 197
577 196
577 195
576 194
576 193
575 192
575 191
574 190
574 189
573 188
573 187
572 186
571 185
571 184
570 183
569 182
569 181
568 180
567 179
566 178
565 177
565 176
564 175
563 174
562 173
561 172
561 171
560 170
559 169
559 168
558 167
557 166
557 165
556 164
555 163
555 162
554 161
553 160
553 159
552 158
551 157
551 156
550 155
549 154
549 153
548 152
547 151
546 150
546 149
545 148
544 147
544 146
543 145
542 144
541 143
540 142
540 141
539 140
538 139
537 138
536 137
535 136
534 135
534 134
533 133
532 132
531 131
530 130
529 129
528 128
527 127
526 126
525 125
524 124
523 123
522 122
521 121
520 120
519 119
518 118
517 117
516 116
515 116
514 115
513 114
512 113
511 113
510 112
509 112
508 111
507 110
506 110
505 109
504 109
503 108
502 108
501 108
500 107
499 107
498 106
497 105
496 104
495 103
494 103
493 102
492 101
491 100
490 99
489 98
488 97
487 96
486 95
485 94
484 93
483 92
482 91
481 90
480 89
479 88
478 87
477 86
476 86
475 85
474 84
473 83
472 82
471 81
470 80
469 79
468 78
467 77
466 76
465 76
464 75
463 74
463 73
462 72
461 71
460 70
459 69
459 68
458 67
457 66
456 65
455 64
454 64
453 63
453 62
452 61
451 60
450 60
449 59
448 58
447 57
446 56
445 55
444 55
443 54
442 53
441 53
440 52
439 52
438 52
437 51
436 51
435 50
434 49
433 49
432 49
431 49
430 48
429 48
