357 66
356 67
355 67
354 67
353 67
352 67
351 67
350 67
349 67
348 67
347 67
346 67
345 67
344 68
343 68
342 68
341 68
340 68
339 68
338 68
337 68
336 68
335 68
334 69
333 69
332 69
332 70
331 71
330 70
329 69
328 69
327 69
326 70
325 70
324 69
323 69
322 69
321 70
320 71
319 70
318 70
317 70
316 70
315 71
314 71
313 71
312 71
311 71
310 71
309 71
308 71
307 72
306 72
305 72
304 72
303 72
302 72
301 73
300 73
299 73
298 74
297 74
296 74
295 74
294 74
293 74
292 74
291 74
290 74
289 74
288 75
287 75
286 76
285 76
284 76
283 76
282 76
281 76
280 77
279 77
278 77
277 77
276 77
275 77
274 78
273 78
272 78
271 78
270 79
269 79
268 80
267 81
266 81
265 81
264 81
263 81
262 81
261 81
260 82
259 82
258 82
257 83
256 83
255 84
254 84
253 84
252 84
251 84
250 85
249 85
248 85
247 86
247 87
246 88
245 88
244 87
243 87
242 88
241 88
240 88
239 88
238 89
237 90
236 90
235 91
235 92
235 93
234 94
233 93
232 93
231 93
230 94
229 94
228 94
227 94
226 94
225 94
224 95
223 95
222 95
221 96
220 96
219 97
218 97
217 97
216 98
215 99
214 99
213 99
212 99
211 100
210 101
209 101
208 102
207 102
206 103
205 103
204 104
203 104
202 104
201 104
200 105
199 106
198 105
197 106
196 107
195 107
194 107
193 107
192 107
191 108
190 108
189 109
188 109
187 109
186 110
185 110
184 111
183 111
182 112
181 112
180 112
179 113
178 113
177 113
176 114
175 114
174 115
173 116
172 116
171 116
170 116
169 117
168 118
167 119
166 119
165 120
164 120
163 121
162 121
161 122
160 123
159 124
158 125
157 125
156 126
155 127
154 127
153 127
152 128
151 128
150 129
149 130
148 130
147 131
146 132
145 132
144 132
143 133
142 134
141 135
140 135
139 135
138 136
137 136
137 137
136 138
135 137
134 138
133 139
132 139
131 139
130 140
129 140
128 141
127 141
127 142
126 143
125 143
124 144
123 144
123 145
122 146
121 145
120 146
119 147
118 148
117 148
117 149
116 150
115 150
114 151
113 152
112 153
111 153
110 154
109 155
108 156
107 156
106 157
105 158
104 158
103 159
102 159
101 160
100 161
99 162
98 163
97 164
96 164
95 164
94 165
93 165
92 165
91 166
90 167
89 167
88 167
87 168
86 169
85 169
84 170
83 170
82 171
81 171
80 172
79 173
78 173
77 174
76 174
75 175
74 176
73 177
72 177
71 178
70 179
71 180
72 181
73 182
74 182
75 183
76 183
77 183
78 184
79 184
80 184
81 184
82 185
83 185
84 185
85 186
86 186
87 186
88 186
89 187
90 187
91 187
92 187
93 187
94 188
95 188
96 188
97 188
98 189
99 189
100 189
101 189
102 189
103 189
104 190
105 190
106 190
107 190
108 191
109 191
110 192
111 192
112 192
113 193
114 194
115 194
116 195
117 195
118 195
119 196
120 196
121 197
122 198
122 199
123 200
124 200
125 201
126 202
127 202
128 202
129 203
129 204
130 204
131 204
132 205
133 205
134 206
135 206
136 206
137 207
138 208
139 208
140 209
141 209
142 210
143 210
144 211
145 211
146 211
147 212
148 212
149 213
150 213
151 214
152 214
153 215
154 216
155 217
156 218
157 218
158 219
159 219
160 220
161 219
162 220
162 221
163 222
164 222
165 223
166 224
167 224
168 225
169 226
170 226
171 227
172 227
173 228
174 229
175 230
176 230
177 231
178 231
179 232
180 232
181 233
182 234
183 235
184 235
185 236
186 236
187 236
188 237
189 237
190 237
191 238
192 238
193 238
194 238
195 239
195 240
196 240
197 241
198 241
199 242
200 243
201 244
202 244
203 245
204 245
205 245
206 245
207 246
208 246
209 247
210 247
211 248
212 248
213 249
214 249
215 249
216 250
217 250
218 251
219 252
220 252
221 252
222 252
223 253
224 253
225 253
226 254
227 254
228 254
229 254
230 255
231 255
232 255
233 256
234 255
235 256
236 255
237 254
238 255
239 256
238 257
239 258
240 258
241 259
242 260
243 260
244 260
245 260
246 261
247 261
248 261
249 261
250 261
251 262
252 262
253 262
254 262
255 263
256 263
257 263
258 264
259 264
260 265
261 265
262 266
262 267
263 268
264 268
265 269
266 269
267 270
268 271
269 271
270 272
271 272
272 273
273 273
274 273
275 274
276 274
277 274
278 275
279 275
280 276
281 275
282 275
283 276
284 276
285 276
286 276
287 277
288 277
289 278
290 279
291 279
292 280
293 280
294 280
295 281
296 281
297 282
298 282
299 282
300 283
301 283
302 283
303 283
304 284
305 284
306 284
307 285
308 285
309 286
310 286
311 287
312 287
313 287
314 287
315 288
316 288
317 288
318 289
319 289
320 290
321 289
322 289
323 290
324 289
325 289
326 290
327 289
328 289
329 290
330 290
331 290
332 290
333 291
334 291
335 292
336 292
337 292
338 293
339 293
340 293
341 293
342 293
342 292
343 291
344 290
345 290
346 291
347 292
348 293
349 293
350 293
351 293
352 293
353 294
354 294
355 294
356 294
357 294
358 294
359 295
360 295
361 294
362 294
363 294
364 294
365 294
366 294
367 294
368 295
369 295
370 295
371 295
372 295
373 295
374 295
375 295
376 295
377 295
378 295
379 295
380 295
381 295
382 295
383 295
384 295
385 295
386 295
387 296
388 296
389 296
390 296
391 296
392 295
393 296
394 296
395 296
396 296
397 296
398 296
399 297
400 297
401 297
402 297
403 297
404 297
405 297
406 296
407 296
408 296
409 296
410 296
411 296
412 296
413 296
414 296
415 295
416 295
417 294
418 295
419 295
420 295
421 295
422 295
423 295
424 294
425 294
426 294
427 295
428 294
429 293
430 294
431 294
432 294
433 294
434 294
435 294
436 294
437 294
438 294
439 293
440 293
441 293
442 293
443 293
444 293
445 292
446 292
447 292
448 292
449 291
450 291
451 291
452 291
453 291
454 291
455 290
456 290
457 290
458 289
459 288
460 288
461 289
462 289
463 289
464 288
465 288
466 288
467 289
468 288
469 288
470 288
471 287
471 286
472 285
473 286
474 286
475 286
476 286
477 286
478 286
479 286
480 285
481 285
481 284
481 283
482 282
483 283
483 284
484 283
485 283
486 282
487 282
488 281
489 281
490 281
491 282
492 282
493 281
494 281
495 280
496 280
497 279
498 278
499 278
500 278
501 277
502 278
503 277
504 276
505 275
506 276
507 276
507 275
508 274
509 273
510 273
511 272
512 272
513 272
514 272
515 272
516 271
517 271
518 270
519 270
520 269
521 269
522 269
523 269
524 269
525 269
526 269
527 268
528 268
529 268
530 268
531 267
532 267
533 267
534 266
535 266
536 266
537 265
538 264
539 263
540 263
541 264
542 264
543 263
544 263
545 262
546 262
547 261
548 261
549 261
550 260
551 260
552 260
553 259
554 258
555 258
556 257
557 257
556 257
555 256
556 255
557 254
558 255
559 256
560 255
561 255
562 254
563 254
564 254
565 253
566 253
567 252
568 252
569 252
570 251
571 251
572 251
573 250
574 250
575 250
576 250
577 249
578 249
579 248
580 248
581 247
582 246
583 246
584 246
585 246
586 245
587 245
588 244
589 243
590 243
591 243
592 242
593 241
594 241
595 240
596 240
597 240
598 239
599 239
600 238
601 238
602 237
603 237
604 236
605 235
605 234
606 233
607 234
608 234
608 233
608 232
609 231
610 232
610 231
611 230
612 231
613 231
612 230
613 229
614 229
615 229
614 228
615 227
616 227
617 227
618 226
618 225
619 224
620 223
621 222
622 222
623 223
624 224
624 225
625 224
626 223
627 223
628 223
629 222
630 221
631 221
632 221
633 220
634 220
635 219
636 219
637 218
638 217
639 217
640 217
641 216
642 215
643 215
644 214
645 214
646 213
647 213
648 212
649 212
650 211
651 211
652 210
653 209
654 208
655 208
656 207
657 206
658 205
659 205
660 204
661 204
662 203
663 203
664 203
665 203
666 203
667 203
668 203
669 203
670 203
671 203
672 203
673 204
674 204
675 204
676 204
677 204
678 204
679 204
680 204
681 204
682 204
683 204
684 205
685 205
686 205
687 205
688 205
689 205
690 205
691 205
692 205
693 205
694 205
695 205
696 205
697 205
698 205
699 205
700 205
701 205
702 205
703 205
704 205
705 204
706 204
707 204
708 204
709 204
710 204
711 203
712 203
713 203
714 203
715 202
716 202
717 202
718 201
719 201
720 201
721 200
722 199
723 199
724 198
725 197
725 196
726 195
727 195
727 194
727 193
728 192
729 192
729 191
730 190
731 189
731 188
732 187
731 186
730 186
729 185
728 185
727 185
726 186
725 186
724 187
723 187
722 188
721 188
720 188
719 189
718 190
717 190
716 191
715 191
714 192
713 192
712 192
711 193
710 194
709 194
708 194
707 195
706 195
705 195
704 195
703 196
702 196
701 196
700 196
699 196
698 196
697 196
696 196
695 196
694 196
693 196
692 196
691 196
690 196
689 196
688 196
687 196
686 196
685 196
684 196
683 196
682 196
681 196
680 196
679 195
678 195
677 195
676 195
675 195
674 195
673 195
672 195
671 195
670 194
669 194
668 194
667 194
666 194
665 194
664 193
663 193
662 192
661 192
660 191
659 190
658 189
657 188
656 187
655 187
654 186
653 185
652 184
651 184
650 183
649 182
648 181
647 181
646 180
645 179
644 178
643 177
642 177
641 176
640 175
640 174
639 173
638 172
637 171
636 170
635 169
634 168
633 167
632 166
631 165
630 164
629 164
628 163
628 162
627 162
626 161
625 160
624 159
623 158
622 157
621 157
620 156
619 155
618 155
617 154
616 154
615 153
615 152
614 152
613 151
612 150
611 149
610 148
609 147
608 147
607 146
606 146
605 145
604 145
603 144
602 143
601 143
600 143
599 142
598 142
597 141
597 140
596 140
595 139
594 138
593 137
592 136
591 136
590 135
589 135
588 134
587 133
586 133
585 132
584 132
583 132
582 131
581 130
580 130
579 129
578 128
577 127
576 127
575 126
574 126
573 125
572 125
571 125
570 125
569 124
568 124
567 124
566 123
565 123
564 122
563 121
562 121
561 120
560 119
559 119
558 118
558 117
557 117
556 117
555 116
554 115
553 115
552 114
551 114
550 113
549 113
548 112
547 112
546 111
545 111
544 110
543 110
542 109
541 109
542 109
543 110
542 111
541 112
540 111
539 110
539 109
538 108
537 108
536 108
535 107
534 106
533 106
532 106
531 105
530 104
529 104
528 103
527 103
526 103
525 103
524 102
524 101
523 101
522 101
521 100
520 99
519 99
518 99
517 98
516 98
515 98
516 98
517 99
516 100
515 100
514 100
513 99
512 98
512 97
511 96
510 96
509 95
508 95
507 94
506 94
505 94
504 93
503 93
502 92
501 92
500 92
499 92
498 92
497 92
496 92
495 92
494 91
493 91
492 91
491 90
490 90
489 89
488 89
487 89
486 88
485 88
484 88
483 87
482 87
481 86
480 86
479 86
478 86
477 86
476 85
475 85
474 85
473 85
472 84
471 83
470 84
469 84
468 84
467 83
466 83
465 83
464 82
463 81
462 81
461 82
460 82
459 81
458 81
457 81
456 81
455 80
454 80
453 81
452 81
451 80
451 79
450 79
449 79
448 79
447 79
446 78
445 78
444 77
443 77
442 77
441 76
440 76
439 76
438 75
437 75
436 75
435 75
434 75
433 75
432 74
431 74
430 74
429 74
428 75
427 74
426 73
425 73
424 73
423 73
422 73
421 73
420 73
419 73
418 73
417 73
416 73
415 73
414 73
413 72
412 72
411 72
410 72
409 72
408 71
407 71
406 71
405 71
404 71
403 71
402 71
401 70
400 70
399 70
398 70
397 70
396 69
395 69
394 69
393 69
392 69
391 68
390 68
389 68
388 68
387 68
386 68
385 68
384 68
383 68
382 68
381 68
380 68
379 68
378 68
377 68
376 68
375 68
374 67
373 67
372 68
371 68
370 68
369 68
368 68
367 68
366 68
365 68
364 67
363 67
362 67
361 67
360 67
359 67
358 67
357 66
