451 95
451 96
452 97
451 98
451 99
450 100
449 100
448 100
447 100
446 100
445 99
444 99
443 99
442 98
441 98
440 98
439 98
438 98
437 98
436 98
435 99
436 100
435 101
434 102
433 101
432 101
431 101
430 101
429 101
428 100
427 100
426 100
425 100
424 100
423 99
422 99
421 99
420 99
419 99
418 99
417 99
416 100
415 100
414 100
413 100
412 100
411 100
410 100
409 100
408 100
407 100
406 100
405 101
404 101
403 101
402 101
401 101
400 101
399 101
398 101
399 102
398 103
398 104
398 105
397 106
396 106
395 106
394 106
393 105
392 105
391 105
390 104
389 104
388 104
387 104
386 103
385 103
384 103
383 103
382 104
381 104
380 104
380 105
381 106
381 107
380 108
379 109
378 109
377 109
376 109
375 108
374 108
373 108
372 108
371 108
370 108
369 108
368 108
367 107
366 108
365 108
364 108
363 108
362 109
361 109
360 109
359 109
358 109
357 110
356 110
355 111
354 111
353 111
352 111
351 110
350 110
349 110
348 110
347 110
346 111
345 111
345 112
344 113
343 113
342 113
341 113
340 113
339 114
338 114
338 115
339 116
338 117
337 117
336 117
335 117
334 117
333 117
332 117
331 117
330 116
329 116
328 116
327 116
326 116
325 116
324 116
323 116
322 116
321 117
320 118
319 118
319 119
318 120
317 120
316 120
315 120
314 120
313 121
312 121
311 121
310 122
309 122
308 122
307 122
306 122
305 122
304 122
303 122
302 122
301 122
300 122
299 122
298 122
297 122
296 122
295 122
294 123
293 123
292 123
291 123
290 123
289 124
288 124
287 125
286 125
285 126
284 127
283 127
282 127
281 127
280 127
279 127
278 127
277 127
276 127
275 127
274 128
273 128
274 129
273 130
272 130
271 130
270 130
269 130
268 130
267 130
266 130
265 130
264 131
263 131
262 131
261 132
260 133
259 133
258 133
257 134
256 134
255 134
254 134
253 134
252 135
251 135
250 135
249 135
248 135
247 135
246 135
245 135
244 135
243 136
242 136
241 136
241 137
240 138
239 139
238 139
237 140
236 140
235 140
234 140
233 140
232 140
231 141
230 141
229 141
228 142
227 142
226 142
225 142
224 142
223 142
222 142
221 142
220 143
219 143
218 143
217 143
216 144
215 144
214 144
213 145
212 145
211 145
210 145
209 146
208 146
207 147
206 147
205 147
204 148
203 148
202 148
201 148
200 149
199 149
198 149
197 150
196 150
195 150
194 151
193 151
193 152
193 153
192 154
191 154
190 154
189 155
188 155
187 155
186 155
185 155
186 156
185 157
184 157
183 158
182 158
181 158
180 158
179 159
178 159
177 159
176 159
175 160
174 160
173 160
172 160
171 161
170 161
169 162
168 163
167 164
166 164
165 165
164 165
163 165
162 166
161 166
160 167
159 167
158 167
157 168
156 168
155 168
154 168
153 168
152 169
151 169
150 169
149 169
148 169
147 169
146 169
145 169
144 170
143 170
142 170
141 170
140 171
139 171
138 172
137 173
136 173
135 174
134 174
133 175
132 175
131 176
130 176
129 176
128 177
127 177
126 177
125 177
124 177
123 178
122 178
121 178
120 178
119 179
118 179
117 179
116 180
115 180
114 180
113 180
112 180
111 180
110 181
109 181
108 181
107 181
106 181
105 181
104 182
103 182
102 182
101 182
100 182
99 182
98 182
97 182
96 182
95 182
94 182
93 182
92 182
91 182
90 183
89 183
88 183
87 182
86 182
85 182
84 182
83 182
82 182
81 182
80 182
79 182
78 182
77 181
76 181
75 181
74 181
73 181
72 181
71 182
70 182
69 182
68 182
67 182
66 182
65 183
64 183
63 183
62 183
61 183
60 183
59 183
58 183
57 183
56 183
55 184
56 184
57 184
58 185
59 185
60 185
61 185
62 185
63 185
64 185
65 185
66 185
67 186
68 186
69 186
70 186
71 187
72 187
73 187
74 187
75 188
76 188
77 188
78 189
79 189
80 189
81 189
82 189
83 190
84 190
85 191
86 191
87 191
88 192
89 192
90 192
91 193
92 193
93 193
94 194
95 194
96 194
97 195
98 195
99 195
100 195
101 196
102 196
103 196
104 197
105 197
106 198
107 198
108 198
109 199
110 199
111 199
112 199
113 200
114 200
115 200
116 200
117 200
118 200
119 200
120 201
121 201
122 202
123 202
124 203
125 203
126 203
127 204
128 204
129 204
130 205
131 205
132 205
133 206
134 206
135 207
136 207
137 208
138 208
139 208
140 209
141 209
142 210
143 210
144 210
145 211
146 211
147 211
148 212
149 212
150 212
151 213
152 213
153 213
154 214
155 214
156 215
157 215
158 215
159 216
160 217
161 217
162 217
163 218
164 218
165 218
166 219
167 219
168 220
169 220
170 221
171 222
172 222
173 223
173 224
172 225
171 225
170 225
169 226
169 227
170 228
171 228
172 229
173 229
174 229
175 230
176 230
177 231
178 231
179 232
180 232
181 232
182 233
183 233
184 234
185 234
186 235
187 235
188 236
189 236
190 237
191 238
190 239
189 240
188 241
187 241
187 242
188 243
189 243
190 243
191 244
192 244
193 244
194 245
195 245
196 245
197 246
198 246
199 247
200 248
201 248
202 249
202 250
202 251
201 252
200 253
200 254
201 254
202 254
203 255
204 255
205 256
206 256
207 257
208 257
209 258
210 259
211 260
212 261
213 261
214 262
215 263
216 263
217 263
218 264
219 264
220 265
219 266
218 267
217 268
216 269
215 269
216 270
217 270
218 270
219 270
220 270
221 271
222 271
223 272
224 272
225 273
226 273
227 274
228 274
229 274
230 274
231 275
232 275
233 275
234 275
235 275
236 276
237 276
238 277
238 278
238 279
237 280
238 280
239 281
240 281
241 281
242 281
243 282
244 282
245 282
246 283
247 284
247 285
247 286
246 287
247 288
248 287
249 287
250 288
251 288
252 288
253 288
254 289
255 289
256 289
257 289
258 290
259 290
260 290
261 290
262 290
263 290
264 290
265 290
266 290
267 290
268 291
269 292
268 293
267 294
267 295
266 296
266 297
267 298
268 298
269 298
270 299
271 299
272 300
273 300
274 300
275 300
276 300
277 301
278 301
279 301
280 302
281 302
282 303
283 303
284 303
285 303
286 303
287 303
288 304
288 305
287 306
287 307
287 308
288 308
289 308
290 308
291 309
292 309
293 309
294 309
295 309
296 309
297 309
298 309
299 309
300 309
301 310
300 311
300 312
300 313
299 314
299 315
298 316
299 316
300 316
301 316
302 316
303 316
304 316
305 317
306 317
307 317
308 317
309 318
310 319
310 320
311 320
312 321
313 321
314 321
315 322
316 322
317 322
318 323
319 323
320 323
321 323
322 322
323 322
324 323
324 324
324 325
324 326
323 327
322 328
323 329
324 329
325 329
326 329
327 330
328 330
329 330
330 330
331 330
332 330
333 330
334 329
335 329
336 329
337 329
338 329
339 329
340 329
341 329
342 330
342 331
342 332
341 333
342 333
343 334
344 334
345 334
346 334
347 334
348 334
349 334
350 334
351 334
352 334
353 334
354 335
354 336
354 337
354 338
355 338
356 338
357 338
358 337
359 338
360 338
361 338
362 338
363 338
364 338
365 338
366 338
367 338
368 338
369 338
370 338
371 338
372 338
373 338
374 339
374 340
374 341
375 341
376 341
377 340
378 340
379 340
380 339
381 339
382 339
383 339
384 339
385 339
386 339
387 340
387 341
388 341
389 341
390 341
391 341
392 341
393 340
394 340
395 340
396 340
397 340
398 340
399 340
400 340
401 341
402 341
403 341
404 341
405 341
406 341
407 341
408 341
409 341
410 341
411 340
412 340
413 340
414 340
415 339
416 339
417 338
418 338
419 338
420 338
421 339
421 340
421 341
421 342
421 343
421 344
421 345
421 346
421 347
422 347
423 346
424 346
425 346
426 346
427 346
428 345
429 345
430 345
431 344
432 344
433 344
434 343
435 343
436 344
436 345
435 346
435 347
435 348
435 349
434 350
434 351
434 352
435 352
436 353
437 353
438 353
439 353
440 354
441 354
442 354
443 354
444 354
445 355
446 355
447 355
448 355
449 356
450 356
451 357
452 357
453 357
454 357
455 357
456 357
457 357
458 357
459 357
460 357
461 356
462 356
463 356
464 356
465 356
466 356
467 356
468 356
469 356
470 356
471 356
472 356
473 355
474 355
475 355
476 356
476 357
476 358
476 359
477 360
476 361
476 362
477 362
478 361
479 361
480 361
481 361
482 361
483 361
484 360
485 360
486 360
487 360
488 360
489 360
490 359
491 359
492 359
493 359
494 359
495 358
496 358
497 358
498 358
499 357
500 357
501 357
502 357
503 356
504 356
505 356
506 357
506 358
505 359
505 360
505 361
506 361
507 361
508 361
509 361
510 361
511 361
512 361
513 360
514 360
515 359
516 359
517 359
518 358
519 358
520 358
521 358
522 358
523 358
524 358
525 359
525 360
525 361
525 362
526 361
527 361
528 361
529 360
530 360
531 360
532 360
533 360
534 360
535 359
536 359
537 359
538 359
539 359
540 358
541 358
542 358
543 358
544 358
545 358
546 358
547 357
548 357
549 357
550 357
551 357
552 356
553 356
554 356
555 356
556 355
557 355
558 355
559 354
560 354
561 354
562 354
563 354
564 354
565 354
566 353
567 353
568 353
569 353
570 352
571 352
572 352
573 351
574 351
575 351
576 350
577 350
578 350
579 349
580 349
581 349
582 349
583 348
584 348
585 347
586 347
587 346
588 346
589 346
590 345
591 345
592 344
593 344
594 343
595 343
596 342
597 341
598 341
599 340
600 339
601 339
602 338
603 337
604 337
605 336
606 336
607 335
608 334
609 333
610 332
611 332
612 331
613 330
614 329
615 328
616 327
617 326
618 325
619 324
620 323
621 322
622 321
623 321
624 320
625 319
626 318
627 317
628 316
629 316
629 315
630 314
631 313
632 312
632 311
633 310
634 309
635 308
636 307
637 306
638 305
638 304
639 303
640 302
640 301
641 300
642 299
642 298
643 297
643 296
643 295
644 294
644 293
645 292
645 291
645 290
646 289
646 288
647 287
647 286
647 285
648 284
648 283
648 282
649 281
649 280
649 279
649 278
650 277
650 276
650 275
650 274
651 273
651 272
652 271
652 270
653 269
653 268
654 267
654 266
655 265
655 264
655 263
656 262
656 261
657 260
657 259
658 258
658 257
659 256
659 255
659 254
660 253
660 252
661 251
661 250
661 249
662 248
662 247
663 246
663 245
663 244
664 243
664 242
664 241
665 240
665 239
666 238
666 237
666 236
667 235
668 234
669 233
669 232
670 231
671 230
671 229
672 228
673 227
673 226
674 225
675 224
676 223
677 222
678 221
679 220
680 219
681 219
682 218
683 218
684 218
685 217
686 217
687 217
688 216
689 216
690 215
691 215
692 215
693 215
694 215
695 214
696 214
697 214
698 214
699 214
700 214
701 213
702 213
703 213
704 213
705 212
706 212
707 212
708 212
709 211
710 211
711 211
712 210
713 211
714 210
715 210
716 210
717 209
718 209
719 209
720 208
721 208
722 208
723 207
724 207
725 207
726 206
727 206
728 205
729 205
730 205
731 204
732 204
733 204
734 203
735 203
736 202
737 201
738 201
739 200
740 200
741 199
742 198
743 198
744 197
745 196
746 196
747 195
747 194
747 193
746 192
746 191
746 190
746 189
745 189
744 190
743 190
742 191
741 192
740 193
739 194
738 195
737 195
736 195
735 196
734 196
733 197
732 197
731 198
730 198
729 199
728 199
727 199
726 200
725 200
724 200
723 201
722 201
721 201
720 202
719 202
718 202
717 202
716 203
715 203
714 203
713 203
712 204
711 204
710 204
709 204
708 205
707 205
706 205
705 205
704 205
703 205
702 206
701 206
700 206
699 206
698 206
697 206
696 207
695 207
694 207
693 207
692 207
691 207
690 208
689 208
688 208
687 208
686 208
685 208
684 208
683 209
682 209
681 209
680 209
679 209
678 209
677 209
676 209
675 209
674 209
673 209
672 210
671 210
670 210
669 210
668 210
667 210
666 210
665 210
664 210
663 210
662 210
661 209
660 209
659 209
658 209
657 209
656 209
655 209
654 209
653 209
652 208
651 208
650 208
649 208
648 207
647 207
646 207
645 207
644 206
643 206
642 206
641 206
640 205
639 205
638 205
637 204
636 204
635 203
634 203
633 202
632 201
631 201
630 200
629 199
628 198
627 197
626 196
625 195
624 194
623 193
622 192
621 191
620 191
619 190
618 189
617 188
616 187
615 186
614 185
613 184
612 183
612 182
611 181
610 180
609 179
608 178
608 177
607 176
607 175
606 174
605 173
604 172
604 171
603 170
603 169
602 168
601 167
601 166
600 165
599 164
598 163
597 162
596 161
595 160
594 159
593 158
592 157
591 156
590 155
589 154
588 153
587 152
586 151
585 150
584 149
583 148
582 147
581 146
580 145
579 145
578 144
577 143
576 142
575 141
574 140
573 139
572 138
571 137
570 137
569 136
568 135
567 134
566 134
565 133
564 132
563 132
562 131
561 130
560 130
559 129
558 129
557 128
556 127
555 126
554 126
553 125
552 124
551 124
550 123
549 122
548 121
547 121
546 120
545 120
544 119
543 119
542 119
541 118
540 118
539 117
538 117
537 117
536 116
535 116
534 115
533 115
532 115
531 114
530 114
529 113
528 113
527 113
526 112
525 112
524 111
523 111
522 110
521 110
520 109
519 109
518 108
517 108
516 107
515 107
514 107
513 107
512 106
511 106
510 106
509 105
508 105
507 105
506 105
505 104
504 104
503 104
502 104
501 103
500 103
499 103
498 103
497 103
496 102
495 102
494 102
493 101
492 101
491 101
490 101
489 100
488 100
487 100
486 100
485 100
484 100
483 100
482 100
481 100
480 100
479 99
478 99
477 99
476 99
475 99
474 99
473 98
472 98
471 98
470 98
469 98
468 98
467 98
466 97
465 97
464 97
463 97
462 97
461 96
460 96
459 96
458 96
457 96
456 95
455 95
454 95
453 95
452 95
451 95
