52 286
52 287
52 288
53 288
54 288
55 288
56 288
57 288
58 288
59 288
60 288
61 288
62 288
63 288
64 288
65 288
66 288
67 288
68 288
69 288
70 288
71 288
72 288
73 289
74 289
75 289
76 290
77 290
78 290
79 290
80 291
81 291
82 291
83 291
84 291
85 291
86 292
87 292
88 293
89 293
90 293
91 293
92 294
93 294
94 294
95 294
96 294
97 295
98 295
99 295
100 295
101 295
102 295
103 295
104 295
105 295
106 295
107 295
108 295
109 295
110 295
111 295
112 295
113 295
114 295
115 295
116 295
117 295
118 295
119 295
120 295
121 295
122 295
123 295
124 295
125 295
126 296
127 296
128 297
129 298
130 299
129 300
129 301
128 302
127 303
126 304
125 305
124 306
124 307
123 308
122 309
121 310
120 311
119 312
118 313
117 314
116 315
116 316
115 317
114 318
113 319
112 320
112 321
111 322
110 323
109 324
109 325
108 326
108 327
107 328
107 329
106 330
106 331
105 332
105 333
104 334
104 335
103 336
102 337
101 338
101 339
101 340
101 341
101 342
101 343
101 344
102 344
103 344
104 344
105 343
106 343
107 342
108 341
109 340
110 340
111 339
112 338
113 338
114 337
115 337
116 336
117 336
118 335
119 335
120 334
121 334
122 333
123 333
124 332
125 332
126 332
127 332
128 332
129 331
130 331
131 331
132 330
133 330
134 329
135 329
136 328
137 327
138 326
139 326
140 325
141 325
142 324
143 324
144 323
145 322
146 321
147 320
148 320
149 319
150 318
151 317
152 316
153 316
154 315
155 314
156 313
157 312
158 311
159 310
160 310
161 309
162 308
163 307
164 306
165 305
166 304
167 303
168 302
168 301
169 300
170 299
171 298
172 297
173 296
173 295
174 294
174 293
175 292
175 291
175 290
175 289
175 288
175 287
176 286
176 285
177 284
178 283
179 282
180 282
181 281
182 281
183 281
184 281
185 281
186 281
187 282
188 282
189 283
190 284
191 285
190 286
190 287
189 288
188 289
187 290
186 291
185 292
184 293
183 294
182 295
181 296
180 297
179 298
179 299
178 300
178 301
177 302
176 303
176 304
175 305
174 306
174 307
173 308
173 309
172 310
171 311
170 312
169 313
169 314
168 315
168 316
167 317
166 318
166 319
165 320
165 321
164 322
163 323
163 324
162 325
162 326
161 327
160 328
159 329
159 330
158 331
158 332
157 333
157 334
156 335
155 336
154 337
153 338
153 339
153 340
152 341
152 342
151 343
151 344
150 345
150 346
150 347
149 348
149 349
148 350
148 351
148 352
147 353
147 354
146 355
146 356
146 357
145 358
145 359
144 360
144 361
144 362
144 363
143 364
143 365
143 366
143 367
142 368
142 369
141 370
141 371
141 372
140 373
140 374
139 375
139 376
139 377
139 378
139 379
139 380
139 381
139 382
140 382
141 382
142 382
143 381
143 380
144 379
145 378
146 377
147 376
148 375
149 374
150 373
151 372
152 371
153 371
154 370
155 369
156 368
157 368
158 367
159 366
160 366
161 365
162 365
163 364
164 364
165 363
166 363
167 362
168 361
169 360
170 359
171 359
172 358
173 357
174 356
175 355
176 354
177 354
178 353
179 352
179 351
180 350
181 350
182 349
183 348
183 347
184 346
185 345
186 344
187 343
188 342
189 341
189 340
190 339
191 338
192 337
193 336
194 336
195 335
195 334
196 333
196 332
197 331
198 330
199 330
200 329
201 328
202 327
203 326
204 325
205 324
206 323
206 322
207 321
208 320
208 319
209 318
210 317
211 316
211 315
212 314
212 313
213 312
213 311
214 310
214 309
215 308
215 307
216 306
216 305
217 304
218 303
218 302
219 301
219 300
219 299
219 298
219 297
219 296
219 295
219 294
219 293
220 292
220 291
221 290
221 289
222 288
223 288
224 287
225 287
226 287
227 287
228 287
229 287
230 287
231 287
232 287
233 287
234 287
235 288
236 288
237 288
238 289
239 289
240 290
241 291
242 292
242 293
241 294
241 295
240 296
239 297
238 298
238 299
237 300
236 301
235 302
234 303
234 304
233 305
233 306
232 307
232 308
231 309
231 310
230 311
229 312
229 313
228 314
228 315
227 316
227 317
226 318
226 319
225 320
225 321
224 322
224 323
223 324
223 325
222 326
222 327
221 328
221 329
220 330
220 331
219 332
219 333
218 334
218 335
218 336
217 337
217 338
216 339
216 340
215 341
215 342
214 343
214 344
213 345
213 346
212 347
212 348
211 349
211 350
210 351
210 352
210 353
209 354
209 355
208 356
208 357
208 358
207 359
207 360
206 361
206 362
205 363
205 364
205 365
205 366
204 367
204 368
204 369
203 370
203 371
202 372
202 373
202 374
202 375
202 376
201 377
201 378
201 379
201 380
201 381
201 382
201 383
201 384
201 385
201 386
201 387
201 388
201 389
201 390
201 391
201 392
201 393
201 394
202 395
202 396
202 397
202 398
202 399
202 400
201 401
201 402
201 403
201 404
201 405
201 406
201 407
200 408
200 409
200 410
200 411
200 412
200 413
200 414
200 415
201 415
202 415
203 415
203 414
204 413
204 412
205 411
205 410
206 409
206 408
207 407
207 406
208 405
208 404
209 403
210 402
211 401
211 400
212 399
213 398
214 397
215 396
216 395
217 394
218 394
219 393
220 392
220 391
221 390
222 389
223 389
224 388
225 387
226 386
227 385
228 384
229 383
229 382
230 381
231 381
232 380
233 379
233 378
234 377
234 376
235 375
236 374
236 373
237 372
238 371
239 370
239 369
240 368
241 367
241 366
242 365
242 364
243 363
244 362
244 361
245 360
245 359
246 358
246 357
247 356
247 355
248 354
248 353
249 352
249 351
250 350
251 349
251 348
252 347
252 346
253 345
253 344
254 343
255 342
256 341
256 340
257 339
257 338
258 337
258 336
259 335
259 334
260 333
260 332
261 331
261 330
261 329
262 328
262 327
263 326
263 325
264 324
264 323
265 322
265 321
265 320
266 319
266 318
267 317
267 316
268 315
268 314
269 313
269 312
269 311
269 310
269 309
269 308
269 307
269 306
270 305
270 304
270 303
270 302
270 301
270 300
270 299
271 298
271 297
272 296
272 295
273 294
274 294
275 293
276 293
277 292
278 292
279 292
280 292
281 292
282 293
283 293
284 293
285 293
286 293
287 293
288 293
289 293
290 294
291 294
292 295
293 296
294 297
294 298
294 299
293 300
293 301
292 302
291 303
290 304
289 305
289 306
288 307
287 308
286 309
286 310
285 311
285 312
284 313
283 314
283 315
282 316
282 317
281 318
280 319
279 320
278 321
278 322
277 323
276 324
276 325
275 326
275 327
275 328
275 329
274 330
274 331
273 332
273 333
273 334
273 335
272 336
272 337
271 338
271 339
271 340
271 341
271 342
270 343
270 344
269 345
269 346
269 347
268 348
268 349
268 350
267 351
267 352
266 353
266 354
266 355
266 356
266 357
266 358
266 359
266 360
266 361
266 362
265 363
265 364
265 365
264 366
264 367
264 368
264 369
264 370
264 371
263 372
263 373
263 374
263 375
263 376
263 377
262 378
262 379
262 380
262 381
262 382
261 383
261 384
261 385
261 386
261 387
261 388
261 389
261 390
261 391
261 392
261 393
261 394
261 395
261 396
261 397
261 398
261 399
261 400
261 401
261 402
261 403
262 404
262 405
262 406
262 407
262 408
262 409
262 410
263 411
263 412
263 413
262 414
262 415
262 416
262 417
262 418
262 419
262 420
262 421
262 422
262 423
262 424
262 425
262 426
263 426
264 426
265 425
265 424
265 423
266 422
266 421
266 420
267 419
267 418
268 417
268 416
269 415
269 414
270 413
270 412
271 411
272 410
272 409
273 408
273 407
274 406
275 405
276 404
277 403
278 402
278 401
279 400
280 399
281 398
282 397
282 396
283 395
283 394
284 393
285 392
286 391
287 390
287 389
288 388
289 387
290 386
290 385
291 384
292 383
293 382
294 381
294 380
294 379
295 378
295 377
296 376
296 375
297 374
298 373
298 372
299 371
299 370
299 369
300 368
300 367
301 366
301 365
302 364
303 363
303 362
303 361
304 360
304 359
304 358
304 357
305 356
305 355
306 354
306 353
307 352
307 351
308 350
308 349
308 348
309 347
309 346
310 345
310 344
311 343
312 342
312 341
313 340
313 339
314 338
314 337
315 336
315 335
316 334
316 333
316 332
317 331
317 330
317 329
318 328
318 327
319 326
319 325
319 324
319 323
319 322
320 321
320 320
320 319
320 318
320 317
320 316
320 315
320 314
320 313
320 312
320 311
320 310
320 309
320 308
320 307
320 306
320 305
320 304
320 303
321 302
321 301
322 300
322 299
323 298
324 298
325 297
326 297
327 296
328 297
329 297
330 297
331 297
332 297
333 297
334 297
335 297
336 297
337 298
338 298
339 298
340 298
341 298
342 298
343 298
344 298
345 298
346 298
347 299
348 299
349 300
350 301
351 302
351 303
350 304
350 305
349 306
348 307
347 308
346 309
345 310
344 311
343 312
343 313
342 314
342 315
341 316
340 317
340 318
339 319
339 320
338 321
338 322
338 323
338 324
337 325
337 326
336 327
336 328
336 329
336 330
335 331
335 332
334 333
334 334
333 335
333 336
332 337
332 338
332 339
332 340
332 341
332 342
332 343
332 344
332 345
332 346
331 347
331 348
331 349
331 350
331 351
330 352
330 353
330 354
330 355
329 356
329 357
328 358
328 359
328 360
328 361
328 362
328 363
328 364
328 365
327 366
327 367
327 368
327 369
327 370
327 371
326 372
326 373
326 374
326 375
326 376
326 377
326 378
326 379
326 380
326 381
326 382
326 383
326 384
326 385
326 386
326 387
326 388
326 389
326 390
326 391
326 392
326 393
326 394
326 395
326 396
326 397
326 398
326 399
326 400
326 401
326 402
326 403
326 404
326 405
327 406
327 407
327 408
327 409
327 410
327 411
327 412
328 413
328 414
328 415
328 416
328 417
329 418
329 419
329 420
329 421
329 422
330 423
330 424
330 425
330 426
330 427
330 428
330 429
330 430
330 431
330 432
330 433
330 434
330 435
330 436
330 437
330 438
331 438
332 438
333 437
333 436
333 435
334 434
334 433
335 432
335 431
335 430
336 429
336 428
337 427
337 426
338 425
338 424
339 423
339 422
340 421
340 420
341 419
341 418
341 417
342 416
342 415
343 414
343 413
344 412
344 411
345 410
345 409
346 408
347 407
347 406
348 405
348 404
349 403
350 402
351 401
351 400
352 399
352 398
353 397
353 396
354 395
354 394
355 393
356 392
356 391
357 390
357 389
358 388
358 387
359 386
359 385
359 384
359 383
359 382
360 381
360 380
361 379
361 378
361 377
361 376
362 375
362 374
362 373
363 372
363 371
364 370
364 369
364 368
364 367
365 366
365 365
366 364
366 363
367 362
367 361
367 360
367 359
368 358
368 357
369 356
369 355
370 354
371 353
371 352
371 351
371 350
372 349
372 348
373 347
373 346
373 345
374 344
374 343
374 342
374 341
375 340
375 339
376 338
376 337
377 336
377 335
377 334
377 333
378 332
378 331
378 330
378 329
379 328
379 327
379 326
380 325
380 324
380 323
380 322
380 321
380 320
380 319
380 318
380 317
380 316
380 315
380 314
380 313
380 312
380 311
380 310
379 309
379 308
380 307
380 306
381 305
381 304
382 303
383 303
384 302
385 302
386 301
387 301
388 301
389 301
390 301
391 301
392 301
393 301
394 301
395 302
396 302
397 302
398 302
399 302
400 302
401 302
402 302
403 303
404 303
405 304
406 305
407 306
407 307
406 308
406 309
405 310
405 311
404 312
403 313
403 314
403 315
402 316
402 317
401 318
401 319
400 320
400 321
399 322
399 323
399 324
399 325
398 326
398 327
397 328
397 329
397 330
397 331
397 332
397 333
397 334
396 335
396 336
395 337
395 338
395 339
395 340
395 341
395 342
395 343
395 344
394 345
394 346
394 347
394 348
394 349
394 350
394 351
394 352
394 353
394 354
394 355
394 356
394 357
393 358
393 359
393 360
393 361
393 362
393 363
393 364
393 365
393 366
393 367
393 368
393 369
394 370
394 371
394 372
394 373
394 374
394 375
394 376
394 377
394 378
394 379
394 380
395 381
395 382
395 383
395 384
395 385
395 386
395 387
395 388
395 389
395 390
395 391
395 392
396 393
396 394
396 395
396 396
396 397
397 398
397 399
397 400
397 401
397 402
397 403
397 404
397 405
398 406
398 407
398 408
398 409
399 410
399 411
399 412
400 413
400 414
401 415
401 416
401 417
401 418
401 419
402 420
402 421
402 422
402 423
402 424
403 425
403 426
402 427
402 428
402 429
402 430
402 431
402 432
402 433
402 434
402 435
402 436
403 436
404 436
405 435
405 434
405 433
406 432
406 431
407 430
407 429
407 428
407 427
407 426
408 425
408 424
409 423
409 422
410 421
410 420
410 419
411 418
411 417
412 416
412 415
413 414
413 413
413 412
414 411
414 410
415 409
415 408
416 407
416 406
417 405
417 404
418 403
418 402
419 401
419 400
419 399
420 398
420 397
421 396
421 395
422 394
422 393
422 392
423 391
423 390
423 389
423 388
423 387
423 386
424 385
424 384
425 383
425 382
426 381
426 380
427 379
427 378
427 377
427 376
427 375
427 374
428 373
428 372
429 371
429 370
429 369
429 368
429 367
430 366
430 365
431 364
431 363
431 362
431 361
431 360
431 359
432 358
432 357
433 356
433 355
433 354
434 353
434 352
434 351
435 350
435 349
436 348
436 347
436 346
437 345
437 344
437 343
437 342
437 341
438 340
438 339
439 338
439 337
439 336
439 335
439 334
439 333
440 332
440 331
440 330
440 329
440 328
440 327
440 326
441 325
441 324
441 323
441 322
441 321
441 320
441 319
441 318
441 317
441 316
441 315
441 314
441 313
441 312
441 311
441 310
441 309
441 308
442 307
442 306
443 305
444 305
445 304
446 304
447 303
448 303
449 303
450 303
451 303
452 303
453 303
454 303
455 303
456 303
457 303
458 303
459 303
460 303
461 303
462 303
463 304
464 304
465 305
466 306
467 307
467 308
467 309
466 310
466 311
465 312
465 313
464 314
464 315
464 316
463 317
463 318
462 319
462 320
461 321
461 322
460 323
460 324
460 325
460 326
460 327
459 328
459 329
458 330
458 331
458 332
458 333
458 334
458 335
458 336
458 337
458 338
458 339
458 340
458 341
458 342
458 343
458 344
458 345
458 346
458 347
458 348
458 349
458 350
458 351
458 352
458 353
458 354
458 355
458 356
458 357
458 358
458 359
458 360
458 361
458 362
458 363
459 364
459 365
459 366
459 367
459 368
459 369
459 370
459 371
460 372
460 373
461 374
461 375
461 376
461 377
461 378
461 379
461 380
461 381
461 382
461 383
461 384
462 385
462 386
462 387
462 388
462 389
462 390
462 391
462 392
462 393
462 394
462 395
462 396
463 397
463 398
463 399
463 400
463 401
463 402
463 403
464 404
464 405
464 406
465 407
465 408
465 409
465 410
465 411
465 412
465 413
466 414
466 415
466 416
466 417
467 418
467 419
467 420
467 421
467 422
467 423
467 424
467 425
467 426
468 427
467 428
467 429
467 430
467 431
466 432
466 433
465 434
465 435
464 436
464 437
464 438
464 439
464 440
464 441
464 442
465 442
466 442
467 442
468 442
469 441
469 440
470 439
471 438
472 437
473 436
473 435
474 434
474 433
475 432
475 431
476 430
476 429
476 428
477 427
477 426
478 425
478 424
479 423
480 422
480 421
481 420
482 419
482 418
482 417
482 416
483 415
483 414
484 413
484 412
485 411
485 410
485 409
486 408
486 407
486 406
486 405
487 404
487 403
488 402
488 401
489 400
489 399
490 398
490 397
491 396
491 395
492 394
492 393
492 392
493 391
493 390
493 389
493 388
493 387
494 386
494 385
494 384
494 383
494 382
494 381
495 380
495 379
495 378
495 377
496 376
496 375
496 374
496 373
497 372
497 371
498 370
498 369
498 368
498 367
498 366
498 365
498 364
498 363
499 362
499 361
499 360
499 359
499 358
499 357
499 356
499 355
499 354
499 353
500 352
500 351
500 350
500 349
500 348
500 347
500 346
500 345
500 344
500 343
500 342
500 341
501 340
501 339
501 338
501 337
501 336
501 335
501 334
501 333
501 332
501 331
501 330
501 329
501 328
501 327
501 326
501 325
501 324
501 323
501 322
501 321
501 320
501 319
501 318
501 317
501 316
501 315
501 314
501 313
501 312
500 311
500 310
501 309
501 308
502 307
503 306
504 305
505 305
506 304
507 304
508 304
509 304
510 304
511 304
512 304
513 304
514 304
515 304
516 304
517 304
518 304
519 304
520 303
521 303
522 303
523 303
524 303
525 303
526 303
527 303
528 303
529 304
530 304
531 305
532 306
533 307
533 308
533 309
532 310
532 311
531 312
531 313
530 314
530 315
530 316
530 317
530 318
530 319
530 320
530 321
530 322
530 323
529 324
529 325
529 326
529 327
529 328
529 329
529 330
529 331
529 332
529 333
529 334
529 335
529 336
529 337
529 338
529 339
529 340
529 341
530 342
530 343
531 344
531 345
531 346
531 347
531 348
531 349
531 350
532 351
532 352
532 353
532 354
533 355
533 356
533 357
533 358
533 359
533 360
534 361
534 362
534 363
534 364
535 365
535 366
535 367
535 368
535 369
535 370
535 371
535 372
536 373
536 374
536 375
536 376
536 377
536 378
537 379
537 380
537 381
537 382
538 383
538 384
539 385
539 386
540 387
540 388
541 389
541 390
542 391
542 392
543 393
543 394
543 395
544 396
544 397
545 398
545 399
546 400
547 401
547 402
548 403
548 404
549 405
549 406
550 407
550 408
551 409
551 410
552 411
552 412
552 413
553 414
553 415
553 416
554 417
554 418
555 418
556 418
556 417
556 416
556 415
556 414
556 413
556 412
556 411
557 410
557 409
557 408
557 407
558 406
558 405
558 404
558 403
559 402
559 401
559 400
559 399
559 398
559 397
559 396
560 395
560 394
561 393
561 392
561 391
561 390
561 389
562 388
562 387
563 386
563 385
563 384
563 383
563 382
563 381
564 380
564 379
564 378
565 377
565 376
565 375
565 374
565 373
565 372
565 371
565 370
566 369
566 368
566 367
566 366
566 365
566 364
566 363
566 362
566 361
566 360
566 359
566 358
566 357
566 356
566 355
566 354
566 353
566 352
566 351
566 350
567 349
567 348
567 347
567 346
567 345
567 344
567 343
567 342
567 341
567 340
567 339
567 338
567 337
567 336
566 335
566 334
566 333
566 332
566 331
566 330
566 329
566 328
566 327
566 326
566 325
566 324
565 323
565 322
565 321
565 320
565 319
565 318
565 317
564 316
564 315
564 314
564 313
564 312
564 311
563 310
563 309
563 308
563 307
564 306
565 305
566 304
567 304
568 303
569 304
570 304
571 304
572 304
573 304
574 304
575 304
576 304
577 304
578 304
579 304
580 304
581 304
582 304
583 304
584 304
585 304
586 304
587 304
588 304
589 304
590 304
591 304
592 304
593 304
594 305
595 305
596 306
597 307
598 308
598 309
597 310
597 311
596 312
596 313
596 314
596 315
596 316
596 317
595 318
595 319
595 320
595 321
595 322
595 323
595 324
595 325
595 326
595 327
595 328
595 329
595 330
595 331
596 332
596 333
596 334
596 335
596 336
597 337
597 338
597 339
597 340
597 341
597 342
597 343
596 344
596 345
596 346
596 347
596 348
596 349
596 350
596 351
596 352
596 353
596 354
596 355
596 356
596 357
597 358
597 359
597 360
597 361
597 362
597 363
597 364
597 365
597 366
597 367
598 368
598 369
599 370
599 371
599 372
599 373
599 374
600 375
600 376
601 377
601 378
601 379
601 380
602 381
602 382
602 383
603 384
603 385
604 386
604 387
604 388
604 389
604 390
605 391
605 392
606 393
606 394
606 395
607 396
607 397
607 398
608 399
608 400
608 401
608 402
609 403
609 404
610 405
610 406
611 407
611 408
612 409
612 410
612 411
613 412
613 413
613 414
614 415
614 416
615 417
615 418
616 419
617 420
617 421
618 421
619 421
620 421
621 421
621 420
621 419
621 418
621 417
621 416
621 415
620 414
620 413
620 412
619 411
619 410
619 409
618 408
618 407
618 406
619 405
619 404
619 403
620 402
620 401
620 400
620 399
620 398
620 397
620 396
621 395
621 394
622 393
622 392
622 391
622 390
622 389
622 388
622 387
622 386
622 385
622 384
622 383
623 382
623 381
623 380
624 379
624 378
624 377
624 376
624 375
624 374
624 373
624 372
624 371
625 370
625 369
625 368
625 367
625 366
626 365
626 364
627 363
627 362
627 361
627 360
627 359
627 358
627 357
627 356
628 355
628 354
628 353
628 352
628 351
628 350
628 349
628 348
629 347
629 346
629 345
629 344
629 343
629 342
629 341
629 340
629 339
629 338
629 337
629 336
629 335
629 334
629 333
629 332
629 331
629 330
629 329
629 328
629 327
629 326
629 325
629 324
629 323
629 322
629 321
629 320
629 319
629 318
628 317
628 316
628 315
628 314
628 313
628 312
628 311
627 310
627 309
627 308
628 307
629 306
630 305
631 305
632 304
633 304
634 304
635 304
636 304
637 304
638 304
639 304
640 304
641 304
642 304
643 304
644 304
645 304
646 304
647 304
648 304
649 304
650 304
651 304
652 304
653 304
654 304
655 304
656 304
657 304
658 304
659 304
660 304
661 304
662 304
663 304
664 304
665 304
666 304
667 304
668 304
669 304
670 304
671 304
672 304
673 304
674 304
675 304
676 304
677 304
678 304
679 304
680 304
681 304
682 304
683 304
684 304
685 304
686 304
687 304
688 304
689 304
690 304
691 304
692 304
693 303
694 303
695 303
696 303
697 303
698 303
699 304
700 304
701 304
702 304
703 304
704 304
705 304
706 304
707 304
708 304
709 304
710 304
711 304
712 304
713 303
714 303
715 303
716 303
717 303
718 303
719 303
720 302
721 302
722 302
723 302
724 302
725 302
726 302
727 302
728 302
729 302
730 302
731 302
732 302
733 302
734 302
735 302
736 302
737 302
738 302
739 302
740 302
741 302
742 302
743 302
744 302
745 302
746 302
747 302
748 302
749 302
750 302
751 302
752 302
753 302
754 302
755 302
756 302
757 302
758 302
759 302
760 302
761 302
762 302
763 302
764 301
764 300
764 299
764 298
764 297
764 296
764 295
764 294
764 293
764 292
764 291
763 291
762 291
761 291
760 291
759 291
758 291
757 291
756 291
755 292
754 292
753 293
752 293
751 293
750 293
749 294
748 294
747 294
746 294
745 294
744 294
743 294
742 295
741 295
740 295
739 295
738 295
737 295
736 295
735 295
734 295
733 296
732 296
731 296
730 296
729 296
728 296
727 296
726 296
725 296
724 296
723 297
722 297
721 297
720 297
719 297
718 297
717 297
716 297
715 297
714 297
713 297
712 297
711 297
710 298
709 298
708 298
707 298
706 298
705 298
704 298
703 298
702 298
701 298
700 298
699 298
698 298
697 298
696 298
695 299
694 299
693 299
692 299
691 299
690 299
689 299
688 299
687 299
686 299
685 299
684 299
683 299
682 299
681 299
680 299
679 299
678 299
677 299
676 299
675 300
674 300
673 300
672 300
671 300
670 300
669 300
668 300
667 300
666 300
665 300
664 300
663 300
662 300
661 300
660 300
659 300
658 300
657 300
656 300
655 300
654 300
653 300
652 300
651 300
650 300
649 300
648 300
647 300
646 301
645 301
644 301
643 301
642 301
641 301
640 301
639 301
638 301
637 300
636 300
635 299
634 298
633 297
634 296
634 295
635 294
636 293
637 292
638 291
638 290
639 289
639 288
640 287
641 286
641 285
642 284
643 283
644 282
645 281
645 280
646 279
647 278
647 277
648 276
648 275
649 274
649 273
650 272
651 271
651 270
652 269
653 268
654 267
655 266
656 265
657 264
658 263
658 262
659 261
659 260
660 259
660 258
661 257
662 256
663 255
663 254
664 253
664 252
665 251
665 250
665 249
665 248
665 247
665 246
666 245
666 244
667 243
667 242
667 241
667 240
668 239
668 238
668 237
669 236
669 235
670 234
670 233
671 232
671 231
672 230
672 229
673 228
674 227
674 226
675 225
675 224
676 223
677 222
677 221
677 220
677 219
677 218
677 217
677 216
676 216
675 216
674 216
673 216
672 217
671 218
670 219
669 220
669 221
668 222
667 223
666 224
665 225
664 225
663 226
662 227
661 227
660 228
659 229
658 229
657 230
656 230
655 231
654 231
653 232
652 232
651 232
650 233
649 233
648 234
647 234
646 235
645 235
644 236
643 236
642 237
641 237
640 238
639 238
638 239
637 239
636 240
635 240
634 241
633 242
632 242
631 243
630 243
629 244
628 245
627 246
626 247
625 248
624 249
623 249
622 250
621 251
620 252
619 253
618 254
617 254
616 255
615 256
615 257
614 258
614 259
613 260
612 261
612 262
611 263
611 264
610 265
609 266
608 267
607 268
607 269
606 270
605 270
604 271
603 272
602 272
601 273
600 274
600 275
599 276
598 277
598 278
598 279
598 280
598 281
598 282
598 283
598 284
598 285
598 286
598 287
598 288
598 289
598 290
598 291
599 292
599 293
599 294
599 295
599 296
599 297
598 298
597 299
596 300
595 300
594 301
593 301
592 301
591 301
590 301
589 301
588 301
587 301
586 301
585 301
584 301
583 301
582 301
581 301
580 301
579 301
578 301
577 301
576 301
575 301
574 301
573 301
572 301
571 301
570 301
569 301
568 301
567 300
566 300
565 299
564 299
563 298
563 297
562 296
562 295
562 294
562 293
563 292
563 291
563 290
563 289
563 288
563 287
563 286
563 285
563 284
563 283
563 282
563 281
563 280
563 279
564 278
564 277
564 276
564 275
564 274
564 273
564 272
564 271
564 270
564 269
564 268
564 267
564 266
564 265
564 264
564 263
564 262
564 261
564 260
564 259
564 258
564 257
564 256
564 255
564 254
564 253
564 252
564 251
564 250
564 249
564 248
564 247
564 246
564 245
564 244
564 243
564 242
564 241
564 240
564 239
564 238
564 237
564 236
564 235
564 234
564 233
564 232
564 231
564 230
563 229
563 228
563 227
563 226
563 225
563 224
562 223
562 222
562 221
561 220
561 219
561 218
561 217
560 216
560 215
560 214
559 213
559 212
558 211
558 210
558 209
558 208
557 207
557 206
556 205
556 204
555 203
555 202
554 201
554 200
553 199
553 198
553 197
553 196
552 195
552 194
552 193
552 192
552 191
552 190
552 189
551 188
551 187
550 187
549 187
549 188
548 189
548 190
548 191
548 192
548 193
547 194
547 195
546 196
546 197
545 198
545 199
544 200
544 201
543 202
543 203
542 204
542 205
541 206
540 207
540 208
539 209
539 210
538 211
538 212
537 213
536 214
536 215
535 216
535 217
535 218
534 219
534 220
533 221
533 222
533 223
532 224
532 225
531 226
531 227
531 228
530 229
530 230
529 231
529 232
529 233
528 234
528 235
528 236
528 237
528 238
528 239
527 240
527 241
526 242
526 243
525 244
525 245
525 246
524 247
524 248
524 249
524 250
524 251
524 252
524 253
524 254
524 255
524 256
524 257
524 258
524 259
524 260
524 261
523 262
523 263
523 264
523 265
523 266
523 267
523 268
523 269
523 270
523 271
523 272
523 273
523 274
523 275
523 276
523 277
523 278
523 279
523 280
523 281
523 282
523 283
523 284
524 285
524 286
525 287
525 288
526 289
526 290
526 291
527 292
527 293
527 294
528 295
528 296
528 297
527 298
526 299
525 300
524 300
523 301
522 301
521 301
520 301
519 301
518 301
517 301
516 301
515 301
514 301
513 301
512 301
511 301
510 301
509 301
508 301
507 301
506 301
505 301
504 301
503 300
502 300
501 299
500 298
499 297
499 296
499 295
500 294
500 293
500 292
500 291
500 290
500 289
500 288
500 287
500 286
500 285
500 284
500 283
500 282
500 281
500 280
500 279
500 278
500 277
500 276
500 275
500 274
500 273
500 272
500 271
500 270
500 269
500 268
499 267
499 266
499 265
498 264
498 263
498 262
498 261
498 260
498 259
498 258
497 257
497 256
496 255
496 254
496 253
496 252
496 251
496 250
496 249
496 248
496 247
495 246
495 245
495 244
495 243
495 242
495 241
495 240
495 239
494 238
494 237
494 236
494 235
494 234
494 233
493 232
493 231
492 230
492 229
492 228
492 227
491 226
491 225
491 224
491 223
491 222
490 221
490 220
490 219
490 218
490 217
490 216
490 215
490 214
490 213
490 212
489 211
489 210
488 209
488 208
488 207
488 206
488 205
487 204
486 203
486 202
485 201
485 200
484 199
484 198
484 197
483 196
483 195
482 194
482 193
481 192
481 191
481 190
480 189
480 188
479 187
479 186
478 185
478 184
477 183
477 182
476 181
476 180
476 179
476 178
475 177
475 176
474 175
474 174
474 173
473 172
473 171
473 170
472 169
472 168
471 168
470 168
469 168
469 169
469 170
469 171
469 172
469 173
469 174
470 175
470 176
470 177
470 178
470 179
469 180
469 181
469 182
469 183
468 184
468 185
467 186
467 187
467 188
467 189
466 190
466 191
466 192
466 193
466 194
465 195
465 196
464 197
464 198
464 199
464 200
464 201
463 202
463 203
462 204
462 205
462 206
462 207
462 208
462 209
461 210
461 211
461 212
461 213
460 214
460 215
460 216
460 217
460 218
460 219
459 220
459 221
459 222
459 223
459 224
459 225
458 226
458 227
458 228
458 229
458 230
457 231
457 232
457 233
457 234
457 235
457 236
457 237
456 238
456 239
456 240
456 241
456 242
456 243
456 244
456 245
456 246
456 247
456 248
456 249
456 250
456 251
455 252
455 253
455 254
455 255
455 256
455 257
455 258
455 259
455 260
455 261
455 262
455 263
455 264
455 265
456 266
456 267
456 268
457 269
457 270
457 271
457 272
457 273
457 274
458 275
458 276
459 277
459 278
460 279
460 280
460 281
460 282
460 283
461 284
461 285
461 286
462 287
462 288
463 289
463 290
463 291
464 292
465 293
466 294
466 295
467 296
466 297
466 298
465 299
464 299
463 300
462 300
461 301
460 301
459 301
458 301
457 301
456 301
455 301
454 301
453 301
452 301
451 301
450 301
449 301
448 301
447 301
446 301
445 300
444 300
443 299
442 299
441 298
441 297
440 296
440 295
440 294
440 293
440 292
440 291
440 290
440 289
440 288
440 287
441 286
441 285
441 284
441 283
441 282
441 281
441 280
441 279
441 278
441 277
441 276
441 275
441 274
440 273
440 272
440 271
439 270
439 269
439 268
439 267
439 266
439 265
439 264
439 263
439 262
438 261
438 260
438 259
438 258
438 257
438 256
437 255
437 254
437 253
436 252
436 251
436 250
436 249
436 248
436 247
436 246
436 245
436 244
436 243
436 242
436 241
436 240
435 239
435 238
434 237
434 236
434 235
434 234
434 233
433 232
433 231
433 230
433 229
433 228
432 227
432 226
432 225
432 224
432 223
431 222
431 221
431 220
431 219
431 218
431 217
431 216
430 215
430 214
430 213
430 212
430 211
430 210
429 209
429 208
428 207
427 206
427 205
426 204
426 203
425 202
425 201
425 200
425 199
425 198
424 197
424 196
423 195
423 194
423 193
422 192
422 191
421 190
421 189
420 188
419 187
419 186
418 185
418 184
417 183
417 182
416 181
416 180
415 179
415 178
414 177
414 176
413 175
413 174
412 173
412 172
411 171
411 170
410 169
410 168
409 167
408 166
407 165
406 164
405 164
404 164
403 164
403 165
403 166
403 167
403 168
403 169
404 170
404 171
405 172
405 173
406 174
406 175
406 176
405 177
405 178
405 179
404 180
404 181
404 182
404 183
404 184
403 185
403 186
403 187
403 188
402 189
402 190
401 191
401 192
401 193
401 194
401 195
401 196
400 197
400 198
400 199
400 200
400 201
400 202
399 203
399 204
399 205
399 206
399 207
399 208
399 209
398 210
398 211
398 212
398 213
398 214
398 215
398 216
398 217
398 218
398 219
398 220
398 221
398 222
397 223
397 224
397 225
397 226
397 227
397 228
397 229
397 230
397 231
396 232
396 233
396 234
396 235
396 236
396 237
396 238
396 239
396 240
396 241
396 242
396 243
396 244
396 245
396 246
396 247
396 248
396 249
396 250
396 251
396 252
396 253
396 254
396 255
396 256
396 257
396 258
396 259
396 260
397 261
397 262
397 263
397 264
397 265
397 266
397 267
397 268
397 269
397 270
398 271
398 272
398 273
398 274
398 275
398 276
398 277
399 278
399 279
400 280
400 281
400 282
400 283
401 284
401 285
402 286
402 287
403 288
403 289
404 290
404 291
405 292
406 293
406 294
407 295
407 296
406 297
405 298
404 299
403 299
402 300
401 300
400 300
399 300
398 300
397 300
396 300
395 300
394 300
393 300
392 300
391 300
390 300
389 299
388 299
387 299
386 299
385 298
384 298
383 297
382 297
381 296
381 295
380 294
380 293
379 292
379 291
379 290
379 289
379 288
379 287
379 286
379 285
379 284
379 283
379 282
379 281
379 280
379 279
379 278
379 277
379 276
379 275
379 274
379 273
379 272
378 271
378 270
378 269
378 268
378 267
378 266
378 265
377 264
377 263
376 262
376 261
375 260
375 259
375 258
375 257
375 256
374 255
374 254
374 253
374 252
374 251
374 250
373 249
373 248
373 247
373 246
373 245
373 244
373 243
372 242
372 241
371 240
371 239
371 238
371 237
371 236
371 235
370 234
370 233
369 232
369 231
368 230
368 229
368 228
368 227
368 226
368 225
368 224
367 223
367 222
366 221
366 220
366 219
366 218
366 217
366 216
365 215
365 214
365 213
364 212
364 211
363 210
363 209
362 208
362 207
361 206
361 205
361 204
360 203
360 202
359 201
359 200
358 199
358 198
357 197
357 196
356 195
356 194
356 193
355 192
355 191
354 190
353 189
353 188
352 187
352 186
351 185
351 184
350 183
349 182
349 181
348 180
348 179
347 178
347 177
346 176
346 175
345 174
345 173
344 172
344 171
343 170
343 169
342 168
342 167
341 166
341 165
340 165
339 165
338 165
338 166
338 167
338 168
338 169
338 170
338 171
338 172
338 173
338 174
339 175
339 176
339 177
339 178
338 179
338 180
338 181
338 182
337 183
337 184
337 185
337 186
337 187
337 188
336 189
336 190
336 191
336 192
335 193
335 194
335 195
335 196
335 197
335 198
334 199
334 200
334 201
334 202
334 203
333 204
333 205
333 206
333 207
333 208
333 209
332 210
332 211
332 212
332 213
332 214
332 215
332 216
332 217
332 218
332 219
332 220
332 221
332 222
333 223
333 224
333 225
333 226
333 227
333 228
333 229
333 230
332 231
332 232
332 233
332 234
332 235
332 236
332 237
332 238
332 239
332 240
332 241
332 242
332 243
333 244
333 245
333 246
333 247
333 248
333 249
334 250
334 251
334 252
334 253
334 254
334 255
334 256
335 257
335 258
335 259
335 260
335 261
335 262
335 263
335 264
335 265
336 266
336 267
337 268
337 269
337 270
337 271
338 272
338 273
338 274
338 275
339 276
339 277
340 278
340 279
341 280
341 281
342 282
342 283
343 284
344 285
344 286
345 287
345 288
346 289
346 290
347 291
347 292
346 293
345 294
344 295
343 295
342 296
341 296
340 296
339 296
338 295
337 295
336 295
335 295
334 295
333 295
332 295
331 294
330 294
329 293
328 293
327 292
327 291
326 290
326 289
326 288
326 287
326 286
326 285
327 284
327 283
327 282
327 281
327 280
327 279
327 278
327 277
327 276
327 275
327 274
327 273
327 272
327 271
327 270
327 269
327 268
327 267
327 266
327 265
326 264
326 263
326 262
326 261
326 260
326 259
326 258
325 257
325 256
324 255
324 254
324 253
324 252
323 251
323 250
322 249
322 248
322 247
322 246
322 245
322 244
322 243
322 242
322 241
321 240
321 239
321 238
321 237
321 236
321 235
320 234
320 233
319 232
319 231
319 230
319 229
319 228
319 227
318 226
318 225
317 224
317 223
316 222
316 221
316 220
316 219
316 218
316 217
316 216
315 215
315 214
315 213
315 212
315 211
314 210
314 209
313 208
313 207
313 206
313 205
313 204
313 203
312 202
312 201
311 200
311 199
310 198
310 197
309 196
309 195
308 194
308 193
308 192
307 191
306 190
305 189
305 188
304 187
304 186
303 185
302 184
302 183
301 182
301 181
300 180
299 179
298 178
298 177
297 176
297 175
296 174
296 173
295 172
295 171
294 170
294 169
293 168
293 167
292 166
292 165
292 164
291 163
291 162
290 161
290 160
290 159
289 158
289 157
288 157
287 157
287 158
287 159
287 160
287 161
287 162
287 163
287 164
287 165
286 166
286 167
286 168
285 169
285 170
285 171
285 172
285 173
284 174
284 175
284 176
284 177
284 178
283 179
283 180
283 181
283 182
283 183
283 184
283 185
283 186
283 187
283 188
282 189
282 190
282 191
282 192
282 193
281 194
281 195
281 196
281 197
281 198
281 199
281 200
281 201
281 202
281 203
281 204
281 205
281 206
280 207
280 208
280 209
280 210
280 211
280 212
280 213
280 214
280 215
280 216
280 217
280 218
280 219
280 220
280 221
280 222
280 223
280 224
280 225
281 226
281 227
281 228
281 229
281 230
281 231
281 232
281 233
281 234
281 235
281 236
281 237
281 238
282 239
282 240
282 241
282 242
282 243
282 244
283 245
283 246
283 247
283 248
283 249
283 250
283 251
283 252
283 253
283 254
283 255
283 256
283 257
284 258
284 259
284 260
284 261
284 262
285 263
285 264
285 265
285 266
285 267
285 268
286 269
286 270
287 271
287 272
287 273
288 274
288 275
288 276
288 277
289 278
290 279
290 280
291 281
291 282
292 283
293 284
293 285
294 286
294 287
293 288
292 289
291 290
290 290
289 291
288 291
287 291
286 290
285 290
284 290
283 290
282 290
281 290
280 290
279 290
278 289
277 289
276 288
275 287
274 286
274 285
274 284
274 283
274 282
274 281
274 280
274 279
274 278
274 277
274 276
274 275
274 274
274 273
274 272
274 271
274 270
274 269
274 268
273 267
273 266
273 265
273 264
273 263
273 262
273 261
273 260
272 259
272 258
272 257
272 256
272 255
271 254
271 253
270 252
270 251
270 250
270 249
269 248
268 247
268 246
267 245
267 244
266 243
266 242
266 241
266 240
266 239
265 238
265 237
265 236
264 235
264 234
263 233
263 232
262 231
261 230
261 229
260 228
260 227
259 226
259 225
259 224
259 223
258 222
258 221
257 220
257 219
256 218
256 217
256 216
255 215
255 214
254 213
254 212
253 211
252 210
252 209
251 208
251 207
250 206
250 205
249 204
248 203
248 202
247 201
246 200
245 199
244 198
244 197
243 196
243 195
242 194
241 193
240 192
239 191
238 190
237 189
236 188
235 187
234 186
233 185
233 184
232 183
231 182
230 181
229 180
229 179
228 178
227 177
227 176
226 175
225 174
225 173
224 172
224 171
223 170
223 169
222 168
222 167
221 167
220 167
219 167
218 167
218 168
218 169
218 170
218 171
218 172
218 173
219 174
219 175
219 176
219 177
219 178
220 179
220 180
220 181
220 182
220 183
221 184
221 185
221 186
221 187
221 188
221 189
221 190
221 191
221 192
221 193
221 194
221 195
221 196
221 197
221 198
221 199
221 200
221 201
221 202
221 203
221 204
221 205
221 206
221 207
221 208
221 209
221 210
221 211
221 212
222 213
222 214
222 215
222 216
222 217
222 218
222 219
222 220
222 221
222 222
223 223
223 224
223 225
223 226
224 227
224 228
224 229
225 230
225 231
225 232
225 233
225 234
225 235
225 236
226 237
226 238
226 239
226 240
226 241
227 242
227 243
227 244
227 245
227 246
228 247
228 248
228 249
228 250
229 251
229 252
230 253
230 254
231 255
231 256
231 257
232 258
232 259
232 260
232 261
233 262
233 263
234 264
234 265
234 266
234 267
235 268
235 269
235 270
236 271
236 272
237 273
237 274
237 275
238 276
238 277
239 278
239 279
240 280
240 281
240 282
240 283
239 284
238 284
237 285
236 285
235 285
234 284
233 284
232 284
231 284
230 284
229 284
228 283
227 283
226 282
225 282
224 281
223 280
222 279
222 278
222 277
222 276
222 275
222 274
222 273
222 272
222 271
222 270
222 269
222 268
222 267
222 266
222 265
222 264
222 263
222 262
222 261
222 260
222 259
221 258
221 257
221 256
221 255
221 254
221 253
220 252
220 251
219 250
219 249
219 248
218 247
218 246
217 245
217 244
217 243
216 242
216 241
216 240
215 239
215 238
214 237
214 236
213 235
213 234
213 233
213 232
213 231
212 230
212 229
212 228
211 227
211 226
210 225
210 224
209 223
208 222
208 221
207 220
207 219
206 218
206 217
206 216
206 215
205 214
205 213
204 212
204 211
203 210
203 209
202 208
202 207
201 206
200 205
200 204
199 203
198 202
197 201
196 200
195 199
194 198
193 197
192 196
192 195
191 194
190 193
189 192
188 191
187 190
186 190
185 189
184 188
183 187
182 186
182 185
181 184
180 183
179 182
179 181
178 180
177 179
177 178
176 177
175 176
174 176
173 176
172 176
172 177
172 178
172 179
172 180
172 181
172 182
172 183
173 184
173 185
173 186
174 187
174 188
174 189
174 190
175 191
175 192
175 193
174 194
174 195
174 196
174 197
174 198
174 199
174 200
174 201
174 202
174 203
174 204
174 205
174 206
174 207
175 208
175 209
175 210
175 211
175 212
175 213
175 214
175 215
175 216
175 217
176 218
176 219
176 220
176 221
177 222
177 223
177 224
177 225
177 226
178 227
178 228
178 229
178 230
178 231
179 232
179 233
180 234
180 235
180 236
180 237
180 238
181 239
181 240
181 241
181 242
182 243
182 244
183 245
183 246
183 247
183 248
183 249
183 250
184 251
184 252
185 253
185 254
186 255
186 256
187 257
187 258
187 259
188 260
188 261
188 262
188 263
188 264
189 265
189 266
190 267
190 268
191 269
191 270
191 271
191 272
191 273
191 274
191 275
190 276
189 277
188 277
187 277
186 277
185 277
184 277
183 277
182 276
181 276
180 275
179 275
178 274
178 273
177 272
177 271
176 270
176 269
176 268
176 267
176 266
176 265
176 264
176 263
176 262
176 261
176 260
176 259
175 258
175 257
175 256
175 255
175 254
174 253
174 252
174 251
173 250
173 249
172 248
172 247
171 246
171 245
170 244
170 243
169 242
169 241
168 240
167 239
167 238
166 237
166 236
165 235
164 234
163 233
163 232
162 231
161 230
160 229
160 228
159 227
158 226
157 225
156 224
156 223
155 222
154 221
153 220
152 219
151 218
150 217
149 217
148 216
147 215
146 214
145 213
144 212
143 212
142 211
141 211
140 210
139 209
138 209
137 208
136 207
135 206
134 206
133 205
132 204
131 203
130 203
129 202
128 201
127 200
126 199
125 198
124 197
123 197
122 197
121 197
121 198
121 199
121 200
121 201
121 202
121 203
122 204
122 205
123 206
123 207
124 208
124 209
124 210
125 211
125 212
125 213
126 214
126 215
127 216
127 217
127 218
128 219
128 220
128 221
129 222
129 223
129 224
129 225
130 226
130 227
131 228
131 229
131 230
132 231
132 232
132 233
133 234
133 235
134 236
134 237
134 238
135 239
135 240
135 241
135 242
136 243
136 244
137 245
137 246
137 247
137 248
138 249
138 250
139 251
139 252
140 253
140 254
141 255
141 256
141 257
140 258
139 259
138 259
137 260
136 259
135 259
134 259
133 259
132 258
131 258
130 258
129 258
128 258
127 258
126 258
125 258
124 258
123 258
122 258
121 258
120 258
119 258
118 258
117 258
116 258
115 258
114 258
113 258
112 258
111 258
110 258
109 259
108 259
107 260
106 260
105 260
104 260
103 260
102 261
101 261
100 261
99 262
98 262
97 262
96 263
95 263
94 263
93 263
92 264
91 264
90 264
89 265
88 266
87 267
86 267
85 268
84 268
83 269
82 269
81 269
80 270
79 270
78 271
77 272
76 273
75 273
74 274
73 274
72 275
71 276
70 276
69 277
68 278
67 278
66 279
65 279
64 280
63 281
62 282
61 282
60 283
59 283
58 284
57 284
56 285
55 285
54 286
53 286
52 286
