295 20
294 21
293 21
292 21
291 22
290 23
290 24
289 25
289 26
289 27
289 28
288 29
288 30
288 31
288 32
288 33
288 34
288 35
288 36
288 37
288 38
288 39
288 40
288 41
288 42
288 43
288 44
288 45
288 46
288 47
288 48
288 49
288 50
288 51
288 52
288 53
288 54
288 55
289 56
289 57
289 58
289 59
289 60
289 61
289 62
289 63
289 64
289 65
289 66
290 67
290 68
290 69
290 70
290 71
290 72
290 73
290 74
290 75
291 76
291 77
291 78
291 79
291 80
291 81
291 82
292 83
292 84
292 85
292 86
292 87
292 88
293 89
293 90
293 91
293 92
293 93
293 94
293 95
293 96
293 97
293 98
294 99
294 100
294 101
294 102
294 103
294 104
295 105
295 106
295 107
296 108
296 109
295 110
295 111
295 112
295 113
295 114
296 115
296 116
296 117
296 118
296 119
296 120
296 121
297 122
297 123
297 124
297 125
297 126
297 127
298 128
298 129
298 130
298 131
298 132
299 133
299 134
299 135
300 136
301 137
302 138
302 139
303 140
303 141
304 142
305 143
306 144
306 145
307 146
308 147
309 148
310 149
311 149
312 150
313 151
314 151
315 152
316 152
317 153
318 153
319 154
320 154
321 155
322 155
323 155
324 155
325 156
326 156
327 156
328 156
329 157
328 158
327 158
326 158
325 158
324 158
323 158
322 158
321 158
320 158
319 158
318 158
317 158
316 158
315 158
314 158
313 158
312 158
311 158
310 158
309 158
308 158
307 158
306 158
305 158
304 158
303 158
302 158
301 158
300 158
299 158
298 158
297 158
296 158
295 158
294 158
293 158
292 158
291 158
290 158
289 157
288 157
287 157
286 156
286 155
286 154
287 153
287 152
288 151
288 150
289 149
289 148
289 147
289 146
290 145
290 144
290 143
290 142
290 141
291 140
291 139
291 138
291 137
291 136
291 135
291 134
291 133
291 132
291 131
290 130
290 129
290 128
290 127
290 126
290 125
290 124
289 123
289 122
289 121
289 120
289 119
289 118
289 117
289 116
288 115
288 114
288 113
287 112
287 111
287 110
287 109
287 108
286 107
286 106
286 105
285 104
285 103
285 102
284 101
284 100
284 99
284 98
283 97
283 96
282 95
281 94
281 93
280 92
280 91
280 90
279 89
279 88
278 87
278 86
277 85
277 84
276 83
276 82
276 81
275 80
275 79
275 78
274 77
274 76
273 75
272 74
272 73
271 72
271 71
270 70
270 69
269 68
269 67
268 66
268 65
267 64
266 63
266 62
265 61
265 60
264 59
264 58
263 57
262 56
261 55
260 54
260 53
259 52
258 51
258 50
257 49
256 48
255 47
254 46
253 45
253 44
252 43
251 43
250 42
250 41
249 40
248 39
248 38
247 37
246 36
245 35
245 34
244 34
243 33
242 33
241 33
240 32
239 31
238 31
237 30
236 30
235 31
234 32
233 32
232 32
231 33
230 33
230 34
230 35
229 36
229 37
229 38
229 39
229 40
229 41
229 42
229 43
229 44
230 45
230 46
230 47
231 48
231 49
231 50
231 51
231 52
231 53
231 54
232 55
232 56
232 57
232 58
232 59
232 60
233 61
233 62
233 63
234 64
234 65
234 66
235 67
235 68
235 69
235 70
235 71
236 72
236 73
236 74
236 75
236 76
236 77
237 78
237 79
237 80
238 81
238 82
238 83
239 84
239 85
239 86
239 87
240 88
240 89
240 90
241 91
241 92
241 93
241 94
241 95
241 96
241 97
242 98
242 99
242 100
242 101
243 102
243 103
243 104
243 105
243 106
243 107
243 108
243 109
243 110
243 111
243 112
244 113
244 114
244 115
244 116
245 117
245 118
245 119
245 120
245 121
245 122
245 123
245 124
245 125
245 126
246 127
246 128
247 129
247 130
247 131
248 132
248 133
248 134
249 135
249 136
250 137
251 138
252 139
253 140
253 141
254 142
254 143
255 144
256 145
257 146
258 147
259 148
260 149
261 150
262 150
263 151
264 152
265 152
266 153
267 153
268 154
269 154
270 154
271 155
272 155
273 155
274 156
274 157
273 158
272 158
271 158
270 158
269 158
268 158
267 158
266 158
265 157
264 157
263 157
262 157
261 157
260 158
259 158
258 158
257 158
256 157
255 157
254 157
253 157
252 157
251 157
250 157
249 157
248 157
247 157
246 157
245 157
244 157
243 157
242 157
241 157
240 157
239 157
238 157
237 157
236 157
235 157
234 157
233 157
232 157
231 156
230 155
230 154
230 153
231 152
232 151
232 150
232 149
233 148
233 147
233 146
233 145
234 144
234 143
234 142
233 141
233 140
233 139
233 138
233 137
233 136
233 135
233 134
232 133
232 132
232 131
232 130
232 129
232 128
231 127
231 126
231 125
230 124
230 123
230 122
230 121
229 120
229 119
228 118
228 117
227 116
227 115
226 114
226 113
226 112
225 111
225 110
224 109
223 108
223 107
222 106
222 105
221 104
221 103
220 102
219 101
219 100
218 99
218 98
217 97
216 96
216 95
215 94
215 93
214 92
213 91
213 90
212 89
211 88
210 87
209 86
208 85
207 84
207 83
206 82
205 81
204 80
203 79
202 78
201 77
200 76
199 75
198 74
197 73
196 72
195 71
195 70
194 69
193 69
192 68
191 67
190 66
189 65
188 65
187 64
186 64
185 63
184 63
183 62
182 61
181 60
180 60
179 59
178 58
177 58
176 57
175 57
174 56
173 56
172 56
171 56
170 55
169 55
168 54
167 54
166 54
165 54
164 53
163 53
162 53
161 52
160 52
159 52
158 51
157 51
156 51
155 51
154 51
153 51
152 52
151 52
150 53
150 54
149 55
148 56
148 57
148 58
148 59
149 60
149 61
149 62
150 63
150 64
151 65
151 66
151 67
152 68
152 69
153 70
154 71
154 72
155 73
156 74
156 75
157 76
158 77
158 78
158 79
159 80
160 81
160 82
161 83
161 84
162 85
162 86
163 87
163 88
164 89
165 90
165 91
166 92
166 93
167 94
167 95
168 96
168 97
169 98
170 99
170 100
171 101
171 102
172 103
173 104
173 105
174 106
174 107
175 108
175 109
175 110
176 111
176 112
177 113
177 114
178 115
178 116
178 117
179 118
179 119
180 120
180 121
180 122
180 123
181 124
181 125
182 126
182 127
183 128
184 129
184 130
185 131
185 132
186 133
186 134
187 135
188 136
188 137
189 138
190 139
191 140
191 141
192 142
193 143
194 144
195 145
196 146
197 147
198 148
199 149
200 149
201 150
202 151
203 151
204 152
205 152
206 153
207 153
208 153
209 154
210 154
211 154
212 155
213 155
214 155
215 155
216 155
217 155
218 155
219 155
220 156
221 156
222 156
223 157
222 158
221 158
220 158
219 158
218 158
217 158
216 158
215 158
214 158
213 158
212 158
211 158
210 158
209 159
208 159
207 159
206 159
205 159
204 159
203 159
202 159
201 159
200 159
199 159
198 159
197 159
196 159
195 159
194 159
193 159
192 159
191 159
190 159
189 159
188 159
187 159
186 159
185 159
184 159
183 159
182 159
181 159
180 159
179 159
178 159
177 159
176 159
175 158
174 158
173 158
172 158
171 158
170 157
169 156
170 155
170 154
171 153
171 152
171 151
172 150
172 149
172 148
172 147
172 146
171 145
171 144
171 143
171 142
170 141
170 140
169 139
169 138
169 137
169 136
168 135
168 134
167 133
167 132
166 131
166 130
165 129
165 128
164 127
163 126
163 125
162 124
161 123
160 122
160 121
159 120
158 119
157 118
156 117
155 117
154 117
153 116
152 115
152 114
151 113
150 112
149 111
148 110
148 109
147 108
146 107
145 107
144 106
143 105
142 104
141 104
140 103
139 102
138 101
137 100
136 100
135 99
134 98
133 98
132 97
131 96
130 95
129 95
128 94
127 94
126 93
125 93
124 92
123 92
122 91
121 91
120 90
119 90
118 90
117 89
116 89
115 89
114 89
113 89
112 89
111 88
110 88
109 88
108 87
107 87
106 86
105 86
104 86
103 85
102 85
101 85
100 84
99 84
98 84
97 84
96 84
95 84
94 84
93 84
92 83
91 83
90 83
89 83
88 82
87 82
86 82
85 83
84 83
83 83
82 83
81 83
80 83
79 83
78 83
77 83
76 83
75 83
74 83
73 84
72 84
71 84
70 85
69 85
68 85
67 85
66 85
65 85
64 85
63 86
62 87
61 88
60 89
59 90
59 91
59 92
59 93
59 94
59 95
59 96
60 97
61 98
62 99
63 100
64 101
65 102
65 103
66 104
67 105
68 106
69 107
70 107
71 108
72 109
73 110
74 111
75 112
76 112
77 113
78 114
79 114
80 115
81 115
82 116
82 117
83 117
84 118
85 119
86 120
87 120
88 121
89 122
90 122
91 123
92 124
93 124
94 125
95 126
96 127
97 128
98 128
99 129
100 130
101 131
102 131
103 132
104 133
105 134
106 134
107 135
108 136
109 137
110 138
111 139
112 139
113 140
114 141
115 141
116 142
117 143
118 144
119 144
120 145
121 146
122 146
123 147
123 148
124 148
125 149
126 150
127 150
128 151
129 151
130 152
131 152
132 152
133 153
134 153
135 153
136 154
137 154
138 155
139 155
140 155
141 156
142 156
143 156
144 156
145 156
146 156
147 156
148 156
149 157
150 157
151 157
152 157
153 157
154 157
155 157
156 157
157 157
158 157
159 157
160 157
161 157
162 157
163 157
164 158
165 158
166 159
166 160
165 161
165 162
164 163
163 163
162 162
161 162
160 162
159 161
158 161
157 161
156 161
155 160
154 160
153 160
152 160
151 160
150 160
149 160
148 160
147 160
146 160
145 160
144 160
143 160
142 160
141 160
140 160
139 160
138 160
137 160
136 161
135 161
134 161
133 161
132 161
131 161
130 162
129 162
128 162
127 162
126 163
125 163
124 164
123 164
122 165
121 165
120 166
119 167
118 167
117 167
116 168
115 168
114 168
113 169
112 169
111 170
110 170
109 171
108 171
107 172
106 173
105 173
104 173
103 174
102 174
101 175
100 175
99 176
98 177
97 178
96 179
95 179
94 180
93 180
92 181
91 182
90 183
89 183
88 184
87 185
86 186
85 186
84 187
83 187
82 188
81 188
80 189
79 189
78 190
77 190
76 191
75 192
74 192
73 193
72 193
72 194
71 195
70 195
69 196
68 196
67 197
66 198
65 198
64 199
63 200
62 200
61 201
60 202
59 203
58 204
57 205
56 206
55 207
54 208
53 209
52 210
52 211
52 212
52 213
52 214
52 215
53 216
53 217
54 218
55 218
56 219
57 219
58 219
59 219
60 220
61 220
62 220
63 220
64 221
65 221
66 222
67 222
68 222
69 223
70 223
71 223
72 223
73 223
74 223
75 223
76 224
77 224
78 224
79 224
80 224
81 224
82 225
83 225
84 225
85 225
86 225
87 225
88 225
89 225
90 225
91 225
92 225
93 225
94 225
95 225
96 225
97 225
98 225
99 225
100 225
101 224
102 224
103 224
104 224
105 223
106 223
107 223
108 223
109 222
110 222
111 222
112 222
113 221
114 221
115 221
116 220
117 220
118 220
119 219
120 219
121 219
122 218
123 218
124 218
125 217
126 216
127 216
128 215
129 215
130 214
131 214
132 213
133 213
134 212
135 212
136 211
137 211
138 210
139 210
140 209
141 209
142 208
143 207
144 206
145 205
146 205
147 204
148 203
149 202
150 202
151 201
152 200
153 199
154 198
155 197
156 196
156 195
157 194
158 193
159 192
160 191
161 190
162 189
162 188
163 187
164 186
164 185
165 184
165 183
166 182
166 181
167 180
168 179
168 178
168 177
169 176
169 175
170 174
170 173
170 172
170 171
170 170
170 169
170 168
170 167
169 166
169 165
169 164
169 163
170 162
171 162
172 161
173 161
174 161
175 161
176 161
177 161
178 161
179 161
180 161
181 161
182 161
183 161
184 161
185 161
186 161
187 161
188 161
189 161
190 161
191 161
192 161
193 161
194 161
195 161
196 161
197 161
198 161
199 161
200 161
201 161
202 161
203 161
204 161
205 161
206 161
207 162
206 163
205 164
204 164
203 164
202 164
201 164
200 164
199 165
198 165
197 165
196 166
195 166
194 166
193 167
192 167
191 168
190 168
189 169
188 170
187 170
186 171
185 172
184 173
183 174
182 175
181 176
180 177
179 178
179 179
178 180
177 181
177 182
176 183
176 184
175 185
174 186
174 187
173 188
172 189
172 190
171 191
171 192
170 193
170 194
169 195
169 196
169 197
168 198
168 199
168 200
167 201
166 202
166 203
166 204
165 205
165 206
165 207
164 208
164 209
164 210
163 211
163 212
162 213
162 214
162 215
161 216
161 217
161 218
160 219
160 220
159 221
159 222
159 223
158 224
158 225
158 226
157 227
157 228
156 229
156 230
155 231
155 232
154 233
154 234
154 235
153 236
153 237
152 238
152 239
151 240
151 241
151 242
151 243
151 244
151 245
150 246
150 247
149 248
149 249
149 250
148 251
148 252
148 253
148 254
147 255
147 256
147 257
147 258
147 259
147 260
146 261
146 262
146 263
145 264
145 265
145 266
145 267
145 268
145 269
145 270
145 271
145 272
145 273
145 274
145 275
146 276
147 277
148 278
149 278
150 278
151 278
152 278
153 277
154 277
155 276
156 276
157 275
158 274
159 273
160 272
161 271
162 271
163 270
164 269
165 268
166 267
167 267
168 266
168 265
169 264
170 263
171 262
172 261
173 260
174 259
175 258
176 257
177 256
178 255
179 254
180 253
181 252
181 251
182 250
183 249
184 248
185 247
186 246
187 245
187 244
188 243
189 242
190 241
191 240
192 239
193 238
193 237
194 236
195 235
196 234
196 233
197 232
198 231
199 230
200 229
200 228
201 227
202 226
202 225
203 224
203 223
204 222
205 221
206 220
206 219
207 218
207 217
207 216
208 215
208 214
208 213
209 212
210 211
210 210
211 209
211 208
211 207
212 206
212 205
212 204
213 203
213 202
213 201
214 200
214 199
215 198
215 197
215 196
215 195
216 194
216 193
216 192
216 191
216 190
216 189
216 188
216 187
216 186
216 185
216 184
216 183
216 182
216 181
216 180
216 179
216 178
217 177
216 176
216 175
216 174
216 173
216 172
215 171
215 170
214 169
214 168
213 167
212 166
212 165
211 164
210 163
211 162
212 162
213 162
214 161
215 161
216 161
217 161
218 161
219 161
220 161
221 161
222 161
223 161
224 161
225 161
226 161
227 161
228 161
229 161
230 160
231 160
232 160
233 160
234 160
235 160
236 160
237 160
238 160
239 160
240 160
241 160
242 160
243 160
244 160
245 160
246 160
247 160
248 160
249 160
250 160
251 160
252 160
253 160
254 160
255 160
256 160
257 160
258 160
259 160
260 161
261 162
260 163
259 163
258 163
257 163
256 163
255 163
254 163
253 164
252 164
251 164
250 165
249 165
248 165
247 166
246 166
245 166
244 167
243 167
242 168
241 169
240 170
239 171
238 171
237 172
236 173
235 173
234 174
234 175
233 176
232 177
232 178
231 179
230 180
230 181
230 182
229 183
229 184
229 185
228 186
228 187
228 188
227 189
227 190
227 191
226 192
226 193
226 194
226 195
226 196
226 197
225 198
225 199
225 200
225 201
224 202
224 203
224 204
224 205
224 206
224 207
224 208
223 209
223 210
222 211
222 212
222 213
222 214
222 215
221 216
221 217
221 218
220 219
220 220
219 221
219 222
219 223
219 224
218 225
218 226
217 227
217 228
217 229
216 230
216 231
216 232
216 233
216 234
215 235
215 236
215 237
214 238
214 239
214 240
213 241
213 242
213 243
212 244
212 245
212 246
212 247
211 248
211 249
211 250
211 251
211 252
211 253
211 254
211 255
210 256
210 257
210 258
210 259
210 260
210 261
209 262
209 263
209 264
209 265
209 266
209 267
209 268
209 269
209 270
210 271
210 272
211 273
212 274
213 274
214 274
215 275
216 275
217 274
218 274
219 273
220 273
221 272
222 272
223 271
224 270
225 269
226 269
227 268
228 267
229 266
230 265
231 264
232 263
233 262
234 261
235 261
236 260
237 259
238 258
238 257
239 256
240 255
240 254
241 253
242 252
243 251
244 250
245 249
246 248
246 247
247 246
248 245
249 244
250 243
250 242
251 241
251 240
252 239
252 238
252 237
253 236
253 235
254 234
254 233
255 232
255 231
256 230
256 229
257 228
257 227
258 226
258 225
259 224
259 223
260 222
260 221
261 220
261 219
262 218
263 217
264 216
265 215
265 214
266 213
266 212
266 211
267 210
267 209
268 208
268 207
268 206
268 205
269 204
269 203
269 202
269 201
270 200
270 199
271 198
271 197
271 196
271 195
271 194
272 193
272 192
272 191
272 190
272 189
272 188
272 187
272 186
272 185
272 184
272 183
272 182
271 181
271 180
271 179
271 178
271 177
271 176
271 175
271 174
270 173
270 172
270 171
269 170
269 169
269 168
268 167
267 166
267 165
266 164
265 163
265 162
266 161
267 161
268 161
269 161
270 161
271 161
272 161
273 161
274 161
275 161
276 161
277 161
278 161
279 161
280 161
281 161
282 161
283 161
284 161
285 161
286 161
287 161
288 161
289 161
290 161
291 161
292 161
293 161
294 161
295 161
296 161
297 161
298 161
299 161
300 161
301 162
300 163
299 163
298 164
297 164
296 164
295 165
294 165
293 166
292 166
291 167
290 168
289 169
288 169
287 170
286 171
285 172
284 173
283 174
283 175
282 176
281 177
281 178
280 179
279 180
279 181
278 182
277 183
277 184
276 185
276 186
276 187
276 188
276 189
276 190
276 191
276 192
275 193
275 194
274 195
274 196
274 197
274 198
274 199
274 200
274 201
273 202
273 203
273 204
272 205
272 206
271 207
270 208
270 209
269 210
269 211
269 212
269 213
269 214
268 215
268 216
268 217
268 218
267 219
267 220
266 221
266 222
265 223
265 224
265 225
264 226
264 227
263 228
263 229
263 230
263 231
262 232
262 233
261 234
261 235
261 236
260 237
260 238
260 239
259 240
259 241
258 242
258 243
257 244
257 245
257 246
257 247
256 248
256 249
256 250
255 251
255 252
255 253
255 254
254 255
254 256
254 257
254 258
253 259
253 260
253 261
253 262
252 263
252 264
252 265
251 266
251 267
251 268
251 269
251 270
251 271
251 272
251 273
252 274
253 275
254 276
255 276
256 276
257 276
258 276
259 276
260 275
261 275
262 275
263 274
264 273
265 272
266 272
267 271
268 271
269 270
270 269
271 268
272 267
273 266
274 266
275 265
276 264
277 263
278 262
279 261
280 260
281 259
282 258
282 257
283 256
284 255
285 254
286 253
287 252
288 251
289 250
289 249
290 248
291 247
292 246
293 247
293 248
292 249
292 250
291 251
291 252
290 253
290 254
289 255
289 256
289 257
288 258
288 259
287 260
287 261
286 262
286 263
285 264
285 265
285 266
285 267
285 268
285 269
285 270
285 271
286 272
287 273
288 273
289 273
290 273
291 273
292 273
293 273
294 273
295 273
296 272
297 272
298 272
299 271
300 271
301 270
302 270
303 269
304 269
305 268
306 268
307 267
308 267
309 266
310 266
311 265
312 264
313 263
314 263
315 262
316 261
317 261
318 260
319 259
319 258
320 257
321 256
322 256
323 255
324 254
325 253
326 252
327 251
328 250
329 249
330 248
331 247
332 246
333 245
334 244
335 243
336 242
337 241
338 240
339 239
340 238
341 237
341 236
342 235
343 234
343 233
344 232
345 231
346 231
347 230
348 229
349 228
350 227
351 226
351 225
352 224
353 223
354 223
354 222
355 221
356 220
356 219
357 218
358 217
358 216
359 215
359 214
360 213
361 212
362 211
363 210
363 209
364 208
364 207
365 206
366 205
366 204
367 203
367 202
368 201
368 200
369 199
369 198
369 197
370 196
370 195
370 194
370 193
371 192
371 191
372 190
372 189
372 188
372 187
372 186
372 185
372 184
373 183
373 182
373 181
373 180
373 179
373 178
373 177
373 176
373 175
372 174
372 173
372 172
372 171
371 170
371 169
370 168
369 167
369 166
369 165
370 164
371 164
372 164
373 164
374 164
375 164
376 164
377 164
378 164
379 164
380 164
381 164
382 164
383 164
384 164
385 164
386 164
387 164
388 164
389 164
390 164
391 164
392 164
393 164
394 164
395 164
396 164
397 164
398 164
399 164
400 164
401 165
400 166
399 167
398 167
397 167
396 168
395 169
394 169
393 170
392 171
391 172
390 173
389 174
388 175
387 176
386 177
386 178
385 179
384 180
383 181
383 182
383 183
382 184
382 185
381 186
381 187
380 188
380 189
380 190
380 191
380 192
379 193
379 194
379 195
378 196
378 197
378 198
378 199
377 200
377 201
377 202
377 203
377 204
377 205
376 206
376 207
375 208
375 209
374 210
374 211
373 212
373 213
372 214
372 215
372 216
372 217
371 218
371 219
370 220
370 221
369 222
369 223
369 224
369 225
368 226
367 227
367 228
367 229
367 230
366 231
366 232
365 233
365 234
365 235
365 236
364 237
364 238
363 239
363 240
362 241
362 242
362 243
362 244
361 245
361 246
360 247
360 248
359 249
359 250
359 251
358 252
358 253
358 254
357 255
357 256
356 257
356 258
356 259
356 260
355 261
355 262
354 263
354 264
353 265
353 266
353 267
352 268
352 269
352 270
352 271
351 272
351 273
351 274
350 275
350 276
350 277
350 278
350 279
351 280
351 281
352 281
353 282
354 282
355 283
356 282
357 282
358 282
359 281
360 281
361 280
362 280
363 279
364 279
365 278
366 277
367 277
368 276
369 275
370 274
371 273
372 272
373 271
374 270
375 269
376 268
377 267
378 266
379 265
380 264
381 263
382 263
383 262
384 261
384 260
385 259
386 258
386 257
387 256
388 255
389 254
390 253
391 252
392 251
393 250
394 249
395 248
395 247
396 246
397 245
397 244
398 243
398 242
399 241
400 240
401 239
401 238
402 237
402 236
403 235
403 234
404 233
404 232
405 231
406 230
407 229
407 228
408 227
409 226
409 225
410 224
411 223
412 222
413 221
414 220
414 219
415 218
415 217
416 216
416 215
417 214
417 213
418 212
418 211
418 210
419 209
420 208
420 207
421 206
421 205
421 204
422 203
422 202
422 201
423 200
423 199
423 198
423 197
424 196
424 195
424 194
424 193
425 192
425 191
425 190
425 189
425 188
425 187
425 186
425 185
425 184
426 183
426 182
426 181
426 180
426 179
425 178
425 177
425 176
425 175
424 174
424 173
423 172
423 171
423 170
422 169
421 168
422 167
423 166
424 166
425 166
426 166
427 166
428 166
429 166
430 166
431 166
432 166
433 166
434 166
435 166
436 166
437 166
438 166
439 166
440 166
441 166
442 166
443 166
444 166
445 166
446 166
447 166
448 167
448 168
447 169
446 170
445 170
444 171
443 171
442 172
441 173
440 174
439 175
439 176
438 177
437 178
436 179
436 180
435 181
435 182
434 183
434 184
434 185
434 186
433 187
432 188
432 189
431 190
431 191
431 192
430 193
430 194
429 195
428 196
428 197
427 198
427 199
427 200
426 201
426 202
425 203
425 204
425 205
424 206
423 207
423 208
423 209
422 210
422 211
421 212
420 213
420 214
420 215
419 216
419 217
419 218
418 219
418 220
418 221
418 222
417 223
417 224
416 225
416 226
415 227
415 228
414 229
413 230
413 231
412 232
412 233
412 234
412 235
411 236
410 237
410 238
409 239
409 240
408 241
408 242
408 243
407 244
407 245
406 246
406 247
405 248
405 249
404 250
404 251
404 252
404 253
403 254
403 255
403 256
402 257
401 258
401 259
401 260
400 261
400 262
400 263
400 264
399 265
399 266
399 267
398 268
398 269
398 270
399 271
399 272
399 273
398 274
399 275
399 276
400 277
401 278
402 278
403 278
404 278
405 278
406 278
407 277
408 277
409 276
410 276
411 275
412 275
413 274
414 274
415 274
416 273
417 272
418 271
419 271
420 270
421 269
422 269
423 268
424 267
425 266
426 265
426 264
427 263
428 262
429 262
430 261
431 260
432 259
433 258
434 257
435 256
436 255
437 254
438 253
438 252
439 251
440 250
441 249
442 248
443 247
444 246
445 245
446 244
447 243
448 242
448 241
449 240
450 239
451 238
452 237
453 236
453 235
454 234
455 233
455 232
456 231
456 230
457 229
458 228
459 227
460 226
461 225
461 224
462 223
463 222
464 221
464 220
465 219
466 218
467 217
468 216
468 215
469 214
469 213
470 212
470 211
471 210
471 209
472 208
472 207
473 206
473 205
473 204
474 203
474 202
474 201
475 200
475 199
476 198
476 197
476 196
477 195
477 194
477 193
478 192
478 191
478 190
478 189
479 188
479 187
479 186
479 185
479 184
479 183
479 182
479 181
479 180
479 179
478 178
478 177
478 176
477 175
477 174
476 173
476 172
475 171
475 170
476 169
477 168
478 168
479 168
480 168
481 168
482 168
483 168
484 168
485 168
486 168
487 168
488 168
489 167
490 167
491 167
492 167
493 167
494 167
495 167
496 167
497 167
498 167
499 167
500 167
501 167
502 167
503 167
504 167
505 167
506 167
507 167
508 168
507 169
506 170
505 170
504 171
503 171
502 172
501 172
500 173
499 174
498 175
497 176
496 177
495 178
495 179
494 180
493 181
493 182
492 183
492 184
492 185
491 186
491 187
491 188
491 189
490 190
490 191
490 192
489 193
489 194
489 195
489 196
489 197
489 198
489 199
488 200
488 201
488 202
488 203
488 204
489 205
489 206
489 207
489 208
488 209
488 210
488 211
488 212
488 213
488 214
487 215
487 216
487 217
487 218
487 219
487 220
487 221
487 222
487 223
487 224
486 225
486 226
486 227
486 228
486 229
486 230
486 231
486 232
485 233
485 234
485 235
485 236
485 237
485 238
485 239
485 240
485 241
485 242
485 243
485 244
485 245
485 246
485 247
485 248
484 249
484 250
484 251
484 252
484 253
484 254
484 255
484 256
484 257
484 258
484 259
484 260
484 261
484 262
484 263
484 264
484 265
484 266
484 267
484 268
483 269
483 270
484 271
484 272
484 273
484 274
484 275
484 276
485 277
485 278
486 279
486 280
487 281
487 282
488 283
489 283
490 283
491 283
492 283
493 282
494 281
495 281
496 280
497 279
498 278
499 277
500 276
500 275
501 274
502 273
503 272
504 271
505 270
505 269
506 268
507 267
507 266
507 265
508 264
508 263
509 262
509 261
510 260
510 259
511 258
511 257
512 256
513 255
513 254
513 253
514 252
515 251
515 250
516 249
516 248
516 247
517 246
517 245
518 244
518 243
519 242
520 241
521 241
522 242
522 243
521 244
521 245
521 246
521 247
521 248
521 249
521 250
521 251
521 252
521 253
521 254
521 255
521 256
521 257
521 258
521 259
521 260
522 261
523 262
524 263
525 263
526 264
527 264
528 264
529 263
530 263
531 263
532 262
533 262
534 261
535 261
536 260
537 259
538 258
539 257
540 256
541 255
542 254
543 253
544 252
545 251
546 250
547 249
547 248
548 247
549 246
550 245
551 244
551 243
552 242
552 241
553 240
554 239
554 238
555 237
555 236
556 235
557 234
558 233
558 232
559 231
560 230
560 229
561 228
561 227
562 226
563 225
563 224
564 223
565 222
565 221
566 220
566 219
567 218
567 217
568 216
568 215
569 214
570 213
570 212
571 211
571 210
571 209
572 208
572 207
572 206
573 205
574 204
574 203
574 202
575 201
575 200
576 199
576 198
576 197
576 196
577 195
577 194
578 193
578 192
578 191
579 190
579 189
579 188
579 187
579 186
579 185
579 184
579 183
579 182
579 181
579 180
579 179
579 178
579 177
578 176
578 175
578 174
578 173
577 172
577 171
576 170
576 169
575 168
575 167
576 166
577 166
578 166
579 165
580 165
581 165
582 165
583 165
584 165
585 165
586 165
587 165
588 165
589 165
590 164
591 164
592 164
593 164
594 164
595 164
596 164
597 164
598 164
599 164
600 164
601 164
602 164
603 164
604 164
605 164
606 164
607 163
608 163
609 164
609 165
608 166
607 167
606 167
605 168
604 169
603 170
602 171
601 172
601 173
600 174
600 175
599 176
598 177
598 178
597 179
597 180
597 181
597 182
596 183
596 184
596 185
595 186
595 187
594 188
594 189
594 190
594 191
594 192
593 193
593 194
593 195
593 196
592 197
592 198
592 199
591 200
591 201
591 202
591 203
591 204
591 205
591 206
591 207
591 208
590 209
590 210
590 211
590 212
590 213
590 214
590 215
590 216
589 217
589 218
589 219
589 220
589 221
589 222
589 223
589 224
588 225
588 226
589 227
589 228
589 229
589 230
588 231
588 232
588 233
588 234
588 235
588 236
588 237
588 238
589 239
589 240
589 241
589 242
589 243
589 244
589 245
589 246
589 247
589 248
589 249
590 250
590 251
590 252
591 253
592 254
593 255
594 255
595 256
596 256
597 255
598 255
599 255
600 254
601 253
602 252
603 251
604 251
605 250
606 249
607 248
607 247
608 246
608 245
609 244
610 244
610 243
611 242
611 241
612 240
612 239
613 238
613 237
614 236
614 235
615 234
615 233
616 232
616 231
617 230
617 229
617 228
618 227
618 226
619 225
619 224
619 223
620 222
620 221
620 220
621 219
621 218
622 217
622 216
622 215
623 214
623 213
624 212
624 211
624 210
625 209
626 208
626 207
627 206
627 205
627 204
628 203
628 202
628 201
628 200
629 199
629 198
629 197
630 196
630 195
630 194
631 193
631 192
631 191
632 190
632 189
632 188
632 187
632 186
632 185
632 184
633 183
633 182
633 181
633 180
632 179
632 178
632 177
632 176
632 175
631 174
631 173
631 172
630 171
630 170
629 169
629 168
628 167
627 166
627 165
628 164
629 164
630 163
631 163
632 163
633 163
634 163
635 163
636 163
637 163
638 163
639 163
640 163
641 162
642 162
643 162
644 162
645 162
646 162
647 162
648 162
649 162
650 162
651 162
652 162
653 162
654 162
655 162
656 162
657 162
658 162
659 162
660 162
661 162
662 162
663 163
662 164
661 165
660 166
659 167
658 168
657 169
657 170
656 171
655 172
655 173
654 174
654 175
654 176
653 177
653 178
653 179
652 180
652 181
652 182
651 183
651 184
650 185
650 186
649 187
649 188
649 189
649 190
648 191
648 192
648 193
648 194
647 195
647 196
647 197
647 198
647 199
647 200
647 201
647 202
646 203
646 204
646 205
646 206
646 207
646 208
646 209
646 210
646 211
646 212
646 213
646 214
646 215
646 216
646 217
646 218
647 219
647 220
647 221
647 222
648 223
648 224
648 225
649 226
649 227
650 228
651 228
652 229
653 229
654 229
655 229
656 229
657 228
658 228
659 227
660 226
661 225
662 224
663 223
663 222
664 221
665 220
665 219
666 218
667 217
668 216
668 215
669 214
669 213
670 212
671 211
671 210
672 209
672 208
673 207
673 206
674 205
675 204
676 203
676 202
677 201
678 200
679 199
679 198
680 197
681 196
681 195
682 194
682 193
683 192
683 191
684 190
684 189
684 188
684 187
685 186
685 185
686 184
686 183
686 182
686 181
686 180
686 179
686 178
686 177
686 176
686 175
686 174
686 173
685 172
685 171
685 170
684 169
683 168
683 167
682 166
681 165
681 164
682 163
683 163
684 163
685 162
686 163
687 163
688 162
689 162
690 162
691 162
692 162
693 162
694 162
695 162
696 162
697 162
698 162
699 162
700 162
701 162
702 162
703 162
704 162
705 162
706 162
707 162
708 162
709 162
710 162
711 162
712 162
713 162
714 163
715 163
716 163
717 163
718 163
719 163
720 163
721 163
722 163
723 163
724 163
725 163
726 163
727 163
728 164
729 164
730 164
731 164
732 164
733 164
734 164
735 164
736 164
737 165
738 165
739 165
740 165
741 165
742 165
743 165
744 164
745 165
746 166
747 167
748 167
749 166
749 165
750 164
751 164
752 163
753 162
752 161
752 160
752 159
751 159
750 159
749 158
748 157
747 156
746 155
745 155
744 154
743 154
742 154
741 154
740 154
739 154
738 154
737 154
736 154
735 154
734 154
733 155
732 155
731 155
730 155
729 155
728 155
727 155
726 155
725 156
724 156
723 156
722 156
721 156
720 155
719 155
718 156
717 156
716 155
715 155
714 155
713 155
712 155
711 155
710 155
709 155
708 155
707 155
706 155
705 155
704 155
703 155
702 155
701 155
700 155
699 155
698 155
697 155
696 155
695 155
694 155
693 155
692 155
691 155
690 155
689 155
688 155
687 155
686 155
685 155
684 155
683 155
682 155
681 155
680 155
679 155
678 154
677 154
676 153
675 152
676 151
676 150
676 149
677 148
677 147
677 146
677 145
677 144
677 143
676 142
676 141
676 140
676 139
675 138
675 137
675 136
674 135
673 134
673 133
672 132
671 131
670 130
670 129
669 129
668 128
668 127
667 126
666 125
665 125
664 124
663 123
662 122
661 121
660 120
659 120
658 119
657 118
656 117
655 116
654 115
653 114
652 114
651 113
650 113
649 112
648 112
647 111
646 110
645 110
644 109
643 109
642 109
641 109
640 109
639 109
639 110
638 111
638 112
638 113
638 114
638 115
638 116
638 117
638 118
638 119
639 120
639 121
639 122
639 123
640 124
640 125
640 126
641 127
641 128
641 129
642 130
642 131
643 132
643 133
643 134
644 135
644 136
645 137
645 138
645 139
646 140
646 141
647 142
647 143
648 144
649 145
649 146
650 147
651 148
651 149
652 150
653 151
654 152
655 153
656 154
656 155
655 156
654 156
653 156
652 156
651 156
650 156
649 156
648 156
647 156
646 156
645 157
644 157
643 157
642 157
641 157
640 157
639 157
638 157
637 157
636 157
635 157
634 157
633 157
632 157
631 157
630 156
629 156
628 155
628 154
629 153
629 152
630 151
631 150
631 149
632 148
632 147
633 146
633 145
633 144
633 143
633 142
633 141
633 140
633 139
633 138
633 137
633 136
633 135
633 134
633 133
633 132
632 131
632 130
632 129
632 128
631 127
631 126
630 125
630 124
630 123
630 122
629 121
629 120
629 119
628 118
628 117
627 116
627 115
627 114
626 113
626 112
625 111
625 110
625 109
624 108
624 107
624 106
623 105
622 104
622 103
621 102
621 101
621 100
620 99
620 98
619 97
618 96
618 95
617 94
617 93
616 92
616 91
615 90
614 89
613 88
612 87
612 86
611 85
610 84
609 83
608 82
607 82
606 81
605 81
604 80
603 80
602 80
601 79
600 80
599 80
598 81
598 82
598 83
597 84
597 85
596 86
596 87
596 88
596 89
596 90
596 91
596 92
596 93
596 94
596 95
596 96
596 97
596 98
597 99
597 100
597 101
597 102
597 103
597 104
597 105
597 106
597 107
597 108
597 109
597 110
597 111
597 112
597 113
597 114
597 115
597 116
597 117
597 118
597 119
597 120
597 121
597 122
598 123
597 124
597 125
597 126
597 127
598 128
598 129
598 130
598 131
598 132
598 133
598 134
598 135
599 136
599 137
599 138
600 139
600 140
600 141
601 142
601 143
602 144
602 145
603 146
604 147
604 148
605 149
606 149
607 150
608 151
609 152
610 153
611 153
612 154
613 155
614 155
615 156
614 157
613 158
612 158
611 158
610 158
609 158
608 158
607 158
606 158
605 158
604 159
603 159
602 159
601 159
600 159
599 159
598 159
597 159
596 159
595 159
594 159
593 159
592 159
591 159
590 159
589 159
588 159
587 159
586 159
585 159
584 159
583 159
582 158
582 157
583 156
584 155
585 154
586 153
586 152
587 151
587 150
588 149
588 148
588 147
589 146
589 145
589 144
589 143
590 142
590 141
590 140
590 139
590 138
590 137
590 136
590 135
590 134
589 133
589 132
589 131
589 130
589 129
589 128
589 127
588 126
588 125
588 124
588 123
588 122
588 121
587 120
587 119
587 118
586 117
586 116
586 115
586 114
585 113
585 112
585 111
585 110
584 109
584 108
584 107
584 106
583 105
583 104
583 103
583 102
582 101
582 100
582 99
582 98
582 97
581 96
581 95
581 94
581 93
580 92
580 91
580 90
579 89
579 88
579 87
578 86
578 85
577 84
577 83
576 82
576 81
575 80
575 79
574 78
573 77
572 76
572 75
571 74
570 73
569 72
569 71
568 70
568 69
567 68
566 67
566 66
565 65
564 64
563 63
562 62
561 61
560 61
559 60
558 60
557 60
556 60
555 61
554 62
554 63
553 64
553 65
552 66
552 67
552 68
551 69
551 70
551 71
551 72
551 73
551 74
551 75
551 76
551 77
551 78
551 79
551 80
551 81
551 82
551 83
551 84
551 85
551 86
551 87
551 88
551 89
551 90
551 91
551 92
551 93
551 94
551 95
551 96
551 97
551 98
551 99
551 100
551 101
551 102
551 103
551 104
551 105
551 106
551 107
551 108
551 109
551 110
551 111
551 112
551 113
551 114
551 115
551 116
551 117
551 118
551 119
551 120
551 121
551 122
551 123
551 124
550 125
550 126
550 127
550 128
550 129
549 130
549 131
550 132
550 133
550 134
550 135
550 136
551 137
551 138
551 139
552 140
552 141
553 142
553 143
554 144
554 145
554 146
555 147
556 148
557 149
557 150
558 151
559 152
560 153
561 154
562 155
563 155
564 156
565 157
566 157
567 157
568 158
569 158
570 159
569 160
568 160
567 161
566 161
565 161
564 161
563 161
562 161
561 161
560 161
559 161
558 161
557 161
556 161
555 161
554 161
553 161
552 161
551 162
550 162
549 162
548 162
547 162
546 162
545 162
544 162
543 162
542 162
541 162
540 162
539 162
538 162
537 161
536 161
535 160
536 159
537 158
538 157
539 156
539 155
540 154
540 153
541 152
541 151
542 150
542 149
542 148
543 147
543 146
543 145
543 144
543 143
544 142
544 141
544 140
544 139
544 138
544 137
544 136
544 135
544 134
544 133
544 132
544 131
544 130
544 129
544 128
544 127
544 126
543 125
543 124
543 123
543 122
543 121
543 120
543 119
542 118
542 117
542 116
542 115
542 114
541 113
541 112
541 111
540 110
540 109
540 108
540 107
539 106
539 105
539 104
538 103
538 102
538 101
537 100
537 99
537 98
537 97
537 96
536 95
536 94
536 93
536 92
536 91
535 90
535 89
535 88
535 87
534 86
534 85
534 84
533 83
533 82
532 81
532 80
532 79
531 78
531 77
531 76
530 75
529 74
529 73
528 72
528 71
528 70
527 69
527 68
526 67
526 66
525 65
524 64
524 63
523 62
523 61
522 60
522 59
521 58
520 57
520 56
519 55
518 54
517 53
516 52
516 51
515 50
515 49
514 48
513 47
512 46
511 46
510 45
509 45
508 44
507 44
506 44
505 44
504 45
504 46
503 47
502 48
502 49
502 50
502 51
502 52
502 53
502 54
502 55
501 56
501 57
501 58
501 59
501 60
501 61
501 62
501 63
502 64
502 65
501 66
501 67
501 68
501 69
501 70
502 71
502 72
501 73
501 74
501 75
501 76
501 77
501 78
501 79
501 80
501 81
501 82
501 83
501 84
501 85
501 86
501 87
501 88
501 89
501 90
501 91
501 92
501 93
500 94
500 95
500 96
500 97
499 98
498 97
498 96
498 95
497 94
497 93
497 92
497 91
496 90
496 89
495 88
495 87
495 86
494 85
494 84
494 83
494 82
493 81
493 80
493 79
492 78
492 77
492 76
491 75
491 74
490 73
489 72
489 71
489 70
489 69
488 68
488 67
488 66
487 65
487 64
486 63
486 62
485 61
485 60
485 59
484 58
484 57
483 56
482 55
482 54
481 53
481 52
481 51
480 50
480 49
479 48
479 47
478 46
477 45
476 44
475 43
475 42
474 41
474 40
473 39
472 38
472 37
471 36
470 35
469 35
468 34
467 33
466 33
465 32
464 32
463 32
462 32
461 32
460 33
460 34
460 35
459 36
459 37
458 38
458 39
458 40
457 41
457 42
457 43
457 44
457 45
457 46
457 47
456 48
456 49
456 50
456 51
456 52
456 53
456 54
456 55
456 56
456 57
456 58
456 59
456 60
456 61
456 62
456 63
456 64
456 65
456 66
456 67
456 68
456 69
456 70
456 71
456 72
456 73
456 74
456 75
456 76
456 77
456 78
456 79
456 80
456 81
456 82
456 83
456 84
456 85
456 86
456 87
456 88
456 89
456 90
456 91
456 92
456 93
456 94
456 95
456 96
456 97
456 98
456 99
457 100
456 101
456 102
456 103
456 104
456 105
456 106
456 107
456 108
456 109
456 110
456 111
456 112
456 113
456 114
456 115
456 116
456 117
456 118
456 119
456 120
456 121
456 122
456 123
456 124
456 125
456 126
456 127
456 128
456 129
456 130
457 131
457 132
457 133
457 134
457 135
457 136
457 137
457 138
458 139
458 140
459 141
459 142
459 143
460 144
460 145
461 146
462 147
463 148
463 149
464 150
465 151
465 152
466 153
467 154
468 154
469 155
470 156
471 156
472 157
473 157
474 158
475 158
476 159
477 159
478 159
479 159
480 160
481 160
482 160
483 160
484 161
485 162
484 163
483 163
482 163
481 163
480 163
479 163
478 163
477 163
476 163
475 163
474 163
473 163
472 163
471 163
470 163
469 163
468 163
467 163
466 163
465 163
464 163
463 163
462 163
461 163
460 163
459 163
458 163
457 163
456 163
455 163
454 163
453 163
452 162
451 162
450 162
449 162
448 162
447 162
446 162
445 162
444 161
443 161
442 161
441 160
440 159
441 158
441 157
442 156
443 155
443 154
444 153
444 152
445 151
445 150
445 149
445 148
446 147
446 146
446 145
446 144
446 143
446 142
446 141
446 140
446 139
447 138
447 137
447 136
447 135
447 134
447 133
446 132
446 131
446 130
446 129
446 128
446 127
446 126
446 125
446 124
446 123
445 122
445 121
445 120
445 119
445 118
445 117
445 116
444 115
444 114
443 113
443 112
443 111
443 110
443 109
442 108
442 107
441 106
441 105
440 104
440 103
440 102
440 101
439 100
439 99
438 98
438 97
437 96
437 95
436 94
436 93
436 92
436 91
435 90
435 89
434 88
433 87
432 86
432 85
431 84
431 83
430 82
430 81
429 80
429 79
429 78
428 77
428 76
427 75
426 74
426 73
425 72
425 71
424 70
424 69
423 68
422 67
422 66
421 65
421 64
420 63
420 62
419 61
419 60
418 59
417 58
417 57
417 56
416 55
416 54
415 53
414 52
413 51
413 50
412 49
411 48
410 47
410 46
409 45
408 44
408 43
407 42
407 41
406 40
405 39
404 38
404 37
403 36
402 35
402 34
401 33
400 32
399 31
398 30
397 30
396 29
395 28
394 27
393 26
392 26
391 26
390 26
389 27
388 28
388 29
387 30
387 31
387 32
387 33
387 34
387 35
387 36
387 37
387 38
387 39
387 40
387 41
387 42
387 43
387 44
387 45
387 46
388 47
388 48
388 49
388 50
388 51
388 52
388 53
388 54
388 55
388 56
388 57
388 58
389 59
389 60
389 61
389 62
390 63
390 64
390 65
390 66
390 67
391 68
391 69
391 70
391 71
391 72
392 73
392 74
392 75
392 76
392 77
392 78
393 79
393 80
393 81
393 82
393 83
393 84
393 85
394 86
394 87
394 88
395 89
395 90
395 91
395 92
395 93
395 94
395 95
395 96
396 97
395 98
395 99
395 100
395 101
396 102
396 103
396 104
396 105
396 106
397 107
397 108
397 109
398 110
398 111
398 112
398 113
398 114
398 115
399 116
399 117
399 118
400 119
400 120
400 121
401 122
401 123
401 124
401 125
401 126
401 127
401 128
402 129
402 130
403 131
403 132
403 133
403 134
403 135
404 136
405 137
405 138
406 139
406 140
407 141
407 142
408 143
408 144
409 145
409 146
410 147
410 148
411 149
412 150
413 151
414 152
415 153
416 154
417 154
418 155
419 155
420 156
421 157
422 157
423 158
424 158
425 158
426 159
427 159
428 159
429 159
430 160
429 161
428 161
427 161
426 161
425 161
424 161
423 161
422 161
421 161
420 161
419 161
418 161
417 161
416 161
415 161
414 161
413 161
412 161
411 161
410 161
409 161
408 161
407 161
406 161
405 161
404 161
403 160
402 160
401 160
400 160
399 160
398 160
397 160
396 160
395 160
394 160
393 160
392 159
391 159
390 159
389 158
388 157
389 156
390 155
391 154
391 153
392 152
392 151
393 150
393 149
394 148
394 147
394 146
394 145
395 144
395 143
395 142
395 141
395 140
395 139
395 138
394 137
394 136
394 135
394 134
394 133
394 132
394 131
394 130
394 129
393 128
393 127
393 126
393 125
392 124
392 123
392 122
392 121
392 120
392 119
392 118
391 117
391 116
391 115
391 114
391 113
391 112
390 111
390 110
390 109
389 108
389 107
389 106
388 105
387 104
387 103
387 102
386 101
386 100
386 99
385 98
385 97
385 96
384 95
384 94
383 93
383 92
382 91
382 90
381 89
381 88
381 87
380 86
379 85
379 84
378 83
378 82
377 81
376 80
376 79
375 78
375 77
374 76
374 75
373 74
372 73
371 72
371 71
370 70
370 69
369 68
368 67
368 66
367 65
367 64
366 63
366 62
365 61
365 60
364 59
363 58
362 57
362 56
361 55
361 54
360 53
359 52
359 51
358 50
357 49
357 48
356 47
355 46
354 45
354 44
353 43
353 42
352 41
351 40
351 39
350 38
349 37
348 37
347 36
346 35
346 34
345 33
344 32
343 31
342 30
341 29
340 28
339 28
338 27
338 26
337 26
336 25
335 25
334 24
333 23
332 23
331 23
330 23
329 24
329 25
328 26
328 27
328 28
328 29
328 30
327 31
327 32
328 33
328 34
328 35
328 36
328 37
328 38
328 39
328 40
328 41
328 42
328 43
328 44
328 45
328 46
328 47
329 48
329 49
329 50
329 51
329 52
330 53
330 54
330 55
331 56
331 57
331 58
331 59
332 60
332 61
332 62
332 63
332 64
333 65
333 66
333 67
333 68
333 69
333 70
333 71
334 72
334 73
334 74
334 75
334 76
335 77
335 78
335 79
335 80
335 81
335 82
334 83
333 82
333 81
332 80
332 79
332 78
331 77
331 76
330 75
330 74
330 73
329 72
328 71
328 70
328 69
327 68
326 67
326 66
326 65
325 64
325 63
324 62
324 61
323 60
322 59
322 58
322 57
321 56
321 55
320 54
320 53
320 52
319 51
319 50
318 49
317 48
317 47
316 46
316 45
316 44
315 43
315 42
314 41
313 40
313 39
312 38
311 37
311 36
310 35
309 34
309 33
308 32
307 31
306 30
306 29
305 28
304 27
303 26
302 25
301 24
300 23
299 22
298 21
297 21
296 20
295 20
