387 65
386 66
385 66
384 66
383 66
382 66
381 66
380 66
379 66
378 66
377 66
376 66
375 66
374 66
373 66
372 66
371 66
370 66
369 66
368 66
367 66
366 67
365 67
364 67
363 67
362 67
361 67
360 67
359 68
358 68
357 68
356 68
355 69
354 69
353 69
352 69
351 70
350 70
349 70
348 70
347 71
346 71
345 71
344 72
343 72
342 73
341 73
340 74
339 74
338 74
337 75
336 75
335 75
334 76
333 76
332 76
331 77
330 77
329 78
328 78
327 78
326 79
325 79
324 80
323 80
322 80
321 81
320 81
319 81
318 82
317 82
316 82
315 83
314 83
313 83
312 83
311 84
310 84
309 84
308 84
307 85
306 85
305 85
304 86
303 86
302 86
301 86
300 86
299 87
298 87
297 87
296 88
295 88
294 88
293 88
292 88
291 89
290 89
289 89
288 90
287 90
286 90
285 91
284 91
283 91
282 92
281 92
280 92
279 93
278 93
277 93
276 94
275 94
274 94
273 95
272 95
271 96
270 96
269 96
268 97
267 97
266 98
265 98
264 99
263 99
262 100
261 100
260 101
259 101
258 102
257 102
256 103
255 104
254 104
253 105
252 106
251 106
250 107
249 108
248 109
247 109
246 110
245 111
244 111
243 112
242 112
241 113
240 114
239 114
238 115
237 115
236 116
235 116
234 117
233 118
232 118
231 119
230 119
229 120
228 121
227 121
226 122
225 122
224 123
223 123
222 124
221 124
220 125
219 125
218 126
217 126
216 127
215 127
214 128
213 129
212 129
211 130
210 130
209 131
208 131
207 132
206 133
205 134
204 134
203 135
202 136
201 137
200 137
199 138
198 139
197 140
196 141
195 142
194 143
193 144
192 145
191 146
190 147
189 148
188 148
188 149
187 150
186 151
185 152
184 153
183 154
182 155
181 156
180 157
180 158
179 159
178 160
177 161
177 162
176 163
176 164
175 165
174 166
174 167
173 168
172 169
172 170
171 171
170 172
170 173
169 174
169 175
168 176
167 177
167 178
166 179
166 180
165 181
165 182
164 183
164 184
163 185
162 186
162 187
161 188
161 189
160 190
160 191
159 192
158 193
158 194
157 195
157 196
156 197
155 198
154 199
154 200
153 201
152 202
152 203
151 204
150 205
149 206
148 207
148 208
147 209
146 209
146 210
145 211
144 212
144 213
143 214
142 215
142 216
141 217
140 218
140 219
139 220
139 221
138 222
138 223
138 224
137 225
137 226
136 227
136 228
136 229
135 230
135 231
135 232
134 233
134 234
134 235
134 236
133 237
133 238
133 239
133 240
132 241
132 242
132 243
132 244
132 245
132 246
131 247
131 248
131 249
130 250
130 251
130 252
129 253
129 254
129 255
129 256
128 257
127 258
127 259
126 260
126 261
125 262
125 263
124 264
123 265
122 266
121 267
120 268
119 268
118 269
117 270
116 270
115 271
114 271
113 272
112 273
111 273
110 273
109 274
108 274
107 274
106 275
105 275
104 276
103 276
102 276
101 276
100 277
99 277
98 277
97 277
96 278
95 278
94 278
93 278
92 278
91 279
90 279
89 279
88 279
87 280
86 280
85 280
84 281
83 281
82 281
81 282
80 282
79 283
78 283
77 283
76 284
75 284
74 284
73 285
72 285
71 285
70 286
69 286
68 286
67 286
66 287
65 287
64 287
63 287
62 287
61 287
60 287
59 288
58 288
57 288
56 289
55 289
54 290
53 290
52 291
52 292
51 293
51 294
51 295
52 296
52 297
53 298
54 299
55 300
56 301
57 302
58 302
59 303
60 304
61 304
62 304
63 305
64 305
65 305
66 306
67 306
68 307
69 307
70 308
71 308
72 309
73 310
74 310
75 311
76 312
77 313
78 313
79 314
80 314
81 315
81 316
82 316
83 317
84 318
85 319
86 320
87 321
88 321
89 322
89 323
90 323
91 324
92 325
93 326
94 327
95 328
96 329
97 330
98 331
99 332
100 333
101 334
102 335
102 336
103 336
104 337
105 338
106 339
106 340
107 341
108 342
108 343
109 344
110 345
111 346
111 347
112 348
113 349
113 350
113 351
114 352
115 353
115 354
115 355
116 356
116 357
117 358
117 359
118 360
118 361
119 362
119 363
120 364
120 365
121 366
121 367
121 368
122 369
122 370
123 371
123 372
124 373
124 374
125 375
125 376
126 377
126 378
127 379
127 380
128 381
129 382
129 383
129 384
130 385
131 386
132 387
132 388
133 389
133 390
134 391
135 392
136 393
136 394
137 395
138 396
139 397
140 398
141 399
142 400
143 400
144 401
145 402
146 403
147 404
147 405
148 406
149 406
150 407
151 408
152 409
153 410
154 411
155 412
156 413
157 414
158 414
159 415
160 416
161 417
162 418
163 419
164 420
164 421
165 421
166 422
167 423
168 424
169 424
170 425
171 426
172 427
173 428
174 429
175 429
176 430
177 431
178 432
179 433
180 433
181 434
182 435
183 435
184 436
185 437
186 437
187 438
188 439
189 439
190 440
191 441
192 441
193 442
194 442
195 442
196 443
197 444
198 445
199 446
200 446
201 447
202 448
203 449
204 450
205 450
206 451
207 452
208 452
209 453
209 454
210 454
211 454
212 455
212 456
213 456
214 457
215 458
216 459
217 459
218 460
219 461
220 462
221 463
222 464
223 464
224 465
225 465
226 466
227 467
228 467
229 468
230 468
231 469
232 469
233 470
234 470
235 470
236 471
237 471
238 472
239 472
240 473
241 473
242 474
243 474
244 475
245 475
246 475
247 476
248 476
249 476
250 477
251 477
252 478
253 478
254 478
255 479
256 479
257 479
258 480
259 480
260 480
261 481
262 481
263 481
264 482
265 482
266 482
267 483
268 483
269 484
270 484
271 484
272 485
273 485
274 485
275 486
276 486
277 487
278 487
279 488
280 488
281 489
282 489
283 490
284 490
285 490
286 491
287 491
288 492
289 492
290 492
291 493
292 493
293 494
294 494
295 494
296 494
297 495
298 495
299 495
300 496
301 496
302 496
303 497
304 497
305 497
306 498
307 498
308 498
309 498
310 499
311 499
312 499
313 500
314 500
315 500
316 500
317 500
318 500
319 501
320 501
321 501
322 501
323 501
324 501
325 501
326 501
327 502
328 502
329 502
330 502
331 502
332 502
333 502
334 502
335 502
336 502
337 502
338 502
339 502
340 502
341 502
342 502
343 502
344 502
345 503
346 503
347 503
348 503
349 503
350 503
351 503
352 503
353 503
354 503
355 503
356 503
357 503
358 503
359 504
360 504
361 504
362 504
363 504
364 504
365 504
366 504
367 504
368 504
369 504
370 504
371 505
372 505
373 505
374 505
375 505
376 505
377 505
378 505
379 505
380 505
381 505
382 505
383 505
384 505
385 505
386 505
387 505
388 505
389 505
390 505
391 505
392 505
393 505
394 505
395 505
396 505
397 505
398 505
399 505
400 505
401 505
402 505
403 505
404 505
405 505
406 505
407 505
408 505
409 505
410 505
411 505
412 505
413 505
414 505
415 505
416 505
417 505
418 504
419 504
420 504
421 504
422 504
423 504
424 504
425 504
426 504
427 504
428 503
429 503
430 503
431 503
432 503
433 503
434 503
435 503
436 503
437 503
438 503
439 503
440 503
441 503
442 502
443 502
444 502
445 502
446 502
447 502
448 502
449 502
450 502
451 502
452 502
453 502
454 502
455 501
456 501
457 501
458 501
459 501
460 501
461 501
462 501
463 501
464 500
465 500
466 500
467 500
468 500
469 500
470 499
471 499
472 499
473 499
474 499
475 498
476 498
477 498
478 498
479 498
480 497
481 497
482 497
483 497
484 497
485 496
486 496
487 496
488 496
489 495
490 495
491 495
492 495
493 494
494 494
495 494
496 494
497 493
498 493
499 493
500 492
501 492
502 492
503 492
504 491
505 491
506 490
507 490
508 490
509 489
510 489
511 489
512 488
513 488
514 487
515 487
516 487
517 487
518 486
519 486
520 486
521 485
522 485
523 484
524 484
525 484
526 483
527 483
528 482
529 482
530 481
531 481
532 480
533 480
534 480
535 480
536 479
537 479
538 478
539 478
540 477
541 477
542 476
543 476
544 475
545 475
546 474
547 474
548 474
549 473
550 472
551 472
552 471
553 470
554 470
555 469
556 469
557 468
558 467
559 467
560 466
561 465
562 464
563 464
564 463
565 463
566 462
567 461
568 460
569 459
570 459
571 458
572 457
573 456
574 455
575 454
576 453
577 452
578 451
579 450
580 449
581 448
582 447
583 447
583 446
584 445
585 444
586 443
587 442
588 441
589 440
590 439
590 438
591 437
592 436
593 435
594 434
594 433
595 432
596 432
597 431
597 430
598 429
599 428
600 427
600 426
601 425
602 424
603 423
603 422
604 421
605 420
606 419
606 418
607 417
608 416
608 415
609 414
609 413
610 412
611 411
612 410
612 409
613 408
614 407
615 406
615 405
616 404
617 403
617 402
618 401
618 400
619 399
620 398
620 397
621 396
621 395
622 394
622 393
623 392
623 391
624 390
624 389
625 388
625 387
626 386
626 385
627 384
628 383
628 382
629 381
630 380
630 379
631 378
631 377
632 376
632 375
633 374
633 373
634 372
634 371
635 370
635 369
636 368
636 367
637 366
638 365
639 364
639 363
640 362
640 361
641 360
642 359
643 358
644 357
644 356
645 355
646 354
646 353
647 352
648 351
649 350
649 349
650 348
651 347
652 346
652 345
652 344
653 343
654 342
654 341
655 340
655 339
655 338
656 337
656 336
657 335
657 334
658 333
659 332
659 331
660 330
660 329
661 328
661 327
662 326
662 325
662 324
662 323
663 322
663 321
663 320
664 319
664 318
664 317
664 316
664 315
665 314
665 313
666 312
667 311
667 310
668 309
668 308
669 307
669 306
670 305
671 304
671 303
672 302
673 301
673 300
674 299
675 298
675 297
676 296
677 295
677 294
678 293
679 292
680 291
680 290
681 289
682 288
682 287
683 286
684 285
685 284
686 284
687 283
688 282
689 282
690 281
691 281
692 280
693 280
694 279
695 279
696 279
697 279
698 279
699 278
700 278
701 279
702 279
703 278
704 278
705 278
706 278
707 278
708 278
709 278
710 278
711 278
712 279
713 279
714 279
715 279
716 279
717 279
718 279
719 279
720 280
721 280
722 280
723 280
724 280
725 280
726 281
727 281
728 281
729 281
730 281
731 282
732 282
733 282
734 282
735 282
736 283
737 283
738 283
739 283
740 283
741 284
742 284
743 284
744 284
745 285
746 285
747 285
748 285
749 285
750 286
751 286
752 286
753 286
754 286
755 286
756 286
757 286
758 286
759 285
760 285
761 285
762 284
763 284
764 283
765 282
766 281
767 280
768 279
768 278
768 277
769 276
769 275
769 274
770 273
771 272
772 271
771 271
770 270
769 270
768 270
767 269
766 269
765 269
764 269
763 268
762 268
761 268
760 268
759 268
758 267
757 267
756 267
755 267
754 266
753 266
752 266
751 266
750 266
749 265
748 265
747 265
746 265
745 264
744 264
743 264
742 264
741 263
740 263
739 263
738 263
737 262
736 262
735 262
734 262
733 261
732 261
731 261
730 261
729 260
728 260
727 260
726 260
725 260
724 259
723 259
722 259
721 259
720 258
719 258
718 258
717 258
716 257
715 257
714 257
713 257
712 257
711 256
710 256
709 256
708 255
707 255
706 254
705 254
704 254
703 253
702 252
701 252
700 251
699 250
698 250
697 249
696 248
695 248
694 247
693 247
692 246
692 245
691 245
690 244
689 243
688 242
688 241
687 240
686 239
686 238
685 237
685 236
684 235
684 234
683 233
683 232
682 231
682 230
682 229
681 228
681 227
681 226
680 225
680 224
680 223
679 222
679 221
678 220
678 219
678 218
678 217
677 216
677 215
676 214
676 213
676 212
676 211
675 210
675 209
675 208
675 207
675 206
674 205
674 204
673 203
673 202
673 201
672 200
672 199
672 198
671 197
671 196
670 195
670 194
669 193
669 192
668 191
668 190
667 189
666 188
666 187
665 186
664 185
663 184
663 183
662 182
661 181
660 180
659 179
659 178
658 177
657 176
656 175
656 174
655 173
654 172
654 171
653 170
652 169
651 168
651 167
650 166
649 165
648 164
647 163
646 162
645 161
644 160
643 159
642 158
641 157
640 156
639 155
638 154
637 153
636 152
635 151
634 150
633 149
632 148
631 148
630 147
630 146
629 145
628 144
627 143
626 142
625 141
624 140
623 139
622 139
621 138
620 137
619 136
618 136
617 135
616 134
615 133
614 133
613 132
612 131
611 131
610 130
609 129
608 128
607 128
606 127
605 126
604 126
603 125
602 125
601 124
600 124
599 123
598 122
597 122
596 121
595 120
594 120
593 119
592 118
591 117
590 117
589 116
588 115
587 115
586 114
585 113
584 113
583 112
582 112
581 111
580 110
579 110
578 109
577 108
576 107
575 107
574 106
573 105
572 105
571 104
570 104
569 103
568 102
567 102
566 101
565 101
564 100
563 99
562 99
561 98
560 98
559 97
558 97
557 96
556 95
555 95
554 94
553 94
552 93
551 93
550 92
549 92
548 91
547 91
546 90
545 90
544 89
543 89
542 88
541 88
540 87
539 87
538 87
537 86
536 86
535 86
534 85
533 85
532 85
531 84
530 84
529 84
528 83
527 83
526 82
525 82
524 82
523 82
522 81
521 81
520 81
519 80
518 80
517 80
516 80
515 79
514 79
513 79
512 79
511 79
510 78
509 78
508 78
507 78
506 78
505 77
504 77
503 77
502 76
501 76
500 76
499 75
498 75
497 75
496 75
495 75
494 74
493 74
492 74
491 74
490 73
489 73
488 73
487 73
486 72
485 72
484 72
483 72
482 71
481 71
480 71
479 71
478 71
477 71
476 70
475 70
474 70
473 70
472 70
471 70
470 69
469 69
468 69
467 69
466 69
465 69
464 68
463 68
462 68
461 68
460 67
459 67
458 67
457 67
456 66
455 66
454 66
453 66
452 66
451 66
450 66
449 66
448 66
447 66
446 66
445 66
444 66
443 66
442 66
441 66
440 66
439 66
438 66
437 66
436 66
435 66
434 66
433 66
432 66
431 66
430 66
429 66
428 66
427 66
426 66
425 66
424 66
423 66
422 65
421 65
420 65
419 66
418 66
417 66
416 66
415 66
414 66
413 66
412 66
411 66
410 66
409 65
408 65
407 65
406 65
405 66
404 66
403 66
402 66
401 66
400 66
399 66
398 66
397 66
396 66
395 65
394 65
393 65
392 65
391 65
390 65
389 65
388 65
387 65
