270 60
269 61
268 61
267 61
266 61
265 61
264 61
263 61
262 61
261 61
260 62
259 62
258 62
257 62
256 62
255 62
254 62
253 63
252 63
251 63
250 63
249 63
248 63
247 63
246 64
245 64
244 64
243 64
242 65
241 65
240 65
239 65
238 65
237 65
236 66
235 66
234 66
233 66
232 67
231 67
230 67
229 68
228 68
227 69
226 69
225 69
224 70
223 70
222 71
221 71
220 72
219 72
218 72
217 73
216 73
215 73
214 74
213 74
212 74
211 75
210 75
209 76
208 76
207 77
206 77
205 78
204 78
203 79
202 79
201 80
200 81
199 81
198 82
197 83
196 83
195 84
194 85
193 85
192 86
191 87
190 87
189 88
188 89
187 90
186 91
185 92
184 93
183 94
182 95
181 96
180 97
179 97
178 98
177 99
177 100
176 101
175 102
174 102
173 103
172 104
171 105
170 106
169 107
168 108
167 109
166 110
165 111
164 112
163 113
162 114
161 115
160 116
159 117
158 118
157 118
156 119
155 120
154 120
153 121
152 121
151 122
150 123
149 124
148 125
147 126
146 127
145 128
144 129
144 130
143 131
142 131
141 132
140 133
139 134
138 135
137 136
136 137
135 138
134 139
133 140
132 141
131 142
130 143
129 144
128 145
127 146
126 147
125 148
124 149
123 150
122 151
121 152
120 153
119 154
119 155
118 156
118 157
117 158
116 159
116 160
115 161
114 161
113 162
113 163
112 164
111 165
110 166
109 167
108 168
108 169
107 170
106 171
105 172
104 173
104 174
103 175
102 176
101 177
100 178
99 179
98 180
98 181
97 182
96 183
96 184
95 185
94 186
93 187
92 188
91 189
90 189
90 190
89 191
88 192
87 193
86 194
85 195
85 196
84 197
83 198
83 199
82 200
81 201
81 202
80 203
79 204
79 205
78 206
77 207
77 208
76 209
76 210
75 211
75 212
74 213
73 214
73 215
72 216
72 217
71 218
71 219
70 220
70 221
69 222
69 223
69 224
69 225
69 226
68 227
68 228
68 229
67 230
66 231
66 232
66 233
65 234
65 235
65 236
64 237
64 238
64 239
64 240
64 241
64 242
64 243
64 244
64 245
64 246
64 247
64 248
64 249
64 250
64 251
64 252
64 253
64 254
65 255
65 256
65 257
65 258
65 259
65 260
66 261
66 262
66 263
66 264
67 265
67 266
67 267
67 268
67 269
68 270
68 271
68 272
68 273
69 274
69 275
69 276
70 277
70 278
70 279
71 280
71 281
71 282
71 283
72 284
72 285
72 286
73 287
73 288
74 289
74 290
74 291
74 292
75 293
75 294
75 295
76 296
76 297
76 298
76 299
77 300
77 301
78 302
78 303
78 304
79 305
79 306
80 307
80 308
80 309
81 310
81 311
82 312
82 313
82 314
83 315
83 316
84 317
84 318
85 319
85 320
86 321
86 322
86 323
87 324
87 325
88 326
88 327
88 328
89 329
89 330
90 331
90 332
91 333
92 334
92 335
93 336
94 337
95 338
96 339
96 340
97 341
98 342
99 343
100 344
101 345
102 346
103 347
104 348
105 349
105 350
106 351
107 352
108 353
109 354
110 355
111 356
112 357
113 358
114 359
115 360
116 361
116 362
117 363
118 364
119 365
120 366
120 367
121 368
122 369
123 370
123 371
124 372
125 373
126 374
126 375
127 376
128 377
129 378
130 379
131 380
132 381
132 382
133 383
134 384
135 385
136 386
137 387
138 388
139 389
140 390
140 391
141 392
142 393
143 394
144 394
145 395
146 396
147 397
148 398
149 399
150 400
151 400
152 401
153 402
154 403
155 403
156 404
157 405
158 406
159 406
160 407
161 408
162 409
163 409
164 410
165 411
166 412
167 413
168 414
169 415
170 415
171 416
172 417
173 417
174 418
175 419
176 419
177 420
178 421
179 421
180 422
181 423
182 423
183 424
184 425
185 425
186 426
187 426
188 427
189 428
190 428
191 429
192 429
193 430
194 431
195 431
196 432
197 432
198 433
199 433
200 434
201 434
202 435
203 435
204 436
205 437
206 437
207 438
208 438
209 439
210 439
211 440
212 440
213 441
214 441
215 442
216 442
217 442
218 442
219 442
220 443
221 443
222 443
223 443
224 444
225 444
226 444
227 444
228 444
229 444
230 445
231 445
232 445
233 445
234 445
235 446
236 446
237 446
238 446
239 446
240 447
241 447
242 447
243 447
244 447
245 448
246 448
247 448
248 448
249 448
250 448
251 449
252 449
253 449
254 449
255 449
256 449
257 450
258 450
259 450
260 450
261 450
262 450
263 451
264 451
265 451
266 451
267 452
268 452
269 452
270 452
271 452
272 452
273 453
274 453
275 453
276 453
277 453
278 454
279 454
280 454
281 454
282 455
283 455
284 455
285 455
286 455
287 455
288 456
289 456
290 456
291 456
292 457
293 457
294 457
295 457
296 457
297 457
298 457
299 457
300 458
301 458
302 458
303 458
304 458
305 458
306 458
307 458
308 458
309 458
310 458
311 458
312 458
313 458
314 458
315 458
316 458
317 458
318 457
319 457
320 457
321 457
322 457
323 457
324 457
325 457
326 457
327 456
328 456
329 456
330 456
331 456
332 456
333 455
334 455
335 455
336 455
337 455
338 455
339 454
340 454
341 454
342 454
343 454
344 453
345 453
346 453
347 453
348 453
349 452
350 452
351 452
352 452
353 451
354 451
355 451
356 451
357 450
358 450
359 449
360 449
361 449
362 448
363 448
364 447
365 447
366 447
367 446
368 446
369 445
370 445
371 444
372 444
373 443
374 443
375 442
376 442
377 442
378 441
379 441
380 440
381 440
382 440
383 439
384 439
385 438
386 438
387 437
388 437
389 436
390 436
391 436
392 435
393 435
394 435
395 434
396 434
397 434
398 434
399 433
400 433
401 432
402 432
403 432
404 431
405 431
406 430
407 430
408 430
409 429
410 429
411 428
412 428
413 427
414 427
415 427
416 426
417 425
418 425
419 425
420 424
421 423
422 423
423 422
424 421
425 420
426 420
427 419
428 419
429 418
430 417
431 416
432 415
433 414
434 413
435 412
436 411
437 410
438 410
439 409
440 408
441 407
442 406
443 405
444 405
445 404
446 403
447 402
448 401
449 400
450 399
451 398
452 397
453 397
454 396
455 395
456 394
457 393
458 392
459 391
460 390
461 389
462 388
463 387
464 386
465 385
466 384
467 383
468 383
469 382
470 381
471 380
472 379
473 378
474 378
475 377
476 376
477 375
478 374
479 373
480 372
481 371
481 370
482 369
483 368
483 367
484 366
485 365
486 364
487 363
487 362
488 361
489 360
490 359
490 358
491 357
492 356
493 355
494 354
494 353
495 352
495 351
496 350
497 349
497 348
498 347
499 346
500 345
500 344
501 343
501 342
502 341
503 340
503 339
504 338
504 337
505 336
506 335
506 334
507 333
508 332
508 331
509 330
509 329
510 328
510 327
511 326
512 325
512 324
513 323
513 322
514 321
515 320
516 319
516 318
517 317
517 316
518 315
519 314
519 313
520 312
521 311
521 310
522 309
523 308
524 307
524 306
525 305
526 304
527 303
527 302
528 301
528 300
529 299
530 298
531 297
532 296
533 295
534 294
534 293
535 292
535 291
536 290
537 289
538 288
539 287
540 286
541 285
542 284
543 283
544 282
545 281
545 280
546 279
547 279
548 279
549 278
550 278
551 278
552 277
553 277
554 277
555 277
556 277
557 277
558 277
559 277
560 277
561 277
562 277
563 277
564 277
565 277
566 277
567 277
568 277
569 277
570 277
571 277
572 277
573 277
574 277
575 277
576 277
577 277
578 277
579 277
580 277
581 277
582 277
583 277
584 277
585 278
586 278
587 278
588 278
589 278
590 278
591 278
592 278
593 278
594 278
595 278
596 278
597 278
598 279
599 279
600 279
601 279
602 279
603 279
604 279
605 279
606 279
607 280
608 280
609 280
610 280
611 280
612 280
613 280
614 280
615 280
616 281
617 281
618 281
619 281
620 281
621 281
622 281
623 281
624 281
625 282
626 282
627 282
628 282
629 282
630 282
631 282
632 283
633 283
634 283
635 283
636 283
637 283
638 283
639 284
640 284
641 284
642 284
643 284
644 284
645 284
646 284
647 285
648 285
649 285
650 285
651 285
652 285
653 286
654 286
655 286
656 286
657 286
658 286
659 286
660 286
661 287
662 287
663 287
664 287
665 287
666 287
667 288
668 288
669 288
670 288
671 288
672 288
673 288
674 289
675 289
676 289
677 289
678 289
679 289
680 290
681 290
682 290
683 290
684 290
685 290
686 291
687 291
688 291
689 291
690 291
691 291
692 292
693 292
694 292
695 292
696 292
697 292
698 292
699 292
700 293
701 293
702 293
703 293
704 293
705 294
706 294
707 294
708 294
709 294
710 294
711 295
712 295
713 295
714 295
715 295
716 296
717 296
718 296
719 296
720 296
721 297
722 297
723 297
724 297
725 297
726 297
727 297
728 298
729 298
730 298
731 298
732 298
733 298
734 299
735 299
736 299
737 299
738 299
739 300
740 300
741 300
742 300
743 300
744 300
745 300
746 301
747 301
748 301
749 301
750 301
751 301
752 301
753 302
754 302
755 302
756 302
757 302
758 302
759 302
760 302
761 302
762 301
763 300
764 299
765 299
765 298
765 297
764 296
763 295
763 294
763 293
762 292
761 291
760 291
759 291
758 290
757 290
756 290
755 289
754 289
753 289
752 289
751 288
750 288
749 288
748 288
747 288
746 288
745 288
744 288
743 288
742 288
741 287
740 287
739 287
738 287
737 287
736 287
735 287
734 287
733 287
732 287
731 287
730 287
729 287
728 286
727 286
726 286
725 286
724 286
723 286
722 286
721 286
720 285
719 285
718 285
717 285
716 285
715 285
714 285
713 284
712 284
711 284
710 284
709 284
708 284
707 284
706 284
705 283
704 283
703 283
702 283
701 283
700 283
699 283
698 282
697 282
696 282
695 282
694 282
693 282
692 282
691 281
690 281
689 281
688 281
687 281
686 281
685 281
684 281
683 280
682 280
681 280
680 280
679 280
678 280
677 279
676 279
675 279
674 279
673 279
672 279
671 279
670 279
669 278
668 278
667 278
666 278
665 278
664 278
663 278
662 277
661 277
660 277
659 277
658 277
657 277
656 277
655 277
654 276
653 276
652 276
651 276
650 276
649 276
648 276
647 276
646 275
645 275
644 275
643 275
642 275
641 275
640 275
639 275
638 275
637 274
636 274
635 274
634 274
633 274
632 274
631 274
630 273
629 273
628 273
627 273
626 273
625 273
624 273
623 273
622 273
621 272
620 272
619 272
618 272
617 272
616 272
615 272
614 272
613 272
612 271
611 271
610 271
609 271
608 271
607 271
606 271
605 271
604 271
603 271
602 271
601 270
600 270
599 270
598 270
597 270
596 270
595 270
594 270
593 270
592 270
591 270
590 270
589 270
588 269
587 269
586 269
585 269
584 269
583 269
582 269
581 269
580 269
579 269
578 269
577 269
576 269
575 269
574 268
573 268
572 268
571 268
570 268
569 268
568 268
567 268
566 268
565 268
564 268
563 268
562 268
561 268
560 268
559 268
558 268
557 268
556 268
555 267
554 267
553 267
552 267
551 267
550 267
549 267
548 267
547 267
546 267
545 267
544 266
543 265
542 264
541 263
541 262
540 261
539 260
539 259
538 258
537 257
536 256
536 255
535 254
534 253
534 252
533 251
533 250
532 249
532 248
532 247
531 246
530 245
530 244
530 243
529 242
529 241
528 240
528 239
527 238
527 237
527 236
526 235
526 234
525 233
525 232
524 231
524 230
523 229
523 228
522 227
522 226
522 225
521 224
521 223
521 222
520 221
520 220
520 219
519 218
519 217
518 216
518 215
518 214
518 213
517 212
517 211
517 210
516 209
516 208
515 207
515 206
515 205
515 204
515 203
514 202
514 201
514 200
513 199
513 198
513 197
512 196
512 195
511 194
511 193
510 192
510 191
510 190
509 189
508 188
508 187
507 186
507 185
506 184
505 183
505 182
504 181
504 180
503 179
502 178
502 177
501 176
500 175
500 174
499 173
498 172
498 171
497 170
496 169
495 168
494 167
493 166
493 165
492 164
491 163
490 162
489 161
488 160
487 160
486 159
486 158
485 157
485 156
484 155
483 154
482 153
482 152
481 151
481 150
480 149
480 148
479 147
479 146
478 145
477 144
477 143
476 142
475 141
475 140
474 139
474 138
473 137
472 136
472 135
471 134
470 133
469 132
469 131
468 130
468 129
467 128
466 127
465 126
464 125
463 124
462 123
461 122
461 121
460 120
459 119
458 118
457 117
456 116
455 115
454 114
453 113
452 112
451 111
450 111
449 110
448 109
447 109
446 108
445 108
444 107
443 106
442 106
441 105
440 105
439 104
438 103
437 103
436 102
435 101
434 101
433 100
432 99
431 98
430 97
429 96
428 96
427 95
426 95
425 94
424 94
423 93
422 93
421 92
420 92
419 91
418 91
417 90
416 89
415 89
414 88
413 88
412 87
411 87
410 86
409 86
408 85
407 85
406 84
405 84
404 83
403 82
402 82
401 82
400 81
399 81
398 80
397 80
396 80
395 79
394 79
393 78
392 78
391 78
390 78
389 77
388 77
387 77
386 77
385 76
384 76
383 76
382 75
381 75
380 75
379 75
378 74
377 74
376 74
375 74
374 73
373 73
372 73
371 73
370 73
369 72
368 72
367 72
366 72
365 71
364 71
363 71
362 71
361 70
360 70
359 70
358 69
357 69
356 69
355 69
354 69
353 68
352 68
351 68
350 68
349 67
348 67
347 67
346 67
345 67
344 67
343 67
342 66
341 66
340 66
339 66
338 66
337 66
336 66
335 66
334 66
333 66
332 66
331 66
330 66
329 65
328 65
327 65
326 65
325 65
324 65
323 65
322 65
321 65
320 64
319 64
318 64
317 64
316 64
315 64
314 63
313 63
312 63
311 63
310 63
309 63
308 63
307 63
306 63
305 63
304 62
303 62
302 62
301 62
300 62
299 61
298 61
297 61
296 61
295 61
294 61
293 61
292 61
291 61
290 61
289 61
288 61
287 61
286 61
285 60
284 60
283 60
282 60
281 60
280 60
279 60
278 60
277 60
276 60
275 60
274 60
273 60
272 60
271 60
270 60
