365 74
364 75
363 75
362 76
362 77
363 78
362 79
361 80
360 80
359 79
359 78
358 78
357 77
356 77
355 77
354 77
355 78
355 79
354 80
353 80
352 79
351 78
350 79
350 80
349 81
348 81
347 81
346 81
345 81
344 80
345 79
346 79
345 79
344 79
343 79
342 79
342 80
343 81
342 82
341 82
340 82
339 82
339 83
340 83
341 83
342 84
342 85
343 86
342 87
341 87
340 87
339 88
338 89
337 88
336 87
335 86
335 85
336 84
337 84
338 85
338 86
338 85
337 84
336 84
335 83
334 82
333 82
332 82
333 83
332 84
332 85
332 86
332 87
332 86
332 85
333 84
334 83
335 83
336 84
335 85
335 86
335 87
334 88
333 89
332 90
331 91
330 91
330 92
330 93
331 94
331 95
332 96
331 97
332 98
331 99
330 99
329 99
328 99
327 99
326 98
326 97
325 98
324 98
323 97
322 98
321 99
320 98
319 98
318 98
317 98
316 97
317 98
317 99
317 100
316 101
316 102
316 103
317 104
317 105
316 106
315 106
314 105
313 105
312 105
311 104
310 104
309 104
308 104
307 104
306 104
305 103
304 103
303 103
302 103
302 104
301 105
300 104
300 103
300 102
299 102
298 102
297 101
296 101
295 100
294 100
293 100
292 100
291 100
292 101
293 100
294 100
295 101
294 102
295 103
295 104
294 105
293 104
293 105
293 106
294 106
295 106
296 107
295 108
294 108
293 109
292 109
291 109
290 108
290 107
289 107
288 107
287 108
286 107
285 106
284 106
284 107
284 108
285 107
286 108
286 109
285 110
284 110
283 110
282 109
282 108
281 108
280 107
279 107
278 106
278 105
278 106
279 107
278 108
278 109
278 110
278 111
278 112
277 113
276 112
276 111
275 110
274 110
273 110
274 111
273 112
272 112
271 111
270 112
269 111
268 112
267 112
266 111
265 111
264 111
263 111
262 111
261 111
260 111
259 111
258 111
257 112
256 112
255 112
254 111
254 112
255 112
256 112
257 113
258 112
259 112
260 113
261 114
261 115
261 116
261 117
262 118
262 119
263 120
263 121
262 122
261 122
261 123
260 124
261 125
262 126
262 127
263 128
262 129
261 129
262 130
261 131
260 132
259 133
258 132
258 131
257 132
256 131
255 131
254 131
253 131
252 131
253 132
252 133
251 133
250 132
249 132
248 132
247 132
246 133
245 134
244 133
244 132
243 132
244 133
245 134
245 135
245 136
244 137
244 138
245 139
246 140
245 141
244 142
243 142
242 142
241 141
241 140
240 140
239 140
238 140
237 140
236 140
235 141
234 141
233 141
232 142
231 142
230 141
229 141
228 141
229 141
230 142
229 143
228 143
228 144
227 145
227 146
228 145
229 146
229 147
228 148
229 148
230 148
231 149
230 150
229 150
228 150
227 150
226 150
225 149
225 148
224 148
223 149
222 149
221 149
220 149
221 150
222 150
223 151
223 152
224 153
223 154
222 154
221 154
220 153
220 152
220 153
219 154
218 153
218 152
218 151
218 150
217 150
217 151
218 152
218 153
218 154
217 155
216 154
216 153
215 152
214 151
214 152
213 153
213 154
213 155
212 156
211 156
210 156
209 157
208 156
207 156
207 157
207 158
207 159
208 160
208 161
209 162
208 163
207 163
208 163
209 164
209 165
210 166
209 167
208 168
209 169
209 170
209 171
208 172
207 173
206 172
206 171
206 172
205 173
204 172
204 171
203 172
202 172
201 172
200 171
200 172
201 172
202 173
202 174
201 175
200 175
199 174
199 175
198 176
197 175
197 174
196 175
195 175
195 176
196 176
197 176
198 177
198 178
197 179
196 179
195 179
194 180
193 179
192 179
191 179
190 179
189 180
188 180
187 180
186 180
185 179
184 180
183 180
182 180
182 181
182 182
183 182
184 183
184 184
184 185
183 186
182 187
181 186
181 185
181 184
180 184
179 184
178 185
177 185
177 186
176 187
175 186
174 186
173 186
172 187
171 187
170 187
169 187
168 187
167 187
166 187
165 187
164 187
163 187
162 187
161 187
160 188
159 188
159 189
160 189
161 188
162 188
163 188
164 188
165 188
166 188
167 188
168 188
169 188
170 188
171 188
172 189
171 190
170 190
169 190
168 190
167 190
166 190
167 191
167 192
167 193
167 194
167 195
167 196
167 197
168 198
169 199
168 200
167 201
166 200
166 201
166 202
165 203
164 202
163 202
162 201
161 202
160 203
159 203
158 203
157 204
156 203
155 203
154 203
153 203
153 204
153 205
154 205
154 204
155 203
156 204
157 204
158 204
159 205
158 206
157 206
156 207
155 207
154 207
153 207
152 207
151 207
150 207
149 207
148 208
147 208
146 208
145 209
144 210
143 210
142 210
141 210
140 210
139 210
138 211
137 211
136 211
135 211
134 211
133 211
132 211
131 211
130 211
129 211
128 211
128 212
129 212
130 212
131 213
132 214
131 215
131 216
131 217
132 218
131 219
131 220
130 221
129 220
128 220
127 221
126 221
125 221
124 221
123 222
122 222
121 222
120 222
119 222
118 222
117 222
116 222
115 222
115 223
115 224
116 225
117 226
116 227
115 227
114 226
113 226
112 226
111 226
110 227
109 227
108 227
107 228
106 228
105 227
104 227
103 227
102 227
101 227
100 227
99 227
98 227
97 227
96 227
95 227
94 227
95 227
96 227
97 227
98 228
97 229
96 229
95 229
95 230
95 231
96 232
95 233
94 233
93 232
92 233
91 233
90 233
89 234
88 234
87 234
86 235
85 236
84 236
83 236
82 237
81 236
80 236
79 236
78 236
77 236
76 236
75 236
74 236
73 236
72 237
71 237
70 236
69 236
68 237
67 237
67 238
67 239
66 240
65 240
64 240
63 240
62 241
61 242
60 242
59 243
58 243
57 242
56 243
55 243
54 244
53 244
52 244
51 244
52 244
53 245
52 246
51 246
50 246
49 246
48 246
47 246
46 246
45 246
44 247
44 248
45 248
46 247
47 246
48 246
49 246
50 246
51 247
50 248
50 249
51 249
52 249
53 249
54 249
55 249
56 249
57 248
58 248
59 249
60 249
61 250
62 250
63 250
64 250
65 250
66 250
67 250
68 251
69 251
70 251
71 251
72 252
73 251
74 252
74 253
74 254
74 255
75 255
76 255
77 255
78 255
79 255
80 255
81 255
82 255
83 254
84 254
85 254
86 254
87 254
88 254
89 255
90 255
91 255
92 255
93 255
94 256
95 256
96 257
97 257
98 258
97 259
98 259
99 259
100 259
101 259
102 259
103 259
104 260
104 261
103 262
103 263
104 263
105 263
106 263
107 263
108 263
109 263
110 263
111 263
112 264
113 264
114 264
115 265
116 265
117 265
118 265
119 265
120 266
121 266
122 267
123 268
124 269
125 269
126 270
126 271
127 272
128 273
127 274
126 274
125 275
126 276
127 276
128 276
129 276
130 276
131 276
132 276
133 275
134 276
134 277
134 278
133 279
132 279
133 279
134 280
135 281
136 281
137 281
138 281
139 282
140 282
141 282
142 283
143 283
144 283
145 284
146 285
146 284
147 283
148 284
148 285
148 286
149 287
150 287
151 288
152 288
153 289
154 290
155 290
156 290
157 290
158 291
159 290
160 291
161 292
162 291
163 292
163 293
164 294
165 295
164 296
163 297
163 298
162 299
161 299
160 300
161 301
160 302
161 302
162 301
163 301
164 301
165 300
166 301
166 302
165 303
166 304
167 304
168 305
168 306
168 307
169 307
170 307
171 307
172 308
173 308
174 308
175 309
176 309
177 309
178 310
179 310
180 310
181 311
182 311
183 310
183 309
184 308
185 307
186 308
186 309
185 310
185 311
185 312
185 313
186 314
185 315
186 314
187 315
188 316
189 316
190 317
191 318
192 319
191 320
192 320
193 321
194 321
195 321
196 322
195 323
195 324
196 324
197 325
197 326
196 327
196 328
196 329
195 330
195 331
194 332
194 333
193 334
192 334
191 335
190 336
191 336
192 335
193 335
194 335
195 335
196 336
195 337
194 337
195 337
196 337
197 336
198 337
199 338
199 339
200 340
199 341
200 342
199 343
200 343
201 343
202 343
203 344
204 344
205 344
206 345
207 345
208 345
209 345
210 346
211 346
212 347
213 348
214 348
214 347
214 346
215 345
216 345
217 346
216 347
216 348
216 349
215 350
214 351
214 352
214 353
215 352
216 353
217 353
218 352
219 352
220 353
221 353
222 353
223 354
224 354
225 355
225 356
224 357
223 356
222 356
223 356
224 357
225 358
226 358
226 357
226 356
227 355
228 354
229 354
230 354
231 355
230 356
229 357
228 358
228 359
229 360
230 361
229 362
228 362
227 361
227 362
228 362
229 362
230 362
231 362
232 362
233 362
234 363
234 364
235 363
236 364
237 365
236 366
237 365
238 365
239 366
240 367
241 367
242 367
243 368
242 369
242 370
243 371
244 372
243 373
243 374
243 373
244 372
245 373
245 374
245 375
245 376
244 377
245 378
246 379
245 380
244 381
243 382
244 382
245 382
246 383
245 384
244 385
243 385
242 386
241 386
242 386
243 385
244 385
245 385
246 384
247 383
248 384
249 384
250 383
251 383
252 384
253 385
252 386
251 386
252 386
253 386
254 385
255 384
256 383
257 383
258 384
257 385
256 386
256 387
255 388
254 388
253 388
254 389
255 389
256 389
257 389
258 390
258 391
259 392
258 391
259 390
260 390
261 391
261 392
262 392
263 393
264 393
265 393
266 393
267 393
268 393
268 392
269 391
270 392
270 393
270 394
270 395
269 396
268 395
268 396
269 396
270 396
271 396
272 396
273 396
274 396
275 396
276 397
275 398
275 399
275 398
276 397
277 398
278 399
279 399
280 399
281 399
282 399
283 400
284 399
285 399
286 400
287 400
288 400
288 399
288 398
288 397
288 396
288 395
288 394
289 393
290 394
290 395
291 396
290 397
290 398
290 399
290 400
290 401
289 402
289 403
289 404
290 404
291 404
292 404
293 404
294 404
295 404
296 404
297 405
298 404
299 405
299 406
298 407
297 407
298 407
299 407
300 407
301 408
302 407
303 408
304 408
305 408
306 408
307 409
307 410
307 411
308 412
308 413
309 414
309 415
309 416
308 417
308 418
307 419
308 420
308 421
308 422
309 422
310 422
311 423
312 424
313 425
314 425
315 425
316 425
317 426
318 426
319 426
320 426
321 427
322 426
323 426
324 427
324 428
325 428
326 427
327 428
328 428
329 428
330 428
331 428
332 428
333 428
333 427
334 426
335 427
335 428
336 429
336 430
335 431
334 431
334 432
335 433
336 433
337 432
338 432
339 431
340 431
341 431
342 432
343 431
344 432
345 432
346 431
347 431
348 431
349 431
350 431
351 430
352 430
353 431
354 430
355 430
356 430
357 430
357 429
357 428
357 427
358 426
359 427
359 428
360 428
361 429
361 430
362 431
363 430
364 429
365 429
366 429
367 430
366 431
365 432
366 432
367 431
368 431
369 431
370 430
371 429
372 429
373 428
374 428
375 427
376 427
377 427
378 426
379 426
380 426
381 426
382 426
383 426
383 425
383 424
383 423
383 422
383 421
383 420
384 419
385 419
386 420
386 421
385 422
386 423
387 423
388 424
388 425
387 426
386 425
385 425
385 426
386 426
387 426
388 426
388 425
389 424
390 423
391 424
390 423
391 422
392 422
393 422
394 422
395 422
396 421
397 421
398 421
399 420
400 420
401 419
402 418
403 418
404 417
405 416
406 416
407 416
408 415
409 414
410 413
411 413
412 413
413 412
414 412
415 412
416 412
417 412
418 413
419 414
419 415
420 415
420 414
419 414
418 413
418 412
419 411
420 411
421 410
422 410
423 409
424 409
425 409
425 408
426 407
427 407
428 407
429 406
429 405
430 404
430 403
431 402
432 402
433 402
434 401
435 400
436 400
436 399
437 398
438 397
439 397
440 396
440 395
441 394
442 393
443 392
443 391
444 390
445 389
446 388
447 387
447 386
448 385
448 384
449 383
450 382
450 381
451 380
451 379
452 378
453 377
453 376
453 375
454 374
455 374
455 373
456 372
457 371
457 370
457 369
458 368
459 367
460 366
461 365
462 364
463 363
464 362
464 361
465 360
466 360
467 359
468 358
468 357
469 356
470 356
470 355
471 354
472 353
473 352
474 351
474 350
475 349
476 348
477 347
477 346
478 345
479 344
480 343
480 342
481 341
482 341
482 340
483 339
484 339
485 338
486 337
487 336
488 336
488 335
489 334
490 333
491 332
492 331
493 330
494 330
494 329
495 328
496 327
497 326
498 325
498 324
499 323
500 323
501 322
501 321
502 320
503 320
504 319
505 318
506 317
507 316
508 315
509 314
510 313
511 312
512 312
513 311
513 310
514 309
515 309
515 308
516 307
517 307
518 306
519 305
520 304
521 303
522 303
523 302
523 301
524 300
525 299
526 299
526 298
527 297
528 296
529 296
529 295
530 294
531 294
531 293
532 292
533 291
534 290
535 289
536 288
537 287
538 286
539 285
539 284
540 283
541 283
541 282
542 281
543 280
544 279
545 278
546 277
547 276
548 276
549 276
550 275
551 274
552 273
553 273
554 272
555 272
556 271
557 271
558 271
559 271
560 270
561 270
562 270
563 270
564 270
565 270
566 269
567 269
568 269
569 269
570 269
571 269
572 269
573 269
574 270
575 270
576 270
577 270
578 270
579 270
580 270
581 270
582 270
583 271
584 271
585 270
586 271
587 271
588 271
589 271
590 271
591 271
592 272
593 271
594 272
595 272
596 272
597 272
598 272
599 273
600 273
601 273
602 273
603 273
604 273
605 274
606 274
607 274
608 274
609 274
610 274
611 275
612 275
613 275
614 275
615 275
616 276
617 276
618 276
619 276
620 276
621 276
622 277
623 277
624 277
625 277
626 278
627 278
628 278
629 278
630 278
631 279
632 279
633 279
634 279
635 280
636 280
637 280
638 281
639 281
640 281
641 282
642 282
643 282
644 283
645 283
646 283
647 283
648 284
649 285
650 285
651 285
652 286
653 286
654 286
655 287
656 287
657 287
658 288
659 287
660 287
661 288
662 288
663 289
664 290
665 290
666 290
667 290
668 291
669 292
670 292
671 293
672 293
673 293
674 294
675 295
676 294
677 295
678 296
679 296
680 297
681 298
682 298
683 298
684 299
685 300
686 300
687 301
688 302
689 302
690 303
691 303
692 304
693 305
694 305
695 306
696 307
697 307
698 308
699 308
700 308
701 308
702 309
702 310
703 310
704 310
705 309
706 310
706 311
707 311
708 311
709 311
710 312
711 312
712 312
713 312
714 312
715 312
716 312
717 312
718 313
719 313
720 313
721 313
722 313
723 314
724 314
725 313
726 314
727 314
728 313
729 313
730 313
731 313
732 312
733 312
734 312
735 312
736 311
737 311
738 310
738 309
738 308
738 307
737 306
737 305
737 304
737 303
737 302
736 302
735 301
734 301
733 301
732 302
731 302
730 302
729 302
728 302
727 302
726 302
725 302
724 302
723 302
722 303
721 303
720 303
719 303
718 303
717 304
716 304
715 304
714 305
713 305
712 304
713 303
712 303
711 304
710 303
709 304
708 303
708 302
707 302
706 302
705 302
704 301
703 300
702 300
701 299
700 299
699 298
698 298
697 297
696 297
695 296
694 295
693 295
692 295
691 294
690 295
689 295
688 294
688 293
687 292
686 291
685 291
684 290
683 289
682 289
681 289
680 289
679 288
678 287
677 287
676 286
675 286
674 285
674 286
675 286
676 287
677 287
678 287
679 288
680 289
681 290
681 291
680 292
679 291
678 290
677 289
676 289
675 289
674 289
673 288
672 288
671 287
671 286
672 285
672 284
671 284
670 283
669 283
668 283
669 283
670 284
670 285
669 286
668 286
667 285
666 285
665 285
664 285
663 284
663 283
662 282
663 281
664 281
665 282
666 282
665 281
664 281
663 280
662 280
661 280
660 279
659 280
659 281
658 282
657 281
656 280
657 279
656 280
655 280
654 280
653 279
654 280
655 280
656 281
657 282
656 283
655 283
654 283
653 282
652 282
651 281
651 280
650 280
649 281
648 280
647 280
646 280
645 280
644 280
643 279
642 279
641 278
640 278
639 278
638 277
637 277
636 276
635 275
634 274
633 274
632 275
631 274
630 274
629 274
628 274
627 273
626 273
625 273
624 272
623 273
622 272
622 271
622 272
621 273
620 273
619 272
618 272
617 272
616 272
615 272
614 272
613 271
612 271
611 270
610 270
609 270
608 270
607 269
606 270
605 270
604 269
603 269
602 269
601 269
600 269
599 268
598 267
597 267
596 267
595 267
594 266
595 265
596 265
597 264
598 264
597 264
596 265
595 265
594 265
594 266
593 267
592 266
591 266
590 266
589 266
588 267
587 266
586 266
585 266
584 265
584 264
583 264
582 265
581 264
580 264
579 265
578 264
577 263
576 263
575 264
574 264
573 264
572 264
571 264
570 264
569 263
568 263
567 263
566 263
565 263
564 264
563 264
562 264
561 264
560 265
559 264
558 263
559 262
560 261
561 261
562 260
563 260
564 260
565 261
566 261
567 261
568 261
569 261
570 261
571 261
572 261
573 261
574 261
575 261
576 261
575 261
574 261
573 261
572 261
571 261
570 261
569 260
568 261
567 261
566 261
565 260
564 260
563 260
562 259
561 259
560 258
559 257
558 257
557 256
556 257
555 257
554 256
553 255
553 254
554 253
555 254
555 253
554 253
553 254
552 254
551 253
550 252
549 251
550 250
551 250
550 250
549 249
549 248
548 249
547 250
546 250
545 250
544 249
545 248
546 247
547 247
548 246
547 245
546 244
545 243
544 242
543 241
542 240
541 239
540 238
540 237
539 236
538 235
537 234
536 233
535 234
534 234
533 233
532 232
531 232
530 231
531 230
532 230
533 230
534 230
535 231
534 230
533 229
532 228
531 227
530 226
529 225
528 224
527 223
527 222
526 221
525 220
524 219
523 218
523 217
522 216
521 216
520 215
520 214
519 213
518 212
517 211
516 210
515 209
515 208
514 207
513 206
512 205
512 204
511 203
510 202
509 201
508 200
508 199
507 198
506 197
505 196
505 195
504 194
504 193
503 192
502 191
501 190
501 189
500 188
499 187
498 186
498 185
497 184
496 183
496 182
495 181
495 180
494 179
494 178
493 177
492 176
492 175
491 174
491 173
490 172
490 171
489 170
488 169
488 168
487 167
487 166
487 165
486 164
486 163
485 162
484 161
484 160
483 159
483 158
482 157
482 156
481 155
480 154
480 153
479 152
479 151
478 150
477 149
477 148
476 147
476 146
476 145
475 144
474 143
473 142
473 141
472 140
471 139
472 138
471 137
470 136
470 135
469 134
468 133
468 132
467 132
466 131
466 130
465 129
464 128
464 127
463 126
462 126
461 125
461 124
460 123
459 122
458 121
457 120
456 120
455 120
454 119
455 118
456 118
456 117
455 116
454 115
453 114
453 113
452 113
451 114
450 115
451 116
450 117
449 117
448 117
447 116
446 115
446 114
446 113
445 112
444 112
443 111
442 110
441 109
440 109
439 109
438 108
438 107
437 106
436 105
435 104
434 103
433 103
432 102
431 101
431 100
430 99
429 98
428 97
427 97
426 96
425 95
424 94
423 94
422 93
421 92
420 91
419 92
418 93
418 94
417 95
417 96
418 97
417 98
416 98
415 97
414 96
413 95
412 94
411 93
410 93
409 92
408 91
407 90
406 89
405 89
404 88
403 87
402 86
401 86
400 85
400 84
399 84
398 83
397 82
396 82
395 81
394 80
393 80
392 79
391 78
390 78
389 78
388 78
387 78
387 79
386 80
387 81
386 82
385 83
384 83
383 82
383 81
382 80
381 80
380 80
379 79
378 79
377 78
376 78
375 77
374 77
373 77
372 76
371 76
370 75
369 75
368 75
367 74
366 74
365 74
