452 42
451 43
450 43
449 43
448 43
447 43
446 43
445 43
444 43
443 44
442 44
441 44
440 44
439 44
438 44
437 44
436 44
435 44
434 44
433 44
432 45
431 45
430 45
429 45
428 45
427 45
426 45
425 45
424 45
423 45
422 46
421 46
420 46
419 46
418 47
417 47
416 48
415 49
414 49
413 49
412 48
411 48
410 48
409 48
408 48
407 48
406 48
405 48
404 48
403 48
402 48
401 48
400 48
399 48
398 48
397 48
396 48
395 48
394 48
393 49
392 49
391 49
390 49
389 49
388 50
387 50
386 50
385 51
384 51
383 51
382 51
381 52
380 52
379 52
378 52
377 53
376 53
375 53
374 53
373 54
372 54
371 54
370 54
369 54
368 55
367 55
366 55
365 56
364 56
363 56
362 57
361 57
360 58
359 58
358 58
357 59
356 59
355 59
354 60
353 60
352 60
351 61
350 61
349 62
348 62
347 62
346 63
345 63
344 63
343 63
342 64
341 64
340 64
339 64
338 64
337 65
336 65
335 65
334 65
333 66
332 66
331 66
330 66
329 67
328 67
327 67
326 67
325 68
324 68
323 68
322 68
321 69
320 69
319 69
318 69
317 70
316 70
315 70
314 70
313 71
312 71
311 72
310 72
309 72
308 73
307 73
306 74
305 74
304 75
303 75
302 76
301 76
300 77
299 77
298 78
297 78
296 79
295 79
294 80
293 80
292 81
291 81
290 81
289 82
288 82
287 83
286 83
285 84
284 84
283 85
282 85
281 86
280 86
279 87
278 87
277 88
276 88
275 89
274 89
273 90
272 91
271 91
270 92
269 93
268 93
267 94
266 94
265 95
264 96
263 96
262 97
261 97
260 98
259 98
258 99
257 100
256 100
255 101
254 102
253 102
252 103
251 104
250 104
249 105
248 105
247 106
246 107
245 107
244 108
243 109
242 109
241 110
240 110
239 111
238 111
237 112
236 112
235 113
234 114
233 114
232 115
231 116
230 116
229 117
228 117
227 118
226 119
225 119
224 120
223 121
222 121
221 122
220 123
219 123
218 124
217 125
216 126
215 127
214 128
213 129
212 130
211 130
210 131
209 132
208 133
207 134
206 135
205 136
204 137
203 138
202 139
201 140
200 141
199 142
198 143
197 144
196 144
195 145
194 146
193 147
192 148
191 149
190 150
189 151
188 152
187 153
186 154
185 155
185 156
184 157
183 158
182 159
181 159
180 160
179 161
178 162
177 163
176 164
175 165
174 166
173 167
172 168
171 169
170 170
169 171
168 172
167 173
166 174
165 175
164 176
163 176
162 177
162 178
161 179
160 180
159 181
158 182
157 183
156 184
156 185
155 186
154 187
153 188
152 189
151 190
150 191
150 192
149 193
148 194
147 195
146 196
145 197
144 198
143 198
143 199
142 200
141 200
140 201
139 202
138 203
137 204
136 205
135 206
134 207
133 208
133 209
132 210
131 211
130 212
129 213
128 214
127 215
126 216
125 217
124 218
124 219
123 220
122 221
121 222
120 223
119 224
118 225
117 226
116 227
115 228
114 229
113 229
112 230
111 231
110 232
109 233
108 233
107 234
106 235
105 235
104 236
103 237
102 238
101 238
100 239
99 239
98 240
97 240
96 241
95 241
94 242
93 242
92 242
91 243
90 243
89 244
88 244
87 245
86 245
85 245
84 246
83 246
82 247
81 247
80 247
79 248
78 248
77 248
76 248
75 248
74 248
73 248
72 248
71 248
70 249
69 249
68 249
67 249
66 249
65 249
64 249
63 249
62 248
61 248
60 248
59 248
58 248
57 248
56 248
55 248
54 248
53 249
52 249
52 250
51 251
51 252
52 253
52 254
52 255
53 256
53 257
54 258
55 259
56 260
57 261
58 262
59 263
60 263
61 264
62 265
63 265
64 266
65 267
66 268
67 269
68 270
69 270
70 271
71 272
72 273
73 273
74 274
75 275
76 275
77 276
78 276
79 277
80 277
81 278
82 278
83 279
84 280
85 280
86 281
87 282
88 283
89 284
90 284
91 285
91 286
92 287
93 288
94 289
95 290
96 291
97 292
98 293
99 294
99 295
100 296
101 297
102 298
102 299
103 300
104 301
105 302
106 303
106 304
107 305
108 306
109 307
110 308
110 309
111 310
112 311
113 312
113 313
114 314
114 315
115 316
116 317
116 318
117 319
118 320
118 321
119 322
119 323
120 324
120 325
121 326
121 327
122 328
123 329
124 330
125 331
126 332
126 333
127 334
127 335
128 336
129 337
129 338
130 339
131 340
131 341
132 342
132 343
133 344
133 345
134 346
135 347
135 348
136 349
137 350
137 351
137 352
138 353
139 354
139 355
140 356
140 357
141 358
141 359
142 360
143 361
143 362
144 363
145 364
145 365
145 366
145 367
146 368
147 368
148 369
148 370
149 371
149 372
150 373
150 374
151 375
152 376
152 377
153 378
154 379
155 380
156 381
156 382
157 383
158 384
159 385
160 386
161 387
162 388
163 389
163 390
164 391
165 392
166 393
167 394
168 395
168 396
169 397
170 398
171 399
171 400
172 401
173 402
173 403
174 404
175 405
176 406
177 407
178 408
179 409
180 410
181 411
182 412
183 413
184 414
185 415
186 416
187 417
187 418
188 419
189 420
190 421
191 422
192 422
193 423
194 424
194 425
195 426
196 427
197 428
198 429
199 430
200 431
201 431
202 432
203 433
204 434
205 434
206 435
207 436
208 437
209 438
210 438
211 439
211 440
212 441
213 441
214 442
215 443
216 444
217 444
218 445
219 446
220 447
221 448
222 449
223 449
224 450
224 451
225 452
226 453
227 453
228 454
229 455
230 456
230 457
231 458
232 459
233 459
234 460
235 461
236 462
237 462
238 463
239 464
240 465
241 465
242 466
243 467
244 468
245 468
246 469
247 470
248 471
249 471
250 472
251 473
252 474
253 474
254 475
255 475
256 476
257 476
258 477
259 477
260 478
261 478
262 479
263 479
264 480
265 480
266 480
267 481
268 481
269 482
270 482
271 483
272 483
273 484
274 484
275 484
276 485
277 485
278 485
279 486
280 486
281 486
282 487
283 487
284 488
285 488
286 488
287 489
288 489
289 490
290 490
291 490
292 491
293 491
294 491
295 492
296 492
297 493
298 493
299 493
300 494
301 494
302 495
303 495
304 496
305 496
306 497
307 497
308 498
309 498
310 499
311 499
312 500
313 501
314 501
315 502
316 502
317 502
318 503
319 503
320 503
321 504
322 504
323 505
324 505
325 505
326 506
327 506
328 507
329 507
330 507
331 508
332 508
333 508
334 509
335 509
336 509
337 510
338 510
339 510
340 510
341 511
342 511
343 512
344 512
345 512
346 513
347 513
348 513
349 514
350 514
351 514
352 515
353 515
354 516
355 516
356 516
357 517
358 517
359 517
360 518
361 518
362 518
363 519
364 519
365 520
366 520
367 520
368 521
369 521
370 521
371 522
372 522
373 522
374 523
375 523
376 524
377 524
378 524
379 525
380 525
381 525
382 526
383 526
384 526
385 527
386 527
387 527
388 528
389 528
390 528
391 529
392 529
393 530
394 530
395 530
396 531
397 531
398 531
399 532
400 532
401 532
402 532
403 533
404 533
405 533
406 533
407 533
408 534
409 534
410 534
411 534
412 534
413 534
414 534
415 534
416 534
417 534
418 535
419 535
420 535
421 535
422 535
423 535
424 535
425 535
426 535
427 535
428 535
429 535
430 535
431 535
432 535
433 535
434 535
435 535
436 535
437 535
438 535
439 535
440 535
441 535
442 535
443 535
444 535
445 534
446 534
447 534
448 534
449 534
450 534
451 534
452 534
453 534
454 534
455 534
456 534
457 534
458 533
459 533
460 533
461 533
462 533
463 533
464 533
465 533
466 532
467 532
468 532
469 532
470 532
471 532
472 532
473 532
474 532
475 532
476 532
477 532
478 532
479 532
480 531
481 531
482 531
483 531
484 531
485 531
486 530
487 530
488 530
489 529
490 529
491 529
492 528
493 528
494 528
495 528
496 528
497 527
498 527
499 527
500 527
501 527
502 526
503 526
504 526
505 526
506 526
507 526
508 526
509 525
510 525
511 525
512 525
513 525
514 525
515 524
516 524
517 524
518 524
519 524
520 523
521 523
522 523
523 523
524 522
525 522
526 522
527 522
528 521
529 521
530 521
531 520
532 520
533 520
534 520
535 519
536 519
537 519
538 519
539 518
540 518
541 518
542 517
543 517
544 516
545 516
546 515
547 514
548 514
549 513
550 513
551 513
552 512
553 512
554 512
555 511
556 510
557 510
558 509
559 509
560 508
561 508
562 507
563 506
564 506
565 505
566 505
567 504
568 503
569 503
570 502
571 502
572 501
573 500
574 500
575 499
576 499
577 498
578 497
579 496
580 496
581 495
582 494
583 494
584 493
585 492
586 491
587 491
588 490
589 489
590 488
591 488
592 487
593 486
594 485
595 484
596 483
597 482
598 482
599 481
600 480
601 479
602 478
603 477
604 476
605 475
606 474
607 473
608 472
609 471
610 471
610 470
611 469
612 469
612 468
613 467
614 466
615 465
616 464
617 463
618 462
619 461
620 460
621 459
621 458
622 457
623 456
624 455
625 454
626 453
627 452
628 451
628 450
629 449
630 448
631 447
632 446
632 445
633 444
634 443
635 442
635 441
636 440
637 439
637 438
638 437
639 436
639 435
640 434
640 433
641 432
642 431
642 430
643 429
643 428
644 427
644 426
645 425
645 424
646 423
646 422
647 421
647 420
648 419
648 418
649 417
649 416
650 415
650 414
651 413
651 412
652 411
652 410
652 409
653 408
653 407
654 406
654 405
654 404
655 403
655 402
656 401
656 400
656 399
657 398
657 397
657 396
658 395
658 394
658 393
659 392
659 391
660 390
660 389
660 388
661 387
661 386
661 385
662 384
662 383
662 382
663 381
663 380
663 379
663 378
664 377
664 376
664 375
665 374
665 373
665 372
666 371
666 370
666 369
666 368
667 367
667 366
667 365
668 364
668 363
669 362
669 361
670 360
670 359
671 358
671 357
671 356
672 355
672 354
672 353
672 352
673 351
673 350
673 349
674 348
674 347
675 346
675 345
675 344
676 343
676 342
676 341
677 340
677 339
678 338
678 337
678 336
679 335
679 334
679 333
680 332
680 331
681 330
681 329
681 328
682 327
683 326
683 325
684 324
685 323
686 322
687 321
688 320
689 319
690 318
691 317
692 317
693 316
694 316
695 315
696 315
697 315
698 315
699 314
700 314
701 314
702 314
703 314
704 313
705 313
706 313
707 312
708 312
709 312
710 312
711 312
712 311
713 311
714 311
715 311
716 310
717 310
718 310
719 310
720 310
721 310
722 310
723 310
724 309
725 309
726 309
727 309
728 310
729 310
730 310
731 310
732 310
733 310
734 310
735 310
736 310
737 310
738 311
739 311
740 311
741 311
742 311
743 311
744 311
745 311
746 311
747 312
748 312
749 312
750 312
751 312
752 312
753 311
754 311
755 310
756 310
757 310
758 309
759 308
760 308
761 307
762 307
763 306
764 305
765 304
766 304
767 303
768 302
769 301
770 300
770 299
771 298
772 297
772 296
772 295
771 294
770 294
769 293
768 294
767 294
766 294
765 294
764 294
763 294
762 294
761 294
760 294
759 294
758 294
757 294
756 294
755 294
754 294
753 294
752 294
751 293
750 293
749 293
748 293
747 293
746 293
745 292
744 292
743 292
742 292
741 292
740 291
739 291
738 291
737 291
736 291
735 291
734 290
733 290
732 290
731 290
730 289
729 289
728 289
727 288
726 288
725 288
724 287
723 287
722 286
721 286
720 285
719 285
718 284
717 283
716 282
715 281
714 281
713 280
712 279
712 278
711 277
710 277
709 276
708 275
708 274
707 273
707 272
707 271
707 270
707 269
706 268
706 267
706 266
706 265
706 264
706 263
706 262
706 261
706 260
706 259
706 258
706 257
707 256
707 255
707 254
707 253
707 252
707 251
707 250
707 249
707 248
707 247
707 246
707 245
707 244
707 243
707 242
707 241
708 240
708 239
708 238
708 237
708 236
708 235
708 234
708 233
708 232
708 231
708 230
708 229
708 228
708 227
708 226
708 225
708 224
708 223
708 222
708 221
708 220
708 219
708 218
708 217
708 216
708 215
708 214
708 213
708 212
708 211
708 210
708 209
708 208
707 207
707 206
707 205
707 204
707 203
707 202
707 201
706 200
706 199
706 198
706 197
706 196
706 195
706 194
705 193
705 192
705 191
705 190
704 189
704 188
704 187
703 186
703 185
703 184
703 183
702 182
702 181
701 180
701 179
700 178
700 177
699 176
699 175
698 174
698 173
697 172
697 171
696 170
696 169
695 168
694 167
694 166
693 165
692 164
691 163
691 162
690 161
689 160
688 159
688 158
687 157
686 156
686 155
685 154
684 153
683 152
682 151
681 150
681 149
680 148
679 147
678 146
677 145
676 144
675 143
674 142
673 141
672 140
671 139
670 138
669 137
668 136
667 135
666 134
665 133
664 132
663 131
662 130
661 129
660 128
659 127
658 126
657 125
656 125
655 124
654 123
653 123
652 122
651 121
650 120
649 120
648 119
647 118
646 117
645 116
644 115
643 115
642 114
641 113
640 113
639 112
638 111
637 111
636 110
635 109
634 109
633 108
632 107
631 107
630 106
629 105
628 105
627 104
626 104
625 103
624 102
623 101
622 101
621 100
620 100
619 99
618 98
617 98
616 97
615 97
614 96
613 95
612 95
611 94
610 94
609 93
608 93
607 92
606 91
605 91
604 90
603 90
602 89
601 88
600 88
599 87
598 86
597 86
596 85
595 84
594 83
593 83
592 82
591 81
590 80
589 80
588 79
587 79
586 78
585 78
584 77
583 77
582 76
581 75
580 75
579 74
578 73
577 73
576 72
575 71
574 71
573 70
572 69
571 69
570 69
569 68
568 68
567 67
566 67
565 66
564 66
563 66
562 65
561 65
560 65
559 64
558 64
557 63
556 63
555 63
554 62
553 62
552 61
551 61
550 61
549 61
548 60
547 60
546 59
545 59
544 59
543 58
542 58
541 58
540 57
539 57
538 57
537 57
536 56
535 56
534 56
533 56
532 55
531 55
530 55
529 55
528 54
527 54
526 54
525 54
524 53
523 53
522 52
521 52
520 51
519 51
518 50
517 50
516 49
515 49
514 49
513 48
512 48
511 48
510 47
509 47
508 47
507 46
506 46
505 46
504 46
503 45
502 45
501 45
500 45
499 45
498 45
497 45
496 44
495 44
494 44
493 44
492 44
491 44
490 44
489 44
488 44
487 44
486 44
485 44
484 43
483 43
482 43
481 43
480 43
479 42
478 42
477 42
476 42
475 42
474 42
473 42
472 42
471 42
470 42
469 42
468 42
467 42
466 42
465 42
464 42
463 42
462 42
461 42
460 42
459 42
458 42
457 42
456 42
455 42
454 42
453 42
452 42
