130 294
130 295
130 296
130 297
130 298
130 299
130 300
130 301
130 302
130 303
130 304
130 305
130 306
131 307
131 308
131 309
131 310
132 311
132 312
133 313
133 314
134 315
135 316
135 317
136 318
136 319
137 320
137 321
138 322
138 323
138 324
139 325
140 326
141 327
142 327
143 328
144 328
145 329
146 330
147 330
148 331
149 331
150 332
151 333
152 334
153 335
154 336
155 337
155 338
156 339
156 340
157 341
158 342
158 343
159 344
159 345
160 346
160 347
161 348
161 349
162 350
162 351
163 352
163 353
163 354
164 355
164 356
165 357
166 357
167 357
168 357
169 357
170 357
171 357
172 357
173 358
174 358
175 358
176 358
177 358
178 358
179 358
180 358
181 358
182 358
183 358
184 358
185 358
186 358
187 358
188 358
189 358
190 358
191 358
192 358
193 358
194 358
195 357
196 357
197 357
198 357
199 357
200 357
201 357
202 357
203 357
204 357
205 357
206 356
207 356
208 356
209 357
210 357
211 358
212 358
213 359
214 360
215 361
215 362
216 363
215 364
215 365
215 366
214 367
214 368
214 369
213 370
213 371
213 372
212 373
212 374
212 375
212 376
212 377
212 378
212 379
212 380
212 381
211 382
211 383
210 384
210 385
209 386
209 387
208 388
208 389
207 390
206 391
205 392
205 393
205 394
205 395
205 396
205 397
205 398
206 398
207 398
208 398
209 398
210 398
211 398
212 398
213 398
214 398
215 398
216 398
217 397
218 397
219 397
220 397
221 397
222 397
223 396
224 396
225 396
226 396
227 397
228 397
229 397
230 397
231 398
232 398
233 399
234 399
235 400
236 400
237 401
238 401
239 402
239 403
240 404
240 405
241 406
241 407
241 408
241 409
242 409
243 409
244 409
245 409
246 409
247 408
248 408
249 407
250 407
251 406
252 405
253 405
254 404
255 404
256 403
257 403
258 402
259 402
260 401
261 401
262 401
263 400
264 400
265 400
266 400
267 399
268 399
269 399
270 398
271 397
272 397
273 396
274 396
275 395
276 395
277 394
278 394
279 393
280 393
281 393
282 392
283 392
284 392
285 392
286 391
287 391
288 390
289 390
290 389
291 389
292 388
293 387
294 387
295 386
296 385
297 384
298 384
299 383
300 383
301 382
302 381
303 381
304 380
305 380
306 379
307 380
308 380
309 381
309 382
310 383
310 384
311 385
311 386
311 387
312 388
312 389
312 390
312 391
311 392
311 393
311 394
311 395
311 396
311 397
311 398
311 399
311 400
312 400
313 400
314 400
315 399
316 398
317 397
317 396
318 395
319 394
320 393
321 392
322 391
322 390
323 389
324 388
325 387
326 387
327 386
328 386
329 385
330 384
331 383
332 383
333 382
334 381
335 380
336 380
337 379
338 379
339 378
340 377
341 377
342 376
343 375
344 374
345 373
346 372
347 371
348 370
349 369
350 369
351 368
352 367
353 366
354 365
355 364
356 363
357 362
358 361
359 360
360 359
361 359
362 358
363 357
364 356
365 355
366 354
367 353
368 352
369 351
370 351
371 350
372 349
373 348
374 347
375 346
376 345
377 344
378 343
379 342
380 341
381 340
382 339
383 338
384 337
385 336
386 335
386 334
387 333
388 332
389 331
389 330
390 329
390 328
391 327
392 327
393 326
394 326
395 327
396 327
397 327
398 327
399 327
400 328
401 328
402 328
403 328
404 329
405 329
406 329
407 329
408 329
409 330
410 330
411 330
412 330
413 330
414 330
415 331
416 331
417 331
418 331
419 331
420 332
421 332
422 332
423 332
424 332
425 333
426 333
427 333
428 333
429 334
430 334
431 334
432 334
433 334
434 334
435 334
436 335
437 335
438 335
439 335
440 335
441 335
442 336
443 336
444 336
445 336
446 336
447 336
448 337
449 337
450 337
451 337
452 337
453 338
454 338
455 338
456 338
457 338
458 339
459 339
460 339
461 339
462 339
463 340
464 340
465 340
466 340
467 340
468 341
469 341
470 341
471 341
472 341
473 341
474 341
475 341
476 342
477 342
478 342
479 342
480 342
481 342
482 342
483 342
484 342
485 342
486 343
487 343
488 343
489 343
490 343
491 343
492 343
493 343
494 343
495 343
496 343
497 343
498 343
499 343
500 343
501 343
502 343
503 343
504 343
505 343
506 343
507 343
508 343
509 343
510 343
511 343
512 343
513 343
514 343
515 343
516 343
517 343
518 343
519 343
520 343
521 343
522 343
523 343
524 343
525 343
526 343
527 343
528 343
529 343
530 343
531 343
532 343
533 343
534 343
535 343
536 343
537 342
538 342
539 342
540 342
541 342
542 342
543 342
544 342
545 341
546 341
547 341
548 341
549 341
550 341
551 340
552 340
553 340
554 340
555 340
556 339
557 339
558 339
559 339
560 338
561 338
562 338
563 338
564 338
565 338
566 337
567 337
568 337
569 336
570 336
571 336
572 336
573 335
574 335
575 335
576 335
577 335
578 335
579 334
580 334
581 334
582 334
583 333
584 333
585 333
586 333
587 333
588 333
589 332
590 332
591 332
592 332
593 331
594 331
595 331
596 331
597 331
598 330
599 330
600 330
601 330
602 330
603 329
604 329
605 329
606 329
607 328
608 328
609 328
610 328
611 327
612 327
613 327
614 327
615 326
616 326
617 326
618 326
619 325
620 325
621 325
622 324
623 324
624 324
625 323
626 323
627 323
628 322
629 322
630 322
631 322
632 321
633 321
634 321
635 320
636 320
637 320
638 319
639 319
640 319
641 318
642 318
643 318
644 317
645 317
646 317
647 316
648 316
649 316
650 316
651 315
652 315
653 314
654 314
655 314
656 313
657 313
658 313
659 312
660 312
661 312
662 311
663 311
664 311
665 310
666 310
667 310
668 309
669 309
670 309
671 308
672 308
673 308
674 307
675 307
676 307
677 307
678 306
679 306
680 307
681 307
682 307
683 307
684 307
685 307
686 307
687 307
688 307
689 307
690 307
691 307
692 307
693 307
693 306
693 305
693 304
693 303
693 302
693 301
692 300
691 300
690 299
689 299
688 298
687 298
686 298
685 298
684 298
683 298
682 298
681 298
680 298
679 298
678 298
677 298
676 298
675 298
674 299
673 299
672 299
671 300
670 300
669 300
668 301
667 301
666 301
665 302
664 302
663 303
662 303
661 303
660 304
659 304
658 304
657 305
656 305
655 305
654 306
653 306
652 307
651 307
650 307
649 308
648 308
647 309
646 309
645 309
644 309
643 310
642 310
641 311
640 311
639 311
638 312
637 312
636 312
635 313
634 313
633 314
632 314
631 314
630 314
629 315
628 315
627 315
626 316
625 316
624 316
623 317
622 317
621 317
620 318
619 318
618 318
617 319
616 319
615 320
614 320
613 320
612 320
611 321
610 321
609 321
608 322
607 322
606 322
605 323
604 323
603 323
602 323
601 324
600 324
599 324
598 325
597 325
596 325
595 325
594 326
593 326
592 326
591 326
590 327
589 327
588 327
587 327
586 328
585 328
584 328
583 328
582 328
581 329
580 329
579 329
578 329
577 329
576 330
575 330
574 330
573 330
572 330
571 330
570 331
569 331
568 331
567 331
566 331
565 332
564 332
563 332
562 332
561 332
560 333
559 333
558 333
557 333
556 334
555 334
554 334
553 334
552 334
551 335
550 335
549 335
548 335
547 336
546 336
545 336
544 336
543 337
542 337
541 337
540 337
539 337
538 337
537 338
536 338
535 338
534 338
533 338
532 339
531 339
530 339
529 339
528 339
527 339
526 339
525 339
524 339
523 340
522 340
521 340
520 340
519 340
518 340
517 340
516 340
515 340
514 340
513 340
512 340
511 340
510 340
509 340
508 340
507 340
506 340
505 340
504 340
503 340
502 340
501 340
500 339
499 339
498 339
497 339
496 339
495 339
494 339
493 339
492 339
491 339
490 339
489 339
488 338
487 338
486 338
485 338
484 338
483 338
482 338
481 338
480 337
479 337
478 337
477 337
476 337
475 337
474 336
473 336
472 336
471 336
470 336
469 335
468 335
467 335
466 335
465 335
464 335
463 334
462 334
461 334
460 334
459 334
458 333
457 333
456 333
455 333
454 333
453 333
452 333
451 332
450 332
449 332
448 332
447 332
446 332
445 331
444 331
443 331
442 331
441 331
440 331
439 330
438 330
437 330
436 330
435 329
434 329
433 329
432 329
431 328
430 328
429 328
428 328
427 328
426 327
425 327
424 327
423 326
422 326
421 326
420 326
419 326
418 325
417 325
416 325
415 325
414 324
413 324
412 324
411 323
410 323
409 323
408 322
407 322
406 321
405 320
404 319
405 318
405 317
406 316
407 316
408 315
409 314
410 313
411 313
412 312
413 311
414 310
415 309
416 308
417 307
418 306
419 305
420 304
421 303
422 302
422 301
423 300
424 299
425 298
426 297
426 296
427 295
428 294
429 293
429 292
430 291
431 290
431 289
432 288
433 287
434 286
435 285
436 284
436 283
437 282
438 281
438 280
439 279
440 278
440 277
441 276
442 275
443 274
444 273
444 272
445 271
446 270
447 269
448 268
448 267
449 266
450 265
450 264
451 263
452 262
453 261
454 260
454 259
455 258
456 257
456 256
457 255
458 254
458 253
459 252
460 251
461 250
461 249
462 248
463 247
464 246
464 245
465 244
465 243
465 242
466 241
466 240
466 239
466 238
466 237
466 236
466 235
466 234
465 234
464 234
463 234
463 235
462 236
461 236
460 237
459 238
458 238
457 239
456 239
455 240
454 240
453 241
452 241
451 242
450 242
449 242
448 242
447 241
446 241
445 240
444 240
443 239
442 238
442 237
441 236
441 235
440 234
440 233
439 232
439 231
439 230
439 229
439 228
439 227
440 226
440 225
440 224
440 223
440 222
441 221
441 220
441 219
442 218
442 217
442 216
442 215
443 214
443 213
443 212
444 211
444 210
444 209
444 208
445 207
445 206
446 205
446 204
446 203
446 202
447 201
447 200
447 199
447 198
447 197
447 196
448 195
448 194
448 193
448 192
448 191
448 190
449 189
449 188
449 187
449 186
449 185
449 184
450 183
450 182
450 181
450 180
450 179
450 178
450 177
450 176
450 175
450 174
450 173
450 172
451 171
451 170
451 169
451 168
451 167
451 166
451 165
451 164
451 163
451 162
451 161
450 161
449 161
448 161
447 161
446 161
445 161
444 161
443 160
442 160
441 159
441 158
440 157
440 156
439 155
439 154
438 153
438 152
438 151
438 150
438 149
438 148
438 147
438 146
438 145
438 144
438 143
438 142
438 141
438 140
438 139
438 138
438 137
438 136
438 135
438 134
438 133
438 132
437 131
436 130
436 129
435 128
435 127
434 126
434 125
433 124
433 123
433 122
432 121
432 120
431 119
431 118
431 117
431 116
430 115
430 114
430 113
430 112
429 112
428 112
427 112
426 112
425 112
424 112
423 112
422 113
421 113
420 114
419 115
418 115
417 116
416 116
415 117
414 117
413 118
412 118
411 119
410 119
409 120
408 120
407 120
406 120
405 120
404 120
403 120
402 120
401 120
400 120
399 120
398 121
397 122
396 123
395 123
394 124
393 124
392 125
391 126
390 126
389 127
388 127
387 128
386 127
385 127
384 126
383 126
382 125
382 124
381 123
381 122
380 121
380 120
379 119
378 118
378 117
377 116
377 115
376 114
376 113
375 112
374 111
374 110
373 109
373 108
372 107
372 106
371 105
371 104
370 103
370 102
370 101
370 100
369 99
369 98
368 97
368 96
367 95
366 94
365 93
364 92
364 91
363 90
362 89
361 88
360 87
359 86
358 86
357 85
356 84
355 84
354 83
353 82
352 81
351 81
350 80
349 79
348 79
347 79
346 79
345 79
344 79
343 79
342 79
341 79
341 80
340 81
339 82
338 83
337 83
336 83
335 82
334 82
333 81
332 80
331 79
330 78
329 78
328 77
327 77
326 76
325 76
324 75
323 74
322 74
321 74
320 74
319 73
318 73
317 73
316 73
315 72
314 72
313 72
312 72
311 72
310 72
309 72
308 72
307 72
306 72
305 72
304 72
303 72
302 73
301 73
300 74
299 75
298 76
297 77
296 78
296 79
295 80
294 81
293 81
292 82
291 83
290 84
289 85
288 86
288 87
287 88
286 89
286 90
285 91
285 92
285 93
285 94
284 95
284 96
284 97
284 98
284 99
284 100
284 101
284 102
284 103
284 104
284 105
283 106
283 107
283 108
282 109
282 110
281 111
281 112
280 113
280 114
279 115
279 116
278 117
277 117
276 118
275 118
275 119
275 120
275 121
275 122
275 123
275 124
275 125
276 126
276 127
276 128
277 129
277 130
277 131
278 132
278 133
278 134
278 135
279 136
279 137
279 138
279 139
279 140
279 141
279 142
279 143
280 144
280 145
280 146
280 147
280 148
280 149
280 150
280 151
280 152
280 153
280 154
280 155
280 156
280 157
280 158
279 159
279 160
278 161
278 162
277 163
276 163
275 164
274 164
273 163
272 163
271 162
270 162
269 161
268 160
267 160
266 159
265 158
264 158
263 157
262 157
261 156
260 155
259 154
258 154
257 153
256 152
255 152
254 151
253 150
252 150
251 149
250 149
249 148
248 148
247 147
246 147
245 146
244 146
243 145
242 145
241 144
240 144
239 143
238 143
237 142
236 142
235 141
234 141
233 141
232 140
231 140
230 140
229 140
228 140
227 139
226 139
225 139
224 139
223 139
222 139
221 139
220 139
219 139
218 139
217 139
216 139
215 139
214 139
213 139
212 139
211 139
210 139
209 140
208 141
208 142
207 143
206 144
205 145
204 145
203 145
202 145
201 145
200 144
199 144
198 144
197 144
196 144
195 144
194 143
193 143
192 143
191 143
190 142
189 142
188 141
187 141
186 141
185 141
184 141
183 141
182 141
181 141
180 142
180 143
179 144
179 145
178 146
177 147
176 148
175 149
174 149
173 150
172 151
171 152
170 153
169 154
168 155
167 156
166 157
165 158
164 158
163 159
163 160
162 161
162 162
161 163
161 164
160 165
160 166
159 167
158 168
158 169
158 170
158 171
158 172
158 173
158 174
158 175
158 176
159 177
159 178
160 179
160 180
160 181
160 182
160 183
160 184
159 185
159 186
158 187
158 188
157 189
157 190
156 191
155 191
154 192
153 192
152 193
151 193
150 193
150 194
150 195
150 196
151 197
152 198
153 199
154 200
155 201
156 202
157 203
158 204
159 205
160 206
161 207
162 208
163 208
164 209
164 210
165 211
166 212
167 213
168 214
169 215
170 216
171 217
172 218
173 219
174 219
175 220
176 221
177 222
177 223
178 224
179 225
180 226
180 227
181 228
182 229
183 230
183 231
184 232
185 233
186 234
187 235
188 236
188 237
189 238
189 239
190 240
190 241
191 242
191 243
192 244
192 245
193 246
193 247
192 248
191 249
190 250
189 250
188 251
187 251
186 252
185 252
184 252
183 252
182 253
181 253
180 253
179 254
178 254
177 254
176 255
175 255
174 256
173 256
172 257
171 258
170 258
169 259
168 259
167 260
166 260
165 261
164 261
163 261
162 262
161 262
160 262
159 262
158 262
157 263
156 263
155 264
154 264
153 265
152 265
151 265
150 265
149 265
148 265
147 265
146 265
145 266
144 266
143 266
142 267
141 267
140 267
139 268
139 269
139 270
139 271
139 272
139 273
139 274
139 275
139 276
139 277
140 278
140 279
139 280
139 281
138 282
138 283
137 284
136 285
136 286
135 287
134 288
133 289
132 290
132 291
131 292
131 293
130 294
