3 298
3 299
3 300
3 301
4 301
5 302
6 302
7 303
8 303
9 304
10 304
11 305
12 306
13 307
14 308
15 309
16 310
17 311
18 312
18 313
19 314
20 315
21 316
22 317
22 318
23 319
23 320
24 321
24 322
25 323
26 323
27 324
28 324
29 324
30 324
31 323
31 322
32 321
33 321
34 320
35 320
36 321
37 321
38 321
39 322
40 322
41 323
42 323
43 324
44 324
45 324
46 324
47 325
48 325
49 325
50 326
51 326
52 327
53 327
54 327
55 327
56 327
57 327
58 327
59 327
60 327
61 327
62 327
63 327
64 327
65 327
66 327
67 327
68 327
69 327
70 328
71 328
72 329
72 330
73 331
73 332
73 333
73 334
73 335
73 336
73 337
73 338
73 339
73 340
73 341
73 342
74 343
73 344
73 345
73 346
73 347
73 348
72 349
72 350
72 351
72 352
72 353
72 354
71 355
71 356
71 357
71 358
71 359
71 360
71 361
71 362
70 363
70 364
70 365
70 366
70 367
70 368
70 369
69 370
69 371
69 372
69 373
69 374
69 375
69 376
69 377
69 378
69 379
69 380
69 381
69 382
68 383
68 384
68 385
68 386
68 387
68 388
68 389
68 390
68 391
68 392
68 393
68 394
68 395
68 396
68 397
68 398
68 399
68 400
68 401
68 402
68 403
68 404
68 405
68 406
68 407
68 408
68 409
68 410
69 411
69 412
69 413
69 414
69 415
69 416
69 417
69 418
69 419
70 420
70 421
70 422
70 423
69 424
69 425
69 426
69 427
69 428
69 429
69 430
69 431
69 432
69 433
69 434
70 434
71 434
72 434
72 433
73 432
74 431
74 430
75 429
75 428
76 427
76 426
77 425
78 424
79 423
79 422
80 421
81 421
82 420
83 419
84 419
85 418
86 418
87 417
88 416
89 415
90 414
91 413
92 412
93 411
94 410
95 410
96 409
97 409
98 408
99 407
100 406
101 405
101 404
102 403
103 402
103 401
104 400
105 399
105 398
106 397
107 396
107 395
108 394
108 393
109 392
110 391
110 390
111 389
112 388
112 387
113 386
113 385
114 384
114 383
115 382
116 381
116 380
116 379
116 378
116 377
117 376
117 375
118 374
118 373
119 372
119 371
120 370
120 369
121 368
121 367
122 366
122 365
123 364
123 363
124 362
125 361
126 361
127 361
128 362
129 362
130 363
131 364
131 365
132 366
132 367
133 368
133 369
133 370
133 371
133 372
133 373
133 374
133 375
133 376
132 377
132 378
132 379
132 380
132 381
132 382
132 383
132 384
132 385
132 386
132 387
132 388
132 389
132 390
132 391
132 392
132 393
132 394
132 395
132 396
132 397
132 398
132 399
132 400
132 401
132 402
132 403
132 404
132 405
132 406
132 407
133 408
133 409
133 410
134 411
134 412
134 413
134 414
134 415
135 416
135 417
135 418
136 419
136 420
136 421
137 422
137 423
138 424
138 425
138 426
139 427
139 428
139 429
139 430
140 431
140 432
140 433
140 434
140 435
140 436
140 437
140 438
140 439
140 440
140 441
140 442
140 443
141 443
142 443
142 442
142 441
143 440
143 439
143 438
144 437
144 436
145 435
145 434
146 433
146 432
147 431
148 430
149 429
150 428
151 429
152 429
153 430
153 431
154 432
153 433
153 434
152 435
152 436
151 437
151 438
150 439
150 440
150 441
150 442
150 443
150 444
150 445
151 445
152 445
153 445
154 444
155 443
156 442
156 441
157 440
158 439
158 438
159 437
160 436
160 435
161 434
162 433
163 432
164 431
165 430
166 429
167 429
168 428
169 427
170 426
171 425
172 425
173 424
174 424
175 423
176 423
177 422
178 422
179 421
180 421
181 420
182 420
183 420
184 419
185 419
186 418
187 418
188 417
189 416
190 415
191 414
192 413
193 412
194 411
195 410
195 409
196 408
197 407
198 406
198 405
199 404
200 403
200 402
201 401
202 400
202 399
203 398
204 397
205 396
205 395
206 394
207 393
207 392
208 391
209 390
209 389
210 388
210 387
211 386
212 385
213 384
214 383
215 382
216 381
217 380
217 379
218 378
218 377
219 376
220 375
220 374
221 373
222 372
222 371
222 370
223 369
223 368
223 367
223 366
223 365
223 364
223 363
223 362
223 361
223 360
223 359
223 358
223 357
223 356
223 355
222 354
222 353
223 352
223 351
224 350
224 349
225 348
226 347
227 346
227 345
228 344
229 343
229 342
229 341
230 340
230 339
230 338
230 337
230 336
230 335
230 334
230 333
230 332
230 331
230 330
230 329
230 328
230 327
230 326
230 325
230 324
230 323
230 322
230 321
230 320
230 319
230 318
230 317
230 316
230 315
230 314
230 313
230 312
230 311
230 310
230 309
229 308
230 307
231 306
232 305
233 305
234 304
235 304
236 304
237 304
238 304
239 304
240 304
241 304
242 304
243 305
244 305
245 305
246 306
247 306
248 307
249 307
250 307
251 307
252 307
253 307
254 307
255 307
256 307
257 307
258 307
259 307
260 307
261 307
262 306
263 306
264 306
265 306
266 306
267 306
268 306
269 307
270 307
271 307
272 307
273 307
274 307
275 307
276 307
277 307
278 307
279 307
280 307
281 307
282 307
283 307
284 308
285 308
286 308
287 308
288 308
289 308
290 308
291 308
292 309
293 309
294 310
295 310
296 311
296 312
297 313
296 314
296 315
295 316
295 317
294 318
293 319
292 320
291 321
290 322
290 323
290 324
290 325
289 326
289 327
288 328
288 329
288 330
287 331
287 332
287 333
287 334
287 335
286 336
286 337
286 338
286 339
285 340
285 341
285 342
285 343
284 344
284 345
283 346
283 347
283 348
283 349
283 350
283 351
282 352
282 353
282 354
282 355
282 356
282 357
282 358
281 359
281 360
281 361
281 362
281 363
281 364
281 365
281 366
281 367
281 368
281 369
281 370
281 371
281 372
281 373
281 374
281 375
281 376
281 377
281 378
281 379
281 380
281 381
281 382
281 383
281 384
281 385
281 386
281 387
281 388
281 389
281 390
281 391
281 392
281 393
281 394
281 395
281 396
281 397
282 398
282 399
282 400
282 401
283 402
283 403
283 404
283 405
284 406
284 407
284 408
284 409
284 410
285 411
285 412
285 413
286 414
286 415
287 416
287 417
288 418
288 419
288 420
288 421
289 422
289 423
289 424
290 425
290 426
290 427
290 428
291 429
291 430
292 431
292 432
293 433
293 434
293 435
293 436
294 437
295 438
295 439
296 440
296 441
297 442
297 443
298 444
298 445
299 446
300 447
301 448
302 449
302 450
303 451
304 452
305 453
305 454
306 455
307 456
307 457
308 458
309 459
309 460
310 461
310 462
311 463
311 464
312 465
312 466
313 467
313 468
314 469
314 470
315 471
315 472
315 473
316 474
316 475
316 476
316 477
316 478
317 479
317 480
317 481
317 482
318 482
318 481
318 480
319 479
319 478
319 477
319 476
319 475
319 474
319 473
319 472
319 471
319 470
319 469
320 468
320 467
321 466
321 465
321 464
321 463
322 462
322 461
322 460
322 459
323 458
323 457
324 456
324 455
325 454
325 453
326 452
327 451
328 450
329 449
329 448
330 447
330 446
330 445
330 444
330 443
330 442
330 441
330 440
330 439
330 438
330 437
330 436
330 435
330 434
330 433
329 432
329 431
329 430
329 429
329 428
329 427
329 426
328 425
328 424
328 423
327 422
327 421
327 420
327 419
327 418
327 417
327 416
327 415
327 414
327 413
327 412
328 411
328 410
328 409
329 408
329 407
329 406
329 405
329 404
329 403
329 402
329 401
330 400
330 399
331 398
332 397
333 396
334 397
335 398
336 399
336 400
337 401
337 402
337 403
337 404
338 405
338 406
338 407
338 408
338 409
339 410
339 411
339 412
339 413
339 414
340 415
340 416
340 417
340 418
341 419
341 420
342 421
342 422
342 423
342 424
343 425
343 426
343 427
343 428
343 429
344 430
344 431
345 432
345 433
345 434
346 435
346 436
347 437
347 438
347 439
347 440
348 441
348 442
348 443
348 444
348 445
348 446
349 447
349 448
349 449
350 450
350 451
350 452
351 453
351 454
351 455
351 456
351 457
352 458
352 459
352 460
352 461
352 462
353 463
353 464
353 465
353 466
353 467
353 468
353 469
353 470
354 471
354 472
354 473
355 473
355 472
355 471
355 470
356 469
356 468
356 467
356 466
356 465
356 464
357 463
357 462
357 461
358 460
358 459
358 458
359 457
359 456
359 455
360 454
360 453
361 452
361 451
362 450
362 449
363 448
364 447
364 446
365 445
365 444
366 443
367 442
368 441
369 440
370 439
371 439
372 438
373 438
374 437
375 436
375 435
376 434
376 433
377 432
377 431
378 430
379 429
380 428
381 427
382 426
383 425
384 424
384 423
385 422
385 421
385 420
386 419
386 418
387 417
387 416
388 415
388 414
389 413
389 412
390 411
390 410
391 409
391 408
391 407
392 406
392 405
392 404
392 403
392 402
392 401
393 400
393 399
393 398
393 397
394 396
394 395
394 394
394 393
395 392
395 391
395 390
395 389
395 388
395 387
395 386
395 385
395 384
396 383
396 382
397 381
397 380
397 379
398 378
398 377
398 376
399 375
399 374
399 373
400 372
400 371
400 370
401 369
401 368
401 367
401 366
401 365
401 364
401 363
401 362
401 361
401 360
401 359
402 358
402 357
402 356
402 355
402 354
402 353
402 352
402 351
402 350
402 349
403 348
403 347
404 346
404 345
405 344
405 343
405 342
405 341
405 340
405 339
405 338
405 337
405 336
405 335
405 334
405 333
405 332
405 331
405 330
405 329
404 328
404 327
403 326
403 325
403 324
402 324
401 324
400 324
399 324
398 324
397 324
396 323
395 323
394 322
393 322
392 321
392 320
391 319
392 318
392 317
393 316
394 315
395 315
396 314
397 314
398 313
399 313
400 313
401 313
402 313
403 313
404 313
405 313
406 313
407 313
408 313
409 313
410 313
411 313
412 313
413 312
414 312
415 312
416 312
417 312
418 312
419 312
420 312
421 313
422 313
423 314
424 315
425 316
425 317
425 318
424 319
424 320
423 321
422 322
422 323
421 324
420 325
420 326
419 327
419 328
419 329
418 330
418 331
418 332
418 333
417 334
417 335
417 336
417 337
417 338
417 339
417 340
417 341
417 342
417 343
417 344
417 345
417 346
417 347
417 348
417 349
417 350
417 351
417 352
417 353
417 354
417 355
417 356
417 357
417 358
417 359
417 360
417 361
417 362
417 363
417 364
417 365
418 366
418 367
418 368
418 369
418 370
418 371
418 372
418 373
419 374
419 375
419 376
419 377
420 378
420 379
420 380
421 381
421 382
421 383
422 384
422 385
422 386
423 387
423 388
423 389
424 390
424 391
424 392
424 393
424 394
425 395
425 396
426 397
426 398
427 399
428 400
428 401
429 402
429 403
430 404
430 405
431 406
432 407
433 408
433 409
434 410
435 411
436 412
436 413
437 414
438 415
439 416
439 417
440 418
441 419
442 420
443 421
444 422
445 423
446 424
447 425
448 426
449 427
450 428
451 429
452 429
453 430
454 431
455 432
456 433
457 434
458 434
459 435
460 436
461 437
462 438
463 439
464 440
465 440
466 441
467 442
468 442
469 443
470 444
471 444
472 445
473 446
474 447
475 448
476 449
477 449
478 450
479 451
480 452
481 453
482 454
483 455
483 456
484 457
485 458
486 459
487 460
488 461
489 462
490 462
491 462
492 462
492 461
492 460
492 459
492 458
492 457
492 456
491 455
491 454
490 453
490 452
489 451
489 450
488 449
488 448
487 447
487 446
486 445
486 444
485 443
485 442
484 441
484 440
484 439
483 438
483 437
483 436
483 435
483 434
483 433
483 432
483 431
483 430
484 429
484 428
484 427
484 426
484 425
484 424
484 423
485 422
485 421
485 420
485 419
485 418
485 417
485 416
485 415
485 414
485 413
485 412
485 411
485 410
484 409
484 408
484 407
484 406
484 405
484 404
484 403
484 402
483 401
483 400
483 399
483 398
483 397
483 396
483 395
483 394
483 393
483 392
484 391
484 390
485 389
486 388
487 387
488 388
489 389
490 390
490 391
491 392
491 393
492 394
492 395
493 396
493 397
494 398
494 399
495 400
496 401
496 402
497 403
497 404
498 405
499 406
500 407
501 408
501 409
502 410
503 411
504 412
505 413
505 414
506 415
507 416
508 417
509 418
509 419
510 420
511 421
512 422
513 423
514 423
515 424
516 425
517 426
518 427
519 428
520 429
520 430
521 431
522 432
523 433
524 434
525 434
526 435
527 436
528 437
529 438
530 439
531 440
532 441
533 442
534 443
535 443
536 444
536 445
537 446
538 447
539 448
540 449
540 450
541 451
541 452
542 453
542 454
543 455
543 456
544 457
545 458
545 459
546 460
546 461
547 462
547 463
548 464
548 465
549 466
549 467
550 468
550 469
551 469
552 469
552 468
552 467
552 466
552 465
552 464
552 463
552 462
552 461
552 460
552 459
552 458
552 457
552 456
552 455
552 454
552 453
552 452
552 451
552 450
551 449
551 448
551 447
551 446
550 445
550 444
550 443
549 442
549 441
549 440
549 439
550 438
550 437
550 436
550 435
551 434
551 433
551 432
551 431
552 430
552 429
553 428
553 427
553 426
554 425
554 424
554 423
554 422
554 421
554 420
554 419
555 418
555 417
555 416
555 415
555 414
556 413
556 412
556 411
556 410
556 409
556 408
556 407
557 406
557 405
557 404
557 403
557 402
558 401
558 400
559 399
560 398
561 397
562 398
563 399
564 400
565 401
566 402
566 403
567 404
567 405
568 406
568 407
569 408
570 409
571 409
572 410
573 410
574 411
575 412
576 413
577 414
578 415
579 416
580 416
581 417
582 418
583 418
584 419
585 420
586 421
587 422
588 422
589 423
590 423
591 424
592 425
593 426
594 426
595 427
596 428
596 429
597 430
598 431
599 431
600 432
601 432
602 433
603 434
604 434
605 435
606 436
607 437
608 438
608 439
609 440
610 441
610 442
611 443
611 444
612 445
612 446
613 447
613 448
614 449
614 450
615 451
615 452
616 453
617 453
618 453
619 453
619 452
619 451
619 450
619 449
619 448
619 447
619 446
619 445
619 444
619 443
619 442
618 441
618 440
618 439
618 438
618 437
618 436
618 435
618 434
617 433
617 432
617 431
617 430
616 429
616 428
616 427
616 426
616 425
616 424
616 423
616 422
616 421
617 420
617 419
617 418
617 417
617 416
617 415
617 414
617 413
617 412
618 411
618 410
618 409
618 408
618 407
618 406
618 405
618 404
618 403
618 402
618 401
618 400
618 399
618 398
618 397
618 396
618 395
618 394
618 393
617 392
617 391
617 390
617 389
617 388
616 387
616 386
616 385
616 384
616 383
616 382
615 381
615 380
615 379
615 378
614 377
614 376
614 375
614 374
614 373
614 372
614 371
614 370
615 369
616 368
617 367
618 367
619 368
620 369
621 370
622 371
622 372
623 373
624 374
625 374
626 375
627 376
628 377
629 378
630 379
631 380
632 380
633 381
633 382
634 383
634 384
635 385
636 385
637 386
638 386
639 387
640 387
641 388
642 389
643 389
644 390
645 391
646 391
647 392
648 392
649 393
650 394
651 394
652 395
653 395
654 396
655 396
656 397
657 397
658 398
659 398
660 399
661 399
662 400
663 400
664 400
665 401
666 401
667 402
668 402
669 403
670 404
671 405
671 406
672 407
672 408
673 409
673 410
673 411
674 411
675 412
676 412
677 413
678 413
679 413
680 413
681 413
682 413
683 413
684 412
685 412
686 411
687 411
687 410
687 409
687 408
687 407
687 406
687 405
687 404
686 403
686 402
685 401
685 400
684 399
684 398
683 397
683 396
682 395
682 394
682 393
681 392
681 391
680 390
680 389
680 388
679 387
679 386
679 385
678 384
678 383
678 382
678 381
677 380
677 379
678 378
678 377
678 376
678 375
678 374
678 373
678 372
678 371
678 370
678 369
679 368
679 367
679 366
679 365
679 364
679 363
679 362
679 361
679 360
679 359
679 358
679 357
679 356
679 355
679 354
679 353
679 352
679 351
679 350
679 349
679 348
679 347
679 346
678 345
678 344
678 343
678 342
678 341
677 340
677 339
677 338
676 337
676 336
676 335
676 334
676 333
675 332
674 331
673 330
672 329
671 328
670 327
669 326
669 325
668 324
669 323
670 322
670 321
670 320
669 320
668 320
667 320
666 320
665 320
664 319
663 318
662 317
662 316
662 315
663 314
664 313
665 312
666 312
667 311
668 311
669 311
670 311
671 311
672 311
673 311
674 311
675 311
676 311
677 311
678 311
679 311
680 311
681 311
682 311
683 311
684 311
685 311
686 310
687 310
688 310
689 310
690 310
691 310
692 310
693 310
694 310
695 310
696 310
697 310
698 310
699 310
700 310
701 310
702 310
703 310
704 310
705 310
706 310
707 310
708 310
709 310
710 310
711 310
712 310
713 310
714 310
715 310
716 310
717 310
718 310
719 310
720 310
721 310
722 310
723 310
724 310
725 310
726 310
727 310
728 310
729 310
730 310
731 310
732 310
733 310
734 310
735 310
736 310
737 310
738 310
739 311
740 311
741 312
742 312
743 313
744 314
745 314
746 315
747 315
748 316
749 316
750 317
751 317
752 317
753 317
754 317
755 317
756 317
757 316
758 316
759 315
760 315
761 314
762 314
763 314
764 314
765 314
766 314
767 313
768 313
769 313
770 313
770 312
770 311
770 310
770 309
770 308
769 307
768 306
768 305
767 304
767 303
766 302
766 301
765 301
764 301
763 301
762 301
761 301
760 301
759 301
758 301
757 301
756 301
755 302
754 302
753 303
752 303
751 303
750 304
749 304
748 305
747 305
746 305
745 305
744 305
743 306
742 306
741 306
740 306
739 306
738 306
737 306
736 306
735 306
734 306
733 306
732 306
731 306
730 306
729 306
728 306
727 307
726 307
725 307
724 307
723 307
722 307
721 307
720 307
719 307
718 307
717 307
716 307
715 307
714 307
713 307
712 307
711 307
710 307
709 307
708 307
707 307
706 307
705 307
704 307
703 307
702 307
701 307
700 308
699 308
698 308
697 308
696 308
695 308
694 308
693 308
692 308
691 308
690 308
689 308
688 308
687 308
686 308
685 308
684 308
683 308
682 308
681 308
680 308
679 308
678 308
677 308
676 308
675 308
674 308
673 308
672 308
671 308
670 308
669 308
668 308
667 308
666 308
665 308
664 308
663 308
662 307
661 307
660 306
659 305
658 304
659 303
659 302
660 301
661 301
662 300
662 299
662 298
662 297
663 296
663 295
664 294
664 293
665 292
665 291
666 290
666 289
666 288
666 287
667 286
667 285
667 284
667 283
667 282
667 281
667 280
667 279
667 278
668 277
668 276
668 275
668 274
668 273
668 272
668 271
668 270
668 269
668 268
668 267
668 266
668 265
668 264
668 263
668 262
668 261
668 260
668 259
668 258
667 257
667 256
667 255
667 254
667 253
666 252
666 251
666 250
666 249
666 248
666 247
666 246
665 245
665 244
665 243
665 242
665 241
665 240
665 239
665 238
665 237
665 236
664 235
664 234
664 233
663 232
663 231
663 230
662 229
662 228
662 227
661 226
661 225
660 224
660 223
660 222
659 221
659 220
658 219
658 218
657 217
657 216
656 215
655 214
655 213
654 212
653 211
653 210
652 209
652 208
651 207
650 206
650 205
649 204
649 203
648 202
648 201
647 200
647 199
646 198
646 197
645 196
645 195
644 195
643 195
642 195
641 195
640 195
639 196
639 197
638 198
638 199
637 200
637 201
636 202
636 203
635 204
635 205
634 206
634 207
633 208
633 209
632 210
632 211
631 212
631 213
630 214
630 215
629 216
629 217
628 218
627 219
627 220
626 221
625 222
625 223
624 224
623 225
622 226
621 227
620 228
619 229
618 230
617 231
617 232
616 233
616 234
615 235
615 236
614 237
613 238
612 239
611 238
610 237
609 236
609 235
608 234
608 233
608 232
608 231
608 230
608 229
607 228
607 227
607 226
606 225
606 224
605 223
604 222
604 221
603 220
602 219
602 218
601 217
601 216
600 215
600 214
599 213
599 212
599 211
599 210
598 209
598 208
598 207
597 206
598 205
598 204
599 203
599 202
600 201
600 200
601 199
601 198
602 197
602 196
603 195
604 194
604 193
605 192
606 191
607 190
608 189
609 188
610 187
611 186
611 185
612 184
612 183
612 182
612 181
612 180
611 180
610 180
609 180
608 180
607 180
606 180
605 180
604 181
603 181
602 181
601 182
600 182
599 183
598 184
597 184
596 185
595 185
594 186
593 186
592 187
591 187
590 188
589 188
588 189
587 189
586 189
585 190
584 190
583 191
582 191
581 191
580 191
579 191
578 192
577 192
576 192
575 193
574 194
573 195
572 195
571 196
570 197
569 198
568 199
567 200
566 201
565 202
564 203
563 204
562 205
561 206
561 207
560 208
560 209
559 210
558 211
558 212
557 213
557 214
556 215
555 216
555 217
554 218
554 219
553 220
553 221
553 222
553 223
553 224
552 225
552 226
552 227
552 228
552 229
552 230
552 231
551 232
551 233
550 234
550 235
550 236
550 237
550 238
550 239
550 240
549 241
549 242
549 243
549 244
549 245
549 246
549 247
549 248
549 249
549 250
549 251
548 252
548 253
548 254
548 255
548 256
548 257
548 258
547 259
547 260
547 261
547 262
547 263
547 264
547 265
547 266
547 267
547 268
547 269
547 270
547 271
547 272
547 273
547 274
547 275
547 276
547 277
547 278
547 279
547 280
547 281
547 282
547 283
547 284
547 285
547 286
547 287
547 288
547 289
547 290
547 291
548 292
548 293
548 294
548 295
548 296
548 297
549 298
549 299
549 300
549 301
548 302
548 303
547 304
546 305
545 305
544 306
543 306
542 307
541 307
540 307
539 307
538 307
537 307
536 307
535 307
534 306
533 306
532 305
531 304
530 303
531 302
531 301
532 300
533 299
534 298
535 297
536 296
537 295
538 294
538 293
538 292
538 291
538 290
538 289
538 288
538 287
539 286
539 285
539 284
539 283
539 282
539 281
539 280
539 279
539 278
539 277
539 276
539 275
539 274
539 273
539 272
539 271
539 270
539 269
539 268
539 267
539 266
539 265
539 264
539 263
539 262
539 261
539 260
539 259
539 258
539 257
539 256
539 255
539 254
539 253
539 252
539 251
539 250
539 249
539 248
539 247
539 246
539 245
539 244
539 243
539 242
539 241
539 240
539 239
538 238
538 237
538 236
538 235
538 234
538 233
538 232
538 231
538 230
537 229
537 228
537 227
537 226
537 225
537 224
537 223
537 222
537 221
537 220
537 219
537 218
537 217
537 216
537 215
537 214
537 213
537 212
537 211
537 210
537 209
537 208
537 207
537 206
537 205
537 204
537 203
536 202
536 201
536 200
535 199
535 198
535 197
535 196
534 195
534 194
534 193
533 192
533 191
532 190
532 189
531 188
531 187
530 186
530 185
530 184
529 183
529 182
528 181
528 180
527 179
527 178
526 177
525 176
524 175
523 174
523 173
522 172
521 171
521 170
520 169
520 168
519 167
519 166
518 165
518 164
517 163
517 162
516 161
516 160
515 159
515 158
515 157
514 156
514 155
513 154
513 153
513 152
512 151
512 150
512 149
512 148
512 147
512 146
512 145
511 144
511 143
511 142
511 141
511 140
511 139
511 138
511 137
511 136
511 135
510 135
509 135
508 135
508 136
508 137
508 138
508 139
508 140
508 141
508 142
508 143
508 144
508 145
507 146
507 147
507 148
507 149
507 150
507 151
507 152
507 153
507 154
506 155
506 156
506 157
506 158
505 159
505 160
505 161
504 162
504 163
504 164
503 165
503 166
503 167
503 168
502 169
502 170
501 171
501 172
501 173
501 174
500 175
500 176
500 177
500 178
499 179
499 180
498 181
498 182
497 183
497 184
497 185
496 186
496 187
495 188
495 189
494 190
494 191
493 192
493 193
493 194
492 195
492 196
491 197
491 198
490 199
490 200
490 201
489 202
489 203
489 204
489 205
489 206
488 207
488 208
487 209
487 210
487 211
486 212
486 213
486 214
485 215
485 216
485 217
484 218
484 219
484 220
483 221
483 222
482 223
482 224
482 225
481 226
481 227
480 228
480 229
480 230
480 231
480 232
479 233
479 234
479 235
479 236
479 237
479 238
478 239
478 240
478 241
478 242
478 243
478 244
478 245
478 246
478 247
478 248
478 249
478 250
478 251
478 252
478 253
478 254
478 255
478 256
478 257
478 258
478 259
478 260
478 261
478 262
478 263
478 264
478 265
478 266
478 267
478 268
478 269
478 270
478 271
478 272
478 273
478 274
478 275
478 276
478 277
478 278
478 279
479 280
479 281
479 282
479 283
479 284
480 285
480 286
480 287
481 288
481 289
481 290
482 291
482 292
482 293
483 294
483 295
483 296
484 297
484 298
485 299
486 300
486 301
487 302
487 303
486 304
485 305
484 306
483 306
482 307
481 307
480 307
479 307
478 307
477 307
476 307
475 307
474 307
473 307
472 307
471 307
470 307
469 307
468 307
467 307
466 307
465 307
464 307
463 307
462 307
461 307
460 307
459 306
458 305
457 304
457 303
457 302
458 301
458 300
459 299
460 298
461 297
461 296
461 295
461 294
461 293
461 292
462 291
462 290
462 289
463 288
463 287
463 286
463 285
463 284
463 283
463 282
463 281
463 280
463 279
463 278
463 277
463 276
463 275
463 274
463 273
463 272
464 271
464 270
464 269
464 268
464 267
464 266
465 265
465 264
465 263
465 262
465 261
465 260
465 259
465 258
465 257
465 256
465 255
465 254
465 253
465 252
465 251
465 250
465 249
465 248
465 247
465 246
465 245
465 244
465 243
465 242
465 241
465 240
465 239
465 238
465 237
465 236
465 235
464 234
464 233
464 232
464 231
464 230
464 229
464 228
464 227
464 226
464 225
464 224
463 223
463 222
463 221
463 220
463 219
463 218
463 217
462 216
462 215
462 214
462 213
462 212
461 211
461 210
461 209
461 208
461 207
461 206
461 205
461 204
461 203
461 202
461 201
461 200
461 199
460 198
460 197
459 196
458 195
458 194
457 193
457 192
456 191
455 190
454 189
453 188
453 187
452 186
451 185
450 184
449 183
448 182
447 181
446 180
445 179
444 178
443 177
443 176
442 175
441 174
440 173
439 172
439 171
438 170
438 169
437 168
437 167
436 166
436 165
435 164
435 163
434 162
434 161
433 160
433 159
432 158
432 157
432 156
431 155
431 154
431 153
431 152
431 151
431 150
431 149
431 148
431 147
431 146
431 145
431 144
431 143
430 143
429 143
428 143
427 144
427 145
427 146
427 147
426 148
426 149
426 150
426 151
426 152
425 153
425 154
425 155
425 156
425 157
424 158
424 159
424 160
424 161
424 162
424 163
424 164
423 165
423 166
423 167
423 168
423 169
423 170
423 171
422 172
422 173
422 174
422 175
422 176
422 177
422 178
422 179
422 180
421 181
421 182
421 183
421 184
421 185
420 186
420 187
419 188
419 189
419 190
419 191
418 192
418 193
418 194
417 195
417 196
417 197
417 198
417 199
416 200
416 201
416 202
416 203
416 204
416 205
415 206
415 207
414 208
414 209
414 210
413 211
413 212
413 213
413 214
412 215
412 216
412 217
412 218
412 219
411 220
411 221
411 222
411 223
411 224
411 225
411 226
411 227
411 228
411 229
411 230
411 231
411 232
411 233
410 234
410 235
410 236
410 237
410 238
410 239
410 240
410 241
409 242
409 243
409 244
409 245
409 246
409 247
409 248
409 249
409 250
409 251
409 252
409 253
409 254
409 255
409 256
409 257
409 258
409 259
409 260
409 261
409 262
409 263
409 264
409 265
409 266
409 267
409 268
409 269
409 270
409 271
409 272
409 273
409 274
409 275
409 276
409 277
410 278
410 279
410 280
410 281
410 282
410 283
410 284
410 285
411 286
411 287
411 288
411 289
412 290
412 291
412 292
412 293
413 294
413 295
414 296
414 297
415 298
416 299
416 300
417 301
417 302
418 303
418 304
417 305
416 306
415 307
414 307
413 308
412 308
411 308
410 308
409 308
408 308
407 308
406 308
405 308
404 308
403 308
402 308
401 308
400 308
399 308
398 307
397 307
396 306
395 305
394 304
394 303
395 302
395 301
396 300
396 299
396 298
396 297
396 296
396 295
396 294
396 293
396 292
396 291
396 290
396 289
396 288
396 287
396 286
396 285
396 284
397 283
397 282
397 281
397 280
397 279
397 278
397 277
397 276
397 275
397 274
397 273
397 272
397 271
397 270
397 269
397 268
397 267
397 266
397 265
397 264
397 263
397 262
397 261
397 260
397 259
397 258
397 257
397 256
396 255
396 254
396 253
396 252
396 251
396 250
396 249
397 248
397 247
397 246
397 245
397 244
397 243
397 242
397 241
397 240
397 239
397 238
397 237
397 236
397 235
397 234
397 233
397 232
396 231
396 230
396 229
396 228
396 227
396 226
396 225
396 224
396 223
396 222
396 221
396 220
396 219
396 218
396 217
396 216
396 215
396 214
396 213
396 212
396 211
396 210
395 209
395 208
395 207
395 206
395 205
395 204
395 203
394 202
394 201
394 200
393 199
392 198
392 197
391 196
391 195
390 194
389 193
389 192
388 191
387 190
386 189
386 188
385 187
384 186
383 185
382 184
381 183
380 182
379 181
379 180
378 179
377 178
376 177
375 176
374 175
374 174
373 173
372 172
372 171
371 170
370 169
370 168
369 167
369 166
368 165
368 164
367 163
367 162
366 161
366 160
365 159
365 158
365 157
364 156
364 155
364 154
363 153
363 152
363 151
362 150
361 150
360 150
360 151
360 152
360 153
360 154
360 155
360 156
360 157
360 158
360 159
360 160
360 161
360 162
360 163
360 164
360 165
360 166
360 167
360 168
360 169
359 170
359 171
359 172
359 173
358 174
358 175
358 176
358 177
358 178
357 179
357 180
357 181
357 182
357 183
357 184
357 185
357 186
357 187
357 188
357 189
357 190
357 191
356 192
356 193
356 194
356 195
355 196
355 197
354 198
354 199
353 200
353 201
353 202
352 203
352 204
352 205
352 206
351 207
351 208
351 209
350 210
350 211
350 212
349 213
349 214
349 215
348 216
348 217
348 218
348 219
348 220
348 221
347 222
347 223
347 224
346 225
346 226
346 227
346 228
346 229
345 230
345 231
345 232
345 233
345 234
344 235
344 236
344 237
344 238
344 239
344 240
344 241
344 242
344 243
343 244
343 245
343 246
343 247
343 248
343 249
343 250
343 251
343 252
343 253
343 254
343 255
343 256
343 257
343 258
343 259
343 260
343 261
343 262
343 263
343 264
343 265
343 266
343 267
343 268
343 269
343 270
343 271
343 272
344 273
344 274
344 275
344 276
344 277
344 278
345 279
345 280
345 281
345 282
346 283
346 284
347 285
347 286
348 287
348 288
349 289
349 290
350 291
350 292
351 293
351 294
351 295
352 296
352 297
352 298
353 299
353 300
354 301
354 302
355 303
355 304
355 305
354 306
353 307
352 308
351 308
350 309
349 309
348 309
347 309
346 309
345 309
344 309
343 309
342 309
341 309
340 309
339 309
338 309
337 309
336 309
335 309
334 308
333 308
332 307
331 307
330 306
329 305
329 304
329 303
329 302
330 301
330 300
331 299
332 298
332 297
333 296
334 295
335 294
335 293
336 292
337 291
337 290
337 289
337 288
337 287
337 286
337 285
337 284
337 283
337 282
337 281
337 280
337 279
336 278
336 277
335 276
335 275
334 274
334 273
333 272
333 271
333 270
332 269
332 268
331 267
331 266
331 265
331 264
331 263
331 262
331 261
331 260
331 259
331 258
331 257
331 256
331 255
331 254
331 253
331 252
331 251
331 250
330 249
330 248
330 247
330 246
329 245
329 244
328 243
328 242
328 241
327 240
327 239
327 238
327 237
326 236
326 235
326 234
326 233
326 232
326 231
326 230
325 229
325 228
325 227
325 226
324 225
324 224
324 223
323 222
323 221
322 220
322 219
322 218
321 217
321 216
321 215
321 214
320 213
320 212
320 211
320 210
320 209
319 208
319 207
319 206
319 205
319 204
319 203
319 202
319 201
319 200
319 199
319 198
319 197
319 196
319 195
319 194
319 193
319 192
318 191
318 190
318 189
318 188
317 187
317 186
317 185
316 184
316 183
315 182
315 181
314 180
314 179
313 178
313 177
312 176
311 175
311 174
310 173
309 172
308 171
307 170
307 169
306 168
305 167
304 166
303 165
303 164
302 163
301 162
300 161
299 160
298 159
297 158
296 157
295 156
294 155
294 154
293 153
292 152
292 151
291 150
291 149
290 148
290 147
289 146
289 145
288 144
288 143
287 142
287 141
287 140
286 139
286 138
286 137
285 136
285 135
284 135
284 136
284 137
284 138
284 139
284 140
284 141
284 142
284 143
284 144
284 145
284 146
284 147
284 148
284 149
284 150
284 151
284 152
284 153
283 154
283 155
283 156
283 157
283 158
283 159
283 160
283 161
283 162
283 163
283 164
282 165
282 166
282 167
282 168
282 169
281 170
281 171
281 172
281 173
280 174
280 175
280 176
279 177
279 178
279 179
279 180
278 181
278 182
278 183
277 184
277 185
277 186
276 187
276 188
276 189
276 190
276 191
275 192
275 193
275 194
275 195
275 196
275 197
275 198
274 199
274 200
274 201
274 202
274 203
274 204
274 205
274 206
274 207
274 208
274 209
274 210
273 211
273 212
273 213
273 214
273 215
273 216
273 217
273 218
273 219
273 220
273 221
273 222
273 223
273 224
273 225
273 226
273 227
273 228
273 229
273 230
273 231
273 232
273 233
273 234
273 235
272 236
272 237
272 238
272 239
272 240
272 241
272 242
272 243
272 244
272 245
272 246
272 247
272 248
272 249
272 250
272 251
271 252
270 253
269 254
268 253
267 252
266 251
266 250
265 249
265 248
265 247
264 246
264 245
264 244
264 243
263 242
263 241
263 240
262 239
262 238
262 237
262 236
262 235
262 234
262 233
262 232
262 231
262 230
261 229
261 228
261 227
260 226
260 225
259 224
259 223
259 222
258 221
258 220
257 219
257 218
257 217
257 216
257 215
257 214
257 213
257 212
257 211
257 210
257 209
257 208
256 207
256 206
256 205
256 204
256 203
256 202
255 201
255 200
255 199
255 198
255 197
255 196
255 195
255 194
255 193
255 192
255 191
255 190
255 189
255 188
255 187
254 186
254 185
254 184
254 183
254 182
254 181
253 180
253 179
253 178
253 177
253 176
253 175
252 174
252 173
251 172
250 171
249 170
248 169
248 168
247 167
246 166
246 165
245 164
244 163
244 162
243 161
243 160
242 159
241 158
240 157
240 156
239 155
238 154
238 153
237 152
236 151
236 150
235 149
235 148
234 147
234 146
233 145
233 144
232 143
232 142
231 141
231 140
230 139
230 138
229 137
229 136
228 135
228 134
228 133
228 132
228 131
228 130
227 130
226 130
225 130
225 131
225 132
225 133
225 134
225 135
225 136
225 137
225 138
225 139
224 140
224 141
224 142
224 143
224 144
224 145
224 146
223 147
223 148
223 149
223 150
223 151
222 152
222 153
221 154
221 155
221 156
221 157
221 158
220 159
220 160
220 161
220 162
220 163
220 164
220 165
219 166
219 167
219 168
219 169
218 170
218 171
218 172
217 173
217 174
217 175
217 176
217 177
216 178
216 179
216 180
216 181
216 182
216 183
215 184
215 185
215 186
215 187
215 188
215 189
215 190
214 191
214 192
214 193
214 194
214 195
213 196
213 197
213 198
213 199
213 200
213 201
212 202
212 203
212 204
212 205
212 206
212 207
212 208
212 209
212 210
212 211
212 212
212 213
212 214
212 215
211 216
211 217
211 218
211 219
211 220
211 221
211 222
211 223
211 224
211 225
211 226
211 227
211 228
211 229
212 230
212 231
212 232
212 233
212 234
212 235
212 236
212 237
212 238
212 239
212 240
211 241
211 242
211 243
210 244
209 243
208 242
207 241
206 240
206 239
205 238
205 237
204 236
204 235
204 234
204 233
203 232
203 231
203 230
203 229
202 228
202 227
202 226
202 225
202 224
201 223
201 222
201 221
201 220
201 219
201 218
201 217
201 216
200 215
200 214
200 213
200 212
200 211
200 210
200 209
200 208
199 207
199 206
199 205
199 204
199 203
199 202
198 201
198 200
198 199
198 198
198 197
197 196
197 195
197 194
197 193
196 192
196 191
196 190
196 189
195 188
195 187
195 186
194 185
194 184
193 183
193 182
192 181
192 180
191 179
190 178
190 177
189 176
188 175
187 174
187 173
186 172
185 171
184 170
183 169
182 168
181 167
180 166
180 165
179 164
178 163
177 162
177 161
176 160
175 159
174 158
174 157
173 156
173 155
172 154
172 153
171 152
171 151
170 150
170 149
170 148
169 147
169 146
168 145
168 144
168 143
168 142
168 141
167 141
166 141
166 142
166 143
165 144
165 145
165 146
165 147
165 148
165 149
165 150
165 151
165 152
165 153
165 154
165 155
164 156
164 157
164 158
164 159
163 160
163 161
163 162
163 163
163 164
163 165
163 166
162 167
162 168
162 169
162 170
162 171
162 172
162 173
162 174
162 175
162 176
162 177
161 178
161 179
161 180
161 181
161 182
161 183
160 184
160 185
160 186
160 187
160 188
160 189
160 190
160 191
160 192
160 193
160 194
160 195
159 196
159 197
159 198
159 199
159 200
159 201
159 202
159 203
159 204
159 205
159 206
159 207
159 208
159 209
159 210
159 211
159 212
159 213
159 214
159 215
159 216
159 217
159 218
159 219
159 220
159 221
159 222
159 223
159 224
159 225
159 226
159 227
159 228
159 229
159 230
159 231
159 232
160 233
160 234
160 235
160 236
160 237
160 238
160 239
160 240
160 241
160 242
161 243
161 244
161 245
161 246
161 247
162 248
162 249
162 250
162 251
162 252
162 253
163 254
162 255
162 256
161 257
160 258
159 259
158 258
157 258
156 257
156 256
155 255
155 254
154 253
154 252
153 251
152 250
152 249
151 248
150 247
150 246
149 245
149 244
148 243
148 242
147 241
147 240
146 239
146 238
145 237
145 236
144 235
144 234
143 233
143 232
143 231
142 230
142 229
141 228
141 227
140 226
140 225
140 224
140 223
140 222
139 221
139 220
139 219
139 218
139 217
138 216
138 215
138 214
138 213
138 212
137 211
137 210
137 209
137 208
136 207
136 206
136 205
135 204
135 203
134 202
134 201
134 200
133 199
133 198
132 197
132 196
131 195
131 194
131 193
130 192
130 191
129 190
128 189
127 188
127 187
126 186
125 185
124 184
124 183
123 182
122 181
121 180
120 179
119 178
119 177
118 176
117 175
116 174
115 173
114 172
113 171
113 170
112 169
111 168
111 167
110 166
110 165
109 164
109 163
108 162
108 161
107 160
107 159
106 158
106 157
106 156
105 156
104 156
104 157
104 158
104 159
104 160
104 161
104 162
104 163
104 164
104 165
104 166
104 167
104 168
104 169
104 170
104 171
104 172
104 173
103 174
103 175
103 176
103 177
102 178
102 179
102 180
102 181
102 182
102 183
101 184
101 185
101 186
101 187
101 188
101 189
101 190
100 191
100 192
100 193
100 194
100 195
100 196
100 197
100 198
100 199
99 200
99 201
99 202
99 203
99 204
99 205
99 206
99 207
99 208
99 209
99 210
99 211
98 212
98 213
97 214
96 215
95 216
94 215
93 214
92 213
92 212
91 211
91 210
91 209
91 208
90 207
90 206
90 205
89 204
89 203
89 202
88 201
88 200
88 199
87 198
87 197
87 196
87 195
86 194
85 193
84 192
83 191
82 190
81 189
80 188
79 187
78 186
78 185
77 184
77 183
76 182
76 181
75 180
75 179
74 178
74 177
73 176
73 175
73 174
72 173
71 173
71 174
71 175
71 176
71 177
71 178
71 179
71 180
71 181
71 182
71 183
71 184
71 185
71 186
71 187
71 188
71 189
71 190
71 191
71 192
70 193
70 194
70 195
70 196
70 197
70 198
69 199
69 200
69 201
68 202
68 203
67 204
67 205
66 206
66 207
66 208
65 209
65 210
65 211
64 212
64 213
64 214
64 215
64 216
63 217
63 218
63 219
63 220
63 221
63 222
62 223
62 224
62 225
62 226
62 227
62 228
62 229
62 230
62 231
62 232
62 233
61 234
61 235
61 236
61 237
61 238
61 239
61 240
61 241
61 242
61 243
61 244
61 245
61 246
61 247
61 248
61 249
61 250
61 251
61 252
61 253
62 254
62 255
62 256
62 257
63 258
63 259
63 260
63 261
63 262
64 263
64 264
64 265
64 266
63 267
63 268
62 269
62 270
61 271
61 272
61 273
61 274
61 275
60 276
60 277
59 278
59 279
58 280
58 281
57 282
56 282
55 283
54 283
53 283
52 283
51 283
50 283
49 283
48 283
47 283
46 283
45 283
44 283
43 283
42 283
41 283
40 283
39 283
38 283
37 284
36 284
35 284
34 284
33 284
32 284
31 284
30 284
29 284
28 284
27 285
26 285
25 286
24 286
23 287
22 288
21 288
20 289
19 289
18 290
17 291
16 291
15 292
14 293
13 293
12 294
11 294
10 295
9 295
8 296
7 296
6 297
5 297
4 297
3 298
