281 84
280 85
279 85
278 86
277 87
276 87
275 87
274 87
273 88
272 87
271 87
270 87
269 87
268 87
267 87
266 86
265 86
264 86
263 87
262 86
261 86
260 86
259 87
258 87
257 87
257 88
256 89
255 90
254 90
253 90
252 91
251 91
250 91
249 91
248 90
247 90
246 90
245 90
244 90
243 90
242 90
241 90
240 90
239 89
238 90
237 90
236 90
235 90
234 90
233 90
232 90
231 90
230 91
229 91
228 91
227 92
226 93
225 93
224 93
223 94
222 94
221 94
220 93
219 93
218 93
217 92
216 92
215 92
214 91
213 91
212 92
211 92
210 91
209 92
208 92
207 92
206 93
205 93
204 93
203 93
202 93
201 93
200 93
199 93
198 93
197 94
196 94
195 94
194 94
193 95
192 96
191 97
190 97
189 97
188 97
187 98
186 98
185 98
184 98
183 98
182 98
181 99
180 99
179 100
178 101
177 101
176 101
175 101
174 102
173 102
172 102
171 102
170 102
169 102
168 101
167 101
166 101
165 101
164 101
163 100
162 100
161 100
160 101
159 101
158 101
157 101
156 101
155 101
154 102
153 102
152 102
151 102
150 102
149 102
148 103
147 103
146 103
145 104
144 104
143 103
142 103
141 104
140 104
139 104
138 104
137 104
136 105
135 105
134 105
133 105
132 105
131 104
130 104
129 104
128 104
127 104
126 105
125 105
124 105
123 105
122 105
121 105
120 105
119 106
118 106
117 106
116 106
115 106
114 106
113 106
112 106
111 106
110 106
109 106
108 106
107 106
106 106
105 106
104 106
103 105
102 105
101 105
100 105
99 105
98 105
97 105
96 105
95 105
94 105
93 105
92 105
91 104
90 104
89 104
88 104
87 104
86 104
85 104
84 104
83 104
82 104
81 104
80 104
79 104
78 104
77 104
76 104
75 104
74 104
73 104
72 105
71 105
70 105
69 105
69 106
68 107
69 108
70 109
71 109
72 110
73 110
74 111
75 111
76 112
77 112
78 112
79 113
80 113
81 113
82 114
83 115
84 115
85 116
86 116
87 117
88 117
89 118
90 118
91 119
92 120
93 120
94 120
95 121
96 122
97 122
98 123
99 123
100 124
101 125
102 126
103 127
104 128
105 128
106 129
107 130
108 131
109 132
110 132
111 133
112 134
113 135
114 136
115 137
116 138
117 139
118 139
119 140
120 141
121 142
122 143
123 144
124 144
125 145
126 145
127 146
128 146
129 146
130 147
131 147
132 147
133 148
134 149
135 150
136 151
137 152
138 153
139 153
140 154
141 154
142 154
143 155
144 155
145 156
146 156
147 157
148 158
149 159
149 160
150 161
151 162
152 163
153 164
154 165
155 166
156 167
157 168
158 168
159 169
160 169
161 170
162 170
163 170
164 170
165 170
166 170
167 171
168 171
169 171
170 171
171 172
171 173
172 174
173 175
173 176
174 177
174 178
175 179
176 180
177 181
177 182
178 183
179 184
180 184
181 185
182 186
183 186
184 187
185 188
186 188
187 189
188 189
189 190
190 190
191 190
192 190
193 191
194 191
195 191
196 191
197 191
198 191
199 191
200 192
201 192
202 192
203 193
204 193
205 194
206 194
207 194
208 195
209 195
210 196
211 196
212 196
213 197
214 197
215 198
216 198
217 199
218 200
219 201
220 202
221 203
222 204
223 204
224 205
225 206
226 206
227 206
228 207
229 207
230 207
231 207
232 208
233 208
234 208
235 208
236 208
237 208
238 208
239 207
240 207
241 207
242 207
243 207
244 207
245 207
246 207
247 207
248 207
249 207
250 207
251 208
252 208
253 209
254 210
255 210
256 211
257 212
258 212
259 213
260 213
261 214
262 215
263 215
264 216
265 216
266 217
267 217
268 217
269 217
270 217
271 217
272 217
273 217
274 217
275 217
276 217
277 217
278 217
279 216
280 216
281 216
282 216
283 217
284 217
285 217
286 216
287 216
288 216
289 216
290 216
291 216
292 215
293 215
294 215
295 216
296 216
297 216
298 216
299 217
300 218
301 219
302 220
303 221
304 221
305 222
306 222
307 222
308 222
309 222
310 221
311 221
312 221
313 220
314 220
315 220
316 219
317 219
318 219
319 219
320 219
321 219
322 219
323 219
324 219
325 220
326 220
327 221
328 221
329 222
330 222
331 222
332 222
333 223
334 223
335 223
336 224
337 224
338 224
339 225
340 225
341 225
342 225
343 225
344 225
345 225
346 225
347 225
348 225
349 224
350 224
351 224
352 223
353 222
354 221
355 221
356 220
357 220
358 220
359 219
360 219
361 219
362 219
363 218
364 218
365 218
366 218
367 217
368 217
369 217
370 217
371 217
372 217
373 217
374 217
375 217
376 217
377 218
378 218
379 218
380 218
381 218
382 218
383 218
384 218
385 218
386 218
387 218
388 218
389 218
390 219
391 219
392 219
393 219
394 220
395 220
396 221
397 221
398 222
399 222
400 223
401 223
402 223
403 223
404 223
405 223
406 223
407 223
408 223
409 223
410 223
411 223
412 223
413 223
414 223
415 223
416 223
417 223
418 223
419 223
420 223
421 223
422 223
423 223
424 223
425 223
426 223
427 223
428 223
429 222
430 222
431 222
432 222
433 221
434 221
435 221
436 221
437 221
438 220
439 220
440 220
441 220
442 219
443 219
444 219
445 218
446 218
447 218
448 217
449 217
450 217
451 216
452 216
453 216
454 216
455 216
456 216
457 215
458 215
459 215
460 215
461 215
462 215
463 215
464 215
465 216
466 216
467 216
468 216
469 216
470 216
471 216
472 216
473 216
474 216
475 216
476 216
477 216
478 216
479 216
480 215
481 215
482 215
483 215
484 215
485 214
486 214
487 214
488 214
489 214
490 213
491 213
492 213
493 213
494 213
495 213
496 213
497 213
498 213
499 212
500 212
501 212
502 212
503 211
504 211
505 210
506 210
507 209
508 209
509 209
510 208
511 208
512 208
513 207
514 207
515 207
516 207
517 206
518 206
519 206
520 206
521 205
522 205
523 205
524 205
525 205
526 205
527 204
528 204
529 204
530 204
531 203
532 203
533 203
534 202
535 202
536 202
537 201
538 201
539 200
540 200
541 200
542 199
543 199
544 199
545 198
546 198
547 198
548 197
549 197
550 197
551 196
552 196
553 196
554 196
555 195
556 195
557 195
558 194
559 194
560 194
561 193
562 193
563 193
564 192
565 192
566 192
567 191
568 191
569 190
570 190
571 189
572 189
573 189
574 188
575 188
576 187
577 187
578 187
579 186
580 186
581 186
582 185
583 185
584 184
585 184
586 184
587 183
588 183
589 182
590 182
591 182
592 181
593 181
594 180
595 180
596 180
597 179
598 179
599 178
600 178
601 178
602 177
603 177
604 176
605 176
606 176
607 175
608 175
609 174
610 174
611 174
612 173
613 173
614 173
615 172
616 172
617 171
618 171
619 170
620 170
621 170
622 169
623 169
624 169
625 168
626 168
627 167
628 167
629 167
630 166
631 166
632 166
633 165
634 165
635 164
636 164
637 163
638 163
639 162
640 162
641 161
642 161
643 160
644 160
645 160
646 159
647 159
648 158
649 158
650 158
651 158
652 157
653 157
654 157
655 156
656 156
657 156
658 156
659 155
660 155
661 155
662 154
663 154
664 154
665 154
666 153
667 153
668 153
669 153
670 152
671 152
672 152
673 152
674 151
675 151
676 151
677 151
678 150
679 150
680 150
681 150
682 150
683 149
684 149
685 149
686 149
687 149
688 149
689 149
690 148
691 148
692 148
693 148
694 148
695 148
696 148
697 148
698 148
699 147
700 147
701 147
702 147
703 147
704 147
705 147
706 146
707 146
708 146
709 145
710 145
711 144
712 143
712 142
713 141
714 140
714 139
714 138
714 137
713 136
713 135
713 134
712 133
711 133
710 133
709 133
708 134
707 134
706 134
705 134
704 134
703 134
702 134
701 134
700 134
699 135
698 135
697 135
696 135
695 135
694 135
693 135
692 136
691 136
690 136
689 136
688 136
687 136
686 137
685 137
684 137
683 137
682 137
681 137
680 138
679 138
678 138
677 138
676 138
675 138
674 139
673 139
672 139
671 139
670 139
669 139
668 140
667 140
666 140
665 140
664 141
663 141
662 141
661 141
660 142
659 142
658 142
657 142
656 142
655 143
654 143
653 143
652 143
651 143
650 143
649 143
648 143
647 143
646 143
645 143
644 143
643 143
642 143
641 143
640 142
639 142
638 142
637 142
636 142
635 142
634 142
633 141
632 141
631 141
630 141
629 141
628 140
627 140
626 140
625 140
624 140
623 139
622 139
621 139
620 139
619 138
618 138
617 138
616 138
615 138
614 138
613 137
612 137
611 137
610 136
609 136
608 136
607 135
606 135
605 135
604 135
603 134
602 134
601 134
600 133
599 133
598 133
597 133
596 132
595 132
594 132
593 132
592 132
591 132
590 132
589 131
588 131
587 131
586 131
585 130
584 130
583 130
582 130
581 129
580 129
579 129
578 129
577 128
576 128
575 128
574 128
573 128
572 127
571 127
570 127
569 126
568 126
567 125
566 125
565 125
564 125
563 125
562 125
561 124
560 124
559 123
558 123
557 123
556 123
555 123
554 123
553 122
552 122
551 122
550 121
549 121
548 120
547 120
546 120
545 120
544 120
543 119
542 119
541 119
540 119
539 119
538 119
537 118
536 118
535 118
534 117
533 117
532 117
531 117
530 117
529 116
528 116
527 116
526 116
525 116
524 116
523 115
522 115
521 115
520 115
519 115
518 114
517 114
516 114
515 113
514 113
513 113
512 113
511 113
510 112
509 112
508 112
507 112
506 111
505 111
504 111
503 111
502 110
501 110
500 110
499 110
498 110
497 109
496 109
495 109
494 108
493 108
492 108
491 108
490 108
489 107
488 107
487 107
486 107
485 106
484 106
483 106
482 106
481 106
480 106
479 106
478 106
477 106
476 106
475 106
474 106
473 106
472 105
471 105
470 105
469 105
468 105
467 105
466 105
465 105
464 104
463 104
462 104
461 104
460 103
459 103
458 103
457 102
456 102
455 101
454 101
453 101
452 101
451 101
450 101
449 100
448 101
447 100
446 100
445 100
444 100
443 99
442 99
441 99
440 99
439 98
438 98
437 98
436 98
435 98
434 97
433 97
432 98
431 98
430 98
429 98
428 99
427 99
426 99
425 99
424 98
423 98
422 98
421 97
420 97
419 96
418 96
417 95
416 94
415 93
414 93
413 93
412 93
411 92
410 92
409 92
408 92
407 92
406 91
405 91
404 91
403 91
402 90
401 90
400 90
399 90
398 90
397 90
396 90
395 90
394 90
393 89
392 89
391 90
390 90
389 89
388 90
387 91
386 91
385 92
384 92
383 92
382 92
381 92
380 92
379 91
378 91
377 91
376 90
375 90
374 90
373 90
372 90
371 89
370 89
369 89
368 88
367 88
366 87
365 87
364 86
363 86
362 86
361 86
360 86
359 86
358 85
357 86
356 86
355 85
354 85
353 86
352 86
351 86
350 86
349 86
348 86
347 86
346 86
345 85
344 85
343 85
342 85
341 85
340 85
339 85
338 85
337 85
336 85
335 85
334 85
333 85
332 85
331 85
330 85
329 85
328 85
327 85
326 85
325 86
324 86
323 86
322 86
321 85
320 85
319 85
318 85
317 85
316 85
315 85
314 85
313 85
312 85
311 85
310 84
309 84
308 84
307 84
306 84
305 84
304 84
303 84
302 84
301 84
300 84
299 85
298 85
297 85
296 85
295 85
294 85
293 85
292 85
291 85
290 85
289 85
288 85
287 85
286 84
285 84
284 84
283 84
282 84
281 84
