477 40
476 41
476 42
475 43
475 44
475 45
475 46
474 47
474 48
474 49
474 50
474 51
474 52
474 53
474 54
474 55
474 56
474 57
474 58
474 59
474 60
473 61
473 62
473 63
473 64
473 65
473 66
473 67
473 68
473 69
473 70
473 71
473 72
473 73
473 74
473 75
474 76
474 77
474 78
474 79
474 80
474 81
474 82
474 83
474 84
473 85
474 86
474 87
474 88
474 89
474 90
474 91
474 92
474 93
474 94
475 95
475 96
475 97
475 98
475 99
475 100
475 101
475 102
476 103
476 104
476 105
476 106
476 107
476 108
476 109
476 110
476 111
475 112
475 113
475 114
475 115
475 116
475 117
475 118
474 119
474 120
474 121
474 122
474 123
474 124
474 125
474 126
474 127
473 128
473 129
473 130
473 131
473 132
473 133
473 134
473 135
473 136
473 137
474 138
474 139
474 140
474 141
474 142
474 143
474 144
474 145
474 146
474 147
474 148
474 149
474 150
474 151
474 152
474 153
474 154
474 155
474 156
474 157
474 158
474 159
474 160
474 161
474 162
474 163
474 164
474 165
474 166
474 167
474 168
475 169
475 170
475 171
475 172
475 173
475 174
475 175
475 176
475 177
476 178
476 179
476 180
476 181
477 182
477 183
477 184
477 185
477 186
478 187
478 188
478 189
478 190
478 191
478 192
478 193
478 194
478 195
478 196
478 197
478 198
478 199
478 200
479 201
479 202
479 203
479 204
479 205
479 206
479 207
479 208
480 209
480 210
480 211
480 212
480 213
480 214
480 215
480 216
481 217
481 218
481 219
481 220
481 221
482 222
482 223
482 224
482 225
482 226
483 227
483 228
483 229
483 230
484 231
484 232
484 233
485 234
485 235
486 236
486 237
486 238
486 239
487 240
487 241
487 242
488 243
488 244
488 245
489 246
489 247
489 248
490 249
490 250
490 251
490 252
491 253
491 254
492 255
492 256
492 257
493 258
493 259
494 260
494 261
495 262
495 263
496 264
496 265
496 266
497 267
497 268
497 269
498 270
498 271
499 272
500 273
500 274
501 275
501 276
502 277
502 278
503 279
504 280
504 281
505 282
505 283
506 284
507 285
507 286
508 287
509 288
509 289
510 290
511 291
511 292
512 293
513 294
513 295
514 296
514 297
514 298
515 299
516 300
516 301
516 302
517 303
517 304
518 305
519 306
519 307
520 308
520 309
520 310
521 311
521 312
521 313
521 314
522 315
522 316
522 317
522 318
522 319
522 320
521 321
520 320
519 319
518 318
517 317
516 316
515 315
514 314
513 313
512 312
511 311
510 310
509 309
508 308
507 307
507 306
506 305
505 305
504 304
504 303
503 302
502 301
501 300
500 299
499 298
498 297
498 296
497 295
496 294
495 293
494 292
493 291
492 290
491 289
490 288
490 287
489 286
488 285
487 284
486 283
485 282
485 281
484 280
483 279
482 278
481 277
480 276
479 275
479 274
478 273
477 272
476 271
475 270
474 269
473 268
472 267
471 266
470 265
469 264
468 263
467 262
466 261
465 260
464 259
463 258
462 257
461 257
460 256
459 255
458 254
457 253
456 252
455 251
454 250
453 249
452 248
451 247
450 246
449 246
448 245
447 244
446 243
445 243
444 242
443 241
442 241
441 240
440 239
439 239
438 238
437 237
436 237
435 236
434 236
433 235
432 234
431 234
430 233
429 232
428 232
427 231
426 230
425 229
424 229
423 228
422 227
421 227
420 226
419 225
418 225
417 224
416 223
415 223
414 222
413 222
412 221
411 221
410 220
409 220
408 219
407 219
406 219
405 218
404 218
403 217
402 217
401 216
400 215
399 215
398 215
397 214
396 214
395 213
394 212
393 212
392 212
391 211
390 210
389 210
388 209
387 208
386 208
385 207
384 206
383 205
382 204
381 204
380 203
379 202
378 202
377 201
376 200
375 199
374 198
373 197
372 197
371 196
370 195
369 194
368 193
367 192
366 191
365 191
364 190
363 189
362 189
361 188
360 188
359 187
358 186
357 186
356 185
355 185
354 184
353 184
352 183
351 183
350 182
349 181
348 181
347 180
346 180
345 179
344 179
343 178
342 177
341 177
340 176
339 175
338 175
337 174
336 173
335 173
334 172
333 171
332 171
331 170
330 170
329 169
328 169
327 168
326 168
325 168
324 168
323 167
322 167
321 167
320 166
319 166
318 165
317 165
316 164
315 164
314 163
313 163
312 162
311 162
310 161
309 161
308 160
307 159
306 158
305 158
304 157
303 157
302 156
301 156
300 155
299 155
298 154
297 154
296 153
295 153
294 152
293 152
292 151
291 151
290 150
289 150
288 149
287 149
286 148
285 148
284 147
283 147
282 146
281 146
280 145
279 145
278 144
277 144
276 143
275 142
274 142
273 141
272 141
271 141
270 140
269 140
268 140
267 140
266 139
265 139
264 138
263 138
262 137
261 137
260 137
259 136
258 136
257 136
256 135
255 135
254 134
253 134
252 134
251 133
250 133
249 132
248 132
247 131
246 131
245 130
244 130
243 130
242 129
241 129
240 128
239 128
238 127
237 127
236 126
235 126
234 125
233 125
232 124
231 124
230 123
229 123
228 122
227 122
226 121
225 121
224 120
223 120
222 119
221 119
220 119
219 118
218 118
217 117
216 117
215 117
214 116
213 116
212 115
211 115
210 115
209 114
208 114
207 114
206 113
205 113
204 113
203 112
202 112
201 111
200 111
199 110
198 110
197 110
196 109
195 109
194 109
193 108
192 108
191 108
190 108
189 107
188 107
187 107
186 107
185 107
184 106
183 106
182 106
181 106
180 106
179 105
178 105
177 105
176 105
175 105
174 105
173 105
172 106
171 106
170 107
171 108
172 109
173 110
174 111
175 112
176 113
177 114
178 115
179 116
180 117
181 118
182 118
183 119
184 120
185 121
186 122
187 123
188 124
189 125
190 126
191 127
192 128
193 128
194 129
195 129
196 130
197 131
198 131
199 132
200 133
201 134
202 135
203 135
204 136
205 137
206 137
207 138
208 138
209 139
210 140
211 140
212 141
213 142
214 142
215 143
216 144
217 145
218 146
219 146
220 147
221 148
222 149
223 150
224 151
225 152
225 153
226 154
227 155
228 156
229 157
230 158
231 159
232 160
233 161
234 162
235 163
236 164
237 164
238 165
239 166
240 167
241 168
242 169
243 170
244 171
244 172
245 172
246 173
247 174
248 175
249 175
250 176
251 177
252 177
253 178
254 179
255 180
256 180
257 181
258 181
259 182
260 183
261 184
262 184
263 185
264 185
265 186
266 187
267 188
268 188
269 189
270 190
271 191
272 192
273 193
274 194
275 195
276 196
277 197
278 197
279 198
280 199
281 200
282 201
283 202
284 203
285 204
286 205
287 206
288 207
289 208
289 209
290 210
291 211
292 212
293 213
294 214
295 215
295 216
296 217
297 218
298 219
299 220
300 221
301 222
302 223
303 223
304 224
305 225
306 226
307 227
308 228
309 229
310 230
311 231
312 232
313 233
314 234
315 235
316 235
317 236
318 236
319 237
320 238
321 239
322 240
323 240
324 241
325 241
326 242
327 243
328 243
329 244
330 245
331 245
332 246
333 247
334 248
335 248
336 249
337 250
338 251
339 251
340 252
341 253
342 253
343 254
344 255
345 256
346 256
347 257
348 258
349 258
350 259
351 260
352 260
353 261
354 261
355 262
356 263
357 263
358 264
359 264
360 265
361 265
362 266
363 266
364 267
365 267
366 268
367 268
368 269
369 269
370 270
371 270
372 271
373 271
374 272
375 272
376 273
377 273
378 274
379 275
378 276
377 276
376 276
375 276
374 276
373 276
372 276
371 275
370 275
369 275
368 275
367 275
366 275
365 275
364 274
363 274
362 274
361 274
360 274
359 274
358 274
357 274
356 274
355 274
354 274
353 274
352 273
351 273
350 273
349 273
348 273
347 273
346 273
345 272
344 272
343 272
342 272
341 271
340 271
339 271
338 271
337 270
336 270
335 270
334 269
333 269
332 269
331 268
330 268
329 268
328 268
327 267
326 267
325 267
324 266
323 266
322 266
321 266
320 266
319 266
318 265
317 265
316 265
315 265
314 265
313 265
312 264
311 264
310 264
309 264
308 264
307 264
306 263
305 263
304 263
303 263
302 262
301 262
300 262
299 262
298 262
297 262
296 262
295 261
294 261
293 261
292 261
291 261
290 261
289 261
288 261
287 261
286 261
285 261
284 261
283 261
282 261
281 261
280 261
279 261
278 261
277 261
276 261
275 261
274 261
273 261
272 261
271 261
270 261
269 260
268 260
267 260
266 260
265 260
264 260
263 260
262 260
261 260
260 260
259 260
258 259
257 259
256 259
255 259
254 259
253 259
252 259
251 259
250 259
249 259
248 259
247 259
246 259
245 258
244 258
243 258
242 258
241 258
240 258
239 258
238 258
237 258
236 258
235 258
234 258
233 258
232 258
231 257
230 257
229 257
228 257
227 257
226 257
225 257
224 256
223 256
222 256
221 256
220 256
219 256
218 256
217 256
216 256
215 255
214 255
213 255
212 255
211 255
210 255
209 255
208 254
207 254
206 254
205 254
204 254
203 254
202 254
201 254
200 254
199 253
198 253
197 253
196 253
195 253
194 253
193 253
192 253
191 253
190 253
189 253
188 253
187 253
186 253
185 253
184 253
183 253
182 253
181 253
180 253
179 253
178 253
177 253
176 253
175 253
174 253
173 253
172 253
171 253
170 253
169 253
168 253
167 253
166 253
165 253
164 253
163 253
162 253
161 253
160 253
159 253
158 253
157 253
156 253
155 253
154 253
153 253
152 254
151 254
150 254
149 254
148 254
147 254
146 254
145 254
144 254
143 254
142 254
141 254
140 255
139 255
138 255
137 255
136 255
135 255
134 255
133 255
132 255
131 255
130 255
129 255
128 255
127 255
126 255
125 255
124 255
123 255
122 255
121 255
120 256
119 256
118 256
117 256
116 256
115 256
114 256
113 256
112 256
111 256
110 256
109 256
108 256
107 256
106 256
105 256
104 256
103 256
102 256
101 256
100 256
99 256
98 256
97 256
96 256
95 256
94 256
93 256
92 256
91 256
90 256
89 257
88 257
87 257
86 257
85 257
84 257
83 257
82 257
81 257
80 257
79 257
78 257
77 257
76 257
75 257
74 257
73 257
72 257
71 257
70 257
69 257
68 257
67 257
66 257
65 257
64 257
63 257
62 257
61 257
60 257
59 257
58 257
57 257
56 257
55 257
54 257
53 257
52 257
51 257
50 257
49 257
48 257
47 257
46 257
45 257
44 257
43 258
42 258
41 258
40 258
39 258
38 258
37 258
36 259
35 259
34 259
33 259
32 259
31 259
30 260
29 260
28 260
27 260
26 260
25 260
24 260
23 260
22 261
21 261
21 262
21 263
22 264
23 265
24 265
25 266
26 266
27 267
28 267
29 267
30 268
31 268
32 268
33 269
34 269
35 270
36 270
37 271
38 271
39 272
40 272
41 273
42 273
43 273
44 274
45 274
46 274
47 275
48 275
49 275
50 276
51 276
52 276
53 277
54 277
55 278
56 278
57 279
58 279
59 280
60 280
61 281
62 281
63 282
64 282
65 283
66 283
67 284
68 284
69 284
70 285
71 285
72 285
73 286
74 286
75 287
76 287
77 287
78 288
79 288
80 288
81 289
82 289
83 290
84 290
85 291
86 291
87 291
88 292
89 292
90 292
91 293
92 293
93 294
94 294
95 294
96 295
97 295
98 295
99 296
100 296
101 297
102 297
103 297
104 297
105 298
106 298
107 298
108 299
109 299
110 299
111 300
112 300
113 300
114 301
115 301
116 301
117 302
118 302
119 302
120 302
121 303
122 303
123 303
124 304
125 304
126 304
127 305
128 305
129 306
130 307
131 307
132 307
133 308
134 308
135 309
136 309
137 310
138 310
139 310
140 311
141 311
142 312
143 312
144 312
145 313
146 313
147 313
148 313
149 314
150 314
151 314
152 315
153 315
154 315
155 316
156 316
157 317
158 317
159 317
160 318
161 318
162 319
163 319
164 319
165 319
166 320
167 320
168 320
169 320
170 320
171 320
172 320
173 320
174 320
175 321
176 321
177 321
178 321
179 322
180 322
181 322
182 323
183 323
184 323
185 324
186 324
187 324
188 325
189 325
190 325
191 325
192 326
193 326
194 326
195 326
196 327
197 327
198 327
199 327
200 327
201 328
202 328
203 328
204 328
205 328
206 328
207 328
208 328
209 329
210 329
211 329
212 329
213 329
214 330
215 330
216 330
217 330
218 331
219 331
220 331
221 331
222 332
223 332
224 332
225 333
226 333
227 334
228 334
229 334
230 334
231 335
232 335
233 335
234 335
235 336
236 336
237 336
238 336
239 336
240 336
241 336
242 336
243 336
244 337
245 337
246 337
247 337
248 337
249 337
250 337
251 337
252 338
253 338
254 338
255 338
256 339
257 339
258 339
259 339
260 339
261 340
262 340
263 340
264 340
265 341
266 341
267 341
268 341
269 341
270 342
271 342
272 342
273 342
274 342
275 342
276 342
277 342
278 342
279 342
280 342
281 342
282 342
283 342
284 342
285 342
286 342
287 342
288 342
289 343
290 343
291 343
292 343
293 343
294 344
295 344
296 344
297 345
298 345
299 345
300 346
301 346
302 346
303 347
304 347
305 347
306 347
307 347
308 348
309 348
310 348
311 348
312 348
313 348
314 348
315 349
316 349
317 349
318 349
319 349
320 349
321 349
322 349
323 349
324 349
325 349
326 349
327 349
328 349
329 349
330 349
331 349
332 349
333 349
334 349
335 349
336 349
337 349
338 349
339 350
340 350
341 350
342 350
343 350
344 350
345 350
346 350
347 350
348 350
349 351
350 351
351 351
352 351
353 351
354 351
355 352
356 352
357 352
358 352
359 352
360 352
361 352
362 352
363 352
364 352
365 352
366 352
367 352
368 352
369 352
370 352
371 352
372 351
373 351
374 351
375 351
376 351
377 350
378 350
379 349
380 349
381 349
382 349
383 348
384 348
385 348
386 348
387 347
388 347
389 347
390 347
391 346
392 346
393 346
394 346
395 346
396 345
397 345
398 345
399 345
400 345
401 344
402 344
403 344
404 344
405 344
406 344
407 343
408 343
409 343
410 343
411 343
412 342
413 342
414 342
415 342
416 342
417 341
418 341
419 341
420 341
421 341
422 341
423 341
424 340
425 340
426 340
427 340
428 339
429 339
430 339
431 339
432 339
433 338
434 338
435 338
436 338
437 337
438 337
439 337
440 336
441 336
442 336
443 335
444 335
445 335
446 334
447 334
448 333
449 333
450 333
451 332
452 332
453 332
454 331
455 331
456 331
457 330
458 330
459 330
460 330
461 330
462 330
463 329
464 329
465 329
466 329
467 329
468 329
469 329
470 329
471 329
472 329
473 329
474 329
475 329
476 329
477 329
478 329
479 329
480 329
481 329
482 329
483 329
484 329
485 329
486 329
487 329
488 329
489 329
490 330
491 330
492 330
493 330
494 330
495 330
496 331
497 331
498 331
499 331
500 331
501 332
502 332
503 332
504 332
505 332
506 333
507 333
508 333
509 333
510 333
511 334
512 334
513 335
512 336
511 336
510 336
509 337
508 337
507 337
506 337
505 338
504 338
503 338
502 338
501 339
500 339
499 339
498 339
497 340
496 340
495 340
494 340
493 341
492 341
491 341
490 342
489 342
488 342
487 342
486 343
485 343
484 343
483 343
482 343
481 344
480 344
479 344
478 344
477 344
476 345
475 345
474 345
473 345
472 345
471 345
470 345
469 345
468 345
467 346
466 346
465 346
464 346
463 346
462 346
461 346
460 346
459 346
458 346
457 346
456 347
455 347
454 347
453 347
452 347
451 347
450 347
449 347
448 348
447 348
446 348
445 348
444 348
443 348
442 348
441 348
440 348
439 348
438 348
437 348
436 349
435 349
434 349
433 349
432 349
431 349
430 349
429 349
428 349
427 349
426 349
425 349
424 350
423 350
422 350
421 350
420 350
419 350
418 351
417 351
416 351
415 351
414 351
413 352
412 352
411 352
410 353
409 353
408 353
407 353
406 353
405 354
404 354
403 354
402 354
401 355
400 355
399 355
398 356
397 356
396 356
395 356
394 356
393 357
392 357
391 357
390 358
389 358
388 358
387 359
386 359
385 359
384 359
383 360
382 360
381 360
380 360
379 361
378 361
377 361
376 361
375 362
374 362
373 362
372 362
371 363
370 363
369 363
368 363
367 363
366 363
365 363
364 364
363 364
362 364
361 365
360 365
359 365
358 366
357 366
356 366
355 367
354 367
353 367
352 368
351 368
350 368
349 369
348 369
347 369
346 369
345 370
344 370
343 370
342 371
341 371
340 372
339 372
338 373
337 373
336 374
335 374
334 374
333 375
332 375
331 375
330 376
329 376
328 376
327 377
326 377
325 378
324 378
323 379
322 379
321 380
320 380
319 381
318 381
317 382
316 383
315 383
314 384
313 384
312 385
311 385
310 386
309 386
308 387
307 387
306 388
305 388
304 388
303 389
302 389
301 390
300 390
299 391
298 391
297 392
296 392
295 393
294 394
293 394
292 395
291 395
290 396
289 396
288 397
287 398
286 398
285 399
284 399
283 400
282 400
281 401
280 401
279 402
278 402
277 403
276 403
275 404
274 404
273 405
272 405
271 406
270 406
269 407
268 407
267 408
266 409
265 409
264 410
263 411
262 411
261 412
260 412
259 413
258 413
257 414
256 414
255 414
254 415
253 415
252 416
251 416
250 417
249 417
248 418
247 418
246 419
245 419
244 420
243 421
242 421
241 422
240 423
239 423
238 424
237 424
236 425
235 426
234 427
233 427
232 428
231 429
230 429
229 430
228 431
227 431
226 432
225 433
224 433
223 434
222 434
221 435
220 436
219 436
218 437
217 438
216 439
215 439
214 440
213 441
212 442
211 443
210 444
209 445
208 446
207 447
206 448
205 448
204 449
203 450
202 451
201 451
200 452
199 453
198 454
197 455
196 456
195 456
194 457
193 458
192 459
191 459
190 460
189 461
188 461
187 462
186 463
185 464
184 465
183 465
182 466
181 467
180 467
179 468
178 469
177 469
176 470
175 471
174 472
173 473
172 474
171 475
170 476
169 476
168 477
167 478
166 478
165 478
164 479
163 479
162 480
161 480
160 481
159 481
158 481
157 482
156 482
155 483
154 484
153 484
152 484
151 485
150 485
149 486
148 486
147 487
146 487
145 488
144 489
143 489
142 490
141 490
140 491
139 491
138 492
137 493
136 493
135 494
134 494
133 495
132 496
131 496
130 497
129 497
128 498
127 499
126 499
125 500
124 501
123 501
122 502
121 502
120 502
119 503
118 503
117 504
116 504
115 505
114 506
113 506
112 507
111 508
110 508
109 509
108 510
107 511
106 511
105 512
104 513
103 514
102 515
101 515
100 516
99 517
98 518
97 519
97 520
96 521
96 522
96 523
97 524
98 524
99 524
100 525
101 525
102 525
103 524
104 524
105 524
106 524
107 524
108 524
109 523
110 523
111 523
112 523
113 522
114 522
115 522
116 522
117 522
118 521
119 521
120 521
121 521
122 521
123 520
124 520
125 520
126 520
127 520
128 519
129 519
130 519
131 519
132 518
133 518
134 518
135 518
136 517
137 517
138 516
139 516
140 516
141 516
142 515
143 515
144 515
145 515
146 514
147 514
148 514
149 514
150 513
151 513
152 513
153 513
154 513
155 512
156 512
157 512
158 512
159 511
160 511
161 511
162 510
163 510
164 510
165 510
166 510
167 509
168 509
169 509
170 509
171 509
172 509
173 509
174 509
175 509
176 508
177 508
178 508
179 508
180 507
181 507
182 507
183 506
184 506
185 506
186 506
187 505
188 505
189 505
190 505
191 504
192 504
193 504
194 503
195 503
196 503
197 503
198 502
199 502
200 502
201 502
202 501
203 501
204 501
205 501
206 500
207 500
208 500
209 500
210 500
211 499
212 499
213 498
214 498
215 498
216 497
217 497
218 497
219 497
220 496
221 496
222 496
223 496
224 496
225 495
226 495
227 495
228 495
229 495
230 494
231 494
232 494
233 493
234 493
235 493
236 493
237 492
238 492
239 492
240 492
241 491
242 491
243 491
244 491
245 490
246 490
247 490
248 490
249 489
250 489
251 488
252 488
253 488
254 487
255 487
256 486
257 486
258 486
259 485
260 485
261 485
262 484
263 484
264 483
265 483
266 482
267 482
268 481
269 481
270 480
271 480
272 479
273 478
274 478
275 478
276 477
277 477
278 476
279 476
280 476
281 475
282 475
283 474
284 474
285 473
286 473
287 472
288 472
289 472
290 471
291 471
292 471
293 470
294 470
295 469
296 469
297 469
298 469
299 468
300 468
301 468
302 468
303 467
304 467
305 467
306 467
307 467
308 467
309 467
310 466
311 466
312 466
313 465
314 465
315 465
316 465
317 464
318 464
319 464
320 464
321 463
322 463
323 462
324 462
325 462
326 462
327 461
328 461
329 461
330 461
331 461
332 460
333 460
334 460
335 460
336 460
337 459
338 459
339 458
340 458
341 458
342 458
343 457
344 457
345 456
346 456
347 455
348 455
349 455
350 454
351 454
352 454
353 453
354 453
355 452
356 452
357 452
358 451
359 451
360 450
361 450
362 449
363 449
364 449
365 448
366 448
367 447
368 447
369 446
370 445
371 445
372 444
373 443
374 443
375 442
376 441
377 441
378 440
379 439
380 439
381 438
382 438
383 437
384 436
385 436
386 435
387 434
388 434
389 433
390 432
391 432
392 431
393 430
394 429
395 428
396 428
397 427
398 426
399 425
400 425
401 424
402 423
403 422
404 422
405 421
406 420
407 419
408 419
409 418
410 417
411 417
412 416
413 415
414 415
415 414
416 413
417 413
418 412
419 411
420 411
421 410
422 409
423 408
424 407
425 406
426 406
426 405
427 404
428 404
428 403
429 402
430 402
431 401
432 400
433 399
434 398
435 397
436 396
437 395
438 394
439 393
440 392
441 391
442 390
443 389
444 388
445 387
446 387
447 386
448 385
449 384
450 383
451 382
452 381
453 380
454 379
455 378
456 377
457 376
458 375
459 374
460 374
461 373
462 372
463 371
464 370
465 369
466 368
467 368
468 367
469 366
470 365
471 364
472 364
473 363
474 362
475 361
476 361
477 360
478 359
479 358
480 358
481 357
482 357
483 356
484 356
485 355
486 354
487 354
488 353
489 353
490 352
491 352
492 351
493 350
494 350
495 349
496 349
497 349
498 348
499 348
500 348
501 347
502 347
503 346
504 346
505 346
506 346
507 345
508 345
509 345
510 345
511 346
510 347
509 348
508 349
507 350
507 351
506 352
505 353
504 354
503 355
502 356
501 357
500 358
499 358
498 359
497 360
496 361
495 362
494 363
493 363
492 364
491 365
490 366
489 366
488 367
487 368
486 369
485 369
484 370
483 370
482 371
481 371
480 372
479 372
478 373
477 374
476 375
475 376
474 376
473 377
472 378
471 378
470 379
469 380
468 381
467 382
466 382
465 383
464 384
463 384
462 385
461 385
460 386
459 387
458 387
457 388
456 389
455 389
454 390
453 391
452 391
451 392
450 393
449 394
448 395
447 396
446 397
445 398
444 399
443 400
442 401
441 402
440 403
439 404
438 405
437 406
436 407
436 408
435 409
434 409
434 410
433 411
432 412
432 413
431 414
430 415
429 416
428 417
427 418
427 419
426 420
425 421
424 422
424 423
423 424
422 425
421 426
420 427
419 428
418 429
418 430
417 431
416 432
415 433
415 434
414 435
413 436
413 437
412 438
411 439
410 440
409 441
408 442
408 443
407 444
406 445
406 446
405 447
404 448
403 449
403 450
402 451
401 452
401 453
401 454
400 455
399 456
398 457
397 458
396 459
396 460
395 461
394 462
394 463
393 464
392 465
392 466
391 467
390 468
390 469
389 470
389 471
388 472
387 473
386 474
386 475
385 476
385 477
384 478
383 479
383 480
382 481
381 482
381 483
380 484
379 485
379 486
378 487
378 488
377 489
376 490
376 491
375 492
374 493
374 494
373 495
372 496
372 497
372 498
371 499
371 500
370 501
370 502
369 503
369 504
368 505
367 506
366 507
366 508
365 509
364 510
364 511
363 512
362 513
362 514
361 515
361 516
360 517
360 518
359 519
359 520
358 521
358 522
357 523
357 524
356 525
356 526
355 527
355 528
354 529
354 530
353 531
353 532
352 533
352 534
352 535
351 536
351 537
351 538
350 539
350 540
350 541
350 542
350 543
349 544
349 545
348 546
348 547
348 548
347 549
347 550
346 551
346 552
345 553
345 554
345 555
344 556
344 557
344 558
343 559
343 560
342 561
342 562
341 563
341 564
340 565
340 566
340 567
339 568
339 569
338 570
338 571
338 572
337 573
337 574
336 575
336 576
335 577
335 578
334 579
334 580
333 581
333 582
332 583
332 584
331 585
331 586
330 587
330 588
329 589
329 590
328 591
328 592
327 593
327 594
326 595
326 596
326 597
325 598
325 599
325 600
324 601
324 602
324 603
324 604
323 605
323 606
323 607
323 608
323 609
323 610
323 611
323 612
323 613
323 614
323 615
323 616
324 616
325 615
326 615
327 614
328 613
329 613
330 612
331 611
332 610
333 609
334 608
335 607
336 606
337 605
338 604
339 603
340 602
340 601
341 600
342 599
342 598
343 597
344 596
345 595
346 594
346 593
347 592
348 591
349 590
350 589
351 588
352 587
352 586
353 585
354 584
355 583
356 582
357 581
358 580
359 579
360 578
361 577
362 577
363 576
364 575
365 574
366 574
367 573
368 572
369 571
370 570
371 570
372 569
373 568
374 567
375 566
376 565
377 564
378 563
379 563
380 562
381 561
382 560
383 559
384 558
385 558
386 557
387 556
388 555
389 554
390 553
391 552
392 551
393 550
394 549
395 548
396 547
397 546
398 545
399 544
400 543
401 542
402 541
403 540
404 539
405 538
406 537
407 536
408 535
409 534
410 534
411 533
412 532
413 531
414 530
414 529
415 528
416 528
417 527
418 526
419 525
420 525
421 524
422 523
423 522
424 521
425 521
426 520
427 519
428 518
429 517
430 516
431 515
432 514
433 513
434 512
435 511
436 511
436 510
437 509
438 508
439 508
440 507
441 506
442 505
443 504
444 503
445 502
446 501
447 500
448 499
448 498
449 497
450 496
451 496
452 495
453 494
454 493
455 492
456 491
457 491
458 490
459 489
460 488
461 487
462 486
463 485
464 484
465 483
466 482
467 481
468 481
468 480
469 479
470 478
471 477
472 476
472 475
473 474
474 473
474 472
475 471
476 470
476 469
477 468
478 467
479 466
480 465
480 464
481 463
482 462
482 461
483 460
484 459
484 458
485 457
485 456
486 455
486 454
487 453
487 452
487 451
488 450
488 449
489 448
489 447
489 446
489 445
490 444
490 443
491 442
491 441
491 440
492 439
492 438
493 437
493 436
494 435
494 434
494 433
495 432
495 431
495 430
496 429
496 428
496 427
497 426
497 425
497 424
498 423
498 422
498 421
498 420
499 419
499 418
499 417
500 416
500 415
500 414
500 413
501 412
501 411
501 410
501 409
501 408
501 407
502 406
502 405
502 404
502 403
502 402
502 401
502 400
503 399
503 398
503 397
503 396
503 395
503 394
503 393
504 392
504 391
504 390
504 389
505 388
505 387
505 386
505 385
505 384
505 383
506 382
506 381
506 380
506 379
506 378
507 377
507 376
507 375
508 374
508 373
508 372
508 371
509 370
509 369
509 368
509 367
510 366
510 365
510 364
510 363
511 362
511 361
511 360
512 359
512 358
513 357
513 356
514 355
514 354
515 353
516 352
517 351
518 350
519 349
520 348
521 348
522 348
523 348
524 349
525 350
525 351
526 352
526 353
526 354
527 355
527 356
528 357
528 358
529 359
529 360
529 361
530 362
530 363
531 364
532 365
532 366
533 367
533 368
534 369
535 370
535 371
536 372
537 373
538 374
539 375
540 376
541 376
542 377
543 378
544 378
545 379
546 379
547 379
548 379
549 380
550 379
550 378
551 377
550 376
550 375
550 374
550 373
550 372
550 371
549 370
549 369
548 368
548 367
548 366
547 365
547 364
546 363
546 362
545 361
545 360
544 359
544 358
544 357
543 356
543 355
543 354
542 353
542 352
542 351
541 350
541 349
541 348
540 347
540 346
539 345
539 344
538 343
537 342
537 341
536 340
535 339
534 338
535 337
536 337
537 336
538 336
539 335
540 335
541 335
542 335
543 334
544 334
545 334
546 334
547 334
548 334
549 334
550 334
551 334
552 334
553 334
554 334
555 333
556 333
557 333
558 333
559 333
560 333
561 332
562 332
563 332
564 332
565 332
566 331
567 331
568 331
569 331
570 331
571 331
572 331
573 330
574 330
575 330
576 330
577 330
578 330
579 330
580 330
581 329
582 329
583 329
584 329
585 329
586 329
587 328
588 328
589 328
590 328
591 328
592 327
593 327
594 327
595 327
596 327
597 326
598 326
599 326
600 326
601 326
602 326
603 325
604 325
605 325
606 325
607 325
608 325
609 325
610 325
611 325
612 324
613 324
614 324
615 324
616 324
617 324
618 323
619 323
620 323
621 323
622 322
623 322
624 322
625 321
626 321
627 321
628 320
629 320
630 320
631 319
632 318
632 317
632 316
632 315
631 314
630 314
629 314
628 313
627 313
626 312
625 312
624 311
623 311
622 311
621 311
620 310
619 310
618 310
617 310
616 309
615 309
614 309
613 309
612 309
611 308
610 308
609 308
608 307
607 306
608 305
609 304
610 303
611 303
612 303
613 302
614 302
615 301
616 301
617 301
618 300
619 300
620 299
621 299
622 299
623 298
624 298
625 297
626 297
627 297
628 296
629 296
630 295
631 295
632 295
633 294
634 294
635 294
636 293
637 293
638 292
639 292
640 292
641 291
642 291
643 290
644 290
645 290
646 289
647 289
648 289
649 288
650 288
651 288
652 287
653 287
654 287
655 286
656 286
657 286
658 285
659 285
660 285
661 284
662 284
663 284
664 283
665 283
666 283
667 282
668 282
669 282
670 281
671 281
672 281
673 281
674 280
675 280
676 280
677 280
678 279
679 279
680 279
681 278
682 278
683 278
684 278
685 277
686 277
687 277
688 276
689 276
690 276
691 276
692 275
693 275
694 275
695 275
696 274
697 274
698 274
699 273
700 273
701 273
702 273
703 272
704 272
705 272
706 272
707 271
708 271
709 271
710 271
711 270
712 270
713 270
714 270
715 269
716 269
717 269
718 268
719 268
720 268
721 268
722 267
723 267
724 267
725 267
726 266
727 266
728 266
729 265
730 265
731 265
732 265
733 264
734 264
735 264
736 263
737 263
738 263
739 263
740 262
741 262
742 262
743 261
744 261
745 261
746 260
747 260
748 260
749 259
750 259
751 259
752 258
753 258
754 257
755 257
756 256
757 256
758 256
759 255
760 254
761 254
762 253
763 253
764 252
765 252
766 251
767 251
768 250
768 249
769 248
769 247
769 246
769 245
768 244
768 243
768 242
768 241
767 240
766 240
765 240
764 241
763 241
762 242
761 243
760 244
759 244
758 245
757 245
756 246
755 246
754 247
753 247
752 248
751 248
750 248
749 249
748 249
747 249
746 250
745 250
744 250
743 251
742 251
741 251
740 252
739 252
738 253
737 253
736 253
735 254
734 254
733 254
732 254
731 255
730 255
729 255
728 256
727 256
726 256
725 257
724 257
723 257
722 258
721 258
720 258
719 258
718 259
717 259
716 259
715 260
714 260
713 260
712 261
711 261
710 261
709 262
708 262
707 262
706 262
705 263
704 263
703 263
702 264
701 264
700 264
699 265
698 265
697 265
696 265
695 266
694 266
693 266
692 266
691 267
690 267
689 267
688 268
687 268
686 268
685 269
684 269
683 269
682 269
681 270
680 270
679 270
678 271
677 271
676 271
675 272
674 272
673 272
672 273
671 273
670 273
669 273
668 274
667 274
666 274
665 275
664 275
663 275
662 276
661 276
660 276
659 277
658 277
657 277
656 278
655 278
654 278
653 279
652 279
651 279
650 280
649 280
648 280
647 281
646 281
645 281
644 282
643 282
642 283
641 283
640 283
639 283
638 284
637 284
636 285
635 285
634 285
633 286
632 286
631 287
630 287
629 287
628 288
627 288
626 288
625 289
624 289
623 290
622 290
621 290
620 291
619 291
618 292
617 292
616 293
615 293
614 293
613 294
612 294
611 295
610 295
609 295
608 296
607 296
606 297
605 297
604 298
603 298
602 298
601 299
600 300
599 300
598 300
597 301
596 301
595 302
594 302
593 302
592 303
591 303
590 304
589 304
588 304
587 305
586 305
585 304
584 304
583 305
582 305
581 305
580 305
579 305
578 305
577 305
576 305
575 305
574 305
573 305
572 305
571 305
570 306
569 306
568 306
567 307
566 307
565 307
564 308
563 308
562 308
561 308
560 309
559 309
558 310
557 310
556 310
555 311
554 311
553 312
552 312
551 312
550 313
549 313
548 313
547 314
546 314
545 314
544 315
543 316
542 316
541 317
540 317
539 318
538 318
537 319
536 320
535 320
534 321
533 321
532 322
531 322
530 323
529 323
528 322
528 321
528 320
528 319
527 318
527 317
527 316
527 315
528 314
528 313
528 312
528 311
529 310
529 309
529 308
529 307
530 306
530 305
530 304
531 303
531 302
531 301
531 300
532 299
532 298
532 297
533 296
533 295
534 294
534 293
534 292
535 291
535 290
535 289
535 288
535 287
536 286
536 285
536 284
536 283
537 282
537 281
537 280
538 279
538 278
538 277
538 276
539 275
539 274
539 273
539 272
540 271
540 270
540 269
540 268
540 267
540 266
541 265
541 264
541 263
541 262
541 261
541 260
541 259
541 258
541 257
542 256
542 255
542 254
542 253
542 252
542 251
542 250
542 249
542 248
542 247
543 246
543 245
543 244
543 243
543 242
543 241
543 240
542 239
542 238
542 237
542 236
542 235
542 234
542 233
542 232
541 231
541 230
541 229
541 228
541 227
540 226
540 225
540 224
540 223
540 222
540 221
540 220
540 219
540 218
540 217
539 216
539 215
539 214
539 213
539 212
539 211
539 210
539 209
539 208
539 207
539 206
539 205
539 204
538 203
538 202
538 201
538 200
538 199
538 198
538 197
538 196
538 195
538 194
538 193
538 192
537 191
537 190
537 189
537 188
537 187
536 186
536 185
536 184
535 183
535 182
535 181
534 180
534 179
533 178
533 177
532 176
532 175
531 174
531 173
530 172
530 171
529 170
529 169
529 168
528 167
528 166
528 165
527 164
527 163
526 162
526 161
525 160
525 159
525 158
524 157
524 156
523 155
523 154
523 153
522 152
522 151
522 150
521 149
521 148
521 147
520 146
520 145
519 144
519 143
518 142
518 141
517 140
517 139
516 138
516 137
515 136
514 135
514 134
513 133
513 132
512 131
511 130
511 129
510 128
510 127
509 126
509 125
508 124
508 123
508 122
507 121
507 120
507 119
506 118
506 117
506 116
505 115
505 114
505 113
504 112
504 111
504 110
503 109
503 108
502 107
502 106
502 105
501 104
501 103
500 102
500 101
499 100
499 99
499 98
498 97
498 96
497 95
497 94
497 93
496 92
496 91
496 90
496 89
495 88
495 87
494 86
494 85
494 84
494 83
493 82
493 81
493 80
493 79
493 78
492 77
492 76
492 75
492 74
491 73
491 72
490 71
490 70
490 69
490 68
489 67
489 66
489 65
488 64
488 63
488 62
487 61
487 60
487 59
486 58
486 57
486 56
486 55
485 54
485 53
485 52
484 51
484 50
484 49
483 48
483 47
482 46
482 45
481 44
480 43
480 42
479 41
478 40
477 40
