54 313
54 314
54 315
54 316
54 317
54 318
54 319
54 320
54 321
54 322
54 323
54 324
54 325
54 326
55 327
56 328
57 328
58 329
59 330
60 331
61 331
62 332
63 332
64 333
65 333
66 334
67 334
68 335
69 336
70 336
71 337
72 338
73 338
74 339
75 340
76 341
77 342
78 343
79 344
80 345
81 346
82 346
83 346
84 347
85 347
86 347
87 347
88 348
89 348
90 348
91 348
92 348
93 349
94 349
95 349
96 349
97 349
98 349
99 349
100 349
101 349
102 349
103 349
104 349
105 350
106 350
107 351
108 351
109 352
110 352
111 352
112 352
113 352
114 352
115 353
116 353
117 353
118 354
119 354
120 354
121 354
122 355
123 355
124 355
125 356
126 356
127 356
128 356
129 356
130 356
131 356
132 356
133 356
134 356
135 356
136 356
137 356
138 356
139 356
140 356
141 356
142 356
143 356
144 356
145 356
146 356
147 356
148 356
149 356
150 355
151 355
152 355
153 355
154 355
155 355
156 355
157 355
158 355
159 355
160 355
161 355
162 355
163 355
164 355
165 355
166 355
167 355
168 355
169 355
170 355
171 355
172 355
173 355
174 354
175 354
176 354
177 354
178 354
179 354
180 354
181 354
182 354
183 354
184 354
185 354
186 354
187 354
188 354
189 354
190 353
191 353
192 352
193 352
194 351
195 351
196 351
197 350
198 350
199 350
200 350
201 349
202 349
203 349
204 349
205 349
206 349
207 349
208 349
209 349
210 349
211 349
212 349
213 349
214 349
215 349
216 349
217 349
218 349
219 349
220 348
221 348
222 348
223 348
224 348
225 348
226 348
227 347
228 347
229 347
230 347
231 347
232 347
233 346
234 346
235 346
236 346
237 346
238 346
239 346
240 347
241 347
242 348
242 349
243 350
243 351
244 352
244 353
244 354
244 355
244 356
245 357
245 358
245 359
245 360
246 361
246 362
246 363
246 364
246 365
247 366
247 367
247 368
247 369
247 370
248 371
248 372
248 373
248 374
248 375
248 376
248 377
248 378
248 379
248 380
248 381
248 382
248 383
248 384
248 385
248 386
248 387
248 388
248 389
248 390
248 391
248 392
248 393
248 394
248 395
248 396
248 397
248 398
248 399
248 400
248 401
248 402
248 403
248 404
248 405
248 406
249 407
249 408
249 409
249 410
249 411
249 412
249 413
249 414
249 415
249 416
249 417
250 418
250 419
250 420
250 421
250 422
250 423
251 424
251 425
251 426
252 427
252 428
252 429
253 430
253 431
254 432
254 433
255 434
255 435
256 436
256 437
257 438
257 439
258 440
259 441
259 442
260 443
261 444
261 445
262 446
262 447
263 448
263 449
264 450
264 451
265 452
265 453
266 454
266 455
266 456
267 457
267 458
267 459
268 460
268 461
269 462
269 463
269 464
270 465
270 466
270 467
271 468
271 469
272 470
272 471
273 472
273 473
274 474
274 475
275 476
276 477
277 478
278 479
279 480
280 481
281 482
282 483
283 484
284 485
285 486
286 487
287 487
288 488
288 489
289 490
290 491
291 492
292 493
293 494
294 495
295 496
296 497
297 498
298 499
299 500
300 501
301 502
302 503
303 504
304 505
305 505
306 506
307 507
308 507
309 508
310 509
311 509
312 510
313 510
314 511
315 512
316 513
317 514
318 514
319 514
320 514
321 514
322 514
323 514
324 514
325 514
326 514
327 514
328 514
329 513
330 512
331 511
332 510
333 509
333 508
334 507
335 506
336 505
337 504
338 503
339 502
340 501
341 500
342 499
342 498
343 497
344 496
345 495
345 494
346 493
346 492
347 491
348 490
349 489
350 488
350 487
351 486
351 485
352 484
352 483
353 482
354 481
354 480
355 479
355 478
355 477
355 476
356 475
356 474
357 473
357 472
358 471
358 470
359 469
359 468
360 467
360 466
361 465
361 464
362 463
363 462
363 461
363 460
363 459
364 458
364 457
364 456
364 455
365 454
365 453
365 452
365 451
365 450
365 449
366 448
366 447
366 446
366 445
366 444
366 443
366 442
366 441
367 440
367 439
367 438
367 437
368 436
368 435
368 434
368 433
368 432
369 431
369 430
369 429
369 428
369 427
369 426
369 425
370 424
370 423
370 422
370 421
370 420
370 419
370 418
370 417
370 416
370 415
370 414
370 413
370 412
370 411
370 410
370 409
370 408
370 407
370 406
370 405
370 404
370 403
370 402
370 401
370 400
371 399
371 398
371 397
371 396
371 395
371 394
371 393
371 392
371 391
371 390
371 389
371 388
371 387
371 386
371 385
371 384
371 383
371 382
371 381
371 380
370 379
370 378
370 377
370 376
370 375
370 374
370 373
370 372
370 371
370 370
370 369
370 368
370 367
370 366
370 365
370 364
370 363
370 362
369 361
369 360
369 359
369 358
369 357
369 356
369 355
369 354
369 353
369 352
369 351
369 350
369 349
369 348
369 347
369 346
369 345
369 344
369 343
368 342
368 341
368 340
368 339
368 338
367 337
367 336
367 335
367 334
367 333
367 332
367 331
367 330
367 329
367 328
366 327
366 326
366 325
366 324
366 323
366 322
366 321
365 320
365 319
365 318
365 317
365 316
364 315
364 314
364 313
364 312
363 311
363 310
363 309
363 308
363 307
363 306
362 305
362 304
362 303
362 302
362 301
361 300
361 299
361 298
361 297
360 296
360 295
360 294
360 293
359 292
359 291
359 290
359 289
358 288
358 287
358 286
357 285
357 284
356 283
356 282
355 281
355 280
354 279
353 278
352 277
351 276
351 275
350 274
349 273
348 272
347 271
346 270
345 269
344 269
343 268
342 267
341 266
340 265
339 264
338 263
337 262
336 261
335 260
334 260
333 259
332 258
331 257
330 257
329 256
328 256
327 255
327 254
326 253
327 252
328 251
329 250
330 250
331 249
332 249
333 249
334 249
335 249
336 249
337 249
338 250
339 250
340 250
341 250
342 250
343 250
344 250
345 251
346 251
347 251
348 251
349 251
350 251
351 251
352 252
353 252
354 252
355 252
356 252
357 252
358 252
359 253
360 253
361 253
362 253
363 253
364 253
365 254
366 254
367 254
368 254
369 254
370 255
371 255
372 255
373 255
374 255
375 255
376 255
377 255
378 256
379 256
380 256
381 256
382 256
383 257
384 257
385 257
386 257
387 257
388 257
389 258
390 258
391 258
392 258
393 258
394 259
395 259
396 259
397 259
398 259
399 259
400 260
401 260
402 260
403 260
404 260
405 260
406 260
407 261
408 261
409 261
410 261
411 261
412 262
413 262
414 262
415 262
416 262
417 263
418 263
419 263
420 263
421 263
422 263
423 263
424 264
425 264
426 264
427 264
428 264
429 265
430 265
431 265
432 265
433 265
434 265
435 266
436 266
437 266
438 266
439 266
440 267
441 267
442 267
443 267
444 267
445 267
446 268
447 268
448 268
449 268
450 268
451 269
452 269
453 269
454 269
455 269
456 270
457 270
458 270
459 270
460 270
461 271
462 271
463 271
464 271
465 271
466 271
467 272
468 272
469 272
470 272
471 273
472 273
473 273
474 273
475 273
476 273
477 274
478 274
479 274
480 274
481 274
482 275
483 275
484 276
485 276
486 276
487 276
488 277
489 277
490 277
491 278
492 278
493 278
494 278
495 279
496 279
497 279
498 279
499 280
500 280
501 280
502 280
503 281
504 281
505 281
506 282
507 282
508 282
509 282
510 282
511 283
512 283
513 283
514 283
515 284
516 284
517 284
518 284
519 285
520 285
521 285
522 286
523 286
524 286
525 286
526 286
527 287
528 287
529 287
530 287
531 288
532 288
533 288
534 289
535 289
536 289
537 289
538 290
539 290
540 290
541 290
542 291
543 291
544 291
545 291
546 292
547 292
548 292
549 293
550 293
551 293
552 294
553 294
554 294
555 294
556 295
557 295
558 295
559 295
560 296
561 296
562 296
563 297
564 297
565 297
566 297
567 298
568 298
569 298
570 298
571 299
572 299
573 299
574 299
575 300
576 300
577 300
578 301
579 301
580 301
581 302
582 302
583 302
584 303
585 303
586 303
587 303
588 304
589 304
590 304
591 305
592 305
593 305
594 306
595 306
596 306
597 307
598 307
599 307
600 308
601 308
602 308
603 308
604 308
605 309
606 309
607 309
608 310
609 310
610 310
611 311
612 311
613 311
614 312
615 312
616 312
617 312
618 313
619 313
620 313
621 314
622 314
623 314
624 315
625 315
626 315
627 316
628 316
629 316
630 317
631 317
632 317
633 317
634 318
635 318
636 318
637 319
638 319
639 319
640 320
641 320
642 321
643 321
644 321
645 321
646 322
647 322
648 322
649 323
650 323
651 323
652 324
653 324
654 324
655 324
656 325
657 325
658 326
659 326
660 326
661 326
662 327
663 327
664 327
665 328
666 328
667 328
668 329
669 329
670 329
671 329
672 330
673 330
674 330
675 331
676 331
677 331
678 332
679 332
680 332
681 333
682 333
683 333
684 333
685 334
686 334
687 334
688 335
689 335
690 335
691 335
692 336
693 336
694 336
695 336
696 337
697 337
698 337
699 338
700 338
701 339
702 339
703 339
704 340
705 340
706 341
707 341
708 341
709 341
710 341
711 341
712 341
713 341
714 341
715 341
715 340
715 339
716 338
716 337
717 336
717 335
718 334
719 334
720 333
720 332
720 331
720 330
720 329
720 328
720 327
720 326
720 325
719 325
718 325
717 325
716 325
715 325
714 325
713 325
712 325
711 325
710 325
709 326
708 326
707 326
706 326
705 327
704 327
703 327
702 327
701 327
700 326
699 326
698 326
697 326
696 326
695 325
694 325
693 325
692 325
691 325
690 324
689 324
688 324
687 323
686 323
685 323
684 323
683 322
682 322
681 322
680 321
679 321
678 321
677 320
676 320
675 320
674 319
673 319
672 319
671 319
670 319
669 318
668 318
667 318
666 317
665 317
664 316
663 316
662 316
661 316
660 315
659 315
658 315
657 314
656 314
655 313
654 313
653 313
652 313
651 312
650 312
649 312
648 311
647 311
646 311
645 310
644 310
643 310
642 309
641 309
640 309
639 308
638 308
637 308
636 307
635 307
634 307
633 306
632 306
631 306
630 306
629 305
628 305
627 304
626 304
625 304
624 304
623 303
622 303
621 303
620 302
619 302
618 301
617 301
616 301
615 300
614 300
613 300
612 300
611 299
610 299
609 299
608 299
607 298
606 298
605 297
604 297
603 297
602 296
601 296
600 296
599 296
598 295
597 295
596 295
595 294
594 294
593 293
592 293
591 293
590 293
589 292
588 292
587 292
586 292
585 291
584 291
583 291
582 290
581 290
580 290
579 290
578 289
577 289
576 289
575 288
574 288
573 288
572 288
571 287
570 287
569 287
568 286
567 286
566 286
565 285
564 285
563 285
562 285
561 284
560 284
559 284
558 283
557 283
556 283
555 283
554 282
553 282
552 282
551 282
550 281
549 281
548 281
547 280
546 280
545 280
544 280
543 279
542 279
541 279
540 279
539 278
538 278
537 278
536 278
535 277
534 277
533 277
532 277
531 276
530 276
529 276
528 276
527 275
526 275
525 275
524 275
523 274
522 274
521 274
520 273
519 273
518 273
517 273
516 272
515 272
514 272
513 272
512 271
511 271
510 271
509 271
508 270
507 270
506 270
505 269
504 269
503 269
502 269
501 268
500 268
499 268
498 268
497 268
496 267
495 267
494 267
493 267
492 266
491 266
490 266
489 266
488 266
487 265
486 265
485 265
484 265
483 264
482 264
481 264
480 264
479 264
478 263
477 263
476 263
475 263
474 263
473 262
472 262
471 262
470 262
469 262
468 262
467 261
466 261
465 261
464 261
463 261
462 260
461 260
460 260
459 260
458 260
457 259
456 259
455 259
454 259
453 259
452 259
451 259
450 258
449 258
448 258
447 258
446 258
445 257
444 257
443 257
442 257
441 257
440 257
439 256
438 256
437 256
436 256
435 256
434 256
433 256
432 255
431 255
430 255
429 255
428 255
427 255
426 255
425 254
424 254
423 254
422 254
421 254
420 253
419 253
418 253
417 253
416 253
415 253
414 253
413 252
412 252
411 252
410 252
409 252
408 252
407 252
406 251
405 251
404 251
403 251
402 251
401 251
400 250
399 250
398 250
397 250
396 250
395 250
394 250
393 249
392 249
391 249
390 249
389 249
388 249
387 248
386 248
385 248
384 248
383 248
382 248
381 247
380 247
379 247
378 247
377 247
376 247
375 247
374 247
373 246
372 246
371 246
370 246
369 246
368 246
367 246
366 245
365 245
364 245
363 245
362 245
361 245
360 245
359 244
358 244
357 244
356 244
355 244
354 244
353 244
352 244
351 243
350 243
349 243
348 243
347 243
346 243
345 243
344 243
343 243
342 242
341 242
340 242
339 242
338 242
337 242
336 242
335 242
334 242
333 242
332 242
331 242
330 242
329 242
328 242
327 242
326 242
325 242
324 242
323 242
322 242
321 242
320 241
319 241
318 240
317 240
316 239
316 238
315 237
315 236
315 235
315 234
315 233
315 232
315 231
315 230
315 229
315 228
315 227
315 226
316 225
316 224
316 223
316 222
316 221
316 220
316 219
316 218
316 217
316 216
316 215
316 214
316 213
316 212
316 211
316 210
316 209
316 208
316 207
316 206
316 205
316 204
316 203
316 202
315 201
315 200
315 199
315 198
314 197
314 196
314 195
313 194
313 193
313 192
312 191
312 190
311 189
311 188
311 187
310 186
309 185
309 184
308 183
308 182
307 181
307 180
306 179
305 178
305 177
304 176
304 175
303 174
302 173
302 172
301 171
301 170
300 169
299 168
299 167
298 166
297 165
297 164
296 163
295 162
295 161
294 160
293 159
292 158
291 157
290 156
290 155
289 154
288 153
287 152
287 151
286 150
285 149
285 148
284 147
284 146
283 145
282 144
281 143
281 142
280 141
279 140
279 139
278 138
277 137
276 136
275 135
275 134
274 133
273 132
272 131
271 130
270 129
269 128
268 127
267 126
267 125
266 124
265 123
265 122
264 121
264 120
263 119
262 118
261 117
260 116
260 115
259 114
258 113
258 112
257 111
257 110
256 109
255 108
254 107
254 106
253 105
252 104
251 103
250 102
249 101
248 100
247 99
246 99
245 98
244 97
243 96
242 95
241 95
240 94
239 93
238 92
237 92
236 91
235 90
234 89
233 88
232 88
231 87
230 86
229 85
228 85
227 84
226 83
225 82
224 82
223 81
222 80
221 80
220 79
219 79
218 78
217 78
216 77
215 77
214 76
213 76
212 75
211 74
210 74
209 73
208 73
207 72
206 71
205 71
204 70
203 70
202 69
201 69
200 69
199 68
198 68
197 68
196 67
195 67
194 67
193 66
192 66
191 66
190 65
189 65
188 65
187 65
186 64
185 64
184 64
183 64
182 64
181 63
180 63
179 63
178 63
177 63
176 63
175 62
174 62
173 62
172 61
171 61
170 61
169 61
168 60
167 60
166 60
165 59
164 59
163 59
162 58
161 58
160 58
159 58
158 58
157 58
156 58
155 58
154 57
153 57
152 57
151 57
150 57
149 57
148 57
147 56
146 56
145 56
144 56
143 56
142 56
141 56
140 56
139 56
138 56
137 56
136 56
135 56
134 56
133 56
132 56
131 56
130 57
129 57
128 57
127 57
126 57
125 58
125 59
125 60
125 61
125 62
125 63
125 64
125 65
125 66
125 67
125 68
125 69
125 70
125 71
125 72
125 73
125 74
125 75
125 76
125 77
125 78
125 79
125 80
126 81
126 82
126 83
126 84
126 85
126 86
126 87
126 88
126 89
126 90
126 91
126 92
126 93
126 94
126 95
126 96
127 97
127 98
127 99
127 100
127 101
127 102
127 103
127 104
127 105
127 106
127 107
127 108
127 109
127 110
127 111
127 112
127 113
127 114
127 115
127 116
127 117
127 118
127 119
127 120
127 121
127 122
127 123
127 124
127 125
128 126
128 127
128 128
128 129
128 130
129 131
129 132
129 133
129 134
129 135
129 136
129 137
129 138
129 139
129 140
130 141
130 142
130 143
130 144
130 145
130 146
130 147
130 148
131 149
131 150
131 151
131 152
132 153
132 154
132 155
133 156
133 157
133 158
133 159
134 160
134 161
134 162
135 163
135 164
135 165
136 166
136 167
137 168
137 169
138 170
138 171
139 172
139 173
140 174
140 175
141 176
142 177
142 178
143 179
144 180
145 181
146 182
147 183
147 184
148 185
149 186
149 187
150 188
150 189
151 190
152 191
153 192
153 193
154 194
155 195
155 196
156 197
157 198
157 199
158 200
159 201
160 202
160 203
161 204
161 205
161 206
161 207
160 208
159 209
158 209
157 210
156 210
155 211
154 211
153 212
152 212
151 213
150 214
149 214
148 215
147 215
146 216
145 216
144 217
143 217
142 217
141 218
140 218
139 219
138 220
137 220
136 221
135 221
134 222
133 222
132 223
131 223
130 224
129 224
128 225
127 226
126 226
125 227
124 227
123 228
122 229
121 230
120 231
119 231
118 232
117 233
116 234
115 235
114 236
113 236
112 237
111 238
110 239
109 239
108 240
107 241
106 242
105 242
104 243
103 243
102 244
101 245
100 246
99 247
99 248
98 249
97 250
96 251
95 252
94 252
93 253
92 253
91 254
90 254
89 255
88 255
87 256
86 257
85 258
84 259
83 260
82 261
81 262
80 263
79 264
78 265
78 266
77 267
76 268
75 269
74 270
73 271
72 272
71 273
70 274
70 275
69 276
69 277
68 278
67 279
67 280
66 281
65 282
65 283
64 284
64 285
63 286
63 287
62 288
62 289
62 290
61 291
61 292
60 293
60 294
60 295
59 296
59 297
59 298
58 299
58 300
58 301
57 302
57 303
57 304
56 305
56 306
56 307
55 308
55 309
55 310
55 311
55 312
54 313
