233 70
232 71
231 71
230 71
229 71
228 71
227 71
226 72
225 72
224 72
223 72
222 72
221 72
220 72
219 72
218 73
217 73
216 73
215 74
214 74
213 74
212 74
211 74
210 75
209 75
208 75
207 76
206 76
205 76
204 76
203 76
202 77
201 77
200 77
199 78
198 78
197 78
196 78
195 78
194 79
193 79
192 79
191 80
190 80
189 81
188 81
187 81
186 82
185 82
184 82
183 82
182 83
181 83
180 84
179 84
178 84
177 84
176 84
175 85
174 85
173 85
172 85
171 85
170 85
169 86
168 86
167 86
166 87
165 87
164 87
163 88
162 88
161 89
160 89
159 90
158 90
157 90
156 90
155 91
154 91
153 92
152 92
151 92
150 92
149 93
148 93
147 93
146 94
145 94
144 95
143 95
142 96
141 96
140 97
139 97
138 98
137 98
136 99
135 99
134 100
133 100
132 101
131 101
130 101
129 102
128 102
127 102
126 103
125 103
124 104
123 104
122 105
121 106
120 107
119 107
118 108
117 108
116 109
115 110
114 111
114 112
113 113
112 114
111 114
110 115
109 115
108 116
107 117
106 118
105 119
104 120
103 121
102 122
101 123
100 124
99 125
99 126
98 127
97 128
96 129
95 129
94 130
94 131
93 132
92 133
91 134
91 135
90 136
89 137
88 138
87 139
86 140
86 141
85 142
84 143
83 144
82 145
81 146
80 147
79 148
79 149
78 150
77 151
76 152
76 153
75 154
74 155
74 156
73 157
73 158
72 159
72 160
71 161
71 162
70 163
70 164
69 165
69 166
69 167
68 168
68 169
68 170
67 171
67 172
67 173
67 174
66 175
66 176
66 177
66 178
66 179
66 180
66 181
66 182
66 183
67 184
66 185
66 186
66 187
66 188
66 189
66 190
66 191
65 192
65 193
65 194
64 195
64 196
64 197
63 198
63 199
62 200
62 201
62 202
62 203
62 204
61 205
61 206
61 207
61 208
61 209
61 210
61 211
61 212
61 213
61 214
61 215
61 216
61 217
61 218
61 219
61 220
61 221
61 222
61 223
61 224
61 225
62 226
62 227
62 228
62 229
62 230
62 231
63 232
62 233
63 234
63 235
63 236
63 237
64 238
64 239
65 240
65 241
65 242
65 243
65 244
66 245
66 246
66 247
67 248
67 249
67 250
68 251
68 252
69 253
69 254
69 255
69 256
70 257
70 258
71 259
71 260
72 261
72 262
72 263
73 264
73 265
73 266
74 267
74 268
74 269
75 270
75 271
75 272
76 273
77 274
77 275
78 276
78 277
78 278
79 279
79 280
80 281
80 282
80 283
80 284
81 285
81 286
82 287
82 288
82 289
83 290
83 291
84 292
84 293
85 294
86 295
87 296
88 297
89 298
89 299
90 300
90 301
91 302
92 303
92 304
93 305
94 306
95 307
96 308
96 309
97 310
97 311
98 312
98 313
99 314
99 315
100 316
100 317
101 318
102 319
102 320
103 321
104 322
104 323
105 324
106 325
106 326
107 327
108 328
109 329
110 330
111 331
112 331
113 332
114 333
115 334
116 335
117 335
118 336
119 337
120 337
121 338
122 339
123 340
124 340
125 341
126 342
127 342
128 343
129 344
130 344
131 345
132 345
133 346
134 347
135 347
136 348
137 349
138 350
139 350
140 351
141 352
142 352
143 353
144 354
145 355
146 356
147 357
148 357
149 358
150 359
151 360
152 361
153 362
154 363
155 364
156 365
157 366
158 366
159 367
160 367
161 368
162 368
163 369
164 369
165 370
166 370
167 371
168 371
169 372
170 373
171 373
172 374
173 375
174 375
175 376
176 377
177 377
178 378
179 379
180 379
181 379
182 380
183 380
184 380
185 381
186 381
187 381
188 382
189 382
190 383
191 383
192 383
193 384
194 384
195 384
196 385
197 385
198 386
199 386
200 386
201 387
202 387
203 388
204 388
205 388
206 389
207 390
208 390
209 390
210 391
211 391
212 391
213 392
214 392
215 392
216 392
217 393
218 393
219 393
220 393
221 393
222 393
223 393
224 393
225 393
226 393
227 393
228 393
229 393
230 393
231 393
232 393
233 393
234 394
235 394
236 394
237 394
238 394
239 394
240 395
241 395
242 396
243 396
244 396
245 397
246 397
247 397
248 398
249 398
250 398
251 398
252 398
253 398
254 399
255 399
256 399
257 399
258 400
259 400
260 400
261 400
262 400
263 400
264 400
265 400
266 400
267 400
268 400
269 399
270 399
271 399
272 399
273 399
274 399
275 399
276 400
277 400
278 400
279 400
280 400
281 400
282 401
283 401
284 401
285 402
286 402
287 402
288 402
289 403
290 403
291 403
292 404
293 404
294 404
295 404
296 404
297 404
298 405
299 405
300 405
301 404
302 404
303 404
304 404
305 404
306 403
307 403
308 403
309 403
310 403
311 403
312 403
313 403
314 403
315 403
316 403
317 403
318 403
319 403
320 403
321 403
322 403
323 403
324 403
325 403
326 403
327 403
328 403
329 403
330 403
331 403
332 403
333 403
334 403
335 403
336 403
337 403
338 403
339 403
340 403
341 403
342 403
343 403
344 403
345 403
346 403
347 402
348 402
349 402
350 402
351 401
352 401
353 400
354 400
355 399
356 399
357 399
358 398
359 398
360 397
361 397
362 397
363 396
364 396
365 396
366 395
367 395
368 394
369 394
370 393
371 393
372 392
373 392
374 391
375 390
376 389
376 388
376 387
377 386
378 386
379 386
380 385
381 385
382 384
383 384
384 384
385 384
386 384
387 383
388 383
389 383
390 382
391 382
392 382
393 382
394 382
395 382
396 381
397 381
398 381
399 381
400 381
401 381
402 380
403 379
404 379
405 378
406 378
407 377
408 377
409 376
410 376
411 375
412 375
413 374
414 373
415 372
416 371
417 371
418 370
419 369
420 369
421 368
422 367
423 367
423 366
424 365
425 364
426 363
427 362
427 361
427 360
427 359
428 358
429 358
430 357
431 357
432 356
433 356
434 356
435 356
436 355
437 355
438 354
439 354
440 353
441 352
442 351
443 351
444 350
445 349
446 349
447 348
448 348
449 347
450 347
451 346
452 345
453 345
454 344
455 343
456 342
457 341
458 341
459 340
460 339
461 338
462 337
463 336
464 335
465 334
466 333
467 333
468 332
469 331
470 331
471 330
472 329
473 328
474 328
475 327
476 326
477 325
478 324
479 323
479 322
480 321
480 320
481 319
482 318
482 317
483 316
483 315
484 314
484 313
485 312
485 311
486 310
486 309
486 308
487 307
488 307
488 306
489 305
490 304
491 303
492 302
493 301
494 300
494 299
495 298
495 297
496 296
496 295
497 294
498 293
499 292
499 291
500 290
501 289
502 288
503 287
503 286
504 285
505 284
506 283
507 282
507 281
508 280
509 279
509 278
510 277
511 276
512 275
513 274
514 273
515 272
516 272
517 271
518 270
519 269
520 268
521 267
522 266
522 265
523 264
523 263
524 262
525 261
526 260
527 259
528 258
528 257
529 256
529 255
530 254
531 253
532 252
532 251
533 250
533 249
534 248
534 247
535 246
536 245
537 244
538 243
538 242
539 241
540 240
541 239
542 238
543 237
543 236
544 235
545 235
546 234
547 233
548 232
549 231
550 231
550 230
551 229
552 229
553 228
554 228
555 227
556 227
557 227
558 227
559 227
560 226
561 226
562 226
563 226
564 226
565 226
566 226
567 226
568 226
569 226
570 226
571 226
572 226
573 226
574 226
575 226
576 226
577 226
578 226
579 226
580 226
581 226
582 226
583 226
584 226
585 226
586 226
587 226
588 226
589 226
590 226
591 226
592 226
593 226
594 226
595 226
596 226
597 226
598 226
599 226
600 226
601 226
602 226
603 227
604 227
605 227
606 227
607 227
608 227
609 227
610 227
611 227
612 227
613 227
614 227
615 227
616 227
617 227
618 227
619 227
620 228
621 228
622 228
623 228
624 228
625 228
626 228
627 228
628 228
629 228
630 228
631 228
632 228
633 228
634 228
635 228
636 228
637 229
638 229
639 229
640 229
641 229
642 229
643 229
644 229
645 229
646 229
647 229
648 229
649 229
650 230
651 230
652 230
653 230
654 230
655 230
656 230
657 230
658 230
659 230
660 230
661 231
662 231
663 231
664 231
665 231
666 231
667 231
668 231
669 231
670 231
671 231
672 232
673 232
674 232
675 232
676 232
677 232
678 232
679 232
680 232
681 233
682 233
683 233
684 233
685 233
686 233
687 233
688 233
689 233
690 234
691 234
692 234
693 234
694 234
695 234
696 234
697 234
698 235
699 235
700 235
701 235
702 235
703 235
704 235
705 236
706 236
707 236
708 236
709 236
710 236
711 236
712 236
713 236
714 237
715 237
716 237
717 237
718 237
719 237
720 237
721 238
722 238
723 238
724 238
725 238
726 238
727 238
728 239
729 239
730 239
731 239
732 239
733 239
734 239
735 240
736 240
737 240
738 240
739 240
740 240
741 240
742 240
743 240
744 240
745 240
746 240
747 240
748 240
749 240
750 240
751 240
752 240
753 240
754 240
755 239
756 238
757 238
757 237
757 236
757 235
757 234
757 233
758 232
758 231
758 230
758 229
758 228
757 228
756 228
755 228
754 228
753 228
752 228
751 228
750 228
749 228
748 228
747 228
746 228
745 229
744 229
743 229
742 229
741 229
740 229
739 229
738 229
737 229
736 229
735 229
734 229
733 229
732 229
731 229
730 229
729 229
728 229
727 229
726 229
725 229
724 229
723 229
722 229
721 229
720 228
719 228
718 228
717 228
716 228
715 228
714 228
713 228
712 228
711 228
710 228
709 228
708 227
707 227
706 227
705 227
704 227
703 227
702 227
701 227
700 227
699 227
698 227
697 227
696 227
695 227
694 226
693 226
692 226
691 226
690 226
689 226
688 226
687 225
686 225
685 225
684 225
683 225
682 225
681 225
680 225
679 225
678 225
677 225
676 225
675 225
674 225
673 224
672 224
671 224
670 224
669 224
668 224
667 224
666 224
665 224
664 224
663 224
662 224
661 223
660 223
659 223
658 223
657 223
656 223
655 223
654 223
653 223
652 223
651 223
650 223
649 223
648 222
647 222
646 222
645 222
644 222
643 222
642 222
641 222
640 222
639 222
638 222
637 222
636 221
635 221
634 221
633 221
632 221
631 221
630 221
629 221
628 221
627 221
626 221
625 221
624 221
623 221
622 221
621 221
620 220
619 220
618 220
617 220
616 220
615 220
614 220
613 220
612 220
611 220
610 220
609 220
608 220
607 220
606 220
605 219
604 219
603 219
602 219
601 219
600 219
599 219
598 219
597 219
596 219
595 219
594 219
593 219
592 219
591 219
590 219
589 219
588 219
587 219
586 218
585 218
584 218
583 218
582 218
581 218
580 218
579 218
578 218
577 218
576 218
575 218
574 218
573 218
572 218
571 217
570 217
569 216
568 215
567 214
566 214
565 213
564 212
563 211
563 210
562 209
561 209
560 208
559 207
558 206
557 205
556 204
555 203
554 202
553 201
553 200
552 199
552 198
551 197
551 196
550 195
550 194
549 193
548 192
548 191
547 190
547 189
546 188
545 187
545 186
544 185
543 184
543 183
542 182
542 181
541 180
541 179
541 178
540 177
540 176
539 175
538 174
538 173
537 172
536 172
535 171
535 170
534 169
533 168
533 167
532 166
532 165
531 164
531 163
530 162
530 161
529 160
528 159
528 158
527 157
526 156
525 155
525 154
524 153
524 152
523 151
522 150
521 149
521 148
521 147
520 146
519 145
518 144
517 143
517 142
516 141
515 140
514 140
513 139
512 138
512 137
511 136
510 135
509 135
508 134
508 133
507 133
506 132
505 131
504 130
503 130
502 129
501 129
500 128
499 127
498 126
498 125
497 125
496 125
495 124
494 123
493 123
492 122
491 121
490 120
489 119
488 118
487 117
486 117
485 116
485 115
484 114
484 113
483 113
482 112
481 111
480 110
479 109
478 109
477 108
476 107
475 107
474 106
473 106
472 105
471 104
470 104
469 103
468 103
467 103
466 102
465 102
464 101
463 101
462 100
461 100
460 99
459 99
458 98
457 98
456 97
455 96
454 96
453 95
452 95
451 95
450 94
449 94
448 94
447 93
446 93
445 92
444 92
443 92
442 92
441 92
440 91
439 91
438 91
437 90
436 90
435 90
434 89
433 89
432 89
431 89
430 88
429 88
428 88
427 88
426 88
425 88
424 88
423 88
422 88
421 88
420 88
419 88
418 88
417 88
416 87
415 87
414 87
413 88
412 87
411 88
410 88
409 88
408 88
407 88
406 88
405 88
404 88
403 88
402 88
401 88
400 88
399 88
398 88
397 88
396 88
395 88
394 88
393 88
392 88
391 87
390 87
389 87
388 87
387 87
386 88
385 88
384 88
383 88
382 87
381 87
380 87
379 87
378 87
377 87
376 87
375 87
374 87
373 86
372 86
371 86
370 86
369 86
368 85
367 85
366 85
365 85
364 85
363 86
362 86
361 86
360 86
359 86
358 86
357 86
356 85
355 86
354 86
353 86
352 86
351 86
350 85
349 86
348 86
347 86
346 86
345 86
344 86
343 86
342 86
341 86
340 85
339 85
338 84
337 83
336 83
335 83
334 83
333 83
332 82
331 82
330 82
329 81
328 81
327 81
326 81
325 80
324 80
323 81
322 80
321 80
320 80
319 80
318 80
317 80
316 80
315 80
314 80
313 80
312 80
311 79
310 79
309 79
308 79
307 79
306 79
305 79
304 79
303 79
302 79
301 79
300 79
299 79
298 79
297 79
296 79
295 79
294 79
293 78
292 78
291 78
290 77
289 77
288 77
287 77
286 77
285 77
284 77
283 77
282 77
281 77
280 77
279 77
278 77
277 77
276 76
275 76
274 76
273 75
272 75
271 75
270 75
269 74
268 74
267 74
266 73
265 73
264 73
263 73
262 73
261 73
260 73
259 73
258 73
257 72
256 72
255 72
254 71
253 71
252 71
251 71
250 71
249 71
248 70
247 70
246 70
245 70
244 70
243 70
242 70
241 70
240 70
239 70
238 70
237 70
236 70
235 70
234 71
233 70
