303 59
304 60
304 61
305 62
305 63
305 64
306 65
306 66
306 67
306 68
306 69
306 70
306 71
306 72
307 73
307 74
306 75
306 76
306 77
307 78
307 79
307 80
307 81
307 82
307 83
306 84
306 85
306 86
306 87
306 88
306 89
306 90
306 91
306 92
306 93
306 94
306 95
306 96
306 97
306 98
306 99
306 100
306 101
306 102
306 103
306 104
306 105
306 106
306 107
306 108
306 109
306 110
306 111
306 112
306 113
306 114
306 115
306 116
306 117
306 118
306 119
306 120
307 121
307 122
307 123
307 124
307 125
307 126
307 127
308 128
308 129
308 130
308 131
308 132
309 133
309 134
309 135
309 136
309 137
309 138
309 139
309 140
310 141
310 142
310 143
310 144
310 145
310 146
310 147
310 148
310 149
310 150
310 151
310 152
311 153
311 154
311 155
311 156
311 157
311 158
311 159
311 160
312 161
312 162
312 163
312 164
312 165
312 166
312 167
313 168
313 169
313 170
313 171
313 172
313 173
313 174
313 175
313 176
312 177
311 177
310 177
309 176
308 176
307 175
306 175
305 174
304 173
303 173
302 172
301 171
300 170
299 169
298 168
297 168
296 167
295 166
294 165
293 164
292 163
291 162
290 161
289 160
288 159
287 158
287 157
286 156
285 156
284 155
283 154
282 153
281 152
280 151
279 150
278 149
277 148
276 147
276 146
275 146
274 145
273 144
273 143
272 143
271 142
270 141
269 140
268 139
267 138
267 137
266 137
265 136
264 135
263 134
262 133
261 132
260 132
259 131
258 130
257 130
256 129
255 129
254 128
253 128
252 127
251 127
250 126
249 125
248 125
247 125
246 124
245 124
244 124
243 123
242 123
241 123
240 123
239 122
239 121
238 120
237 119
236 118
235 118
234 117
233 116
232 115
231 115
230 114
229 113
228 113
227 112
226 111
225 110
224 109
223 109
222 110
222 111
221 112
221 113
220 114
220 115
219 116
218 117
217 117
216 117
215 116
214 116
213 115
212 115
211 114
210 114
209 114
208 113
207 113
206 113
205 113
204 112
203 112
202 112
201 111
200 111
199 111
198 111
197 110
196 110
195 110
194 111
193 111
192 111
191 111
190 111
189 111
188 111
187 111
186 111
185 111
184 111
183 111
182 111
181 111
180 111
179 111
178 111
177 111
176 111
175 111
174 111
173 111
172 111
171 111
170 111
169 111
168 111
167 111
166 111
165 111
164 111
163 111
162 111
162 112
163 113
163 114
164 115
164 116
164 117
165 118
165 119
166 120
166 121
166 122
167 123
167 124
167 125
167 126
168 127
168 128
168 129
169 130
169 131
169 132
170 133
170 134
170 135
171 136
171 137
172 138
172 139
173 140
173 141
174 142
174 143
175 144
175 145
176 146
176 147
176 148
177 149
177 150
177 151
178 152
178 153
179 154
179 155
180 156
180 157
180 158
180 159
181 160
181 161
182 162
182 163
182 164
183 165
183 166
184 167
184 168
184 169
185 170
185 171
186 172
186 173
186 174
187 175
187 176
188 177
188 178
189 179
189 180
190 181
190 182
191 183
191 184
192 185
192 186
192 187
192 188
193 189
193 190
193 191
193 192
193 193
192 194
191 194
190 193
189 193
188 193
187 193
186 192
185 192
184 191
183 191
182 191
181 190
180 190
179 189
178 189
177 189
176 188
175 187
174 187
173 187
172 186
171 186
170 186
169 185
168 185
167 184
166 184
165 184
164 184
163 183
162 183
161 182
160 182
159 182
158 181
157 181
156 181
155 180
154 180
153 180
152 179
151 179
150 179
149 178
148 178
147 178
146 177
145 177
144 177
143 177
142 177
141 176
140 176
139 176
139 177
138 178
137 179
136 178
135 178
134 179
133 179
132 179
131 179
130 179
129 180
128 180
127 181
126 181
125 182
124 182
123 183
122 184
121 184
120 185
119 186
118 187
117 188
116 188
115 189
114 190
113 191
112 192
111 193
110 194
109 195
108 196
107 197
106 198
105 199
104 200
103 201
104 202
105 203
106 204
107 204
108 205
109 206
110 206
111 207
112 208
113 209
113 210
114 211
114 212
115 213
115 214
116 215
117 216
117 217
118 218
118 219
119 220
118 221
117 221
116 222
115 222
114 222
113 222
112 221
111 221
110 221
109 221
108 220
107 220
106 220
105 220
104 220
103 220
102 220
101 219
100 220
99 220
98 220
97 221
96 221
95 222
94 222
93 223
92 224
91 224
90 225
89 226
88 226
87 227
86 228
85 229
84 230
83 231
82 231
81 232
80 232
79 232
79 233
78 234
77 234
76 235
75 236
74 237
74 238
74 239
73 240
72 241
71 242
70 242
69 243
68 243
67 244
66 244
65 245
64 245
63 245
62 246
61 246
60 247
59 247
59 248
60 249
61 250
62 251
63 251
64 252
65 253
66 254
67 255
68 256
69 257
70 257
71 258
72 259
73 260
74 261
75 262
76 263
77 264
77 265
76 266
75 267
75 268
76 269
77 270
78 270
79 271
80 272
81 273
82 273
83 274
84 275
85 275
86 276
87 277
88 277
89 278
90 279
91 279
92 279
93 280
94 280
95 281
96 281
97 282
98 282
99 282
100 282
101 283
102 283
103 283
104 283
105 283
106 283
107 283
108 283
109 283
110 284
111 284
112 284
113 285
113 286
112 287
111 288
110 289
109 290
108 291
107 292
106 293
105 294
105 295
104 296
103 297
102 298
101 299
100 299
99 300
98 301
97 301
96 301
95 301
94 301
93 301
94 302
94 303
95 304
95 305
96 306
96 307
97 308
98 309
99 310
100 311
101 312
102 313
102 314
103 315
104 315
105 316
106 317
107 318
108 319
109 319
110 320
111 320
112 321
113 322
114 322
115 323
116 324
117 324
118 325
119 325
120 326
121 326
122 326
123 327
124 327
125 327
126 327
127 328
128 328
129 328
130 328
131 328
132 328
133 329
134 329
135 329
136 329
137 329
138 329
139 329
140 329
141 329
142 328
143 328
144 328
145 328
146 328
147 327
148 327
149 327
150 327
151 326
152 326
153 326
154 326
155 326
156 325
157 325
158 325
159 325
160 324
161 324
162 324
163 324
164 323
165 323
166 322
167 322
168 322
169 322
170 322
171 321
172 321
173 321
174 320
175 320
176 320
177 320
178 319
179 319
180 319
181 319
182 319
183 319
184 319
185 320
185 321
184 322
184 323
183 324
182 325
182 326
181 327
181 328
180 329
180 330
179 331
178 332
178 333
177 334
176 335
176 336
175 337
174 338
173 339
173 340
172 341
171 342
171 343
170 344
169 345
168 346
167 347
166 348
165 349
164 350
163 351
163 352
162 353
161 354
160 355
159 356
159 357
158 358
157 359
156 360
156 361
155 362
154 363
153 364
152 365
151 366
150 367
149 368
148 369
147 370
147 371
146 372
145 373
144 374
143 374
142 375
141 376
140 376
139 376
140 377
141 378
141 379
142 380
143 381
144 381
145 382
146 382
147 383
148 384
149 384
150 385
151 385
152 386
153 386
154 387
155 387
156 388
157 388
158 388
159 389
160 389
161 390
162 390
163 391
164 391
165 391
166 392
167 393
168 393
169 394
170 394
171 395
172 395
173 396
174 396
175 396
176 396
177 396
178 396
179 396
180 396
181 396
182 396
183 396
184 396
185 396
186 396
187 396
188 397
188 398
188 399
189 400
189 401
188 402
188 403
188 404
189 403
190 403
191 404
192 404
193 404
194 404
195 404
196 404
197 404
198 404
199 404
200 404
201 403
202 403
203 403
204 403
205 402
206 402
207 402
208 401
209 401
210 401
211 400
212 400
213 400
214 400
215 399
216 399
217 398
218 398
219 398
220 397
221 397
222 396
223 396
224 395
225 395
226 395
227 394
228 394
229 393
230 393
231 393
232 392
233 392
234 391
235 391
236 390
237 390
238 390
239 389
240 389
241 388
242 388
243 387
244 387
245 386
246 385
247 384
248 384
249 383
250 383
251 382
252 382
253 381
254 381
255 380
256 379
257 379
258 378
259 378
260 377
261 376
262 376
263 375
264 374
265 374
266 373
267 372
268 372
269 371
270 370
271 370
272 369
273 368
274 368
275 367
276 367
277 366
278 365
279 364
280 364
281 363
282 363
283 362
284 361
285 360
286 360
287 359
288 359
289 358
290 357
291 357
292 357
293 356
294 355
295 355
296 354
297 354
298 353
299 353
300 352
301 352
302 352
303 352
304 353
304 354
304 355
304 356
303 357
303 358
303 359
303 360
302 361
302 362
302 363
301 364
301 365
301 366
300 367
300 368
300 369
299 370
299 371
299 372
298 373
298 374
298 375
297 376
297 377
297 378
297 379
296 380
296 381
295 382
295 383
294 384
294 385
294 386
293 387
293 388
292 389
292 390
292 391
291 392
291 393
291 394
290 395
290 396
289 397
289 398
288 399
288 400
288 401
287 402
287 403
286 404
286 405
286 406
285 407
285 408
284 409
284 410
283 411
283 412
283 413
282 414
282 415
281 416
281 417
281 418
280 419
279 420
279 421
279 422
279 423
279 424
279 425
279 426
279 427
279 428
279 429
278 430
278 431
278 432
278 433
278 434
278 435
277 436
277 437
277 438
277 439
277 440
276 441
276 442
276 443
276 444
276 445
276 446
276 447
275 448
275 449
275 450
275 451
275 452
275 453
275 454
275 455
274 456
274 457
274 458
274 459
274 460
274 461
274 462
274 463
273 464
273 465
273 466
273 467
273 468
273 469
273 470
272 471
272 472
271 473
271 474
270 475
270 476
270 477
271 477
272 477
273 477
274 477
275 477
276 477
277 478
278 479
279 479
280 479
281 478
282 478
283 478
284 478
285 478
286 477
287 477
288 477
289 477
290 476
291 476
292 476
293 475
294 475
295 474
296 474
297 473
298 473
299 472
300 472
301 472
302 471
303 471
304 471
305 470
306 470
307 470
308 470
309 470
310 471
311 472
312 471
313 471
314 471
315 470
316 470
317 470
318 470
319 470
320 469
321 469
322 468
323 467
324 466
325 466
325 465
326 464
327 463
328 463
329 462
330 461
331 461
332 460
333 459
334 458
335 458
336 458
337 458
338 458
339 458
340 459
341 459
342 460
343 461
343 462
343 463
343 464
344 465
345 464
346 464
347 464
348 463
349 462
350 461
351 460
352 459
353 459
354 458
354 457
355 456
356 455
357 455
357 454
358 453
359 452
359 451
360 450
361 449
362 448
363 447
363 446
364 445
365 444
366 443
367 442
368 441
368 440
368 439
369 438
370 437
371 436
372 435
372 434
373 433
373 432
374 431
374 430
375 429
376 429
377 428
377 427
378 426
379 425
380 424
381 424
381 423
382 422
382 421
383 420
384 419
384 418
384 417
385 416
385 415
385 414
386 413
386 412
387 411
388 410
388 409
388 408
389 407
389 406
390 405
390 404
391 403
391 402
392 401
392 400
393 399
394 398
395 397
395 396
396 395
397 394
397 393
398 392
399 391
399 390
400 389
401 388
402 387
403 386
403 385
404 384
405 384
405 383
405 382
406 381
407 380
407 379
408 378
408 377
409 376
410 375
410 374
410 373
411 372
411 371
412 370
412 369
413 368
413 367
414 366
415 365
415 364
415 363
416 362
416 361
417 360
418 359
419 358
419 357
420 356
420 355
421 354
421 353
421 352
422 351
422 350
423 349
423 348
423 347
424 346
424 345
425 344
426 343
426 342
427 341
427 340
428 339
428 338
429 337
429 336
430 335
430 334
431 333
431 332
432 331
433 330
433 329
434 328
434 327
434 326
435 325
436 324
436 323
437 322
437 321
437 320
438 319
439 318
439 317
440 316
441 315
441 314
442 313
442 312
443 311
444 310
444 309
445 308
446 307
446 306
447 305
448 304
449 303
449 302
450 301
451 301
452 300
453 299
454 299
455 298
456 298
457 297
458 296
459 296
460 296
461 295
462 295
463 295
464 294
465 294
466 294
467 293
468 293
469 293
470 293
471 293
472 292
473 292
474 292
475 292
476 292
477 291
478 291
479 291
480 291
481 290
482 290
483 290
484 290
485 290
486 290
487 290
488 289
489 289
490 289
491 289
492 289
493 288
494 288
495 288
496 288
497 288
498 288
499 288
500 287
501 287
502 287
503 287
504 287
505 287
506 286
507 286
508 286
509 286
510 286
511 286
512 286
513 286
514 286
515 285
516 285
517 285
518 285
519 285
520 285
521 285
522 284
523 284
524 284
525 284
526 283
527 283
528 283
529 283
530 283
531 283
532 282
533 282
534 282
535 282
536 281
537 281
538 281
539 281
540 281
541 280
542 280
543 280
544 280
545 280
546 280
547 279
548 279
549 279
550 279
551 279
552 279
553 278
554 278
555 278
556 278
557 278
558 278
559 278
560 278
561 277
562 277
563 277
564 277
565 277
566 277
567 277
568 277
569 277
570 277
571 277
572 277
573 276
574 276
575 276
576 276
577 276
578 276
579 276
580 276
581 276
582 276
583 276
584 276
585 276
586 276
587 276
588 276
589 276
590 277
591 277
592 277
593 277
594 277
595 277
596 277
597 277
598 278
599 278
600 278
601 278
602 278
603 278
604 279
605 279
606 279
607 280
608 280
609 280
610 281
611 281
612 281
613 281
614 281
615 282
616 282
617 282
618 282
619 282
620 282
621 282
622 282
623 282
624 283
625 283
626 283
627 284
628 285
629 286
630 287
630 288
631 289
631 290
632 291
633 292
633 293
634 294
634 295
635 294
636 295
637 296
638 296
639 297
640 298
641 299
642 300
643 300
644 301
645 301
646 301
647 302
648 302
649 303
650 303
651 303
652 304
653 304
654 304
655 304
656 304
657 304
658 304
659 304
659 303
659 302
659 301
659 300
659 299
659 298
659 297
658 296
658 295
658 294
658 293
658 292
658 291
659 290
660 289
661 289
662 288
663 288
664 288
665 288
666 288
667 288
668 287
669 287
670 286
671 286
672 285
673 284
674 284
675 283
676 282
677 282
678 281
679 280
680 280
681 279
682 278
683 277
684 276
685 275
686 274
686 273
685 272
684 272
683 272
682 272
681 272
680 271
679 271
678 271
677 270
676 270
675 270
674 269
673 269
672 268
671 267
670 266
669 265
668 265
667 264
667 263
667 262
667 261
667 260
667 259
667 258
666 257
666 256
667 255
668 255
669 254
668 253
667 253
666 252
665 251
664 251
663 250
662 249
661 249
660 248
659 247
658 247
657 246
656 245
655 244
654 243
655 242
656 241
657 240
658 239
659 238
660 238
661 237
662 236
663 236
664 235
665 234
666 233
667 232
667 231
668 230
669 229
670 228
671 228
671 227
671 226
672 225
672 224
672 223
672 222
673 221
673 220
672 219
672 218
672 217
672 216
672 215
672 214
672 213
672 212
672 211
672 210
672 209
672 208
671 209
670 209
669 210
668 210
667 210
666 211
665 211
664 211
663 211
662 211
661 211
660 211
659 211
658 212
657 212
656 211
655 210
655 209
655 208
655 207
655 206
655 205
654 204
654 203
654 202
654 201
653 200
653 199
653 198
652 197
652 196
651 195
651 194
650 193
650 192
649 191
648 190
648 189
647 188
646 189
646 190
645 191
644 191
643 192
642 193
641 193
641 194
640 195
639 195
638 194
637 193
636 192
636 191
635 190
634 189
634 188
633 187
632 186
632 185
631 184
631 183
630 182
629 183
628 184
627 185
626 186
626 187
625 188
624 189
623 190
623 191
622 192
621 193
620 193
619 194
618 195
617 196
616 197
615 198
614 197
613 196
612 195
611 195
610 196
609 196
608 195
608 194
607 193
606 192
605 191
604 190
603 189
602 188
601 187
600 187
599 186
599 185
598 185
597 184
597 185
597 186
596 187
596 188
596 189
595 190
595 191
595 192
594 193
594 194
594 195
593 196
593 197
593 198
592 199
591 200
590 200
589 199
588 198
587 198
586 197
585 196
584 196
583 195
582 194
581 194
580 193
579 193
578 193
577 193
576 192
575 192
575 193
575 194
574 195
574 196
574 197
573 198
572 199
571 198
570 198
569 198
568 198
567 198
566 198
565 198
564 198
563 198
562 198
561 197
560 197
559 197
558 197
557 197
556 197
555 197
554 197
553 197
552 197
551 197
550 197
549 197
548 197
547 197
546 197
545 197
546 198
547 199
547 200
547 201
548 202
548 203
548 204
548 205
549 206
549 207
548 208
547 208
546 209
545 209
544 209
543 210
542 210
541 210
540 211
539 211
538 212
537 213
536 213
535 214
534 214
533 214
532 215
531 215
530 215
529 216
528 216
527 216
526 217
525 217
524 217
523 218
522 218
521 219
520 219
520 220
521 221
521 222
520 223
519 224
518 225
517 226
516 227
515 228
514 229
513 230
512 231
511 232
510 233
510 234
509 235
508 236
508 237
507 238
507 239
506 240
505 241
505 242
505 243
504 244
504 245
503 246
502 247
501 248
501 249
502 248
502 247
503 246
504 247
505 247
506 247
507 247
508 247
509 247
510 246
511 246
512 246
513 246
514 246
515 246
516 246
517 246
518 246
519 246
520 246
521 246
522 246
523 246
524 246
525 246
526 246
527 246
528 246
529 246
530 246
531 246
532 246
533 247
534 247
535 247
536 248
537 248
538 248
539 248
540 249
541 249
542 249
543 249
544 249
545 249
546 249
547 249
548 250
549 250
550 250
551 250
552 250
553 250
554 250
555 251
556 251
557 251
558 252
559 252
560 252
561 253
562 253
563 253
564 254
565 254
566 254
567 255
568 255
569 256
570 256
571 256
572 256
573 257
574 257
575 257
576 257
577 258
577 259
576 260
575 261
574 261
573 261
572 261
571 261
570 261
569 261
568 262
567 262
566 262
565 262
564 262
563 262
562 262
561 263
560 263
559 263
558 263
557 263
556 263
555 263
554 264
553 264
552 264
551 264
550 264
549 265
548 265
547 265
546 265
545 265
544 265
543 266
542 266
541 266
540 266
539 266
538 266
537 266
536 267
535 267
534 267
533 267
532 267
531 267
530 267
529 267
528 267
527 268
526 268
525 268
524 268
523 268
522 268
521 268
520 268
519 268
518 269
517 269
516 269
515 269
514 269
513 269
512 269
511 269
510 269
509 269
508 269
507 269
506 269
505 270
504 270
503 270
502 270
501 270
500 270
499 270
498 270
497 270
496 270
495 270
494 270
493 270
492 270
491 270
490 270
489 270
488 270
487 270
486 270
485 270
484 269
483 269
482 269
481 269
480 269
479 269
478 269
477 268
476 268
475 268
474 268
473 268
472 268
471 268
470 267
469 267
468 267
467 267
466 266
465 266
464 265
463 265
462 264
461 264
460 263
459 262
458 261
457 261
456 260
455 259
454 258
453 257
452 256
451 255
450 254
449 253
448 252
447 251
446 250
445 249
445 248
444 247
443 246
443 245
442 244
441 243
440 242
440 241
439 240
438 239
438 238
437 237
436 236
436 235
435 234
434 233
433 232
433 231
432 230
432 229
431 228
431 227
430 226
430 225
429 224
429 223
428 222
428 221
427 220
427 219
426 218
426 217
425 216
425 215
424 214
423 213
423 212
422 211
421 210
421 209
420 208
419 207
418 206
417 205
416 205
415 205
414 205
413 204
412 203
411 202
411 201
410 200
410 199
411 198
411 197
412 196
412 195
412 194
412 193
412 192
412 191
412 190
412 189
412 188
412 187
412 186
412 185
412 184
412 183
412 182
411 181
411 180
411 179
411 178
411 177
411 176
411 175
410 174
410 173
410 172
410 171
410 170
410 169
409 168
409 167
409 166
409 165
409 164
408 163
408 162
408 161
408 160
408 159
408 158
408 157
408 156
408 155
407 154
407 153
407 152
407 151
406 150
406 149
405 149
404 150
403 150
402 149
402 148
402 147
402 146
401 145
401 144
400 143
400 142
400 141
399 140
399 139
399 138
398 137
398 136
397 135
397 134
396 133
396 132
396 131
395 130
395 129
394 128
394 127
393 126
393 125
392 124
392 123
391 122
390 121
390 120
389 119
389 118
388 117
388 116
387 115
387 114
387 113
386 112
386 111
386 110
385 109
385 108
384 107
384 106
384 105
383 104
383 103
382 102
381 101
380 100
379 100
378 99
378 98
377 97
377 96
376 95
375 94
375 93
374 92
373 91
373 90
372 89
371 88
371 87
370 86
369 85
368 84
368 83
367 82
366 81
365 82
365 83
365 84
364 85
363 86
362 87
361 88
360 89
359 90
358 91
357 91
356 90
356 89
355 88
354 87
354 86
353 85
352 84
351 83
351 82
350 81
349 80
349 79
348 78
348 77
347 76
346 75
346 74
345 73
344 72
343 71
342 70
342 69
341 68
340 67
339 66
338 65
338 66
338 67
337 68
336 69
335 70
334 71
333 71
332 70
331 70
330 69
329 68
328 68
327 67
326 66
325 66
324 65
323 65
322 64
321 64
320 63
319 63
318 63
317 63
316 62
315 62
314 62
313 61
312 61
311 61
310 61
309 60
308 60
307 60
306 59
305 59
304 59
303 59
