565 25
564 26
563 27
562 28
561 29
560 30
560 31
559 32
559 33
558 34
558 35
557 36
557 37
557 38
556 39
556 40
555 41
555 42
554 43
553 44
553 45
552 46
552 47
551 48
551 49
550 50
550 51
549 52
549 53
548 54
547 55
546 56
545 57
544 58
543 59
542 60
541 61
540 62
539 63
539 64
538 65
537 66
536 67
536 68
535 69
534 70
534 71
533 72
533 73
533 74
532 75
532 76
532 77
531 78
531 79
530 80
529 80
528 79
527 80
526 81
525 82
524 83
523 84
522 85
521 86
521 87
520 88
519 89
519 90
518 91
517 92
517 93
516 94
515 95
514 96
514 97
513 98
512 99
512 100
511 101
510 102
510 103
509 104
508 105
508 106
507 107
507 108
506 109
506 110
506 111
505 112
505 113
504 114
504 115
504 116
503 117
503 118
502 119
502 120
502 121
502 122
501 123
501 124
501 125
501 126
500 127
500 128
500 129
500 130
499 131
499 132
499 133
499 134
499 135
499 136
499 137
499 138
498 139
497 139
496 138
495 138
494 138
493 139
493 140
492 141
491 142
491 143
491 144
490 145
490 146
489 147
489 148
489 149
488 150
488 151
488 152
487 153
487 154
487 155
486 156
486 157
486 158
486 159
486 160
485 161
485 162
485 163
485 164
485 165
485 166
485 167
484 168
484 169
484 170
484 171
484 172
483 173
482 173
481 174
481 175
480 176
479 177
479 178
478 179
478 180
478 181
477 182
477 183
477 184
476 185
476 186
476 187
476 188
476 189
476 190
475 191
475 192
475 193
475 194
474 195
474 196
474 197
474 198
474 199
473 200
473 201
473 202
473 203
473 204
473 205
472 206
472 207
472 208
472 209
471 210
471 211
471 212
470 213
470 214
470 215
469 216
469 217
469 218
469 219
469 220
468 221
468 222
468 223
468 224
468 225
467 226
466 227
466 228
466 229
466 230
466 231
465 232
465 233
466 234
466 235
466 236
466 237
466 238
466 239
466 240
466 241
466 242
466 243
466 244
466 245
467 246
467 247
467 248
466 249
466 250
466 251
466 252
466 253
466 254
467 255
467 256
467 257
467 258
467 259
467 260
467 261
468 262
468 263
468 264
468 265
468 266
468 267
468 268
468 269
469 270
469 271
469 272
469 273
469 274
470 275
470 276
470 277
470 278
470 279
470 280
471 281
471 282
471 283
472 284
472 285
472 286
472 287
473 288
473 289
473 290
474 291
474 292
474 293
475 294
475 295
476 296
476 297
476 298
477 299
477 300
478 301
478 302
479 303
479 304
480 305
481 306
481 307
482 308
483 309
483 310
484 311
485 312
486 313
486 314
487 315
488 316
488 317
489 318
490 319
490 320
491 321
492 322
492 323
493 324
494 325
494 326
495 327
496 328
497 329
497 330
498 331
499 332
500 333
501 334
502 335
503 336
504 336
505 337
506 338
507 339
508 340
509 341
510 342
511 343
512 344
513 345
514 346
515 347
516 348
517 349
518 349
519 350
520 351
521 352
522 352
523 353
524 354
525 354
526 355
527 356
528 356
529 357
530 358
531 358
532 359
533 359
534 360
535 361
536 361
537 362
538 363
539 363
540 363
541 364
542 365
542 366
543 367
543 368
544 369
544 370
545 371
545 372
546 373
545 374
544 374
543 374
542 374
541 374
540 374
539 374
538 374
537 374
536 374
535 374
534 374
533 374
532 374
531 374
530 374
529 374
528 374
527 374
526 374
525 374
524 374
523 374
522 374
521 374
520 374
519 374
518 374
517 374
516 374
515 374
514 374
513 374
512 374
511 374
510 374
509 373
508 373
507 373
506 373
505 373
504 373
503 373
502 373
501 373
500 373
499 373
498 373
497 373
496 373
495 373
494 373
493 373
492 373
491 373
490 373
489 373
488 372
487 372
486 372
485 371
484 371
483 370
482 370
481 369
480 369
479 368
478 368
477 367
476 367
475 366
474 365
473 364
472 363
471 362
470 361
469 360
468 359
468 358
467 357
466 357
465 356
465 355
464 354
463 353
462 352
462 351
461 350
460 349
459 348
458 347
457 346
457 345
456 344
455 343
454 342
453 341
452 340
451 339
450 338
449 337
448 336
447 335
447 334
446 333
445 332
444 331
443 330
442 329
441 328
440 327
439 326
438 325
437 325
436 324
435 323
434 322
433 321
432 320
431 320
430 319
429 318
428 318
427 317
426 316
425 315
424 315
423 314
422 313
421 312
420 312
419 311
418 311
417 310
416 309
415 308
414 308
413 307
412 307
411 306
410 306
409 305
408 305
407 304
406 304
405 303
404 303
403 302
402 302
401 301
400 300
399 299
398 299
397 298
396 297
395 296
394 296
393 295
392 294
391 294
390 293
389 293
388 292
387 292
386 291
385 290
384 290
383 289
382 289
381 288
380 288
379 287
378 286
377 286
376 285
375 285
374 284
373 284
372 283
371 283
370 282
369 282
368 281
367 281
366 280
365 280
364 279
363 279
362 279
361 278
360 278
359 278
358 277
357 277
356 277
355 276
354 276
353 276
352 275
351 275
350 275
349 274
348 274
347 274
346 274
345 273
344 273
343 273
342 273
341 273
340 273
339 273
338 272
337 272
336 272
335 272
334 272
333 272
332 272
331 272
330 272
329 272
328 272
327 272
326 271
325 271
324 271
323 271
322 270
321 270
320 269
319 269
318 268
317 267
316 267
315 266
314 265
313 265
312 264
311 264
310 263
309 263
308 263
307 262
306 262
305 262
304 262
303 261
302 261
301 261
300 261
299 261
298 261
297 261
296 261
295 261
294 261
293 261
292 261
291 261
290 261
289 262
289 263
289 264
288 265
287 264
286 264
285 263
284 263
283 262
282 262
281 262
280 261
279 261
278 261
277 261
276 260
275 260
274 260
273 260
272 260
271 259
270 259
269 259
268 259
267 259
266 259
265 260
264 260
263 260
262 260
261 261
260 261
259 261
258 261
257 261
256 262
255 261
254 261
253 262
252 262
251 263
250 263
249 262
248 262
247 262
246 262
245 262
244 263
243 263
242 263
241 263
240 264
239 264
238 264
237 265
236 265
235 266
234 266
233 266
232 267
231 268
230 268
229 269
228 270
227 270
226 271
225 271
224 272
223 272
222 273
221 273
220 273
219 273
218 274
217 274
216 274
215 274
214 274
213 274
212 275
211 275
210 275
209 275
208 275
207 276
206 276
205 276
204 277
203 278
203 279
204 280
204 281
204 282
203 283
202 283
201 283
200 283
199 283
198 283
197 283
196 283
195 283
194 284
193 284
192 285
191 285
190 285
189 286
188 287
187 287
186 288
185 288
184 289
183 290
182 290
181 291
180 291
179 292
178 292
177 293
176 293
175 294
174 295
173 295
172 296
172 297
173 298
173 299
173 300
174 301
174 302
174 303
175 304
175 305
174 306
173 306
172 306
171 306
170 306
169 307
168 307
167 308
166 308
165 308
164 309
163 309
162 310
161 311
160 311
159 312
158 312
157 313
156 314
155 315
154 316
153 317
152 318
151 319
150 320
149 321
148 322
147 323
146 324
145 325
144 326
143 327
143 328
142 329
141 330
140 331
141 332
141 333
142 334
142 335
143 336
142 337
141 337
140 337
139 338
138 338
137 338
136 338
135 339
134 339
133 339
132 340
131 340
130 341
129 341
128 342
127 342
126 343
125 344
124 344
123 345
122 346
121 346
121 347
120 348
119 349
118 350
118 351
118 352
118 353
117 354
116 355
115 355
114 355
113 356
112 356
111 357
110 357
109 357
108 358
107 358
106 359
105 359
104 360
103 360
102 361
101 361
100 361
99 361
98 362
97 362
96 363
95 363
94 364
93 364
92 365
91 365
90 366
89 366
88 367
87 367
86 367
85 367
84 367
83 367
82 367
81 367
80 368
79 368
78 368
77 368
76 368
75 368
74 368
73 368
72 368
71 369
70 369
69 369
68 369
67 369
66 369
65 370
64 370
64 371
64 372
64 373
65 374
65 375
64 376
64 377
64 378
65 379
66 379
67 380
68 381
69 382
70 383
71 383
72 384
73 384
74 385
75 385
76 386
77 386
78 387
79 387
80 388
81 388
82 388
83 389
84 389
85 389
86 389
87 389
88 390
89 390
90 391
91 392
92 392
93 393
94 393
95 394
96 395
97 396
98 397
99 398
100 399
101 399
102 400
103 401
104 401
105 402
106 403
107 403
108 404
109 405
110 405
111 406
112 407
113 407
114 408
115 408
116 409
117 409
118 410
119 411
119 412
120 413
120 414
121 415
121 416
122 417
123 418
124 419
125 420
126 421
127 421
128 422
129 423
130 424
131 424
132 425
133 426
134 427
135 427
136 428
137 429
138 429
139 430
140 431
141 431
142 432
143 432
144 433
145 433
146 434
147 434
148 435
149 436
149 437
148 438
148 439
147 440
147 441
148 442
148 443
149 444
150 445
151 446
152 447
153 448
154 449
155 450
156 450
157 451
158 452
159 453
160 454
161 455
162 455
163 456
164 457
165 458
166 459
167 459
168 460
169 461
170 461
171 462
172 463
173 463
174 464
175 464
176 465
177 465
178 466
179 466
180 467
181 467
182 468
183 468
184 468
185 468
186 469
187 469
188 469
189 469
190 469
191 470
191 471
191 472
190 473
190 474
190 475
190 476
191 477
192 478
193 479
194 480
195 480
196 481
197 481
198 482
199 483
200 484
201 484
202 485
203 485
204 486
205 487
206 487
207 488
208 488
209 489
210 489
211 489
212 490
213 490
214 491
215 491
216 491
217 491
218 492
219 493
220 494
221 495
222 496
223 497
224 498
225 498
226 499
227 499
228 500
229 500
230 500
231 500
232 500
233 501
234 501
235 501
236 501
237 501
238 501
239 501
240 501
241 501
242 501
243 501
244 501
245 501
246 501
247 501
248 500
249 500
250 500
251 500
252 500
253 500
254 500
255 501
256 502
257 503
257 504
258 504
259 505
260 505
261 505
262 506
263 506
264 506
265 506
266 507
267 507
268 507
269 507
270 508
271 508
272 508
273 508
274 508
275 508
276 508
277 508
278 508
279 509
280 509
281 509
282 509
283 509
284 509
285 509
286 509
287 509
288 508
289 508
290 508
291 508
292 508
293 508
294 508
295 507
296 507
297 507
298 507
299 507
300 506
301 506
302 506
303 506
304 506
305 506
306 505
307 505
308 505
309 505
310 505
311 505
312 505
313 504
314 504
315 504
316 504
317 504
318 504
319 503
320 503
321 503
322 502
323 502
324 502
325 502
326 501
327 501
328 501
329 500
330 500
331 500
332 499
333 499
334 499
335 498
336 498
337 497
338 497
339 496
340 496
341 496
342 495
343 495
344 494
345 494
346 493
347 493
348 493
349 492
350 492
351 491
352 491
353 490
354 490
355 490
356 489
357 489
358 489
359 488
360 488
361 487
362 487
363 486
364 485
365 485
366 485
367 484
368 484
369 483
370 482
371 482
372 481
373 481
374 480
375 479
376 478
377 478
378 477
379 476
380 475
381 475
382 474
383 474
384 473
385 472
386 471
387 470
388 470
389 470
390 469
391 468
392 467
393 466
394 465
395 464
396 464
397 463
398 463
398 462
399 461
400 460
401 460
402 459
403 458
404 457
405 456
406 455
407 454
408 453
409 452
410 451
411 450
412 449
412 448
413 447
414 446
415 445
416 445
417 444
418 443
419 442
420 442
421 441
422 440
423 439
424 438
425 437
426 437
427 436
428 435
429 435
430 434
431 434
432 433
433 432
434 432
434 431
435 430
436 430
436 429
437 428
438 428
438 427
439 426
440 426
441 425
442 424
442 423
443 422
444 421
445 420
445 419
446 418
447 417
448 417
448 416
448 415
449 414
450 413
451 412
452 412
452 411
453 410
454 409
454 408
455 407
455 406
456 405
457 404
458 403
459 402
459 401
460 400
460 399
461 398
462 397
462 396
463 395
464 394
464 393
465 392
466 391
467 390
468 389
469 389
470 388
471 388
472 387
473 386
474 385
475 385
476 384
477 384
478 383
479 382
480 382
481 382
482 381
483 381
484 381
485 381
486 380
487 380
488 380
489 380
490 380
491 379
492 379
493 379
494 379
495 379
496 379
497 379
498 379
499 379
500 379
501 379
502 379
503 379
504 379
505 379
506 379
507 379
508 379
509 379
510 379
511 379
512 379
513 379
514 379
515 379
516 379
517 379
518 379
519 379
520 379
521 379
522 379
523 380
524 380
525 380
526 380
527 380
528 380
529 380
530 380
531 380
532 380
533 380
534 380
535 381
536 381
537 381
538 381
539 381
540 381
541 381
542 381
543 381
544 381
545 381
546 382
546 383
546 384
545 385
545 386
544 387
544 388
543 389
543 390
542 391
542 392
541 393
540 394
539 395
538 395
537 395
536 396
535 396
534 397
533 397
532 398
531 398
530 398
529 399
528 399
527 400
526 400
525 401
524 401
523 402
522 402
521 403
520 403
519 404
518 404
517 405
516 405
515 406
514 406
513 406
512 407
511 408
510 408
509 409
508 409
507 410
506 410
505 411
504 411
503 412
502 413
501 413
500 414
499 415
498 415
497 416
496 417
495 418
494 418
493 419
492 420
491 420
490 421
489 421
488 422
487 423
486 423
485 424
484 424
483 425
482 426
481 426
480 427
479 428
478 428
477 429
476 430
475 430
474 431
473 432
472 433
471 434
470 435
469 436
468 436
467 437
466 438
465 439
465 440
464 441
463 442
462 443
461 444
460 445
459 446
458 447
457 448
456 449
455 450
454 451
453 452
452 453
451 454
450 454
450 455
449 456
448 457
447 458
446 459
446 460
445 461
444 462
444 463
443 464
443 465
442 466
442 467
441 468
441 469
441 470
440 471
440 472
440 473
440 474
440 475
439 476
439 477
439 478
438 479
438 480
437 481
437 482
437 483
437 484
437 485
438 486
438 487
438 488
437 489
437 490
436 491
435 492
434 493
434 494
433 495
433 496
432 497
431 498
431 499
431 500
430 501
430 502
429 503
429 504
428 505
428 506
428 507
427 508
427 509
427 510
426 511
426 512
426 513
426 514
425 515
425 516
425 517
425 518
425 519
424 520
424 521
424 522
424 523
424 524
424 525
424 526
424 527
424 528
425 529
425 530
425 531
425 532
426 533
426 534
427 535
428 536
427 537
427 538
426 539
425 540
425 541
425 542
424 543
424 544
423 545
423 546
422 547
422 548
422 549
421 550
421 551
421 552
421 553
420 554
420 555
420 556
420 557
419 558
419 559
419 560
418 561
417 562
417 563
417 564
417 565
416 566
416 567
416 568
415 569
415 570
415 571
415 572
415 573
415 574
415 575
415 576
414 577
414 578
414 579
414 580
414 581
414 582
413 583
413 584
413 585
413 586
413 587
413 588
413 589
413 590
413 591
413 592
412 593
412 594
412 595
413 596
413 597
413 598
413 599
413 600
413 601
413 602
413 603
413 604
414 605
414 606
414 607
414 608
414 609
414 610
414 611
414 612
414 613
414 614
414 615
414 616
414 617
414 618
414 619
415 620
415 621
415 622
415 623
416 624
417 625
417 626
418 627
418 628
419 629
419 630
420 631
419 632
420 633
419 634
419 635
419 636
419 637
419 638
419 639
419 640
419 641
419 642
419 643
420 644
420 645
420 646
420 647
420 648
420 649
420 650
421 651
421 652
421 653
421 654
422 655
422 656
422 657
423 658
423 659
424 660
424 661
424 662
425 663
426 663
427 663
428 663
429 663
430 664
430 665
430 666
429 667
429 668
429 669
429 670
429 671
429 672
428 673
428 674
428 675
428 676
428 677
428 678
428 679
428 680
428 681
427 682
427 683
427 684
427 685
427 686
427 687
427 688
427 689
427 690
427 691
427 692
428 693
428 694
428 695
428 696
428 697
428 698
428 699
429 700
429 701
429 702
429 703
429 704
430 705
430 706
430 707
431 708
432 709
432 710
433 711
433 712
434 713
435 714
436 715
436 716
436 717
436 718
437 719
437 720
437 721
437 722
437 723
437 724
437 725
437 726
437 727
437 728
437 729
437 730
438 731
438 732
438 733
438 734
438 735
438 736
439 737
439 738
440 739
440 740
440 741
440 742
441 743
441 744
441 745
441 746
441 747
441 748
441 749
441 750
442 751
442 752
442 753
442 754
442 755
442 756
442 757
442 758
442 759
442 760
443 761
443 762
443 763
443 764
443 765
443 766
443 767
444 768
444 769
445 770
445 771
446 771
447 770
448 770
449 770
450 769
451 768
452 767
453 766
453 765
454 764
455 763
456 762
457 761
458 760
458 759
459 758
460 757
460 756
461 755
462 754
462 753
463 752
464 751
464 750
465 749
465 748
466 747
467 746
468 745
469 744
470 743
471 742
472 742
473 741
474 740
475 739
475 738
476 737
477 736
478 735
479 734
480 733
481 732
482 731
483 730
484 729
484 728
485 727
486 726
487 725
488 725
489 724
490 724
491 723
492 723
493 722
494 721
495 721
496 720
497 719
498 719
499 718
500 717
501 716
502 715
502 714
503 713
504 712
504 711
505 710
506 709
506 708
507 707
508 706
509 705
509 704
510 703
511 702
512 701
512 700
513 699
514 698
514 697
515 696
515 695
515 694
516 693
516 692
517 691
517 690
518 689
519 688
519 687
520 686
520 685
521 684
521 683
522 682
522 681
522 680
523 679
523 678
523 677
524 676
525 677
526 678
527 679
528 679
529 679
530 679
531 678
532 678
533 677
534 676
535 675
536 674
536 673
537 672
538 671
538 670
539 669
539 668
540 667
540 666
541 665
541 664
541 663
542 662
542 661
543 660
543 659
543 658
544 657
545 656
545 655
546 654
546 653
547 652
547 651
548 650
549 649
550 648
550 647
551 646
552 645
553 644
554 643
555 642
556 641
557 640
557 639
558 638
559 637
559 636
559 635
560 634
560 633
561 632
561 631
561 630
562 629
562 628
563 627
563 626
564 625
564 624
565 623
565 622
565 621
566 620
566 619
567 618
567 617
567 616
568 615
568 614
568 613
568 612
568 611
568 610
569 609
570 610
571 610
572 610
573 611
574 611
575 611
576 612
577 611
577 610
578 609
579 608
580 607
580 606
581 605
581 604
582 603
582 602
583 601
584 600
584 599
584 598
585 597
585 596
585 595
586 594
586 593
587 592
587 591
588 590
588 589
588 588
588 587
589 586
589 585
589 584
589 583
589 582
589 581
589 580
589 579
589 578
589 577
588 576
588 575
588 574
588 573
588 572
588 571
589 570
590 569
590 568
591 567
591 566
591 565
591 564
591 563
592 562
592 561
592 560
592 559
592 558
592 557
592 556
592 555
592 554
592 553
592 552
592 551
592 550
592 549
591 548
591 547
592 546
592 545
592 544
592 543
592 542
592 541
592 540
592 539
592 538
592 537
592 536
592 535
592 534
592 533
592 532
592 531
592 530
593 529
593 528
593 527
593 526
593 525
593 524
593 523
593 522
593 521
594 520
595 519
595 518
596 517
596 516
596 515
597 514
597 513
597 512
598 511
598 510
598 509
598 508
598 507
598 506
598 505
598 504
598 503
598 502
598 501
598 500
598 499
598 498
598 497
598 496
598 495
598 494
598 493
598 492
598 491
598 490
598 489
598 488
598 487
598 486
598 485
598 484
598 483
598 482
598 481
597 480
597 479
597 478
597 477
596 476
596 475
596 474
596 473
595 472
595 471
595 470
594 469
594 468
594 467
594 466
594 465
593 464
593 463
592 462
592 461
592 460
592 459
591 458
591 457
591 456
590 455
590 454
589 453
588 452
588 451
587 450
587 449
586 448
585 447
584 446
584 445
583 444
582 443
581 442
581 441
580 440
579 439
578 438
577 437
577 436
576 435
575 434
574 433
573 432
572 431
571 430
570 429
569 428
568 427
568 426
567 425
566 424
565 423
564 422
563 421
562 420
561 419
560 418
559 418
558 417
557 416
556 416
555 415
554 414
553 413
552 413
551 412
550 411
549 411
548 410
547 409
546 408
545 407
544 406
543 405
543 404
542 403
542 402
543 401
543 400
543 399
544 398
544 397
545 396
545 395
546 394
546 393
547 392
547 391
548 390
548 389
549 388
549 387
550 386
550 385
551 384
552 383
553 382
554 381
555 381
556 381
557 380
558 380
559 380
560 380
561 379
562 379
563 379
564 378
565 378
566 378
567 377
568 377
569 377
570 377
571 376
572 376
573 376
574 375
575 375
576 375
577 374
578 374
579 374
580 374
581 374
582 373
583 373
584 373
585 372
586 372
587 372
588 372
589 371
590 371
591 371
592 371
593 370
594 370
595 370
596 369
597 369
598 369
599 369
600 368
601 368
602 368
603 367
604 367
605 367
606 366
607 366
608 366
609 366
610 365
611 365
612 365
613 364
614 364
615 364
616 364
617 363
618 363
619 363
620 362
621 362
622 361
623 361
624 361
625 361
626 360
627 360
628 360
629 359
630 359
631 359
632 358
633 358
634 358
635 357
636 357
637 356
638 356
639 356
640 356
641 355
642 355
643 355
644 354
645 354
646 354
647 353
648 353
649 353
650 352
651 352
652 351
653 351
654 351
655 350
656 350
657 350
658 349
659 349
660 348
661 348
662 348
663 347
664 347
665 347
666 346
667 346
668 345
669 345
670 345
671 344
672 344
673 344
674 343
675 343
676 342
677 342
678 342
679 341
680 341
681 341
682 340
683 340
684 339
685 339
686 338
687 338
688 338
689 337
690 337
691 336
692 336
693 336
694 335
695 335
696 334
697 334
698 334
699 333
700 333
701 332
702 332
703 332
704 331
705 331
706 330
707 330
708 330
709 329
710 329
711 329
712 328
713 328
714 327
715 327
716 327
717 326
718 326
719 325
720 325
721 325
722 324
723 324
724 324
725 323
726 323
727 322
728 322
729 321
730 321
731 320
732 320
733 319
734 319
735 318
736 317
737 316
737 315
737 314
737 313
737 312
736 311
735 310
735 309
735 308
735 307
734 308
733 309
732 309
731 310
730 311
729 312
728 312
727 313
726 313
725 314
724 315
723 315
722 316
721 316
720 317
719 317
718 318
717 318
716 319
715 319
714 320
713 320
712 321
711 321
710 321
709 322
708 322
707 323
706 323
705 324
704 324
703 325
702 325
701 325
700 326
699 326
698 327
697 327
696 328
695 328
694 329
693 329
692 329
691 330
690 330
689 331
688 331
687 332
686 332
685 332
684 333
683 333
682 334
681 334
680 334
679 335
678 335
677 336
676 336
675 336
674 337
673 337
672 338
671 338
670 338
669 339
668 339
667 340
666 340
665 340
664 341
663 341
662 341
661 342
660 342
659 343
658 343
657 343
656 344
655 344
654 344
653 345
652 345
651 345
650 346
649 346
648 347
647 347
646 347
645 348
644 348
643 348
642 349
641 349
640 350
639 350
638 350
637 350
636 351
635 351
634 352
633 352
632 352
631 353
630 353
629 353
628 354
627 354
626 354
625 354
624 355
623 355
622 355
621 356
620 356
619 356
618 357
617 357
616 357
615 358
614 358
613 358
612 359
611 359
610 359
609 359
608 360
607 360
606 361
605 361
604 361
603 361
602 362
601 362
600 362
599 362
598 363
597 363
596 363
595 364
594 364
593 364
592 365
591 365
590 365
589 365
588 365
587 366
586 366
585 366
584 366
583 366
582 367
581 367
580 367
579 367
578 368
577 368
576 368
575 369
574 369
573 369
572 369
571 369
570 369
569 370
568 370
567 370
566 370
565 370
564 371
563 371
562 371
561 371
560 371
559 371
558 372
557 372
556 372
555 372
554 372
553 372
552 372
551 371
550 370
549 369
549 368
548 367
548 366
547 365
547 364
546 363
545 362
545 361
545 360
544 359
544 358
544 357
544 356
543 355
543 354
543 353
543 352
543 351
544 350
545 349
546 349
547 348
548 348
549 348
550 348
551 347
552 347
553 347
554 346
555 346
556 346
557 345
558 345
559 344
560 344
561 343
562 342
563 342
564 341
565 341
566 340
567 340
568 339
569 338
570 338
571 337
572 337
573 336
574 336
575 335
576 335
577 335
578 334
579 333
580 333
581 332
582 332
583 331
584 330
585 330
586 329
586 328
587 327
588 327
589 326
590 325
591 324
592 323
593 322
594 321
595 320
596 319
597 318
598 317
598 316
599 315
600 314
600 313
601 312
602 311
603 310
603 309
604 308
605 307
605 306
606 305
607 304
607 303
608 302
608 301
609 300
609 299
610 298
610 297
611 296
611 295
612 294
612 293
613 292
613 291
614 290
614 289
615 288
616 287
616 286
617 285
617 284
618 283
619 282
619 281
620 280
620 279
620 278
621 277
621 276
622 275
622 274
622 273
623 272
623 271
623 270
624 269
624 268
624 267
624 266
625 265
625 264
625 263
625 262
626 261
626 260
626 259
626 258
626 257
626 256
627 255
627 254
627 253
627 252
627 251
627 250
627 249
628 248
628 247
628 246
628 245
628 244
628 243
627 242
627 241
627 240
626 239
626 238
626 237
627 236
627 235
627 234
627 233
627 232
628 231
628 230
628 229
628 228
628 227
628 226
628 225
628 224
628 223
628 222
629 221
629 220
629 219
629 218
629 217
629 216
629 215
629 214
629 213
629 212
629 211
629 210
629 209
629 208
629 207
629 206
629 205
629 204
629 203
629 202
629 201
629 200
629 199
629 198
629 197
629 196
629 195
629 194
629 193
628 192
628 191
627 190
627 189
626 188
625 187
624 186
623 185
622 185
621 185
620 184
621 183
621 182
621 181
621 180
622 179
622 178
622 177
622 176
622 175
622 174
622 173
622 172
622 171
622 170
622 169
622 168
621 167
621 166
621 165
621 164
621 163
621 162
620 161
620 160
620 159
619 158
619 157
619 156
619 155
618 154
618 153
618 152
617 151
617 150
617 149
617 148
616 147
616 146
616 145
616 144
616 143
615 142
615 141
615 140
615 139
614 138
614 137
614 136
613 135
613 134
613 133
612 132
612 131
612 130
611 129
611 128
610 127
610 126
610 125
609 124
608 123
608 122
608 121
607 120
607 119
606 118
605 117
604 116
603 116
602 116
601 116
600 117
599 116
599 115
599 114
599 113
599 112
599 111
599 110
599 109
599 108
599 107
598 106
598 105
598 104
598 103
598 102
597 101
597 100
597 99
597 98
597 97
596 96
596 95
596 94
595 93
595 92
595 91
595 90
594 89
594 88
593 87
593 86
592 85
591 84
591 83
590 82
589 81
588 80
587 79
586 78
585 79
584 80
583 80
582 80
581 81
580 81
579 81
578 81
577 82
576 82
575 83
574 83
573 83
572 83
571 83
570 84
569 84
568 84
567 84
566 83
567 82
568 82
569 82
570 81
571 81
572 81
573 81
574 80
575 80
576 79
577 78
578 78
579 78
580 77
581 77
581 76
581 75
581 74
581 73
581 72
581 71
581 70
581 69
580 68
580 67
580 66
580 65
580 64
579 63
579 62
578 61
578 60
578 59
577 58
576 57
576 56
575 55
575 54
574 53
574 52
574 51
573 50
573 49
573 48
573 47
572 46
572 45
572 44
572 43
571 42
571 41
571 40
571 39
570 38
570 37
570 36
570 35
569 34
569 33
569 32
569 31
568 30
568 29
568 28
567 27
566 26
566 25
565 25
