376 70
375 71
374 71
373 71
372 71
371 71
370 71
369 71
368 71
367 72
366 72
365 72
364 72
363 72
362 72
361 72
360 73
359 73
358 73
357 72
356 72
355 73
354 73
353 73
352 73
351 73
350 74
349 74
348 74
347 74
346 74
345 75
344 75
343 75
342 76
341 76
340 75
339 75
338 75
337 75
336 75
335 75
334 76
333 76
332 76
331 76
330 76
329 76
328 76
327 76
326 76
325 77
324 77
323 77
322 76
321 76
320 76
319 76
318 76
317 77
316 77
315 77
314 77
313 77
312 77
311 78
310 78
309 78
308 79
307 79
306 79
305 80
304 80
303 80
302 81
301 81
300 82
299 82
298 82
297 83
296 83
295 83
294 83
293 84
292 84
291 84
290 84
289 85
288 85
287 85
286 86
285 86
284 87
283 87
282 87
281 87
280 87
279 88
278 88
277 88
276 89
275 89
274 89
273 90
272 90
271 90
270 91
269 91
268 91
267 92
266 92
265 92
264 92
263 92
262 92
261 93
260 93
259 93
258 93
257 93
256 94
255 94
254 94
253 94
252 95
251 95
250 96
249 96
248 97
247 97
246 97
245 97
244 97
243 98
242 98
241 98
240 98
239 99
238 99
237 99
236 100
235 101
234 101
233 101
232 101
231 101
230 101
229 101
228 102
227 102
226 102
225 102
224 103
223 103
222 103
221 104
220 104
219 104
218 105
217 104
216 104
215 105
214 105
213 105
212 106
211 106
210 106
209 106
208 107
207 107
206 107
205 107
204 108
203 108
202 108
201 109
200 109
199 109
198 110
197 110
196 111
195 111
194 111
193 112
192 113
191 113
190 114
189 115
188 115
187 116
186 117
185 118
184 119
183 119
182 120
181 121
180 122
179 123
178 123
177 124
176 125
175 125
174 126
173 126
172 127
171 127
170 128
169 129
168 130
167 130
166 131
165 132
164 133
163 133
162 134
161 134
160 135
159 135
158 135
157 136
156 136
155 136
154 137
153 137
152 137
151 137
150 137
149 138
148 138
147 138
146 138
145 139
144 139
143 140
142 140
141 140
140 141
139 141
138 142
137 142
136 142
135 142
134 143
133 143
132 144
131 144
130 144
129 145
128 145
127 145
126 146
125 146
124 147
123 147
122 147
121 148
120 148
119 149
118 149
117 149
116 150
115 150
114 151
113 151
112 152
111 152
110 152
109 153
108 154
107 154
106 155
105 155
104 156
103 156
102 156
101 157
100 157
99 158
98 158
97 159
96 159
95 159
94 160
93 160
92 161
91 161
90 161
89 161
88 161
87 161
86 162
85 162
84 162
85 163
85 164
85 165
86 166
87 167
88 168
89 168
90 169
91 169
92 170
93 170
94 171
95 172
96 172
97 173
97 174
98 175
99 176
99 177
100 178
101 179
102 180
103 181
103 182
104 183
105 184
106 185
107 186
108 187
109 188
110 189
111 190
112 191
113 192
114 193
115 194
116 195
117 196
118 197
119 198
120 199
121 200
122 200
123 201
124 202
125 203
126 204
127 204
128 205
129 206
130 207
131 208
132 208
133 209
134 210
135 211
136 211
137 212
138 212
139 213
139 214
140 214
141 215
142 216
143 217
144 218
145 219
146 219
147 220
148 221
149 222
150 223
151 223
152 224
153 225
154 225
155 226
156 227
157 228
158 228
159 229
160 230
161 230
162 231
163 231
164 232
165 232
166 233
167 233
168 234
169 234
170 235
171 235
172 236
173 236
174 237
175 237
176 238
177 238
178 238
179 239
180 239
181 240
182 240
183 240
184 241
185 241
186 241
187 242
188 242
189 243
190 243
191 244
192 244
193 245
194 245
195 245
196 246
197 247
198 248
199 248
200 249
201 250
202 250
203 251
204 251
205 252
206 252
207 252
208 252
209 253
210 253
211 253
212 253
213 254
214 254
215 254
216 255
217 255
218 255
219 256
220 256
221 256
222 256
223 257
224 257
225 257
226 258
227 258
228 258
229 258
230 259
231 259
232 259
233 260
234 260
235 260
236 261
237 261
238 261
239 261
240 261
241 262
242 262
243 262
244 262
245 262
246 263
247 263
248 263
249 264
250 264
251 265
252 265
253 265
254 265
255 266
256 266
257 266
258 267
259 267
260 267
261 267
262 267
263 268
264 268
265 268
266 268
267 269
268 269
269 269
270 269
271 270
272 270
273 270
274 271
275 271
276 271
277 272
278 272
279 272
280 273
281 273
282 273
283 273
284 274
285 274
286 274
287 274
288 275
289 275
290 275
291 275
292 275
293 275
294 275
295 276
296 276
297 276
298 276
299 276
300 276
301 277
302 277
303 277
304 277
305 277
306 278
307 278
308 278
309 278
310 278
311 278
312 279
313 279
314 279
315 279
316 280
317 280
318 280
319 280
320 281
321 281
322 281
323 282
324 282
325 283
326 283
327 284
328 284
329 284
330 284
331 285
332 285
333 285
334 286
335 286
336 286
337 286
338 286
339 287
340 287
341 287
342 287
343 287
344 287
345 287
346 286
347 286
348 286
349 286
350 286
351 286
352 286
353 286
354 286
355 286
356 286
357 286
358 286
359 286
360 286
361 286
362 286
363 286
364 286
365 286
366 286
367 287
368 287
369 287
370 287
371 287
372 287
373 287
374 287
375 287
376 287
377 288
378 288
379 288
380 288
381 288
382 288
383 288
384 288
385 289
386 289
387 289
388 289
389 289
390 289
391 289
392 289
393 290
394 290
395 290
396 290
397 290
398 290
399 290
400 290
401 291
402 291
403 291
404 291
405 291
406 291
407 291
408 291
409 291
410 291
411 291
412 291
413 291
414 291
415 292
416 292
417 292
418 291
419 291
420 292
421 292
422 291
423 291
424 292
425 291
426 291
427 291
428 291
429 291
430 291
431 291
432 291
433 291
434 291
435 291
436 291
437 291
438 291
439 291
440 291
441 291
442 291
443 291
444 291
445 291
446 291
447 291
448 291
449 291
450 291
451 291
452 291
453 291
454 291
455 291
456 291
457 291
458 291
459 291
460 291
461 291
462 291
463 292
464 292
465 292
466 292
467 292
468 292
469 292
470 292
471 292
472 292
473 292
474 292
475 291
476 291
477 291
478 291
479 291
480 291
481 291
482 291
483 291
484 290
485 290
486 290
487 290
488 290
489 289
490 289
491 289
492 289
493 289
494 289
495 288
496 288
497 288
498 288
499 288
500 288
501 288
502 287
503 287
504 287
505 287
506 287
507 287
508 287
509 286
510 286
511 286
512 286
513 285
514 285
515 285
516 285
517 285
518 284
519 284
520 284
521 284
522 284
523 284
524 283
525 283
526 283
527 283
528 283
529 283
530 282
531 282
532 282
533 282
534 282
535 282
536 282
537 281
538 281
539 281
540 281
541 281
542 280
543 280
544 280
545 280
546 280
547 280
548 280
549 279
550 279
551 279
552 279
553 278
554 278
555 278
556 278
557 278
558 278
559 277
560 277
561 277
562 277
563 277
564 276
565 276
566 276
567 276
568 275
569 275
570 275
571 275
572 274
573 274
574 273
575 273
576 273
577 273
578 272
579 272
580 272
581 272
582 271
583 271
584 271
585 270
586 270
587 270
588 269
589 269
590 268
591 268
592 268
593 267
594 267
595 266
596 266
597 266
598 265
599 265
600 265
601 264
602 263
603 263
604 262
605 262
606 262
607 261
608 261
609 260
610 259
611 259
612 258
613 258
614 258
615 257
616 257
617 256
618 255
619 255
620 254
621 254
622 253
623 253
624 252
625 251
626 250
627 250
628 250
629 249
630 248
631 248
632 247
632 246
633 245
634 245
635 244
636 244
636 243
637 242
638 242
639 241
640 241
641 240
642 240
643 239
644 239
645 238
646 238
647 237
648 236
649 235
650 235
650 234
651 233
652 232
653 232
654 231
655 230
656 230
656 229
657 228
658 227
659 227
660 226
661 225
662 224
663 223
664 223
665 222
666 221
666 220
667 219
668 218
669 217
670 216
670 215
671 214
672 214
672 213
673 212
674 211
675 210
675 209
676 208
677 207
678 206
679 205
680 204
681 203
682 202
683 201
684 200
684 199
685 198
686 197
687 196
688 195
689 194
690 194
690 193
691 192
692 191
693 191
693 190
694 189
695 188
695 187
696 186
697 185
697 184
697 183
698 182
698 181
698 180
698 179
699 178
699 177
698 176
698 175
698 174
697 174
696 174
695 174
694 175
693 174
692 174
691 174
690 173
689 173
688 172
687 172
686 171
685 170
684 169
683 168
683 167
682 166
681 165
680 164
680 163
679 162
678 161
677 160
676 159
675 158
675 157
674 156
673 155
672 154
671 153
670 152
669 151
668 151
667 150
666 149
665 148
664 147
663 146
662 146
661 145
660 144
659 143
658 143
657 142
656 142
655 141
654 140
653 140
652 139
651 138
650 138
649 137
648 136
647 136
646 135
645 135
644 134
643 133
642 133
641 132
640 132
639 131
638 131
637 130
636 129
635 129
634 128
633 128
632 127
631 126
630 126
629 125
628 125
627 124
626 123
625 123
624 122
623 121
622 121
621 120
620 120
619 119
618 118
617 118
616 117
615 117
614 116
613 116
612 115
611 115
610 114
609 114
608 113
607 113
606 112
605 111
604 111
603 111
602 110
601 110
600 109
599 109
598 108
597 108
596 108
595 107
594 106
593 106
592 105
591 105
590 105
589 104
588 104
587 103
586 103
585 102
584 102
583 102
582 101
581 101
580 100
579 100
578 99
577 99
576 98
575 98
574 98
573 97
572 97
571 97
570 97
569 96
568 96
567 96
566 96
565 95
564 95
563 95
562 95
561 94
560 94
559 94
558 93
557 93
556 93
555 93
554 92
553 92
552 92
551 91
550 91
549 91
548 91
547 91
546 91
545 90
544 90
543 90
542 90
541 90
540 90
539 89
538 89
537 89
536 89
535 89
534 88
533 88
532 88
531 87
530 87
529 87
528 87
527 87
526 86
525 86
524 86
523 86
522 85
521 85
520 85
519 84
518 84
517 84
516 84
515 84
514 83
513 83
512 82
511 82
510 82
509 81
508 81
507 81
506 81
505 80
504 80
503 80
502 80
501 79
500 79
499 79
498 78
497 78
496 78
495 78
494 77
493 77
492 77
491 77
490 76
489 76
488 76
487 76
486 76
485 76
484 76
483 75
482 75
481 75
480 75
479 75
478 75
477 74
476 74
475 74
474 74
473 74
472 74
471 74
470 74
469 73
468 73
467 73
466 73
465 73
464 73
463 73
462 73
461 73
460 73
459 73
458 73
457 73
456 72
455 72
454 72
453 72
452 72
451 72
450 72
449 72
448 72
447 71
446 71
445 71
444 71
443 71
442 71
441 71
440 71
439 71
438 71
437 71
436 71
435 71
434 71
433 71
432 71
431 71
430 71
429 71
428 71
427 71
426 71
425 72
424 72
423 72
422 72
421 72
420 72
419 72
418 72
417 72
416 72
415 72
414 73
413 73
412 72
411 72
410 72
409 72
408 72
407 72
406 72
405 72
404 72
403 72
402 72
401 72
400 72
399 72
398 72
397 71
396 71
395 71
394 71
393 71
392 71
391 71
390 71
389 71
388 71
387 71
386 71
385 71
384 70
383 70
382 70
381 70
380 70
379 70
378 70
377 70
376 70
