270 52
269 53
268 53
267 54
266 54
265 54
264 55
263 56
262 57
261 58
260 59
260 60
259 61
258 62
257 63
256 64
256 65
255 66
254 67
254 68
253 69
252 70
252 71
251 72
251 73
250 74
249 75
249 76
248 77
247 78
246 78
245 79
244 80
243 81
242 82
241 83
241 84
240 85
240 86
239 87
239 88
238 89
238 90
237 91
237 92
236 93
236 94
236 95
235 96
235 97
235 98
235 99
234 100
234 101
234 102
234 103
233 104
233 105
233 106
233 107
232 108
232 109
232 110
232 111
231 112
231 113
230 114
230 115
230 116
229 117
229 118
229 119
228 120
228 121
227 122
227 123
227 124
227 125
227 126
226 127
225 128
224 129
223 130
222 131
221 132
221 133
220 134
220 135
220 136
219 137
219 138
219 139
219 140
219 141
219 142
219 143
219 144
219 145
219 146
219 147
219 148
219 149
219 150
219 151
219 152
219 153
219 154
219 155
220 156
220 157
220 158
220 159
220 160
220 161
220 162
221 163
221 164
221 165
221 166
222 167
222 168
222 169
222 170
223 171
223 172
223 173
224 174
224 175
224 176
225 177
225 178
225 179
225 180
225 181
225 182
225 183
226 184
226 185
226 186
226 187
227 188
227 189
227 190
227 191
228 192
228 193
228 194
228 195
228 196
228 197
228 198
228 199
228 200
228 201
228 202
228 203
229 204
229 205
229 206
229 207
229 208
230 209
230 210
230 211
230 212
231 213
230 214
229 215
228 216
227 216
226 216
225 215
224 214
223 214
222 213
221 213
220 212
219 212
218 211
217 210
216 210
215 209
214 209
213 208
212 208
211 208
210 208
209 208
208 207
207 207
206 207
205 207
204 207
203 207
202 207
201 206
200 206
199 206
198 206
197 206
196 205
195 205
194 205
193 205
192 205
191 205
190 205
189 204
188 204
187 204
186 204
185 203
184 203
183 203
182 202
181 202
180 202
179 202
178 201
177 201
176 200
175 200
174 200
173 200
172 200
171 199
170 199
169 199
168 199
167 199
166 199
165 199
164 198
163 198
162 198
161 198
160 198
159 198
158 198
157 198
156 198
155 198
154 197
153 197
152 197
151 197
150 197
149 197
148 198
147 198
146 198
145 198
144 198
143 198
142 198
141 198
140 198
139 198
138 198
137 198
136 198
135 198
134 198
133 198
132 198
131 198
130 199
129 199
129 200
128 201
127 202
126 202
125 203
125 204
124 205
124 206
124 207
123 208
122 209
121 210
120 211
119 211
118 211
117 212
116 212
115 212
114 213
113 213
112 214
111 215
110 215
109 216
108 217
107 218
106 218
105 219
104 220
103 220
102 221
101 222
100 222
99 223
98 223
97 224
96 224
95 224
94 225
93 225
92 226
91 226
90 226
89 226
88 226
87 227
86 227
85 227
84 228
83 228
82 228
81 229
80 229
79 230
78 231
77 231
76 232
75 232
74 233
73 234
72 235
71 235
70 236
69 236
68 237
67 237
66 238
65 238
64 239
63 239
62 240
61 240
60 241
59 242
58 243
57 244
56 245
56 246
55 247
55 248
54 249
54 250
53 251
52 252
51 252
50 253
49 253
48 254
47 255
46 256
45 256
44 257
43 258
42 259
42 260
41 261
41 262
41 263
40 264
39 265
39 266
38 267
38 268
37 269
37 270
37 271
36 272
36 273
35 274
35 275
35 276
35 277
34 278
34 279
34 280
34 281
34 282
34 283
34 284
34 285
34 286
34 287
34 288
34 289
34 290
34 291
34 292
34 293
35 294
35 295
35 296
35 297
36 298
36 299
37 300
37 301
38 302
38 303
39 304
39 305
39 306
40 307
40 308
41 309
41 310
42 311
42 312
43 313
43 314
43 315
44 316
44 317
45 318
45 319
46 320
47 321
48 322
49 323
50 324
51 325
52 326
53 327
54 327
55 328
56 329
57 330
58 331
59 332
59 333
60 334
61 335
61 336
62 337
62 338
63 339
64 340
64 341
65 342
66 343
66 344
67 345
68 346
68 347
69 348
70 349
71 350
72 351
72 352
73 352
74 353
74 354
75 354
76 355
76 356
77 357
78 357
79 358
80 359
81 360
82 361
83 362
84 362
85 363
86 364
87 365
88 366
89 367
90 368
90 369
91 370
92 371
92 372
92 373
93 374
93 375
94 376
95 377
96 378
97 379
98 380
99 380
100 381
100 382
101 382
102 383
101 384
102 384
103 385
104 386
105 387
106 387
107 388
108 388
109 389
110 389
111 389
112 390
113 390
114 390
115 390
116 391
117 391
118 391
119 391
120 392
121 392
122 392
123 393
124 393
125 393
126 393
127 393
128 393
129 394
130 394
131 394
132 394
133 394
134 395
135 395
136 395
137 395
138 395
139 395
140 396
141 396
142 396
143 396
144 396
145 396
146 396
147 396
148 397
149 397
150 397
151 397
152 397
153 397
154 397
155 397
156 397
157 398
158 398
159 398
160 398
161 398
162 398
163 398
164 398
165 398
166 398
167 398
168 398
169 398
170 398
171 398
172 398
173 398
174 398
175 398
176 398
177 398
178 398
179 398
180 398
181 398
182 398
183 398
184 398
185 398
186 398
187 398
188 398
189 398
190 398
191 398
192 398
193 398
194 398
195 398
196 398
197 398
198 398
199 398
200 398
201 398
202 399
203 399
204 399
205 399
206 399
207 399
208 399
209 399
210 399
211 399
212 399
213 399
214 400
215 400
216 400
217 400
218 400
219 400
220 400
221 400
222 400
223 401
224 401
225 401
226 401
227 402
228 402
229 402
230 403
229 404
229 405
229 406
229 407
229 408
228 409
228 410
227 411
227 412
227 413
227 414
226 415
226 416
226 417
225 418
225 419
225 420
224 421
224 422
224 423
224 424
223 425
223 426
223 427
222 428
222 429
222 430
222 431
222 432
221 433
221 434
221 435
221 436
221 437
221 438
220 439
220 440
220 441
219 442
219 443
219 444
219 445
218 446
218 447
218 448
218 449
217 450
217 451
217 452
217 453
217 454
217 455
217 456
217 457
217 458
217 459
217 460
217 461
217 462
218 463
218 464
219 465
219 466
220 467
221 468
221 469
221 470
221 471
222 472
222 473
222 474
222 475
222 476
223 477
223 478
223 479
224 480
225 481
225 482
226 483
226 484
226 485
227 486
227 487
227 488
228 489
228 490
228 491
228 492
228 493
228 494
228 495
228 496
228 497
228 498
229 499
229 500
229 501
229 502
230 503
230 504
230 505
230 506
231 507
231 508
232 509
232 510
233 511
233 512
234 513
234 514
235 515
235 516
236 517
236 518
237 519
238 520
239 521
239 522
240 523
241 524
242 525
242 526
243 527
244 528
245 529
245 530
246 531
247 532
248 533
248 534
249 535
250 536
251 537
251 538
252 539
253 540
254 541
254 542
255 543
255 544
256 545
257 546
257 547
258 548
258 549
259 550
259 551
260 552
260 553
261 554
261 555
262 556
262 557
263 558
263 559
264 560
265 561
266 562
267 563
268 564
269 565
270 566
271 566
272 567
273 567
274 568
275 568
276 568
277 568
278 569
279 569
280 569
281 569
282 568
283 568
284 568
285 568
286 568
287 567
288 567
289 567
290 566
291 566
292 565
293 565
294 564
295 563
296 562
297 561
298 561
299 560
300 560
301 559
302 558
303 558
304 557
305 557
306 556
307 555
308 555
309 555
310 554
311 554
312 553
313 552
314 551
315 550
316 549
317 549
317 548
318 547
319 546
320 545
321 544
322 543
322 542
323 541
324 540
325 539
326 538
326 537
327 536
328 535
328 534
329 533
330 532
330 531
331 530
331 529
332 528
332 527
333 526
334 525
334 524
335 523
336 523
337 522
338 521
339 520
340 519
341 519
342 518
343 517
344 517
345 516
346 515
347 514
348 514
349 513
350 512
351 512
351 511
352 510
353 509
354 509
354 508
355 507
356 506
357 505
357 504
358 503
359 502
360 501
361 500
362 499
362 498
363 497
364 496
365 495
366 494
366 493
367 492
367 491
368 490
368 489
369 488
369 487
370 486
370 485
371 484
371 483
372 482
372 481
373 480
373 479
373 478
374 477
374 476
374 475
374 474
375 473
375 472
375 471
375 470
376 469
376 468
376 467
377 466
377 465
377 464
378 463
378 462
379 461
379 460
379 459
380 458
380 457
380 456
380 455
380 454
380 453
381 452
381 451
381 450
381 449
382 448
382 447
382 446
383 445
383 444
383 443
383 442
384 441
384 440
384 439
384 438
385 437
385 436
385 435
385 434
385 433
385 432
386 431
386 430
386 429
386 428
386 427
387 426
387 425
387 424
387 423
388 422
388 421
388 420
388 419
389 418
389 417
389 416
389 415
389 414
390 413
390 412
390 411
390 410
390 409
391 408
391 407
391 406
391 405
391 404
391 403
391 402
391 401
391 400
391 399
391 398
391 397
391 396
391 395
391 394
391 393
391 392
391 391
391 390
391 389
391 388
391 387
391 386
391 385
391 384
391 383
391 382
391 381
391 380
391 379
391 378
391 377
391 376
391 375
391 374
391 373
391 372
391 371
391 370
391 369
391 368
391 367
391 366
391 365
391 364
391 363
391 362
391 361
391 360
391 359
391 358
391 357
391 356
391 355
391 354
391 353
391 352
391 351
391 350
391 349
391 348
391 347
391 346
391 345
391 344
391 343
390 342
390 341
390 340
389 339
389 338
389 337
388 336
388 335
388 334
387 333
387 332
386 331
386 330
385 329
385 328
384 327
384 326
383 325
383 324
382 323
381 322
381 321
380 320
379 319
378 318
377 317
376 316
375 315
374 314
374 313
373 312
372 312
371 311
371 310
370 309
371 308
372 308
373 308
374 308
375 308
376 308
377 308
378 308
379 308
380 308
381 308
382 308
383 308
384 308
385 308
386 308
387 308
388 308
389 308
390 308
391 308
392 308
393 308
394 308
395 309
396 309
397 309
398 309
399 309
400 309
401 309
402 309
403 309
404 309
405 309
406 310
407 310
408 310
409 310
410 310
411 310
412 310
413 310
414 310
415 311
416 311
417 311
418 311
419 311
420 311
421 311
422 311
423 311
424 312
425 312
426 312
427 312
428 312
429 312
430 312
431 312
432 313
433 313
434 313
435 313
436 313
437 313
438 313
439 313
440 314
441 314
442 314
443 314
444 314
445 314
446 314
447 314
448 315
449 315
450 315
451 315
452 315
453 315
454 315
455 315
456 315
457 316
458 316
459 316
460 316
461 316
462 316
463 316
464 316
465 316
466 317
467 317
468 317
469 317
470 317
471 317
472 317
473 318
474 318
475 318
476 318
477 318
478 318
479 318
480 318
481 319
482 319
483 319
484 319
485 319
486 319
487 319
488 319
489 319
490 320
491 320
492 320
493 320
494 320
495 320
496 320
497 320
498 320
499 321
500 321
501 321
502 321
503 321
504 321
505 321
506 321
507 321
508 322
509 322
510 322
511 322
512 322
513 322
514 322
515 322
516 322
517 322
518 323
519 323
520 323
521 323
522 323
523 323
524 323
525 323
526 324
527 324
528 324
529 324
530 324
531 324
532 324
533 324
534 324
535 324
536 325
537 325
538 325
539 325
540 325
541 325
542 325
543 325
544 325
545 325
546 325
547 325
548 326
549 326
550 326
551 326
552 326
553 326
554 326
555 326
556 326
557 326
558 326
559 326
560 326
561 327
562 327
563 327
564 327
565 327
566 327
567 327
568 327
569 327
570 327
571 327
572 327
573 327
574 327
575 327
576 327
577 327
578 328
579 328
580 328
581 328
582 328
583 328
584 328
585 328
586 328
587 328
588 328
589 328
590 328
591 328
592 328
593 328
594 328
595 328
596 328
597 328
598 328
599 328
600 328
601 328
602 328
603 328
604 328
605 328
606 328
607 328
608 328
609 328
610 328
611 328
612 327
613 327
614 327
615 327
616 327
617 327
618 327
619 327
620 327
621 327
622 327
623 327
624 327
625 327
626 327
627 327
628 327
629 326
630 326
631 326
632 326
633 326
634 326
635 326
636 326
637 325
638 325
639 325
640 325
641 325
642 325
643 325
644 325
645 324
646 324
647 324
648 324
649 324
650 324
651 323
652 323
653 323
654 323
655 323
656 323
656 322
655 322
654 322
653 322
652 322
651 322
650 322
649 322
648 322
647 322
646 323
645 323
644 323
643 323
642 323
641 323
640 323
639 323
638 323
637 323
636 323
635 323
634 323
633 323
632 323
631 323
630 323
629 323
628 323
627 323
626 323
625 323
624 323
623 323
622 323
621 323
620 323
619 324
618 324
617 324
616 324
615 324
614 324
613 324
612 324
611 324
610 324
609 324
608 324
607 324
606 324
605 324
604 324
603 324
602 324
601 324
600 324
599 324
598 324
597 324
596 324
595 324
594 324
593 324
592 324
591 324
590 324
589 324
588 324
587 324
586 324
585 324
584 324
583 324
582 324
581 324
580 324
579 324
578 323
577 323
576 323
575 323
574 323
573 323
572 323
571 323
570 323
569 323
568 323
567 323
566 323
565 323
564 323
563 323
562 323
561 323
560 322
559 323
558 323
557 322
556 322
555 322
554 322
553 322
552 322
551 322
550 322
549 322
548 322
547 322
546 322
545 322
544 321
543 321
542 321
541 321
540 321
539 321
538 321
537 321
536 321
535 321
534 320
533 320
532 320
531 320
530 320
529 320
528 319
527 319
526 319
525 319
524 319
523 319
522 319
521 319
520 319
519 319
518 319
517 319
516 318
515 318
514 318
513 317
512 318
511 318
510 318
509 317
508 317
507 317
506 317
505 317
504 316
505 315
506 315
507 315
508 315
509 315
510 315
511 315
512 315
513 315
514 315
515 315
516 315
517 315
518 315
519 316
520 316
521 316
522 316
523 316
524 316
525 316
526 316
527 316
528 316
529 316
530 316
531 316
532 316
533 316
534 316
535 317
536 317
537 317
538 317
539 317
540 317
541 317
542 317
543 317
544 317
545 317
546 317
547 318
548 318
549 318
550 318
551 318
552 318
553 318
554 318
555 318
556 318
557 318
558 318
559 318
560 318
561 318
562 318
563 318
564 318
565 318
566 319
567 319
568 318
569 319
570 319
571 319
572 319
573 319
574 319
575 319
576 319
577 319
578 319
579 319
580 319
581 319
582 319
583 319
584 319
585 319
586 319
587 319
588 319
589 319
590 319
591 319
592 319
593 319
594 319
595 319
596 319
597 319
598 319
599 319
600 319
601 319
602 319
603 319
604 319
605 319
606 319
607 319
608 319
609 319
610 319
611 319
612 319
613 319
614 318
615 318
616 318
617 318
618 318
619 318
620 318
621 318
622 318
623 318
624 318
625 318
626 318
627 318
628 318
629 318
630 318
631 317
632 317
633 317
634 317
635 317
636 317
637 317
638 317
639 317
640 317
641 316
642 316
643 316
644 316
645 316
646 316
647 316
648 316
649 316
650 316
651 316
652 315
653 315
654 315
655 315
656 315
657 315
658 315
659 314
660 314
661 314
662 314
663 314
664 314
665 314
666 314
667 313
668 313
669 313
670 313
671 313
672 313
673 312
674 312
675 312
676 312
677 312
678 312
679 312
680 311
681 311
682 311
683 311
684 311
685 311
686 310
687 310
688 310
689 310
690 309
691 309
692 309
693 309
694 309
695 308
696 308
697 308
698 308
699 307
700 307
701 307
702 307
703 306
704 306
705 305
706 305
707 305
708 305
709 304
710 304
711 304
712 303
713 303
714 303
715 303
716 302
717 302
718 302
719 301
720 301
721 300
722 300
723 300
724 300
725 300
726 300
727 300
728 299
729 299
730 299
731 298
732 299
733 298
734 298
735 298
736 298
737 297
738 298
739 298
740 298
741 298
742 297
743 297
744 297
745 297
746 297
747 297
748 297
749 297
750 296
751 296
752 296
753 295
754 295
755 295
756 294
756 293
757 292
758 291
759 291
760 290
761 290
760 289
759 289
758 288
758 287
757 287
756 286
755 285
755 284
755 283
755 282
755 281
755 280
755 279
756 278
756 277
756 276
756 275
757 274
757 273
756 273
755 273
754 273
753 274
752 274
751 275
750 275
749 275
748 276
747 276
746 276
745 277
744 277
743 278
742 278
741 279
740 279
739 280
738 280
737 281
736 281
735 282
734 283
733 283
732 284
731 285
730 285
729 286
728 286
727 287
726 288
725 288
724 289
723 289
722 289
721 290
720 291
719 291
718 292
717 292
716 293
715 293
714 294
713 294
712 295
711 295
710 295
709 296
708 296
707 297
706 297
705 297
704 298
703 298
702 299
701 299
700 299
699 300
698 300
697 300
696 301
695 301
694 301
693 302
692 302
691 302
690 303
689 303
688 303
687 303
686 304
685 304
684 304
683 304
682 305
681 305
680 305
679 305
678 305
677 305
676 306
675 306
674 306
673 306
672 306
671 307
670 307
669 307
668 307
667 307
666 307
665 308
664 308
663 308
662 308
661 308
660 308
659 308
658 308
657 309
656 309
655 309
654 309
653 309
652 309
651 309
650 309
649 309
648 310
647 310
646 310
645 310
644 310
643 310
642 310
641 310
640 311
639 311
638 311
637 311
636 311
635 311
634 311
633 311
632 311
631 311
630 311
629 311
628 311
627 312
626 312
625 312
624 312
623 312
622 312
621 312
620 312
619 312
618 312
617 312
616 312
615 312
614 312
613 312
612 312
611 312
610 313
609 313
608 313
607 313
606 313
605 313
604 313
603 313
602 313
601 313
600 313
599 313
598 313
597 313
596 313
595 313
594 313
593 313
592 313
591 313
590 313
589 313
588 313
587 313
586 313
585 313
584 313
583 313
582 313
581 313
580 313
579 313
578 313
577 313
576 313
575 313
574 313
573 313
572 313
571 313
570 312
569 312
568 312
567 312
566 312
565 312
564 312
563 312
562 312
561 312
560 312
559 312
558 312
557 312
556 312
555 312
554 312
553 312
552 312
551 311
550 311
549 311
548 311
547 311
546 311
545 311
544 311
543 311
542 311
541 311
540 311
539 311
538 311
537 311
536 310
535 310
534 310
533 310
532 310
531 310
530 310
529 310
528 310
527 310
526 310
525 309
524 309
523 309
522 309
521 309
520 309
519 309
518 309
517 309
516 309
515 309
514 309
513 309
512 308
511 308
510 308
509 308
508 308
507 308
506 308
505 308
504 308
503 308
502 308
501 308
500 308
499 307
498 307
497 307
496 307
495 307
494 307
493 307
492 307
491 307
490 307
489 307
488 307
487 306
486 306
485 306
484 306
483 306
482 306
481 306
480 306
479 306
478 306
477 306
476 306
475 306
474 306
473 306
472 305
471 305
470 305
469 305
468 305
467 305
466 305
465 305
464 305
463 305
462 305
461 305
460 305
459 305
458 304
457 304
456 304
455 304
454 304
453 304
452 304
451 304
450 304
449 304
448 304
447 304
446 304
445 304
444 303
443 303
442 303
441 303
440 303
439 303
438 303
437 303
436 303
435 303
434 302
433 302
432 302
431 302
430 302
429 302
428 302
427 302
426 302
425 302
424 302
423 302
422 302
421 302
420 302
419 301
418 301
417 301
416 301
415 301
414 301
413 301
412 301
411 301
410 301
409 301
408 301
407 301
406 300
405 300
404 300
403 300
402 300
401 300
400 300
399 300
398 300
397 300
396 299
395 299
394 299
393 299
392 299
391 299
390 299
389 299
388 299
387 299
386 299
385 298
384 298
383 298
382 298
381 298
380 298
379 298
378 297
377 297
376 297
375 297
374 297
373 297
372 296
371 296
370 296
369 295
368 294
368 293
368 292
369 291
370 290
371 289
372 288
372 287
373 286
374 285
374 284
375 283
375 282
376 281
376 280
377 279
377 278
378 277
378 276
379 275
379 274
379 273
379 272
380 271
380 270
381 269
381 268
382 267
382 266
383 265
383 264
383 263
383 262
383 261
384 260
384 259
384 258
384 257
384 256
384 255
384 254
384 253
384 252
384 251
384 250
384 249
384 248
384 247
383 246
383 245
383 244
383 243
384 242
384 241
384 240
384 239
384 238
384 237
384 236
384 235
384 234
383 233
383 232
383 231
383 230
383 229
383 228
383 227
383 226
382 225
382 224
382 223
382 222
382 221
382 220
382 219
382 218
381 217
381 216
381 215
381 214
381 213
380 212
380 211
380 210
380 209
380 208
380 207
380 206
380 205
380 204
380 203
380 202
379 201
379 200
379 199
379 198
379 197
379 196
379 195
379 194
379 193
378 192
378 191
378 190
378 189
378 188
377 187
377 186
377 185
377 184
377 183
376 182
376 181
376 180
375 179
375 178
375 177
374 177
373 177
372 176
372 175
372 174
372 173
372 172
372 171
373 170
373 169
372 168
372 167
372 166
371 165
371 164
371 163
371 162
370 161
370 160
369 159
369 158
369 157
368 156
368 155
367 154
367 153
367 152
366 151
366 150
365 149
365 148
365 147
364 146
364 145
364 144
364 143
363 142
363 141
362 140
362 139
361 138
360 138
359 137
358 136
358 135
359 134
359 133
359 132
358 131
358 130
357 129
356 128
356 127
355 126
354 125
353 125
352 124
352 123
351 122
350 121
349 120
348 119
348 118
348 117
348 116
347 115
347 114
346 113
345 112
344 111
344 110
343 109
342 108
341 107
341 106
340 105
339 104
338 103
337 102
336 101
336 100
335 99
334 98
333 97
332 96
331 96
330 96
329 96
328 95
328 94
328 93
328 92
327 91
326 90
325 89
325 88
324 87
323 86
322 85
321 84
320 83
320 82
319 82
318 81
317 80
316 79
315 78
314 78
313 77
312 76
311 75
310 75
309 74
308 73
307 72
306 71
305 71
304 70
303 69
302 68
301 68
300 67
299 66
298 66
297 66
296 65
295 65
294 65
293 64
292 63
291 62
290 61
289 61
288 60
287 60
286 59
285 59
284 58
283 58
282 57
281 57
280 56
279 56
278 55
277 55
276 54
275 54
274 53
273 53
272 52
271 52
270 52
