360 73
359 74
358 74
357 75
357 76
357 77
357 78
358 79
358 80
358 81
357 82
356 83
355 82
354 82
353 82
352 82
351 81
350 81
349 81
348 81
347 81
346 80
345 80
344 80
343 80
342 79
341 79
340 79
339 79
338 79
337 79
337 80
337 81
337 82
336 83
335 84
334 84
333 83
332 83
331 83
330 82
329 82
328 81
327 81
326 81
325 81
324 81
323 80
322 80
321 80
320 80
319 80
318 80
317 80
316 80
317 81
317 82
317 83
317 84
317 85
317 86
316 87
315 87
314 87
313 87
312 86
311 86
310 86
309 85
308 85
307 85
306 84
305 84
304 84
303 84
302 83
301 83
300 83
299 83
298 82
297 82
297 83
297 84
297 85
297 86
297 87
296 88
295 89
294 89
293 88
292 88
291 88
290 88
289 87
288 87
287 87
286 86
285 86
284 86
283 86
282 86
281 85
280 85
279 85
278 85
277 85
276 85
275 85
274 85
273 85
272 85
272 86
271 87
271 88
272 89
272 90
272 91
272 92
272 93
272 94
271 95
270 96
269 96
268 96
267 96
266 96
265 96
264 95
263 96
262 96
261 96
260 96
259 96
258 96
257 96
256 96
255 96
254 96
253 96
252 96
251 96
250 96
249 96
248 96
248 97
248 98
248 99
248 100
248 101
248 102
248 103
247 104
246 104
245 104
244 104
243 104
242 104
241 104
240 104
239 103
238 103
237 103
236 103
235 104
234 105
233 105
232 105
231 105
230 105
229 105
228 105
227 105
226 104
225 104
224 104
223 104
222 105
221 105
221 106
221 107
221 108
221 109
221 110
222 111
222 112
222 113
222 114
221 115
220 115
219 116
218 116
217 116
216 115
215 116
214 116
213 116
212 116
211 116
210 115
209 116
209 117
208 118
207 118
206 118
205 118
204 118
203 118
202 118
201 118
200 118
199 118
198 118
197 118
196 118
195 118
194 118
193 118
192 118
191 119
190 119
189 119
188 120
188 121
188 122
188 123
188 124
189 125
189 126
189 127
190 128
190 129
189 130
188 130
187 130
186 130
185 130
184 130
183 130
182 130
181 130
180 130
179 130
178 130
177 130
176 131
175 131
174 131
173 131
172 131
171 131
170 132
169 132
168 132
167 132
166 132
165 133
165 134
165 135
166 136
166 137
166 138
167 139
167 140
166 141
165 141
164 142
163 142
162 142
161 142
160 142
159 142
158 142
157 142
156 142
155 142
154 143
153 143
152 143
151 143
150 143
149 143
148 143
147 144
146 144
145 144
144 144
143 144
142 145
141 145
141 146
140 147
141 148
141 149
141 150
141 151
142 152
142 153
143 154
143 155
144 156
144 157
144 158
144 159
143 160
142 160
141 160
140 160
139 161
138 161
137 161
136 161
135 161
134 161
133 161
132 161
131 162
130 162
129 162
128 162
127 163
127 164
127 165
127 166
126 167
125 168
124 169
123 169
122 169
121 170
120 170
119 170
118 171
117 171
116 172
115 172
114 173
113 173
112 174
112 175
113 176
113 177
114 178
115 179
115 180
116 181
116 182
116 183
116 184
115 185
114 186
113 187
112 187
111 187
110 188
109 188
108 188
107 189
106 189
105 190
104 191
103 191
102 192
101 192
100 193
99 193
99 194
99 195
100 196
101 197
100 198
99 199
98 200
97 200
96 200
95 201
94 201
93 202
92 202
91 202
90 203
89 203
88 204
87 204
86 205
85 205
84 206
84 207
84 208
85 209
85 210
86 211
86 212
87 213
87 214
88 215
88 216
87 217
86 218
85 218
84 219
83 220
82 220
81 221
80 222
79 223
78 223
77 224
76 225
75 226
74 227
73 228
72 229
72 230
72 231
73 232
74 233
75 234
74 235
73 236
72 237
71 238
70 239
69 239
68 240
67 241
66 241
65 241
64 242
63 243
62 244
61 245
61 246
61 247
62 248
62 249
63 250
64 251
63 252
62 253
61 254
60 255
59 256
58 257
57 258
56 259
55 260
54 261
53 262
52 263
51 264
51 265
50 266
49 267
49 268
48 269
47 270
46 271
46 272
45 273
44 274
44 275
43 276
43 277
42 278
42 279
41 280
41 281
41 282
40 283
40 284
40 285
40 286
41 287
41 288
41 289
42 290
42 291
43 292
44 293
45 294
46 295
47 296
48 297
49 298
49 299
50 300
51 301
52 302
53 303
54 304
55 305
56 306
57 307
58 308
57 309
57 310
57 311
57 312
58 313
58 314
59 315
60 316
60 317
61 318
62 318
63 319
64 320
65 321
66 321
67 322
68 322
69 323
70 323
71 324
72 325
73 326
74 327
74 328
74 329
74 330
74 331
75 332
76 333
76 334
77 335
77 336
78 336
79 337
79 338
80 339
81 340
82 340
83 340
84 341
85 342
86 342
87 342
88 343
89 343
90 343
91 343
92 344
93 345
93 346
94 347
94 348
95 349
96 349
97 350
98 351
97 352
98 352
99 353
100 354
101 354
102 355
103 355
104 356
105 356
106 356
107 356
108 357
109 357
110 357
111 357
112 357
113 358
114 358
115 358
116 359
116 360
116 361
116 362
115 363
115 364
115 365
116 366
117 367
118 367
119 368
120 368
121 368
122 368
123 369
124 369
125 369
126 369
127 369
128 370
129 370
130 371
130 372
131 373
132 374
133 374
134 375
135 375
136 375
137 375
138 376
139 376
140 376
141 376
142 377
143 377
144 378
144 379
144 380
143 381
143 382
142 383
142 384
143 384
144 384
145 385
146 385
147 385
148 386
149 386
150 386
151 386
152 386
153 386
154 387
155 387
156 387
157 387
158 387
159 387
160 387
161 388
161 389
161 390
162 391
163 392
164 392
165 392
166 392
167 392
168 392
169 392
170 392
171 393
172 393
173 393
174 393
175 393
176 393
177 394
178 394
179 395
179 396
179 397
179 398
179 399
179 400
178 401
178 402
178 403
179 404
180 405
181 405
182 405
183 406
184 406
185 406
186 406
187 406
188 406
189 407
190 407
191 407
192 408
193 409
194 409
195 410
196 410
197 411
198 412
199 412
200 412
201 413
202 414
203 415
203 416
203 417
204 418
205 418
206 419
206 420
206 421
207 421
208 422
209 422
210 422
211 422
212 422
213 422
214 422
215 423
216 423
217 423
218 423
219 423
220 423
221 423
222 423
223 423
224 424
225 424
226 424
227 425
228 426
229 427
229 428
230 428
231 429
232 429
233 429
234 429
235 429
236 428
237 428
238 428
239 428
240 428
241 427
242 427
243 427
244 426
245 426
246 425
247 425
248 424
249 424
250 424
251 424
252 425
252 426
252 427
252 428
252 429
252 430
253 430
254 430
255 430
256 429
257 429
258 429
259 429
260 428
261 428
262 428
263 428
264 427
265 427
266 427
267 426
268 426
269 425
270 425
271 425
272 425
273 425
274 425
275 426
275 427
275 428
275 429
275 430
274 431
274 432
274 433
274 434
274 435
274 436
275 436
276 437
277 437
278 437
279 437
280 437
281 437
282 437
283 436
284 436
285 436
286 436
287 436
288 436
289 436
290 436
291 436
292 437
293 437
294 437
295 436
296 437
297 436
298 436
299 436
300 436
301 436
302 435
303 435
304 435
305 435
306 435
307 435
308 435
309 435
310 435
311 435
312 435
313 435
314 435
315 436
316 436
317 436
318 436
319 436
320 436
321 435
322 435
323 435
324 435
325 435
326 435
327 434
328 434
329 434
330 434
331 434
332 433
333 433
334 433
335 433
336 433
337 433
338 433
339 433
340 433
341 432
342 432
343 432
344 431
345 431
346 431
347 430
348 430
349 429
350 429
351 429
352 428
353 428
354 428
355 428
356 428
357 428
358 428
359 428
360 428
361 429
362 430
362 431
363 431
364 431
365 431
366 430
367 430
368 430
369 429
370 429
371 428
372 428
373 428
374 427
375 427
376 426
377 426
378 426
379 425
380 425
381 425
382 424
383 424
384 423
385 424
386 424
387 423
388 423
389 423
390 422
391 422
392 421
393 421
394 420
395 420
396 419
397 419
398 418
399 418
400 418
401 418
402 418
403 418
404 419
405 420
406 420
407 420
408 420
409 420
410 420
411 420
412 419
413 419
414 418
415 417
416 417
417 416
418 416
419 416
420 415
421 414
422 413
423 413
424 412
425 411
426 411
427 410
428 409
429 408
430 408
431 407
432 407
433 406
434 406
435 406
436 406
437 406
438 406
439 406
440 406
441 406
442 406
443 405
444 404
445 403
446 402
447 401
448 400
449 399
450 398
451 397
452 396
453 396
454 395
455 395
456 394
457 393
458 392
459 392
460 392
461 392
462 393
463 394
463 395
463 396
463 397
462 398
463 398
464 398
465 397
466 397
467 396
468 396
469 395
470 395
471 394
472 393
473 393
474 392
475 391
476 390
477 389
478 388
479 388
480 387
480 386
481 385
482 384
483 384
484 383
485 382
486 381
487 381
488 380
489 380
490 381
491 381
492 381
493 381
494 380
495 380
496 379
497 378
498 377
499 376
500 375
500 374
501 373
502 373
503 372
504 372
505 372
506 371
507 370
508 369
509 368
510 368
511 368
512 368
513 369
514 370
513 371
514 371
515 371
516 370
517 370
518 369
519 368
520 368
521 367
522 367
523 366
524 365
525 364
526 363
527 363
528 363
529 363
530 363
531 362
532 361
532 360
533 359
534 358
534 357
535 356
536 355
536 354
537 353
538 352
539 352
539 351
540 350
541 350
542 349
543 348
544 348
545 348
546 349
547 349
548 348
549 348
550 347
551 346
552 345
553 344
554 343
554 342
555 341
556 340
556 339
557 338
558 337
559 336
560 335
560 334
561 333
562 332
563 332
564 332
565 332
566 333
567 333
568 333
569 332
570 331
571 331
572 330
573 329
574 328
575 328
576 327
577 326
577 325
578 324
579 323
580 322
581 321
582 320
582 319
583 318
584 317
585 316
586 315
587 314
588 314
589 313
590 313
591 313
592 312
593 312
594 311
595 310
596 309
597 308
597 307
598 306
599 305
599 304
600 303
601 302
602 301
602 300
603 299
604 298
605 297
606 296
607 295
608 294
609 293
610 293
611 292
612 292
613 292
614 292
615 291
616 290
617 290
618 290
619 289
619 288
620 287
621 286
621 285
622 284
623 283
624 282
624 281
625 280
626 279
627 278
628 277
629 276
630 275
631 274
631 273
632 272
633 272
634 271
635 270
636 269
637 268
638 267
639 266
640 265
641 264
641 263
641 262
640 261
640 260
639 259
639 258
638 257
637 256
637 255
636 254
636 253
636 252
635 251
636 250
636 249
636 248
637 247
638 247
639 247
640 247
641 247
642 247
643 247
644 247
645 247
646 247
647 247
648 247
649 247
650 247
651 248
652 248
653 248
654 248
655 248
656 248
657 248
658 248
659 248
660 248
661 248
662 248
663 248
664 248
665 247
666 247
667 247
668 247
669 247
670 247
671 247
672 247
673 247
674 247
675 247
676 247
677 247
678 247
679 246
680 246
681 246
682 246
683 246
684 246
685 246
686 246
687 246
688 246
689 246
690 246
691 246
692 246
693 246
694 247
695 246
696 246
697 247
698 247
699 247
700 247
701 247
702 247
703 247
704 247
705 247
706 247
707 247
708 246
709 246
710 245
711 245
712 245
713 245
714 245
715 245
715 244
714 243
714 242
714 241
714 240
715 239
715 238
715 237
716 236
716 235
715 234
715 233
715 232
715 231
714 231
713 230
712 230
711 230
710 230
709 230
708 229
707 229
706 229
705 229
704 229
703 229
702 229
701 229
700 229
699 229
698 229
697 228
696 228
695 228
694 228
693 228
692 228
691 227
690 227
689 227
688 227
687 227
686 227
685 226
684 226
683 226
682 226
681 226
680 226
679 226
678 225
677 225
676 225
675 225
674 225
673 225
672 225
671 225
670 225
669 224
668 224
667 224
666 224
665 224
664 224
663 223
662 223
661 223
660 222
659 222
658 221
657 220
656 219
656 218
655 217
654 216
653 215
652 214
651 213
650 212
649 211
648 210
647 209
646 208
645 207
644 206
643 205
642 204
641 203
640 202
639 201
638 200
637 199
636 198
635 198
634 197
633 196
632 195
631 194
630 193
629 193
628 192
627 191
626 190
625 190
624 189
623 188
622 188
621 187
620 187
619 186
618 185
617 185
616 184
615 183
614 182
613 182
612 181
611 180
610 179
609 178
608 177
607 176
606 175
606 174
605 173
604 172
603 171
603 170
602 169
602 168
602 167
601 167
600 167
599 166
598 166
597 165
596 164
595 163
594 162
593 162
592 161
592 160
591 159
590 158
589 157
589 156
588 155
587 154
586 154
585 153
584 153
583 152
582 151
582 150
581 150
580 149
580 148
579 147
578 146
577 145
576 144
575 143
574 143
573 142
572 141
571 141
570 140
569 140
568 140
567 139
566 139
566 140
565 141
564 141
563 140
562 140
561 139
560 139
559 138
558 138
557 137
556 136
556 135
555 134
554 133
553 132
552 131
551 130
550 130
549 129
548 129
547 128
546 129
545 129
544 129
543 129
542 128
541 127
540 126
539 126
538 125
537 124
536 123
535 123
534 122
533 121
532 120
531 119
530 118
529 117
528 116
527 116
526 115
525 114
524 114
523 113
522 113
522 114
521 115
520 115
519 114
518 114
517 113
516 112
515 111
514 111
513 110
512 109
511 108
510 108
509 107
508 107
507 106
506 107
505 108
504 108
503 107
502 107
501 106
500 105
499 105
498 104
497 104
496 103
495 102
494 101
493 101
492 100
491 100
490 99
489 99
488 98
487 98
486 97
485 97
484 97
483 97
482 98
482 99
481 100
480 100
479 99
478 99
477 98
476 98
475 98
474 98
473 98
472 97
471 97
470 97
469 96
468 96
467 95
466 94
465 93
464 93
463 92
462 92
461 91
460 90
459 90
458 90
457 89
456 89
455 89
455 90
455 91
455 92
455 93
454 94
453 94
452 94
451 94
450 93
449 93
448 92
447 91
446 91
445 90
444 90
443 89
442 89
441 88
440 88
439 87
438 87
437 87
436 88
435 89
434 89
433 89
432 88
431 88
430 87
429 87
428 86
427 85
426 85
425 84
424 84
423 83
422 83
421 82
420 82
419 82
418 82
417 82
416 81
415 81
414 81
414 82
414 83
414 84
414 85
413 86
412 86
411 86
410 86
409 86
408 85
407 85
406 85
405 85
404 84
403 83
402 83
401 82
400 82
399 81
398 81
397 81
396 80
395 80
394 79
393 79
392 78
391 78
390 78
389 77
388 77
387 78
387 79
386 80
385 80
384 80
383 80
382 80
381 79
380 79
379 78
378 78
377 78
376 77
375 77
374 77
373 76
372 76
371 76
370 76
369 75
368 75
367 75
366 75
365 74
364 74
363 74
362 74
361 73
360 73
