114 301
114 302
114 303
114 304
114 305
114 306
114 307
114 308
114 309
114 310
115 311
116 312
117 313
118 313
119 314
120 315
121 316
122 316
123 317
124 317
125 318
125 319
126 320
126 321
127 322
127 323
127 324
127 325
127 326
128 327
129 328
130 329
131 330
131 331
132 332
132 333
133 334
133 335
133 336
133 337
133 338
133 339
134 340
135 341
135 342
136 343
136 344
137 345
138 346
139 347
140 348
141 348
142 349
143 349
144 350
145 351
146 352
147 353
148 354
149 354
150 354
151 354
152 354
153 354
154 354
155 354
156 355
157 355
158 356
159 356
160 356
161 356
162 356
163 356
164 357
165 357
166 357
167 358
168 358
169 358
170 358
171 358
172 358
173 359
174 359
175 359
176 359
177 359
178 359
179 359
180 359
181 359
182 359
183 359
184 359
185 359
186 359
187 359
188 359
189 359
190 359
191 359
192 359
193 360
194 360
195 361
196 362
196 363
196 364
196 365
196 366
195 367
195 368
194 369
194 370
194 371
194 372
193 373
193 374
193 375
193 376
193 377
193 378
193 379
193 380
193 381
193 382
194 383
195 383
196 384
197 385
198 386
199 387
200 387
201 387
202 387
203 387
204 387
205 387
206 387
207 387
208 388
209 388
210 388
211 388
212 388
213 388
214 388
215 388
216 388
217 388
218 388
219 388
220 388
221 388
222 388
223 388
224 388
225 388
226 388
227 387
228 387
229 387
230 387
231 387
232 387
233 387
234 387
235 386
236 386
237 386
238 386
239 386
240 386
241 386
242 386
243 386
244 386
245 386
246 386
247 386
248 385
249 385
250 385
251 385
252 385
253 385
254 384
255 384
256 384
257 384
258 383
259 383
260 383
261 383
262 383
263 382
264 382
265 382
266 381
267 381
268 380
269 380
270 380
271 380
272 379
273 379
274 378
275 378
276 377
277 377
278 376
279 376
280 375
281 375
282 374
283 374
284 373
285 373
286 372
287 372
288 372
289 371
290 371
291 370
292 370
293 369
294 369
295 368
296 368
297 367
298 367
299 367
300 366
301 366
302 365
303 365
304 364
305 363
306 363
307 362
308 362
309 361
310 360
311 360
312 359
313 358
314 358
315 357
316 357
317 356
318 355
319 355
320 354
321 353
322 353
323 352
324 351
325 351
326 350
327 349
328 348
329 348
330 347
331 346
332 346
333 345
334 345
335 344
336 343
337 343
338 342
339 342
340 341
341 340
342 339
343 338
344 337
345 336
346 335
347 334
348 333
349 332
350 331
351 330
352 329
353 328
354 327
355 326
356 325
357 324
358 323
359 322
360 321
361 320
362 319
363 318
364 317
365 316
366 315
367 314
368 313
369 312
370 311
371 310
372 309
373 308
374 307
375 306
376 305
377 304
378 303
379 302
380 301
381 300
382 299
383 298
384 297
385 296
386 295
387 294
388 293
389 292
390 291
390 290
391 289
392 288
393 287
394 286
395 285
396 284
397 283
398 282
399 281
400 280
401 279
402 278
403 278
404 277
405 276
406 275
407 274
408 273
409 272
410 272
411 271
412 270
413 270
414 269
415 268
416 268
417 267
418 266
419 266
420 265
421 265
422 264
423 264
424 263
425 263
426 262
427 262
428 262
429 262
430 262
431 262
432 262
433 262
434 262
435 262
436 262
437 263
438 263
439 263
440 263
441 263
442 263
443 263
444 263
445 263
446 264
447 264
448 265
449 265
450 266
451 267
452 268
452 269
451 270
450 271
449 272
448 272
447 273
446 273
445 273
444 274
443 274
442 274
441 275
440 275
439 276
438 276
437 277
436 277
435 278
434 278
433 279
432 279
431 280
430 280
429 280
428 281
427 281
426 282
425 282
424 283
423 283
422 284
421 285
420 285
419 286
418 286
417 287
416 288
415 289
414 289
413 290
412 291
411 291
410 292
409 293
408 293
407 294
406 295
405 295
404 296
403 297
402 298
401 299
400 300
399 301
398 301
397 302
396 303
395 304
394 305
393 305
392 306
391 307
390 307
389 308
388 309
387 310
386 311
385 312
384 313
383 314
382 315
381 316
380 317
379 318
378 319
377 320
376 321
375 322
374 323
373 324
372 325
371 326
370 327
369 328
369 329
368 330
367 331
366 332
365 333
364 334
363 335
362 336
361 337
360 338
359 339
358 340
357 341
356 342
355 343
354 344
353 345
353 346
352 347
351 348
350 349
349 350
348 351
347 352
346 353
346 354
345 355
344 356
344 357
343 358
342 359
342 360
341 361
340 362
340 363
339 364
339 365
338 366
337 367
337 368
336 369
336 370
335 371
335 372
334 373
334 374
333 375
333 376
332 377
332 378
331 379
330 380
330 381
329 382
329 383
328 384
328 385
328 386
327 387
327 388
326 389
326 390
326 391
325 392
325 393
324 394
324 395
324 396
323 397
323 398
323 399
323 400
323 401
322 402
322 403
322 404
321 405
321 406
321 407
320 408
320 409
320 410
320 411
320 412
320 413
320 414
320 415
320 416
320 417
319 418
319 419
319 420
319 421
319 422
319 423
319 424
319 425
319 426
319 427
319 428
319 429
319 430
319 431
319 432
319 433
319 434
319 435
319 436
320 436
321 436
322 436
323 437
324 437
325 438
326 438
327 439
327 440
328 441
328 442
328 443
328 444
328 445
328 446
328 447
328 448
328 449
328 450
328 451
328 452
328 453
328 454
328 455
328 456
328 457
328 458
328 459
328 460
328 461
328 462
328 463
328 464
328 465
328 466
328 467
328 468
328 469
328 470
328 471
328 472
328 473
328 474
328 475
328 476
328 477
328 478
328 479
328 480
328 481
328 482
329 482
330 483
331 483
332 484
332 485
333 486
333 487
333 488
333 489
332 490
332 491
331 492
331 493
331 494
331 495
331 496
331 497
331 498
331 499
331 500
331 501
331 502
331 503
331 504
331 505
331 506
331 507
331 508
331 509
332 509
333 510
334 510
335 510
336 510
337 510
338 510
339 510
340 509
341 508
342 507
343 507
344 506
345 505
346 504
347 503
348 503
349 502
350 502
351 501
352 501
353 500
354 500
355 499
356 499
357 499
358 499
359 499
360 499
361 499
362 499
363 499
364 499
365 499
366 499
367 499
368 498
369 497
370 497
371 496
372 495
373 494
374 494
375 493
376 492
377 491
378 491
379 490
380 489
381 488
382 487
383 487
384 486
385 485
386 485
387 484
388 483
389 482
390 481
391 480
392 479
393 478
394 477
395 476
396 476
397 475
398 475
399 475
400 476
401 477
402 478
402 479
403 480
403 481
404 482
404 483
404 484
405 485
405 486
406 487
406 488
406 489
407 490
408 490
409 490
410 490
411 490
412 490
413 490
414 490
415 489
416 488
417 487
418 487
419 486
420 485
421 484
422 484
423 483
424 482
425 482
426 481
427 481
428 480
429 480
430 479
431 479
432 478
433 477
434 476
435 475
436 474
437 473
437 472
438 471
439 470
439 469
440 468
441 467
441 466
442 465
443 464
444 463
444 462
445 461
445 460
446 459
446 458
447 457
447 456
448 455
448 454
448 453
448 452
449 451
449 450
450 449
450 448
451 447
451 446
452 445
453 444
453 443
454 442
454 441
455 440
455 439
455 438
456 437
456 436
457 435
457 434
458 433
459 432
460 431
461 432
462 433
463 434
463 435
464 436
464 437
465 438
465 439
466 440
466 441
467 442
467 443
468 444
468 445
469 446
469 447
470 448
470 449
471 450
472 451
473 452
474 453
475 454
476 455
476 456
477 457
478 458
479 459
480 460
481 461
482 461
483 462
484 462
485 463
486 463
487 463
488 463
489 463
490 463
491 463
492 463
493 463
493 462
494 461
494 460
495 459
495 458
496 457
496 456
497 455
498 454
499 453
499 452
500 451
500 450
500 449
501 448
501 447
502 446
502 445
503 444
503 443
504 442
504 441
504 440
504 439
504 438
504 437
505 436
505 435
506 434
506 433
507 432
507 431
508 430
509 429
509 428
509 427
510 426
510 425
510 424
510 423
510 422
511 421
511 420
511 419
511 418
511 417
512 416
512 415
512 414
513 413
513 412
514 411
514 410
514 409
515 408
515 407
515 406
515 405
515 404
515 403
515 402
515 401
515 400
516 399
516 398
516 397
516 396
516 395
516 394
516 393
516 392
516 391
516 390
516 389
516 388
516 387
516 386
516 385
516 384
516 383
516 382
516 381
516 380
516 379
516 378
516 377
516 376
516 375
516 374
516 373
516 372
516 371
516 370
516 369
516 368
516 367
516 366
516 365
515 364
515 363
515 362
515 361
515 360
515 359
515 358
515 357
515 356
515 355
515 354
515 353
514 352
514 351
514 350
514 349
513 348
513 347
513 346
512 345
512 344
512 343
512 342
512 341
512 340
511 339
511 338
511 337
511 336
511 335
511 334
510 333
510 332
509 331
509 330
509 329
508 328
508 327
508 326
508 325
507 324
507 323
506 322
506 321
506 320
506 319
506 318
506 317
505 316
505 315
505 314
504 313
504 312
504 311
503 310
503 309
502 308
502 307
501 306
501 305
500 304
499 303
499 302
498 301
498 300
497 299
496 298
495 297
495 296
494 295
493 294
492 293
491 292
490 291
489 290
488 289
488 288
487 287
486 286
485 285
484 284
483 283
482 282
481 281
480 280
479 279
478 278
477 277
476 276
475 276
474 275
474 274
473 273
474 272
475 271
476 270
477 270
478 270
479 270
480 270
481 270
482 271
483 271
484 271
485 271
486 271
487 271
488 271
489 271
490 272
491 272
492 272
493 272
494 272
495 272
496 272
497 272
498 273
499 273
500 273
501 273
502 273
503 274
504 274
505 274
506 274
507 274
508 274
509 274
510 274
511 275
512 275
513 275
514 275
515 275
516 275
517 275
518 276
519 276
520 276
521 276
522 276
523 276
524 276
525 277
526 277
527 277
528 277
529 277
530 277
531 277
532 277
533 277
534 277
535 277
536 278
537 278
538 278
539 278
540 278
541 278
542 278
543 278
544 278
545 278
546 278
547 278
548 279
549 279
550 279
551 279
552 279
553 279
554 279
555 279
556 279
557 279
558 279
559 279
560 279
561 279
562 279
563 279
564 279
565 279
566 279
567 279
568 279
569 279
570 279
571 279
572 279
573 279
574 279
575 279
576 279
577 279
578 279
579 279
580 279
581 279
582 279
583 279
584 279
585 279
586 279
587 279
588 279
589 279
590 279
591 279
592 279
593 279
594 279
595 279
596 279
597 279
598 279
599 279
600 279
601 279
602 279
603 278
604 278
605 278
606 278
607 278
608 278
609 278
610 278
611 278
612 278
613 278
614 278
615 278
616 278
617 277
618 277
619 277
620 277
621 277
622 277
623 276
624 276
625 276
626 276
627 276
628 276
629 276
630 275
631 275
632 275
633 274
634 274
635 274
636 273
637 273
638 272
639 272
640 271
641 271
642 270
642 269
642 268
642 267
642 266
642 265
642 264
642 263
642 262
642 261
641 260
640 260
639 260
638 260
637 260
636 260
635 260
634 260
633 260
632 260
631 260
630 261
629 262
628 262
627 263
626 264
625 264
624 265
623 265
622 266
621 266
620 267
619 267
618 268
617 268
616 268
615 269
614 269
613 270
612 270
611 270
610 271
609 271
608 271
607 271
606 271
605 272
604 272
603 272
602 272
601 272
600 272
599 272
598 272
597 272
596 273
595 273
594 273
593 273
592 273
591 273
590 273
589 273
588 273
587 273
586 273
585 273
584 273
583 273
582 274
581 274
580 274
579 274
578 274
577 273
576 273
575 273
574 273
573 273
572 273
571 273
570 273
569 273
568 273
567 273
566 273
565 273
564 273
563 273
562 273
561 273
560 273
559 272
558 272
557 272
556 272
555 272
554 272
553 272
552 272
551 272
550 272
549 272
548 272
547 271
546 271
545 271
544 271
543 271
542 271
541 271
540 271
539 271
538 271
537 270
536 270
535 270
534 270
533 270
532 270
531 270
530 269
529 269
528 269
527 269
526 269
525 269
524 269
523 268
522 268
521 268
520 268
519 268
518 268
517 267
516 267
515 267
514 267
513 267
512 267
511 266
510 266
509 266
508 266
507 266
506 266
505 265
504 265
503 265
502 265
501 265
500 265
499 264
498 264
497 264
496 264
495 264
494 263
493 263
492 263
491 263
490 263
489 262
488 262
487 262
486 262
485 262
484 262
483 261
482 261
481 261
480 261
479 260
478 260
477 260
476 260
475 259
474 259
473 258
472 258
471 257
470 257
469 256
468 255
468 254
467 253
467 252
466 251
466 250
465 249
465 248
465 247
464 246
464 245
465 244
466 243
467 242
468 242
469 241
470 242
471 242
472 243
473 243
474 244
474 245
475 245
476 245
477 245
478 245
479 245
480 245
481 245
482 244
483 243
483 242
483 241
483 240
484 239
484 238
485 237
485 236
485 235
486 234
486 233
486 232
487 231
487 230
487 229
487 228
487 227
487 226
488 225
488 224
488 223
488 222
488 221
488 220
488 219
488 218
488 217
488 216
488 215
488 214
489 213
489 212
489 211
489 210
489 209
489 208
489 207
489 206
489 205
489 204
489 203
489 202
489 201
489 200
489 199
489 198
489 197
489 196
489 195
489 194
489 193
489 192
489 191
489 190
489 189
489 188
489 187
489 186
489 185
489 184
489 183
489 182
489 181
489 180
489 179
489 178
489 177
489 176
488 175
488 174
488 173
488 172
488 171
488 170
488 169
488 168
488 167
487 166
487 165
487 164
487 163
487 162
487 161
487 160
487 159
486 158
486 157
486 156
485 155
485 154
484 153
484 152
484 151
483 150
483 149
483 148
482 147
482 146
482 145
482 144
482 143
482 142
482 141
482 140
481 139
481 138
481 137
481 136
480 135
480 134
480 133
480 132
479 131
479 130
479 129
478 128
478 127
477 126
476 125
476 124
475 123
475 122
474 121
474 120
473 119
472 118
471 117
470 116
469 115
468 114
467 113
466 112
465 111
464 110
463 109
462 109
461 108
461 107
460 106
460 105
459 104
459 103
458 102
458 101
457 100
456 99
455 98
454 97
453 97
452 96
451 95
450 94
449 93
448 92
447 91
446 91
445 91
444 91
443 91
443 92
443 93
443 94
443 95
443 96
443 97
443 98
443 99
444 100
444 101
443 102
443 103
442 104
442 105
441 106
441 107
440 108
439 109
438 110
437 111
436 112
436 113
435 114
434 114
433 115
432 114
431 113
430 112
430 111
429 110
429 109
428 108
428 107
428 106
427 105
427 104
426 103
425 102
425 101
424 100
424 99
423 98
423 97
422 96
422 95
421 94
420 93
420 92
419 91
418 90
417 89
417 88
416 87
415 86
414 85
413 84
412 83
412 82
411 81
410 80
409 79
408 78
407 78
406 78
405 78
404 78
403 77
402 77
401 76
400 76
399 75
398 75
397 74
396 73
395 72
394 72
393 71
392 70
391 70
390 69
389 69
388 69
387 69
386 69
385 69
384 69
383 69
382 69
381 69
381 70
381 71
381 72
380 73
380 74
380 75
379 76
379 77
379 78
378 79
378 80
377 81
376 82
375 83
374 83
373 82
372 82
371 81
370 80
369 80
368 79
367 78
366 77
365 76
364 76
363 76
362 75
361 75
360 74
359 74
358 74
357 73
356 73
355 73
354 73
353 72
352 72
351 72
350 72
349 72
348 72
347 72
346 72
345 72
344 72
343 72
342 72
341 72
340 71
339 71
338 70
337 70
336 69
335 69
334 68
333 67
332 67
331 66
330 66
329 65
328 64
327 63
326 62
325 62
324 61
323 61
322 61
321 61
320 61
319 61
318 61
317 61
317 62
317 63
317 64
317 65
317 66
317 67
317 68
317 69
317 70
317 71
317 72
317 73
318 74
318 75
318 76
318 77
319 78
319 79
319 80
319 81
320 82
320 83
321 84
321 85
321 86
322 87
322 88
322 89
322 90
322 91
322 92
322 93
321 94
321 95
320 96
320 97
319 98
318 98
317 99
316 99
315 100
314 100
313 100
313 101
313 102
313 103
313 104
313 105
313 106
313 107
313 108
313 109
313 110
313 111
313 112
313 113
313 114
313 115
313 116
313 117
313 118
313 119
314 120
314 121
314 122
314 123
314 124
314 125
314 126
314 127
315 128
315 129
315 130
315 131
316 132
316 133
316 134
317 135
317 136
317 137
318 138
318 139
319 140
319 141
319 142
320 143
320 144
320 145
319 146
318 147
317 148
316 148
315 149
314 149
313 150
312 150
311 150
311 151
311 152
311 153
311 154
311 155
311 156
311 157
311 158
311 159
311 160
311 161
311 162
311 163
312 164
312 165
312 166
313 167
313 168
314 169
314 170
314 171
315 172
315 173
316 174
316 175
316 176
317 177
317 178
317 179
318 180
318 181
319 182
319 183
320 184
321 185
321 186
322 187
323 188
324 189
325 190
326 191
327 192
327 193
328 194
328 195
329 196
330 197
330 198
331 199
332 200
333 201
334 202
335 203
336 204
337 205
338 206
339 207
340 208
341 209
342 209
343 210
344 210
345 211
346 211
347 212
348 213
349 214
350 215
351 216
352 217
353 218
353 219
353 220
353 221
352 222
351 222
350 222
349 222
348 221
347 221
346 221
345 220
344 220
343 219
342 219
341 218
340 218
339 217
338 217
337 217
336 216
335 216
334 215
333 215
332 214
331 214
330 214
329 213
328 213
327 212
326 212
325 211
324 211
323 211
322 210
321 210
320 209
319 209
318 208
317 208
316 208
315 207
314 207
313 207
312 207
311 207
310 207
309 206
308 206
307 206
306 206
305 206
304 206
303 205
302 205
301 205
300 204
299 204
298 203
297 203
296 202
295 202
294 201
293 200
292 199
291 198
290 197
289 197
288 196
287 196
286 195
285 195
284 194
283 194
282 193
281 193
280 193
279 192
278 192
277 192
276 191
275 191
274 190
273 190
272 190
271 190
270 189
269 189
268 189
267 189
266 188
265 188
264 188
263 188
262 188
261 187
260 187
259 187
258 187
257 187
256 187
255 187
254 187
253 186
252 186
251 186
250 186
249 186
248 186
247 186
246 186
245 186
244 185
243 185
242 185
241 185
240 185
239 185
238 185
237 185
236 185
235 185
234 184
233 184
232 184
231 184
230 184
229 184
228 184
227 184
226 184
225 184
224 184
223 184
222 184
221 184
220 184
219 184
218 184
217 184
216 184
215 184
214 184
213 184
212 184
211 184
210 184
209 184
208 184
207 185
206 185
205 185
204 185
203 185
202 185
201 185
200 185
199 186
198 186
197 186
196 186
195 187
194 187
193 188
192 188
191 189
190 189
189 189
188 189
187 190
186 190
185 190
184 191
183 191
182 191
181 191
180 191
179 191
178 191
178 192
178 193
178 194
178 195
178 196
178 197
179 198
179 199
180 200
181 201
181 202
182 203
183 204
184 205
185 206
186 207
187 207
188 208
189 209
190 209
191 210
191 211
192 212
192 213
193 214
193 215
194 216
194 217
194 218
193 219
192 220
191 221
190 221
189 222
188 222
187 222
186 222
185 223
184 223
183 223
182 223
181 223
180 224
179 224
178 224
177 224
176 224
175 225
174 225
173 225
172 226
171 226
170 226
169 227
168 227
167 227
166 228
165 228
164 228
163 229
162 229
161 229
160 230
159 230
158 231
157 231
156 231
155 231
154 232
153 232
152 232
151 233
150 233
149 234
148 234
147 235
146 235
145 236
144 236
143 237
142 237
141 238
140 238
139 239
138 240
138 241
137 242
136 242
135 243
134 243
133 244
132 244
131 245
130 245
129 246
128 246
127 247
126 248
125 248
124 249
124 250
124 251
124 252
124 253
124 254
124 255
124 256
124 257
124 258
125 258
126 259
127 260
128 261
129 262
129 263
130 264
131 265
132 266
133 267
134 268
134 269
135 270
134 271
134 272
133 273
132 274
131 275
130 276
129 277
128 278
127 279
126 280
125 281
125 282
124 283
123 284
122 285
122 286
121 287
120 288
119 289
118 290
118 291
118 292
118 293
118 294
118 295
117 296
117 297
116 298
116 299
115 300
114 301
