355 51
354 52
353 53
353 54
352 55
352 56
352 57
352 58
352 59
351 60
350 61
350 62
349 63
348 64
347 65
347 66
346 67
345 68
344 69
343 70
342 71
341 72
340 73
339 74
338 75
337 75
336 76
335 77
334 78
333 79
332 80
331 81
331 82
330 83
329 84
328 85
328 86
327 87
326 88
326 89
325 90
325 91
324 92
323 93
323 94
322 95
322 96
321 97
321 98
321 99
321 100
320 101
320 102
320 103
319 104
319 105
319 106
319 107
319 108
318 109
318 110
318 111
318 112
318 113
318 114
318 115
317 116
317 117
317 118
317 119
317 120
317 121
316 122
316 123
316 124
316 125
316 126
316 127
316 128
315 129
315 130
315 131
315 132
315 133
315 134
315 135
315 136
315 137
315 138
315 139
315 140
315 141
315 142
315 143
315 144
315 145
315 146
315 147
315 148
315 149
315 150
315 151
315 152
315 153
315 154
316 155
316 156
316 157
316 158
316 159
316 160
316 161
317 162
317 163
317 164
317 165
317 166
317 167
318 168
318 169
318 170
318 171
319 172
319 173
320 174
320 175
320 176
320 177
321 178
321 179
321 180
321 181
322 182
322 183
322 184
322 185
322 186
323 187
323 188
323 189
323 190
324 191
324 192
324 193
325 194
325 195
326 196
326 197
326 198
327 199
327 200
328 201
328 202
329 203
329 204
330 205
330 206
330 207
331 208
332 209
332 210
332 211
333 212
333 213
334 214
334 215
335 216
336 217
336 218
337 219
338 220
338 221
339 222
339 223
340 224
340 225
341 226
341 227
342 228
342 229
343 230
344 231
344 232
345 233
345 234
346 235
347 236
347 237
348 238
348 239
349 240
350 241
351 242
351 243
352 244
353 245
354 246
355 247
356 248
357 249
357 250
358 250
359 251
360 252
361 253
361 254
362 255
363 255
364 256
365 257
366 258
367 259
368 260
369 260
370 261
371 262
372 262
373 263
374 264
375 264
376 265
377 266
378 267
379 267
380 268
381 269
382 269
383 270
384 271
385 271
386 272
387 272
388 273
389 273
390 274
391 275
392 275
393 275
394 276
395 276
396 277
397 277
398 278
399 278
400 279
401 279
402 280
403 280
404 280
405 281
406 281
407 281
408 282
409 282
410 282
411 282
412 283
413 283
414 283
415 283
416 283
417 283
418 284
419 284
420 284
421 284
422 285
423 285
424 285
425 285
426 285
427 285
428 285
429 285
430 285
431 285
432 285
433 285
434 285
435 284
436 284
437 284
438 284
439 284
440 283
441 283
442 283
443 283
444 282
445 282
446 282
447 281
448 281
449 280
450 280
451 280
452 280
453 280
454 279
455 279
456 279
457 279
458 279
459 279
460 280
461 280
462 280
463 281
463 282
464 283
464 284
464 285
465 286
464 287
463 288
462 289
461 289
460 289
459 289
458 289
457 289
456 289
455 289
454 290
453 290
452 290
451 290
450 290
449 290
448 290
447 291
446 291
445 291
444 291
443 291
442 291
441 291
440 292
439 292
438 292
437 292
436 292
435 292
434 292
433 292
432 293
431 293
430 293
429 293
428 293
427 293
426 293
425 294
424 294
423 294
422 294
421 294
420 294
419 294
418 294
417 294
416 294
415 295
414 295
413 295
412 295
411 295
410 295
409 295
408 295
407 295
406 295
405 295
404 295
403 295
402 295
401 295
400 296
399 296
398 296
397 296
396 296
395 296
394 296
393 296
392 296
391 296
390 296
389 296
388 296
387 296
386 296
385 296
384 295
383 295
382 295
381 295
380 295
379 295
378 294
377 293
376 292
375 291
374 290
373 289
373 288
372 287
371 286
371 285
371 284
370 283
370 282
369 281
369 280
369 279
368 278
368 277
368 276
367 275
367 274
366 273
366 272
365 271
364 270
364 269
363 268
362 267
362 266
361 265
360 264
359 263
358 262
357 261
356 260
355 259
354 258
353 257
352 256
351 255
350 254
349 253
348 252
347 251
347 250
346 249
345 248
344 247
343 246
342 245
341 244
340 243
339 242
338 241
337 240
336 239
335 238
334 237
333 237
332 236
331 235
330 234
329 234
328 233
327 232
326 232
325 231
324 230
323 230
322 229
321 228
320 227
319 227
318 226
317 225
316 225
315 224
314 223
313 223
312 222
311 221
310 221
309 220
308 220
307 219
306 218
305 217
304 217
303 216
302 216
301 215
300 215
299 214
298 214
297 213
296 213
295 212
294 212
293 211
292 211
291 211
290 210
289 210
288 209
287 209
286 208
285 208
284 208
283 207
282 207
281 207
280 206
279 206
278 206
277 205
276 205
275 205
274 205
273 204
272 204
271 204
270 203
269 203
268 203
267 203
266 202
265 202
264 202
263 201
262 201
261 200
260 200
259 200
258 199
257 199
256 199
255 199
254 198
253 198
252 198
251 198
250 197
249 197
248 197
247 197
246 196
245 196
244 196
243 196
242 196
241 195
240 195
239 195
238 195
237 194
236 194
235 194
234 194
233 194
232 193
231 193
230 193
229 193
228 193
227 193
226 193
225 192
224 192
223 192
222 192
221 192
220 191
219 191
218 191
217 191
216 190
215 190
214 190
213 190
212 190
211 190
210 189
209 189
208 189
207 189
206 189
205 189
204 188
203 188
202 188
201 188
200 188
199 188
198 188
197 188
196 188
195 188
194 188
193 188
192 188
191 188
190 188
189 188
188 188
187 188
186 188
185 188
184 188
183 189
182 189
181 189
180 189
179 189
178 189
177 189
176 189
175 189
174 189
173 189
172 190
171 190
170 190
169 190
168 190
167 190
166 190
165 190
164 190
163 190
162 190
161 190
160 191
159 191
158 191
157 191
156 192
155 192
154 192
153 193
152 193
151 193
150 193
149 193
148 193
147 193
146 193
145 194
144 194
143 194
142 194
141 195
140 195
139 195
138 196
137 196
136 196
135 196
134 197
133 197
132 197
131 197
130 198
129 198
128 198
127 199
126 199
125 199
124 200
123 200
122 200
121 201
120 201
119 201
118 202
117 202
116 203
115 203
114 204
113 204
112 204
111 205
110 205
109 206
108 206
107 206
106 207
105 207
104 208
103 208
102 209
101 209
100 209
99 210
98 210
97 210
96 211
95 211
94 212
93 212
92 213
91 213
90 213
89 214
88 214
87 215
86 215
85 216
84 216
83 217
82 217
81 218
80 218
79 219
78 219
77 220
76 220
75 221
74 221
73 222
72 223
71 224
70 224
69 225
68 226
67 226
66 227
65 228
64 229
63 229
62 230
61 231
60 232
59 232
58 233
57 234
56 235
55 236
54 237
53 238
52 238
51 239
50 240
49 241
48 242
48 243
47 244
47 245
47 246
48 247
49 248
50 249
51 249
52 249
53 250
54 250
55 250
56 251
57 251
58 252
59 252
60 253
61 253
62 254
63 254
64 255
65 256
66 256
67 257
68 257
69 258
70 258
71 259
72 259
73 260
74 260
75 261
76 262
77 263
78 264
79 265
80 266
80 267
80 268
80 269
79 270
79 271
79 272
80 273
81 274
81 275
82 275
83 275
84 276
85 276
86 275
87 276
88 276
89 276
90 276
91 276
92 276
93 277
94 277
95 277
96 277
97 277
98 278
97 279
96 279
95 279
94 279
93 279
92 279
91 279
90 279
89 279
88 279
87 279
86 279
85 279
84 279
83 278
82 278
82 279
81 280
81 281
81 282
80 283
80 284
79 285
79 286
80 287
80 288
79 289
78 290
77 290
76 291
75 291
74 291
73 292
72 292
71 292
70 292
69 293
68 293
67 293
66 294
65 294
64 294
63 294
62 294
61 295
60 295
59 294
58 293
58 292
58 291
57 290
57 289
57 288
57 287
56 288
55 287
54 287
53 288
52 288
51 288
50 288
49 288
48 289
47 290
47 291
47 292
47 293
47 294
47 295
48 296
48 297
48 298
48 299
48 300
48 301
48 302
49 303
49 304
50 305
50 306
51 307
51 308
52 309
52 310
53 311
53 312
54 313
54 314
55 315
56 316
57 317
57 318
58 319
59 320
59 321
60 322
61 323
62 324
63 325
64 326
65 327
66 328
67 329
68 330
69 331
70 332
71 333
72 334
73 335
74 336
75 337
76 338
77 339
78 340
79 340
80 341
81 342
82 343
83 343
84 344
85 344
86 345
87 345
88 346
89 346
90 347
91 347
92 348
93 349
94 349
95 350
96 351
97 351
98 352
99 352
100 353
101 353
102 354
103 355
104 355
105 356
106 356
107 357
108 357
109 358
110 358
111 358
112 359
113 359
114 360
115 360
116 360
117 361
118 361
119 361
120 362
121 362
122 362
123 363
124 363
125 363
126 364
127 364
128 364
129 365
130 365
131 366
132 366
133 367
134 367
135 367
136 368
137 368
138 368
139 368
140 369
141 369
142 369
143 370
144 370
145 370
146 370
147 371
148 371
149 371
150 371
151 372
152 372
153 372
154 372
155 373
156 373
157 373
158 373
159 374
160 374
161 374
162 375
163 375
164 376
165 376
166 376
167 377
168 377
169 377
170 377
171 378
172 378
173 378
174 378
175 378
176 378
177 378
178 378
179 379
180 379
181 379
182 379
183 379
184 379
185 379
186 379
187 379
188 379
189 380
190 380
191 380
192 380
193 380
194 380
195 380
196 380
197 380
198 380
199 380
200 380
201 380
202 380
203 380
204 380
205 380
206 380
207 380
208 380
209 380
210 380
211 380
212 380
213 380
214 380
215 379
216 379
217 380
218 380
219 380
220 380
221 380
222 380
223 380
224 380
225 380
226 380
227 380
228 380
229 380
230 380
231 380
232 381
233 381
234 381
235 381
236 381
237 381
238 381
239 381
240 380
241 380
242 380
243 380
244 380
245 380
246 380
247 379
248 379
249 379
250 379
251 379
252 379
253 378
254 378
255 378
256 378
257 378
258 378
259 378
260 378
261 378
262 378
263 378
264 378
265 378
266 378
267 378
268 378
269 377
270 377
271 377
272 377
273 377
274 376
275 376
276 376
277 376
278 375
279 375
280 375
281 375
282 374
283 374
284 374
285 374
286 373
287 373
288 373
289 372
290 372
291 372
292 371
293 371
294 370
295 370
296 370
297 369
298 369
299 369
300 368
301 368
302 367
303 367
304 366
305 366
306 365
307 365
308 364
309 364
310 364
311 363
312 363
313 362
314 361
315 361
316 361
317 360
318 360
319 359
320 359
321 358
322 358
323 357
324 357
325 357
326 356
327 356
328 355
329 354
330 353
331 352
332 351
333 351
334 350
335 349
336 349
337 348
338 347
339 347
340 346
341 345
342 345
343 344
344 344
345 343
346 342
347 342
348 341
349 341
350 340
351 339
352 339
352 338
353 337
354 337
355 336
356 335
357 334
358 333
359 332
360 331
361 330
362 329
363 329
364 328
365 327
366 326
366 325
367 324
368 323
369 322
369 321
370 320
371 319
372 318
372 317
373 316
374 315
375 314
376 313
376 312
377 311
378 310
379 309
380 308
381 307
382 306
383 305
384 304
385 303
386 303
387 302
388 302
389 301
390 301
391 300
392 300
393 300
394 300
395 299
396 299
397 299
398 299
399 299
400 299
401 299
402 299
403 298
404 298
405 298
406 298
407 298
408 298
409 298
410 298
411 298
412 298
413 298
414 298
415 298
416 298
417 297
418 297
419 297
420 297
421 297
422 297
423 297
424 297
425 297
426 297
427 296
428 296
429 296
430 296
431 296
432 296
433 296
434 296
435 296
436 295
437 295
438 295
439 295
440 295
441 295
442 295
443 295
444 294
445 294
446 294
447 294
448 294
449 294
450 294
451 294
452 294
453 293
454 293
455 293
456 293
457 293
458 293
459 293
460 293
461 292
462 292
463 292
464 292
465 292
466 292
467 292
468 292
469 292
470 292
471 292
472 292
473 292
474 291
475 291
476 291
477 291
478 291
479 291
480 292
481 292
482 292
483 292
484 293
484 294
484 295
483 296
483 297
483 298
483 299
483 300
483 301
482 302
481 303
480 303
479 304
478 304
477 304
476 305
475 305
474 305
473 305
472 305
471 305
470 306
469 306
468 307
467 307
466 307
465 308
464 308
463 308
462 309
461 309
460 309
459 310
458 310
457 310
456 311
455 311
454 311
453 312
452 312
451 313
450 313
449 314
448 315
447 315
446 316
445 316
444 317
443 317
442 318
441 319
440 319
439 320
438 321
437 321
436 322
435 323
434 324
433 325
432 326
431 327
430 327
429 328
428 329
427 330
426 331
425 332
425 333
424 334
423 335
423 336
422 337
421 338
420 339
420 340
419 341
418 342
418 343
417 344
416 345
416 346
415 347
415 348
414 349
413 350
413 351
412 352
412 353
411 354
411 355
410 356
410 357
409 358
409 359
408 360
408 361
407 362
407 363
406 364
406 365
405 366
405 367
405 368
404 369
404 370
403 371
403 372
403 373
403 374
403 375
403 376
402 377
402 378
402 379
402 380
402 381
402 382
401 383
401 384
401 385
401 386
401 387
401 388
401 389
401 390
401 391
401 392
401 393
401 394
401 395
401 396
401 397
401 398
401 399
401 400
401 401
401 402
401 403
400 404
400 405
400 406
400 407
400 408
400 409
400 410
400 411
400 412
400 413
401 414
401 415
401 416
401 417
401 418
401 419
401 420
401 421
401 422
401 423
401 424
401 425
401 426
401 427
401 428
401 429
401 430
402 431
402 432
402 433
402 434
402 435
403 436
403 437
403 438
403 439
403 440
403 441
403 442
403 443
403 444
403 445
403 446
403 447
403 448
404 449
404 450
404 451
404 452
404 453
405 454
406 455
406 456
406 457
406 458
407 459
407 460
407 461
407 462
408 463
408 464
408 465
408 466
408 467
408 468
409 469
409 470
409 471
409 472
409 473
409 474
409 475
409 476
410 477
410 478
410 479
410 480
411 481
411 482
412 483
412 484
412 485
413 486
413 487
414 488
414 489
415 490
415 491
416 492
416 493
417 494
417 495
418 496
419 497
419 498
420 499
421 500
422 501
422 502
423 503
424 504
425 505
426 506
427 507
428 508
429 509
430 509
431 510
432 510
433 510
434 511
435 511
436 510
437 509
438 509
439 508
440 508
441 509
441 510
441 511
440 512
440 513
439 514
439 515
439 516
440 517
440 518
441 519
442 520
443 521
443 522
444 523
444 524
445 525
446 525
447 526
447 527
448 527
449 528
450 528
451 528
452 528
453 529
454 530
455 531
455 532
456 533
456 534
456 535
456 536
457 537
457 538
458 537
459 536
459 535
460 534
460 533
461 532
461 531
462 530
463 530
464 531
465 531
466 531
467 531
468 531
469 530
470 530
471 530
472 530
473 530
474 530
475 530
476 529
477 529
478 528
479 528
480 527
481 526
482 526
483 525
484 525
485 524
486 523
487 522
488 522
489 521
490 520
491 519
492 519
493 518
494 517
495 517
496 516
497 515
498 514
499 513
500 512
501 511
501 510
502 509
503 508
504 507
504 506
505 505
506 504
506 503
507 502
507 501
508 500
508 499
509 498
510 497
510 496
511 495
511 494
512 493
512 492
513 491
513 490
513 489
514 488
514 487
515 486
515 485
515 484
516 483
516 482
517 481
517 480
517 479
518 478
518 477
518 476
519 475
519 474
519 473
520 472
520 471
520 470
520 469
521 468
521 467
521 466
521 465
521 464
522 463
522 462
522 461
522 460
522 459
523 458
523 457
523 456
523 455
523 454
524 453
524 452
524 451
524 450
524 449
524 448
524 447
524 446
525 445
525 444
525 443
525 442
525 441
525 440
525 439
525 438
525 437
525 436
525 435
525 434
525 433
526 432
526 431
526 430
526 429
526 428
526 427
526 426
526 425
526 424
526 423
526 422
526 421
526 420
526 419
527 418
527 417
527 416
527 415
527 414
527 413
527 412
527 411
527 410
527 409
527 408
527 407
527 406
527 405
527 404
527 403
527 402
527 401
527 400
527 399
527 398
527 397
526 396
526 395
526 394
526 393
526 392
526 391
526 390
526 389
526 388
526 387
526 386
526 385
526 384
526 383
526 382
526 381
526 380
526 379
526 378
526 377
526 376
526 375
525 374
525 373
525 372
525 371
525 370
525 369
525 368
525 367
525 366
525 365
524 364
524 363
524 362
524 361
524 360
524 359
524 358
523 357
523 356
523 355
522 354
522 353
522 352
522 351
522 350
521 349
521 348
521 347
521 346
521 345
521 344
520 343
520 342
520 341
520 340
519 339
519 338
519 337
518 336
518 335
518 334
517 333
517 332
517 331
517 330
516 329
516 328
516 327
515 326
515 325
515 324
514 323
514 322
514 321
513 320
513 319
513 318
513 317
512 316
512 315
512 314
512 313
512 312
511 311
511 310
510 309
509 308
508 307
507 306
506 305
505 305
504 304
503 303
502 303
501 302
500 302
499 301
498 301
497 300
496 300
495 299
494 299
493 298
492 298
491 297
490 296
491 295
492 294
493 294
494 293
495 293
496 293
497 293
498 293
499 293
500 293
501 293
502 293
503 293
504 293
505 293
506 293
507 293
508 293
509 293
510 293
511 292
512 292
513 292
514 292
515 292
516 292
517 292
518 292
519 292
520 292
521 292
522 292
523 292
524 292
525 292
526 292
527 292
528 292
529 292
530 292
531 292
532 292
533 292
534 292
535 292
536 292
537 291
538 291
539 291
540 291
541 291
542 291
543 291
544 291
545 291
546 291
547 291
548 291
549 291
550 291
551 291
552 291
553 291
554 291
555 291
556 291
557 291
558 290
559 290
560 290
561 290
562 290
563 290
564 290
565 290
566 290
567 290
568 290
569 291
570 291
571 291
572 291
573 291
574 291
575 291
576 292
575 293
574 293
573 293
572 293
571 293
570 293
569 294
568 294
567 294
566 295
565 295
564 296
563 296
562 297
561 297
560 298
559 299
558 299
557 300
556 300
555 301
554 302
553 303
552 303
551 304
550 305
550 306
549 307
549 308
549 309
548 310
548 311
547 312
546 313
546 314
545 315
545 316
544 317
544 318
544 319
543 320
542 321
542 322
541 323
541 324
541 325
541 326
540 327
540 328
540 329
540 330
540 331
540 332
540 333
539 334
539 335
539 336
539 337
539 338
539 339
539 340
539 341
539 342
539 343
539 344
539 345
539 346
539 347
540 348
540 349
540 350
540 351
541 352
541 353
542 354
543 355
543 356
544 357
544 358
544 359
545 360
545 361
545 362
545 363
546 364
546 365
546 366
547 367
547 368
548 369
548 370
549 371
549 372
549 373
549 374
550 375
550 376
551 377
552 378
553 379
554 380
554 381
555 382
556 383
556 384
557 385
557 386
557 387
558 388
558 389
559 390
559 391
560 392
561 392
562 393
563 394
564 395
565 396
566 396
567 397
568 398
569 399
570 400
571 401
571 402
572 403
573 403
574 403
575 403
576 402
577 401
577 400
577 399
577 398
578 397
579 397
580 398
581 399
581 400
581 401
581 402
581 403
581 404
582 404
583 403
584 403
585 402
586 402
587 401
588 401
589 400
590 399
591 398
592 397
593 396
594 395
594 394
595 393
596 392
597 391
597 390
598 389
598 388
599 387
599 386
599 385
600 384
600 383
600 382
600 381
601 380
601 379
601 378
601 377
601 376
601 375
602 374
602 373
602 372
602 371
602 370
602 369
603 368
603 367
603 366
604 365
604 364
604 363
604 362
604 361
604 360
604 359
604 358
604 357
604 356
604 355
604 354
604 353
604 352
604 351
604 350
604 349
604 348
604 347
604 346
604 345
605 344
605 343
605 342
605 341
605 340
605 339
605 338
605 337
605 336
605 335
605 334
605 333
605 332
605 331
605 330
605 329
605 328
605 327
605 326
605 325
604 324
604 323
604 322
604 321
603 320
603 319
603 318
603 317
602 316
602 315
602 314
601 313
601 312
600 311
600 310
600 309
599 308
599 307
598 306
598 305
597 304
597 303
596 302
595 301
594 300
593 299
592 298
591 297
590 297
589 296
588 295
587 295
586 294
585 294
584 293
583 292
584 291
585 290
586 290
587 290
588 290
589 290
590 290
591 289
592 289
593 289
594 289
595 289
596 289
597 289
598 289
599 288
600 288
601 288
602 288
603 288
604 288
605 288
606 288
607 288
608 288
609 288
610 287
611 287
612 287
613 287
614 287
615 287
616 287
617 287
618 287
619 286
620 286
621 286
622 286
623 286
624 286
625 286
626 286
627 286
628 285
629 285
630 285
631 285
632 285
633 285
634 285
635 285
636 284
637 284
638 284
639 284
640 284
641 284
642 284
643 284
644 283
645 283
646 283
647 283
648 283
649 282
650 282
651 282
652 282
653 282
654 282
655 282
656 282
657 281
658 281
659 281
660 281
661 281
662 281
663 280
664 280
665 280
666 280
667 280
668 280
669 279
670 279
671 279
672 279
673 279
674 279
675 279
676 278
677 278
678 278
679 278
680 278
681 277
682 277
683 277
684 277
685 276
686 276
687 276
688 276
689 275
690 275
691 275
692 275
693 275
694 274
695 274
696 274
697 273
698 273
699 273
700 273
701 272
702 272
703 272
704 272
705 271
706 271
707 271
708 270
709 270
710 270
711 270
712 269
713 269
714 269
715 268
716 268
717 268
718 268
719 267
720 267
721 267
722 266
723 266
724 266
725 265
726 265
727 264
728 264
729 264
730 263
731 263
732 263
733 262
734 262
735 261
736 261
737 261
738 260
739 260
740 260
741 259
742 259
743 258
744 258
745 258
746 257
747 257
748 257
749 256
750 256
751 256
752 256
753 256
754 257
755 258
756 258
757 259
758 260
759 260
760 259
761 258
761 257
761 256
761 255
761 254
762 253
762 252
763 251
762 250
761 250
760 249
759 249
758 249
757 248
756 248
755 248
754 248
753 249
752 249
751 249
750 249
749 249
748 250
747 250
746 251
745 251
744 252
743 252
742 253
741 253
740 254
739 254
738 254
737 255
736 256
735 256
734 257
733 257
732 257
731 258
730 258
729 259
728 259
727 259
726 260
725 260
724 261
723 261
722 261
721 262
720 262
719 262
718 263
717 263
716 263
715 264
714 264
713 264
712 265
711 265
710 265
709 265
708 266
707 266
706 266
705 266
704 267
703 267
702 267
701 268
700 268
699 268
698 268
697 268
696 269
695 269
694 269
693 269
692 270
691 270
690 270
689 270
688 270
687 271
686 271
685 271
684 271
683 272
682 272
681 272
680 272
679 272
678 273
677 273
676 273
675 273
674 273
673 273
672 274
671 274
670 274
669 274
668 274
667 275
666 275
665 275
664 275
663 275
662 275
661 275
660 276
659 276
658 276
657 276
656 276
655 276
654 277
653 277
652 277
651 277
650 277
649 277
648 277
647 278
646 278
645 278
644 278
643 278
642 278
641 278
640 278
639 279
638 279
637 279
636 279
635 279
634 279
633 279
632 279
631 280
630 280
629 280
628 280
627 280
626 280
625 280
624 281
623 281
622 281
621 281
620 281
619 281
618 281
617 281
616 281
615 281
614 281
613 282
612 282
611 282
610 282
609 282
608 282
607 282
606 282
605 282
604 282
603 282
602 282
601 282
600 282
599 282
598 283
597 283
596 283
595 283
594 283
593 283
592 283
591 283
590 283
589 283
588 283
587 283
586 283
585 283
584 283
583 283
582 282
583 281
584 281
585 280
586 280
587 280
588 279
589 279
590 278
591 278
592 277
593 277
594 276
595 275
596 274
597 273
598 272
598 271
599 270
600 269
600 268
601 267
602 266
602 265
603 264
604 263
604 262
605 261
605 260
606 259
606 258
607 257
607 256
607 255
608 254
608 253
608 252
609 251
609 250
610 249
610 248
610 247
611 246
611 245
611 244
612 243
612 242
612 241
613 240
613 239
613 238
613 237
613 236
613 235
613 234
613 233
613 232
613 231
613 230
613 229
614 228
614 227
614 226
614 225
614 224
614 223
614 222
614 221
614 220
614 219
614 218
614 217
614 216
613 215
613 214
613 213
612 212
612 211
612 210
612 209
611 208
611 207
611 206
611 205
610 204
610 203
610 202
610 201
610 200
610 199
610 198
610 197
610 196
609 195
609 194
609 193
609 192
609 191
609 190
608 189
608 188
608 187
607 186
607 185
606 184
606 183
605 182
605 181
604 180
604 179
603 178
602 177
601 176
600 176
599 175
599 174
598 173
597 172
597 171
597 170
597 169
596 169
595 170
594 171
593 172
592 173
591 174
591 175
590 176
590 177
589 178
589 179
588 180
587 181
586 181
585 182
584 182
583 183
582 184
581 185
580 185
579 186
578 186
577 186
576 187
575 188
574 189
573 190
572 191
571 192
570 192
569 193
568 194
567 194
566 195
565 196
564 196
563 197
562 198
561 199
560 200
559 201
559 202
558 203
557 204
556 205
555 206
554 207
554 208
553 209
552 210
552 211
552 212
551 213
551 214
550 215
550 216
549 217
549 218
548 219
548 220
547 221
547 222
547 223
546 224
546 225
545 226
545 227
544 228
544 229
543 230
543 231
542 232
542 233
541 234
541 235
541 236
541 237
540 238
540 239
540 240
540 241
540 242
540 243
540 244
540 245
540 246
540 247
540 248
541 249
541 250
541 251
541 252
542 253
542 254
542 255
542 256
543 257
543 258
543 259
544 260
544 261
544 262
545 263
545 264
546 265
546 266
547 267
548 268
549 269
550 270
551 271
552 272
553 273
554 274
555 274
556 275
557 275
558 276
559 276
560 276
561 277
562 278
563 278
564 278
565 279
566 279
567 280
568 281
568 282
568 283
567 284
566 285
565 285
564 285
563 285
562 285
561 285
560 285
559 285
558 286
557 286
556 286
555 286
554 286
553 286
552 286
551 286
550 286
549 286
548 286
547 286
546 286
545 286
544 287
543 287
542 287
541 287
540 287
539 287
538 287
537 287
536 287
535 287
534 287
533 287
532 287
531 287
530 287
529 287
528 287
527 287
526 287
525 287
524 287
523 287
522 287
521 287
520 287
519 287
518 287
517 287
516 287
515 287
514 287
513 287
512 287
511 287
510 287
509 287
508 287
507 287
506 287
505 287
504 288
503 288
502 288
501 288
500 288
499 288
498 288
497 288
496 287
495 287
494 287
493 287
492 287
491 287
490 287
489 287
488 287
487 287
486 287
485 287
484 287
483 287
482 287
481 287
480 286
479 286
478 286
477 286
476 286
475 286
474 286
473 286
472 285
471 284
470 283
470 282
471 281
471 280
471 279
472 278
473 277
474 276
475 275
476 274
477 273
478 272
479 271
480 270
481 269
482 268
482 267
483 266
484 265
484 264
485 263
485 262
486 261
486 260
486 259
486 258
486 257
487 256
487 255
487 254
487 253
487 252
487 251
487 250
487 249
487 248
487 247
487 246
487 245
486 244
486 243
486 242
487 241
487 240
487 239
487 238
486 237
486 236
486 235
486 234
486 233
486 232
486 231
486 230
486 229
485 228
485 227
485 226
485 225
484 224
484 223
484 222
484 221
483 220
483 219
483 218
483 217
482 216
482 215
482 214
481 213
481 212
481 211
480 210
480 209
479 208
479 207
479 206
478 205
478 204
478 203
477 202
477 201
477 200
477 199
477 198
477 197
477 196
477 195
477 194
477 193
477 192
477 191
477 190
476 189
476 188
476 187
476 186
476 185
476 184
475 183
475 182
475 181
475 180
475 179
474 178
474 177
474 176
474 175
473 174
473 173
473 172
472 171
472 170
472 169
471 168
471 167
471 166
470 165
470 164
470 163
470 162
469 161
469 160
469 159
469 158
469 157
468 156
468 155
467 154
467 153
467 152
466 151
466 150
465 149
465 148
464 147
464 146
463 145
463 144
462 143
462 142
461 141
460 140
460 139
459 138
459 137
458 136
458 135
458 134
457 133
457 132
456 131
456 130
455 129
455 128
454 127
454 126
453 125
452 124
452 123
451 122
450 121
449 120
449 119
448 118
448 117
447 116
446 115
446 114
445 113
444 112
443 111
443 110
442 109
441 108
440 107
439 106
438 105
437 104
436 103
435 102
434 101
433 100
433 99
432 98
431 97
430 96
429 95
428 94
427 93
427 92
426 91
425 90
424 89
423 88
422 88
421 87
420 87
419 86
418 85
417 84
416 83
415 82
414 81
413 81
412 80
411 79
410 78
409 77
408 76
407 75
406 75
405 74
404 73
403 72
402 71
401 70
400 69
399 69
398 68
397 68
396 68
395 67
394 67
393 67
392 66
391 66
390 66
389 66
388 65
387 65
386 65
385 65
384 65
383 65
382 64
381 64
380 64
379 63
378 63
377 63
376 62
375 62
374 62
373 62
372 62
371 61
370 61
369 61
368 60
367 60
366 59
365 59
364 58
363 58
362 57
361 57
360 56
359 56
358 56
357 55
356 54
356 53
355 52
355 51
