394 134
394 135
395 136
396 137
396 138
397 139
397 140
398 141
398 142
398 143
397 144
396 144
395 144
394 145
393 145
392 145
391 145
390 145
389 145
388 145
387 145
386 145
385 145
384 146
384 147
384 148
385 149
386 149
387 150
387 151
386 152
387 153
387 154
388 154
389 155
390 155
391 155
392 155
393 155
394 155
395 155
396 155
397 155
398 156
397 157
396 157
395 157
394 158
393 158
392 158
391 158
390 159
389 159
389 160
390 161
391 162
392 162
393 162
394 162
395 163
394 164
393 164
392 165
392 166
393 167
394 168
394 169
394 170
395 171
396 171
397 172
398 172
399 172
400 173
399 174
398 175
398 176
398 177
399 178
399 179
399 180
400 181
401 181
402 182
403 182
404 182
405 183
404 184
403 184
402 185
403 186
404 187
405 187
406 187
407 187
408 187
409 187
410 187
411 187
412 186
413 186
414 186
415 186
416 187
415 188
414 188
413 188
412 189
411 189
410 189
409 190
408 190
407 191
406 191
406 192
407 193
408 194
409 194
410 194
411 195
410 196
409 196
409 197
409 198
410 199
411 200
411 201
411 202
412 203
413 203
414 204
414 205
414 206
415 207
416 208
417 209
417 210
417 211
418 212
419 213
420 213
421 213
422 213
423 214
424 214
425 213
426 213
427 213
428 213
429 214
428 215
427 215
426 215
425 216
424 216
423 216
422 217
421 218
421 219
422 220
422 221
423 222
423 223
424 224
425 225
425 226
425 227
426 228
427 229
428 230
429 230
430 230
431 230
432 231
431 232
430 232
430 233
429 234
428 235
427 236
426 236
425 237
424 238
424 239
423 240
422 240
421 241
420 240
420 239
421 238
422 237
422 236
423 235
423 234
423 233
424 232
424 231
424 230
423 229
422 229
421 229
421 230
420 231
420 232
419 233
418 234
418 235
417 236
416 237
415 238
414 237
414 236
415 235
415 234
416 233
416 232
417 231
417 230
418 229
418 228
418 227
418 226
418 225
418 224
418 223
417 222
416 222
415 223
414 222
414 221
414 220
414 219
413 218
413 217
412 217
411 216
410 215
410 214
410 213
409 212
408 211
408 210
408 209
407 209
406 210
405 211
404 212
403 213
403 214
402 215
401 216
400 215
400 214
400 213
401 212
401 211
402 210
402 209
402 208
402 207
402 206
402 205
402 204
401 203
401 202
400 203
399 204
398 205
398 206
398 207
397 208
397 209
396 210
396 211
395 212
395 213
394 214
393 215
392 216
391 217
390 217
389 216
388 215
387 214
386 213
385 212
384 211
384 210
383 209
382 208
383 207
384 207
385 206
386 205
387 204
388 203
389 202
390 201
390 200
391 199
391 198
392 197
392 196
393 195
393 194
393 193
392 192
392 191
391 192
390 193
389 194
388 195
387 196
386 197
385 198
384 199
383 198
383 197
384 196
384 195
385 194
385 193
386 192
386 191
386 190
386 189
386 188
386 187
386 186
385 185
384 186
384 187
383 188
382 187
382 186
382 185
382 184
382 183
382 182
381 181
380 181
379 182
379 183
378 184
377 183
377 182
377 181
377 180
377 179
377 178
377 177
376 176
375 177
374 178
373 177
373 176
373 175
372 174
372 173
371 172
370 173
369 174
368 173
368 172
368 171
368 170
367 169
367 168
366 169
365 168
365 167
365 166
364 165
363 165
362 166
361 167
361 168
360 169
359 168
359 167
359 166
360 165
359 164
359 163
359 162
358 161
357 161
356 162
355 161
355 160
355 159
355 158
354 157
353 157
352 158
351 157
351 156
351 155
350 154
350 153
349 153
348 154
347 153
346 152
346 151
345 150
344 151
343 152
342 153
342 154
341 155
340 156
339 157
338 158
337 157
337 156
338 155
338 154
339 153
339 152
339 151
339 150
339 149
339 148
339 147
339 146
338 145
337 145
336 146
336 147
336 148
335 149
335 150
334 151
334 152
333 153
332 152
332 151
332 150
332 149
332 148
333 147
332 146
332 145
332 144
332 143
331 142
330 141
329 141
328 142
328 143
328 144
328 145
328 146
328 147
328 148
327 149
326 148
326 147
326 146
326 145
326 144
325 143
325 142
325 141
324 140
323 139
322 139
321 138
320 139
319 139
319 140
319 141
319 142
319 143
319 144
320 145
320 146
320 147
320 148
320 149
321 150
320 151
319 151
318 151
317 151
316 151
315 151
314 150
313 150
312 150
311 150
310 150
309 151
309 152
309 153
309 154
309 155
310 155
311 156
312 156
313 156
314 156
315 157
316 157
317 157
318 156
319 156
320 156
321 157
320 158
319 159
318 159
317 160
316 160
315 160
314 161
313 161
313 162
314 163
315 164
316 164
317 164
318 164
319 165
318 166
317 166
316 167
317 168
318 169
319 169
320 169
321 169
322 170
322 171
321 172
321 173
322 173
323 174
324 174
325 174
326 174
327 175
326 176
325 177
325 178
326 178
327 179
328 179
329 179
330 179
331 178
332 178
333 178
334 179
333 180
332 181
331 182
331 183
332 184
333 185
334 186
335 187
336 187
337 187
338 187
339 187
340 187
341 188
341 189
340 190
339 191
339 192
340 192
341 192
342 193
343 193
344 194
343 195
344 196
345 196
346 197
346 198
346 199
347 200
348 200
349 201
350 201
351 201
352 202
353 202
354 202
355 202
356 203
355 204
354 205
355 206
356 207
357 207
358 207
359 207
360 208
360 209
359 210
358 211
359 211
360 212
361 212
362 213
363 214
362 215
363 216
362 217
361 217
360 218
360 219
359 220
358 219
358 218
357 217
357 216
357 215
357 214
356 213
355 212
354 212
353 212
352 211
352 210
351 209
350 209
349 208
348 207
347 206
346 205
346 204
345 203
344 203
343 204
342 203
341 202
341 201
340 201
339 202
339 203
338 204
338 205
337 206
337 207
336 208
335 209
334 210
333 209
333 208
334 207
334 206
335 205
335 204
335 203
336 202
336 201
336 200
336 199
336 198
335 197
335 196
334 196
334 197
333 198
333 199
332 200
332 201
331 202
331 203
330 204
330 205
329 206
328 205
328 204
328 203
329 202
329 201
329 200
329 199
330 198
330 197
329 196
329 195
329 194
328 193
327 193
326 194
326 195
326 196
325 197
325 198
325 199
324 200
323 201
322 200
322 199
322 198
323 197
323 196
323 195
323 194
322 193
322 192
322 191
321 190
320 190
319 190
318 189
317 188
317 187
316 188
316 189
315 190
315 191
315 192
314 193
314 194
313 195
312 194
312 193
312 192
312 191
313 190
313 189
313 188
312 187
312 186
311 185
310 186
309 187
309 188
309 189
308 190
308 191
307 192
307 193
307 194
306 195
305 194
305 193
305 192
305 191
305 190
306 189
306 188
306 187
306 186
306 185
305 184
304 183
303 182
303 183
302 184
302 185
302 186
302 187
301 188
301 189
300 190
299 189
299 188
299 187
299 186
299 185
299 184
299 183
299 182
299 181
298 180
297 179
296 180
296 181
296 182
295 183
294 183
293 182
293 181
293 180
293 179
292 178
291 178
290 178
289 179
288 178
287 177
286 176
285 177
284 177
283 176
282 176
281 175
280 174
279 173
278 172
277 172
276 173
275 174
274 173
274 172
274 171
274 170
274 169
273 170
272 171
271 172
270 173
269 173
268 172
268 171
269 170
269 169
270 168
270 167
270 166
270 165
269 165
268 166
267 167
266 168
265 169
264 170
263 169
263 168
264 167
264 166
265 165
265 164
265 163
265 162
264 162
263 162
262 163
261 162
261 161
262 160
262 159
261 158
261 157
260 158
259 159
258 160
257 161
256 162
255 161
255 160
256 159
256 158
256 157
257 156
257 155
256 154
255 153
254 154
253 155
253 156
252 157
252 158
251 159
250 160
249 159
249 158
250 157
250 156
250 155
251 154
251 153
251 152
251 151
250 150
250 149
249 149
248 149
248 150
247 151
247 152
247 153
246 154
246 155
245 156
244 155
244 154
244 153
245 152
245 151
245 150
245 149
245 148
244 147
243 146
242 146
241 145
241 146
241 147
241 148
240 149
240 150
240 151
240 152
239 153
239 154
238 155
238 156
237 157
236 156
235 155
236 154
237 153
237 152
237 151
237 150
237 149
236 148
236 147
235 146
234 145
233 145
232 145
231 145
230 146
231 147
231 148
231 149
232 150
232 151
233 152
232 153
231 154
230 155
229 155
228 154
227 154
226 154
225 155
225 156
225 157
225 158
226 159
227 160
226 161
225 161
225 162
226 163
227 164
228 164
229 165
230 166
229 167
229 168
230 168
231 169
232 169
233 169
234 169
235 169
236 168
237 168
238 168
239 167
240 167
241 168
240 169
239 170
238 171
237 171
236 172
235 172
234 173
234 174
235 175
236 175
237 175
238 175
239 175
240 176
239 177
238 177
238 178
239 179
240 179
241 179
242 179
243 179
244 178
245 178
246 179
245 180
244 181
243 181
243 182
243 183
244 184
245 184
246 184
247 185
246 186
245 186
244 187
243 187
242 187
241 188
240 189
240 190
241 191
242 192
243 192
244 192
245 192
246 192
247 192
248 193
247 194
247 195
248 196
249 196
250 196
251 196
252 197
252 198
252 199
253 199
254 200
255 200
256 200
257 199
258 199
259 200
260 201
261 202
261 203
262 203
263 204
264 204
265 205
266 206
266 207
267 207
268 208
268 209
269 210
270 210
271 210
272 210
273 210
274 210
275 210
276 210
277 211
276 212
275 213
274 214
274 215
274 216
275 216
276 216
277 217
278 217
279 218
278 219
278 220
279 221
280 221
281 221
282 222
281 223
282 224
283 225
284 225
285 225
286 225
287 225
288 226
287 227
286 228
286 229
287 230
288 230
289 230
290 230
291 231
291 232
290 233
291 234
292 234
293 234
294 234
295 234
296 235
295 236
295 237
295 238
296 238
297 238
298 239
298 240
299 240
300 241
301 241
302 242
301 243
300 244
299 245
299 246
298 247
298 248
298 249
297 250
296 249
296 248
296 247
296 246
297 245
297 244
296 243
296 242
296 241
295 240
294 241
294 242
293 243
292 242
292 241
292 240
292 239
292 238
292 237
291 236
290 236
289 237
289 238
289 239
288 240
288 241
287 242
286 241
286 240
286 239
286 238
287 237
287 236
287 235
287 234
286 233
286 232
285 231
284 231
283 231
282 230
282 229
281 228
280 228
280 229
279 230
278 229
278 228
277 227
277 226
276 225
275 226
274 226
273 225
273 224
273 223
272 222
271 222
271 223
270 224
270 225
269 226
268 225
268 224
268 223
268 222
268 221
267 220
267 219
266 219
265 219
265 220
264 221
264 222
264 223
263 224
262 223
262 222
262 221
262 220
262 219
262 218
262 217
262 216
261 215
260 215
259 216
258 215
257 214
257 213
256 213
255 214
255 215
254 216
253 215
253 214
253 213
253 212
253 211
252 210
251 209
250 210
249 210
248 209
248 208
247 208
246 208
246 209
245 210
245 211
244 212
243 211
243 210
243 209
243 208
243 207
243 206
242 205
241 206
240 207
240 208
239 209
238 208
238 207
238 206
238 205
238 204
237 203
236 204
235 205
235 206
234 207
234 208
233 209
232 210
232 211
231 212
230 213
229 212
229 211
229 210
230 209
230 208
230 207
231 206
231 205
231 204
231 203
231 202
231 201
231 200
230 199
229 200
228 199
228 198
227 197
226 197
226 198
225 199
224 200
224 201
223 202
222 203
221 202
221 201
222 200
222 199
222 198
222 197
221 196
221 195
220 195
219 196
219 197
218 198
218 199
217 200
217 201
216 202
216 203
215 204
214 205
213 204
213 203
214 202
214 201
214 200
214 199
214 198
215 197
215 196
215 195
215 194
215 193
215 192
214 191
213 190
213 191
212 192
211 193
210 192
210 191
210 190
209 189
208 189
207 190
207 191
206 192
206 193
205 194
205 195
205 196
204 197
203 196
203 195
203 194
203 193
203 192
203 191
204 190
203 189
203 188
203 187
202 187
201 186
200 187
200 188
200 189
199 190
199 191
199 192
198 193
197 192
197 191
197 190
197 189
197 188
196 187
196 186
195 185
194 185
193 185
193 186
193 187
193 188
193 189
193 190
192 191
191 190
191 189
191 188
191 187
190 186
190 185
190 184
189 183
188 183
187 183
187 184
187 185
187 186
187 187
186 188
186 189
186 190
186 191
186 192
185 193
184 192
184 191
184 190
184 189
184 188
183 187
183 186
183 185
182 184
182 183
181 182
180 182
179 182
178 182
178 183
178 184
178 185
178 186
179 187
179 188
179 189
179 190
179 191
179 192
179 193
178 194
177 193
177 192
177 191
177 190
177 189
176 188
176 187
175 186
174 185
173 184
172 183
171 183
170 183
169 183
168 184
168 185
168 186
169 187
170 188
171 189
172 190
173 191
173 192
172 193
171 193
171 194
170 195
169 195
168 195
167 195
166 196
165 196
164 197
164 198
164 199
165 199
166 200
167 200
168 200
169 201
169 202
169 203
170 204
171 205
172 205
173 205
174 206
174 207
175 208
176 208
177 208
178 208
179 207
180 207
181 206
182 205
183 205
184 206
183 207
182 208
181 209
180 210
180 211
180 212
181 212
182 212
183 212
184 211
185 211
186 210
187 209
188 208
189 207
190 206
191 207
191 208
190 209
189 210
188 211
187 212
187 213
186 214
186 215
187 215
188 215
189 215
190 215
191 214
192 213
193 214
193 215
192 216
191 217
191 218
192 218
193 218
194 218
195 218
196 217
197 216
198 215
199 214
200 213
201 212
202 211
203 212
203 213
202 214
202 215
201 216
201 217
200 218
200 219
199 220
199 221
199 222
200 222
201 222
202 221
203 222
203 223
203 224
204 224
205 224
206 224
207 225
208 226
209 226
210 226
211 225
212 225
213 226
213 227
213 228
213 229
214 229
215 229
216 230
217 230
218 231
219 231
220 230
221 230
222 230
223 231
222 232
222 233
222 234
223 234
224 234
225 234
226 235
226 236
227 237
228 237
229 237
230 237
231 236
232 236
233 237
233 238
233 239
234 240
235 240
236 240
237 241
238 241
239 241
240 241
241 242
241 243
242 243
243 243
244 243
245 243
246 243
247 242
248 242
249 241
250 240
251 239
252 239
253 238
254 237
254 236
255 235
256 234
257 234
258 234
259 235
260 236
261 237
261 238
261 239
260 240
260 241
259 242
258 243
257 244
256 245
255 246
255 247
254 248
253 249
252 250
252 251
252 252
252 253
252 254
252 255
252 256
252 257
251 258
251 259
251 260
251 261
250 262
249 261
249 260
249 259
249 258
249 257
249 256
249 255
249 254
248 253
248 252
247 251
246 250
245 251
245 252
245 253
245 254
245 255
245 256
245 257
245 258
245 259
244 260
243 261
242 260
242 259
242 258
242 257
242 256
242 255
242 254
241 253
241 252
241 251
240 250
239 249
238 248
237 249
236 250
235 249
234 248
233 247
232 247
232 248
232 249
232 250
232 251
231 252
230 251
230 250
230 249
229 248
228 247
227 246
226 246
226 247
226 248
226 249
225 250
224 249
224 248
223 247
222 246
221 245
220 246
220 247
220 248
220 249
220 250
220 251
219 252
218 251
218 250
217 249
217 248
216 247
215 246
214 245
213 245
212 246
211 246
210 246
209 246
208 245
207 244
206 243
205 243
205 244
205 245
204 246
203 246
202 246
201 245
201 244
201 243
200 242
200 241
199 241
198 241
197 241
196 240
196 239
195 238
194 238
193 239
193 240
193 241
193 242
193 243
192 244
191 243
191 242
191 241
190 240
190 239
190 238
190 237
189 236
188 236
187 236
186 237
185 236
185 235
184 234
183 234
182 235
182 236
181 237
180 236
180 235
180 234
179 233
179 232
178 232
177 232
177 233
177 234
176 235
175 235
174 234
174 233
174 232
174 231
173 230
172 229
171 230
171 231
171 232
170 233
169 232
169 231
169 230
168 229
167 228
166 228
166 229
166 230
165 231
165 232
165 233
165 234
164 235
163 234
163 233
163 232
163 231
163 230
162 229
162 228
161 227
160 228
160 229
160 230
160 231
159 232
159 233
159 234
159 235
158 236
157 235
157 234
157 233
157 232
157 231
157 230
157 229
156 228
156 227
155 226
154 226
154 227
154 228
153 229
152 228
152 227
151 226
150 227
150 228
150 229
150 230
149 231
149 232
149 233
149 234
148 235
148 236
147 237
146 236
146 235
146 234
147 233
147 232
147 231
147 230
147 229
147 228
147 227
147 226
146 225
145 224
144 223
144 224
143 225
143 226
143 227
142 228
141 227
141 226
141 225
141 224
140 223
139 222
138 222
138 223
138 224
138 225
138 226
137 227
137 228
137 229
137 230
137 231
137 232
136 233
135 232
135 231
135 230
135 229
135 228
134 227
134 226
134 225
134 224
133 223
133 222
132 221
131 221
130 221
129 221
129 222
128 223
127 222
127 221
126 220
125 220
124 220
123 220
123 221
123 222
124 223
124 224
124 225
124 226
123 227
122 226
122 225
121 224
121 223
120 222
119 221
118 221
117 221
116 221
116 222
117 223
117 224
117 225
118 226
118 227
118 228
119 229
119 230
119 231
119 232
118 233
117 232
117 231
116 230
116 229
115 228
115 227
114 226
113 225
112 225
111 224
110 224
109 224
108 224
107 225
106 226
107 227
108 228
109 229
110 229
111 230
112 231
113 232
113 233
112 234
111 235
110 235
109 236
108 236
107 237
106 238
106 239
107 240
108 240
109 240
110 240
111 240
112 240
113 240
114 241
113 242
112 243
112 244
113 245
114 245
115 244
116 244
117 244
118 245
117 246
118 247
119 247
120 247
121 247
122 246
123 246
124 247
124 248
123 249
124 250
125 250
126 250
127 250
128 251
129 251
130 251
131 251
132 250
133 250
134 251
133 252
134 252
135 253
136 252
137 252
138 253
138 254
139 254
140 254
141 253
142 253
143 252
144 251
145 250
146 249
147 248
148 249
148 250
147 251
147 252
147 253
146 254
146 255
145 256
145 257
146 257
147 257
148 256
149 255
150 255
151 256
150 257
150 258
149 259
148 259
147 259
146 259
146 260
145 261
144 261
143 260
142 260
141 260
140 260
139 261
138 261
137 261
137 262
137 263
137 264
138 265
138 266
137 267
136 266
135 265
134 265
133 264
132 264
131 264
130 264
129 264
129 265
130 266
130 267
131 268
132 269
131 270
130 270
129 269
128 269
127 268
126 268
125 269
124 269
123 270
122 270
122 271
123 272
124 272
125 273
126 274
127 274
128 275
129 275
130 276
130 277
129 278
128 278
127 279
126 280
125 280
124 281
123 281
122 282
122 283
122 284
123 284
124 285
125 285
126 285
127 285
128 285
129 284
130 283
131 283
131 282
132 281
133 280
134 281
134 282
133 283
133 284
132 285
131 286
131 287
130 288
131 288
132 289
133 288
134 288
135 288
136 287
137 286
138 285
139 286
139 287
139 288
139 289
139 290
140 290
141 290
142 289
143 288
143 287
144 286
144 285
145 284
145 283
145 282
145 281
145 280
146 279
147 280
147 281
147 282
147 283
147 284
147 285
147 286
147 287
147 288
147 289
148 289
149 289
150 289
150 288
151 287
151 286
151 285
152 284
152 283
152 282
153 281
154 282
154 283
154 284
154 285
154 286
154 287
154 288
155 289
156 289
157 288
158 287
159 288
160 288
161 287
162 286
162 285
162 284
163 283
164 284
164 285
165 286
165 287
166 286
167 286
168 285
169 285
170 286
171 286
172 285
173 284
173 283
174 282
174 281
175 280
176 281
176 282
176 283
176 284
177 285
178 284
179 283
180 284
181 284
182 283
183 282
184 281
185 280
186 281
186 282
186 283
187 283
188 283
189 282
190 281
190 280
191 279
192 280
192 281
193 282
194 281
195 280
196 279
197 280
197 281
198 281
199 280
200 279
200 278
201 277
202 278
203 279
203 280
203 281
202 282
201 283
202 284
201 285
200 285
199 284
198 284
197 284
197 285
197 286
197 287
196 288
195 287
194 287
193 286
192 286
191 286
191 287
190 288
191 289
191 290
190 291
189 290
188 289
187 289
186 289
185 289
184 289
184 290
184 291
183 292
182 292
181 292
180 292
181 293
181 294
180 295
179 295
178 294
177 294
176 294
175 294
175 295
175 296
176 297
176 298
177 299
177 300
176 301
175 300
174 299
173 299
172 298
171 297
170 297
169 297
168 297
168 298
168 299
169 300
170 301
170 302
169 303
168 303
167 302
166 301
165 300
164 300
163 300
162 300
161 301
162 302
161 303
160 303
159 303
158 303
158 304
157 305
156 305
155 305
154 304
153 305
152 306
151 306
150 306
150 307
150 308
150 309
150 310
151 311
151 312
152 313
152 314
153 315
153 316
154 317
154 318
153 319
152 318
151 317
151 316
150 315
149 314
148 313
147 312
146 311
145 311
144 311
143 311
143 312
143 313
144 314
144 315
145 316
146 317
147 318
147 319
146 320
145 319
144 318
143 317
142 316
141 315
140 315
139 314
138 314
138 315
138 316
139 317
139 318
138 319
137 318
136 317
135 317
134 317
133 317
133 318
133 319
134 320
134 321
135 322
136 323
136 324
135 325
134 324
133 323
132 322
131 321
130 321
129 321
128 321
127 321
128 322
128 323
129 324
130 325
130 326
129 327
128 326
127 326
126 325
125 325
124 324
123 324
122 324
121 325
122 326
123 327
124 328
125 329
126 330
125 331
124 331
123 330
122 329
121 328
120 328
119 328
118 327
117 327
116 328
116 329
117 330
118 331
119 331
120 332
121 333
122 334
121 335
120 335
119 334
118 333
117 333
116 333
115 332
114 332
113 332
112 332
111 333
110 334
111 334
112 335
111 336
110 336
109 336
108 337
107 337
106 338
106 339
107 339
108 339
109 339
110 340
111 340
112 341
113 341
114 342
115 342
116 343
115 344
114 344
113 344
112 343
111 343
110 343
109 343
108 343
107 343
106 344
105 345
104 346
104 347
105 348
105 349
106 348
107 348
108 347
109 347
110 346
111 347
111 348
111 349
110 350
110 351
109 352
109 353
109 354
109 355
110 355
111 355
112 355
113 354
114 353
115 352
115 351
115 350
116 349
117 350
117 351
117 352
117 353
117 354
118 355
119 355
120 355
120 354
121 353
121 352
122 351
123 352
124 353
125 353
126 353
126 352
127 351
127 350
127 349
127 348
127 347
128 346
129 347
129 348
129 349
130 350
130 351
131 351
132 350
133 349
133 348
134 347
135 348
136 349
137 350
138 349
139 348
140 347
141 348
142 348
143 347
143 346
144 345
145 346
146 346
147 345
148 344
148 343
149 342
150 343
151 344
152 343
153 342
153 341
153 340
153 339
153 338
153 337
154 336
155 337
155 338
155 339
156 340
156 341
157 342
158 342
159 341
159 340
160 339
161 339
162 340
163 339
164 338
164 337
165 336
166 337
167 337
168 336
169 335
169 334
169 333
169 332
169 331
169 330
169 329
170 328
171 329
171 330
171 331
172 332
172 333
173 334
174 334
175 333
175 332
176 331
176 330
176 329
176 328
175 327
175 326
175 325
175 324
176 323
177 324
177 325
178 326
178 327
179 328
179 329
180 330
181 331
182 331
182 330
183 329
184 328
185 329
186 328
186 327
187 326
187 325
187 324
187 323
187 322
186 321
186 320
186 319
187 318
188 319
188 320
189 321
189 322
190 323
190 324
191 325
192 326
193 325
194 324
194 323
195 322
196 323
197 323
198 322
199 321
199 320
200 319
201 320
202 321
203 320
204 319
204 318
205 317
206 318
207 319
208 319
209 320
208 321
207 321
206 321
205 321
205 322
205 323
206 324
207 325
208 325
209 326
208 327
207 327
206 327
205 326
204 326
203 326
202 326
201 326
200 327
200 328
201 329
200 330
199 330
198 330
197 330
196 331
196 332
197 333
198 334
199 335
198 336
197 336
196 335
195 335
194 335
193 335
192 335
191 336
190 336
191 337
191 338
190 339
189 339
188 339
188 340
188 341
189 342
188 343
187 343
186 343
185 343
184 343
184 344
185 345
186 346
187 347
188 348
189 348
190 349
189 350
188 350
187 350
186 349
185 349
184 348
183 348
182 348
181 348
180 348
179 349
179 350
180 351
179 352
178 352
177 352
176 352
175 353
174 353
174 354
175 355
176 355
177 356
178 357
177 358
176 358
175 358
174 358
173 358
172 358
171 358
170 358
169 359
169 360
170 361
169 362
168 363
167 363
166 363
166 364
166 365
167 366
166 367
165 367
164 368
163 368
163 369
163 370
164 370
165 371
166 371
167 371
168 372
169 372
170 372
171 373
172 373
173 374
174 375
175 375
176 376
175 377
174 378
173 377
172 376
171 376
170 375
169 375
168 375
167 375
166 375
165 374
164 374
163 374
162 375
161 375
160 376
159 377
159 378
159 379
160 379
161 379
162 379
163 379
164 379
165 379
166 379
167 379
168 379
169 379
170 380
171 381
170 382
169 382
168 381
167 381
166 381
165 381
164 381
163 381
162 381
161 381
160 382
159 382
158 383
157 384
157 385
157 386
157 387
158 387
159 387
160 387
161 387
162 386
163 386
164 386
165 385
166 385
167 384
168 385
168 386
167 387
167 388
167 389
166 390
166 391
165 392
165 393
166 394
166 395
167 395
168 395
169 394
170 393
171 393
171 392
172 391
172 390
172 389
172 388
172 387
172 386
172 385
173 384
174 385
174 386
174 387
174 388
174 389
174 390
174 391
174 392
175 393
176 394
177 393
178 392
178 391
179 390
179 389
180 388
181 389
181 390
182 391
183 390
184 389
184 388
185 387
185 386
185 385
186 384
187 385
187 386
188 386
189 385
190 384
190 383
191 382
192 382
193 381
194 380
194 379
194 378
195 377
196 377
197 378
198 378
198 377
199 376
199 375
199 374
199 373
200 372
201 373
202 374
203 373
204 372
204 371
204 370
204 369
205 368
206 369
207 370
208 369
208 368
209 367
209 366
209 365
208 364
208 363
209 362
210 363
211 364
211 365
212 366
213 366
213 365
214 364
214 363
214 362
214 361
214 360
214 359
215 358
216 359
216 360
217 361
218 361
219 360
219 359
219 358
219 357
220 356
221 357
222 357
223 356
223 355
223 354
223 353
223 352
224 351
225 352
225 353
226 354
227 355
228 355
229 356
230 356
231 356
232 357
233 357
234 358
233 359
232 359
231 359
230 358
229 358
228 358
227 358
226 358
225 358
224 358
223 359
222 360
223 361
224 361
225 362
224 363
223 363
222 363
221 364
220 365
220 366
219 367
218 368
217 369
217 370
218 370
219 371
220 371
221 372
220 373
219 373
218 373
217 373
216 373
215 374
214 374
213 375
213 376
214 376
215 377
216 377
217 378
216 379
215 379
214 379
213 379
212 380
211 380
210 381
210 382
211 383
212 383
213 383
214 383
215 384
214 385
213 385
212 386
211 386
210 387
209 387
209 388
208 389
208 390
209 391
210 391
211 391
212 391
213 390
214 390
215 390
216 390
217 390
218 391
219 390
220 391
221 392
220 393
219 393
218 393
217 393
216 392
215 392
214 392
213 393
212 393
211 393
210 394
209 395
208 395
207 396
207 397
207 398
207 399
208 400
209 400
210 400
211 400
212 399
213 398
214 398
215 397
216 396
217 396
218 395
219 396
219 397
219 398
219 399
218 400
218 401
218 402
218 403
218 404
218 405
219 406
220 406
221 405
222 405
223 404
223 403
224 402
224 401
224 400
225 399
226 400
226 401
226 402
226 403
227 404
228 404
229 404
230 403
230 402
230 401
231 400
231 399
232 398
233 399
234 400
235 399
235 398
236 397
236 396
236 395
236 394
237 393
238 394
239 395
240 394
240 393
241 392
241 391
240 390
241 389
242 389
243 390
243 389
244 388
244 387
244 386
244 385
244 384
243 383
243 382
244 381
245 382
246 383
247 384
248 384
248 383
249 382
249 381
250 380
251 379
251 378
251 377
251 376
251 375
250 374
250 373
250 372
251 371
252 372
253 373
254 374
255 374
256 373
256 372
256 371
256 370
257 369
258 369
259 369
259 368
259 367
259 366
259 365
258 364
258 363
257 362
258 361
259 361
260 362
261 363
261 364
262 364
263 364
264 363
265 362
266 363
267 364
268 364
269 364
270 365
271 365
272 366
271 367
270 367
269 367
268 367
267 367
266 366
265 366
264 366
263 367
262 367
261 368
262 369
263 370
264 370
265 370
266 371
265 372
264 372
263 372
262 372
261 372
260 373
259 373
259 374
259 375
260 375
261 376
262 376
263 376
264 377
263 378
262 378
261 378
260 378
259 378
258 378
257 378
256 379
255 380
256 381
257 381
258 381
259 381
260 382
261 382
262 382
263 383
262 384
261 384
260 384
259 384
258 384
257 384
256 385
255 385
254 385
253 385
253 386
252 387
253 388
254 388
255 388
256 388
257 388
258 388
259 388
260 388
261 389
262 389
263 389
264 389
265 390
266 390
267 390
268 391
268 392
267 393
266 393
265 392
264 392
263 392
262 392
261 392
260 392
259 392
258 392
257 392
256 393
255 393
254 394
253 394
252 395
251 395
251 396
251 397
251 398
252 399
253 400
252 401
251 402
250 403
251 404
251 405
252 406
253 406
254 406
255 405
256 405
257 404
258 403
259 403
260 402
261 402
262 401
263 402
263 403
263 404
263 405
263 406
263 407
263 408
263 409
263 410
264 411
265 412
266 412
267 412
267 411
268 410
268 409
268 408
268 407
269 406
268 405
268 404
268 403
269 402
270 403
270 404
271 405
271 406
271 407
272 408
273 409
274 408
275 407
275 406
275 405
275 404
275 403
276 402
277 403
278 403
279 403
280 402
280 401
280 400
280 399
279 398
279 397
280 396
281 397
282 398
283 398
283 397
284 396
284 395
284 394
283 393
283 392
282 391
282 390
283 389
284 390
285 391
286 392
287 392
288 392
288 391
288 390
288 389
289 388
290 388
291 387
291 386
291 385
292 384
293 383
293 382
293 381
293 380
293 379
293 378
292 377
292 376
293 375
294 376
295 377
295 378
296 379
297 379
297 378
298 377
298 376
298 375
297 374
297 373
297 372
296 371
296 370
295 369
294 368
294 367
295 366
296 367
297 368
298 369
298 370
299 371
300 372
301 372
302 372
302 371
303 370
302 369
302 368
301 367
301 366
300 365
300 364
301 363
302 364
303 365
304 366
305 367
306 367
306 366
306 365
306 364
306 363
306 362
305 361
306 360
307 360
308 361
309 361
310 360
310 359
309 358
309 357
310 356
311 356
312 357
313 356
313 355
313 354
313 353
312 352
313 351
314 351
315 352
315 351
316 350
316 349
315 348
315 347
314 346
314 345
315 344
316 345
317 345
318 346
318 345
319 344
319 343
320 342
320 341
321 340
321 339
321 338
320 337
320 336
319 335
319 334
318 333
317 332
317 331
318 330
319 331
320 332
321 332
322 333
323 334
324 334
325 335
325 334
326 333
326 332
325 331
326 330
327 330
328 330
328 329
328 328
328 327
328 326
327 325
327 324
326 323
325 322
325 321
326 320
327 321
328 322
329 322
330 323
331 323
332 324
332 323
333 322
333 321
334 320
334 319
334 318
334 317
333 316
333 315
334 314
335 315
336 315
337 315
337 314
337 313
337 312
337 311
336 310
336 309
337 308
338 309
339 309
340 309
341 308
341 307
342 306
343 305
343 304
343 303
343 302
343 301
342 300
342 299
341 298
341 297
342 296
343 297
344 298
344 299
345 299
346 300
347 299
347 298
347 297
347 296
347 295
346 294
345 293
345 292
344 291
343 290
343 289
344 288
345 289
346 290
347 291
348 292
349 293
349 294
350 294
351 293
352 294
352 295
351 296
350 296
349 297
349 298
349 299
350 299
351 300
352 300
353 300
354 301
355 301
356 301
357 301
358 302
359 302
360 303
361 303
362 304
361 305
360 305
359 305
358 305
357 305
356 305
355 305
354 305
353 305
352 305
351 305
350 305
349 305
348 306
347 306
346 306
346 307
345 308
345 309
346 309
347 310
348 310
349 311
348 312
347 312
346 312
345 313
344 314
343 314
343 315
343 316
343 317
343 318
343 319
344 320
344 321
343 322
342 322
341 322
340 323
339 324
339 325
340 325
341 326
342 326
343 326
344 326
345 326
346 327
345 328
344 328
343 328
342 328
341 328
340 329
339 329
338 330
338 331
339 332
340 332
341 332
342 332
343 333
343 334
342 335
341 335
340 336
339 336
338 336
337 337
336 338
335 339
334 340
333 341
333 342
333 343
333 344
332 345
331 346
331 347
331 348
330 349
330 350
329 351
328 352
329 353
330 354
331 355
330 356
329 357
328 358
327 358
326 358
325 358
324 359
323 359
322 360
323 361
324 362
323 363
322 363
321 364
320 364
319 365
320 366
321 367
322 367
323 367
324 368
325 368
326 369
325 370
324 370
323 370
322 370
321 370
320 370
319 370
318 370
317 370
316 371
315 372
316 372
317 373
318 373
319 373
320 374
321 374
322 374
323 375
324 376
323 377
322 377
321 377
320 377
319 377
318 377
317 377
316 378
315 378
314 378
313 379
312 380
312 381
312 382
312 383
311 384
310 385
310 386
310 387
311 388
312 388
313 388
314 388
315 387
316 387
317 387
318 387
319 387
320 387
321 387
322 388
323 389
322 390
321 390
320 389
319 389
318 389
317 389
316 389
315 390
314 390
313 390
312 391
311 392
310 393
310 394
310 395
310 396
311 397
312 397
313 397
314 396
315 396
316 395
317 394
318 394
319 394
320 395
321 396
320 397
320 398
320 399
320 400
319 401
319 402
319 403
320 404
321 404
322 405
323 406
322 407
321 407
321 408
320 409
320 410
320 411
321 412
322 412
323 411
324 411
325 411
326 410
327 410
328 410
329 410
330 410
331 409
332 409
333 409
334 410
334 411
333 412
332 412
331 412
330 412
329 412
328 412
327 412
326 413
325 413
324 414
323 415
322 415
321 416
321 417
321 418
321 419
321 420
322 421
323 421
324 421
325 420
326 420
327 419
328 418
329 417
330 416
331 416
332 415
333 416
333 417
334 418
334 419
334 420
334 421
334 422
334 423
334 424
334 425
335 426
336 427
337 426
338 426
339 425
339 424
339 423
339 422
339 421
339 420
339 419
339 418
339 417
338 416
338 415
337 414
336 413
335 413
334 412
334 411
335 410
336 411
337 411
338 412
339 413
340 414
340 415
341 416
342 417
342 418
343 419
344 420
345 419
346 418
346 417
346 416
346 415
345 414
345 413
344 412
343 411
343 410
342 409
343 408
344 408
345 409
346 410
347 411
348 411
349 411
350 411
350 410
350 409
350 408
349 407
349 406
348 405
347 404
346 403
345 403
344 402
345 401
346 401
347 401
348 402
349 403
350 403
351 404
352 404
353 404
353 403
353 402
353 401
352 400
352 399
353 398
354 399
355 399
355 398
355 397
355 396
354 395
354 394
353 393
354 392
355 392
356 392
357 392
357 391
357 390
356 389
356 388
355 387
354 386
353 385
354 384
355 384
356 385
357 385
358 385
359 385
359 384
359 383
358 382
358 381
357 380
358 379
359 379
360 379
361 379
361 378
361 377
360 376
360 375
361 374
362 374
362 373
362 372
362 371
361 370
361 369
362 368
363 369
364 369
364 368
364 367
365 366
366 365
366 364
366 363
367 362
368 361
369 360
369 359
369 358
370 357
371 358
372 358
372 357
373 356
373 355
373 354
373 353
373 352
372 351
372 350
372 349
371 348
371 347
372 346
373 347
374 348
375 349
376 350
376 351
377 351
378 352
379 351
379 350
379 349
379 348
379 347
380 346
381 347
382 347
383 347
383 346
384 345
385 344
386 344
386 343
387 342
387 341
387 340
387 339
388 338
389 339
390 339
391 339
391 338
392 337
392 336
392 335
393 334
394 335
395 335
395 334
396 333
396 332
396 331
397 330
398 331
399 331
399 330
400 329
400 328
400 327
400 326
400 325
400 324
401 323
402 324
402 325
403 325
404 326
404 327
404 328
405 329
406 329
407 330
408 330
409 330
410 330
411 331
412 332
411 333
410 333
409 333
408 333
407 333
406 333
405 333
404 333
403 333
402 333
401 334
400 335
400 336
400 337
399 338
398 339
398 340
398 341
398 342
399 343
398 344
397 344
396 344
395 345
394 346
394 347
395 348
394 349
393 350
392 350
392 351
393 352
394 352
395 352
396 352
397 353
398 353
399 353
400 353
401 353
402 353
403 354
402 355
401 355
400 355
399 355
398 355
397 355
396 355
395 355
394 355
393 355
392 355
391 356
390 356
389 357
389 358
389 359
390 359
391 359
392 360
391 361
390 361
389 361
388 362
387 362
387 363
386 364
387 365
388 365
389 365
390 365
391 365
392 365
393 365
394 365
395 365
396 365
397 366
396 367
395 367
394 367
393 367
392 367
391 367
390 367
389 367
388 368
387 368
386 368
385 369
384 370
384 371
385 372
386 372
387 373
386 374
385 374
384 374
383 375
382 376
382 377
382 378
383 378
384 378
385 378
386 378
387 379
386 380
385 380
384 381
383 381
382 381
381 382
380 383
379 384
379 385
379 386
380 387
380 388
379 389
379 390
378 391
379 392
380 393
381 393
382 392
383 392
384 392
385 392
386 391
387 391
388 391
389 391
390 391
391 391
392 391
393 392
393 393
392 394
391 394
390 393
389 394
388 394
387 394
386 394
385 395
384 395
383 396
382 397
381 398
380 399
380 400
380 401
380 402
380 403
381 404
382 404
383 404
384 403
385 402
386 401
387 400
388 399
389 398
390 398
391 398
392 399
392 400
392 401
392 402
392 403
391 404
391 405
391 406
391 407
392 408
393 409
394 409
395 408
396 408
396 407
397 406
397 405
397 404
397 403
397 402
397 401
397 400
397 399
398 398
399 399
399 400
399 401
400 402
401 403
402 403
403 402
404 401
404 400
404 399
403 398
403 397
403 396
402 395
402 394
401 393
401 392
402 391
403 392
404 393
404 394
405 395
406 396
407 397
408 396
408 395
409 394
409 393
408 392
408 391
407 390
407 389
406 388
406 387
407 386
408 387
409 388
410 389
411 390
412 390
413 389
413 388
413 387
413 386
412 385
412 384
413 383
414 383
415 384
416 384
416 383
416 382
416 381
416 380
415 379
415 378
414 377
413 376
413 375
412 374
411 373
412 372
413 372
414 373
415 374
416 374
417 375
418 376
419 376
420 377
421 376
421 375
421 374
420 373
420 372
421 371
422 371
423 372
423 371
423 370
423 369
423 368
423 367
424 366
425 367
425 366
425 365
425 364
425 363
425 362
425 361
424 360
424 359
425 358
426 359
427 359
428 360
429 360
429 359
429 358
429 357
429 356
430 355
431 355
432 354
432 353
432 352
431 351
432 350
433 350
434 350
434 349
435 348
434 347
434 346
434 345
433 344
432 343
433 342
434 342
435 343
436 344
437 344
438 345
438 344
439 343
439 342
438 341
438 340
439 339
440 340
441 340
442 340
443 341
442 342
441 343
442 344
443 344
444 344
445 344
446 344
447 345
448 345
449 345
450 345
451 345
452 345
453 345
454 345
455 345
456 346
457 346
458 346
459 346
460 347
459 348
458 349
457 348
456 348
455 348
454 348
453 348
452 348
451 348
450 348
449 348
448 348
447 349
446 349
445 349
444 350
443 350
442 350
441 351
440 352
439 352
439 353
438 354
438 355
437 356
437 357
436 358
437 359
437 360
436 361
435 362
434 363
434 364
435 364
436 364
437 365
436 366
435 367
434 367
434 368
433 369
433 370
434 370
435 370
436 370
437 370
438 370
439 370
440 371
439 372
438 372
437 372
436 372
435 373
434 373
433 374
432 375
432 376
433 377
434 377
435 377
436 377
437 377
438 377
439 377
440 378
439 379
438 379
437 379
436 380
435 380
434 380
433 381
433 382
432 383
432 384
432 385
433 386
434 386
435 385
436 385
437 385
438 386
437 387
436 388
435 389
434 390
434 391
434 392
434 393
435 394
436 395
437 395
438 395
439 394
440 393
440 392
441 391
442 390
443 389
444 389
445 390
445 391
445 392
444 393
444 394
444 395
444 396
444 397
444 398
444 399
445 399
446 399
447 399
448 398
449 397
449 396
449 395
450 394
450 393
450 392
450 391
449 390
449 389
449 388
448 387
447 387
446 386
446 385
447 384
448 383
449 384
450 385
450 386
451 387
452 388
452 389
453 390
453 391
454 392
455 393
456 393
457 392
458 391
458 390
458 389
458 388
457 387
457 386
458 385
459 386
460 387
461 387
461 386
462 385
462 384
462 383
461 382
461 381
460 380
460 379
461 378
462 379
463 380
464 380
465 379
465 378
465 377
465 376
464 375
464 374
465 373
466 373
467 373
468 373
468 372
468 371
468 370
468 369
469 368
470 368
471 368
471 367
471 366
471 365
471 364
472 363
473 363
473 362
473 361
473 360
473 359
474 358
475 359
475 358
476 357
477 358
477 359
477 360
478 360
479 360
480 360
481 361
481 362
480 363
479 364
478 364
477 365
477 366
476 367
476 368
477 369
477 370
478 370
479 369
480 369
481 368
482 368
483 368
484 369
483 370
482 370
482 371
481 372
480 373
480 374
479 375
479 376
479 377
479 378
479 379
480 380
481 381
482 381
483 380
484 380
484 379
485 378
485 377
486 376
486 375
487 374
488 373
489 373
490 373
491 374
491 375
492 376
492 377
492 378
492 379
492 380
492 381
493 382
493 383
494 383
495 383
496 383
497 382
497 381
498 380
498 379
498 378
498 377
498 376
497 375
497 374
497 373
496 372
495 371
495 370
494 369
493 369
492 368
491 367
492 366
493 366
494 367
495 367
496 368
497 369
498 370
499 371
500 372
500 373
501 374
502 375
503 375
504 375
505 374
505 373
505 372
505 371
506 370
507 370
508 369
508 368
508 367
508 366
508 365
507 364
507 363
508 362
509 363
510 363
511 363
512 362
512 361
512 360
513 359
513 358
514 357
514 356
514 355
514 354
515 353
516 353
517 353
517 352
517 351
517 350
517 349
518 348
519 348
519 347
519 346
519 345
519 344
519 343
520 342
521 342
522 342
522 341
522 340
522 339
522 338
521 337
521 336
520 335
520 334
519 333
518 332
517 331
516 330
515 329
516 328
517 328
518 329
519 330
520 330
521 331
522 332
523 332
524 333
525 333
526 334
527 333
527 332
527 331
527 330
527 329
528 328
529 329
530 330
531 330
532 330
533 331
533 332
532 333
531 333
530 334
529 335
528 336
527 337
527 338
527 339
527 340
527 341
526 342
527 343
528 343
529 343
530 343
531 343
532 343
533 343
534 344
533 345
532 345
531 346
530 346
529 347
529 348
528 349
527 350
527 351
528 352
528 353
529 353
530 353
531 353
532 353
533 352
534 351
535 350
536 349
537 349
538 348
539 349
540 350
539 351
539 352
539 353
538 354
538 355
537 356
537 357
537 358
537 359
538 359
539 360
540 360
541 360
542 359
542 358
543 357
543 356
544 355
544 354
544 353
544 352
544 351
544 350
544 349
544 348
544 347
543 346
542 346
541 345
542 344
543 343
544 344
545 345
546 346
546 347
547 348
547 349
547 350
548 351
548 352
548 353
549 354
549 355
550 356
551 356
552 355
553 354
553 353
553 352
553 351
553 350
553 349
554 348
555 349
555 350
556 350
557 350
557 349
558 348
558 347
558 346
558 345
558 344
557 343
557 342
558 341
559 342
560 343
561 343
562 342
562 341
562 340
562 339
562 338
562 337
563 336
564 336
565 336
565 335
565 334
565 333
565 332
565 331
564 330
564 329
563 328
563 327
564 326
565 327
566 328
567 329
568 329
569 329
569 328
569 327
569 326
569 325
568 324
567 323
567 322
568 321
569 321
570 322
571 322
572 322
572 321
572 320
572 319
572 318
571 317
572 316
573 316
574 317
574 316
574 315
574 314
574 313
574 312
573 311
572 310
571 309
570 308
569 307
568 306
567 305
566 304
565 304
564 303
563 303
562 302
561 302
560 301
560 300
560 299
560 298
561 297
561 296
562 295
563 295
564 296
565 296
566 297
567 297
568 298
569 298
570 299
571 300
572 301
573 301
574 302
575 303
576 304
577 304
578 305
579 305
579 304
579 303
579 302
580 301
580 300
581 299
581 298
580 297
580 296
580 295
579 294
580 293
581 293
582 294
583 294
583 293
583 292
583 291
583 290
583 289
582 288
581 287
581 286
582 285
583 285
584 286
585 286
585 285
585 284
585 283
585 282
584 281
585 280
585 279
585 278
585 277
584 276
584 275
583 274
582 273
581 272
580 271
581 270
582 270
583 270
584 271
585 271
585 270
585 269
584 268
583 267
582 267
581 266
580 266
579 266
578 266
577 266
576 266
575 266
574 266
573 265
574 264
574 263
574 262
575 261
576 261
577 261
578 261
579 261
580 261
581 261
582 261
583 261
584 261
585 261
586 261
587 261
588 261
589 261
590 261
591 261
592 261
593 262
594 262
595 262
596 262
597 262
598 262
599 262
600 262
601 262
602 262
603 262
604 262
605 262
606 262
607 263
608 263
609 263
610 263
611 263
612 263
613 263
614 264
615 264
616 264
617 264
618 264
619 264
620 264
621 264
622 264
623 264
624 264
625 265
626 265
627 265
628 265
629 265
630 265
631 265
632 265
633 266
634 266
635 266
636 266
637 266
638 266
639 266
640 266
641 267
642 267
643 267
644 267
645 267
646 267
647 268
648 268
649 268
650 268
651 268
652 268
653 268
654 269
655 269
656 269
657 269
658 269
659 269
660 269
661 270
662 270
663 270
664 270
665 270
666 270
667 271
668 271
669 271
670 271
671 271
672 271
673 272
674 272
675 272
676 272
677 272
678 272
679 273
680 273
681 273
682 273
683 273
684 274
685 274
686 274
687 274
688 274
689 275
690 275
691 275
692 275
693 275
694 276
695 276
696 276
697 276
698 276
699 277
700 277
701 277
702 277
703 278
704 278
705 278
706 278
707 278
708 278
709 279
710 279
711 279
712 279
713 279
714 280
715 280
716 280
717 280
718 280
719 281
720 281
721 281
722 281
723 281
724 282
725 282
726 282
727 282
728 283
729 283
730 283
731 283
732 283
733 284
734 284
735 284
736 284
737 285
738 285
739 285
740 285
741 286
742 286
743 286
744 287
745 287
746 287
747 287
748 287
749 288
750 288
751 288
752 288
753 288
754 289
755 289
756 289
757 290
758 290
759 291
760 291
761 292
762 292
763 293
764 293
765 294
766 294
767 294
768 294
769 294
770 294
771 294
772 293
773 292
773 291
773 290
772 289
772 288
772 287
772 286
771 286
770 286
769 286
768 285
767 285
766 285
765 285
764 285
763 285
762 285
761 285
760 285
759 285
758 285
757 285
756 285
755 285
754 284
753 284
752 284
751 284
750 284
749 283
748 283
747 283
746 283
745 283
744 282
743 282
742 282
741 282
740 282
739 281
738 281
737 281
736 281
735 280
734 280
733 280
732 280
731 280
730 279
729 279
728 279
727 279
726 279
725 278
724 278
723 278
722 278
721 278
720 277
719 277
718 277
717 277
716 277
715 276
714 276
713 276
712 276
711 276
710 275
709 275
708 275
707 275
706 275
705 274
704 274
703 274
702 274
701 274
700 274
699 273
698 273
697 273
696 273
695 273
694 272
693 272
692 272
691 272
690 272
689 272
688 271
687 271
686 271
685 271
684 271
683 270
682 270
681 270
680 270
679 270
678 270
677 269
676 269
675 269
674 269
673 269
672 268
671 268
670 268
669 268
668 268
667 268
666 267
665 267
664 267
663 267
662 267
661 267
660 266
659 266
658 266
657 266
656 266
655 266
654 265
653 265
652 265
651 265
650 265
649 265
648 265
647 265
646 264
645 264
644 264
643 264
642 264
641 264
640 264
639 263
638 263
637 263
636 263
635 263
634 263
633 263
632 263
631 262
630 262
629 262
628 262
627 262
626 262
625 262
624 261
623 261
622 261
621 261
620 261
619 261
618 261
617 261
616 261
615 261
614 261
613 261
612 261
611 261
610 260
609 260
608 260
607 260
606 260
605 260
604 260
603 259
602 259
601 259
600 259
599 259
598 259
597 259
596 259
595 259
594 259
593 259
592 259
591 259
590 259
589 258
588 258
587 258
586 258
585 258
584 258
583 258
582 258
581 258
580 258
579 258
578 257
577 257
576 257
575 256
574 255
574 254
574 253
574 252
574 251
574 250
574 249
574 248
575 247
576 248
577 248
578 248
579 248
580 248
581 248
582 247
583 247
584 247
585 246
586 245
587 244
588 243
588 242
589 241
589 240
588 240
587 241
586 241
585 241
584 242
583 242
582 243
581 243
580 243
579 244
578 244
577 244
576 244
575 244
574 244
573 243
573 242
573 241
573 240
573 239
573 238
574 237
575 238
576 238
577 237
578 237
579 237
580 236
581 236
582 235
583 234
584 234
585 233
586 232
587 231
588 230
588 229
589 228
589 227
589 226
589 225
588 225
587 224
588 223
588 222
589 221
589 220
589 219
589 218
588 218
587 218
586 217
587 216
587 215
588 214
588 213
588 212
587 212
586 212
585 213
584 213
583 212
584 211
585 210
585 209
586 208
586 207
586 206
585 207
584 207
583 208
582 208
581 208
580 208
579 209
578 209
577 209
576 209
575 208
576 207
577 207
578 206
579 206
580 205
581 204
582 204
583 203
583 202
584 201
584 200
584 199
584 198
583 198
582 199
581 199
580 200
579 200
578 201
577 201
576 202
575 202
574 203
573 203
572 203
571 203
570 203
569 204
568 203
568 202
568 201
568 200
567 199
568 198
569 197
570 197
571 197
572 196
573 196
574 196
575 196
576 195
577 195
578 194
579 194
580 194
581 193
582 192
583 191
583 190
583 189
582 189
581 190
580 190
579 190
578 190
577 190
576 191
575 191
574 191
573 191
572 191
571 192
570 192
569 192
568 192
567 192
566 191
566 190
566 189
566 188
566 187
566 186
565 185
565 184
565 183
565 182
565 181
565 180
564 179
564 178
564 177
564 176
564 175
564 176
564 177
564 178
564 179
564 180
564 181
565 182
565 183
565 184
565 185
564 186
563 186
562 186
561 186
560 186
559 186
558 186
557 186
556 186
555 186
554 185
553 185
552 185
551 185
550 184
549 184
548 184
547 185
547 186
548 187
548 188
549 189
549 190
548 191
548 192
548 193
548 194
549 195
550 196
549 197
548 198
548 199
549 200
549 201
550 202
550 203
549 204
549 205
549 206
549 207
550 207
551 208
552 208
553 208
554 209
555 209
556 209
557 209
558 209
559 209
560 210
559 211
558 211
557 211
556 211
555 211
554 211
553 211
552 211
551 212
550 212
550 213
550 214
551 215
551 216
550 217
549 218
550 219
550 220
551 221
551 222
551 223
552 224
553 224
554 225
555 226
556 226
557 226
558 226
559 227
560 227
561 227
562 227
563 228
562 229
561 229
560 230
559 230
558 230
557 230
556 230
555 230
554 231
553 231
552 232
552 233
552 234
552 235
553 236
554 236
555 237
556 237
557 238
558 238
559 238
560 238
561 239
562 239
563 239
564 239
565 239
566 239
567 239
568 239
569 239
570 239
571 240
571 241
571 242
571 243
571 244
570 245
569 246
568 246
567 246
566 246
565 247
564 247
563 247
562 247
561 247
560 247
559 247
558 247
557 247
556 247
555 247
555 248
555 249
555 250
556 250
557 251
558 251
559 252
560 252
561 253
561 254
560 255
559 256
558 256
557 256
556 256
555 256
554 256
553 256
552 256
551 256
550 256
549 256
548 256
547 256
546 256
545 256
544 256
543 256
542 256
541 256
540 256
539 256
538 255
537 255
536 254
536 253
536 252
536 251
537 250
538 250
539 251
540 251
541 251
542 251
543 250
544 250
545 250
546 249
547 248
547 247
546 247
545 247
544 247
543 247
542 247
541 247
540 247
539 247
538 246
539 245
540 245
541 244
542 243
543 243
544 242
545 241
546 240
546 239
547 238
547 237
547 236
547 235
548 234
548 233
548 232
548 231
547 232
546 232
545 232
544 233
543 232
543 231
544 230
545 229
545 228
546 227
546 226
545 225
544 225
543 226
542 226
541 225
542 224
543 223
543 222
543 221
544 220
543 219
542 219
541 218
542 217
542 216
543 215
543 214
542 213
541 214
540 214
539 214
538 213
539 212
540 211
540 210
541 209
541 208
541 207
540 207
539 207
538 208
537 208
536 209
535 209
534 208
535 207
536 206
537 205
538 204
538 203
538 202
538 201
537 200
537 199
537 198
537 197
537 196
536 197
535 197
534 197
533 197
532 198
531 198
530 197
531 196
532 195
533 194
534 193
534 192
534 191
534 190
534 189
533 189
532 188
532 187
532 186
532 185
531 184
530 185
529 185
528 186
527 187
526 187
525 188
524 188
523 189
522 189
521 190
520 190
519 190
518 190
517 191
516 191
515 190
514 189
514 188
513 187
513 186
513 185
514 184
515 184
516 183
517 183
518 182
519 182
520 181
521 180
522 180
523 179
524 178
525 178
526 177
526 176
527 175
527 174
527 173
526 172
525 173
524 174
523 174
522 173
523 172
523 171
523 170
524 169
524 168
523 168
522 169
521 169
520 170
519 170
518 171
517 171
516 172
515 172
514 172
513 172
512 173
511 173
510 174
509 174
508 173
507 172
507 171
506 170
506 169
506 168
505 167
505 166
504 165
504 164
504 163
503 162
503 161
502 160
502 159
501 158
501 157
501 156
500 155
500 154
499 153
499 152
499 153
500 154
500 155
501 156
501 157
501 158
502 159
502 160
502 161
503 162
503 163
503 164
504 165
504 166
504 167
505 168
504 169
503 169
502 170
501 170
500 171
499 171
498 171
497 172
496 172
495 172
494 172
493 173
492 173
491 173
490 174
489 174
489 175
489 176
490 177
490 178
490 179
490 180
490 181
489 182
488 183
487 182
487 181
488 180
488 179
488 178
487 178
486 179
485 179
484 180
483 180
482 181
481 180
481 179
482 178
483 178
484 177
484 176
485 175
485 174
485 173
485 172
484 172
483 173
482 173
481 174
480 175
479 175
478 176
477 176
476 177
475 178
474 178
473 179
472 179
471 179
470 180
469 179
468 178
468 177
467 176
467 175
467 174
468 173
469 173
470 173
471 173
472 172
473 172
474 171
475 171
476 170
477 169
478 169
478 168
478 167
479 166
480 165
479 165
478 165
477 166
476 166
475 166
474 167
473 167
472 167
471 168
470 168
469 168
468 168
467 169
466 169
465 169
464 168
464 167
463 166
463 165
463 164
462 163
462 162
461 161
461 160
460 159
460 158
460 157
459 156
459 155
458 154
458 153
458 152
457 151
457 150
456 149
456 148
456 147
455 146
455 145
455 144
454 143
454 142
453 141
453 140
453 139
452 138
452 137
452 138
453 139
453 140
453 141
454 142
454 143
454 144
455 145
455 146
455 147
456 148
456 149
456 150
457 151
457 152
456 153
455 153
454 154
453 154
452 155
451 155
450 155
449 155
448 156
447 156
446 156
445 156
444 156
443 157
442 157
442 158
442 159
443 160
444 160
445 161
444 162
443 162
444 163
444 164
445 165
446 165
447 165
448 165
449 165
450 165
451 165
452 166
451 167
450 167
449 167
448 168
447 168
446 168
446 169
446 170
447 171
448 171
449 171
450 171
451 171
452 171
453 171
454 171
455 172
454 173
453 173
452 173
451 174
450 174
449 174
448 175
448 176
448 177
449 178
449 179
449 180
450 181
451 181
452 181
453 182
453 183
452 184
451 185
452 186
453 187
454 187
455 187
456 188
457 188
458 187
459 187
460 187
461 187
462 187
463 187
464 188
463 189
462 189
461 189
460 189
459 190
458 190
457 190
456 190
455 190
454 191
454 192
454 193
455 194
455 195
455 196
456 197
457 198
457 199
457 200
457 201
458 202
459 203
459 204
458 205
457 206
456 205
455 206
454 206
453 207
452 208
451 209
450 210
449 210
448 211
447 212
446 213
445 213
444 214
443 214
442 215
441 215
440 214
440 213
441 212
442 212
443 212
444 211
444 210
445 209
446 208
446 207
446 206
447 205
448 204
448 203
448 202
449 201
450 200
450 199
451 198
451 197
451 196
450 197
449 197
448 196
447 197
446 197
446 198
445 199
444 200
443 200
442 201
441 202
440 202
439 201
440 200
441 199
442 198
442 197
443 196
444 195
444 194
445 193
445 192
446 191
446 190
445 189
445 188
444 189
443 190
442 189
442 188
443 187
443 186
443 185
442 184
441 184
440 185
439 184
439 183
440 182
440 181
440 180
440 179
440 178
439 177
438 176
438 175
437 175
436 176
435 176
434 175
434 174
435 173
435 172
435 171
435 170
434 170
433 169
433 168
433 167
432 167
431 167
430 168
429 168
428 169
427 169
426 170
425 170
424 171
423 171
422 172
421 172
420 172
419 173
418 173
417 174
416 173
416 172
415 171
414 170
414 169
413 168
413 167
412 166
411 165
411 164
410 163
410 162
409 161
409 160
408 159
408 158
407 157
406 156
406 155
405 154
405 153
404 152
404 151
403 150
403 149
402 148
401 147
401 146
400 145
400 144
399 143
399 142
398 141
397 140
397 139
396 138
396 137
395 136
395 135
394 134
