32 244
32 245
33 245
34 246
35 246
36 246
37 246
38 247
39 247
40 247
41 247
42 248
43 248
44 248
45 248
46 249
47 249
48 249
49 250
50 250
51 251
52 251
53 251
54 251
55 252
56 252
57 253
58 253
59 253
60 253
61 254
62 254
63 254
64 254
65 255
66 255
67 255
68 256
69 256
70 256
71 256
72 256
73 257
74 257
75 258
76 258
77 258
78 258
79 258
80 258
81 259
82 259
83 259
84 259
85 259
86 259
87 259
88 259
89 259
90 259
91 259
92 259
93 259
94 259
95 259
96 260
97 260
98 260
99 260
100 260
101 260
102 260
103 260
104 260
105 260
106 260
107 260
108 260
109 260
110 260
111 260
112 260
113 259
114 259
115 259
116 259
117 259
118 259
119 259
120 259
121 259
122 260
123 260
124 260
125 260
126 260
127 260
128 260
129 260
130 260
131 260
132 260
133 260
134 260
135 260
136 259
137 259
138 259
139 258
140 258
141 258
142 258
143 258
144 258
145 258
146 258
147 258
148 258
149 258
150 258
151 258
152 257
153 256
154 256
155 255
156 255
157 256
158 257
159 258
159 259
158 260
158 261
157 262
157 263
156 264
156 265
155 266
155 267
154 268
154 269
154 270
154 271
153 272
153 273
152 274
152 275
151 276
151 277
150 278
150 279
149 280
148 281
148 282
148 283
147 284
147 285
146 286
146 287
145 288
145 289
144 290
144 291
143 292
143 293
142 294
142 295
141 296
141 297
141 298
140 299
140 300
140 301
140 302
139 303
139 304
138 305
138 306
137 307
137 308
137 309
136 310
136 311
135 312
135 313
135 314
134 315
134 316
133 317
133 318
132 319
132 320
131 321
131 322
130 323
130 324
129 325
128 326
128 327
127 328
127 329
126 330
126 331
126 332
126 333
127 333
128 333
129 333
130 333
131 333
132 333
133 332
134 331
135 330
136 329
137 328
138 327
139 326
140 326
141 325
142 324
143 324
144 323
145 323
146 322
147 322
148 321
149 321
150 320
151 320
152 319
153 319
154 318
155 318
156 317
157 316
158 315
159 315
160 314
161 313
162 312
163 311
164 310
165 310
166 309
167 308
168 307
169 306
169 305
170 304
171 304
172 303
173 304
174 305
175 306
175 307
175 308
174 309
174 310
173 311
173 312
172 313
172 314
171 315
171 316
170 317
170 318
169 319
169 320
168 321
167 322
167 323
166 324
166 325
165 326
164 327
164 328
163 329
162 329
161 330
160 331
159 332
159 333
159 334
159 335
160 335
161 335
162 335
163 335
164 335
165 335
166 335
167 334
168 333
169 333
170 332
171 332
172 331
173 331
174 330
175 330
176 329
177 328
178 327
179 327
180 326
181 326
182 325
183 325
184 324
185 324
186 323
187 323
188 322
189 322
190 322
191 321
192 321
193 320
194 319
195 319
196 318
197 318
198 317
199 316
200 315
201 315
202 314
203 313
204 312
205 311
206 310
207 310
208 309
209 308
210 307
210 306
211 305
212 305
213 304
214 303
214 302
215 301
216 300
217 300
218 299
218 298
219 297
219 296
220 295
221 294
222 293
223 292
223 291
224 290
225 289
226 288
226 287
227 286
228 285
228 284
229 283
229 282
230 281
231 280
232 279
233 278
233 277
234 276
235 275
235 274
236 273
236 272
237 271
238 271
239 270
239 269
240 268
240 267
241 266
241 265
242 264
242 263
243 262
243 261
244 260
245 259
246 258
246 257
247 256
248 255
249 254
249 253
250 252
250 251
251 250
251 249
251 248
251 247
251 246
251 245
252 244
252 243
252 242
252 241
252 240
252 239
252 238
252 237
253 236
253 235
254 234
254 233
255 232
256 232
257 231
258 231
259 230
260 230
261 230
262 230
263 230
264 230
265 230
266 230
267 230
268 230
269 230
270 230
271 230
272 230
273 231
274 231
275 232
276 233
277 234
276 235
276 236
275 237
274 238
273 239
273 240
272 241
271 242
270 243
269 244
269 245
268 246
267 247
267 248
266 249
266 250
265 251
264 252
264 253
263 254
262 255
262 256
261 257
261 258
260 259
260 260
259 261
258 262
258 263
257 264
257 265
257 266
256 267
256 268
255 269
255 270
255 271
254 272
254 273
253 274
253 275
252 276
252 277
251 278
251 279
250 280
250 281
250 282
250 283
249 284
249 285
248 286
248 287
247 288
247 289
246 290
246 291
245 292
245 293
244 294
244 295
244 296
243 297
243 298
242 299
242 300
241 301
241 302
240 303
240 304
240 305
240 306
240 307
239 308
239 309
238 310
238 311
237 312
237 313
236 314
236 315
236 316
236 317
235 318
235 319
234 320
234 321
233 322
233 323
233 324
232 325
232 326
232 327
231 328
231 329
231 330
230 331
230 332
229 333
229 334
228 335
228 336
227 337
227 338
226 339
226 340
225 341
225 342
224 343
224 344
223 345
223 346
222 347
221 348
221 349
220 350
219 351
218 351
218 352
218 353
218 354
219 354
220 354
221 354
222 354
223 354
224 354
225 354
226 353
227 352
228 351
229 350
230 349
231 349
232 348
233 347
234 347
235 346
236 345
237 344
238 343
239 343
240 342
241 341
242 341
243 340
244 340
245 339
246 338
247 337
248 337
249 336
250 335
251 334
252 333
253 333
254 332
255 331
256 331
257 330
258 329
259 328
260 327
261 327
262 326
263 326
264 325
264 324
265 323
266 323
267 322
268 322
269 321
269 320
270 319
270 318
271 317
272 316
272 315
273 314
274 314
275 313
276 312
276 311
277 310
278 309
279 308
280 307
280 306
281 305
281 304
282 303
283 302
284 301
284 300
285 299
285 298
286 297
287 296
288 295
289 294
289 293
290 292
290 291
291 290
291 289
292 288
292 287
293 286
293 285
294 284
294 283
295 282
296 281
297 280
297 279
297 278
297 277
298 276
298 275
299 274
299 273
300 272
301 272
301 271
301 270
302 269
302 268
303 267
303 266
304 265
304 264
305 263
305 262
305 261
306 260
306 259
307 258
307 257
307 256
307 255
308 254
308 253
308 252
308 251
308 250
309 249
309 248
309 247
309 246
309 245
309 244
309 243
309 242
309 241
309 240
309 239
309 238
309 237
309 236
309 235
310 234
310 233
311 232
312 232
313 231
314 231
315 230
316 230
317 230
318 230
319 230
320 230
321 230
322 230
323 230
324 230
325 230
326 230
327 230
328 230
329 230
330 230
331 231
332 232
333 233
333 234
332 235
332 236
331 237
331 238
330 239
329 240
328 241
328 242
328 243
327 244
327 245
326 246
326 247
325 248
325 249
324 250
324 251
324 252
324 253
324 254
324 255
323 256
323 257
323 258
322 259
322 260
322 261
321 262
321 263
320 264
320 265
320 266
320 267
320 268
320 269
319 270
319 271
319 272
319 273
318 274
318 275
317 276
317 277
317 278
317 279
317 280
316 281
316 282
316 283
316 284
315 285
315 286
314 287
314 288
314 289
314 290
314 291
314 292
314 293
314 294
313 295
313 296
313 297
313 298
312 299
312 300
312 301
312 302
311 303
311 304
311 305
311 306
310 307
310 308
310 309
310 310
309 311
309 312
309 313
309 314
309 315
309 316
309 317
309 318
308 319
308 320
308 321
308 322
308 323
308 324
307 325
307 326
307 327
307 328
307 329
306 330
306 331
306 332
305 333
305 334
305 335
305 336
304 337
304 338
304 339
304 340
304 341
304 342
303 343
303 344
303 345
302 346
302 347
301 348
301 349
300 350
300 351
299 352
298 353
298 354
297 355
296 356
295 357
295 358
294 359
293 359
293 360
293 361
293 362
294 362
295 362
296 362
297 362
298 362
299 362
300 362
301 361
302 360
303 359
304 358
305 357
306 356
307 355
308 355
309 354
310 353
311 352
312 351
313 350
314 349
315 348
316 347
317 347
318 346
319 345
320 344
321 343
322 342
323 341
324 340
324 339
325 338
326 338
327 337
328 336
328 335
329 334
330 334
331 333
331 332
332 331
332 330
333 329
334 328
335 327
335 326
336 325
337 324
337 323
338 322
338 321
339 320
339 319
340 318
341 317
341 316
341 315
341 314
342 313
342 312
343 311
343 310
344 309
344 308
345 307
345 306
346 305
346 304
347 303
347 302
347 301
347 300
347 299
347 298
348 297
348 296
349 295
349 294
350 293
350 292
350 291
351 290
351 289
352 288
352 287
352 286
352 285
353 284
353 283
354 282
354 281
354 280
355 279
355 278
356 277
356 276
356 275
356 274
357 273
357 272
358 271
358 270
358 269
358 268
359 267
359 266
359 265
360 264
360 263
360 262
360 261
360 260
360 259
360 258
360 257
360 256
361 255
361 254
361 253
361 252
361 251
362 250
362 249
362 248
362 247
362 246
362 245
362 244
362 243
362 242
362 241
362 240
362 239
362 238
362 237
362 236
362 235
362 234
362 233
363 232
363 231
364 230
365 230
366 229
367 229
368 228
369 228
370 228
371 228
372 227
373 227
374 227
375 227
376 227
377 228
378 228
379 229
380 230
381 231
381 232
380 233
380 234
380 235
379 236
379 237
378 238
378 239
377 240
377 241
376 242
376 243
375 244
375 245
375 246
375 247
375 248
375 249
374 250
374 251
373 252
373 253
373 254
372 255
372 256
372 257
372 258
372 259
371 260
371 261
371 262
371 263
370 264
370 265
370 266
370 267
370 268
370 269
370 270
370 271
369 272
369 273
369 274
369 275
369 276
369 277
369 278
369 279
368 280
368 281
368 282
368 283
368 284
368 285
368 286
367 287
367 288
367 289
367 290
367 291
367 292
366 293
366 294
366 295
366 296
366 297
366 298
365 299
365 300
365 301
365 302
365 303
365 304
364 305
364 306
364 307
364 308
364 309
364 310
364 311
364 312
364 313
364 314
364 315
364 316
364 317
364 318
364 319
364 320
364 321
364 322
364 323
364 324
364 325
364 326
364 327
363 328
363 329
363 330
363 331
363 332
363 333
363 334
363 335
363 336
363 337
363 338
362 339
362 340
362 341
361 342
361 343
361 344
360 345
360 346
359 347
359 348
358 349
358 350
357 351
357 352
356 353
355 354
355 355
354 356
354 357
353 358
352 359
352 360
352 361
352 362
353 362
354 362
355 362
356 362
357 362
358 362
359 361
360 360
361 359
362 358
363 357
364 356
365 355
366 354
367 353
368 352
369 351
369 350
370 349
371 349
372 348
373 347
374 346
375 345
376 344
376 343
377 342
378 341
379 340
380 339
380 338
381 337
382 336
383 335
384 334
384 333
385 332
386 331
387 330
387 329
388 328
389 327
389 326
390 325
390 324
391 323
391 322
391 321
392 320
392 319
393 318
393 317
394 316
394 315
395 314
395 313
396 312
396 311
397 310
397 309
398 308
398 307
398 306
398 305
398 304
399 303
399 302
400 301
400 300
400 299
400 298
400 297
400 296
400 295
401 294
401 293
402 292
402 291
402 290
402 289
403 288
403 287
403 286
403 285
403 284
403 283
404 282
404 281
405 280
405 279
405 278
405 277
406 276
406 275
406 274
406 273
406 272
407 271
407 270
407 269
407 268
407 267
407 266
407 265
408 264
408 263
408 262
408 261
408 260
408 259
409 258
409 257
409 256
409 255
409 254
409 253
409 252
409 251
410 250
410 249
410 248
410 247
410 246
410 245
410 244
410 243
410 242
410 241
410 240
410 239
410 238
410 237
410 236
410 235
410 234
410 233
410 232
410 231
411 230
411 229
412 228
412 227
413 226
414 225
415 225
416 224
417 224
418 223
419 223
420 223
421 223
422 223
423 223
424 224
425 225
426 226
426 227
426 228
426 229
425 230
425 231
425 232
425 233
425 234
425 235
425 236
425 237
424 238
424 239
423 240
423 241
423 242
423 243
422 244
422 245
421 246
421 247
421 248
421 249
421 250
421 251
421 252
421 253
421 254
421 255
421 256
421 257
421 258
421 259
421 260
421 261
421 262
421 263
421 264
421 265
421 266
421 267
421 268
421 269
421 270
421 271
421 272
421 273
421 274
421 275
421 276
421 277
420 278
420 279
420 280
420 281
420 282
420 283
420 284
420 285
420 286
420 287
420 288
420 289
420 290
420 291
421 292
421 293
421 294
421 295
421 296
421 297
421 298
421 299
421 300
421 301
421 302
421 303
421 304
421 305
421 306
421 307
421 308
421 309
421 310
421 311
421 312
421 313
421 314
421 315
421 316
421 317
421 318
421 319
422 320
422 321
422 322
422 323
422 324
422 325
422 326
422 327
422 328
422 329
423 330
423 331
423 332
423 333
423 334
423 335
423 336
423 337
423 338
423 339
423 340
424 341
424 342
424 343
424 344
424 345
424 346
424 347
423 348
423 349
423 350
422 351
422 352
422 353
421 354
421 355
420 356
420 357
420 358
419 359
419 360
418 361
418 362
418 363
418 364
418 365
418 366
418 367
419 367
420 367
421 367
422 366
423 365
424 364
425 363
425 362
426 361
427 360
428 359
428 358
429 357
430 356
430 355
431 354
431 353
432 352
432 351
433 350
433 349
434 348
435 347
436 346
436 345
437 344
438 343
438 342
439 341
440 340
441 339
441 338
442 337
442 336
443 335
444 334
445 333
445 332
446 331
447 330
447 329
447 328
447 327
448 326
448 325
449 324
449 323
449 322
449 321
449 320
450 319
450 318
451 317
451 316
451 315
452 314
452 313
452 312
452 311
452 310
452 309
453 308
453 307
454 306
454 305
454 304
454 303
455 302
455 301
455 300
455 299
455 298
455 297
455 296
455 295
455 294
455 293
455 292
455 291
456 290
456 289
457 288
457 287
457 286
457 285
457 284
458 283
458 282
458 281
458 280
458 279
458 278
458 277
458 276
458 275
459 274
459 273
459 272
459 271
459 270
459 269
459 268
459 267
459 266
459 265
459 264
459 263
459 262
459 261
459 260
459 259
459 258
459 257
459 256
459 255
459 254
459 253
458 252
458 251
458 250
458 249
458 248
458 247
458 246
458 245
458 244
458 243
458 242
458 241
458 240
458 239
458 238
458 237
458 236
458 235
458 234
458 233
458 232
458 231
458 230
458 229
458 228
458 227
457 226
457 225
457 224
456 223
457 222
457 221
458 220
459 220
460 219
461 219
462 218
463 218
464 218
465 218
466 218
467 218
468 218
469 218
470 217
471 217
472 217
473 217
474 217
475 217
476 217
477 218
478 219
479 220
479 221
479 222
479 223
478 224
478 225
478 226
478 227
478 228
477 229
477 230
477 231
477 232
477 233
476 234
476 235
476 236
476 237
476 238
476 239
476 240
476 241
476 242
476 243
476 244
476 245
476 246
476 247
477 248
477 249
477 250
477 251
477 252
477 253
477 254
477 255
477 256
477 257
477 258
477 259
477 260
477 261
477 262
477 263
478 264
478 265
479 266
479 267
479 268
479 269
479 270
479 271
479 272
480 273
480 274
480 275
480 276
480 277
480 278
481 279
481 280
481 281
481 282
481 283
481 284
481 285
482 286
482 287
482 288
482 289
482 290
482 291
482 292
483 293
483 294
484 295
484 296
484 297
484 298
484 299
485 300
485 301
485 302
485 303
485 304
486 305
486 306
486 307
486 308
487 309
487 310
488 311
488 312
488 313
488 314
488 315
489 316
489 317
489 318
490 319
490 320
490 321
491 322
491 323
491 324
491 325
492 326
492 327
493 328
493 329
493 330
493 331
493 332
493 333
493 334
492 335
492 336
492 337
491 338
491 339
490 340
490 341
489 342
489 343
489 344
489 345
489 346
489 347
490 347
491 347
492 347
493 346
494 345
495 344
496 343
497 342
497 341
498 340
498 339
498 338
499 337
499 336
500 335
500 334
501 333
501 332
502 331
502 330
502 329
502 328
502 327
503 326
503 325
504 324
504 323
504 322
505 321
505 320
506 319
506 318
507 317
507 316
507 315
507 314
508 313
508 312
508 311
508 310
509 309
509 308
509 307
510 306
510 305
511 304
511 303
511 302
511 301
511 300
511 299
511 298
511 297
511 296
511 295
511 294
511 293
511 292
511 291
511 290
511 289
511 288
511 287
511 286
512 285
512 284
512 283
512 282
512 281
512 280
512 279
512 278
512 277
512 276
512 275
512 274
512 273
512 272
512 271
512 270
512 269
512 268
512 267
512 266
512 265
512 264
512 263
512 262
512 261
512 260
512 259
512 258
512 257
512 256
512 255
512 254
512 253
512 252
512 251
512 250
511 249
511 248
511 247
511 246
511 245
511 244
511 243
511 242
511 241
511 240
511 239
511 238
511 237
511 236
511 235
511 234
510 233
510 232
510 231
510 230
510 229
510 228
510 227
509 226
509 225
509 224
509 223
509 222
509 221
509 220
509 219
509 218
509 217
509 216
510 215
511 214
512 213
513 213
514 212
515 212
516 212
517 212
518 211
519 211
520 211
521 211
522 211
523 211
524 210
525 210
526 210
527 210
528 210
529 211
530 211
531 212
532 213
532 214
533 215
532 216
532 217
531 218
531 219
531 220
531 221
531 222
531 223
530 224
530 225
530 226
530 227
530 228
530 229
530 230
530 231
530 232
530 233
530 234
530 235
530 236
530 237
530 238
530 239
530 240
530 241
530 242
530 243
530 244
530 245
530 246
530 247
530 248
530 249
530 250
531 251
531 252
531 253
531 254
531 255
532 256
532 257
532 258
532 259
532 260
532 261
532 262
533 263
533 264
533 265
533 266
533 267
533 268
533 269
533 270
534 271
534 272
534 273
535 274
535 275
535 276
535 277
536 278
536 279
536 280
536 281
536 282
536 283
537 284
537 285
537 286
537 287
538 288
538 289
539 290
539 291
539 292
539 293
540 294
540 295
541 296
541 297
542 298
542 299
542 300
543 301
543 302
544 303
544 304
544 305
545 306
545 307
545 308
546 309
546 310
546 311
547 312
547 313
547 314
548 315
548 316
549 317
549 318
549 319
549 320
549 321
550 322
550 323
550 324
550 325
551 326
551 327
550 328
550 329
549 330
549 331
549 332
549 333
549 334
549 335
549 336
549 337
550 337
551 337
552 337
553 336
554 335
555 334
555 333
555 332
556 331
556 330
557 329
557 328
557 327
557 326
558 325
558 324
558 323
558 322
559 321
559 320
559 319
559 318
560 317
560 316
561 315
561 314
561 313
561 312
562 311
562 310
563 309
563 308
564 307
564 306
564 305
565 304
565 303
565 302
565 301
565 300
565 299
565 298
565 297
565 296
566 295
566 294
566 293
567 292
567 291
567 290
567 289
567 288
567 287
567 286
567 285
567 284
567 283
567 282
567 281
567 280
567 279
567 278
567 277
567 276
567 275
567 274
567 273
567 272
567 271
567 270
567 269
567 268
567 267
567 266
567 265
567 264
567 263
567 262
567 261
567 260
567 259
567 258
567 257
567 256
567 255
567 254
567 253
567 252
567 251
566 250
566 249
566 248
566 247
566 246
566 245
566 244
566 243
566 242
566 241
566 240
565 239
565 238
565 237
565 236
565 235
565 234
565 233
565 232
565 231
565 230
564 229
564 228
564 227
564 226
564 225
564 224
564 223
564 222
564 221
564 220
564 219
564 218
564 217
564 216
564 215
564 214
564 213
564 212
564 211
563 210
563 209
563 208
564 207
565 206
566 205
567 205
568 204
569 204
570 204
571 204
572 204
573 204
574 204
575 204
576 203
577 203
578 203
579 203
580 203
581 203
582 203
583 203
584 202
585 202
586 202
587 202
588 202
589 202
590 202
591 202
592 202
593 203
594 203
595 204
595 205
596 206
596 207
596 208
596 209
596 210
595 211
595 212
595 213
595 214
595 215
595 216
595 217
595 218
595 219
595 220
595 221
595 222
595 223
595 224
596 225
596 226
597 227
597 228
597 229
597 230
597 231
597 232
597 233
597 234
598 235
598 236
599 237
599 238
600 239
600 240
600 241
601 242
601 243
601 244
602 245
602 246
602 247
603 248
603 249
604 250
604 251
605 252
605 253
605 254
606 255
606 256
607 257
607 258
607 259
608 260
608 261
609 262
609 263
609 264
610 265
610 266
610 267
611 268
612 269
612 270
613 271
613 272
614 273
614 274
615 275
615 276
616 277
616 278
617 279
617 280
618 281
618 282
619 283
620 284
620 285
621 286
621 287
622 288
622 289
623 290
623 291
624 292
625 293
625 294
626 295
626 296
627 297
627 298
628 299
628 300
629 301
629 302
630 303
630 304
630 305
631 306
631 307
631 308
632 309
632 310
633 311
633 312
633 313
634 314
634 315
634 316
634 317
634 318
634 319
635 319
636 319
636 318
636 317
637 316
637 315
637 314
637 313
637 312
637 311
637 310
637 309
637 308
637 307
637 306
637 305
637 304
637 303
637 302
638 301
638 300
638 299
638 298
638 297
639 296
639 295
639 294
639 293
639 292
639 291
639 290
639 289
640 288
640 287
640 286
640 285
640 284
640 283
640 282
640 281
640 280
640 279
640 278
640 277
640 276
640 275
640 274
640 273
640 272
640 271
640 270
640 269
640 268
640 267
640 266
640 265
640 264
640 263
640 262
640 261
640 260
640 259
640 258
640 257
640 256
640 255
640 254
640 253
640 252
640 251
640 250
640 249
640 248
639 247
639 246
639 245
639 244
639 243
639 242
638 241
638 240
638 239
638 238
638 237
638 236
637 235
637 234
636 233
636 232
636 231
635 230
635 229
634 228
634 227
633 226
633 225
633 224
633 223
633 222
632 221
632 220
631 219
631 218
630 217
630 216
629 215
629 214
629 213
629 212
629 211
629 210
628 209
627 208
626 207
626 206
625 205
625 204
624 203
624 202
624 201
625 200
626 199
627 198
628 198
629 197
630 197
631 197
632 197
633 197
634 196
635 196
636 196
637 196
638 196
639 196
640 196
641 195
642 195
643 195
644 195
645 195
646 195
647 195
648 195
649 194
650 194
651 194
652 194
653 194
654 194
655 194
656 194
657 193
658 193
659 193
660 193
661 193
662 193
663 193
664 193
665 192
666 192
667 192
668 192
669 192
670 192
671 192
672 192
673 191
674 191
675 191
676 191
677 191
678 191
679 191
680 191
681 191
682 190
683 190
684 190
685 190
686 190
687 190
688 190
689 190
690 189
691 189
692 189
693 189
694 189
695 189
696 189
697 189
698 189
699 189
700 189
701 188
702 188
703 188
704 188
705 188
706 188
707 188
708 188
709 188
710 187
711 187
712 187
713 187
714 187
715 187
716 187
717 187
718 187
719 187
720 187
721 186
722 186
723 186
724 186
725 186
726 186
727 186
728 186
729 186
730 185
731 185
732 185
733 185
734 185
735 185
736 185
737 185
738 185
739 185
740 185
741 185
742 185
743 185
744 185
745 185
746 185
747 185
748 185
749 185
750 185
751 185
752 185
753 185
754 185
754 184
754 183
754 182
754 181
754 180
754 179
754 178
753 177
753 176
752 176
751 176
750 176
749 176
748 176
747 176
746 176
745 176
744 176
743 176
742 177
741 177
740 177
739 177
738 178
737 178
736 178
735 178
734 178
733 178
732 179
731 179
730 179
729 179
728 180
727 180
726 180
725 180
724 180
723 180
722 181
721 181
720 181
719 181
718 181
717 181
716 181
715 182
714 182
713 182
712 182
711 182
710 182
709 182
708 182
707 183
706 183
705 183
704 183
703 183
702 183
701 183
700 184
699 184
698 184
697 184
696 184
695 184
694 184
693 184
692 184
691 185
690 185
689 185
688 185
687 185
686 185
685 185
684 185
683 185
682 186
681 186
680 186
679 186
678 186
677 186
676 186
675 187
674 187
673 187
672 187
671 187
670 187
669 187
668 187
667 187
666 187
665 188
664 188
663 188
662 188
661 188
660 188
659 188
658 188
657 189
656 189
655 189
654 189
653 189
652 189
651 189
650 190
649 190
648 190
647 190
646 190
645 190
644 190
643 190
642 190
641 191
640 191
639 191
638 191
637 191
636 191
635 192
634 192
633 192
632 192
631 192
630 192
629 192
628 192
627 193
626 193
625 193
624 193
623 193
622 192
621 192
620 191
619 190
619 189
618 188
618 187
618 186
618 185
618 184
618 183
618 182
618 181
618 180
618 179
618 178
618 177
618 176
618 175
618 174
618 173
618 172
618 171
618 170
618 169
618 168
617 167
617 166
616 165
616 164
616 163
616 162
616 161
616 160
616 159
616 158
616 157
616 156
615 155
615 154
615 153
615 152
615 151
615 150
614 149
614 148
614 147
614 146
613 145
613 144
613 143
613 142
613 141
613 140
612 139
612 138
611 137
611 136
611 135
611 134
610 133
610 132
609 131
609 130
608 129
608 128
608 127
608 126
607 125
607 124
606 123
606 122
605 121
605 120
604 119
604 118
603 117
603 116
602 115
601 114
601 113
600 112
600 111
599 110
598 109
597 108
596 107
596 106
595 105
595 104
594 103
594 102
593 101
592 100
591 99
590 98
589 97
588 96
587 95
587 94
586 93
585 92
585 91
584 90
583 89
583 88
582 87
582 86
581 85
581 84
580 83
579 82
579 81
578 80
578 79
577 78
576 77
575 77
574 77
573 77
573 78
573 79
573 80
573 81
573 82
573 83
573 84
574 85
574 86
574 87
575 88
575 89
575 90
576 91
576 92
576 93
576 94
576 95
576 96
576 97
576 98
576 99
576 100
576 101
576 102
576 103
576 104
576 105
576 106
576 107
576 108
576 109
576 110
576 111
576 112
576 113
576 114
576 115
576 116
576 117
576 118
576 119
576 120
576 121
577 122
577 123
577 124
577 125
577 126
577 127
577 128
577 129
577 130
577 131
577 132
577 133
577 134
577 135
577 136
577 137
577 138
578 139
578 140
578 141
578 142
578 143
578 144
579 145
579 146
579 147
579 148
580 149
580 150
580 151
580 152
580 153
581 154
581 155
581 156
582 157
582 158
582 159
582 160
582 161
582 162
582 163
582 164
582 165
582 166
582 167
582 168
583 169
583 170
584 171
584 172
584 173
584 174
584 175
584 176
584 177
584 178
584 179
584 180
584 181
584 182
584 183
584 184
584 185
584 186
584 187
584 188
585 189
586 190
587 191
587 192
588 193
588 194
587 195
586 196
585 197
584 197
583 198
582 198
581 198
580 199
579 199
578 199
577 199
576 199
575 199
574 199
573 199
572 200
571 200
570 200
569 200
568 200
567 200
566 200
565 200
564 199
563 199
562 198
562 197
561 196
561 195
561 194
562 193
562 192
562 191
562 190
562 189
562 188
562 187
562 186
562 185
562 184
562 183
562 182
562 181
562 180
562 179
562 178
562 177
562 176
562 175
562 174
562 173
562 172
561 171
561 170
561 169
561 168
561 167
561 166
561 165
561 164
561 163
561 162
560 161
560 160
560 159
560 158
560 157
560 156
560 155
559 154
559 153
559 152
559 151
559 150
559 149
558 148
558 147
558 146
558 145
558 144
558 143
558 142
558 141
558 140
557 139
557 138
557 137
557 136
557 135
557 134
557 133
556 132
556 131
556 130
556 129
555 128
555 127
555 126
555 125
554 124
554 123
553 122
553 121
552 120
552 119
552 118
551 117
551 116
550 115
550 114
549 113
549 112
548 111
548 110
547 109
547 108
546 107
545 106
544 105
544 104
543 103
542 102
541 101
540 100
540 99
539 98
539 97
538 96
538 95
537 94
537 93
536 92
535 91
534 90
533 89
532 89
531 88
531 87
530 86
530 85
529 84
529 83
529 82
529 81
529 80
529 79
529 78
529 77
528 76
528 75
527 74
527 73
526 72
525 71
525 70
524 69
523 68
522 68
521 68
520 68
519 68
519 69
519 70
519 71
519 72
519 73
520 74
520 75
521 76
521 77
521 78
522 79
522 80
522 81
523 82
523 83
523 84
523 85
524 86
524 87
524 88
524 89
523 90
523 91
523 92
523 93
522 94
522 95
522 96
522 97
522 98
522 99
521 100
521 101
521 102
521 103
521 104
521 105
521 106
521 107
521 108
521 109
521 110
521 111
521 112
521 113
521 114
521 115
520 116
520 117
520 118
520 119
520 120
520 121
520 122
520 123
520 124
520 125
520 126
520 127
520 128
520 129
520 130
520 131
520 132
520 133
520 134
521 135
521 136
521 137
521 138
521 139
521 140
521 141
521 142
521 143
521 144
521 145
521 146
521 147
521 148
522 149
522 150
522 151
522 152
522 153
522 154
522 155
522 156
522 157
522 158
522 159
522 160
522 161
522 162
523 163
523 164
523 165
523 166
524 167
524 168
524 169
524 170
524 171
524 172
525 173
525 174
525 175
525 176
525 177
526 178
526 179
526 180
527 181
527 182
527 183
528 184
528 185
528 186
528 187
528 188
529 189
529 190
529 191
529 192
530 193
530 194
530 195
531 196
531 197
531 198
531 199
532 200
532 201
532 202
531 203
530 204
529 205
528 205
527 206
526 206
525 206
524 206
523 206
522 206
521 206
520 207
519 207
518 207
517 207
516 207
515 207
514 208
513 208
512 208
511 208
510 208
509 208
508 208
507 209
506 209
505 208
504 208
503 207
502 207
501 206
501 205
500 204
500 203
500 202
500 201
500 200
500 199
500 198
500 197
500 196
500 195
500 194
500 193
499 192
499 191
498 190
498 189
498 188
498 187
498 186
497 185
497 184
496 183
496 182
496 181
496 180
496 179
496 178
495 177
495 176
494 175
494 174
493 173
493 172
492 171
492 170
492 169
492 168
491 167
491 166
490 165
490 164
489 163
489 162
489 161
489 160
488 159
488 158
487 157
487 156
487 155
487 154
487 153
486 152
486 151
485 150
485 149
485 148
484 147
484 146
483 145
483 144
482 143
482 142
482 141
481 140
481 139
480 138
480 137
479 136
479 135
479 134
478 133
478 132
477 131
476 130
476 129
475 128
475 127
474 126
473 125
473 124
472 123
471 122
470 121
469 120
468 119
468 118
467 117
466 116
466 115
465 114
464 113
463 112
462 111
461 110
460 109
459 108
458 107
457 106
456 105
455 105
454 104
453 103
452 102
451 101
450 100
449 100
448 99
447 98
446 97
445 96
444 95
443 94
442 93
441 93
440 92
439 91
438 91
437 90
436 89
435 88
434 88
433 87
432 87
431 86
430 86
429 86
428 86
427 86
426 86
425 86
424 86
424 87
424 88
424 89
425 90
426 91
427 91
428 92
429 93
430 94
431 95
432 96
433 97
433 98
434 99
434 100
435 101
435 102
436 103
436 104
436 105
437 106
437 107
438 108
438 109
439 110
439 111
439 112
439 113
440 114
440 115
440 116
440 117
440 118
440 119
441 120
441 121
442 122
442 123
442 124
442 125
442 126
442 127
443 128
443 129
443 130
443 131
443 132
443 133
443 134
444 135
444 136
444 137
445 138
445 139
445 140
445 141
446 142
446 143
446 144
447 145
447 146
447 147
447 148
448 149
448 150
448 151
448 152
448 153
448 154
448 155
449 156
449 157
449 158
449 159
450 160
450 161
451 162
451 163
451 164
451 165
452 166
452 167
453 168
453 169
453 170
453 171
453 172
454 173
454 174
454 175
455 176
455 177
455 178
455 179
456 180
456 181
456 182
456 183
457 184
457 185
458 186
458 187
458 188
459 189
459 190
460 191
460 192
461 193
461 194
462 195
462 196
463 197
463 198
464 199
464 200
464 201
464 202
465 203
466 204
466 205
467 206
468 207
468 208
469 209
469 210
468 211
467 212
466 213
465 213
464 214
463 214
462 215
461 215
460 215
459 215
458 215
457 215
456 215
455 215
454 216
453 216
452 216
451 216
450 216
449 215
448 215
447 214
446 213
445 212
445 211
444 210
444 209
444 208
444 207
444 206
444 205
444 204
444 203
444 202
444 201
444 200
444 199
444 198
444 197
444 196
443 195
443 194
443 193
443 192
443 191
443 190
442 189
442 188
441 187
441 186
441 185
441 184
441 183
440 182
440 181
439 180
439 179
438 178
438 177
438 176
438 175
437 174
437 173
436 172
436 171
435 170
435 169
435 168
434 167
434 166
433 165
433 164
432 163
432 162
432 161
431 160
431 159
431 158
430 157
430 156
429 155
429 154
428 153
428 152
427 151
427 150
426 149
426 148
425 147
425 146
425 145
424 144
424 143
423 142
423 141
423 140
422 139
422 138
421 137
421 136
420 135
419 134
418 133
417 132
416 131
415 130
414 129
413 128
413 127
412 126
411 125
411 124
410 123
410 122
409 121
408 120
407 119
406 118
405 117
404 116
403 115
402 115
401 114
400 113
399 112
398 111
397 110
396 109
395 108
394 108
393 107
392 106
391 105
390 105
389 104
388 103
387 102
386 101
385 101
384 100
383 99
382 98
381 97
380 96
379 96
378 95
377 94
376 93
375 92
374 91
373 90
372 89
371 88
370 88
369 88
368 88
368 89
368 90
368 91
368 92
368 93
368 94
369 95
370 96
371 97
371 98
372 99
372 100
373 101
373 102
374 103
374 104
375 105
375 106
376 107
376 108
377 109
377 110
377 111
378 112
378 113
379 114
379 115
379 116
379 117
379 118
379 119
379 120
380 121
380 122
380 123
380 124
381 125
381 126
382 127
382 128
382 129
382 130
382 131
383 132
383 133
383 134
384 135
384 136
385 137
385 138
385 139
385 140
385 141
386 142
386 143
386 144
386 145
387 146
387 147
387 148
387 149
388 150
388 151
389 152
389 153
389 154
389 155
390 156
390 157
391 158
391 159
391 160
391 161
392 162
392 163
392 164
393 165
393 166
393 167
393 168
394 169
394 170
394 171
394 172
395 173
395 174
396 175
396 176
396 177
396 178
397 179
397 180
397 181
398 182
398 183
399 184
399 185
399 186
399 187
400 188
400 189
401 190
401 191
401 192
401 193
401 194
402 195
402 196
403 197
403 198
404 199
404 200
405 201
405 202
406 203
407 204
407 205
408 206
409 207
410 208
411 209
412 210
413 210
414 211
414 212
415 213
415 214
416 215
416 216
416 217
415 218
414 219
413 220
412 220
411 221
410 221
409 221
408 221
407 221
406 221
405 221
404 222
403 222
402 221
401 221
400 220
399 220
398 219
398 218
397 217
397 216
396 215
396 214
396 213
396 212
396 211
396 210
395 209
395 208
395 207
394 206
394 205
394 204
394 203
394 202
393 201
393 200
393 199
393 198
392 197
392 196
392 195
391 194
390 193
390 192
389 191
389 190
388 189
388 188
388 187
388 186
387 186
386 185
386 184
385 183
385 182
384 181
384 180
383 179
382 178
381 177
381 176
380 175
380 174
379 173
378 172
378 171
377 170
377 169
376 168
376 167
375 166
374 165
373 164
373 163
372 162
372 161
371 160
370 159
370 158
369 157
368 156
367 155
367 154
366 153
366 152
365 151
364 150
363 149
362 148
362 147
361 146
360 145
359 144
358 143
357 142
356 141
355 141
354 140
353 139
353 138
352 137
351 136
350 136
349 135
348 134
347 133
346 132
345 131
344 130
343 130
342 129
341 129
340 128
339 127
338 126
337 126
336 126
335 125
334 125
333 124
332 124
331 123
330 123
329 122
328 121
327 120
326 120
325 119
324 119
323 118
322 118
321 117
320 117
319 116
318 116
317 115
316 115
315 114
314 114
313 113
312 113
311 112
310 112
309 112
308 111
307 111
306 111
305 110
304 110
303 110
302 110
301 110
300 110
299 110
298 110
297 110
296 110
295 110
294 110
294 111
294 112
294 113
295 113
296 114
297 114
298 115
299 115
300 116
301 116
302 117
303 118
304 119
305 120
305 121
306 122
307 123
307 124
308 125
309 126
309 127
310 128
310 129
311 130
311 131
312 132
313 133
313 134
314 135
314 136
315 137
315 138
315 139
315 140
316 141
317 142
316 143
315 144
314 144
313 143
312 142
312 141
311 140
310 140
309 139
308 138
307 137
306 136
305 135
304 134
303 133
303 132
302 131
301 130
300 130
299 129
298 128
297 127
296 126
295 125
294 124
293 123
292 122
291 121
290 120
289 119
288 118
287 118
286 117
285 117
284 116
283 116
282 115
281 114
280 113
279 113
278 112
277 111
276 110
275 109
274 109
273 108
272 107
271 106
270 105
269 104
268 103
267 103
266 102
265 101
264 100
263 99
262 99
261 99
260 99
259 99
259 100
259 101
259 102
259 103
259 104
260 105
261 106
261 107
262 108
263 109
263 110
264 111
264 112
265 113
265 114
266 115
266 116
267 117
267 118
268 119
268 120
269 121
269 122
270 123
270 124
271 125
271 126
272 127
272 128
273 129
273 130
273 131
274 132
274 133
274 134
274 135
275 136
275 137
275 138
276 139
276 140
276 141
276 142
277 143
277 144
278 145
278 146
278 147
279 148
279 149
280 150
280 151
280 152
281 153
281 154
281 155
282 156
282 157
283 158
283 159
284 160
284 161
285 162
285 163
286 164
286 165
287 166
287 167
288 168
288 169
288 170
288 171
289 172
289 173
290 174
290 175
291 176
291 177
292 178
292 179
292 180
293 181
293 182
294 183
295 184
295 185
296 186
296 187
297 188
297 189
298 190
298 191
298 192
298 193
299 194
299 195
299 196
300 197
301 198
301 199
302 200
302 201
303 202
303 203
304 204
304 205
305 206
305 207
306 208
306 209
307 210
307 211
308 212
309 213
309 214
310 215
310 216
311 217
312 218
313 219
313 220
314 221
315 222
315 223
316 224
315 225
314 226
313 227
312 227
311 228
310 228
309 228
308 228
307 228
306 228
305 228
304 229
303 229
302 229
301 229
300 228
299 228
298 227
297 227
296 226
295 225
295 224
294 223
294 222
293 221
293 220
293 219
293 218
293 217
293 216
293 215
293 214
293 213
293 212
293 211
293 210
293 209
293 208
293 207
293 206
292 205
292 204
291 203
291 202
290 201
290 200
289 199
289 198
288 197
288 196
287 195
286 194
286 193
285 192
285 191
284 190
283 189
282 188
281 187
281 186
280 185
279 184
279 183
278 182
278 181
277 180
276 179
276 178
275 177
274 176
273 175
272 174
271 173
271 172
270 171
269 170
268 169
267 168
267 167
266 166
265 165
264 164
263 163
263 162
262 161
262 160
261 159
260 158
259 157
259 156
258 155
257 154
256 153
255 152
254 151
254 150
253 149
252 148
251 147
250 146
249 145
249 144
248 143
247 142
246 142
245 141
244 140
243 139
242 138
241 138
240 137
239 136
238 135
237 135
236 134
235 133
234 133
233 132
232 131
231 131
230 130
229 130
228 129
227 128
226 128
225 127
224 127
223 126
222 126
221 126
220 125
219 125
218 124
217 124
216 123
215 123
214 123
213 122
212 122
211 121
210 121
209 120
208 120
207 119
206 119
205 118
204 118
203 118
202 117
201 117
200 117
199 117
198 117
197 117
196 117
195 117
194 117
193 117
192 117
192 118
192 119
192 120
193 120
194 121
195 121
196 122
197 123
198 123
199 124
200 125
201 126
202 127
203 128
204 129
204 130
205 131
206 132
207 133
207 134
208 135
208 136
209 137
209 138
210 139
210 140
211 141
212 142
212 143
213 144
213 145
214 146
214 147
215 148
215 149
215 150
216 151
216 152
217 153
217 154
218 155
219 156
219 157
220 158
220 159
221 160
222 161
222 162
223 163
223 164
224 165
224 166
225 167
225 168
226 169
227 170
227 171
228 172
228 173
229 174
229 175
230 176
231 177
232 178
232 179
233 180
233 181
234 182
234 183
235 184
235 185
235 186
236 187
237 188
238 189
238 190
239 191
239 192
240 193
240 194
241 195
242 196
242 197
243 198
243 199
244 200
244 201
245 202
245 203
246 204
246 205
247 206
248 207
248 208
249 209
250 210
251 211
251 212
252 213
253 214
254 215
254 216
255 217
256 218
257 219
258 220
259 221
260 222
261 223
261 224
262 225
261 226
260 227
259 228
258 228
257 229
256 229
255 229
254 229
253 229
252 228
251 228
250 228
249 228
248 228
247 227
246 227
245 226
244 226
243 225
243 224
242 223
242 222
241 221
241 220
241 219
241 218
241 217
241 216
241 215
241 214
241 213
241 212
240 211
240 210
240 209
239 208
239 207
238 206
238 205
237 204
236 204
235 203
235 202
234 201
234 200
233 199
233 198
232 197
231 197
230 196
230 195
229 194
228 193
227 192
226 191
226 190
225 189
225 188
224 187
223 186
222 186
221 185
220 184
219 183
219 182
218 181
217 180
216 179
215 178
214 178
213 177
212 176
211 175
210 174
209 173
208 172
207 171
206 170
206 169
205 168
204 167
203 166
202 166
201 165
200 164
200 163
199 162
198 161
197 161
196 160
195 159
194 158
194 157
193 156
192 155
191 154
190 154
189 153
188 153
187 152
186 151
185 151
184 150
183 149
182 149
181 148
180 147
179 147
178 147
177 146
176 146
175 145
174 145
173 144
172 144
171 144
170 143
169 143
168 143
167 143
166 143
165 142
164 142
163 142
162 142
161 141
160 141
159 140
158 140
157 140
156 140
155 139
154 139
153 138
152 138
151 138
150 137
149 137
148 137
147 136
146 136
145 136
144 135
143 135
142 135
141 134
140 134
139 133
138 133
137 132
136 132
135 132
134 131
133 131
132 131
131 131
130 131
129 131
128 131
128 132
128 133
128 134
128 135
129 135
130 136
131 137
132 137
133 138
134 139
135 139
136 140
137 141
138 142
139 142
140 143
141 144
142 145
142 146
143 147
144 148
145 149
146 150
146 151
147 152
148 153
149 154
150 155
151 156
151 157
152 158
153 159
154 160
155 161
155 162
156 163
157 164
158 165
158 166
159 167
160 168
161 169
162 170
163 171
164 172
164 173
165 174
165 175
166 176
165 177
164 178
163 179
162 178
161 178
160 177
159 176
158 175
157 174
156 174
155 173
154 172
153 171
152 171
151 170
150 169
149 168
148 167
147 167
146 166
145 166
144 165
143 164
142 164
141 163
140 163
139 162
138 161
137 161
136 160
135 160
134 159
133 159
132 158
131 158
130 158
129 158
128 157
127 157
126 156
125 156
124 156
123 156
122 155
121 155
120 154
119 154
118 154
117 154
116 154
115 153
114 153
113 153
112 153
111 153
110 152
109 152
108 152
107 152
106 151
105 151
104 151
103 151
102 151
101 150
100 150
99 150
98 150
97 150
96 149
95 149
94 149
93 148
92 148
91 148
90 147
89 147
88 147
87 147
86 147
85 147
84 147
83 147
83 148
83 149
83 150
84 151
85 152
86 152
87 153
88 153
89 154
90 154
91 155
92 155
93 156
94 157
95 157
96 158
97 159
98 160
99 160
100 161
101 162
102 163
103 164
104 165
104 166
105 167
106 168
107 169
108 170
109 171
110 172
111 173
112 174
113 175
114 176
115 177
115 178
116 179
117 180
118 181
119 182
119 183
120 184
121 185
122 185
123 186
124 187
124 188
125 189
126 190
127 191
128 192
129 193
130 194
131 195
132 196
133 197
134 198
134 199
135 200
136 201
137 202
138 203
139 204
140 204
141 205
141 206
142 207
143 208
144 209
145 210
146 210
147 211
148 212
149 213
149 214
150 215
151 216
152 217
153 218
152 219
152 220
151 221
150 221
149 221
148 220
147 220
146 220
145 220
144 220
143 219
142 219
141 219
140 219
139 219
138 219
137 218
136 218
135 218
134 218
133 218
132 218
131 218
130 218
129 218
128 218
127 218
126 218
125 218
124 218
123 218
122 218
121 219
120 219
119 219
118 219
117 219
116 219
115 219
114 219
113 219
112 219
111 219
110 219
109 220
108 220
107 220
106 220
105 220
104 220
103 220
102 220
101 220
100 220
99 220
98 220
97 220
96 221
95 221
94 221
93 221
92 222
91 222
90 222
89 222
88 223
87 223
86 224
85 224
84 224
83 225
82 225
81 226
80 226
79 227
78 227
77 228
76 228
75 229
74 229
73 230
72 230
71 231
70 232
69 232
68 233
67 233
66 234
65 234
64 235
63 235
62 235
61 236
60 236
59 237
58 237
57 238
56 238
55 239
54 239
53 240
52 240
51 240
50 240
49 241
48 241
47 242
46 242
45 242
44 242
43 243
42 243
41 243
40 243
39 243
38 243
37 243
36 244
35 244
34 244
33 244
32 244
