82 294
82 295
82 296
82 297
82 298
82 299
83 300
84 300
85 301
86 302
86 303
87 304
87 305
88 306
88 307
88 308
89 309
90 310
90 311
91 312
91 313
91 314
91 315
91 316
91 317
91 318
91 319
91 320
92 321
93 321
94 322
95 322
96 323
97 324
97 325
97 326
96 327
96 328
96 329
96 330
96 331
96 332
96 333
96 334
96 335
96 336
97 336
98 337
99 337
100 338
101 338
102 338
103 339
104 339
105 340
106 340
107 341
107 342
108 343
107 344
107 345
106 346
106 347
106 348
106 349
106 350
106 351
106 352
107 353
108 353
109 354
110 354
111 355
112 355
113 356
114 356
115 357
116 358
117 359
117 360
116 361
116 362
116 363
116 364
116 365
116 366
116 367
116 368
116 369
116 370
116 371
117 371
118 372
119 372
120 373
121 373
122 374
122 375
123 376
124 376
125 376
126 376
127 377
128 377
129 377
130 377
131 378
132 378
133 379
134 380
135 381
135 382
134 383
134 384
134 385
134 386
134 387
134 388
134 389
134 390
134 391
134 392
135 392
136 393
137 393
138 393
139 394
140 394
141 395
142 395
143 396
144 397
144 398
145 399
146 399
147 399
148 399
149 399
150 399
151 399
152 399
153 399
154 399
155 400
156 400
157 401
158 402
159 403
159 404
159 405
159 406
159 407
159 408
159 409
159 410
159 411
159 412
159 413
160 413
161 413
162 414
163 414
164 415
165 415
166 415
167 415
168 415
169 415
170 416
171 416
172 416
173 417
174 417
175 418
176 418
177 419
178 420
178 421
179 422
179 423
180 424
180 425
181 426
182 426
183 426
184 426
185 426
186 427
187 427
188 428
189 428
190 428
191 428
192 428
193 428
194 428
195 428
196 428
197 428
198 428
199 428
200 428
201 428
202 428
203 429
204 430
205 431
205 432
206 433
206 434
207 435
208 435
209 435
210 435
211 435
212 436
213 436
214 437
215 437
216 437
217 437
218 437
219 437
220 437
221 437
222 437
223 438
224 438
225 439
226 439
227 440
227 441
228 441
229 441
230 441
231 441
232 441
233 441
234 441
235 441
236 441
237 441
238 441
239 441
240 441
241 441
242 441
243 441
244 441
245 441
246 442
247 442
248 443
249 444
250 445
250 446
251 447
252 447
253 447
254 447
255 447
256 447
257 447
258 448
259 448
260 449
261 449
262 449
263 449
264 449
265 449
266 449
267 449
268 449
269 450
270 450
271 451
272 452
273 453
273 454
274 454
275 454
276 454
277 454
278 454
279 454
280 454
281 454
282 454
283 454
284 453
285 453
286 453
287 454
288 454
289 455
290 456
290 457
291 457
292 457
293 457
294 457
295 457
296 457
297 457
298 457
299 457
300 457
301 457
302 457
303 456
304 456
305 455
306 455
307 455
308 455
309 455
310 454
311 454
312 454
313 454
314 454
315 454
316 453
317 453
318 452
319 452
320 452
321 453
322 453
323 453
324 453
325 453
326 453
327 453
328 453
329 453
330 453
331 453
332 453
333 453
334 453
335 452
336 452
337 452
338 452
339 452
340 452
341 452
342 452
343 452
344 452
345 452
346 452
347 452
348 451
349 451
350 450
351 450
352 450
353 450
354 450
355 450
356 450
357 450
358 450
359 450
360 450
361 449
362 449
363 448
364 448
365 448
366 447
367 447
368 447
369 446
370 446
371 445
372 445
373 445
374 445
375 445
376 445
377 445
378 445
379 445
380 444
381 444
382 444
383 443
384 443
385 443
386 442
387 441
388 441
389 440
390 440
391 439
392 439
393 439
394 439
395 439
396 438
397 437
398 436
399 436
400 435
401 435
402 434
403 434
404 433
405 433
406 433
407 433
408 432
409 432
410 431
411 431
412 430
413 430
414 429
415 429
416 428
417 428
418 427
419 427
420 426
421 426
422 425
423 425
424 425
425 425
426 425
427 425
428 425
429 425
430 425
431 425
432 425
433 425
434 425
435 424
436 423
437 422
438 422
439 421
440 421
441 420
442 420
443 419
444 419
445 419
446 418
447 417
448 416
449 415
450 415
451 414
452 413
453 412
454 412
455 411
456 410
457 409
458 408
459 408
460 407
461 406
462 405
463 405
464 404
465 404
466 403
467 403
468 402
469 402
470 402
471 401
472 400
473 399
474 399
475 398
476 397
477 396
478 395
479 395
480 394
481 394
482 393
483 393
484 392
485 392
486 392
487 392
488 391
489 390
490 389
491 389
492 388
493 388
494 387
495 387
496 386
497 386
498 385
499 385
500 384
501 383
502 383
503 382
504 382
505 381
506 381
507 380
508 380
509 380
510 380
511 379
512 378
513 377
514 376
515 375
516 374
517 373
517 372
518 371
519 370
520 369
521 368
522 367
522 366
523 365
523 364
524 363
524 362
525 361
525 360
526 359
527 358
528 357
528 356
529 355
530 355
531 354
532 354
533 353
534 353
535 352
536 351
537 350
538 349
539 348
540 347
541 346
542 345
543 344
544 343
545 343
546 342
547 342
548 341
549 341
550 340
551 340
552 339
553 338
554 337
555 336
556 335
557 334
558 333
559 332
560 331
561 331
562 330
563 329
564 328
565 327
566 326
567 326
568 325
569 324
570 323
571 323
572 322
573 322
574 321
575 321
576 320
577 319
578 318
579 317
580 316
581 316
582 315
583 314
584 313
585 312
586 312
587 311
588 310
589 309
590 309
591 308
592 307
593 306
594 306
595 305
596 304
597 303
598 302
599 302
600 301
601 300
602 300
603 299
604 298
605 297
606 296
607 296
608 295
609 294
610 294
611 293
612 293
613 292
614 291
615 291
616 290
617 290
618 289
619 288
620 287
621 287
622 286
623 286
624 285
625 284
626 284
627 283
628 283
629 282
630 282
631 281
632 281
633 281
634 280
635 280
636 279
637 279
638 279
639 279
640 278
641 278
642 278
643 278
644 277
645 277
646 277
647 277
648 277
649 277
650 277
651 277
652 277
653 277
654 277
655 277
656 277
657 277
658 277
659 277
660 277
661 277
662 277
663 277
664 277
665 277
666 277
667 277
668 277
669 277
670 277
671 277
672 278
673 278
674 278
675 278
676 278
677 278
678 278
679 278
680 278
681 278
682 278
683 278
684 278
685 278
686 278
687 278
688 278
689 278
690 278
691 278
692 278
693 278
694 278
695 278
696 278
697 278
698 278
699 278
700 278
701 278
702 278
703 278
704 278
705 278
706 278
707 278
708 278
709 278
710 278
711 278
712 278
713 278
714 278
715 278
716 278
717 278
718 278
719 278
720 278
721 278
722 278
723 279
724 279
725 279
726 279
727 279
728 279
729 280
730 280
731 281
732 281
733 281
734 282
735 282
736 283
737 283
738 284
739 284
740 285
741 286
742 287
743 287
744 287
745 287
746 287
747 287
748 287
749 287
750 287
751 287
752 287
752 286
752 285
752 284
752 283
752 282
752 281
752 280
752 279
751 278
751 277
750 276
750 275
750 274
750 273
749 272
748 271
747 271
746 271
745 271
744 270
743 270
742 270
741 270
740 270
739 270
738 270
737 270
736 270
735 270
734 270
733 270
732 269
731 269
730 269
729 269
728 269
727 269
726 269
725 269
724 269
723 269
722 269
721 269
720 269
719 270
718 270
717 270
716 270
715 270
714 270
713 270
712 270
711 270
710 270
709 270
708 270
707 270
706 270
705 270
704 270
703 270
702 270
701 270
700 270
699 270
698 270
697 270
696 270
695 270
694 270
693 270
692 270
691 270
690 270
689 270
688 270
687 270
686 270
685 270
684 270
683 270
682 270
681 270
680 270
679 270
678 270
677 270
676 270
675 270
674 270
673 270
672 270
671 270
670 270
669 270
668 270
667 270
666 270
665 270
664 270
663 270
662 270
661 270
660 270
659 270
658 270
657 270
656 270
655 270
654 270
653 270
652 270
651 270
650 269
649 269
648 269
647 269
646 269
645 268
644 268
643 267
642 267
641 266
640 266
639 265
638 265
637 264
636 264
635 263
634 263
633 262
632 262
631 261
630 260
629 260
628 259
627 258
626 257
625 257
624 256
623 255
622 254
621 254
620 253
619 252
618 251
617 250
616 249
615 248
614 247
613 246
612 245
611 244
610 243
609 242
608 241
607 240
606 239
605 238
604 237
603 236
602 235
601 234
600 233
599 232
598 231
597 230
596 229
595 228
594 227
593 226
592 225
591 224
590 223
589 222
588 221
587 220
586 219
586 218
585 217
584 216
583 215
582 214
581 213
580 212
579 211
578 210
577 209
576 208
575 207
574 206
573 205
572 204
571 203
570 202
569 201
568 200
567 199
566 198
565 197
564 196
563 195
562 195
561 194
560 193
560 192
559 191
558 190
557 189
556 189
555 188
554 187
553 186
552 186
551 185
550 184
549 184
548 183
547 182
546 181
545 181
544 180
543 179
542 179
541 178
540 177
539 177
538 176
537 176
536 175
535 174
534 173
533 173
532 172
531 172
530 171
529 170
528 170
527 169
526 168
525 167
524 166
523 166
522 165
521 164
520 163
519 163
518 162
517 161
516 161
515 160
514 159
513 158
512 157
511 157
510 156
509 155
508 154
507 153
506 152
505 152
504 151
503 151
502 150
501 150
500 149
499 149
498 148
497 147
496 146
496 145
495 144
494 143
493 142
492 142
491 141
490 141
489 140
488 140
487 139
486 139
485 139
484 139
483 139
482 139
481 139
480 138
479 138
478 138
477 137
476 137
475 137
474 137
473 137
472 137
471 137
470 137
469 137
468 137
467 136
466 136
465 135
464 135
463 134
462 134
461 134
460 133
459 133
458 132
457 132
456 131
455 131
454 130
453 129
452 129
451 128
450 127
449 126
448 125
447 125
446 124
445 124
444 123
443 123
442 122
441 122
440 121
439 121
438 120
437 120
436 120
435 119
434 119
433 119
432 118
431 118
430 118
429 117
428 117
427 117
426 117
425 117
424 117
423 116
422 116
421 115
420 115
419 114
418 114
417 113
416 113
415 112
414 112
413 112
412 112
411 111
410 111
409 110
408 110
407 110
406 109
405 109
404 109
403 109
402 109
401 109
400 109
399 109
398 109
397 108
396 108
395 107
394 107
393 107
392 107
391 107
390 107
389 106
388 106
387 106
386 106
385 106
384 106
383 106
382 106
381 106
380 106
379 106
378 106
377 106
376 105
375 105
374 104
373 104
372 104
371 104
370 104
369 103
368 103
367 103
366 103
365 102
364 102
363 102
362 102
361 101
360 101
359 101
358 100
357 100
356 100
355 100
354 100
353 100
352 100
351 100
350 100
349 100
348 100
347 100
346 100
345 99
344 99
343 99
342 99
341 99
340 98
339 98
338 98
337 98
336 98
335 98
334 98
333 98
332 98
331 98
330 98
329 98
328 98
327 98
326 98
325 98
324 98
323 98
322 98
321 99
320 99
319 99
318 99
317 99
316 98
315 98
314 97
313 97
312 97
311 97
310 97
309 97
308 97
307 97
306 97
305 97
304 97
303 97
302 97
301 97
300 97
299 97
298 97
297 97
296 98
295 98
294 98
293 98
292 98
291 98
290 98
289 98
288 98
287 98
286 98
285 98
284 98
283 98
282 98
281 98
280 98
279 98
278 99
277 99
276 100
275 100
274 99
273 99
272 99
271 99
270 99
269 99
268 99
267 99
266 99
265 99
264 99
263 99
262 99
261 99
260 99
259 99
258 99
257 99
256 99
255 99
254 99
253 99
252 99
251 99
250 99
249 99
248 100
247 100
246 100
245 100
244 100
243 100
242 100
241 100
240 101
239 101
238 101
237 101
236 101
236 102
235 103
235 104
234 105
233 105
232 106
231 106
230 107
229 107
228 107
227 107
226 107
225 107
224 107
223 107
222 107
221 107
220 107
219 107
218 107
218 108
217 109
217 110
216 111
215 111
214 112
213 112
212 113
211 113
210 113
209 113
208 113
207 113
206 113
205 114
204 114
203 115
202 115
201 116
200 116
199 116
198 116
197 116
196 117
195 117
195 118
195 119
195 120
194 121
194 122
193 123
193 124
192 125
191 125
190 126
189 126
188 127
187 127
186 127
185 127
184 127
183 127
182 127
181 128
180 128
179 128
178 128
178 129
177 130
177 131
176 132
176 133
175 134
174 134
173 135
172 135
171 136
170 136
169 136
168 136
167 137
166 138
165 139
164 139
163 140
162 141
161 141
160 142
159 143
159 144
159 145
159 146
159 147
158 148
158 149
157 150
157 151
156 152
155 152
154 153
153 153
152 154
151 154
150 154
149 154
148 154
147 154
146 154
145 155
144 155
143 156
142 156
141 156
140 156
139 156
138 157
138 158
138 159
138 160
138 161
138 162
137 163
137 164
136 165
135 166
134 167
133 167
132 168
131 168
130 169
129 170
128 170
127 171
126 171
125 172
124 172
123 173
122 173
121 173
120 173
119 174
119 175
119 176
119 177
119 178
119 179
119 180
119 181
119 182
119 183
120 184
120 185
120 186
119 187
119 188
118 189
117 190
116 191
115 191
114 192
113 192
112 192
111 193
110 193
109 193
108 194
107 195
107 196
106 197
105 198
104 198
103 199
102 199
101 200
100 200
99 200
99 201
99 202
99 203
99 204
99 205
99 206
99 207
99 208
100 209
101 210
101 211
102 212
102 213
102 214
102 215
101 216
100 217
99 217
98 218
97 218
96 219
95 219
94 220
94 221
93 222
92 223
91 224
90 224
89 225
88 225
87 226
86 226
85 227
85 228
85 229
85 230
85 231
85 232
85 233
86 234
87 235
88 236
89 237
90 238
90 239
91 240
91 241
91 242
90 243
89 244
88 245
87 245
86 246
85 246
84 247
84 248
84 249
84 250
84 251
84 252
84 253
84 254
85 255
86 256
87 257
87 258
88 259
88 260
88 261
88 262
87 263
87 264
86 265
85 266
84 267
84 268
84 269
84 270
84 271
84 272
84 273
84 274
85 275
85 276
86 277
86 278
86 279
85 280
85 281
84 282
83 283
83 284
83 285
83 286
83 287
83 288
83 289
83 290
84 291
83 292
83 293
82 294
