101 250
101 251
101 252
101 253
101 254
101 255
101 256
101 257
101 258
101 259
101 260
101 261
101 262
101 263
101 264
102 265
102 266
103 267
104 268
105 269
106 270
106 271
107 272
108 273
109 274
110 275
110 276
111 277
111 278
112 279
112 280
113 281
113 282
113 283
114 284
115 285
115 286
116 287
116 288
117 289
118 290
119 291
119 292
120 293
121 294
121 295
122 296
122 297
123 298
123 299
124 300
124 301
125 302
126 302
127 303
128 304
129 305
130 306
131 307
132 307
133 308
134 309
134 310
135 311
135 312
136 313
136 314
137 315
137 316
137 317
138 318
138 319
138 320
138 321
138 322
138 323
138 324
139 325
139 326
140 327
141 328
142 329
143 330
143 331
144 332
145 333
146 334
147 335
148 336
149 336
150 337
151 337
152 338
153 338
154 339
155 340
156 341
156 342
157 343
157 344
158 344
159 344
160 345
161 345
162 345
163 345
164 345
165 345
166 346
167 346
168 346
169 346
170 346
171 346
172 346
173 346
174 347
175 347
176 347
177 347
178 347
179 347
180 347
181 348
182 348
183 349
184 349
185 350
186 351
187 352
188 352
189 352
190 352
191 352
192 352
193 352
194 352
195 352
196 352
197 352
198 352
199 352
200 352
201 352
202 352
203 352
204 351
205 351
206 351
207 351
208 351
209 351
210 351
211 351
212 351
213 351
214 351
215 351
216 351
217 351
218 352
219 352
220 352
221 352
222 352
223 352
224 353
225 353
226 354
227 354
228 355
229 356
229 357
230 358
230 359
229 360
229 361
228 362
228 363
228 364
227 365
227 366
226 367
226 368
226 369
225 370
225 371
224 372
224 373
224 374
223 375
223 376
222 377
222 378
221 379
221 380
221 381
221 382
221 383
221 384
221 385
221 386
221 387
221 388
221 389
221 390
221 391
221 392
221 393
222 394
222 395
223 396
223 397
224 398
224 399
225 400
225 401
226 402
226 403
226 404
226 405
226 406
226 407
226 408
226 409
225 410
225 411
225 412
225 413
225 414
225 415
225 416
225 417
225 418
225 419
225 420
225 421
225 422
225 423
225 424
225 425
226 426
226 427
227 428
227 429
228 430
228 431
228 432
228 433
228 434
228 435
228 436
228 437
228 438
228 439
229 439
230 440
231 440
232 440
233 441
234 441
235 442
236 442
237 443
237 444
238 445
239 445
240 445
241 446
242 446
243 446
244 446
245 447
246 447
247 447
248 448
249 448
250 449
251 449
252 450
252 451
253 452
253 453
254 454
255 454
256 454
257 454
258 454
259 454
260 454
261 454
262 454
263 454
264 454
265 454
266 453
267 453
268 453
269 453
270 453
271 453
272 453
273 453
274 453
275 453
276 453
277 453
278 453
279 453
280 453
281 453
282 453
283 452
284 452
285 452
286 451
287 451
288 450
289 450
290 451
291 451
292 452
293 452
294 453
295 454
296 455
297 456
297 457
298 458
299 459
300 460
301 461
302 461
303 461
304 461
305 461
306 461
307 461
308 461
309 461
310 461
311 461
312 461
313 461
314 461
315 461
316 460
317 460
318 460
319 460
320 460
321 460
322 460
323 460
324 460
325 460
326 460
327 460
328 460
329 460
330 460
331 459
332 459
333 459
334 458
335 457
336 456
337 456
338 455
339 455
340 454
341 454
342 453
343 453
344 452
345 452
346 452
347 452
348 451
349 451
350 450
351 449
352 448
353 448
354 447
355 447
356 446
357 445
358 445
359 444
360 444
361 443
362 442
363 442
364 441
365 441
366 440
367 440
368 439
369 439
370 438
371 438
372 437
373 437
374 436
375 436
376 435
377 436
378 436
379 437
380 437
381 438
382 438
383 438
384 439
385 439
386 440
387 440
388 441
389 441
390 442
391 442
392 442
393 442
394 442
395 442
396 442
397 442
398 442
399 442
400 442
401 442
402 442
403 442
404 441
405 441
406 440
407 440
408 439
409 439
410 438
411 437
412 436
413 436
414 435
415 434
416 434
417 433
418 433
419 432
420 432
421 431
422 431
423 430
424 429
425 428
426 427
427 426
428 425
429 424
430 423
431 422
432 421
432 420
433 419
434 418
434 417
435 416
435 415
436 414
437 413
438 413
439 412
440 412
441 411
442 411
443 411
444 411
445 410
446 409
447 408
447 407
447 406
448 405
448 404
448 403
448 402
449 401
449 400
449 399
449 398
450 397
450 396
450 395
450 394
450 393
450 392
450 391
451 390
451 389
451 388
451 387
451 386
451 385
451 384
451 383
451 382
451 381
451 380
451 379
451 378
451 377
451 376
451 375
452 374
452 373
453 372
453 371
454 370
455 369
456 368
457 367
458 366
459 365
460 365
461 364
462 364
462 363
463 362
463 361
463 360
463 359
463 358
464 357
464 356
464 355
464 354
464 353
464 352
464 351
464 350
464 349
464 348
464 347
464 346
464 345
464 344
464 343
463 342
463 341
463 340
463 339
463 338
463 337
463 336
463 335
462 334
462 333
462 332
462 331
462 330
462 329
462 328
462 327
462 326
462 325
462 324
462 323
462 322
461 321
461 320
461 319
461 318
461 317
460 316
460 315
460 314
460 313
459 312
459 311
459 310
459 309
459 308
458 307
458 306
458 305
458 304
458 303
458 302
457 301
457 300
457 299
457 298
457 297
457 296
457 295
457 294
457 293
458 292
459 291
460 290
461 290
462 289
463 289
464 288
465 288
466 287
467 287
468 287
469 286
470 286
471 286
472 286
473 285
474 285
475 285
476 285
477 284
478 284
479 284
480 284
481 283
482 283
483 283
484 283
485 282
486 282
487 282
488 281
489 281
490 281
491 281
492 281
493 281
494 280
495 280
496 280
497 279
498 279
499 279
500 279
501 278
502 278
503 278
504 277
505 277
506 277
507 277
508 277
509 277
510 276
511 276
512 276
513 276
514 275
515 275
516 275
517 275
518 274
519 274
520 274
521 274
522 274
523 273
524 273
525 273
526 273
527 273
528 272
529 272
530 272
531 272
532 272
533 272
534 271
535 271
536 271
537 271
538 271
539 270
540 270
541 270
542 270
543 270
544 269
545 269
546 269
547 269
548 269
549 269
550 268
551 268
552 268
553 268
554 268
555 268
556 267
557 267
558 267
559 267
560 267
561 267
562 266
563 266
564 266
565 266
566 266
567 266
568 266
569 266
570 265
571 265
572 265
573 265
574 265
575 265
576 265
577 265
578 265
579 265
580 265
581 264
582 264
583 264
584 264
585 264
586 264
587 263
588 263
589 263
590 263
591 263
592 263
593 263
594 263
595 263
596 263
597 263
598 263
599 263
600 263
601 263
602 262
603 262
604 262
605 262
606 262
607 262
608 262
609 262
610 262
611 262
612 262
613 262
614 262
615 262
616 262
617 262
618 262
619 262
620 262
621 262
622 262
623 262
624 262
625 262
626 262
627 262
628 263
629 263
630 263
631 263
632 264
633 264
634 264
635 265
636 265
637 266
638 266
639 266
640 266
641 266
642 266
643 266
644 266
645 266
646 266
647 266
648 266
648 265
648 264
648 263
648 262
648 261
648 260
648 259
648 258
648 257
647 257
646 257
645 257
644 257
643 257
642 257
641 257
640 257
639 257
638 257
637 257
636 257
635 257
634 257
633 257
632 257
631 257
630 257
629 257
628 257
627 257
626 257
625 257
624 257
623 257
622 257
621 257
620 257
619 258
618 258
617 258
616 258
615 258
614 258
613 258
612 258
611 258
610 258
609 258
608 258
607 258
606 258
605 258
604 258
603 258
602 258
601 258
600 258
599 258
598 258
597 258
596 259
595 259
594 259
593 259
592 259
591 259
590 259
589 259
588 259
587 259
586 259
585 259
584 259
583 259
582 260
581 260
580 260
579 260
578 260
577 260
576 260
575 260
574 260
573 260
572 260
571 260
570 261
569 261
568 261
567 261
566 261
565 261
564 262
563 262
562 262
561 262
560 262
559 262
558 262
557 262
556 262
555 262
554 263
553 263
552 263
551 263
550 263
549 263
548 263
547 264
546 264
545 264
544 264
543 264
542 264
541 264
540 265
539 265
538 265
537 265
536 265
535 266
534 266
533 266
532 266
531 266
530 266
529 267
528 267
527 267
526 267
525 267
524 268
523 268
522 268
521 268
520 268
519 268
518 269
517 269
516 269
515 269
514 269
513 270
512 270
511 270
510 270
509 270
508 271
507 271
506 271
505 271
504 271
503 272
502 272
501 272
500 272
499 272
498 272
497 273
496 273
495 273
494 273
493 274
492 274
491 274
490 274
489 274
488 275
487 275
486 275
485 275
484 276
483 276
482 276
481 276
480 276
479 277
478 277
477 277
476 277
475 278
474 278
473 278
472 278
471 278
470 278
469 277
468 277
467 276
466 275
466 274
465 273
465 272
465 271
466 270
466 269
466 268
467 267
467 266
467 265
467 264
468 263
468 262
468 261
468 260
468 259
468 258
468 257
469 256
469 255
470 254
470 253
471 252
471 251
472 250
472 249
473 248
473 247
473 246
474 245
474 244
474 243
474 242
474 241
474 240
474 239
474 238
475 237
475 236
476 235
476 234
477 233
477 232
478 231
479 230
479 229
480 228
481 227
481 226
482 225
482 224
482 223
483 222
483 221
483 220
483 219
484 218
484 217
484 216
484 215
484 214
484 213
485 212
485 211
485 210
485 209
485 208
485 207
485 206
485 205
485 204
485 203
485 202
485 201
485 200
485 199
485 198
484 198
483 197
482 196
481 195
481 194
480 193
480 192
479 191
479 190
478 189
478 188
477 187
477 186
477 185
477 184
477 183
477 182
477 181
477 180
476 179
476 178
476 177
476 176
476 175
476 174
476 173
476 172
476 171
475 170
475 169
475 168
475 167
474 166
474 165
474 164
474 163
473 162
473 161
473 160
472 159
472 158
472 157
471 156
471 155
471 154
470 153
470 152
469 151
469 150
468 149
468 148
467 147
467 146
466 145
466 144
466 143
465 142
465 141
464 140
463 139
463 138
462 137
462 136
461 136
460 136
459 135
458 135
457 134
456 134
455 133
454 132
453 131
452 130
452 129
451 128
450 127
450 126
449 125
449 124
448 123
447 122
446 121
445 120
445 119
444 118
443 117
442 116
441 115
440 114
439 113
438 112
437 112
436 112
435 111
434 111
433 110
432 110
431 109
430 109
429 108
428 108
427 107
426 107
425 107
424 106
423 106
422 105
421 105
420 104
419 104
418 104
417 104
416 104
415 104
414 104
413 104
412 104
411 104
410 104
409 104
408 104
407 104
406 104
405 104
404 104
403 104
402 104
401 104
400 104
399 104
398 104
397 104
396 104
395 104
394 104
393 103
392 103
391 102
390 102
389 101
388 101
387 100
386 99
385 98
384 97
383 96
382 95
381 94
380 93
379 92
378 92
377 91
376 90
375 89
374 88
373 87
372 86
371 85
370 84
369 83
368 82
367 81
367 80
366 79
365 78
364 77
363 77
362 76
361 75
360 74
359 73
358 72
357 71
356 71
355 70
354 69
353 69
352 68
351 68
350 68
349 68
348 67
347 67
346 66
345 66
344 65
343 65
342 64
341 63
340 62
339 61
338 60
337 59
336 58
335 58
334 57
333 56
332 56
331 55
330 55
329 54
328 54
327 54
326 54
325 54
324 54
323 54
322 53
321 53
320 53
319 52
318 52
317 52
316 52
315 52
314 52
313 52
312 51
311 51
310 51
309 51
308 51
307 51
306 51
305 51
304 51
303 51
302 51
301 51
300 51
299 51
298 51
297 52
296 53
295 53
294 54
293 55
292 55
291 56
290 56
289 57
288 57
287 58
286 58
285 59
284 59
283 59
282 59
281 59
280 59
279 59
278 59
277 59
276 59
275 59
274 59
273 59
272 59
271 59
270 59
269 59
268 59
267 59
266 59
265 60
264 60
263 60
262 60
261 60
260 61
259 61
258 61
257 62
256 62
255 63
254 63
253 64
252 64
251 65
250 65
249 66
248 66
247 67
246 67
245 68
244 68
243 69
242 69
241 69
240 69
239 70
238 70
237 70
236 70
235 70
234 70
233 71
232 71
231 72
230 72
229 73
228 74
227 75
226 76
226 77
226 78
226 79
226 80
226 81
225 82
225 83
224 84
224 85
223 86
223 87
222 88
222 89
222 90
222 91
222 92
222 93
222 94
222 95
222 96
222 97
222 98
222 99
222 100
222 101
222 102
222 103
222 104
222 105
221 106
221 107
220 108
220 109
219 110
219 111
218 112
217 113
216 114
216 115
216 116
216 117
216 118
216 119
216 120
216 121
216 122
216 123
216 124
216 125
216 126
216 127
216 128
216 129
216 130
216 131
217 132
217 133
217 134
217 135
218 136
218 137
218 138
218 139
219 140
219 141
219 142
219 143
220 144
220 145
221 146
221 147
222 148
222 149
223 150
223 151
224 152
224 153
223 154
223 155
222 156
222 157
221 158
220 158
219 159
218 159
217 160
216 160
215 161
214 161
213 161
212 161
211 161
210 161
209 162
208 162
207 162
206 162
205 162
204 162
203 162
202 162
201 162
200 162
199 162
198 162
197 162
196 162
195 162
194 162
193 162
192 162
191 162
190 162
189 162
188 162
187 162
186 162
185 163
184 164
183 164
182 165
181 165
180 166
179 166
178 167
177 167
176 167
175 167
174 167
173 167
172 168
171 168
170 168
169 168
168 169
167 169
166 169
165 169
164 170
163 170
162 170
161 170
160 171
159 171
158 172
157 172
156 172
155 173
154 173
153 173
152 174
152 175
152 176
152 177
152 178
152 179
152 180
152 181
152 182
152 183
152 184
152 185
152 186
152 187
152 188
152 189
152 190
152 191
152 192
151 193
151 194
150 195
150 196
149 197
148 198
147 198
146 199
145 199
144 200
143 201
142 202
141 203
140 204
139 205
138 206
137 207
136 208
135 208
134 209
133 210
132 211
131 212
130 213
129 213
128 214
127 215
126 215
125 216
124 217
123 218
122 219
121 220
121 221
120 222
119 223
119 224
119 225
118 226
118 227
117 228
117 229
116 230
116 231
115 232
115 233
114 234
114 235
113 236
112 237
111 238
110 239
109 240
108 241
107 242
106 243
106 244
105 245
105 246
104 247
103 248
102 249
101 250
