389 111
388 112
388 113
388 114
387 115
386 116
386 117
385 118
385 119
384 120
384 121
384 122
383 123
383 124
382 125
382 126
382 127
381 128
380 128
379 128
378 127
377 127
376 126
375 125
374 125
373 125
372 124
371 124
370 123
369 123
368 123
367 122
366 122
365 122
364 122
363 122
362 121
361 121
360 121
359 121
358 121
357 121
356 121
355 121
354 120
353 120
352 120
351 120
350 120
349 120
348 120
347 120
346 120
345 120
344 120
343 120
342 120
341 121
340 121
339 121
338 121
337 121
336 121
335 121
334 122
333 122
332 122
331 122
330 122
329 122
328 123
327 123
326 123
325 123
324 124
324 125
324 126
325 127
325 128
326 129
326 130
327 131
327 132
327 133
328 134
328 135
328 136
329 137
329 138
329 139
330 140
330 141
330 142
331 143
331 144
331 145
331 146
332 147
332 148
332 149
332 150
332 151
333 152
333 153
333 154
334 155
334 156
334 157
335 158
335 159
335 160
335 161
335 162
336 163
336 164
337 165
338 166
338 167
339 168
339 169
340 170
340 171
341 172
341 173
341 174
342 175
342 176
343 177
343 178
344 179
345 180
345 181
346 182
346 183
347 184
348 185
349 186
349 187
350 188
351 189
352 190
352 191
353 192
354 193
355 194
355 195
356 196
357 197
357 198
358 198
359 199
359 200
359 201
359 202
360 201
361 202
362 202
363 203
363 204
363 205
363 206
364 207
365 208
366 209
367 210
368 211
369 212
370 213
370 214
371 215
372 216
373 217
374 218
374 219
375 220
376 221
377 222
377 223
378 224
379 225
379 226
380 227
381 228
382 229
382 230
383 231
383 232
384 233
384 234
385 235
386 236
386 237
387 238
388 239
389 240
389 241
390 242
391 243
391 244
392 245
393 246
393 247
394 248
395 249
396 250
397 251
397 252
398 253
399 254
400 255
400 256
401 257
402 258
402 259
403 260
404 261
405 262
405 263
406 264
406 265
407 266
408 267
409 268
409 269
410 270
410 271
411 272
412 273
412 274
413 275
413 276
414 277
415 278
416 279
416 280
417 281
417 282
418 283
418 284
419 285
420 286
421 287
421 288
421 289
422 290
423 291
424 292
424 293
425 294
426 295
427 296
427 297
428 298
429 299
429 300
430 301
430 302
431 303
430 304
429 305
428 306
427 306
426 305
425 305
424 305
423 305
422 305
421 305
420 304
419 304
418 304
417 304
416 304
415 304
414 303
413 302
412 302
411 302
410 302
409 302
408 302
407 301
406 301
405 301
404 301
403 301
402 300
401 300
400 300
399 300
398 300
397 299
396 299
395 299
394 298
393 298
392 298
391 298
390 297
389 297
388 297
387 297
386 296
385 296
384 296
383 296
382 295
381 295
380 295
379 295
378 295
377 294
376 294
375 293
374 293
373 293
372 293
371 293
370 292
369 292
368 292
367 291
366 291
365 291
364 290
363 290
362 290
361 289
360 288
359 288
358 287
357 287
356 286
355 286
354 286
353 285
352 285
351 285
350 284
349 284
348 283
347 283
346 283
345 282
344 282
343 281
342 281
341 281
340 281
339 280
338 280
337 279
336 279
335 279
334 278
333 278
332 278
331 277
330 277
329 276
328 276
327 276
326 276
325 275
324 275
323 275
322 274
321 274
320 274
319 273
318 273
317 272
316 272
315 272
314 271
313 271
312 271
311 270
310 270
309 269
308 269
307 269
306 269
305 268
304 268
303 268
302 267
301 267
300 267
299 266
298 266
297 266
296 266
295 265
294 265
293 265
292 264
291 264
290 264
289 263
288 263
287 263
286 262
285 262
284 261
283 261
282 261
281 261
280 261
279 260
278 260
277 260
276 259
275 259
274 259
273 259
272 259
271 258
270 258
269 257
268 257
267 256
266 256
265 256
264 255
263 255
262 254
261 254
260 253
259 253
258 252
257 252
256 252
255 251
254 251
253 250
252 250
251 249
250 249
249 249
248 249
247 248
246 247
245 247
244 247
243 246
242 246
241 246
240 245
239 245
238 245
237 245
236 244
235 244
234 244
233 244
232 243
231 243
230 243
229 242
228 242
227 242
226 242
225 242
224 242
223 241
222 241
221 241
220 241
219 240
218 240
217 240
216 240
215 239
214 239
213 239
212 239
211 239
210 238
209 238
208 238
207 237
206 237
205 237
204 237
203 237
202 237
201 237
200 237
199 237
198 237
197 236
196 236
195 236
194 236
193 236
192 236
191 236
190 236
189 235
188 235
187 235
186 235
185 235
184 235
183 235
182 235
181 234
180 234
179 234
178 234
177 234
176 234
175 234
174 234
173 234
172 234
171 234
170 233
169 233
168 233
167 233
166 233
165 233
164 233
163 233
162 233
161 233
160 233
159 233
158 233
157 233
156 234
155 234
155 235
155 236
155 237
155 238
155 239
155 240
154 241
153 242
152 242
151 242
150 242
149 242
148 242
147 242
146 242
145 242
144 242
143 243
142 243
141 243
140 244
139 244
138 245
137 245
136 246
135 246
134 247
133 248
132 248
131 249
130 249
129 250
128 250
127 250
126 251
125 251
125 252
125 253
126 254
126 255
127 256
128 257
129 258
129 259
130 260
130 261
131 262
132 263
133 264
133 265
134 266
135 267
135 268
136 269
137 270
138 271
139 272
140 273
141 274
141 275
142 275
143 276
143 277
144 277
145 278
146 279
147 280
147 281
148 282
149 283
150 284
151 284
152 285
153 286
154 287
155 288
156 289
157 289
158 290
159 291
160 292
161 292
162 293
163 294
164 294
165 295
166 296
167 296
168 297
169 298
170 298
171 299
172 300
171 301
170 301
169 302
168 302
167 302
166 302
165 302
164 302
163 302
162 302
161 302
160 301
159 302
158 301
157 301
156 301
155 301
154 301
153 301
152 301
151 301
150 301
149 301
148 301
147 301
146 301
145 301
144 302
143 302
142 302
141 302
140 302
139 302
138 302
137 302
136 302
135 302
134 302
133 302
132 302
131 302
130 302
129 302
128 303
127 303
126 303
125 303
124 303
123 303
122 304
121 304
120 304
119 304
118 304
117 304
116 305
115 305
114 305
113 305
112 306
111 306
110 307
109 307
108 307
107 308
106 308
105 309
104 309
103 309
102 310
101 310
100 311
99 311
98 312
97 313
96 314
95 315
94 315
93 316
92 317
91 318
90 319
90 320
89 321
88 322
87 323
87 324
86 325
86 326
85 327
85 328
85 329
85 330
85 331
85 332
86 333
86 334
87 335
88 335
89 336
90 336
91 336
92 335
93 335
94 334
95 333
96 332
97 331
98 330
99 330
100 329
101 329
102 328
103 328
104 328
105 327
106 327
107 326
108 326
109 326
110 326
111 325
112 325
113 325
114 324
115 324
116 324
117 324
118 324
119 324
120 324
121 324
122 324
123 325
124 325
125 325
126 325
127 325
128 325
129 325
130 325
131 326
132 326
133 326
134 327
135 327
136 327
137 328
138 328
139 328
140 328
141 329
142 329
143 329
144 330
145 331
146 332
147 333
148 333
149 334
149 335
150 336
151 337
151 338
152 339
153 340
153 341
153 342
154 343
155 344
156 345
156 346
156 347
157 348
156 349
155 350
155 351
155 352
154 353
154 354
153 355
153 356
152 357
152 358
152 359
151 360
151 361
150 362
149 363
148 364
148 365
148 366
149 367
149 368
148 369
148 370
148 371
148 372
148 373
148 374
148 375
147 376
146 377
145 378
145 379
144 380
143 381
142 382
141 383
140 384
139 385
139 386
139 387
138 388
138 389
138 390
138 391
138 392
137 393
137 394
137 395
137 396
137 397
138 398
139 399
140 400
141 400
142 400
143 400
144 400
145 400
146 400
147 401
148 401
149 401
150 401
151 401
152 401
153 401
154 401
155 401
156 401
157 401
158 401
159 401
160 401
161 401
162 401
163 401
164 400
165 400
166 400
167 400
168 400
169 400
170 400
171 400
172 399
173 399
174 399
175 399
176 399
177 398
178 398
179 398
180 397
181 397
182 397
183 397
184 397
185 396
186 396
187 396
188 396
189 396
190 395
191 395
192 395
193 395
194 395
195 395
196 394
197 394
198 394
199 394
200 394
201 393
202 393
203 393
204 393
205 393
206 392
207 392
208 392
209 392
210 392
211 392
212 392
213 392
214 391
215 391
216 391
217 391
218 392
218 393
217 394
216 395
215 395
214 396
213 396
212 397
211 398
210 399
209 399
208 400
207 401
206 401
205 402
204 402
203 403
202 404
201 404
200 405
199 406
198 406
197 407
196 407
195 407
194 408
193 409
192 409
191 410
190 411
189 411
188 411
187 412
186 413
185 413
184 414
183 415
182 415
181 416
180 417
179 417
178 418
177 419
176 420
175 420
174 421
173 422
172 423
171 424
170 425
169 426
168 427
167 428
166 429
165 430
164 431
163 432
162 433
162 434
161 435
160 436
160 437
159 438
158 439
158 440
157 441
157 442
156 443
155 444
155 445
154 446
154 447
154 448
153 449
153 450
152 451
152 452
151 453
151 454
151 455
150 456
150 457
149 458
149 459
148 460
148 461
147 462
147 463
147 464
147 465
148 466
149 466
150 466
151 467
152 467
153 467
154 467
155 467
156 467
157 468
158 468
159 468
160 469
161 469
162 470
163 471
164 472
165 473
166 473
167 473
168 473
169 474
170 474
171 474
172 474
173 474
174 474
175 474
176 474
177 474
178 474
179 474
180 474
181 474
182 474
183 474
184 473
185 473
186 473
187 473
188 473
189 473
190 473
191 472
192 472
193 472
194 472
195 472
196 472
197 472
198 472
199 472
200 472
201 471
202 471
203 471
204 471
205 471
206 471
207 471
208 471
209 471
210 470
211 470
212 470
213 470
214 470
215 470
216 470
217 470
218 470
219 470
220 470
221 469
222 469
223 469
224 469
225 468
226 468
227 468
228 467
229 467
230 467
231 467
232 466
233 466
234 465
235 465
236 465
237 464
238 464
239 464
240 463
241 462
242 462
243 462
244 461
245 461
246 460
247 460
248 460
249 459
250 459
251 458
252 458
253 457
254 457
255 456
256 456
257 455
258 455
259 455
260 454
261 454
262 453
263 453
264 452
265 452
266 451
267 451
268 450
269 450
270 449
271 448
272 448
273 447
274 447
275 446
276 445
277 445
278 444
279 444
280 444
281 443
282 443
283 442
284 442
285 441
286 441
287 441
288 440
289 440
290 439
291 439
292 439
293 438
294 438
295 437
296 437
297 436
298 436
299 436
300 435
301 435
302 434
303 434
304 433
305 433
306 432
307 432
308 431
309 431
310 431
311 430
312 430
313 429
314 429
315 428
316 428
317 427
318 427
319 427
320 426
321 426
322 425
323 425
324 424
325 424
326 424
327 423
328 423
329 422
330 422
331 421
332 421
333 420
334 420
335 420
336 419
337 419
338 418
339 417
340 417
341 416
342 416
343 416
344 415
345 415
346 414
347 414
348 413
349 413
350 412
351 412
352 411
353 411
354 410
355 410
356 410
357 409
358 408
359 408
360 408
361 407
362 406
363 406
364 406
365 405
366 404
367 404
368 404
369 403
370 403
371 402
372 402
373 401
374 400
375 400
376 400
377 399
378 399
379 398
380 398
381 398
382 397
383 397
384 397
385 396
386 396
387 396
388 396
389 396
390 395
391 396
392 397
392 398
391 399
390 400
389 401
389 402
388 403
387 403
386 404
385 405
384 406
383 407
382 408
381 409
380 410
379 411
378 411
377 412
376 413
375 413
374 414
373 415
372 416
371 416
370 417
369 417
369 418
368 419
367 419
366 420
365 421
364 422
363 422
362 423
361 424
360 425
359 426
358 427
357 427
356 428
355 429
354 430
353 430
352 431
351 432
350 433
349 433
348 434
347 435
346 436
345 437
344 438
343 439
342 439
341 440
340 441
339 442
338 443
337 444
336 445
335 446
334 447
333 448
332 449
331 450
330 451
329 452
328 453
327 454
326 455
325 455
324 456
323 457
322 458
321 458
320 459
319 460
318 461
317 462
316 463
315 464
314 465
313 466
312 467
311 468
310 469
309 469
308 470
307 471
306 472
305 473
304 473
304 474
303 475
302 475
301 476
300 477
299 478
298 479
297 480
296 480
295 481
294 482
293 483
293 484
292 485
291 486
291 487
290 488
290 489
289 490
288 491
288 492
287 493
286 494
285 495
285 496
284 497
284 498
283 499
283 500
282 501
282 502
281 503
281 504
280 505
280 506
280 507
280 508
280 509
280 510
280 511
280 512
280 513
279 514
279 515
279 516
278 517
278 518
278 519
277 520
277 521
277 522
276 523
276 524
276 525
276 526
275 527
275 528
275 529
275 530
274 531
274 532
274 533
273 534
273 535
273 536
273 537
273 538
273 539
274 539
275 540
276 540
277 540
278 540
279 540
280 540
281 540
282 539
283 540
284 540
285 540
286 540
287 540
288 540
289 540
290 540
291 540
292 540
293 540
294 540
295 539
296 539
297 539
298 539
299 539
300 538
301 538
302 538
303 539
304 540
304 541
304 542
304 543
304 544
304 545
304 546
304 547
304 548
304 549
305 550
306 550
307 551
308 551
309 550
310 550
311 550
312 550
313 550
314 550
315 550
316 550
317 550
318 550
319 550
320 550
321 549
322 549
323 549
324 549
325 549
326 549
327 549
328 549
329 549
330 549
331 549
332 549
333 549
334 549
335 548
336 548
337 548
338 548
339 547
340 547
341 547
342 546
343 546
344 546
345 545
346 545
347 545
348 544
349 544
350 543
351 543
352 543
353 542
354 542
355 541
356 541
357 541
358 540
359 540
360 539
361 539
362 539
363 538
364 538
365 538
366 537
367 537
368 536
369 536
370 535
371 535
372 535
373 534
374 534
375 533
376 533
377 532
378 532
379 531
380 531
381 530
382 530
383 529
384 529
385 528
386 528
387 527
388 526
389 526
390 525
391 525
392 524
393 523
394 522
395 522
396 522
397 521
398 520
399 520
400 519
401 518
402 518
403 517
404 516
405 515
406 515
407 514
408 513
409 512
410 512
411 511
412 510
413 509
414 508
415 508
416 507
417 506
418 505
419 504
420 504
421 503
422 502
423 501
424 500
425 499
426 498
427 497
428 496
428 495
429 494
430 493
431 492
432 491
433 490
434 489
435 488
436 488
437 487
438 486
438 485
439 484
440 484
441 483
441 482
442 481
443 480
444 480
445 479
446 478
447 477
448 476
449 475
450 475
451 474
452 473
453 472
454 472
455 471
456 470
457 470
458 469
459 468
460 467
461 466
462 465
463 464
464 463
464 462
465 461
466 460
467 459
468 459
468 458
469 457
470 456
471 455
472 454
473 454
474 453
475 452
476 451
477 450
478 449
479 448
480 447
481 447
482 446
483 445
484 444
485 443
486 442
487 441
488 440
489 439
490 439
491 438
492 437
493 436
494 435
495 435
496 434
497 433
498 433
499 432
500 431
501 430
502 429
503 429
504 428
505 427
506 426
507 426
508 425
509 424
510 423
511 423
512 422
513 421
514 420
515 419
516 418
517 418
518 417
519 416
520 415
521 414
522 414
523 413
524 412
525 411
526 411
527 410
528 409
529 408
530 407
531 406
532 406
533 405
534 404
535 403
536 402
537 401
538 400
539 400
540 399
541 398
542 398
543 397
544 396
545 396
546 395
547 394
548 393
549 392
550 392
551 391
552 390
553 390
554 389
555 388
556 388
557 387
558 386
559 385
560 384
561 384
562 383
563 383
564 382
565 382
566 381
567 381
568 380
569 379
570 379
571 378
572 378
573 377
574 377
575 376
576 375
577 375
578 374
579 374
580 373
581 373
582 373
583 372
584 372
585 372
586 371
587 371
588 370
589 370
590 370
591 369
592 369
593 369
594 369
595 368
596 368
597 368
598 367
599 367
600 367
601 367
602 367
603 366
604 366
605 366
606 366
607 366
608 366
609 366
610 366
611 365
612 365
613 365
614 365
615 365
616 365
617 365
618 365
619 365
620 365
621 365
622 365
623 365
624 365
625 365
626 365
627 365
628 365
629 365
630 365
631 365
632 365
633 365
634 365
635 365
636 365
637 365
638 365
639 365
640 365
641 365
642 365
643 365
644 365
645 365
646 365
647 365
648 365
649 366
650 365
651 365
652 365
653 366
654 366
655 366
656 366
657 366
658 366
659 366
660 366
661 366
662 366
663 366
664 366
665 366
666 366
667 366
668 367
669 367
670 367
671 367
672 367
673 367
674 367
675 367
676 367
677 368
678 367
679 367
680 367
681 368
682 368
683 368
684 368
685 368
686 368
687 368
688 369
689 369
690 369
691 369
692 369
693 369
694 369
695 369
696 370
697 370
698 370
699 370
700 371
701 371
702 371
703 372
704 372
705 372
706 372
707 373
708 373
709 373
710 374
711 374
712 374
713 375
714 375
715 376
716 376
717 376
718 377
719 378
720 378
721 379
722 380
723 380
724 380
725 380
726 381
727 381
728 381
729 381
730 381
731 380
732 381
733 381
734 380
733 379
733 378
734 377
735 376
735 375
734 374
734 373
734 372
734 371
734 370
734 369
734 368
733 367
733 366
732 366
731 366
730 365
729 364
728 363
727 362
726 361
725 361
724 361
723 361
722 361
721 360
720 360
719 360
718 360
717 359
716 359
715 359
714 359
713 359
712 359
711 359
710 359
709 359
708 359
707 358
706 358
705 358
704 357
703 357
702 357
701 356
700 356
699 356
698 356
697 356
696 355
695 355
694 355
693 354
692 354
691 354
690 354
689 354
688 354
687 354
686 353
685 353
684 353
683 353
682 353
681 353
680 353
679 353
678 353
677 353
676 352
675 352
674 352
673 352
672 352
671 352
670 351
669 351
668 351
667 351
666 351
665 351
664 351
663 351
662 351
661 350
660 350
659 350
658 350
657 350
656 350
655 350
654 350
653 350
652 349
651 349
650 349
649 349
648 349
647 349
646 349
645 348
644 348
643 348
642 348
641 348
640 348
639 348
638 348
637 348
636 348
635 348
634 347
633 347
632 347
631 347
630 347
629 347
628 347
627 347
626 346
625 346
624 346
623 346
622 345
621 345
620 345
619 345
618 345
617 345
616 344
615 344
614 344
613 344
612 343
611 343
610 343
609 343
608 343
607 342
606 342
605 341
604 341
603 340
602 340
601 339
600 338
599 337
598 337
597 336
596 335
595 335
594 334
593 334
592 333
591 332
590 331
589 331
588 330
587 330
586 329
585 329
584 328
583 328
582 327
581 326
580 326
579 326
578 325
577 324
576 323
575 323
574 322
573 321
572 320
571 319
570 318
569 317
568 316
567 316
566 315
565 314
564 313
564 312
563 311
562 310
561 309
560 308
559 307
558 306
557 305
557 304
556 303
555 302
555 301
554 300
553 299
553 298
552 297
552 296
551 295
550 294
549 293
549 292
548 291
547 290
547 289
546 288
545 287
545 286
544 285
543 284
543 283
542 282
541 281
541 280
540 279
539 278
538 277
538 276
538 275
537 274
537 273
536 272
536 271
535 270
534 269
534 268
533 267
532 266
532 265
531 264
530 263
529 262
529 261
528 260
527 259
527 258
526 257
526 256
525 255
525 254
524 253
523 252
523 251
522 250
522 249
521 248
520 247
520 246
519 245
518 244
517 243
517 242
516 241
515 240
514 239
513 238
512 237
512 236
511 235
510 234
509 233
509 232
508 231
507 230
507 229
507 228
506 227
505 226
505 225
504 224
504 223
504 222
503 221
503 220
502 219
502 218
502 217
501 216
501 215
501 214
501 213
500 212
500 211
499 210
499 209
499 208
498 207
498 206
497 205
497 204
497 203
496 202
496 201
495 200
495 199
495 198
494 197
494 196
493 195
493 194
492 193
491 192
491 191
490 190
489 189
489 188
488 187
487 186
487 185
486 184
486 183
485 182
484 181
484 180
483 179
483 178
482 177
481 176
480 175
480 174
479 173
478 172
477 171
476 170
475 169
474 169
473 168
472 168
471 168
470 168
469 168
468 167
467 166
466 166
465 166
464 165
463 164
462 163
462 162
462 161
461 160
461 159
460 158
460 157
460 156
460 155
459 154
458 153
457 152
457 151
456 150
456 149
456 148
456 147
456 146
455 145
454 144
453 143
453 142
452 142
451 141
450 140
449 139
448 139
447 138
446 137
445 136
444 136
443 135
442 134
441 133
440 133
439 133
438 132
437 131
436 131
435 130
434 129
433 128
432 128
431 127
430 127
429 127
428 126
427 125
426 125
425 125
424 124
423 124
422 124
421 125
420 126
419 126
418 126
417 125
416 125
415 124
414 124
413 123
412 123
411 122
410 122
409 121
408 121
407 120
406 120
405 119
404 119
403 118
402 118
401 118
400 117
399 117
398 116
397 116
396 115
395 115
394 114
393 113
392 113
391 112
390 112
389 111
