193 41
192 42
191 42
190 42
189 42
188 42
187 42
186 43
185 43
184 43
183 43
182 43
181 43
180 43
179 44
178 44
177 44
176 44
175 44
174 45
173 45
172 45
171 45
170 45
169 45
168 46
167 46
166 46
165 46
164 47
163 47
162 47
161 47
160 48
159 48
158 48
157 49
156 49
155 49
154 50
153 50
152 50
151 51
150 51
149 52
148 52
147 52
146 53
145 53
144 53
143 54
142 54
141 55
140 55
139 56
138 56
137 57
136 57
135 57
134 58
133 59
132 59
131 60
130 60
129 61
128 61
127 62
126 63
125 63
124 63
123 64
122 65
121 65
120 66
119 66
118 67
117 67
116 68
115 68
114 69
113 70
112 70
111 71
110 71
109 72
108 73
107 73
106 74
105 74
104 75
103 76
102 77
101 78
100 78
99 79
98 79
97 80
96 81
95 82
94 83
93 83
92 84
91 85
90 86
89 87
88 88
87 89
86 90
85 91
84 92
83 93
82 94
81 95
81 96
80 97
79 97
79 98
78 99
77 100
76 101
75 102
75 103
74 104
73 105
73 106
72 107
72 108
71 109
71 110
70 111
69 112
69 113
68 114
68 115
68 116
67 117
67 118
66 119
66 120
65 121
65 122
65 123
65 124
64 125
64 126
64 127
64 128
63 129
63 130
63 131
63 132
62 133
62 134
62 135
62 136
61 137
61 138
61 139
61 140
61 141
61 142
61 143
61 144
60 145
60 146
60 147
60 148
60 149
60 150
60 151
59 152
59 153
59 154
59 155
59 156
58 157
58 158
58 159
58 160
57 161
57 162
57 163
56 164
56 165
56 166
56 167
56 168
57 169
57 170
57 171
57 172
57 173
57 174
57 175
57 176
57 177
57 178
57 179
57 180
57 181
57 182
57 183
57 184
57 185
58 186
58 187
58 188
58 189
58 190
58 191
59 192
59 193
59 194
60 195
60 196
60 197
60 198
61 199
61 200
61 201
61 202
62 203
62 204
63 205
63 206
63 207
64 208
64 209
65 210
65 211
65 212
66 213
66 214
66 215
66 216
67 217
67 218
68 219
68 220
69 221
70 222
70 223
71 224
72 225
73 226
73 227
74 228
75 229
76 229
77 230
77 231
78 232
79 233
80 234
81 235
82 236
83 237
84 238
85 239
86 240
87 241
88 242
89 242
90 243
91 244
92 245
93 246
94 246
95 247
96 248
97 249
98 250
99 250
100 251
101 252
102 252
103 253
104 253
105 254
106 255
107 256
108 256
109 257
110 257
111 258
112 259
113 260
114 261
115 262
116 262
117 262
118 263
119 264
120 264
121 265
122 266
123 266
124 267
125 268
126 268
127 269
128 269
129 270
130 270
131 270
132 271
133 271
134 272
135 272
136 272
137 273
138 273
139 273
140 274
141 274
142 274
143 274
144 274
145 275
146 275
147 275
148 275
149 275
150 275
151 275
152 275
153 275
154 275
155 275
156 275
157 275
158 275
159 275
160 275
161 275
162 275
163 275
164 275
165 275
166 275
167 275
168 275
169 275
170 275
171 275
172 275
173 275
174 275
175 275
176 275
177 276
178 276
179 276
180 276
181 276
182 276
183 276
184 276
185 276
186 276
187 276
188 276
189 276
190 276
191 276
192 277
193 277
194 277
195 277
196 277
197 277
198 278
199 278
200 278
201 278
202 278
203 278
204 278
205 279
206 279
207 279
208 279
209 279
210 279
211 279
212 279
213 279
214 279
215 280
216 280
217 280
218 280
219 280
220 280
221 280
222 280
223 280
224 280
225 280
226 280
227 280
228 280
229 280
230 280
231 280
232 280
233 280
234 280
235 280
236 280
237 280
238 280
239 280
240 280
241 280
242 280
243 280
244 280
245 280
246 280
247 281
248 281
249 281
250 281
251 281
252 281
253 281
254 281
255 281
256 281
257 281
258 281
259 281
260 281
261 281
262 281
263 280
264 280
265 280
266 280
267 279
268 279
269 279
270 279
271 278
272 278
273 277
274 277
275 276
276 276
277 275
278 275
279 274
280 274
281 273
282 273
283 272
284 272
285 271
286 271
287 270
288 270
289 269
290 268
291 268
292 267
293 267
294 266
295 266
296 266
297 265
298 265
299 264
300 264
301 264
302 264
303 263
304 263
305 263
306 262
307 262
308 262
309 261
310 261
311 261
312 261
313 260
314 260
315 260
316 259
317 259
318 259
319 259
320 258
321 258
322 258
323 257
324 257
325 257
326 257
327 256
328 256
329 256
330 256
331 255
332 255
333 255
334 254
335 254
336 254
337 253
338 253
339 253
340 253
341 252
342 252
343 252
344 252
345 252
346 251
347 251
348 251
349 251
350 251
351 250
352 250
353 250
354 250
355 250
356 250
357 250
358 250
359 249
360 249
361 249
362 249
363 249
364 249
365 249
366 249
367 249
368 249
369 249
370 249
371 249
372 248
373 248
374 248
375 248
376 248
377 248
378 248
379 247
380 247
381 247
382 247
383 246
384 246
385 246
386 245
387 245
388 245
389 245
390 245
391 244
392 244
393 244
394 243
395 243
396 243
397 243
398 242
399 242
400 242
401 241
402 241
403 241
404 241
405 241
406 240
407 240
408 240
409 240
410 239
411 239
412 239
413 239
414 239
415 238
416 238
417 238
418 238
419 238
420 237
421 237
422 237
423 237
424 237
425 236
426 236
427 236
428 236
429 236
430 235
431 235
432 235
433 235
434 234
435 234
436 234
437 234
438 234
439 234
440 234
441 233
442 233
443 233
444 233
445 233
446 233
447 232
448 232
449 232
450 232
451 232
452 232
453 232
454 231
455 231
456 231
457 231
458 231
459 231
460 231
461 231
462 230
463 230
464 230
465 230
466 229
467 229
468 229
469 229
470 229
471 229
472 229
473 228
474 228
475 228
476 228
477 227
478 227
479 227
480 227
481 227
482 226
483 226
484 226
485 226
486 226
487 226
488 226
489 226
490 225
491 225
492 225
493 225
494 225
495 225
496 224
497 224
498 224
499 224
500 224
501 224
502 224
503 224
504 223
505 223
506 223
507 223
508 223
509 223
510 223
511 222
512 222
513 222
514 222
515 222
516 222
517 222
518 222
519 222
520 221
521 221
522 221
523 221
524 221
525 221
526 220
527 220
528 220
529 220
530 220
531 220
532 219
533 219
534 219
535 219
536 219
537 219
538 218
539 218
540 218
541 218
542 218
543 218
544 218
545 217
546 217
547 217
548 217
549 217
550 216
551 216
552 216
553 216
554 216
555 216
556 216
557 215
558 215
559 215
560 215
561 215
562 214
563 214
564 214
565 214
566 214
567 213
568 213
569 213
570 213
571 213
572 213
573 213
574 213
575 212
576 212
577 212
578 212
579 212
580 212
581 212
582 211
583 211
584 211
585 211
586 211
587 211
588 210
589 210
590 210
591 210
592 210
593 210
594 209
595 209
596 209
597 209
598 209
599 208
600 208
601 208
602 208
603 208
604 207
605 207
606 207
607 207
608 207
609 206
610 206
611 206
612 206
613 205
614 205
615 205
616 205
617 205
618 204
619 204
620 204
621 204
622 203
623 203
624 203
625 202
626 202
627 202
628 202
629 201
630 201
631 201
632 201
633 200
634 200
635 200
636 200
637 199
638 199
639 199
640 199
641 198
642 198
643 198
644 198
645 198
646 197
647 197
648 197
649 197
650 197
651 196
652 196
653 196
654 196
655 196
656 196
657 195
658 195
659 195
660 195
661 195
662 195
663 195
664 195
665 195
666 195
667 195
668 195
669 195
670 195
671 195
672 195
673 195
674 195
675 195
676 195
677 195
678 195
679 195
680 195
681 196
682 196
683 196
684 196
685 196
686 196
687 196
688 196
689 196
690 196
691 196
692 197
693 197
694 197
695 197
696 197
697 197
698 197
699 197
700 198
701 198
702 198
703 198
704 198
705 198
706 199
707 199
708 199
709 199
710 199
711 199
712 199
713 200
714 200
715 200
716 200
717 200
718 201
719 201
720 201
721 201
722 201
723 202
724 202
725 202
726 202
727 202
728 202
729 203
730 203
731 203
732 203
733 203
734 204
735 204
736 204
737 204
738 204
739 205
740 205
741 205
742 205
743 206
744 206
745 206
746 207
747 207
748 207
749 208
750 208
751 208
752 209
753 209
754 209
755 210
756 210
757 210
758 210
759 210
760 210
761 210
762 210
763 210
764 209
765 209
766 208
767 208
768 207
769 207
770 206
771 205
772 204
772 203
773 202
773 201
773 200
772 199
771 198
770 198
769 197
768 196
767 196
766 196
765 196
764 196
763 195
762 195
761 195
760 195
759 194
758 194
757 194
756 194
755 193
754 193
753 193
752 193
751 193
750 193
749 192
748 192
747 192
746 192
745 191
744 191
743 191
742 191
741 190
740 190
739 190
738 190
737 189
736 189
735 189
734 189
733 189
732 188
731 188
730 188
729 187
728 187
727 187
726 187
725 186
724 186
723 186
722 186
721 186
720 186
719 185
718 185
717 185
716 185
715 185
714 185
713 184
712 184
711 184
710 184
709 184
708 183
707 183
706 183
705 183
704 183
703 182
702 182
701 182
700 182
699 182
698 182
697 182
696 181
695 181
694 181
693 181
692 181
691 181
690 181
689 181
688 180
687 180
686 180
685 180
684 180
683 180
682 179
681 179
680 179
679 179
678 179
677 179
676 178
675 178
674 178
673 178
672 178
671 177
670 177
669 177
668 177
667 177
666 177
665 176
664 176
663 176
662 176
661 175
660 175
659 175
658 175
657 174
656 174
655 174
654 174
653 174
652 173
651 173
650 173
649 172
648 171
647 171
646 171
645 171
644 171
643 170
642 170
641 169
640 169
639 168
638 168
637 168
636 168
635 167
634 166
633 166
632 166
631 166
630 165
629 164
628 164
627 163
626 163
625 163
624 163
623 162
622 162
621 161
620 161
619 161
618 160
617 160
616 160
615 160
614 159
613 159
612 158
611 158
610 158
609 157
608 157
607 157
606 156
605 156
604 156
603 156
602 155
601 155
600 155
599 154
598 154
597 154
596 153
595 153
594 153
593 153
592 152
591 152
590 151
589 151
588 151
587 150
586 150
585 149
584 149
583 149
582 149
581 149
580 149
579 148
578 147
577 147
576 147
575 147
574 146
573 146
572 146
571 146
570 145
569 145
568 144
567 144
566 144
565 143
564 143
563 142
562 142
561 142
560 142
559 141
558 141
557 141
556 141
555 140
554 140
553 139
552 139
551 139
550 139
549 139
548 139
547 138
546 138
545 137
544 137
543 137
542 137
541 136
540 136
539 136
538 136
537 136
536 135
535 134
534 134
533 134
532 134
531 133
530 133
529 133
528 132
527 132
526 132
525 131
524 131
523 131
522 130
521 130
520 130
519 129
518 129
517 128
516 128
515 128
514 127
513 127
512 126
511 126
510 126
509 126
508 125
507 125
506 124
505 124
504 124
503 124
502 123
501 123
500 122
499 122
498 122
497 121
496 121
495 120
494 121
493 120
492 119
491 119
490 119
489 118
488 117
487 117
486 117
485 117
484 116
483 115
482 115
481 114
480 114
479 115
478 114
478 113
477 113
476 113
475 112
474 111
473 111
472 111
471 111
470 110
469 109
468 109
467 109
466 108
465 108
464 108
463 107
462 106
461 106
460 106
459 105
458 105
457 104
456 105
455 104
454 103
453 103
452 102
451 102
450 101
449 101
448 101
447 100
446 100
445 99
444 99
443 98
442 98
441 98
440 97
439 96
438 96
437 96
436 95
435 95
434 95
433 94
432 93
431 93
430 92
429 93
428 92
427 92
426 91
425 91
424 91
423 90
422 90
421 89
420 89
419 89
418 88
417 88
416 87
415 87
414 87
413 86
412 87
411 86
410 85
409 85
408 86
407 85
407 84
406 84
405 84
404 84
403 83
402 83
401 82
400 82
399 82
398 82
397 81
396 81
395 81
394 80
393 80
392 80
391 79
390 79
389 79
388 79
387 78
386 78
385 78
384 78
383 78
382 77
381 77
380 77
379 77
378 77
377 77
376 76
375 76
374 76
373 76
372 76
371 76
370 76
369 76
368 76
367 76
366 76
365 75
364 75
363 75
362 75
361 75
360 75
359 75
358 74
357 74
356 74
355 73
354 73
353 73
352 73
351 72
350 72
349 72
348 72
347 71
346 71
345 71
344 71
343 70
342 70
341 69
340 69
339 69
338 69
337 69
336 68
335 68
334 67
333 67
332 67
331 66
330 66
329 66
328 65
327 65
326 65
325 65
324 64
323 64
322 64
321 64
320 63
319 63
318 63
317 62
316 62
315 62
314 62
313 61
312 61
311 61
310 61
309 60
308 60
307 60
306 60
305 60
304 59
303 59
302 59
301 59
300 59
299 59
298 59
297 59
296 58
295 58
294 58
293 58
292 58
291 58
290 57
289 57
288 57
287 57
286 57
285 57
284 57
283 56
282 56
281 56
280 56
279 56
278 55
277 55
276 54
275 54
274 54
273 54
272 53
271 53
270 53
269 52
268 52
267 51
266 51
265 50
264 50
263 50
262 49
261 49
260 49
259 49
258 48
257 48
256 48
255 47
254 47
253 47
252 47
251 47
250 46
249 46
248 46
247 46
246 46
245 46
244 45
243 45
242 45
241 44
240 44
239 45
238 44
237 45
236 44
235 44
234 43
233 43
232 43
231 43
230 43
229 43
228 43
227 43
226 43
225 42
224 43
223 43
222 43
221 43
220 42
219 42
218 42
217 42
216 42
215 41
214 41
213 41
212 41
211 41
210 41
209 41
208 41
207 41
206 41
205 41
204 41
203 41
202 41
201 41
200 41
199 41
198 41
197 41
196 41
195 41
194 41
193 41
