301 20
302 21
303 22
303 23
304 24
304 25
304 26
304 27
305 28
305 29
305 30
305 31
304 32
303 33
302 33
301 33
300 33
299 33
298 33
297 33
296 32
295 32
294 32
293 32
292 31
291 31
290 31
289 30
288 30
287 29
286 29
285 28
284 28
283 27
282 27
281 26
280 26
279 25
278 24
277 23
277 22
277 23
278 24
278 25
278 26
278 27
278 28
277 29
276 30
275 31
274 32
273 32
272 31
271 31
270 31
269 31
268 31
267 31
266 31
265 31
264 31
263 31
262 31
261 31
260 30
259 30
258 30
257 30
256 29
255 29
254 29
253 28
252 28
251 27
250 26
249 25
249 24
249 23
249 24
249 25
249 26
249 27
249 28
249 29
249 30
249 31
248 32
247 33
246 33
245 34
244 34
243 34
242 34
241 34
240 34
239 34
238 34
237 34
236 34
235 34
234 34
233 34
232 34
231 34
230 34
229 33
228 33
227 33
226 33
225 32
224 32
223 32
222 31
221 31
220 31
219 30
218 30
217 30
216 30
215 29
214 29
213 29
212 29
211 28
210 28
209 28
208 27
207 27
206 26
205 26
204 25
203 24
202 23
202 22
201 21
202 22
202 23
203 24
203 25
203 26
203 27
203 28
203 29
203 30
203 31
204 32
204 33
204 34
204 35
204 36
205 37
204 38
203 39
202 39
201 40
200 40
199 40
198 41
197 41
196 41
195 41
194 41
193 41
192 41
191 41
190 41
189 41
188 41
187 41
186 40
185 40
184 40
183 40
182 39
181 39
180 39
179 39
178 38
177 38
176 38
175 38
174 38
173 38
172 38
171 38
170 38
169 38
168 38
167 38
166 38
165 37
164 37
163 36
162 35
161 34
162 35
163 36
164 37
165 38
165 39
166 40
166 41
166 42
166 43
166 44
167 45
167 46
166 47
166 48
165 49
164 49
163 49
162 50
161 50
160 50
159 50
158 50
157 50
156 51
155 51
154 51
153 51
152 51
151 51
150 51
149 51
148 52
147 52
146 52
145 52
144 52
143 53
142 53
141 53
140 53
139 53
138 53
137 53
136 52
135 51
134 51
133 50
134 51
135 52
136 53
136 54
137 55
137 56
137 57
137 58
138 59
138 60
138 61
138 62
137 63
136 64
135 64
134 64
133 64
132 64
131 65
130 65
129 65
128 65
127 65
126 65
125 65
124 65
123 66
122 66
121 66
120 66
119 66
118 66
117 66
116 66
115 66
114 66
113 66
112 66
111 65
110 65
109 64
108 63
107 63
108 64
109 65
109 66
109 67
110 68
110 69
110 70
111 71
111 72
111 73
111 74
112 75
111 76
111 77
111 78
110 79
109 80
108 81
107 81
106 82
105 82
104 83
103 83
102 83
101 84
100 84
99 84
98 84
97 84
96 84
95 84
94 84
93 84
92 84
91 84
90 85
89 85
88 85
87 85
86 85
85 85
84 85
83 85
82 85
81 85
80 84
79 84
78 83
77 82
78 83
79 84
80 85
80 86
81 87
81 88
81 89
82 90
82 91
82 92
83 93
83 94
83 95
83 96
82 97
81 97
80 98
79 98
78 98
77 98
76 99
75 99
74 99
73 99
72 100
71 100
70 100
69 101
68 101
67 101
66 101
65 101
64 102
63 102
62 102
61 102
60 102
59 102
58 102
57 101
56 101
55 101
56 101
57 102
58 102
59 103
60 104
61 105
61 106
62 107
62 108
63 109
63 110
63 111
62 112
61 112
60 112
59 112
58 112
57 112
56 112
55 112
54 112
53 112
52 112
51 113
50 113
49 113
48 113
47 113
46 113
45 112
44 112
43 111
42 110
41 109
42 110
42 111
43 112
43 113
43 114
44 115
44 116
44 117
43 118
42 119
41 119
40 120
39 120
38 120
37 120
36 120
35 120
34 120
33 120
32 120
31 120
30 120
29 120
28 120
27 120
26 120
25 120
24 120
23 120
22 120
21 120
20 119
19 119
18 119
17 118
16 119
15 118
14 117
13 116
14 117
14 118
15 119
16 120
17 121
18 122
19 122
20 123
21 124
22 125
23 125
24 126
25 127
26 127
27 128
28 128
29 129
30 130
31 130
32 131
33 132
33 133
32 134
31 135
30 135
29 136
28 136
29 136
30 136
31 136
32 136
33 137
34 137
35 138
36 138
37 139
38 139
39 139
40 140
41 140
42 141
43 141
44 142
45 142
46 142
47 143
48 143
49 144
50 145
51 146
50 147
49 148
48 149
47 150
46 150
45 151
44 152
43 152
44 152
45 152
46 153
47 153
48 154
49 155
50 155
51 156
52 157
53 157
54 158
55 159
56 160
57 160
58 161
59 162
60 162
61 163
62 164
63 165
63 166
64 167
64 168
64 169
63 170
62 170
61 171
60 172
59 172
58 173
57 173
56 173
55 173
54 173
53 173
52 173
51 173
52 173
53 173
54 174
55 174
56 174
57 175
58 175
59 176
60 177
61 177
62 178
63 179
64 180
65 180
66 181
67 181
68 182
69 182
70 183
71 183
72 184
73 184
74 185
75 185
76 186
77 186
78 187
79 188
80 188
81 189
82 190
82 191
82 192
82 193
81 194
80 195
79 196
78 197
77 198
76 199
75 199
74 199
75 199
76 199
77 199
78 200
79 200
80 201
81 201
82 202
83 202
84 203
85 204
86 204
87 205
88 205
89 205
90 206
91 206
92 207
93 207
94 208
95 208
96 208
97 209
98 209
99 210
100 210
101 211
102 211
103 212
104 213
105 214
105 215
106 216
106 217
106 218
105 219
105 220
104 221
103 222
102 223
101 224
100 225
99 225
98 226
97 226
98 226
99 226
100 226
101 226
102 226
103 227
104 227
105 227
106 228
107 228
108 228
109 229
110 229
111 230
112 230
113 230
114 231
115 231
116 232
117 232
118 233
119 233
120 234
121 234
122 235
123 236
124 237
125 238
126 239
127 240
127 241
128 242
128 243
128 244
128 245
127 246
126 247
125 248
124 249
123 250
122 251
121 252
122 252
123 251
124 251
125 252
126 252
127 252
128 252
129 253
130 253
131 253
132 254
133 254
134 255
135 255
136 255
137 256
138 256
139 256
140 257
141 257
142 257
143 258
144 258
145 258
146 259
147 259
148 260
149 260
150 261
151 261
152 262
153 262
154 263
155 264
155 265
155 266
154 267
153 268
153 269
152 270
151 271
150 272
149 273
148 273
147 273
148 273
149 273
150 273
151 273
152 273
153 273
154 273
155 273
156 273
157 274
158 274
159 275
160 275
161 275
162 275
163 276
164 276
165 276
166 276
167 276
168 276
169 276
170 276
171 276
172 277
173 277
174 277
175 277
176 277
177 278
178 278
179 278
180 279
181 279
182 279
183 280
184 280
185 281
185 282
185 283
185 284
185 285
185 286
185 287
185 288
184 289
183 289
182 290
181 290
182 290
183 290
184 290
185 289
186 289
187 289
188 289
189 289
190 289
191 289
192 290
193 290
194 290
195 290
196 290
197 290
198 290
199 290
200 290
201 290
202 290
203 290
204 290
205 290
206 290
207 290
208 290
209 290
210 291
211 291
212 291
213 291
214 292
215 292
216 292
217 292
218 293
218 294
218 295
218 296
218 297
217 298
217 299
216 300
216 301
215 302
214 302
213 303
212 304
211 305
212 304
213 304
214 304
215 303
216 303
217 302
218 302
219 302
220 302
221 302
222 302
223 302
224 302
225 302
226 302
227 301
228 301
229 301
230 301
231 301
232 301
233 301
234 301
235 301
236 300
237 300
238 300
239 300
240 300
241 300
242 300
243 300
244 300
245 300
246 300
247 301
248 301
249 302
250 302
251 302
252 302
253 302
254 302
255 303
256 304
257 305
257 306
257 307
257 308
257 309
256 310
256 311
255 312
254 312
253 313
252 313
251 314
252 313
253 313
254 313
255 312
256 312
257 311
258 311
259 311
260 311
261 311
262 311
263 311
264 311
265 311
266 311
267 311
268 311
269 311
270 311
271 311
272 311
273 310
274 310
275 310
276 310
277 309
278 309
279 309
280 309
281 309
282 309
283 309
284 309
285 309
286 309
287 309
288 309
289 309
290 309
291 309
292 310
293 310
294 311
294 312
294 313
294 314
294 315
294 316
294 317
294 318
293 319
292 320
291 321
292 321
293 320
294 319
295 318
296 318
297 317
298 317
299 317
300 317
301 317
302 317
303 317
304 316
305 316
306 316
307 316
308 316
309 315
310 315
311 314
312 314
313 314
314 313
315 313
316 312
317 312
318 312
319 311
320 311
321 311
322 311
323 310
324 310
325 310
326 310
327 310
328 309
329 309
330 309
331 309
332 309
333 309
334 309
335 309
336 309
337 309
338 309
339 309
340 309
341 309
342 310
342 311
342 312
342 313
343 314
342 315
342 316
342 317
341 318
340 319
340 320
339 321
340 320
341 320
342 319
343 318
344 317
345 317
346 317
347 316
348 316
349 316
350 315
351 315
352 315
353 315
354 314
355 314
356 314
357 313
358 313
359 313
360 312
361 312
362 311
363 311
364 311
365 310
366 310
367 309
368 309
369 308
370 308
371 308
372 307
373 307
374 307
375 306
376 306
377 306
378 306
379 305
380 305
381 305
382 305
383 304
384 304
385 304
386 304
387 304
388 304
389 304
390 304
391 304
392 305
393 306
393 307
393 308
393 309
393 310
393 311
393 312
392 313
392 314
391 315
391 316
392 315
393 314
393 313
394 312
395 312
396 311
397 310
398 310
399 310
400 310
401 309
402 309
403 309
404 309
405 308
406 308
407 308
408 307
409 307
410 306
411 306
412 305
413 305
414 304
415 304
416 304
417 303
418 303
419 302
420 302
421 301
422 301
423 300
424 300
425 300
426 299
427 299
428 298
429 298
430 298
431 297
432 297
433 296
434 295
435 295
436 294
437 294
438 293
439 293
440 292
441 292
442 292
443 291
444 291
445 291
446 291
447 291
448 291
449 291
450 292
451 292
452 293
453 294
454 295
454 296
454 297
454 298
454 299
454 300
454 301
453 302
452 303
452 304
453 303
454 302
455 301
456 300
457 299
458 299
459 298
460 298
461 298
462 298
463 297
464 297
465 296
466 296
467 296
468 295
469 294
470 294
471 293
472 292
473 291
474 290
475 290
476 289
477 288
478 287
479 287
480 286
481 286
482 285
483 285
484 285
485 284
486 284
487 284
488 284
489 283
490 283
491 283
492 283
493 283
494 282
495 282
496 282
497 282
498 282
499 282
500 282
501 283
502 284
502 285
502 286
502 287
502 288
501 289
500 290
500 291
499 292
500 291
501 290
502 289
503 288
504 287
505 287
506 286
507 286
508 285
509 285
510 284
511 284
512 284
513 283
514 282
515 282
516 281
517 281
518 280
519 280
520 279
521 279
522 279
523 278
524 278
525 278
526 278
527 277
528 277
529 277
530 276
531 276
532 276
533 275
534 275
535 275
536 276
537 277
537 278
537 279
538 280
537 281
537 282
536 283
535 284
534 285
535 284
536 283
537 283
538 282
539 281
540 280
541 279
542 279
543 278
544 278
545 277
546 277
547 276
548 276
549 275
550 275
551 274
552 274
553 273
554 273
555 272
556 272
557 272
558 271
559 271
560 271
561 271
562 271
563 270
564 270
565 270
566 270
567 271
567 272
567 273
567 274
567 275
566 276
566 277
565 278
564 279
563 280
564 279
565 279
566 278
567 277
568 276
569 276
570 275
571 275
572 274
573 274
574 273
575 273
576 272
577 272
578 271
579 270
580 269
581 269
582 268
583 267
584 266
585 265
586 265
587 264
588 263
589 262
590 262
591 261
592 260
593 260
594 260
595 259
596 259
597 259
598 258
599 258
600 257
601 257
602 257
603 257
604 257
605 258
605 259
605 260
605 261
605 262
605 263
605 264
605 265
604 266
604 267
603 268
602 269
602 270
602 271
601 272
602 271
603 270
603 269
604 268
605 267
606 266
607 265
608 264
609 264
610 263
611 263
612 263
613 262
614 262
615 261
616 260
617 260
618 259
619 258
620 258
621 257
622 256
623 256
624 255
625 255
626 254
627 254
628 253
629 253
630 252
631 252
632 251
633 251
634 250
635 250
636 249
637 249
638 248
639 248
640 247
641 246
642 246
643 245
644 245
645 244
646 244
647 243
648 243
649 242
650 242
651 241
652 241
653 240
654 240
655 239
656 238
657 237
658 237
659 236
660 235
661 235
662 234
663 234
664 233
665 232
665 231
666 230
667 229
668 228
669 227
670 227
671 226
672 225
673 224
674 224
675 223
676 222
677 222
678 221
679 220
680 220
681 219
682 218
683 217
684 216
685 215
686 214
687 214
688 213
689 213
690 212
691 211
692 210
693 210
694 209
695 208
696 207
697 206
698 205
699 204
700 203
701 202
702 201
703 200
703 199
704 198
705 197
705 196
705 195
706 194
707 193
707 192
707 191
708 190
708 189
709 188
709 187
709 186
709 185
709 184
709 183
709 182
709 181
709 180
709 179
709 178
709 177
709 176
709 175
708 174
708 173
708 172
707 171
707 170
706 170
705 169
704 169
703 168
702 168
701 167
701 166
701 165
701 164
702 163
702 162
702 161
703 160
704 159
704 158
705 157
705 156
706 155
707 154
708 153
709 153
710 153
711 152
712 152
713 152
714 151
715 151
716 151
717 151
718 151
719 151
720 150
721 150
722 150
723 150
724 150
725 149
726 149
727 149
728 149
729 149
730 148
731 148
732 148
733 148
734 148
735 148
736 148
737 147
738 147
739 147
740 147
741 147
742 147
743 147
744 147
745 147
746 147
747 146
748 146
749 146
750 146
751 146
752 146
753 146
754 146
755 146
756 145
757 145
758 145
759 145
760 145
761 145
762 145
763 145
764 145
765 145
766 145
767 145
768 145
769 145
770 145
771 145
772 145
773 146
774 146
775 147
776 147
777 147
778 148
779 148
780 149
781 149
782 149
783 150
783 149
783 148
784 147
784 146
784 145
783 144
783 143
783 142
783 141
783 140
783 139
782 138
781 137
780 137
779 136
778 136
777 136
776 135
775 135
774 136
773 136
772 136
771 136
770 136
769 136
768 136
767 136
766 136
765 136
764 137
763 137
762 137
761 137
760 138
759 138
758 138
757 138
756 138
755 138
754 139
753 139
752 139
751 139
750 140
749 140
748 140
747 140
746 140
745 140
744 141
743 141
742 141
741 141
740 141
739 141
738 142
737 142
736 142
735 142
734 142
733 142
732 142
731 143
730 143
729 143
728 143
727 143
726 144
725 144
724 144
723 144
722 144
721 144
720 145
719 145
718 145
717 145
716 145
715 145
714 145
713 145
712 146
711 146
710 146
709 146
708 146
707 146
706 146
705 146
704 147
703 147
702 147
701 146
700 146
699 146
698 145
697 145
696 144
695 143
694 142
693 141
692 140
692 139
692 138
692 137
693 136
693 135
693 134
693 133
694 132
694 131
694 130
695 129
695 128
695 127
695 126
695 125
695 124
694 123
694 122
693 121
692 120
692 119
691 118
690 117
690 116
689 115
689 114
688 113
687 112
686 112
685 111
684 110
683 110
682 109
681 108
680 107
679 106
678 105
677 105
676 104
675 103
674 103
673 102
672 102
671 101
670 101
669 100
668 100
667 100
666 100
665 99
664 99
663 99
662 99
661 99
660 98
659 98
658 98
657 98
656 97
655 97
654 97
653 97
652 97
651 97
650 97
649 97
648 97
647 96
646 96
645 96
644 96
643 96
642 96
641 96
640 96
639 96
638 95
637 95
636 95
635 95
634 95
633 94
632 94
631 94
630 93
629 93
628 92
627 92
626 91
625 91
624 91
623 91
622 90
621 90
620 90
619 90
618 89
617 89
616 89
615 89
614 89
613 88
612 88
611 88
610 87
609 87
608 86
607 86
606 85
605 85
604 84
603 84
602 83
601 83
600 82
599 82
598 81
597 81
596 80
595 80
594 79
593 79
592 78
591 78
590 77
589 77
588 76
587 76
586 75
585 75
584 74
583 74
582 73
581 73
580 72
581 73
581 74
581 75
580 76
579 75
578 75
577 75
576 74
575 74
574 74
573 73
572 73
571 72
570 72
569 71
568 71
567 70
566 70
565 69
564 69
563 68
562 68
561 67
560 66
559 66
558 65
557 65
556 65
555 64
554 64
553 63
552 63
551 62
550 62
549 62
548 61
547 61
546 62
545 62
545 63
544 64
543 64
542 64
541 64
540 63
539 63
538 63
537 62
536 62
535 62
534 61
533 61
532 61
531 61
530 60
529 60
528 59
527 59
526 59
525 58
524 58
523 57
522 57
521 56
520 56
519 55
518 54
517 54
516 53
515 53
514 52
513 52
512 51
511 51
510 50
509 49
508 49
507 48
506 47
505 46
504 45
503 44
504 45
504 46
504 47
504 48
504 49
503 50
502 50
501 50
500 50
499 50
498 50
497 50
496 49
495 49
494 48
493 48
492 47
491 47
490 47
489 46
488 46
487 45
486 45
485 45
484 44
483 44
482 43
481 43
480 43
479 42
478 42
477 41
476 40
475 40
474 39
473 38
474 39
475 40
475 41
476 42
476 43
476 44
476 45
475 46
474 46
473 46
472 46
471 46
470 45
469 45
468 44
467 44
466 43
465 43
464 43
463 42
462 42
461 41
460 41
459 40
458 40
457 40
456 39
455 39
454 39
453 38
452 38
451 37
450 37
449 36
448 36
447 36
446 35
445 35
444 35
443 34
442 34
441 34
440 34
439 34
438 34
437 33
436 33
435 34
435 35
434 36
433 37
432 38
431 38
430 38
429 38
428 38
427 38
426 38
425 38
424 37
423 37
422 37
421 36
420 36
419 36
418 36
417 35
416 35
415 35
414 35
413 34
412 34
411 34
410 33
409 33
408 33
407 32
406 32
405 31
404 31
403 31
402 31
401 30
400 30
399 30
398 30
397 30
396 30
395 29
394 29
393 29
392 29
391 28
390 28
389 27
388 27
387 26
386 26
387 27
388 28
389 29
389 30
389 31
389 32
389 33
389 34
389 35
388 36
387 37
386 37
385 38
384 38
383 38
382 38
381 38
380 37
379 37
378 37
377 37
376 37
375 37
374 36
373 36
372 36
371 36
370 35
369 35
368 34
367 34
366 33
365 32
364 32
363 32
362 31
361 31
360 31
359 31
358 30
357 30
356 30
355 30
354 29
353 29
352 28
351 27
350 26
349 25
348 24
348 23
347 22
347 21
347 22
348 23
348 24
348 25
349 26
349 27
350 28
350 29
350 30
350 31
350 32
350 33
350 34
350 35
349 36
348 36
347 37
346 37
345 37
344 37
343 37
342 37
341 36
340 36
339 36
338 35
337 35
336 35
335 34
334 34
333 34
332 33
331 33
330 32
329 32
328 31
327 31
326 30
325 30
324 29
323 29
322 29
321 28
320 28
319 28
318 27
317 27
316 27
315 26
314 26
313 26
312 26
311 25
310 25
309 25
308 24
307 24
306 24
305 23
304 23
303 22
302 21
301 20
