193 34
192 35
191 35
190 36
189 36
188 36
187 36
186 36
185 36
184 37
183 37
182 37
181 37
180 38
179 38
178 39
177 39
176 39
175 40
174 40
173 40
172 40
171 40
170 41
169 41
168 41
167 40
166 41
165 41
164 41
163 41
162 41
161 41
160 42
159 42
158 42
157 42
156 43
155 43
154 43
153 43
152 43
151 44
150 44
149 45
148 45
147 45
146 46
145 46
144 46
143 47
142 47
141 47
140 48
139 49
138 49
137 49
136 50
135 50
134 50
133 51
132 51
131 52
130 52
129 53
128 53
127 54
126 54
125 54
124 55
123 55
122 56
121 56
120 57
119 58
118 58
117 59
116 59
115 60
114 60
113 61
112 62
111 62
110 63
109 64
108 65
107 65
106 66
105 66
104 67
103 68
102 69
101 69
100 70
99 71
98 72
97 73
96 74
95 75
94 76
93 76
92 77
91 78
90 79
89 80
88 81
87 82
86 83
85 84
84 85
83 86
82 87
81 88
81 89
80 90
79 91
79 92
78 93
77 94
76 95
76 96
75 97
74 98
73 99
72 100
71 101
71 102
70 103
69 104
68 105
68 106
67 107
66 107
66 108
65 109
64 110
64 111
63 112
63 113
62 114
61 115
61 116
60 117
60 118
59 119
58 120
58 121
57 122
57 123
56 124
55 125
55 126
54 127
54 128
53 129
53 130
52 131
51 132
51 133
51 134
51 135
50 136
49 137
49 138
48 139
48 140
47 141
47 142
47 143
46 144
46 145
46 146
45 147
45 148
45 149
45 150
45 151
45 152
44 153
44 154
44 155
44 156
44 157
44 158
43 159
44 160
44 161
43 162
43 163
43 164
43 165
44 166
43 167
43 168
43 169
43 170
43 171
43 172
43 173
43 174
43 175
43 176
44 177
44 178
44 179
44 180
45 181
45 182
45 183
45 184
46 185
46 186
47 187
47 188
48 189
48 190
49 191
49 192
50 193
51 194
51 195
52 196
52 197
53 198
54 199
54 200
55 201
56 202
57 203
57 204
58 205
59 206
59 207
60 208
61 209
62 210
63 211
64 212
65 213
65 214
66 215
67 216
68 217
69 218
69 219
70 220
71 221
72 222
73 223
73 224
74 225
75 226
76 227
77 228
77 229
78 230
79 231
80 232
81 233
82 234
83 235
83 236
84 236
85 237
86 238
86 239
87 240
88 241
89 242
90 243
91 244
92 245
93 246
94 247
95 248
96 248
97 249
98 250
99 251
100 252
101 253
102 254
103 255
104 256
105 257
106 257
107 258
108 259
109 260
110 260
111 261
112 262
113 262
114 263
115 263
116 264
117 264
118 265
119 265
120 266
121 267
122 267
123 268
124 268
125 269
126 269
127 270
128 270
129 271
130 271
131 272
132 272
133 272
134 273
135 273
136 274
137 274
138 275
139 275
140 276
141 276
142 276
143 277
144 277
145 278
146 278
147 278
148 279
149 279
150 280
151 280
152 280
153 281
154 281
155 281
156 281
157 282
158 282
159 282
160 282
161 283
162 283
163 283
164 283
165 284
166 284
167 284
168 284
169 285
170 285
171 285
172 285
173 285
174 285
175 286
176 286
177 286
178 286
179 286
180 286
181 286
182 287
183 287
184 287
185 287
186 287
187 287
188 287
189 287
190 287
191 287
192 287
193 287
194 287
195 288
196 288
197 288
198 288
199 288
200 288
201 288
202 288
203 288
204 288
205 288
206 288
207 288
208 288
209 288
210 288
211 288
212 288
213 288
214 288
215 288
216 288
217 288
218 288
219 288
220 288
221 287
222 287
223 287
224 287
225 287
226 287
227 287
228 287
229 287
230 287
231 287
232 287
233 287
234 287
235 286
236 286
237 286
238 286
239 286
240 286
241 286
242 286
243 286
244 285
245 285
246 285
247 285
248 285
249 285
250 285
251 285
252 285
253 284
254 284
255 284
256 284
257 284
258 284
259 284
260 284
261 283
262 283
263 283
264 283
265 283
266 283
267 283
268 283
269 282
270 282
271 282
272 282
273 282
274 282
275 282
276 282
277 282
278 282
279 282
280 282
281 282
282 281
283 281
284 281
285 281
286 281
287 281
288 280
289 280
290 280
291 280
292 280
293 280
294 280
295 280
296 280
297 280
298 279
299 279
300 279
301 279
302 279
303 279
304 279
305 279
306 278
307 278
308 278
309 278
310 278
311 278
312 277
313 277
314 277
315 277
316 277
317 277
318 277
319 276
320 276
321 276
322 276
323 276
324 276
325 275
326 275
327 275
328 275
329 275
330 275
331 274
332 274
333 274
334 274
335 274
336 274
337 274
338 273
339 273
340 273
341 273
342 273
343 272
344 272
345 272
346 272
347 272
348 271
349 271
350 271
351 271
352 271
353 270
354 270
355 270
356 270
357 269
358 269
359 269
360 269
361 269
362 268
363 268
364 268
365 268
366 267
367 267
368 267
369 266
370 266
371 266
372 266
373 265
374 265
375 265
376 265
377 265
378 264
379 264
380 264
381 264
382 264
383 264
384 263
385 263
386 263
387 263
388 263
389 263
390 263
391 262
392 262
393 262
394 262
395 262
396 261
397 261
398 261
399 261
400 261
401 260
402 260
403 260
404 260
405 260
406 259
407 259
408 259
409 259
410 258
411 258
412 258
413 258
414 257
415 257
416 257
417 257
418 257
419 256
420 256
421 256
422 256
423 255
424 255
425 255
426 255
427 254
428 254
429 254
430 254
431 253
432 253
433 253
434 253
435 252
436 252
437 252
438 252
439 251
440 251
441 251
442 251
443 250
444 250
445 250
446 250
447 249
448 249
449 249
450 248
451 248
452 248
453 248
454 248
455 247
456 247
457 247
458 247
459 246
460 246
461 246
462 246
463 245
464 245
465 244
466 244
467 244
468 244
469 244
470 243
471 243
472 243
473 243
474 242
475 242
476 242
477 241
478 241
479 241
480 241
481 240
482 240
483 240
484 240
485 239
486 239
487 239
488 239
489 238
490 238
491 237
492 237
493 237
494 237
495 236
496 236
497 236
498 235
499 235
500 235
501 234
502 234
503 234
504 233
505 233
506 232
507 232
508 231
509 231
510 231
511 231
512 230
513 230
514 230
515 229
516 229
517 229
518 229
519 228
520 228
521 227
522 227
523 227
524 226
525 226
526 226
527 225
528 225
529 224
530 224
531 224
532 224
533 223
534 223
535 223
536 222
537 222
538 222
539 222
540 221
541 221
542 221
543 221
544 220
545 220
546 220
547 219
548 219
549 219
550 219
551 218
552 218
553 218
554 217
555 217
556 217
557 216
558 216
559 216
560 216
561 215
562 214
563 214
564 214
565 214
566 214
567 213
568 213
569 213
570 213
571 212
572 212
573 212
574 211
575 211
576 211
577 210
578 210
579 210
580 210
581 209
582 209
583 209
584 208
585 208
586 208
587 208
588 208
589 207
590 207
591 206
592 206
593 206
594 206
595 206
596 205
597 205
598 205
599 205
600 205
601 204
602 204
603 204
604 204
605 203
606 203
607 203
608 203
609 203
610 202
611 202
612 202
613 202
614 202
615 201
616 201
617 201
618 201
619 200
620 200
621 200
622 200
623 199
624 199
625 199
626 198
627 198
628 198
629 197
630 197
631 197
632 197
633 197
634 196
635 196
636 196
637 195
638 195
639 195
640 195
641 194
642 194
643 194
644 193
645 193
646 193
647 193
648 192
649 192
650 192
651 191
652 191
653 190
654 190
655 190
656 190
657 189
658 189
659 189
660 188
661 188
662 188
663 188
664 187
665 187
666 187
667 186
668 186
669 186
670 186
671 185
672 185
673 185
674 185
675 185
676 184
677 184
678 184
679 184
680 184
681 184
682 184
683 184
684 184
685 183
686 183
687 183
688 183
689 183
690 183
691 183
692 183
693 183
694 183
695 183
696 183
697 183
698 183
699 183
700 183
701 183
702 183
703 183
704 183
705 183
706 183
707 183
708 183
709 183
710 183
711 183
712 183
713 183
714 183
715 183
716 183
717 183
718 183
719 183
720 183
721 183
722 183
723 184
724 184
725 184
726 184
727 184
728 184
729 184
730 184
731 184
732 184
733 184
734 184
735 184
736 184
737 184
738 184
739 185
740 185
741 185
742 185
743 185
744 185
745 185
746 185
747 185
748 185
749 185
750 185
751 185
752 185
753 185
754 185
755 185
756 184
756 183
757 182
758 181
758 180
759 179
759 178
758 177
759 176
759 175
758 174
758 173
758 172
758 171
758 170
758 169
758 168
758 167
757 167
756 166
755 166
754 166
753 166
752 166
751 166
750 167
749 167
748 167
747 167
746 167
745 167
744 167
743 167
742 167
741 167
740 167
739 167
738 167
737 167
736 167
735 167
734 167
733 167
732 167
731 167
730 167
729 167
728 167
727 167
726 166
725 166
724 166
723 166
722 166
721 166
720 166
719 166
718 166
717 166
716 166
715 166
714 166
713 166
712 166
711 166
710 166
709 166
708 166
707 166
706 166
705 166
704 166
703 166
702 166
701 166
700 166
699 166
698 166
697 166
696 166
695 166
694 166
693 166
692 166
691 166
690 165
689 165
688 165
687 165
686 165
685 165
684 165
683 165
682 165
681 165
680 165
679 165
678 165
677 165
676 165
675 165
674 165
673 165
672 165
671 164
670 164
669 164
668 164
667 164
666 164
665 163
665 164
664 165
663 164
662 164
661 164
660 163
659 163
658 163
657 163
656 162
655 162
654 162
653 161
652 161
651 161
650 160
649 160
648 160
647 159
646 159
645 159
644 158
643 158
642 158
641 158
640 157
639 156
638 156
637 156
636 156
635 155
634 155
633 155
632 154
631 154
630 154
629 153
628 153
627 153
626 153
625 152
624 152
623 152
622 151
621 151
620 151
619 151
618 151
617 150
616 150
615 150
614 149
613 149
612 149
611 149
610 148
609 148
608 148
607 148
606 147
605 147
604 146
603 146
602 146
601 146
600 146
599 145
598 145
597 144
596 144
595 144
594 144
593 143
592 143
591 142
590 142
589 142
588 141
587 141
586 141
585 140
584 140
583 139
582 139
581 139
580 138
579 138
578 138
577 137
576 137
575 136
574 136
573 136
572 135
571 135
570 135
569 135
568 134
567 134
566 133
565 133
564 132
563 132
562 132
561 132
560 132
559 131
558 130
557 130
556 130
555 129
554 129
553 129
552 129
551 128
550 128
549 127
548 127
547 127
546 127
545 126
544 126
543 125
542 125
541 124
540 124
539 124
538 124
537 123
536 123
535 123
534 122
533 122
532 122
531 121
530 120
529 120
528 120
527 120
526 119
525 119
524 118
523 118
522 118
521 118
520 117
519 116
518 116
517 115
516 115
515 115
514 115
513 114
512 113
511 113
510 113
509 112
508 112
507 112
506 111
505 111
504 110
503 110
502 110
501 109
500 109
499 108
498 108
497 108
496 108
495 108
494 107
494 106
493 106
492 106
491 106
490 106
489 105
489 104
488 103
487 103
486 103
485 102
484 102
483 102
482 102
481 102
480 101
480 100
479 100
478 99
477 100
476 100
475 99
474 98
473 98
472 97
471 97
470 96
469 95
468 94
467 94
466 93
465 92
464 92
463 91
462 91
461 91
460 91
459 90
458 90
457 89
456 88
455 88
454 88
453 87
452 87
451 86
450 86
449 86
448 85
447 85
446 85
445 85
444 85
443 84
443 83
442 83
441 82
440 82
439 82
438 81
437 81
436 81
435 80
434 80
433 80
432 79
431 79
430 79
429 78
428 78
427 78
426 77
425 77
424 77
423 76
422 76
421 75
420 75
419 75
418 75
417 74
416 74
415 73
414 73
413 73
412 73
411 73
410 72
409 72
408 72
407 71
406 71
405 71
404 70
403 70
402 70
401 70
400 69
399 69
398 69
397 69
396 69
395 69
394 69
393 68
392 68
391 68
390 67
389 67
388 66
387 66
386 66
385 66
384 65
383 65
382 65
381 66
380 66
379 65
378 65
377 64
376 64
375 63
374 63
373 63
372 62
371 63
370 63
369 62
368 62
367 62
366 62
365 62
364 62
363 61
362 60
361 60
360 59
359 59
358 59
357 59
356 58
355 58
354 58
353 58
352 58
351 57
350 56
349 56
348 55
347 55
346 55
345 54
344 55
343 54
342 53
341 53
340 53
339 53
338 54
337 54
336 53
335 52
334 52
333 52
332 51
331 50
330 50
329 51
328 50
327 50
326 49
325 49
324 49
323 49
322 49
321 49
320 48
320 47
319 47
318 47
317 47
316 46
315 46
314 46
313 46
312 46
311 45
310 45
309 45
308 44
307 44
306 44
305 44
304 44
303 43
302 43
301 43
300 43
299 43
298 42
297 42
296 42
295 42
294 42
293 42
292 42
291 42
290 42
289 41
288 41
287 41
286 41
285 41
284 41
283 40
282 40
281 40
280 40
279 40
278 40
277 39
276 40
275 39
274 39
273 39
272 39
271 39
270 39
269 39
268 39
267 39
266 38
265 38
264 38
263 38
262 38
261 37
260 38
259 38
258 37
257 37
256 37
255 37
254 37
253 37
252 37
251 37
250 37
249 37
248 37
247 37
246 37
245 37
244 37
243 37
242 36
241 36
240 36
239 36
238 36
237 36
236 36
235 36
234 36
233 36
232 36
231 35
230 35
229 35
228 35
227 35
226 35
225 35
224 35
223 35
222 35
221 34
220 34
219 34
218 34
217 34
216 34
215 34
214 34
213 34
212 34
211 34
210 34
209 34
208 34
207 34
206 34
205 34
204 34
203 34
202 35
201 35
200 34
199 34
198 34
197 34
196 34
195 34
194 34
193 34
