461 63
460 64
459 64
458 64
457 64
456 65
455 65
454 65
453 66
452 66
451 67
450 67
449 67
448 67
447 68
446 68
445 68
444 68
443 69
442 69
441 69
440 70
439 70
438 70
437 70
436 70
435 71
434 71
433 71
432 71
431 71
430 72
429 72
428 72
427 73
426 73
425 73
424 74
423 74
422 75
421 75
420 76
419 76
418 77
417 77
416 77
415 78
414 78
413 79
412 80
411 80
410 80
409 81
408 82
407 82
406 83
405 83
404 84
403 84
402 85
401 85
400 86
399 86
398 87
397 87
396 88
395 88
394 88
393 88
392 87
391 87
390 87
389 86
388 86
387 86
386 85
385 85
384 85
383 85
382 85
381 85
380 85
379 85
378 85
377 85
376 85
375 85
374 85
373 85
372 85
371 85
370 85
369 85
368 85
367 85
366 85
365 85
364 85
363 85
362 85
361 85
360 86
359 86
358 86
357 86
356 87
355 87
354 87
353 87
352 88
351 88
350 88
349 88
348 88
347 89
346 89
345 89
344 89
343 90
342 90
341 90
340 90
339 90
338 91
337 91
336 91
335 91
334 91
333 92
332 92
331 92
330 93
329 93
328 93
327 94
326 94
325 94
324 95
323 95
322 95
321 96
320 96
319 96
318 97
317 97
316 97
315 97
314 98
313 98
312 99
311 99
310 100
309 100
308 101
307 101
306 102
305 102
304 102
303 103
302 103
301 103
300 104
299 104
298 104
297 105
296 105
295 105
294 105
293 105
292 105
291 106
290 106
289 106
288 106
287 106
286 107
285 107
284 107
283 107
282 108
281 108
280 108
279 108
278 109
277 109
276 109
275 109
274 110
273 110
272 110
271 110
270 111
269 111
268 111
267 112
266 112
265 113
264 113
263 114
262 114
261 114
260 115
259 115
258 116
257 116
256 117
255 117
254 118
253 118
252 119
251 119
250 120
249 120
248 121
247 121
246 122
245 122
244 122
243 123
242 123
241 123
240 124
239 124
238 125
237 125
236 126
235 127
234 127
233 127
232 128
231 128
230 129
229 129
228 129
227 130
226 130
225 131
224 131
223 131
222 132
221 132
220 133
219 133
218 133
217 134
216 134
215 134
214 135
213 135
212 136
211 136
210 136
209 137
208 137
207 138
206 138
205 139
204 139
203 140
202 140
201 141
200 141
199 142
198 142
197 143
196 143
195 143
194 144
193 144
192 145
191 145
190 145
189 146
188 146
187 147
186 147
185 147
184 148
183 148
182 149
181 149
180 150
179 150
178 151
177 151
176 151
175 152
174 152
173 153
172 153
171 154
170 154
169 154
168 155
167 156
166 156
165 156
164 157
163 157
162 158
161 158
160 159
159 160
158 160
157 161
156 161
155 162
154 163
153 163
152 164
151 164
150 165
149 166
148 166
147 167
146 167
145 168
144 169
143 169
142 170
141 170
140 170
139 171
138 172
137 172
136 172
135 173
134 173
133 174
132 174
131 175
130 175
129 176
128 176
127 177
126 177
125 177
124 178
123 178
122 179
121 179
120 179
119 180
118 180
117 181
116 181
115 182
114 182
113 182
112 183
111 183
110 184
109 184
108 184
107 185
106 185
105 185
104 186
103 186
102 187
101 187
100 187
99 187
98 188
97 188
96 188
95 188
94 189
93 189
92 189
91 190
90 190
89 190
88 191
87 191
86 191
85 192
84 192
83 193
82 193
81 193
80 194
79 194
78 194
77 195
76 195
75 195
74 196
73 196
72 196
71 196
70 197
69 197
68 197
67 198
66 198
65 198
64 199
63 199
62 200
61 200
60 200
59 201
58 201
57 201
56 201
55 202
54 202
53 202
52 203
51 203
50 204
49 204
48 205
47 205
46 206
45 206
44 207
43 207
43 208
44 208
45 209
46 209
47 209
48 209
49 210
50 210
51 210
52 210
53 210
54 211
55 211
56 211
57 211
58 211
59 211
60 212
61 212
62 212
63 212
64 212
65 213
66 213
67 213
68 213
69 214
70 214
71 214
72 214
73 215
74 215
75 215
76 215
77 215
78 216
79 216
80 216
81 216
82 217
83 217
84 217
85 217
86 218
87 218
88 218
89 218
90 219
91 219
92 219
93 219
94 220
95 220
96 220
97 221
98 221
99 222
100 222
101 223
102 223
103 224
104 225
105 226
106 226
107 227
108 228
109 229
110 229
111 230
112 230
113 231
114 232
115 233
116 233
117 234
118 235
119 236
120 236
121 237
122 238
123 238
124 239
125 240
126 240
127 241
128 242
129 243
130 243
131 244
132 245
133 246
134 246
135 247
136 248
137 249
138 250
139 250
140 251
141 252
142 253
143 253
144 254
145 255
146 256
147 257
148 258
149 259
150 260
151 261
152 262
153 263
154 264
155 265
156 266
157 267
158 268
159 268
160 269
161 270
162 271
162 272
163 272
164 273
164 274
165 275
166 276
167 277
168 278
169 279
170 280
171 281
171 282
172 282
173 283
173 284
174 285
175 286
176 287
177 288
178 289
178 290
179 291
180 292
181 293
182 294
182 295
183 296
184 297
185 298
186 299
187 300
188 301
189 302
190 303
191 304
192 304
193 305
193 306
194 307
195 308
196 309
197 310
198 311
199 311
200 312
201 313
202 314
203 315
204 316
205 317
206 318
207 319
208 320
209 320
210 321
210 322
211 322
212 323
213 324
214 325
215 326
216 327
217 328
218 329
219 329
220 330
221 331
222 332
223 333
224 334
225 335
226 336
227 337
228 338
229 339
230 340
231 341
232 342
233 342
234 343
235 344
236 344
237 345
238 346
239 347
240 347
241 348
242 348
243 349
244 350
245 350
246 351
247 352
248 352
249 353
250 353
251 354
252 355
253 355
254 356
255 357
256 357
257 358
258 358
259 359
260 360
261 360
262 361
263 361
264 362
265 363
266 363
267 364
268 365
269 365
270 366
271 367
272 367
273 368
274 369
275 369
276 370
277 370
278 371
279 372
280 372
281 373
282 374
283 374
284 375
284 376
285 376
286 377
287 377
288 378
289 379
290 379
291 380
292 380
293 381
294 381
295 382
296 383
297 384
298 384
299 384
300 385
301 385
302 386
303 386
304 387
305 387
306 388
307 388
308 389
309 389
310 390
311 390
312 391
313 391
314 392
315 392
316 393
317 393
318 394
319 394
320 395
321 395
322 396
323 396
324 397
325 397
326 398
327 398
328 399
329 399
330 400
331 400
332 401
333 401
334 401
335 402
336 403
337 403
338 404
339 404
340 404
341 405
342 405
343 406
344 407
345 407
346 408
347 408
348 408
349 409
350 409
351 409
352 410
353 410
354 411
355 411
356 411
357 412
358 412
359 412
360 413
361 413
362 413
363 414
364 414
365 414
366 414
367 415
368 415
369 415
370 416
371 416
372 416
373 416
374 417
375 417
376 417
377 418
378 418
379 418
380 418
381 419
382 419
383 419
384 419
385 420
386 420
387 420
388 420
389 420
390 420
391 420
392 420
393 421
394 421
395 421
396 421
397 421
398 421
399 421
400 421
401 421
402 421
403 421
404 421
405 421
406 420
407 420
408 420
409 420
410 420
411 420
412 420
413 420
414 420
415 420
416 419
417 419
418 419
419 419
420 419
421 418
422 418
423 418
424 418
425 418
426 418
427 417
428 417
429 417
430 416
431 416
432 416
433 416
434 415
435 415
436 415
437 414
438 414
439 414
440 414
441 413
442 413
443 413
444 412
445 412
446 411
447 411
448 411
449 410
450 410
451 409
452 409
453 409
454 408
455 408
456 408
457 407
458 407
459 406
460 406
461 406
462 405
463 405
464 404
465 404
466 403
467 403
468 403
469 402
470 402
471 402
472 401
473 401
474 401
475 400
476 400
477 400
478 400
479 399
480 399
481 398
482 398
483 398
484 397
485 397
486 397
487 397
488 396
489 396
490 396
491 396
492 396
493 395
494 395
495 395
496 395
497 394
498 394
499 394
500 394
501 393
502 393
503 393
504 393
505 392
506 392
507 392
508 391
509 391
510 391
511 391
512 390
513 390
514 390
515 389
516 389
517 389
518 389
519 389
520 389
521 388
522 388
523 388
524 388
525 388
526 388
527 387
528 387
529 387
530 387
531 387
532 386
533 386
534 385
535 385
536 384
537 384
538 384
539 383
540 383
541 382
542 381
543 381
544 380
545 379
546 379
547 378
548 377
549 376
550 375
551 375
552 374
553 373
554 372
555 371
556 370
557 369
558 368
559 368
560 367
560 366
561 365
562 364
563 363
564 362
565 361
566 360
566 359
567 358
568 357
569 356
569 355
570 354
571 353
571 352
572 351
572 350
573 349
574 348
574 347
575 346
575 345
576 344
576 343
577 342
577 341
577 340
578 339
578 338
579 337
579 336
579 335
579 334
580 333
580 332
580 331
580 330
581 329
581 328
581 327
581 326
581 325
581 324
581 323
581 322
581 321
581 320
581 319
581 318
581 317
581 316
581 315
581 314
581 313
581 312
581 311
581 310
581 309
580 308
580 307
580 306
580 305
580 304
580 303
580 302
580 301
579 300
579 299
579 298
579 297
579 296
578 295
578 294
578 293
578 292
577 291
577 290
577 289
577 288
577 287
576 286
576 285
576 284
576 283
575 282
575 281
575 280
575 279
575 278
575 277
575 276
575 275
575 274
575 273
574 272
574 271
574 270
574 269
574 268
573 267
573 266
573 265
573 264
573 263
573 262
573 261
574 260
574 259
574 258
574 257
575 256
575 255
576 254
576 253
577 252
578 251
579 251
580 251
581 250
582 250
583 250
584 250
585 250
586 250
587 249
588 249
589 249
590 249
591 249
592 249
593 249
594 249
595 249
596 249
597 249
598 249
599 249
600 249
601 249
602 249
603 249
604 249
605 249
606 249
607 249
608 249
609 249
610 249
611 249
612 249
613 249
614 249
615 249
616 249
617 249
618 249
619 249
620 249
621 249
622 249
623 249
624 249
625 249
626 249
627 249
628 249
629 249
630 249
631 249
632 249
633 250
634 250
635 250
636 250
637 250
638 250
639 250
640 250
641 250
642 250
643 250
644 250
645 250
646 250
647 250
648 250
649 250
650 250
651 250
652 250
653 250
654 250
655 250
656 250
657 250
658 250
659 250
660 250
661 250
662 250
663 250
664 250
665 250
666 250
667 250
668 250
669 250
670 250
671 250
672 250
673 250
674 250
675 250
676 250
677 250
678 250
679 250
680 250
681 250
682 250
683 250
684 250
685 250
686 249
687 249
688 249
689 249
690 249
691 249
692 249
693 249
694 249
695 249
696 249
697 249
698 249
699 249
700 249
701 249
702 249
703 249
704 249
705 249
706 249
707 249
708 249
709 249
710 249
711 249
712 249
713 249
714 249
715 249
716 249
717 250
718 250
719 250
720 250
721 250
722 250
723 250
724 250
725 250
726 250
727 250
728 251
729 251
730 251
731 251
732 251
733 252
734 252
735 252
736 252
737 252
738 252
739 253
740 253
741 253
742 254
743 254
744 254
745 255
746 255
747 256
748 256
749 257
750 257
751 257
752 258
753 258
754 259
755 260
756 261
757 262
758 262
759 262
760 262
761 262
762 261
763 260
763 259
764 258
764 257
765 256
765 255
766 254
766 253
767 252
767 251
768 250
768 249
768 248
768 247
767 246
766 246
765 245
764 244
763 244
762 243
761 243
760 242
759 242
758 242
757 241
756 241
755 241
754 241
753 240
752 240
751 240
750 239
749 239
748 239
747 239
746 238
745 238
744 238
743 238
742 238
741 238
740 238
739 237
738 237
737 237
736 237
735 237
734 237
733 237
732 237
731 237
730 237
729 237
728 237
727 236
726 236
725 236
724 236
723 236
722 236
721 236
720 236
719 236
718 236
717 237
716 237
715 236
714 236
713 236
712 237
711 237
710 237
709 237
708 237
707 237
706 237
705 237
704 237
703 238
702 238
701 238
700 238
699 238
698 238
697 238
696 238
695 238
694 239
693 239
692 239
691 239
690 239
689 239
688 239
687 239
686 239
685 239
684 239
683 239
682 239
681 239
680 239
679 239
678 240
677 240
676 240
675 240
674 240
673 240
672 240
671 240
670 240
669 240
668 240
667 240
666 240
665 240
664 240
663 240
662 240
661 240
660 240
659 240
658 240
657 240
656 240
655 240
654 240
653 240
652 240
651 240
650 240
649 240
648 240
647 240
646 240
645 240
644 240
643 240
642 240
641 240
640 240
639 240
638 240
637 240
636 240
635 239
634 239
633 239
632 239
631 239
630 239
629 239
628 239
627 239
626 239
625 239
624 239
623 239
622 239
621 239
620 239
619 239
618 239
617 239
616 238
615 238
614 238
613 238
612 238
611 238
610 238
609 238
608 238
607 237
606 237
605 237
604 237
603 237
602 237
601 237
600 237
599 237
598 237
597 237
596 237
595 236
594 236
593 236
592 236
591 236
590 235
589 235
588 235
587 235
586 234
585 234
584 234
583 233
582 233
581 232
580 231
579 230
578 229
577 228
577 227
577 226
576 225
576 224
576 223
577 222
577 221
577 220
577 219
578 218
578 217
579 216
579 215
580 214
580 213
581 212
581 211
582 210
582 209
583 208
584 207
584 206
585 205
585 204
586 203
587 202
587 201
588 200
589 199
590 198
590 197
591 196
591 195
592 194
592 193
593 192
593 191
594 190
594 189
595 188
595 187
595 186
596 185
596 184
597 183
597 182
597 181
598 180
598 179
598 178
599 177
599 176
599 175
600 174
600 173
600 172
601 171
601 170
601 169
601 168
601 167
602 166
602 165
602 164
602 163
602 162
602 161
602 160
602 159
603 158
603 157
603 156
603 155
603 154
603 153
603 152
603 151
603 150
603 149
603 148
603 147
603 146
603 145
603 144
603 143
603 142
603 141
603 140
603 139
603 138
603 137
602 136
602 135
602 134
602 133
601 132
601 131
601 130
601 129
600 128
600 127
600 126
599 125
599 124
598 123
598 122
598 121
597 120
597 119
596 118
596 117
595 116
595 115
595 114
594 113
593 112
593 111
592 110
592 109
591 108
591 107
590 106
589 105
588 104
588 103
587 102
586 101
585 100
584 99
584 98
583 97
582 96
581 95
580 94
579 93
578 92
577 91
576 90
575 89
574 89
573 88
572 87
571 87
570 86
569 85
568 84
567 84
566 83
565 82
564 82
563 81
562 81
561 80
560 79
559 79
558 78
557 78
556 77
555 77
554 77
553 76
552 76
551 75
550 75
549 74
548 74
547 74
546 73
545 73
544 73
543 73
542 72
541 72
540 72
539 72
538 71
537 71
536 71
535 70
534 70
533 70
532 70
531 70
530 69
529 69
528 69
527 69
526 69
525 69
524 69
523 69
522 69
521 69
520 68
519 68
518 68
517 68
516 68
515 68
514 68
513 68
512 68
511 68
510 67
509 67
508 67
507 67
506 67
505 66
504 66
503 66
502 66
501 66
500 65
499 65
498 65
497 65
496 65
495 65
494 65
493 64
492 64
491 64
490 64
489 64
488 64
487 64
486 64
485 64
484 63
483 63
482 63
481 63
480 63
479 63
478 63
477 63
476 63
475 63
474 63
473 63
472 63
471 63
470 63
469 63
468 63
467 63
466 63
465 63
464 63
463 63
462 63
461 63
