331 48
330 49
329 49
328 49
327 49
326 49
325 49
324 49
323 49
322 49
321 50
320 50
319 50
318 50
317 50
316 50
315 51
314 51
313 51
312 51
311 51
310 51
309 51
308 51
307 51
306 52
305 52
304 52
303 52
302 52
301 52
300 52
299 53
298 53
297 53
296 53
295 53
294 53
293 53
292 54
291 54
290 54
289 54
288 54
287 55
286 55
285 55
284 55
283 55
282 56
281 56
280 56
279 56
278 56
277 57
276 57
275 57
274 57
273 58
272 58
271 58
270 58
269 59
268 59
267 59
266 59
265 59
264 60
263 60
262 60
261 60
260 60
259 61
258 61
257 61
256 61
255 61
254 62
253 62
252 62
251 62
250 63
249 63
248 63
247 63
246 64
245 64
244 64
243 64
242 65
241 65
240 65
239 66
238 66
237 66
236 66
235 67
234 67
233 67
232 67
231 68
230 68
229 69
228 69
227 69
226 69
225 70
224 70
223 70
222 71
221 71
220 71
219 71
218 72
217 72
216 72
215 73
214 73
213 73
212 74
211 74
210 74
209 74
208 75
207 76
206 76
205 77
204 77
203 78
202 78
201 78
200 79
199 79
198 80
197 80
196 81
195 81
194 82
193 82
192 83
191 83
190 84
189 84
188 85
187 85
186 86
185 86
184 87
183 87
182 88
181 88
180 88
179 89
178 89
177 90
176 90
175 91
174 91
173 92
172 92
171 93
170 93
169 93
168 94
167 94
166 95
165 95
164 95
163 95
162 95
161 96
160 96
159 96
158 97
157 97
156 97
155 98
154 98
153 98
152 98
151 99
150 99
149 99
148 100
147 100
146 101
145 101
144 101
143 102
142 102
141 103
140 103
139 104
138 104
137 105
136 106
135 106
134 107
133 107
132 108
131 108
130 109
129 110
128 110
127 111
126 112
125 112
124 113
123 113
122 114
121 114
120 115
119 116
118 116
117 117
116 117
115 118
114 118
113 119
112 119
111 120
110 120
109 121
108 121
107 122
106 122
105 122
104 123
103 123
102 124
101 124
100 125
99 125
98 126
97 126
96 127
95 127
94 128
93 128
92 129
91 129
90 130
89 131
88 131
87 132
86 133
85 133
84 134
83 135
82 136
81 136
80 137
79 137
78 138
77 138
76 139
75 139
74 140
73 141
72 141
71 142
70 142
69 143
68 143
67 143
66 144
65 144
64 145
63 145
62 145
61 145
60 146
59 146
58 146
57 146
56 147
55 147
54 148
53 148
52 148
51 149
50 149
49 149
48 150
47 151
46 151
45 152
44 152
43 152
42 153
42 154
42 155
43 156
44 157
45 158
46 158
47 159
48 160
49 161
50 161
51 162
52 162
53 163
54 163
55 164
56 164
57 165
58 165
59 166
60 166
61 166
62 167
63 167
64 168
65 168
66 168
67 169
68 169
69 170
70 170
71 170
72 171
73 171
74 172
75 172
76 173
77 173
78 174
79 174
80 175
81 175
82 176
83 176
84 177
85 177
86 178
87 179
88 179
89 179
90 180
91 180
92 181
93 181
94 182
95 182
96 183
97 184
98 184
99 185
100 185
101 186
102 186
103 187
104 187
105 187
106 188
107 189
108 189
109 189
110 190
111 190
112 190
113 191
114 191
115 191
116 192
117 192
118 193
119 193
120 194
121 195
122 196
123 197
124 198
125 199
126 200
126 201
127 202
128 203
129 204
130 205
131 206
132 207
133 207
134 208
135 208
136 209
137 210
138 210
139 211
140 212
141 212
142 213
143 214
144 214
145 215
146 216
147 216
148 217
149 218
150 218
151 219
152 219
153 220
154 221
155 221
156 222
157 223
158 224
159 224
160 225
161 225
162 226
163 227
164 227
165 228
166 229
167 230
168 231
169 231
170 232
171 233
172 234
173 235
174 235
175 236
176 237
177 237
178 238
179 239
180 239
181 240
182 241
183 242
184 242
185 243
186 244
187 244
188 245
189 245
190 246
191 247
192 247
193 248
194 249
195 249
196 250
197 250
198 250
199 251
200 252
201 252
202 253
203 253
204 253
205 254
206 254
207 255
208 255
209 256
210 256
211 256
212 257
213 257
214 258
215 258
216 259
217 259
218 259
219 260
220 260
221 260
222 261
223 261
224 261
225 262
226 262
227 263
228 263
229 264
230 264
231 265
232 265
233 266
234 266
235 267
236 267
237 268
238 268
239 268
240 268
241 269
242 269
243 270
244 270
245 271
246 271
247 272
248 272
249 272
250 273
251 273
252 274
253 274
254 274
255 275
256 275
257 276
258 276
259 276
260 277
261 277
262 278
263 278
264 279
265 279
266 280
267 280
268 281
269 281
270 281
271 282
272 282
273 282
274 283
275 283
276 284
277 284
278 284
279 285
280 285
281 285
282 285
283 286
284 286
285 286
286 286
287 286
288 287
289 287
290 287
291 287
292 287
293 288
294 288
295 288
296 288
297 288
298 288
299 288
300 289
301 289
302 289
303 289
304 289
305 290
306 290
307 290
308 290
309 290
310 291
311 291
312 291
313 291
314 291
315 291
316 291
317 291
318 292
319 292
320 292
321 292
322 293
323 293
324 293
325 293
326 293
327 293
328 293
329 293
330 293
331 294
332 294
333 294
334 294
335 294
336 294
337 294
338 294
339 294
340 294
341 295
342 295
343 295
344 295
345 295
346 295
347 295
348 295
349 295
350 295
351 296
352 296
353 296
354 296
355 296
356 296
357 296
358 296
359 296
360 296
361 296
362 296
363 296
364 296
365 296
366 296
367 296
368 296
369 296
370 296
371 296
372 296
373 296
374 296
375 296
376 296
377 297
378 297
379 296
380 296
381 296
382 296
383 296
384 296
385 296
386 296
387 296
388 296
389 296
390 296
391 296
392 296
393 296
394 296
395 296
396 296
397 296
398 296
399 296
400 296
401 296
402 296
403 296
404 296
405 295
406 295
407 295
408 295
409 295
410 295
411 295
412 295
413 295
414 295
415 294
416 294
417 294
418 294
419 294
420 294
421 294
422 294
423 294
424 294
425 293
426 293
427 293
428 293
429 293
430 293
431 293
432 293
433 293
434 292
435 292
436 292
437 292
438 292
439 292
440 291
441 291
442 291
443 291
444 291
445 291
446 291
447 291
448 291
449 290
450 290
451 290
452 290
453 290
454 290
455 290
456 290
457 289
458 289
459 289
460 289
461 289
462 288
463 288
464 288
465 288
466 288
467 288
468 288
469 287
470 287
471 287
472 287
473 286
474 286
475 286
476 286
477 286
478 285
479 285
480 285
481 285
482 284
483 284
484 284
485 284
486 283
487 283
488 283
489 283
490 282
491 282
492 282
493 281
494 281
495 281
496 280
497 280
498 280
499 280
500 280
501 279
502 279
503 279
504 278
505 278
506 278
507 277
508 277
509 277
510 277
511 276
512 276
513 276
514 275
515 275
516 274
517 274
518 274
519 273
520 273
521 272
522 272
523 272
524 271
525 271
526 271
527 270
528 270
529 270
530 269
531 269
532 268
533 268
534 268
535 267
536 267
537 266
538 266
539 266
540 265
541 265
542 264
543 264
544 263
545 263
546 262
547 262
548 262
549 261
550 261
551 260
552 260
553 260
554 259
555 259
556 258
557 257
558 257
559 256
560 256
561 255
562 254
563 254
564 253
565 253
566 252
567 252
568 251
569 250
570 250
571 249
572 248
573 248
574 247
575 246
576 247
577 246
578 245
579 245
580 244
581 244
582 243
583 242
584 242
585 241
586 240
587 240
588 239
589 238
590 237
591 237
592 236
593 235
594 235
595 234
596 234
597 233
598 232
599 232
600 231
601 231
602 230
603 229
604 228
605 227
606 226
607 226
608 225
609 224
610 224
611 223
612 223
613 222
614 221
615 221
616 220
617 220
618 219
619 218
620 218
621 217
622 217
623 216
624 216
625 215
626 214
627 213
628 213
629 213
630 212
631 211
632 211
632 210
633 209
634 209
635 208
636 208
636 207
637 206
638 206
639 206
640 205
641 205
642 204
643 204
644 203
645 203
646 203
647 202
648 202
649 202
650 202
651 201
652 201
653 201
654 201
655 201
656 200
657 200
658 200
659 200
660 200
661 200
662 200
663 200
664 200
665 200
666 200
667 200
668 200
669 200
670 200
671 200
672 200
673 200
674 200
675 200
676 200
677 200
678 200
679 200
680 200
681 199
682 199
683 199
684 199
685 199
686 199
687 199
688 199
689 199
690 199
691 199
692 199
693 199
694 199
695 199
696 199
697 199
698 199
699 198
700 198
701 198
702 198
703 198
704 198
705 198
706 198
707 198
708 198
709 198
710 198
711 198
712 198
713 198
714 197
715 197
716 197
717 197
718 197
719 197
720 197
721 197
722 196
723 196
724 196
725 196
726 196
727 196
728 196
729 195
730 195
731 195
732 195
733 195
734 195
735 194
736 194
737 194
738 194
739 194
740 193
741 193
742 193
743 193
744 192
745 192
746 192
747 192
748 191
749 191
750 191
751 190
752 190
753 189
754 189
755 189
756 188
757 188
758 188
759 187
760 187
761 187
762 186
763 186
764 185
765 184
766 183
767 182
767 181
767 180
766 179
765 178
764 178
763 177
762 176
761 176
760 175
759 175
758 175
757 176
756 176
755 176
754 177
753 177
752 178
751 178
750 178
749 179
748 179
747 179
746 179
745 180
744 180
743 180
742 180
741 181
740 181
739 181
738 182
737 182
736 182
735 182
734 183
733 183
732 183
731 183
730 183
729 183
728 184
727 184
726 184
725 184
724 184
723 184
722 185
721 185
720 185
719 185
718 185
717 185
716 185
715 185
714 185
713 186
712 186
711 186
710 186
709 186
708 186
707 186
706 186
705 186
704 186
703 186
702 186
701 186
700 187
699 187
698 187
697 187
696 187
695 187
694 187
693 187
692 187
691 187
690 187
689 187
688 187
687 187
686 187
685 187
684 187
683 187
682 187
681 187
680 187
679 187
678 187
677 187
676 187
675 187
674 187
673 187
672 187
671 188
670 188
669 188
668 188
667 188
666 188
665 188
664 188
663 188
662 188
661 188
660 188
659 188
658 187
657 187
656 187
655 187
654 187
653 187
652 187
651 187
650 186
649 186
648 186
647 185
646 185
645 184
644 184
643 184
642 183
641 182
640 181
639 180
638 180
637 179
636 178
635 177
634 177
633 176
633 175
632 175
631 174
630 173
629 172
628 171
627 170
626 169
625 168
624 167
623 166
622 166
621 165
620 164
619 163
618 162
617 161
616 160
615 160
614 159
613 158
612 157
611 157
610 156
609 155
608 154
607 153
606 152
605 151
604 150
603 149
602 148
601 148
600 147
599 146
598 145
597 144
596 143
595 143
594 142
593 141
592 140
591 139
590 139
589 138
588 137
587 136
586 135
585 134
584 133
583 133
582 132
581 131
580 130
579 130
578 129
577 129
576 128
575 127
574 126
573 126
572 125
571 124
570 123
569 123
568 122
567 121
566 121
565 120
564 119
563 119
562 118
561 117
560 116
559 115
558 114
557 114
556 113
555 112
554 111
553 111
552 110
551 109
550 109
549 108
548 107
547 106
546 105
545 105
544 104
543 104
542 103
541 102
540 102
539 101
538 100
537 100
536 99
535 98
534 98
533 97
532 97
531 96
530 95
529 95
528 94
527 94
526 93
525 93
524 92
523 92
522 91
521 91
520 90
519 89
518 89
517 88
516 88
515 87
514 86
513 86
512 85
511 85
510 84
509 84
508 84
507 83
506 83
505 82
504 82
503 81
502 81
501 81
500 80
499 80
498 79
497 79
496 78
495 78
494 78
493 77
492 77
491 76
490 76
489 75
488 75
487 75
486 74
485 74
484 73
483 73
482 73
481 72
480 72
479 71
478 70
477 70
476 70
475 69
474 69
473 69
472 68
471 68
470 67
469 67
468 67
467 66
466 66
465 66
464 65
463 65
462 65
461 64
460 64
459 64
458 63
457 63
456 63
455 62
454 62
453 62
452 62
451 61
450 61
449 61
448 60
447 60
446 60
445 60
444 60
443 59
442 59
441 59
440 58
439 58
438 58
437 58
436 57
435 57
434 57
433 56
432 56
431 56
430 56
429 55
428 55
427 55
426 55
425 54
424 54
423 54
422 54
421 53
420 53
419 53
418 53
417 53
416 52
415 52
414 52
413 52
412 52
411 51
410 51
409 51
408 51
407 51
406 51
405 51
404 50
403 50
402 50
401 50
400 50
399 50
398 50
397 50
396 50
395 50
394 50
393 50
392 49
391 49
390 49
389 49
388 49
387 49
386 49
385 49
384 49
383 49
382 49
381 49
380 49
379 49
378 49
377 49
376 49
375 49
374 49
373 49
372 48
371 48
370 48
369 48
368 48
367 48
366 48
365 48
364 48
363 48
362 48
361 48
360 48
359 48
358 48
357 48
356 48
355 48
354 48
353 48
352 48
351 48
350 48
349 48
348 48
347 48
346 48
345 48
344 48
343 48
342 48
341 48
340 48
339 48
338 48
337 48
336 48
335 48
334 48
333 48
332 48
331 48
