421 51
420 52
420 53
420 54
420 55
420 56
420 57
420 58
419 59
419 60
419 61
419 62
419 63
419 64
418 65
418 66
417 67
416 66
416 65
415 64
414 63
414 62
414 61
413 60
413 59
412 58
412 57
411 56
410 55
409 55
408 54
407 54
406 55
405 55
404 56
404 57
403 58
403 59
403 60
403 61
403 62
403 63
403 64
403 65
403 66
404 67
404 68
405 69
406 70
407 71
408 72
409 73
410 74
409 75
408 75
407 74
406 74
405 74
404 73
403 73
402 73
401 73
400 72
399 72
398 72
397 72
396 72
395 72
394 73
393 73
392 74
391 75
390 76
389 77
388 76
388 75
389 74
388 73
389 72
389 71
389 70
388 69
388 68
387 67
387 66
386 66
385 65
384 64
383 65
382 66
381 67
381 68
380 69
379 70
379 71
378 72
377 73
377 74
376 75
375 76
374 77
373 78
372 79
371 79
370 78
370 77
369 76
369 75
369 74
368 75
368 76
369 77
369 78
370 79
370 80
371 81
371 82
371 83
372 84
372 85
372 86
373 87
373 88
374 89
373 90
372 90
371 90
370 90
369 90
368 91
367 91
366 91
365 91
364 91
363 91
362 91
361 91
360 90
359 90
358 90
357 90
356 90
355 90
354 89
353 89
352 89
351 89
350 89
349 89
348 89
347 89
346 89
346 90
346 91
346 92
345 93
344 92
344 91
343 90
343 89
342 89
341 88
340 88
339 89
338 90
337 91
336 90
336 89
336 88
336 87
336 86
336 85
335 84
335 83
334 82
333 81
332 81
331 82
330 83
330 84
329 85
329 86
328 87
327 88
327 89
326 90
326 91
325 92
324 93
323 94
323 95
322 96
321 97
320 98
320 99
319 100
318 101
317 102
316 103
315 102
315 101
314 101
313 100
313 99
312 98
311 97
311 96
310 95
309 94
308 93
307 92
307 91
306 90
306 89
305 89
305 90
305 91
306 92
307 93
308 94
308 95
309 96
310 97
310 98
311 99
312 100
313 101
313 102
314 103
315 104
315 105
316 106
317 107
317 108
318 109
319 110
319 111
320 112
321 113
322 113
323 114
323 115
324 116
325 117
326 118
326 119
327 120
328 121
327 122
326 122
325 122
324 123
323 123
322 124
321 124
320 125
319 125
318 126
317 126
316 126
315 127
314 127
313 128
312 128
311 128
310 129
309 129
308 129
307 129
306 130
305 130
304 130
303 130
302 131
301 131
300 131
299 130
298 129
297 128
296 127
295 126
294 125
293 126
292 127
291 126
291 125
291 124
290 123
289 122
288 121
287 120
286 119
286 120
285 121
285 122
284 123
284 124
284 125
284 126
283 127
283 128
283 129
283 130
282 131
282 132
282 133
282 134
282 135
281 136
281 137
281 138
281 139
280 140
280 141
280 142
279 143
279 144
279 145
278 146
278 147
278 148
278 149
278 150
277 151
276 151
275 150
274 149
273 149
272 148
271 147
270 146
269 145
268 145
267 144
267 143
268 142
268 141
269 140
269 139
270 138
270 137
271 136
271 135
272 134
272 133
272 132
272 131
272 130
273 129
273 128
273 127
273 126
273 125
273 124
273 123
273 122
273 121
273 120
273 119
273 118
273 117
273 116
272 115
272 114
272 113
271 112
270 111
269 110
268 110
267 109
266 109
265 110
264 109
263 108
262 107
261 106
260 106
259 105
259 106
258 107
258 108
257 109
257 110
257 111
256 112
255 113
254 112
254 111
254 110
253 109
253 108
252 107
252 106
251 105
250 104
249 103
248 102
247 102
246 102
245 102
244 102
244 103
244 104
244 105
244 106
243 107
243 108
243 109
243 110
242 111
241 110
240 109
240 108
239 107
238 106
237 106
236 105
235 104
234 104
233 104
232 103
231 103
230 104
229 103
228 102
227 101
227 100
226 99
225 98
224 97
224 98
224 99
225 100
226 101
226 102
227 103
228 104
227 105
226 105
225 105
224 105
223 105
222 105
221 105
220 105
219 105
218 106
217 106
216 106
215 106
214 106
213 105
212 105
211 105
210 105
209 105
208 105
207 105
206 105
205 105
204 105
204 106
205 107
205 108
205 109
206 109
207 110
208 111
208 112
209 112
210 113
211 113
212 114
213 114
214 115
214 116
213 117
212 117
211 117
210 117
209 117
208 118
207 118
206 118
205 118
205 119
206 120
206 121
207 122
208 123
209 123
210 124
211 124
212 124
213 125
214 125
215 125
216 126
217 127
218 128
218 129
219 129
220 130
219 131
218 132
217 132
216 133
215 133
214 134
213 134
212 135
212 136
213 137
214 138
215 138
216 139
217 140
218 141
219 142
220 143
220 144
220 145
219 146
218 147
217 148
217 149
216 150
215 151
215 152
215 153
214 154
214 155
213 156
213 157
212 158
211 158
210 157
210 156
210 155
210 154
210 153
209 152
209 151
209 150
209 149
209 148
208 147
208 146
208 145
207 144
207 143
206 142
205 142
204 141
203 140
203 141
203 142
202 143
202 144
201 145
200 144
199 143
199 142
198 141
198 140
197 139
197 138
196 137
195 137
194 136
193 136
192 136
192 137
191 138
190 137
189 136
189 135
188 134
187 133
186 133
185 133
184 132
183 133
183 134
183 135
182 136
182 137
182 138
181 139
180 138
180 137
179 136
179 135
179 134
178 133
178 132
177 131
176 130
175 129
174 129
173 128
172 128
171 128
171 129
170 130
170 131
170 132
170 133
170 134
170 135
170 136
170 137
170 138
170 139
170 140
170 141
170 142
170 143
170 144
170 145
170 146
170 147
170 148
169 149
169 150
169 151
169 152
168 153
167 152
166 152
165 151
164 150
163 149
162 149
161 148
160 147
159 146
158 145
157 144
156 144
155 143
154 142
153 141
152 140
151 139
150 139
149 138
148 137
148 136
148 137
149 138
150 139
150 140
151 141
151 142
152 142
153 143
154 144
155 145
156 146
157 146
158 147
159 148
160 149
160 150
159 151
158 151
157 151
156 152
155 152
154 152
153 153
152 153
151 153
150 154
149 154
148 154
147 154
146 154
145 155
144 155
143 155
142 155
141 155
140 155
139 155
138 155
137 156
136 156
136 157
136 158
137 159
137 160
138 160
139 161
140 162
141 163
142 164
143 165
143 166
143 167
144 168
143 169
142 169
141 168
140 169
140 170
140 171
140 172
140 173
140 174
140 175
141 176
141 177
141 178
141 179
141 180
141 181
141 182
141 183
141 184
141 185
141 186
141 187
141 188
141 189
141 190
141 191
141 192
141 193
141 194
141 195
140 196
139 195
138 195
137 194
136 194
135 193
134 192
133 191
132 190
131 190
130 189
129 188
128 187
127 186
126 186
125 185
124 184
123 183
122 182
121 181
120 180
119 180
118 180
118 181
118 182
117 183
116 183
115 183
114 183
113 182
112 182
111 182
110 182
109 181
108 182
108 183
108 184
108 185
108 186
109 187
110 188
111 189
111 190
110 191
109 191
108 191
107 191
106 191
105 191
104 191
103 191
102 191
102 192
102 193
103 194
104 195
105 196
105 197
104 198
103 199
102 199
103 200
102 201
101 201
100 201
99 201
98 201
97 201
96 201
95 202
94 203
94 204
94 205
95 206
96 206
97 207
98 208
99 208
100 209
101 210
102 211
103 212
103 213
104 214
105 215
104 216
103 216
102 216
101 216
100 216
99 217
100 217
101 218
102 218
103 219
104 219
105 219
106 219
107 220
108 220
109 221
109 222
110 223
110 224
111 224
112 225
112 226
113 227
114 228
115 228
116 229
116 230
116 231
116 232
116 233
117 233
118 234
119 234
120 235
121 236
120 237
119 237
118 237
117 237
116 238
115 238
114 238
113 238
112 238
111 238
110 238
109 238
108 238
107 238
107 239
108 240
108 241
109 242
110 242
111 243
112 244
113 244
114 245
115 245
116 246
117 246
118 246
119 246
120 246
121 247
121 248
121 249
121 250
122 251
123 252
124 253
125 253
126 253
127 253
128 254
129 254
130 253
131 253
132 253
133 253
134 253
135 252
136 252
137 252
138 251
139 251
140 251
141 250
142 249
143 249
144 248
145 247
146 247
147 246
148 247
149 247
150 248
151 249
152 249
153 250
154 250
155 251
156 251
157 252
158 253
159 253
160 254
161 255
162 255
163 256
164 256
165 257
166 257
167 257
168 258
169 259
170 259
171 260
172 260
173 261
174 261
175 262
176 262
177 263
178 263
179 263
180 263
181 264
182 264
183 265
183 266
183 267
182 268
182 269
182 270
182 271
181 272
180 272
179 271
179 270
178 269
178 268
177 267
176 266
175 265
174 265
173 265
173 266
172 267
172 268
172 269
171 270
170 269
170 268
169 267
168 266
167 265
166 265
165 264
164 265
164 266
164 267
163 268
163 269
163 270
163 271
163 272
163 273
163 274
163 275
163 276
163 277
163 278
162 279
162 280
162 281
161 282
160 281
160 280
160 279
159 278
159 277
159 276
159 275
158 274
158 273
158 272
157 271
157 270
157 269
156 268
156 267
155 266
154 265
153 264
152 264
151 263
151 264
150 265
150 266
150 267
150 268
150 269
150 270
150 271
150 272
149 273
148 272
148 271
148 270
147 269
147 268
146 267
145 266
145 265
144 264
143 263
142 263
141 263
140 262
140 263
140 264
139 265
139 266
139 267
139 268
139 269
140 270
140 271
140 272
139 273
139 274
138 275
137 274
137 273
136 272
136 271
135 270
135 269
134 268
134 267
133 266
132 265
131 265
130 264
129 264
128 265
128 266
128 267
128 268
128 269
128 270
128 271
128 272
129 273
129 274
129 275
129 276
129 277
129 278
129 279
129 280
129 281
129 282
129 283
129 284
129 285
129 286
129 287
129 288
130 289
130 290
130 291
130 292
130 293
130 294
130 295
130 296
130 297
129 298
128 298
127 298
126 298
125 298
124 298
123 298
122 298
121 298
120 298
119 298
118 298
117 297
117 296
117 295
117 294
117 293
117 292
117 291
117 290
117 289
117 288
117 287
116 286
116 285
116 284
116 283
116 282
115 281
115 280
115 279
114 278
114 277
114 276
114 275
113 274
113 273
112 272
112 271
111 270
111 269
110 268
109 267
109 266
108 266
107 265
106 265
105 264
104 264
103 264
103 265
103 266
103 267
103 268
103 269
104 270
104 271
104 272
104 273
104 274
105 275
105 276
105 277
105 278
106 279
106 280
106 281
106 282
106 283
107 284
107 285
107 286
107 287
107 288
107 289
107 290
108 291
108 292
108 293
108 294
108 295
109 296
108 297
107 297
106 297
105 297
104 297
103 297
102 297
101 297
100 297
99 297
98 296
97 295
97 294
97 293
97 292
97 291
97 290
97 289
97 288
97 287
97 286
97 285
97 284
97 283
96 282
96 281
96 280
96 279
96 278
95 277
95 276
94 275
94 274
94 273
93 272
92 271
92 270
91 269
90 268
89 267
88 267
87 267
86 267
85 267
85 268
85 269
85 270
86 271
86 272
86 273
86 274
86 275
86 276
86 277
87 278
87 279
87 280
87 281
87 282
86 283
85 282
85 281
84 280
84 279
83 278
83 277
82 276
82 275
81 274
81 273
80 272
79 271
78 270
77 269
76 269
75 268
74 268
73 268
73 269
72 270
73 271
73 272
73 273
73 274
74 275
74 276
74 277
75 278
75 279
75 280
76 281
76 282
76 283
76 284
77 285
77 286
77 287
77 288
77 289
78 290
78 291
78 292
78 293
79 294
79 295
78 296
77 296
76 296
75 296
74 296
73 296
72 295
71 295
70 295
69 295
68 294
68 293
68 292
68 291
68 290
68 289
68 288
67 287
67 286
67 285
67 284
67 283
66 282
66 281
65 280
65 279
64 278
64 277
63 276
62 275
61 274
60 274
59 273
58 273
57 273
56 273
56 274
56 275
57 276
57 277
57 278
58 279
58 280
58 281
58 282
58 283
58 284
57 285
56 284
55 283
55 282
54 281
53 280
52 280
51 279
50 279
49 278
48 278
47 278
46 278
45 278
44 279
44 280
44 281
44 282
45 283
46 284
47 285
48 286
49 287
49 288
50 289
50 290
51 291
52 292
52 293
51 294
50 294
49 294
48 294
47 294
46 294
46 295
47 295
48 296
49 296
50 296
51 296
52 297
52 298
51 299
50 300
50 301
49 302
49 303
48 304
47 305
46 306
45 307
44 308
43 309
43 310
44 311
45 312
46 312
47 312
48 312
49 312
50 312
51 312
52 313
51 314
51 315
50 316
51 317
52 317
53 318
54 318
55 318
56 318
57 317
58 317
59 316
60 316
61 315
62 314
63 313
64 313
65 314
64 315
64 316
64 317
63 318
63 319
63 320
62 321
62 322
63 323
64 323
65 323
66 323
67 322
68 322
69 321
70 321
71 320
72 320
73 321
72 322
72 323
72 324
72 325
73 325
74 325
75 326
76 325
77 325
78 325
79 324
80 324
80 323
81 322
82 322
83 323
82 324
82 325
82 326
81 327
82 328
83 328
84 328
85 328
86 328
87 328
88 328
89 329
88 330
88 331
89 331
90 331
91 331
92 331
93 331
94 331
95 331
96 330
97 329
98 329
99 328
100 327
100 326
101 325
102 324
102 323
103 322
104 323
104 324
104 325
104 326
104 327
104 328
104 329
103 330
103 331
103 332
104 331
105 331
106 331
107 331
107 330
108 329
109 328
110 327
111 326
111 325
112 324
113 323
114 322
114 321
115 320
115 319
115 318
116 317
116 316
117 315
118 316
118 317
118 318
118 319
117 320
117 321
117 322
117 323
117 324
116 325
116 326
116 327
116 328
116 329
115 330
115 331
115 332
115 333
114 334
115 335
116 335
117 335
118 335
119 335
120 335
121 335
122 335
123 335
124 335
125 334
126 334
127 334
128 333
129 332
130 331
131 330
132 331
132 332
132 333
132 334
132 335
133 335
134 336
135 336
136 335
137 335
138 335
139 336
140 337
141 337
142 337
143 337
144 337
145 337
146 337
147 337
148 338
148 339
148 340
147 341
146 341
146 342
147 343
147 344
147 345
148 346
149 347
149 348
148 349
147 348
146 347
145 346
144 345
143 344
142 343
141 343
140 342
139 341
138 341
137 340
136 340
135 340
134 339
133 339
132 339
131 339
130 339
129 340
128 341
127 341
126 341
125 341
124 341
123 342
122 342
121 342
120 342
119 342
118 342
117 342
116 342
115 342
114 343
113 343
112 344
113 345
114 346
114 347
115 348
114 349
113 349
112 348
111 348
110 348
109 348
108 348
107 348
106 348
105 348
104 348
103 349
102 350
102 351
102 352
103 353
104 354
105 355
106 356
107 357
108 358
107 359
106 359
105 359
104 359
103 358
102 358
101 358
100 358
99 358
98 358
97 359
96 359
95 360
94 360
93 361
92 362
92 363
92 364
92 365
92 366
93 367
94 368
95 368
96 368
97 368
98 369
99 369
100 369
101 369
102 369
103 369
104 370
105 370
106 370
107 370
108 371
107 372
106 372
105 372
104 372
103 372
102 372
101 372
100 372
99 372
98 372
97 372
96 372
95 372
94 373
93 373
93 374
92 375
92 376
93 377
94 378
93 379
92 379
91 379
90 379
89 379
88 379
87 380
86 380
85 381
84 382
83 383
82 383
81 383
80 384
79 384
78 385
78 386
79 387
80 388
81 389
82 389
83 390
84 391
85 391
86 392
85 393
84 393
83 393
82 392
81 392
80 392
79 392
78 392
77 392
76 392
75 392
74 392
73 392
72 392
71 393
70 394
69 395
69 396
69 397
69 398
70 398
71 399
72 399
73 399
74 400
75 400
76 400
77 400
78 401
79 401
80 401
81 402
80 403
79 403
78 403
77 403
76 403
75 403
74 403
73 404
72 404
71 404
70 405
69 405
68 406
68 407
67 408
66 409
66 410
66 411
66 412
66 413
66 414
67 415
68 415
69 416
70 416
71 415
72 415
73 415
74 414
75 414
76 413
77 413
78 412
79 412
80 412
81 411
82 412
82 413
81 414
80 415
79 416
78 417
77 418
76 418
75 419
74 420
74 421
73 422
73 423
73 424
74 425
75 426
76 426
77 426
78 426
79 426
80 426
81 426
82 425
83 425
84 424
85 424
86 423
86 422
87 421
88 420
89 421
89 422
88 423
88 424
87 425
87 426
87 427
87 428
87 429
87 430
88 430
89 431
90 431
91 430
92 430
93 429
94 429
95 430
96 430
97 430
98 430
99 430
100 430
101 429
102 429
103 428
104 427
105 426
106 425
106 424
107 423
107 422
108 421
109 420
110 421
110 422
110 423
110 424
110 425
110 426
111 427
112 427
113 427
114 427
115 426
116 426
117 425
118 424
119 425
120 425
121 425
122 425
123 424
124 424
125 423
126 422
126 421
127 420
127 419
128 418
128 417
129 416
130 417
131 418
131 419
131 420
132 420
133 420
134 419
135 419
135 418
136 417
137 416
137 415
138 414
138 413
138 412
139 411
140 412
140 413
140 414
140 415
141 416
141 417
141 418
142 418
143 417
144 417
145 416
146 415
147 414
148 415
148 416
149 416
150 415
151 415
152 414
153 414
153 413
154 412
155 411
155 410
156 409
156 408
156 407
157 406
157 405
157 404
157 403
157 402
157 401
157 400
158 399
159 398
160 398
161 399
161 400
161 401
162 402
162 403
162 404
162 405
162 406
162 407
162 408
163 409
163 410
163 411
164 410
165 410
166 409
167 409
168 408
168 407
169 406
170 405
170 404
170 403
171 402
172 402
173 403
173 404
174 405
174 406
174 407
174 408
175 408
176 407
177 407
178 406
178 405
179 404
180 403
181 404
181 405
182 405
183 404
184 404
185 403
186 402
187 401
187 400
188 399
188 398
188 397
188 396
189 395
189 394
189 393
190 392
191 391
192 392
193 393
193 394
193 395
193 396
193 397
194 398
194 399
194 400
195 399
196 399
197 398
198 397
199 396
199 395
200 394
200 393
200 392
201 391
202 391
203 392
204 393
204 394
204 395
205 395
206 395
207 394
208 394
209 394
210 395
211 396
212 397
213 397
214 398
215 399
216 400
217 400
218 401
219 402
220 403
221 404
222 405
223 405
224 406
225 407
226 408
227 409
228 409
229 410
230 411
231 412
231 413
232 414
231 415
230 416
229 417
228 417
227 418
226 418
225 419
224 419
223 420
222 420
221 421
220 421
219 422
218 422
217 422
216 423
215 424
214 424
213 424
212 425
211 425
210 425
209 424
209 423
209 422
209 421
208 420
208 419
207 419
206 418
205 418
204 418
203 417
202 417
201 417
200 416
199 416
198 416
197 416
196 416
195 415
194 415
193 415
192 415
191 415
190 415
189 415
188 415
187 415
186 415
185 415
184 415
183 415
182 415
181 415
180 415
179 416
178 416
177 415
176 415
175 415
174 415
173 414
172 414
171 414
170 414
169 414
168 414
167 414
166 414
165 415
164 415
164 416
163 417
162 418
161 419
160 420
159 420
158 420
157 421
156 422
156 423
156 424
157 424
158 425
159 426
160 427
159 428
158 428
157 428
156 428
155 429
154 429
153 430
152 431
151 432
151 433
151 434
151 435
151 436
151 437
152 438
153 439
154 439
155 439
156 439
157 439
158 439
159 439
160 439
161 439
162 439
163 440
164 440
165 440
166 441
166 442
165 443
164 443
163 443
162 444
161 444
160 444
159 445
158 445
157 446
156 446
155 447
155 448
154 449
153 450
154 451
154 452
154 453
155 454
156 455
157 455
158 456
159 456
160 456
161 456
162 456
163 456
164 456
165 456
166 455
167 455
168 454
169 453
170 453
171 454
170 455
170 456
169 457
169 458
168 459
168 460
168 461
168 462
169 463
170 464
171 464
172 464
173 464
174 464
175 464
176 463
177 463
178 462
179 461
180 460
181 459
181 458
182 457
182 456
183 455
183 454
184 453
184 452
184 451
185 450
185 449
185 448
185 447
186 446
186 445
186 444
186 443
186 442
186 441
186 440
186 439
185 438
186 437
187 437
188 436
189 436
190 436
191 435
192 435
193 435
194 434
195 434
196 434
197 435
197 436
197 437
197 438
197 439
197 440
197 441
197 442
197 443
197 444
196 445
196 446
196 447
196 448
196 449
196 450
196 451
195 452
195 453
195 454
195 455
195 456
194 457
194 458
194 459
194 460
194 461
194 462
194 463
195 463
196 464
197 464
198 463
199 463
200 462
201 461
202 461
203 460
204 459
205 460
205 461
206 461
207 461
208 461
209 460
210 459
211 458
212 458
212 457
213 456
214 456
215 456
216 456
217 456
218 456
219 456
220 456
221 455
222 455
223 454
224 454
225 454
226 453
227 453
228 453
229 453
230 452
231 452
232 451
233 450
234 449
234 448
234 447
234 446
235 445
235 444
236 443
236 442
236 441
236 440
236 439
236 438
236 437
236 436
237 435
237 434
237 433
237 432
237 431
237 430
237 429
237 428
236 427
236 426
236 425
236 424
236 423
236 422
236 421
235 420
235 419
234 418
234 417
235 416
236 416
237 415
238 414
239 414
240 413
241 413
242 412
243 412
244 413
245 414
245 415
245 416
245 417
246 418
246 419
246 420
246 421
246 422
247 423
247 424
247 425
247 426
247 427
247 428
247 429
247 430
246 431
246 432
245 433
246 434
246 435
245 436
244 436
243 437
242 437
242 438
241 439
241 440
240 441
241 442
242 443
243 443
244 443
245 443
246 444
246 445
245 446
244 446
243 446
242 446
241 447
240 447
239 448
238 449
237 450
237 451
237 452
237 453
238 454
239 454
240 454
241 454
242 454
243 455
242 456
241 456
240 457
239 458
238 459
238 460
237 461
237 462
237 463
237 464
238 465
239 465
240 464
241 464
242 464
243 463
244 463
245 463
246 462
247 462
248 462
249 462
250 462
251 462
252 462
253 463
254 464
254 465
254 466
254 467
254 468
254 469
254 470
253 471
253 472
252 473
252 474
251 475
251 476
251 477
251 478
252 479
253 479
254 479
255 479
256 479
257 478
258 478
259 479
260 480
261 480
262 480
263 480
264 479
265 479
266 478
267 477
268 476
268 475
268 474
269 473
269 472
269 471
269 470
269 469
269 468
269 467
269 466
269 465
269 464
269 463
269 462
269 461
268 460
268 459
268 458
267 457
267 456
266 455
266 454
266 453
267 452
268 451
269 451
270 450
271 449
272 449
273 450
274 451
274 452
275 453
275 454
275 455
275 456
276 457
276 458
276 459
276 460
276 461
277 462
277 463
277 464
277 465
277 466
277 467
277 468
277 469
278 470
278 471
278 472
278 473
279 474
279 475
280 475
281 475
282 474
283 474
283 473
284 472
284 471
285 470
285 469
285 468
286 467
286 466
286 465
286 464
286 463
286 462
286 461
286 460
286 459
285 458
285 457
285 456
285 455
285 454
285 453
284 452
284 451
284 450
284 449
283 448
283 447
282 446
282 445
281 444
280 443
280 442
280 441
281 440
282 440
283 439
284 438
285 437
286 437
287 436
288 436
289 437
289 438
290 439
290 440
291 441
291 442
292 443
292 444
293 445
293 446
293 447
294 448
294 449
294 450
294 451
295 452
295 453
295 454
296 455
296 456
296 457
296 458
297 459
297 460
297 461
297 462
298 463
297 464
297 465
296 466
296 467
296 468
297 469
298 469
299 469
300 469
301 470
301 471
300 472
299 472
298 473
297 473
296 474
295 475
295 476
294 477
294 478
294 479
294 480
294 481
295 481
296 482
297 482
298 482
299 481
300 482
300 483
299 484
298 484
298 485
297 486
297 487
297 488
297 489
297 490
297 491
298 492
299 492
300 492
301 491
302 491
303 491
304 490
305 489
306 488
307 488
308 489
307 490
307 491
306 492
305 493
304 494
304 495
303 496
303 497
303 498
304 499
305 499
306 500
307 500
308 500
309 499
310 499
311 499
312 498
313 498
314 499
315 500
315 501
316 502
317 502
318 502
319 502
320 501
321 500
322 500
323 499
324 499
325 499
326 499
327 499
328 498
329 497
330 497
331 496
331 495
332 494
333 494
334 494
335 494
336 494
337 493
338 493
339 492
339 491
340 490
340 489
340 488
340 487
341 486
341 485
341 484
341 483
341 482
342 481
343 482
343 483
343 484
344 485
344 486
345 487
346 487
347 486
348 486
349 485
350 484
350 483
351 482
352 482
353 481
354 481
355 480
356 479
356 478
356 477
357 476
357 475
357 474
357 473
358 472
358 471
358 470
358 469
358 468
358 467
358 466
357 465
357 464
357 463
357 462
357 461
356 460
356 459
356 458
356 457
355 456
355 455
354 454
354 453
353 452
353 451
352 450
352 449
351 448
351 447
352 446
352 445
353 444
354 444
355 443
356 442
357 442
358 442
359 443
359 444
359 445
359 446
358 447
358 448
358 449
359 450
359 451
360 451
361 452
362 453
362 454
362 455
362 456
361 457
361 458
361 459
360 460
360 461
360 462
361 463
361 464
362 465
363 466
364 466
365 467
365 468
366 469
366 470
367 469
368 469
369 468
370 467
371 466
371 465
371 464
372 463
373 462
374 462
375 462
376 463
377 462
378 462
379 461
380 460
380 459
381 458
381 457
382 456
382 455
382 454
383 453
384 452
385 451
386 450
387 450
388 450
389 451
390 452
391 453
392 454
392 455
393 456
393 457
394 458
394 459
394 460
395 461
395 462
395 463
395 464
396 465
396 466
396 467
397 468
398 468
399 468
400 468
401 467
401 466
402 465
402 464
402 463
403 462
403 461
403 460
403 459
404 458
405 459
406 459
407 460
408 460
409 459
410 459
410 458
411 457
412 456
413 455
414 454
415 453
416 452
416 451
417 450
418 450
419 449
420 448
420 447
421 446
421 445
421 444
422 443
422 442
423 441
424 441
425 441
426 440
427 439
427 438
428 437
428 436
429 435
430 434
431 434
432 434
433 433
434 432
435 431
435 430
435 429
435 428
435 427
436 426
436 425
437 424
438 424
439 425
440 424
441 425
442 425
442 424
443 423
443 422
443 421
444 420
444 419
445 418
446 418
447 418
448 418
449 417
449 416
450 415
450 414
450 413
450 412
450 411
451 410
452 411
453 410
454 410
455 411
456 411
457 412
456 413
455 413
454 414
453 415
452 416
451 417
451 418
452 419
453 419
454 420
453 421
452 422
451 422
450 423
449 423
448 424
448 425
447 426
447 427
447 428
448 429
449 429
450 429
451 430
451 431
450 432
449 432
448 433
447 434
446 435
445 436
445 437
445 438
445 439
445 440
445 441
446 441
447 441
448 441
449 442
449 443
448 444
447 445
447 446
446 447
446 448
446 449
446 450
447 451
447 452
448 452
449 452
450 452
451 452
452 452
453 451
454 450
455 450
456 449
457 448
458 447
459 446
460 446
461 445
462 446
463 447
463 448
463 449
462 450
462 451
462 452
461 453
461 454
460 455
460 456
459 457
459 458
459 459
459 460
459 461
460 461
461 462
462 462
463 462
464 462
465 462
466 461
467 460
468 459
469 458
469 457
470 456
471 457
472 457
473 458
473 459
474 460
475 460
476 460
477 460
478 459
479 458
480 457
480 456
481 455
482 455
483 455
484 455
485 455
486 456
487 456
488 456
489 455
490 455
491 454
492 453
493 452
494 451
495 452
495 453
494 454
494 455
493 456
493 457
493 458
493 459
492 460
493 461
493 462
493 463
493 464
494 464
495 465
496 464
497 463
498 462
498 461
499 460
499 459
500 458
500 457
501 456
501 455
502 454
503 454
504 455
505 456
506 457
506 458
506 459
506 460
506 461
506 462
506 463
506 464
507 465
507 466
508 467
509 467
510 467
511 467
512 466
513 465
513 464
514 463
514 462
515 461
516 461
517 461
518 461
519 461
520 461
521 460
521 459
522 458
522 457
522 456
522 455
522 454
522 453
523 452
524 452
525 452
526 452
526 451
527 450
527 449
528 448
527 447
527 446
528 445
529 444
529 443
530 442
530 441
530 440
531 439
530 438
530 437
531 436
532 435
532 434
532 433
532 432
532 431
532 430
532 429
533 428
533 427
533 426
533 425
533 424
533 423
533 422
533 421
532 420
532 419
531 418
531 417
532 416
533 416
534 416
535 416
536 416
537 416
538 416
538 415
538 414
538 413
538 412
538 411
537 410
537 409
537 408
538 407
539 406
540 406
541 406
541 405
541 404
541 403
541 402
541 401
540 400
540 399
540 398
541 397
542 397
543 396
544 396
545 396
546 396
546 395
547 394
548 393
548 392
549 391
550 391
551 390
552 389
552 388
553 387
553 386
554 385
555 384
556 383
557 383
557 382
558 381
559 380
559 379
559 378
559 377
559 376
559 375
559 374
558 373
558 372
558 371
558 370
557 369
557 368
556 367
556 366
555 365
555 364
554 363
554 362
553 361
552 360
551 359
551 358
550 357
549 356
548 355
547 354
546 353
545 352
546 351
547 351
548 350
549 350
550 350
551 350
552 350
553 351
554 352
555 352
556 353
556 354
557 355
558 356
558 357
559 358
560 359
561 360
561 361
561 362
562 362
563 363
563 364
564 365
565 365
566 364
567 363
568 362
569 361
570 361
571 361
571 360
572 359
573 360
574 361
574 362
575 363
574 364
575 365
574 366
573 367
572 368
571 369
570 370
570 371
571 372
572 373
572 374
573 375
574 375
575 375
576 375
577 375
578 376
577 377
576 378
575 378
574 378
573 379
572 379
571 380
570 380
569 381
568 382
567 383
566 384
566 385
566 386
566 387
565 388
564 389
564 390
563 391
562 392
562 393
563 394
564 395
565 396
566 396
567 397
566 398
565 398
564 399
563 400
562 401
561 402
560 403
559 404
558 405
557 406
556 407
556 408
556 409
556 410
556 411
555 412
554 413
553 414
553 415
553 416
552 417
553 418
554 419
553 420
553 421
552 422
551 423
551 424
551 425
551 426
552 427
553 428
554 428
555 428
556 428
557 429
556 430
555 431
554 432
553 433
552 434
552 435
552 436
552 437
552 438
552 439
552 440
553 440
554 440
555 441
556 440
557 440
558 440
559 440
560 441
560 442
559 443
559 444
559 445
558 446
558 447
558 448
558 449
559 450
559 451
560 451
561 451
562 451
563 450
564 449
564 448
565 447
566 446
566 445
567 444
567 443
568 442
569 441
570 441
571 441
572 442
572 443
572 444
572 445
572 446
572 447
572 448
572 449
573 450
573 451
573 452
574 453
574 454
575 454
576 454
577 454
578 453
579 453
579 452
580 451
580 450
581 449
582 449
583 449
584 450
585 451
586 451
587 450
588 450
589 449
590 448
590 447
590 446
590 445
591 444
591 443
590 442
590 441
590 440
590 439
589 438
589 437
588 436
588 435
587 434
587 433
586 432
585 431
584 430
583 429
582 428
581 427
580 427
579 426
578 425
579 424
580 423
580 422
580 421
581 420
581 419
582 418
583 417
583 416
584 415
584 414
585 413
585 412
586 411
587 411
588 411
589 412
590 412
591 413
592 414
593 415
594 416
595 416
596 417
597 418
598 419
599 420
600 421
601 421
602 422
603 423
604 424
605 424
606 425
607 426
608 427
609 427
609 426
610 425
610 424
610 423
610 422
611 421
612 420
613 419
613 418
613 417
614 416
614 415
614 414
614 413
614 412
614 411
615 410
616 410
616 409
617 408
618 407
618 406
618 405
618 404
618 403
619 402
620 402
621 403
621 402
622 401
622 400
622 399
622 398
622 397
623 396
624 395
624 394
624 393
625 392
625 391
625 390
624 389
624 388
624 387
624 386
624 385
625 384
626 383
627 384
628 384
628 383
628 382
629 381
629 380
629 379
629 378
629 377
629 376
630 375
631 375
632 375
633 374
633 373
633 372
633 371
633 370
632 369
632 368
633 367
634 367
634 366
634 365
635 364
635 363
635 362
635 361
634 360
634 359
634 358
635 357
636 358
637 358
637 357
638 356
638 355
638 354
638 353
637 352
637 351
637 350
637 349
638 348
639 348
640 347
640 346
640 345
640 344
640 343
640 342
640 341
639 340
639 339
640 338
641 339
642 338
642 337
642 336
642 335
642 334
642 333
643 332
643 331
644 330
644 329
644 328
644 327
644 326
644 325
643 324
643 323
644 322
644 321
645 320
645 319
644 318
644 317
644 316
644 315
643 314
643 313
642 312
642 311
642 310
642 309
642 308
641 307
641 306
640 305
640 304
639 303
638 302
637 301
636 300
635 299
635 298
634 297
633 296
632 296
631 295
630 294
629 293
629 292
629 291
630 290
630 289
630 288
630 287
630 286
631 285
631 284
632 283
633 283
634 283
635 282
636 282
637 282
638 282
639 282
640 282
641 281
642 281
643 281
644 281
645 281
646 281
647 281
648 280
649 280
650 280
651 280
652 280
653 280
654 280
655 279
656 279
657 279
658 279
659 279
660 279
661 278
662 278
663 278
664 278
665 278
666 278
667 277
668 277
669 277
670 277
671 277
672 277
673 277
674 276
675 276
676 276
677 276
678 276
679 276
680 276
681 275
682 275
683 275
684 275
685 275
686 274
687 274
688 274
689 274
690 274
691 274
692 274
693 273
694 273
695 273
696 273
697 273
698 273
699 272
700 272
701 272
702 272
703 272
704 272
705 271
706 271
707 271
708 271
709 271
710 271
711 270
712 270
713 270
714 270
715 270
716 270
717 270
718 269
719 269
720 269
721 269
722 269
723 269
724 269
725 269
726 268
727 268
728 268
729 268
730 268
731 268
732 268
733 268
734 267
735 267
736 267
737 267
738 267
739 267
740 267
741 267
742 267
743 267
744 267
745 267
746 267
747 267
748 267
749 267
750 267
751 268
752 268
753 268
754 268
755 268
756 268
757 268
758 268
759 268
760 268
761 269
762 268
763 268
764 267
764 266
764 265
764 264
764 263
764 262
764 261
765 260
764 259
764 258
763 257
763 256
762 255
761 254
760 253
759 252
758 252
757 252
756 252
755 252
754 251
753 251
752 251
751 251
750 252
749 252
748 252
747 252
746 253
745 253
744 253
743 254
742 254
741 255
740 255
739 255
738 256
737 256
736 257
735 257
734 257
733 258
732 258
731 258
730 258
729 259
728 259
727 259
726 260
725 260
724 260
723 260
722 260
721 261
720 261
719 261
718 261
717 261
716 262
715 262
714 262
713 262
712 262
711 263
710 263
709 263
708 263
707 263
706 264
705 264
704 264
703 264
702 264
701 264
700 264
699 265
698 265
697 265
696 265
695 265
694 266
693 266
692 266
691 266
690 266
689 266
688 267
687 267
686 267
685 267
684 267
683 267
682 268
681 268
680 268
679 268
678 268
677 268
676 269
675 269
674 269
673 269
672 269
671 269
670 269
669 270
668 270
667 270
666 270
665 270
664 270
663 271
662 271
661 271
660 271
659 271
658 271
657 271
656 272
655 272
654 272
653 272
652 272
651 272
650 272
649 272
648 273
647 273
646 273
645 273
644 273
643 273
642 273
641 273
640 273
639 273
638 274
637 274
636 274
635 274
634 274
633 274
632 273
631 273
630 272
630 271
630 270
630 269
630 268
630 267
630 266
630 265
629 264
629 263
629 262
629 261
628 260
628 259
629 258
630 257
631 257
632 257
633 257
634 256
635 256
636 256
637 255
638 254
639 254
640 253
641 252
642 251
643 251
644 250
645 249
646 248
647 247
648 246
648 245
648 244
648 243
648 242
647 242
646 242
645 243
644 243
643 243
642 244
641 244
640 244
639 245
638 245
637 246
636 246
635 247
634 247
633 247
632 248
631 248
630 248
629 249
628 249
627 249
626 248
626 247
626 246
626 245
627 244
628 244
629 244
630 244
631 244
632 244
633 244
634 244
635 244
636 243
637 243
638 243
639 242
640 242
641 242
642 241
643 240
644 240
645 240
645 239
646 238
647 237
648 236
649 236
649 235
650 234
651 233
651 232
651 231
651 230
651 229
650 229
649 229
648 229
647 229
646 229
645 229
644 228
643 227
644 226
645 225
646 224
647 223
648 222
648 221
649 220
649 219
650 218
650 217
650 216
650 215
649 214
648 214
647 213
647 212
648 211
648 210
648 209
648 208
648 207
648 206
648 205
647 204
648 203
648 202
649 201
649 200
649 199
648 198
648 197
647 197
646 197
645 196
646 195
646 194
647 193
647 192
648 191
648 190
648 189
647 188
647 187
646 187
645 188
644 188
643 188
642 188
641 187
641 186
642 185
643 184
643 183
644 182
644 181
644 180
645 179
645 178
645 177
645 176
645 175
645 174
645 173
645 172
645 171
645 170
644 169
643 169
642 168
643 167
643 166
644 165
644 164
644 163
644 162
644 161
644 160
643 160
642 160
641 160
640 160
639 160
638 159
639 158
640 157
640 156
640 155
641 154
641 153
641 152
641 151
640 150
639 150
638 150
637 150
636 151
635 151
634 152
633 152
632 152
631 153
630 153
629 153
628 154
627 154
626 154
625 154
624 155
623 155
622 155
621 155
620 155
619 156
618 156
617 156
616 156
615 156
614 157
613 156
613 155
613 154
613 153
612 152
612 151
612 150
613 149
614 148
615 148
616 148
617 147
618 147
619 147
620 146
621 146
622 146
623 145
624 145
625 144
626 143
627 142
628 142
629 141
630 140
631 139
632 138
632 137
633 136
634 135
634 134
634 133
634 132
635 131
634 130
634 129
634 128
633 127
633 126
632 126
631 126
630 127
629 127
628 128
627 129
626 129
625 130
624 130
623 129
623 128
623 127
624 126
624 125
624 124
624 123
625 122
625 121
625 120
625 119
624 118
624 117
624 116
623 115
622 114
621 113
620 113
619 113
618 114
617 115
617 116
616 117
616 118
615 119
615 120
614 121
614 122
613 123
612 124
612 125
611 126
611 127
610 128
610 129
609 130
609 131
609 132
609 133
609 134
609 135
609 136
608 137
607 137
606 136
605 136
604 136
603 136
602 135
601 135
600 134
599 134
598 133
597 133
596 132
595 132
594 131
593 130
592 130
591 129
590 128
589 128
588 127
587 126
586 126
585 126
584 126
584 127
584 128
584 129
584 130
584 131
584 132
585 133
585 134
586 135
586 136
587 137
587 138
588 139
589 140
588 141
587 141
586 141
585 141
584 141
583 141
582 141
581 141
581 142
581 143
581 144
582 145
582 146
583 147
583 148
584 149
585 150
586 151
587 152
588 153
589 153
590 154
591 154
592 155
593 155
594 155
595 156
596 156
597 156
598 156
599 156
600 157
601 157
602 157
603 157
604 157
605 157
606 157
607 157
608 157
609 157
610 157
611 158
611 159
611 160
612 161
611 162
612 163
612 164
612 165
611 166
610 166
609 165
608 165
607 165
606 165
605 165
604 164
603 164
602 164
601 164
600 163
599 163
598 163
597 163
596 162
595 162
594 162
593 162
592 161
591 161
590 161
589 161
588 161
587 160
586 160
585 160
584 160
583 160
582 160
581 159
580 160
581 161
581 162
581 163
581 164
582 165
582 166
583 167
582 168
581 168
582 169
582 170
582 171
582 172
582 173
583 174
583 175
584 176
585 177
586 178
586 179
586 180
587 181
586 182
585 182
584 183
583 182
583 183
583 184
583 185
584 186
584 187
584 188
585 189
585 190
585 191
585 192
585 193
585 194
586 195
586 196
587 197
587 198
588 199
588 200
589 200
590 201
590 202
589 203
588 204
587 204
588 205
588 206
588 207
589 208
589 209
589 210
590 210
591 211
590 212
589 212
590 213
590 214
590 215
591 216
591 217
591 218
592 219
592 220
592 221
592 222
593 223
593 224
594 225
594 226
594 227
594 228
594 229
594 230
594 231
594 232
595 233
595 234
595 235
596 236
596 237
596 238
597 239
598 240
599 240
600 241
601 241
602 241
603 242
604 242
605 242
606 243
607 243
608 243
609 243
610 243
611 243
612 244
613 244
614 244
615 244
616 244
617 244
618 244
619 244
620 244
621 244
622 244
623 245
624 246
624 247
624 248
625 249
625 250
625 251
625 252
625 253
625 254
625 255
625 256
626 257
626 258
626 259
627 260
627 261
627 262
627 263
627 264
627 265
628 266
628 267
628 268
627 269
627 270
627 271
627 272
627 273
627 274
626 275
625 275
624 275
623 275
622 275
621 275
620 275
619 276
618 276
617 276
616 276
615 276
614 276
613 276
612 276
611 276
610 277
609 277
608 277
607 277
606 277
605 277
604 277
603 277
602 277
601 277
600 278
599 278
598 278
597 278
596 278
595 278
594 278
593 278
592 278
591 278
590 278
589 278
588 278
587 279
586 279
585 279
584 279
583 279
582 279
581 279
580 279
579 279
578 279
577 279
576 280
575 280
574 280
573 280
572 280
571 280
570 280
569 280
568 280
567 280
566 281
565 281
564 281
563 281
562 281
561 281
560 281
559 280
558 280
557 279
556 278
556 277
555 276
555 275
554 274
554 273
553 272
552 271
552 270
551 269
551 268
552 267
553 267
554 267
555 267
556 267
557 266
558 266
559 266
560 265
561 265
562 265
562 264
563 263
564 263
565 262
565 261
566 260
567 259
567 258
568 257
567 257
566 257
565 256
564 257
563 257
562 257
561 257
560 258
559 258
558 258
557 258
556 258
555 259
554 259
553 259
552 258
553 257
554 257
555 256
556 255
557 254
558 253
559 252
560 251
561 250
562 249
563 248
563 247
564 246
565 245
565 244
566 243
566 242
566 241
565 240
565 239
564 239
563 239
562 239
561 240
560 241
559 241
558 242
557 243
556 244
555 245
554 245
553 246
552 247
551 248
550 248
549 249
548 248
548 247
547 246
547 245
546 244
546 243
545 242
545 241
546 240
547 239
548 238
549 238
550 237
551 236
552 235
553 234
554 233
555 232
556 231
557 230
557 229
558 228
559 227
559 226
560 225
560 224
560 223
560 222
559 221
559 220
558 220
557 220
556 221
555 221
554 222
553 223
552 223
551 224
550 225
549 226
548 226
547 227
546 228
545 229
544 229
543 230
542 231
541 231
540 232
539 232
538 233
537 234
536 234
535 235
534 236
533 236
532 235
532 234
531 233
531 232
530 231
529 230
529 229
528 228
528 227
527 226
527 225
526 224
525 223
525 222
525 221
525 220
526 219
527 218
527 217
527 216
527 215
528 214
529 213
530 212
531 211
532 211
533 210
534 209
535 208
536 207
537 206
538 205
539 204
540 203
541 202
541 201
542 200
542 199
543 198
543 197
544 196
544 195
544 194
544 193
544 192
544 191
543 190
543 189
542 189
541 190
540 191
539 191
538 192
537 193
536 194
535 195
534 196
533 196
532 197
531 198
530 199
529 200
528 201
527 201
526 202
525 201
525 200
525 199
524 198
524 197
524 196
523 195
523 194
522 193
522 192
522 191
523 190
524 189
525 188
526 187
526 186
527 185
528 184
528 183
529 182
529 181
530 180
530 179
531 178
531 177
531 176
531 175
531 174
531 173
531 172
531 171
531 170
530 169
529 169
528 170
527 171
526 172
525 173
524 174
523 175
522 176
521 177
520 178
519 179
518 180
517 181
516 182
515 183
514 184
513 185
512 186
511 187
510 188
509 189
508 190
507 190
506 191
505 190
504 189
503 188
502 187
502 186
501 185
501 184
500 183
500 182
501 181
502 180
503 180
504 179
505 178
506 177
507 176
508 175
509 175
509 174
510 173
511 172
512 171
513 170
513 169
514 168
514 167
515 166
515 165
516 164
516 163
517 162
517 161
518 160
518 159
518 158
518 157
519 156
519 155
518 154
518 153
518 152
517 151
517 150
516 149
515 149
514 150
513 151
512 150
512 149
512 148
512 147
512 146
512 145
512 144
512 143
512 142
511 141
510 140
509 140
508 141
507 140
507 139
507 138
507 137
507 136
506 135
506 134
506 133
505 132
504 131
503 132
502 133
501 134
500 135
499 134
499 133
499 132
499 131
499 130
499 129
499 128
499 127
499 126
498 125
498 124
497 123
496 123
496 124
495 125
494 125
493 126
492 125
492 124
492 123
492 122
492 121
492 120
492 119
491 118
491 117
490 116
489 115
488 115
487 116
486 117
485 116
485 115
486 114
486 113
486 112
485 111
485 110
485 109
484 108
483 108
482 109
481 110
480 109
480 108
480 107
480 106
480 105
479 104
479 103
478 102
477 101
476 102
475 103
474 104
473 105
473 106
472 107
471 108
470 109
469 110
468 111
468 112
467 113
466 114
465 115
464 116
463 117
462 118
461 119
460 120
459 121
458 122
458 123
457 124
456 124
455 123
454 122
453 121
452 120
452 119
451 118
451 117
452 116
453 116
453 115
454 114
455 114
456 113
457 112
458 111
459 110
460 109
460 108
461 107
462 106
463 105
463 104
464 103
464 102
464 101
465 100
465 99
466 98
466 97
466 96
466 95
466 94
466 93
466 92
466 91
466 90
466 89
465 88
464 87
463 88
462 89
461 90
460 90
459 89
460 88
460 87
460 86
460 85
460 84
460 83
460 82
459 81
459 80
459 79
458 78
457 78
456 79
455 80
454 81
453 82
452 82
451 81
451 80
451 79
452 78
452 77
451 76
451 75
451 74
451 73
450 72
450 71
449 70
448 70
447 70
447 71
446 72
445 73
444 74
444 75
443 76
442 77
442 78
441 79
441 80
440 81
439 82
439 83
438 84
437 85
437 86
436 87
435 88
434 89
433 90
432 90
431 89
430 88
429 87
429 86
428 85
428 84
428 83
429 82
430 81
431 80
432 79
433 78
433 77
434 76
435 75
435 74
436 73
436 72
437 71
437 70
437 69
438 68
438 67
438 66
438 65
438 64
438 63
438 62
437 61
437 60
436 59
436 58
435 58
434 57
433 58
432 59
431 60
431 61
430 62
429 61
428 60
428 59
428 58
428 57
428 56
427 55
427 54
426 53
425 53
424 52
423 52
422 52
421 51
