323 29
324 29
325 29
326 30
327 30
328 31
329 32
330 33
331 34
331 35
331 36
331 37
331 38
331 39
331 40
330 41
329 42
328 42
327 43
326 43
325 43
324 43
323 43
322 43
321 43
320 43
319 42
318 42
317 42
316 42
315 42
314 42
313 41
312 41
311 41
310 40
309 40
308 40
307 40
306 39
305 39
304 39
303 39
302 39
301 39
300 39
299 39
298 39
297 39
296 38
295 38
294 38
293 38
292 38
291 38
290 38
289 38
288 38
287 38
286 38
285 38
284 38
283 38
282 38
281 38
280 38
279 38
278 38
277 38
276 38
275 38
274 38
273 38
272 38
271 38
270 38
269 38
268 38
267 38
266 38
265 38
264 39
263 39
262 39
261 39
260 39
259 39
258 40
257 40
256 40
257 40
258 40
259 40
260 40
261 40
262 40
263 41
264 41
265 41
266 42
266 43
266 44
267 45
267 46
267 47
267 48
267 49
266 50
265 50
264 51
263 51
262 52
261 52
260 52
259 52
258 52
257 51
256 51
255 51
254 51
253 50
252 50
251 50
250 50
249 50
248 49
247 49
246 49
245 49
244 49
243 49
242 49
241 49
240 49
239 49
238 49
237 49
236 49
235 49
234 49
233 49
232 49
231 49
230 49
229 49
228 49
227 49
226 49
225 50
224 50
223 50
222 50
221 50
220 50
219 51
218 51
217 51
216 51
215 51
214 51
213 51
212 52
211 52
210 52
209 52
208 52
207 52
206 51
205 51
204 51
203 51
202 50
201 50
202 50
203 51
204 52
205 52
206 53
207 54
208 55
209 56
209 57
210 58
210 59
210 60
211 61
211 62
211 63
211 64
210 65
209 66
208 67
207 68
206 68
205 68
204 68
203 68
202 68
201 68
200 69
199 69
198 69
197 69
196 69
195 69
194 69
193 69
192 69
191 69
190 69
189 69
188 70
187 70
186 71
185 72
184 73
183 73
182 73
181 73
180 72
179 72
178 72
177 72
176 72
175 72
174 72
173 73
172 73
171 73
170 73
169 73
168 73
167 74
166 74
165 74
164 74
163 75
164 76
165 76
166 77
167 78
167 79
168 80
168 81
167 82
167 83
166 84
165 85
164 85
163 86
162 86
161 86
160 87
159 87
158 87
157 87
156 87
155 88
154 88
153 88
152 88
151 88
150 88
149 89
148 89
147 89
146 90
145 90
144 90
143 90
142 90
141 90
140 91
139 91
138 92
137 92
136 92
135 92
134 93
133 93
132 93
131 93
130 93
129 93
128 94
127 94
126 94
127 94
128 94
129 94
130 94
131 95
132 96
133 97
133 98
133 99
133 100
132 101
131 102
130 103
129 103
128 104
127 104
126 104
125 104
124 105
123 105
122 105
121 106
120 106
119 106
118 107
117 107
116 107
115 108
114 108
113 108
112 109
111 109
110 109
109 110
108 111
107 111
106 112
105 112
104 112
103 112
102 113
101 113
100 113
99 113
98 114
99 114
100 114
101 114
102 114
103 115
104 116
104 117
105 118
105 119
105 120
104 121
103 122
102 123
101 124
100 124
99 125
98 125
97 125
96 126
95 126
94 127
93 127
92 127
91 128
90 128
89 128
88 129
87 129
86 129
85 130
84 130
83 130
82 130
81 130
80 130
79 130
78 130
79 131
79 132
79 133
78 134
77 135
76 136
75 137
74 137
73 137
72 137
71 137
70 138
69 138
68 138
67 138
66 138
65 138
64 139
63 139
62 139
61 139
60 140
59 140
58 140
58 141
59 142
58 143
57 144
56 144
55 145
54 145
53 145
52 145
51 146
50 146
49 146
48 146
47 146
46 147
45 147
44 147
43 147
42 148
41 148
40 149
39 149
38 149
37 150
36 150
35 150
34 150
33 150
32 151
31 152
30 153
31 152
32 152
33 152
34 152
35 152
36 152
37 152
38 152
39 152
40 153
41 153
42 153
43 153
44 153
45 153
46 154
46 155
47 155
48 155
49 155
50 155
51 155
52 155
53 155
54 155
55 155
56 155
57 155
58 156
59 156
60 156
61 157
62 158
63 158
64 158
65 159
66 159
67 159
68 159
69 159
70 159
71 159
72 160
73 160
74 160
75 160
76 160
77 161
78 161
79 161
80 162
81 163
81 164
81 165
80 166
79 166
80 166
81 166
82 166
83 166
84 166
85 166
86 166
87 166
88 166
89 166
90 166
91 166
92 166
93 166
94 166
95 166
96 167
97 167
98 167
99 168
100 169
101 169
102 170
102 171
103 172
103 173
103 174
103 175
103 176
103 177
102 178
101 178
100 178
101 178
102 178
103 178
104 178
105 178
106 179
107 179
108 179
109 180
110 180
111 180
112 181
113 181
114 181
115 182
116 182
117 182
118 182
119 183
120 183
121 183
122 184
123 184
124 185
125 186
126 187
126 188
126 189
125 190
125 191
124 192
123 193
122 194
121 194
120 194
119 194
118 194
119 194
120 195
121 195
122 196
123 196
124 196
125 196
126 196
127 196
128 196
129 196
130 196
131 196
132 196
133 197
134 197
135 197
136 197
137 197
138 197
139 198
140 198
141 198
142 199
143 199
144 200
145 200
146 201
147 201
148 201
149 202
150 202
151 203
151 204
152 205
152 206
152 207
152 208
151 209
151 210
150 211
149 212
148 213
147 213
146 213
145 214
144 214
143 213
142 213
143 213
144 214
145 214
146 214
147 214
148 214
149 214
150 214
151 214
152 214
153 214
154 215
155 215
156 215
157 215
158 215
159 215
160 216
161 216
162 216
163 216
164 216
165 216
166 216
167 217
168 217
169 217
170 217
171 217
172 218
173 218
174 218
175 218
176 219
177 219
178 220
179 220
180 221
181 221
182 222
182 223
182 224
182 225
182 226
181 227
181 228
181 229
180 230
179 230
178 231
177 231
176 231
175 231
174 231
173 231
172 231
173 231
174 231
175 232
176 232
177 232
178 232
179 232
180 232
181 232
182 232
183 232
184 232
185 232
186 232
187 232
188 232
189 232
190 232
191 232
192 232
193 233
194 233
195 233
196 233
197 233
198 233
199 233
200 233
201 233
202 233
203 233
204 233
205 234
206 234
207 234
208 235
209 235
210 236
211 237
212 237
213 238
213 239
213 240
213 241
212 242
212 243
211 244
211 245
210 246
209 247
209 248
208 249
207 250
206 251
205 251
204 252
203 252
202 252
201 252
200 252
201 252
202 252
203 252
204 252
205 253
206 253
207 252
208 252
209 252
210 252
211 252
212 253
213 253
214 253
215 253
216 253
217 253
218 253
219 253
220 253
221 253
222 253
223 253
224 253
225 253
226 253
227 253
228 253
229 253
230 254
231 254
232 254
233 254
234 254
235 254
236 253
237 253
238 253
239 253
240 253
241 253
242 253
243 254
244 254
245 254
246 254
247 254
248 254
249 254
250 254
251 254
252 254
253 254
254 255
255 255
256 255
257 255
258 255
259 256
260 256
261 257
261 258
262 259
262 260
261 261
261 262
261 263
260 264
260 265
259 266
258 267
257 267
256 268
255 268
254 269
253 269
254 269
255 269
256 269
257 269
258 269
259 270
260 270
261 270
262 270
263 270
264 270
265 270
266 270
267 270
268 270
269 270
270 270
271 269
272 269
273 269
274 269
275 269
276 269
277 269
278 268
279 268
280 268
281 268
282 268
283 268
284 268
285 268
286 268
287 268
288 267
289 267
290 267
291 267
292 267
293 267
294 267
295 267
296 267
297 267
298 267
299 267
300 266
301 266
302 266
303 266
304 266
305 266
306 266
307 266
308 266
309 266
310 266
311 266
312 266
313 267
314 268
315 269
315 270
315 271
315 272
314 273
314 274
313 275
312 276
311 277
310 277
309 278
310 278
311 278
312 278
313 278
314 278
315 278
316 278
317 278
318 278
319 278
320 278
321 278
322 278
323 278
324 278
325 277
326 277
327 277
328 277
329 277
330 277
331 277
332 277
333 277
334 277
335 277
336 276
337 276
338 276
339 276
340 276
341 276
342 275
343 275
344 275
345 275
346 274
347 274
348 274
349 273
350 273
351 273
352 272
353 272
354 272
355 272
356 271
357 271
358 271
359 271
360 271
361 270
362 270
363 270
364 270
365 270
366 270
367 270
368 270
369 270
370 270
371 270
372 271
373 271
374 272
375 272
376 273
377 274
378 275
378 276
379 277
379 278
379 279
379 280
379 281
379 282
378 283
378 284
377 285
376 286
375 287
374 287
375 287
376 286
377 286
378 286
379 285
380 285
381 285
382 284
383 284
384 284
385 284
386 284
387 284
388 284
389 284
390 283
391 283
392 283
393 283
394 283
395 283
396 282
397 282
398 282
399 282
400 281
401 281
402 281
403 281
404 280
405 280
406 280
407 279
408 279
409 279
410 279
411 278
412 278
413 277
414 277
415 276
416 276
417 275
418 275
419 274
420 274
421 273
422 273
423 272
424 272
425 271
426 271
427 270
428 270
429 269
430 269
431 269
432 268
433 268
434 268
435 268
436 267
437 267
438 267
439 267
440 267
441 267
442 267
443 267
444 267
445 267
446 267
447 267
448 267
449 268
450 269
451 270
452 271
452 272
453 273
453 274
453 275
452 276
451 277
450 278
449 279
450 278
451 277
452 277
453 276
454 276
455 276
456 276
457 275
458 275
459 275
460 275
461 275
462 275
463 274
464 274
465 274
466 274
467 274
468 274
469 273
470 273
471 273
472 273
473 272
474 272
475 272
476 272
477 271
478 271
479 271
480 270
481 270
482 270
483 269
484 269
485 268
486 268
487 267
488 267
489 266
490 266
491 266
492 265
493 265
494 264
495 264
496 264
497 263
498 263
499 262
500 262
501 262
502 261
503 261
504 261
505 261
506 261
507 260
508 260
509 260
510 260
511 260
512 260
513 260
514 260
515 260
516 260
517 261
518 261
519 262
520 263
520 264
520 265
520 266
520 267
520 268
519 269
518 270
518 271
517 272
518 271
519 270
520 269
521 268
522 268
523 267
524 267
525 266
526 266
527 266
528 266
529 265
530 265
531 265
532 265
533 264
534 264
535 264
536 264
537 263
538 263
539 263
540 262
541 262
542 262
543 261
544 261
545 260
546 260
547 259
548 259
549 258
550 258
551 257
552 257
553 256
554 256
555 256
556 255
557 255
558 254
559 254
560 253
561 253
562 252
563 252
564 251
565 251
566 251
567 250
568 250
569 250
570 250
571 250
572 250
573 250
574 250
575 251
576 251
577 252
577 253
577 254
576 255
575 255
576 255
577 254
578 254
579 253
580 253
581 253
582 253
583 252
584 252
585 252
586 252
587 251
588 251
589 250
590 250
591 249
592 249
593 248
594 248
595 248
596 247
597 247
598 247
599 246
600 246
601 245
602 245
603 244
604 244
605 243
606 243
607 243
608 242
609 242
610 242
611 241
612 241
613 241
614 241
615 241
616 242
617 242
618 243
619 244
618 245
618 246
617 247
618 246
619 245
620 245
621 244
622 244
623 244
624 244
625 243
626 243
627 243
628 242
629 242
630 242
631 241
632 241
633 241
634 240
635 240
636 240
637 239
638 239
639 238
640 238
641 237
642 237
643 237
644 236
645 236
646 235
647 235
648 235
649 234
650 234
651 233
652 233
653 232
654 232
655 232
656 231
657 231
658 230
659 230
660 230
661 229
662 229
663 228
664 228
665 227
666 227
667 226
668 226
669 225
670 224
671 224
672 223
673 223
674 222
675 222
676 221
677 221
678 220
679 219
680 219
681 218
682 218
683 217
684 217
685 216
686 215
687 215
688 214
689 214
690 213
691 213
692 212
693 211
694 211
695 210
696 209
697 208
698 208
699 207
700 207
701 206
702 205
703 205
704 204
705 203
706 203
707 202
708 201
709 201
710 200
711 199
712 198
713 197
714 197
715 196
716 195
717 194
718 193
719 192
720 191
721 190
722 189
722 188
723 187
724 186
725 185
725 184
726 183
726 182
727 181
727 180
728 179
728 178
729 177
729 176
729 175
729 174
730 173
730 172
730 171
730 170
730 169
730 168
730 167
730 166
730 165
730 164
730 163
730 162
730 161
730 160
731 159
732 158
733 157
734 157
735 157
736 157
737 157
738 157
739 157
740 157
741 157
742 157
743 157
744 157
745 157
746 157
747 157
748 157
749 157
750 157
751 157
752 157
753 157
754 157
755 157
756 157
757 157
758 158
759 158
760 158
761 158
762 158
763 159
764 159
765 160
766 160
767 160
768 161
767 162
767 163
767 164
767 165
768 165
769 165
770 165
771 165
772 164
773 164
774 163
775 163
776 162
776 161
776 160
776 159
775 158
775 157
775 156
774 155
773 154
773 153
772 153
771 152
770 152
769 151
768 151
767 150
766 150
765 150
764 150
763 150
762 150
761 150
760 150
759 150
758 150
757 150
756 150
755 150
754 150
753 150
752 150
751 150
750 150
749 151
748 151
747 151
746 151
745 151
744 151
743 151
742 151
741 151
740 151
739 151
738 151
737 151
736 151
735 151
734 151
733 151
732 151
731 151
730 150
729 150
728 150
727 149
727 148
727 147
727 146
726 145
726 144
726 143
726 142
726 141
726 140
726 139
725 138
725 137
725 136
724 135
724 134
723 133
723 132
722 131
721 130
720 129
720 128
719 128
718 127
717 126
716 125
715 125
714 124
713 123
712 122
711 122
710 121
709 120
708 120
707 119
706 118
705 118
704 117
703 117
702 116
701 116
700 115
699 115
698 114
697 114
696 113
695 113
694 112
693 112
692 111
691 110
690 110
689 109
688 109
687 109
686 108
685 108
684 107
683 107
682 106
681 106
680 105
679 105
678 104
677 104
676 103
675 103
674 102
673 102
672 102
671 101
670 101
669 101
668 101
667 100
666 100
665 100
664 99
663 99
662 99
661 98
660 98
659 98
658 98
657 97
656 97
655 97
654 96
653 96
652 96
651 95
650 95
649 95
648 94
647 94
646 93
645 93
644 93
643 92
642 92
641 92
640 91
639 91
638 91
637 90
636 90
635 90
634 89
633 89
632 89
631 88
630 88
629 88
628 87
627 87
626 87
625 86
624 86
623 86
622 85
621 85
620 85
619 84
618 84
617 83
616 83
615 83
614 82
613 82
612 82
611 81
610 81
609 81
608 81
607 81
606 80
605 80
604 80
603 80
602 80
601 79
600 79
599 78
598 77
599 78
598 79
597 80
596 80
595 80
594 80
593 80
592 79
591 79
590 79
589 79
588 78
587 78
586 78
585 77
584 77
583 76
582 76
581 76
580 75
579 75
578 75
577 74
576 74
575 73
574 73
573 73
572 72
571 72
570 72
569 72
568 72
567 71
566 71
565 71
564 71
563 71
562 71
561 70
560 70
559 69
559 70
559 71
559 72
559 73
558 74
557 75
556 75
555 75
554 75
553 75
552 75
551 75
550 75
549 74
548 74
547 73
546 73
545 73
544 72
543 72
542 71
541 71
540 70
539 70
538 69
537 69
536 68
535 68
534 67
533 67
532 67
531 66
530 66
529 66
528 65
527 65
526 65
525 64
524 64
523 64
522 64
521 63
520 63
519 63
518 63
517 63
516 63
515 63
514 63
513 63
512 62
511 62
512 63
512 64
513 65
513 66
513 67
512 68
511 69
510 69
509 69
508 70
507 70
506 70
505 70
504 70
503 69
502 69
501 68
500 68
499 67
498 67
497 66
496 66
495 65
494 65
493 64
492 64
491 63
490 63
489 62
488 62
487 61
486 61
485 60
484 60
483 60
482 59
481 59
480 59
479 58
478 58
477 58
476 58
475 57
474 57
473 57
472 57
471 57
470 56
469 56
468 56
467 56
466 56
465 56
464 56
463 55
462 55
462 56
462 57
461 58
460 59
459 59
458 60
457 60
456 60
455 60
454 60
453 59
452 59
451 59
450 58
449 57
448 57
447 57
446 56
445 56
444 55
443 55
442 55
441 54
440 54
439 53
438 53
437 53
436 53
435 53
434 52
433 52
432 52
431 51
430 51
429 50
428 50
427 50
426 49
425 48
424 47
423 47
422 46
421 46
420 46
419 45
418 45
417 45
416 45
415 45
414 45
413 45
412 45
411 44
410 44
409 44
408 44
407 44
406 44
405 44
404 44
403 43
402 42
401 42
400 41
401 42
402 43
402 44
402 45
403 46
403 47
403 48
402 49
401 50
400 51
399 52
398 52
397 52
396 52
395 52
394 52
393 52
392 52
391 51
390 51
389 51
388 50
387 50
386 49
385 49
384 48
383 47
382 47
381 46
380 46
379 45
378 45
377 44
376 43
375 43
374 42
373 41
372 41
371 40
370 40
369 39
368 39
367 39
366 38
365 38
364 38
363 37
362 37
361 37
360 36
359 36
358 36
357 36
356 35
355 35
354 35
353 34
352 34
351 34
350 34
349 34
348 33
347 33
346 33
345 33
344 33
343 32
342 32
341 32
340 32
339 32
338 31
337 31
336 31
335 31
334 31
333 31
332 30
331 30
330 30
329 30
328 30
327 30
326 29
325 29
324 29
323 29
