81 301
81 302
81 303
81 304
81 305
81 306
81 307
81 308
82 308
83 309
84 309
85 310
85 311
86 312
86 313
87 314
87 315
87 316
87 317
86 318
86 319
85 320
84 321
83 322
83 323
83 324
83 325
83 326
83 327
83 328
83 329
83 330
84 330
85 331
86 332
87 333
87 334
88 335
88 336
89 337
90 337
91 338
92 338
93 339
94 340
95 341
95 342
94 343
94 344
93 345
92 346
92 347
92 348
92 349
92 350
92 351
92 352
93 352
94 353
95 353
96 354
97 354
98 355
99 356
100 356
101 357
102 357
103 358
103 359
104 360
104 361
105 362
106 363
107 363
108 364
109 364
110 365
111 365
112 366
113 367
114 368
114 369
113 370
113 371
113 372
113 373
113 374
113 375
113 376
113 377
113 378
114 379
115 379
116 380
117 380
118 381
119 381
120 382
121 383
122 383
123 384
124 384
125 385
126 386
126 387
127 388
127 389
128 390
128 391
129 391
130 391
131 391
132 392
133 392
134 392
135 392
136 393
137 393
138 393
139 393
140 393
141 393
142 393
143 393
144 393
145 393
146 393
147 393
148 393
149 393
150 393
151 394
152 394
153 395
153 396
154 397
154 398
155 399
155 400
155 401
155 402
155 403
155 404
155 405
155 406
156 406
157 406
158 406
159 406
160 407
161 407
162 408
163 408
164 409
165 410
166 410
167 410
168 411
169 411
170 412
171 412
172 413
173 413
174 414
174 415
175 416
175 417
176 418
177 418
178 418
179 418
180 418
181 418
182 418
183 418
184 418
185 418
186 418
187 418
188 418
189 418
190 418
191 418
192 418
193 419
194 419
195 420
196 420
197 421
197 422
198 423
198 424
199 425
199 426
200 426
201 426
202 426
203 427
204 427
205 428
206 428
207 429
208 429
209 430
210 431
211 431
212 431
213 432
214 432
215 433
216 433
217 434
217 435
218 436
218 437
219 438
220 438
221 438
222 438
223 439
224 439
225 439
226 439
227 439
228 439
229 439
230 439
231 439
232 439
233 439
234 440
235 440
236 441
237 441
238 442
239 443
239 444
240 444
241 444
242 444
243 444
244 444
245 444
246 444
247 444
248 444
249 444
250 444
251 444
252 444
253 444
254 444
255 444
256 443
257 443
258 443
259 444
260 444
261 445
262 446
262 447
263 448
263 449
264 450
265 450
266 450
267 450
268 450
269 450
270 450
271 450
272 450
273 449
274 449
275 449
276 448
277 448
278 448
279 448
280 448
281 448
282 448
283 448
284 448
285 448
286 448
287 448
288 449
289 449
290 450
291 450
292 450
293 450
294 450
295 450
296 450
297 450
298 450
299 450
300 450
301 450
302 450
303 450
304 450
305 450
306 450
307 450
308 450
309 450
310 450
311 450
312 450
313 450
314 450
315 450
316 450
317 449
318 449
319 449
320 448
321 448
322 449
323 449
324 450
325 450
326 451
327 452
328 452
329 452
330 452
331 452
332 452
333 452
334 452
335 452
336 451
337 450
338 450
339 449
340 449
341 448
342 448
343 447
344 447
345 447
346 446
347 446
348 445
349 445
350 445
351 445
352 445
353 445
354 445
355 445
356 445
357 445
358 445
359 444
360 444
361 444
362 443
363 443
364 442
365 442
366 441
367 441
368 440
369 440
370 440
371 440
372 440
373 440
374 440
375 440
376 440
377 439
378 439
379 438
380 438
381 438
382 437
383 437
384 436
385 435
386 434
387 433
388 432
389 432
390 431
391 431
392 430
393 430
394 430
395 430
396 430
397 429
398 428
398 427
399 426
400 425
401 424
402 424
403 423
404 422
405 421
406 420
407 419
408 419
409 418
410 418
411 417
412 417
413 416
414 416
415 416
416 416
417 416
418 416
419 416
420 415
421 415
422 414
423 414
424 413
425 412
426 411
427 411
428 410
429 410
430 409
431 409
432 408
433 408
434 408
435 408
436 408
437 407
438 407
439 406
440 406
441 405
442 405
443 404
444 403
445 403
446 402
447 402
448 401
449 401
450 400
451 400
452 399
453 399
454 399
455 399
456 398
457 398
458 397
459 396
460 395
461 394
462 394
463 393
464 393
465 392
466 391
467 390
468 389
469 388
470 388
471 387
472 387
473 386
474 386
475 385
476 385
477 385
478 385
479 385
480 384
481 384
482 384
483 383
484 383
485 382
486 381
487 380
488 379
489 379
490 378
491 378
492 377
493 376
493 375
494 374
495 373
495 372
496 371
496 370
497 369
498 368
498 367
499 366
500 365
501 365
502 364
503 364
504 363
505 363
506 362
507 361
507 360
508 359
509 358
510 357
510 356
511 355
512 354
513 353
514 352
515 352
516 351
517 351
518 350
519 349
520 348
521 347
522 346
523 345
524 344
525 343
526 342
527 341
528 340
528 339
529 338
530 337
531 336
532 335
533 334
533 333
534 332
535 331
536 330
536 329
537 328
538 327
539 326
540 325
541 324
542 323
543 322
544 321
545 320
546 320
547 319
548 318
549 317
550 316
551 315
552 314
553 313
554 312
555 311
556 310
557 309
558 308
559 307
560 306
561 306
562 305
563 304
564 303
565 302
566 301
567 300
568 299
569 298
570 297
571 296
572 295
572 294
573 293
574 292
575 291
576 290
577 289
578 288
579 288
580 287
581 286
582 285
583 284
584 283
585 282
586 282
587 281
588 280
589 279
590 278
591 278
592 277
593 276
594 275
595 274
596 274
597 273
598 273
599 272
600 272
601 271
602 271
603 270
604 270
605 269
606 269
607 268
608 268
609 267
610 267
611 267
612 266
613 266
614 266
615 266
616 266
617 266
618 266
619 266
620 266
621 266
622 266
623 266
624 266
625 266
626 266
627 267
628 267
629 267
630 267
631 267
632 267
633 267
634 267
635 267
636 268
637 268
638 269
639 269
640 269
641 269
642 269
643 269
644 270
645 270
646 270
647 270
648 270
649 271
650 271
651 271
652 271
653 271
654 271
655 271
656 272
657 272
658 272
659 272
660 272
661 273
662 273
663 273
664 273
665 273
666 273
667 273
668 273
669 273
670 273
671 273
672 273
673 273
674 274
675 274
676 275
677 275
678 275
679 275
680 275
681 275
682 275
683 275
684 275
685 275
686 276
687 276
688 276
689 277
690 277
691 278
692 278
693 279
693 280
694 281
695 282
696 283
697 284
698 285
699 286
700 287
701 287
702 287
703 287
704 287
705 287
706 287
707 287
708 287
708 286
708 285
708 284
708 283
708 282
708 281
708 280
708 279
708 278
707 277
707 276
706 275
706 274
705 273
704 272
703 272
702 271
701 271
700 270
699 270
698 270
697 269
696 269
695 269
694 269
693 268
692 268
691 268
690 268
689 268
688 268
687 268
686 268
685 267
684 267
683 267
682 267
681 267
680 267
679 266
678 266
677 265
676 265
675 265
674 265
673 265
672 265
671 265
670 265
669 265
668 265
667 265
666 265
665 264
664 264
663 264
662 264
661 264
660 264
659 264
658 264
657 263
656 263
655 263
654 263
653 263
652 263
651 263
650 263
649 263
648 263
647 262
646 262
645 262
644 262
643 262
642 262
641 261
640 261
639 261
638 261
637 261
636 261
635 261
634 261
633 261
632 260
631 260
630 260
629 260
628 260
627 260
626 260
625 260
624 259
623 259
622 259
621 259
620 259
619 259
618 259
617 259
616 259
615 258
614 258
613 257
612 257
611 257
610 256
609 256
608 256
607 255
606 255
605 254
604 254
603 253
602 253
601 252
600 251
599 251
598 250
597 250
596 249
595 248
594 247
593 246
593 245
592 244
591 243
590 242
589 241
588 240
587 239
586 238
586 237
585 236
584 235
584 234
583 233
582 232
582 231
581 230
580 229
579 228
578 227
578 226
577 225
576 224
575 223
575 222
574 221
573 220
572 219
571 218
571 217
570 216
569 215
568 214
567 213
566 212
566 211
565 210
564 209
563 208
562 207
562 206
561 205
560 204
559 203
558 202
557 201
556 200
555 199
554 198
553 197
552 196
552 195
551 194
550 193
549 192
548 191
547 190
546 189
545 189
544 188
544 187
543 186
542 185
541 184
540 183
539 182
538 181
537 180
536 179
535 178
534 178
533 177
532 176
531 175
530 174
529 173
528 173
527 172
526 171
525 170
524 169
523 168
522 168
521 167
520 166
519 165
518 164
517 163
516 163
515 162
514 161
513 160
512 159
511 158
510 157
509 156
508 156
507 155
506 155
505 154
504 153
504 152
503 151
502 150
501 149
500 148
499 147
498 147
497 146
496 145
496 144
495 143
494 142
493 141
492 140
491 139
490 138
489 138
488 137
488 136
487 135
486 134
485 133
484 132
483 131
482 130
481 130
480 130
479 130
478 130
477 129
476 129
475 128
474 128
473 127
472 127
471 126
470 125
469 124
468 123
467 122
466 122
465 121
464 121
463 120
462 120
461 119
460 118
459 117
458 117
457 116
456 116
455 115
454 115
453 115
452 115
451 115
450 115
449 115
448 115
447 114
446 114
445 113
444 113
443 112
442 112
441 112
440 112
439 111
438 111
437 110
436 110
435 110
434 110
433 109
432 109
431 109
430 109
429 109
428 109
427 109
426 109
425 109
424 109
423 108
422 108
421 107
420 107
419 106
418 106
417 106
416 106
415 106
414 106
413 105
412 105
411 104
410 104
409 103
408 103
407 102
406 102
405 102
404 102
403 102
402 101
401 101
400 100
399 100
398 99
397 99
396 99
395 99
394 98
393 98
392 98
391 98
390 98
389 98
388 98
387 98
386 98
385 98
384 98
383 98
382 98
381 98
380 98
379 98
378 97
377 97
376 96
375 96
374 96
373 96
372 96
371 96
370 96
369 96
368 96
367 95
366 95
365 94
364 94
363 94
362 94
361 94
360 94
359 94
358 94
357 94
356 94
355 94
354 94
353 94
352 94
351 94
350 94
349 94
348 94
347 94
346 94
345 94
344 94
343 94
342 94
341 94
340 94
339 94
338 93
337 93
336 93
335 93
334 93
333 92
332 92
331 92
330 91
329 91
328 91
327 91
326 91
325 91
324 91
323 91
322 91
321 91
320 91
319 91
318 91
317 92
316 92
315 92
314 92
313 92
312 92
311 92
310 92
309 92
308 92
307 91
306 91
305 91
304 91
303 91
302 91
301 91
300 91
299 91
298 91
297 91
296 91
295 91
294 91
293 91
292 91
291 91
290 91
289 92
288 92
287 92
286 92
285 92
284 92
283 92
282 92
281 92
280 91
279 91
278 90
277 90
276 90
275 90
274 90
273 90
272 90
271 90
270 90
269 90
268 90
267 90
266 90
266 91
265 92
265 93
264 94
263 95
262 96
261 96
260 97
259 97
258 97
257 97
256 97
255 97
254 97
253 97
252 97
251 97
250 97
249 97
248 97
247 97
246 97
245 97
244 97
243 97
242 97
241 97
240 97
240 98
239 99
239 100
238 101
237 101
236 102
235 102
234 103
233 103
232 103
231 103
230 103
229 103
228 103
227 103
226 103
225 103
224 103
223 103
222 103
221 103
220 104
219 104
218 105
217 105
216 106
215 106
214 106
213 106
212 106
211 106
210 106
209 106
208 106
207 106
206 106
205 106
204 106
203 106
202 106
202 107
201 108
201 109
200 110
200 111
199 112
198 112
197 113
196 113
195 114
194 114
193 114
192 114
191 114
190 114
189 114
188 114
187 114
186 114
185 114
184 115
183 115
182 115
181 115
180 116
179 116
179 117
179 118
178 119
178 120
177 121
177 122
176 123
175 123
174 124
173 124
172 125
171 125
170 125
169 125
168 125
167 126
166 127
165 127
164 128
163 128
162 129
161 129
160 130
159 130
159 131
159 132
159 133
159 134
159 135
159 136
159 137
158 138
158 139
157 140
157 141
156 142
155 142
154 143
153 143
152 144
151 144
150 144
149 144
148 144
147 145
146 146
146 147
146 148
145 149
145 150
144 151
144 152
143 153
142 153
141 154
140 154
139 155
138 156
137 157
136 157
135 158
134 158
133 159
132 159
131 159
130 160
130 161
130 162
130 163
130 164
130 165
130 166
130 167
130 168
131 169
131 170
132 171
132 172
131 173
130 174
129 175
128 175
127 176
126 176
125 176
124 176
123 176
122 177
121 177
120 178
120 179
119 180
119 181
118 182
117 183
116 183
115 184
114 185
113 186
113 187
112 188
111 189
111 190
111 191
111 192
111 193
111 194
111 195
111 196
111 197
111 198
110 199
109 200
108 201
107 202
106 203
106 204
105 205
104 206
103 207
102 208
101 208
100 209
99 209
99 210
99 211
99 212
99 213
99 214
99 215
99 216
100 217
100 218
101 219
101 220
102 221
102 222
103 223
103 224
103 225
104 226
104 227
105 228
105 229
106 230
106 231
106 232
106 233
106 234
106 235
105 236
105 237
104 238
103 239
102 240
101 240
100 241
99 241
98 241
97 241
96 241
95 242
94 242
93 243
92 243
91 243
90 244
89 244
89 245
89 246
89 247
89 248
89 249
89 250
89 251
89 252
90 253
90 254
90 255
89 256
89 257
88 258
88 259
87 260
87 261
87 262
87 263
87 264
87 265
87 266
87 267
87 268
86 269
86 270
85 271
85 272
85 273
85 274
85 275
85 276
85 277
85 278
86 279
87 280
87 281
87 282
86 283
85 284
84 285
84 286
84 287
84 288
84 289
84 290
84 291
84 292
84 293
84 294
85 295
84 296
84 297
83 298
83 299
82 300
81 301
