470 39
469 40
468 41
467 42
467 43
467 44
467 45
467 46
466 47
465 48
464 48
464 49
464 50
463 51
463 52
462 53
461 53
460 54
460 55
460 56
460 57
459 58
459 59
459 60
458 61
457 61
456 60
456 61
456 62
456 63
456 64
455 65
455 66
455 67
455 68
454 69
453 70
452 69
452 70
452 71
451 72
451 73
451 74
450 75
450 76
450 77
450 78
450 79
450 80
450 81
450 82
450 83
450 84
450 85
450 86
449 87
449 88
448 89
448 90
448 91
448 92
448 93
448 94
449 95
449 96
449 97
449 98
449 99
449 100
449 101
448 102
448 103
448 104
448 105
447 106
446 105
446 106
446 107
446 108
446 109
446 110
446 111
446 112
446 113
446 114
446 115
447 116
447 117
447 118
447 119
447 120
447 121
447 122
446 123
445 123
445 124
445 125
445 126
446 127
446 128
446 129
446 130
446 131
446 132
447 133
447 134
447 135
447 136
447 137
447 138
447 139
447 140
448 141
447 142
446 142
445 142
445 143
446 144
446 145
447 146
447 147
447 148
448 149
448 150
448 151
449 152
448 153
448 154
448 155
449 156
449 157
449 158
450 159
450 160
451 161
452 162
452 163
453 164
454 165
454 166
454 167
454 168
454 169
455 170
456 171
457 172
457 173
458 174
458 175
459 176
459 177
460 178
460 179
461 180
462 181
463 182
464 183
465 184
465 185
466 185
467 186
467 187
468 188
469 189
469 190
470 191
471 192
472 192
473 193
474 194
475 195
476 196
477 197
478 198
479 199
480 200
481 201
482 202
483 203
484 204
485 204
486 205
487 206
488 207
489 208
490 208
491 208
492 209
493 209
494 210
494 211
495 212
495 213
494 214
493 214
492 214
491 214
490 214
489 214
488 214
487 214
486 214
485 214
484 214
483 214
482 214
481 214
480 214
479 214
478 214
477 214
476 213
475 213
474 213
473 213
472 213
471 213
470 213
469 213
468 213
467 213
466 213
465 213
464 213
463 213
462 213
461 213
460 213
459 213
458 213
457 213
456 213
455 213
454 213
453 213
452 213
451 213
450 213
449 213
448 213
447 213
446 213
445 213
444 213
443 214
442 214
441 214
440 214
439 214
438 214
437 214
436 214
435 214
434 214
433 214
432 215
431 215
430 215
429 215
428 215
427 215
426 215
425 215
424 216
423 216
422 216
421 216
420 216
419 216
418 217
417 217
416 217
415 217
414 218
413 218
412 218
411 218
410 218
409 219
408 219
407 219
406 219
405 219
404 219
403 220
402 220
401 220
400 219
399 218
399 217
399 216
399 215
399 214
399 213
398 212
399 211
399 210
399 209
398 208
398 207
398 206
398 205
398 204
398 203
398 202
398 201
398 200
398 199
398 198
398 197
398 196
398 195
398 194
397 193
398 192
398 191
398 190
398 189
397 188
397 187
397 186
397 185
397 184
397 183
397 182
397 181
397 180
397 179
397 178
397 177
396 176
396 175
396 174
396 173
396 172
396 171
396 170
396 169
395 168
395 167
395 166
395 165
395 164
395 163
395 162
395 161
395 160
394 159
394 158
393 157
393 156
393 155
392 154
392 153
392 152
392 151
392 150
391 149
391 148
391 147
391 146
391 145
391 144
391 143
390 142
390 141
390 140
389 140
388 139
388 138
387 137
387 136
386 135
386 134
385 133
385 132
384 131
384 130
384 129
383 128
382 128
381 127
381 126
380 125
380 124
379 123
379 122
379 121
379 120
378 119
378 118
377 119
376 118
375 117
374 116
374 115
373 114
373 113
373 112
373 111
373 110
373 109
372 108
372 107
372 106
371 106
370 106
369 105
368 104
368 103
367 102
367 101
367 100
366 99
366 98
366 97
366 96
365 95
364 96
363 97
362 96
361 95
360 94
359 93
358 92
357 91
356 90
356 89
355 88
355 87
354 86
353 85
353 84
352 83
352 82
351 81
350 81
349 81
348 80
347 79
346 78
345 77
344 76
344 75
343 74
343 73
342 72
341 72
341 73
340 74
339 73
338 73
337 72
336 71
335 70
334 69
333 68
333 67
332 66
331 65
331 64
330 64
330 65
329 66
328 66
327 65
326 65
325 64
324 63
324 62
323 61
322 60
321 59
320 58
320 57
319 56
318 56
317 56
316 55
315 54
315 53
314 52
313 51
312 52
311 52
310 51
309 50
309 49
308 48
307 47
306 46
305 46
304 46
303 45
302 45
301 44
300 44
301 45
301 46
301 47
302 48
301 49
300 49
300 50
300 51
301 52
301 53
301 54
300 55
299 55
300 56
300 57
300 58
300 59
300 60
300 61
300 62
300 63
299 64
298 63
298 64
299 65
299 66
299 67
299 68
299 69
299 70
300 71
299 72
298 73
297 73
297 74
298 75
298 76
298 77
299 78
299 79
299 80
299 81
299 82
298 83
297 83
296 84
297 85
297 86
297 87
298 88
298 89
298 90
298 91
299 92
299 93
299 94
299 95
299 96
298 97
297 97
297 98
297 99
297 100
297 101
297 102
298 103
298 104
298 105
299 106
299 107
299 108
299 109
300 110
299 111
298 111
297 111
297 112
298 113
298 114
299 115
299 116
299 117
300 118
300 119
301 120
301 121
301 122
302 123
302 124
303 125
303 126
304 127
304 128
305 129
305 130
306 131
306 132
306 133
306 134
307 135
306 136
305 136
305 137
306 138
307 139
307 140
308 141
309 142
310 143
310 144
311 145
311 146
312 147
312 148
311 149
310 149
311 150
312 151
312 152
313 153
313 154
314 155
315 156
315 157
316 158
317 159
317 160
317 161
317 162
318 163
319 164
320 165
321 166
322 167
322 168
323 169
322 170
323 171
324 172
325 173
326 173
327 174
328 175
329 176
330 177
331 178
332 179
332 180
333 181
333 182
333 183
334 184
335 185
336 186
337 187
338 188
339 189
340 190
341 191
342 192
343 193
344 194
345 195
346 196
347 197
347 198
348 199
349 199
350 200
351 200
352 201
353 202
354 203
355 203
356 204
357 205
358 205
359 206
360 206
361 206
362 207
363 207
364 207
365 208
366 208
367 208
368 209
369 209
370 210
371 210
372 211
373 211
374 212
375 212
376 213
377 213
378 214
379 214
380 214
381 215
382 215
383 216
384 216
385 217
386 217
387 217
388 218
389 218
390 219
391 219
392 220
391 221
390 222
389 222
388 222
387 222
386 222
385 222
384 222
383 222
382 222
381 222
380 222
379 223
378 223
377 223
376 223
375 223
374 223
373 223
372 223
371 223
370 223
369 223
368 223
367 224
366 224
365 224
364 224
363 224
362 224
361 224
360 224
359 225
358 225
357 225
356 225
355 225
354 225
353 225
352 226
351 226
350 226
349 226
348 226
347 227
346 227
345 227
344 227
343 228
342 228
341 228
340 228
339 228
338 228
337 229
336 229
335 229
334 230
333 230
332 230
331 230
330 231
329 231
328 231
327 231
326 232
325 232
324 232
323 232
322 233
321 233
320 233
319 234
318 234
317 234
316 235
315 235
314 235
313 235
312 236
311 236
310 236
309 237
308 237
307 237
306 237
305 238
304 238
303 237
302 236
302 235
302 234
302 233
302 232
302 231
302 230
302 229
302 228
301 227
301 226
301 225
301 224
301 223
301 222
301 221
301 220
301 219
301 218
301 217
301 216
301 215
301 214
301 213
301 212
301 211
301 210
301 209
301 208
301 207
301 206
301 205
300 204
300 203
300 202
300 201
299 200
299 199
299 198
299 197
299 196
299 195
299 194
299 193
299 192
299 191
299 190
298 189
298 188
298 187
297 186
297 185
297 184
297 183
297 182
296 181
296 180
296 179
296 178
296 177
295 176
295 175
295 174
294 173
294 172
294 171
294 170
293 169
293 168
293 167
293 166
292 165
291 164
290 163
290 162
290 161
289 160
289 159
289 158
289 157
288 156
288 155
288 154
288 153
287 152
287 151
287 150
286 149
286 148
286 147
285 146
285 145
284 144
284 143
283 142
282 142
281 141
280 140
279 139
279 138
279 137
278 136
278 135
277 134
277 133
276 132
276 131
276 130
275 130
274 130
273 129
272 128
271 127
271 126
270 125
270 124
269 123
269 122
268 121
268 120
268 119
267 118
266 119
265 118
264 117
263 116
263 115
262 114
262 113
261 112
260 111
260 110
259 109
259 108
258 107
257 108
256 107
255 107
254 106
254 105
253 104
252 103
251 102
251 101
250 100
249 99
249 98
248 97
247 98
246 98
245 97
244 96
243 96
242 95
241 94
241 93
240 92
239 91
238 92
237 92
236 91
235 90
234 89
234 88
233 87
233 86
232 85
232 84
231 83
230 84
229 84
228 84
227 83
226 82
225 81
224 80
223 79
222 78
221 78
221 79
220 80
219 79
218 78
218 77
217 76
217 75
217 74
216 73
215 74
214 73
213 72
213 71
212 70
211 71
210 70
210 69
209 68
208 67
208 66
207 66
206 66
205 66
205 67
205 68
206 69
205 70
205 71
205 72
206 73
206 74
206 75
205 76
204 76
204 77
205 78
205 79
205 80
204 81
204 82
204 83
204 84
204 85
204 86
205 87
204 88
203 89
202 88
201 89
202 90
202 91
202 92
202 93
202 94
202 95
202 96
203 97
203 98
203 99
202 100
201 100
200 100
200 101
200 102
201 103
201 104
201 105
201 106
201 107
201 108
200 109
199 110
200 111
200 112
201 113
201 114
201 115
201 116
202 117
202 118
203 119
203 120
204 121
204 122
205 123
205 124
205 125
206 126
206 127
206 128
205 129
204 129
203 128
203 129
203 130
204 131
204 132
205 133
205 134
205 135
206 136
207 137
207 138
207 139
207 140
208 141
208 142
208 143
209 144
209 145
209 146
208 147
207 147
207 148
208 149
209 150
209 151
209 152
210 153
210 154
210 155
211 156
211 157
212 158
212 159
212 160
213 161
213 162
213 163
212 164
212 165
212 166
212 167
213 168
213 169
214 170
214 171
215 172
215 173
216 174
217 175
217 176
218 177
219 178
220 179
220 180
221 181
221 182
220 183
219 183
219 184
220 185
220 186
221 187
222 188
223 189
224 190
225 191
225 192
226 193
227 194
228 195
229 196
230 196
231 197
232 198
233 199
234 200
234 201
234 202
235 203
236 204
237 205
238 206
239 206
240 207
241 208
242 208
243 209
244 209
245 210
246 211
247 211
248 212
249 213
250 213
251 214
252 214
253 215
254 215
255 216
256 217
257 217
258 218
259 219
260 219
261 220
262 220
263 221
264 221
265 222
266 222
267 223
268 224
269 224
270 225
271 225
272 226
273 226
274 227
275 227
276 228
277 228
278 229
279 229
280 230
281 230
282 231
283 232
284 232
285 232
286 233
287 233
288 234
289 234
290 234
291 235
292 235
293 236
294 236
295 237
296 238
296 239
295 240
294 240
293 240
292 240
291 240
290 240
289 240
288 240
287 240
286 240
285 240
284 240
283 240
282 240
281 240
280 240
279 240
278 240
277 240
276 240
275 240
274 240
273 240
272 240
271 240
270 240
269 240
268 240
267 240
266 240
265 240
264 240
263 240
262 240
261 240
260 240
259 240
258 240
257 240
256 240
255 240
254 240
253 241
252 241
251 241
250 241
249 241
248 241
247 241
246 241
245 241
244 241
243 241
242 241
241 241
240 241
239 241
238 242
237 242
236 242
235 242
234 242
233 242
232 242
231 242
230 242
229 243
228 243
227 243
226 243
225 243
224 243
223 243
222 243
221 244
220 244
219 244
218 244
217 244
216 243
215 243
214 242
214 241
214 240
214 239
214 238
214 237
214 236
214 235
214 234
214 233
214 232
214 231
214 230
214 229
214 228
214 227
214 226
214 225
214 224
214 223
214 222
214 221
214 220
214 219
214 218
214 217
214 216
214 215
214 214
214 213
213 212
213 211
213 210
213 209
213 208
213 207
213 206
213 205
213 204
213 203
213 202
213 201
213 200
213 199
213 198
213 197
213 196
213 195
212 194
212 193
212 192
212 191
212 190
212 189
212 188
212 187
212 186
211 185
211 184
211 183
211 182
210 181
209 180
209 179
209 178
209 177
209 176
208 175
208 174
208 173
208 172
208 171
207 170
207 169
207 168
206 167
206 166
205 165
205 164
205 163
204 162
203 162
202 161
201 160
201 159
200 158
200 157
200 156
199 155
199 154
199 153
198 153
197 152
196 151
196 150
196 149
195 148
195 147
194 146
194 145
193 145
192 146
191 146
190 145
189 144
189 143
188 142
188 141
188 140
187 139
187 138
187 137
186 137
185 138
184 138
183 137
182 136
181 135
180 134
180 133
179 132
178 132
177 131
176 130
175 129
175 128
174 127
173 126
172 127
171 126
170 125
169 124
168 123
167 122
166 121
165 120
164 121
163 120
162 119
161 118
160 117
159 116
159 115
158 114
158 115
157 116
156 115
155 115
154 114
153 113
152 112
151 111
151 110
150 109
150 108
150 109
149 110
148 110
147 109
147 108
146 107
146 106
145 105
144 104
144 103
143 104
142 104
141 103
141 102
140 101
140 100
139 100
138 99
137 98
136 97
135 97
134 96
133 96
133 97
133 98
134 99
133 100
133 101
133 102
133 103
133 104
133 105
133 106
132 107
131 107
131 108
131 109
130 110
130 111
131 112
131 113
131 114
131 115
130 116
130 117
131 118
131 119
131 120
131 121
131 122
131 123
130 124
129 124
128 123
128 124
129 125
129 126
129 127
129 128
129 129
129 130
130 131
130 132
130 133
129 134
128 134
127 134
127 135
128 136
128 137
129 138
129 139
129 140
129 141
129 142
129 143
130 144
130 145
130 146
130 147
130 148
129 149
128 149
127 149
126 149
127 150
127 151
128 152
128 153
128 154
129 155
128 156
128 157
128 158
129 159
130 160
130 161
131 162
131 163
132 164
132 165
131 166
130 166
130 167
131 168
132 169
132 170
133 171
133 172
134 173
134 174
134 175
134 176
135 177
135 178
136 179
137 180
137 181
138 182
138 183
138 184
137 185
137 186
138 187
139 188
139 189
140 190
141 191
142 192
143 193
143 194
144 195
145 196
146 197
146 198
147 199
148 200
149 201
150 202
151 203
152 204
153 205
152 206
151 207
150 207
149 207
148 207
147 207
146 206
145 206
144 205
143 205
142 204
141 204
140 203
139 203
138 202
137 202
136 201
135 201
134 200
133 199
132 199
131 198
130 197
129 197
129 198
129 199
128 200
127 200
126 200
125 199
124 199
123 199
122 199
121 199
120 199
119 198
118 198
117 198
116 197
115 196
114 196
114 197
113 198
112 198
111 198
110 198
109 198
108 198
107 197
106 197
105 197
104 197
103 197
102 197
101 197
100 197
99 197
98 197
97 197
96 197
95 197
95 198
95 199
94 200
93 200
92 201
91 201
90 201
89 201
88 202
87 202
86 202
85 202
84 202
84 203
84 204
83 205
82 206
81 206
80 207
79 207
78 207
77 207
76 207
75 207
74 207
73 207
73 208
74 209
73 210
72 211
71 212
70 212
69 213
68 213
67 213
66 213
65 214
64 214
63 215
62 215
61 215
61 216
62 217
61 218
60 219
59 220
58 220
57 220
56 220
55 221
54 221
53 221
52 221
52 222
51 223
50 223
49 224
48 224
47 224
48 225
48 226
47 227
46 227
45 227
44 227
43 227
42 227
41 227
40 227
40 228
39 229
38 229
37 228
36 228
35 229
34 230
35 231
36 231
37 231
38 232
39 232
40 233
41 233
42 234
42 235
43 236
44 236
45 237
46 237
47 237
48 237
49 237
50 238
51 239
52 239
53 240
54 240
55 240
56 240
57 240
58 240
59 240
60 240
61 241
61 242
61 243
62 244
63 244
64 244
65 245
66 246
67 246
68 247
69 247
70 248
71 248
72 248
73 248
74 249
75 249
76 250
76 251
77 251
78 252
79 252
80 252
81 253
82 254
82 255
83 255
84 256
85 256
86 256
87 257
88 257
89 258
90 259
91 259
92 259
93 259
94 260
95 260
96 260
97 260
98 260
99 260
100 261
100 262
100 263
101 263
102 263
103 263
104 263
105 263
106 263
107 263
108 263
109 263
110 263
111 263
112 263
113 263
114 263
115 264
115 265
114 266
115 267
116 266
117 266
118 266
119 266
120 266
121 266
122 266
123 266
124 266
125 266
126 266
127 266
128 267
128 268
129 268
130 268
131 268
132 268
133 268
134 268
135 268
136 268
137 267
138 267
139 267
140 267
141 267
142 267
143 267
144 267
145 266
146 266
147 266
148 266
149 265
150 265
151 264
152 264
153 263
154 262
155 262
156 263
155 264
156 265
155 266
155 267
154 268
153 268
152 269
151 270
150 271
149 272
148 273
147 273
146 274
145 274
144 275
143 276
144 277
144 278
143 279
142 280
141 281
140 282
139 283
138 284
137 285
136 286
135 287
134 288
133 288
132 289
131 290
132 291
133 292
133 293
132 294
132 295
131 296
131 297
130 298
130 299
129 300
128 301
128 302
127 303
126 304
125 305
124 305
123 306
123 307
124 308
124 309
124 310
124 311
123 312
123 313
122 314
121 315
120 316
120 317
119 318
119 319
119 320
118 321
118 322
117 323
117 324
116 325
115 326
115 327
116 326
117 327
118 328
118 329
117 330
117 331
117 332
117 333
116 334
116 335
115 336
115 337
115 338
114 339
114 340
114 341
113 342
113 343
114 343
115 344
116 345
116 346
116 347
116 348
115 349
115 350
115 351
115 352
115 353
115 354
115 355
115 356
114 357
114 358
115 359
116 360
115 361
115 362
114 363
114 364
114 365
114 366
114 367
115 368
114 369
114 370
115 371
116 371
117 372
118 371
119 371
120 371
121 371
122 371
123 371
124 371
125 371
126 372
127 371
128 370
129 369
130 368
131 367
132 367
133 368
134 367
135 366
136 365
137 364
138 363
139 362
140 361
141 360
142 360
143 361
144 361
145 360
146 359
147 358
148 357
149 357
150 356
150 355
151 354
152 354
153 353
154 353
155 353
156 352
157 352
158 351
159 350
160 350
161 349
162 349
163 348
164 347
165 346
165 345
166 344
167 343
168 342
168 341
169 340
170 340
171 339
172 339
173 338
173 337
174 336
175 335
176 334
176 333
177 332
178 331
178 330
179 329
180 328
181 327
182 328
183 327
183 326
183 325
184 324
184 323
185 322
186 321
187 320
187 319
188 318
189 317
190 317
191 316
191 315
192 314
192 313
193 312
193 311
194 310
194 309
195 308
195 307
196 306
197 305
198 304
198 303
198 302
199 301
199 300
200 299
200 298
200 297
200 296
201 295
201 294
201 293
202 292
203 291
204 290
204 289
205 288
206 287
206 286
206 285
207 284
207 283
208 282
208 281
208 280
209 279
209 278
209 277
210 276
210 275
210 274
211 273
211 272
211 271
212 270
212 269
212 268
212 267
212 266
212 265
213 264
213 263
213 262
213 261
214 260
214 259
214 258
214 257
214 256
215 255
215 254
215 253
215 252
215 251
215 250
216 249
217 249
218 249
219 248
220 248
221 248
222 248
223 248
224 247
225 247
226 247
227 247
228 247
229 246
230 246
231 246
232 246
233 246
234 246
235 246
236 245
237 245
238 245
239 245
240 245
241 245
242 245
243 245
244 245
245 245
246 245
247 244
248 244
249 244
250 244
251 244
252 244
253 244
254 244
255 244
256 244
257 244
258 244
259 244
260 244
261 244
262 244
263 244
264 244
265 244
266 244
267 244
268 244
269 244
270 244
271 244
272 244
273 244
274 244
275 244
276 244
277 244
278 244
279 244
280 244
281 244
282 244
283 244
284 244
285 244
286 244
287 244
288 244
289 244
290 244
291 244
292 244
293 244
294 244
295 244
296 245
296 246
295 247
294 247
293 247
292 248
291 248
290 248
289 249
288 249
287 249
286 250
285 250
284 251
283 251
282 251
281 252
280 252
279 252
278 253
277 253
276 254
275 254
274 255
273 255
272 255
271 256
270 256
269 257
268 257
267 258
266 258
265 259
264 260
263 260
262 261
261 261
260 262
259 263
258 264
257 265
256 265
255 266
254 267
253 267
252 268
251 268
250 269
249 270
248 271
247 272
246 273
245 274
244 274
243 275
242 275
241 276
240 277
239 277
239 278
239 279
238 280
237 281
236 282
235 283
234 284
233 285
232 286
231 287
230 288
229 289
228 290
228 291
227 292
226 293
225 294
226 295
227 296
227 297
226 298
226 299
225 300
224 301
223 302
223 303
224 304
223 305
223 306
222 307
222 308
221 309
220 310
219 311
219 312
218 313
218 314
217 315
216 316
215 317
215 318
216 318
217 319
218 320
217 321
217 322
216 323
216 324
216 325
215 326
215 327
214 328
214 329
213 330
213 331
212 332
211 333
210 334
210 335
210 336
211 336
212 336
213 337
213 338
213 339
212 340
212 341
212 342
212 343
212 344
211 345
211 346
211 347
210 348
210 349
210 350
209 351
210 352
211 352
212 353
213 354
213 355
213 356
212 357
212 358
212 359
212 360
212 361
212 362
211 363
211 364
211 365
211 366
210 367
210 368
209 369
209 370
210 370
211 370
212 371
213 372
213 373
213 374
212 375
212 376
212 377
211 378
211 379
211 380
212 381
212 382
212 383
211 384
211 385
211 386
211 387
212 387
213 387
214 388
214 389
214 390
214 391
214 392
214 393
214 394
214 395
214 396
214 397
214 398
215 398
216 398
217 399
217 400
217 401
217 402
217 403
217 404
218 405
219 406
219 407
219 408
219 409
219 410
219 411
220 412
220 413
220 414
220 415
220 416
221 416
222 415
223 415
223 414
223 413
224 412
225 411
226 410
226 409
227 408
227 407
227 406
228 405
229 404
230 404
231 405
231 406
232 405
232 404
233 403
234 402
235 401
236 400
236 399
237 398
238 397
239 396
240 395
241 396
242 396
243 395
243 394
244 393
245 392
246 392
246 391
247 390
247 389
248 388
249 387
249 386
250 385
251 385
252 384
253 384
254 385
255 384
255 383
256 382
256 381
257 380
258 379
259 378
259 377
260 376
261 375
262 374
263 373
264 373
265 373
266 373
266 372
266 371
267 370
267 369
267 368
268 367
268 366
269 365
269 364
270 363
271 363
272 362
273 362
274 361
275 362
275 363
275 364
275 365
276 365
277 366
277 367
276 368
276 369
276 370
276 371
277 372
278 373
279 373
278 372
279 371
280 370
281 369
282 368
283 368
284 367
285 366
286 366
287 365
288 365
289 365
290 364
291 363
292 363
293 362
294 361
295 360
296 359
297 359
298 359
299 360
299 361
300 360
301 359
302 358
302 357
303 356
304 356
305 355
306 355
307 356
308 356
309 355
310 354
311 353
312 352
313 352
314 352
314 351
315 350
316 349
317 348
318 348
319 347
320 347
321 348
322 347
323 346
324 345
325 344
326 343
327 342
328 341
329 340
330 340
331 340
332 340
333 340
334 339
334 338
335 337
336 336
337 335
338 334
339 333
340 333
341 333
342 333
343 332
344 331
345 330
346 329
347 328
348 327
349 327
349 326
350 325
351 325
352 324
353 324
354 323
355 322
355 321
356 320
356 319
357 318
358 319
358 320
359 320
360 321
360 322
360 323
361 322
362 322
363 322
364 322
365 321
366 321
367 322
368 322
369 321
370 321
371 321
372 321
373 321
374 321
375 321
376 321
377 321
378 321
379 321
380 321
381 320
382 320
383 320
384 320
385 320
386 320
387 320
388 320
389 320
390 320
391 320
392 320
393 319
394 319
395 319
396 319
397 319
398 318
399 318
400 318
401 317
402 317
403 316
404 316
405 316
406 315
407 315
408 315
409 315
410 314
411 314
412 313
413 313
414 312
415 311
416 311
417 310
418 309
419 309
420 308
421 307
422 307
423 307
424 306
425 306
426 306
427 306
428 306
429 305
430 304
431 304
432 303
433 303
434 302
435 302
436 302
437 301
438 301
439 300
440 300
441 300
442 300
443 299
444 298
445 297
446 297
447 296
448 296
449 295
450 294
451 293
452 292
453 291
454 291
455 290
455 289
456 288
457 287
458 287
459 287
460 287
461 287
462 287
463 287
464 287
465 287
466 287
467 287
468 288
469 287
470 287
471 287
472 287
473 287
474 287
475 287
476 287
477 288
478 288
479 288
480 288
481 287
482 287
483 286
484 286
485 286
486 286
487 285
488 285
489 285
490 286
491 286
492 285
493 285
494 284
495 284
496 283
497 283
498 282
499 282
500 282
501 283
501 284
502 284
503 283
504 283
505 282
506 281
507 281
508 281
509 281
510 281
511 280
512 280
513 279
514 278
515 278
516 278
517 277
518 277
519 276
520 276
521 275
522 276
523 276
524 275
525 275
526 274
527 274
528 274
529 273
530 273
531 273
532 273
533 272
534 272
535 272
536 272
537 271
538 271
539 271
540 270
541 269
542 269
543 268
544 268
545 267
546 267
547 266
548 266
549 265
550 264
551 263
552 263
552 262
553 261
554 260
555 259
556 258
557 257
558 256
559 255
560 254
560 253
561 252
562 251
563 250
564 249
565 248
566 247
567 246
567 245
568 244
569 243
570 242
570 241
571 240
571 239
572 238
573 237
573 236
574 235
575 234
576 234
577 233
578 232
579 232
580 231
581 231
582 231
583 230
584 230
585 229
586 229
587 229
588 228
589 228
590 228
591 228
592 228
593 229
594 229
595 229
596 229
597 229
598 229
599 229
600 229
601 230
602 230
603 230
604 230
605 231
606 231
607 231
608 231
609 232
610 232
611 232
612 232
613 233
614 233
615 233
616 234
617 234
618 234
619 235
620 235
621 235
622 235
623 236
624 236
625 236
626 237
627 237
628 238
629 238
630 238
631 239
632 239
633 240
634 240
635 240
636 241
637 241
638 242
639 242
640 243
639 244
638 244
637 244
636 243
635 243
634 243
633 243
632 242
631 242
630 242
629 241
628 241
627 240
626 240
625 240
624 239
623 239
622 239
621 238
620 238
619 237
618 237
617 237
616 237
615 237
614 237
613 237
612 237
611 236
610 236
609 236
608 236
607 236
606 236
605 237
604 237
603 238
602 238
601 238
600 238
599 239
598 239
597 239
596 240
595 240
594 240
593 240
594 241
593 242
592 243
591 243
590 244
589 244
588 245
587 245
586 246
585 247
584 247
584 248
584 249
583 250
582 250
581 251
580 252
579 253
578 253
579 254
578 255
577 256
576 256
575 257
574 258
574 259
573 260
572 261
572 262
571 263
570 264
569 265
568 266
567 267
567 268
567 269
566 270
565 271
564 272
563 273
562 274
561 275
562 276
561 277
561 278
560 279
559 280
558 281
558 282
558 283
557 284
556 285
556 286
555 287
555 288
554 289
553 289
552 289
551 290
550 290
549 291
548 292
549 293
550 293
551 293
552 294
553 294
554 294
555 294
556 294
557 294
558 294
559 294
560 294
561 294
562 294
563 293
564 293
565 293
566 292
567 293
568 293
569 292
570 291
571 291
572 291
573 290
574 290
575 290
576 291
577 292
578 291
579 291
580 291
581 290
582 290
583 290
584 290
585 289
586 289
587 289
588 289
589 290
590 289
591 289
592 288
593 288
594 288
595 288
596 288
597 287
598 287
599 287
600 287
601 286
602 286
603 285
604 284
605 284
606 283
607 283
608 282
609 281
610 280
611 280
612 279
613 278
614 277
615 276
616 275
617 274
618 273
619 272
620 271
621 270
622 269
623 268
624 267
625 266
625 265
626 264
627 263
627 262
628 261
628 260
629 259
630 258
630 257
631 256
632 255
632 254
633 253
634 252
635 251
636 251
637 251
638 251
639 250
640 250
641 250
642 249
643 249
644 249
645 249
646 248
647 248
648 248
649 248
650 248
651 248
652 248
653 248
654 248
655 249
656 249
657 249
658 250
659 250
660 250
661 251
662 251
663 252
664 252
665 252
666 253
667 253
668 254
669 254
670 255
671 255
672 255
673 256
674 256
675 257
676 257
677 258
678 258
679 259
680 259
681 260
682 260
683 261
684 261
685 262
686 262
687 263
688 263
689 264
690 265
691 265
692 266
693 266
694 267
695 267
696 268
697 269
698 269
699 270
700 271
701 272
702 272
703 272
704 273
705 274
706 275
707 276
708 276
709 277
710 278
711 278
712 279
713 280
714 280
715 281
716 282
717 282
718 283
719 284
720 285
721 286
722 286
723 287
724 288
725 289
726 290
727 291
728 291
729 292
730 293
731 294
732 295
733 296
734 297
735 297
736 298
737 299
738 300
739 301
740 302
741 303
742 304
743 305
744 306
745 307
746 308
747 309
748 310
749 311
750 312
751 312
752 313
753 313
754 314
755 314
756 314
757 314
758 314
759 314
760 314
761 314
762 314
763 314
763 313
764 312
765 312
765 311
764 310
763 309
763 308
764 307
764 306
764 305
764 304
764 303
764 302
763 303
762 303
761 303
760 303
759 303
758 303
757 303
756 303
755 303
754 303
753 303
752 302
751 302
750 301
749 300
748 299
747 299
746 298
745 297
744 296
743 295
742 295
741 294
740 293
739 292
738 291
737 290
736 290
735 289
734 288
733 287
732 286
731 286
730 285
729 284
728 283
727 282
726 282
725 281
724 280
723 279
722 279
721 278
720 277
719 277
718 276
717 275
716 274
715 274
714 273
713 272
712 272
711 271
710 270
709 270
708 269
707 269
706 268
705 267
704 267
703 266
702 265
701 265
700 264
699 264
698 263
697 263
696 262
695 261
694 261
693 260
692 260
691 259
690 259
689 258
688 257
687 257
686 256
685 256
684 255
683 255
682 254
681 254
680 253
679 253
678 252
677 252
676 252
675 251
674 251
673 250
672 250
671 249
670 249
669 248
668 248
667 247
666 247
665 247
664 246
663 246
662 245
661 245
660 245
659 244
658 244
657 243
656 243
655 243
654 242
653 242
652 241
651 240
651 239
650 238
650 237
650 236
650 235
650 234
650 233
650 232
651 231
652 230
653 230
654 229
655 228
656 227
657 226
658 226
659 225
660 225
661 224
662 224
663 223
664 223
665 222
666 221
667 221
668 220
669 219
670 219
671 218
672 217
673 216
674 215
675 214
676 214
676 213
677 212
678 211
679 210
679 209
680 208
680 207
681 206
681 205
682 204
683 203
683 202
684 201
684 200
684 199
685 198
685 197
686 196
686 195
686 194
687 193
688 192
688 191
687 190
687 189
687 188
687 187
688 186
688 185
688 184
689 183
689 182
690 181
689 180
689 179
689 178
690 177
690 176
690 175
690 174
690 173
690 172
690 171
691 170
691 169
691 168
692 167
692 166
692 165
691 164
691 163
691 162
691 161
692 160
692 159
692 158
692 157
692 156
691 155
692 154
692 153
692 152
692 151
692 150
692 149
692 148
692 147
692 146
692 145
692 144
691 144
690 144
689 145
688 145
687 146
686 146
685 146
684 147
683 148
682 148
681 149
680 150
679 150
678 150
677 151
676 152
675 153
674 154
673 155
672 155
671 156
670 157
669 158
668 159
667 160
666 161
665 162
664 161
663 162
662 163
661 164
661 165
660 166
659 167
658 168
657 169
656 168
655 168
654 169
653 170
653 171
652 172
651 173
650 174
649 173
648 174
648 175
648 176
647 177
647 178
646 179
646 180
646 181
645 182
644 182
644 183
644 184
643 185
643 186
643 187
642 188
642 189
641 190
640 191
640 192
640 193
640 194
640 195
639 196
639 197
639 198
639 199
639 200
638 201
637 202
637 203
637 204
637 205
637 206
638 207
638 208
638 209
638 210
638 211
639 212
639 213
639 214
639 215
639 216
640 217
640 218
640 219
641 220
641 221
641 222
642 223
642 224
643 225
643 226
643 227
644 228
644 229
645 230
645 231
646 232
647 233
647 234
647 235
647 236
647 237
647 238
646 239
645 238
644 238
643 238
642 238
641 237
640 237
639 236
638 236
637 236
636 235
635 235
634 235
633 234
632 234
631 234
630 233
629 233
628 232
627 232
626 232
625 231
624 231
623 231
622 230
621 230
620 230
619 230
618 229
617 229
616 229
615 228
614 228
613 228
612 228
611 227
610 227
609 227
608 226
607 226
606 226
605 226
604 225
603 225
602 225
601 225
600 224
599 224
598 224
597 223
596 223
595 223
594 223
593 222
592 222
591 222
590 222
589 221
588 221
587 220
587 219
587 218
587 217
588 216
588 215
588 214
589 213
590 212
590 211
591 210
591 209
592 208
592 207
593 206
594 205
594 204
595 203
596 202
596 201
597 200
597 199
598 198
598 197
599 196
599 195
599 194
600 193
600 192
600 191
600 190
601 189
601 188
601 187
601 186
601 185
602 184
602 183
602 182
603 181
603 180
603 179
604 178
604 177
604 176
604 175
605 174
605 173
605 172
605 171
605 170
605 169
606 168
606 167
606 166
606 165
607 164
607 163
607 162
607 161
607 160
607 159
607 158
607 157
607 156
607 155
608 154
608 153
608 152
608 151
608 150
607 149
607 148
607 147
607 146
607 145
607 144
607 143
607 142
607 141
607 140
607 139
607 138
607 137
608 136
607 137
606 136
605 135
605 134
605 133
605 132
605 131
604 130
604 129
604 128
604 127
605 126
605 125
604 125
603 124
603 123
603 122
603 121
603 120
603 119
603 118
604 117
604 116
604 115
603 114
602 113
602 112
602 111
602 110
602 109
602 108
602 107
601 106
601 105
600 105
599 104
599 103
598 102
598 101
598 100
598 99
598 98
597 97
597 96
597 95
597 94
596 93
595 92
595 91
594 90
594 89
593 88
593 87
592 86
592 85
592 84
591 83
591 82
590 82
589 81
588 80
588 79
588 78
587 78
586 77
585 76
585 75
584 74
583 73
582 73
581 73
581 74
580 75
579 76
578 76
578 77
578 78
577 79
577 80
577 81
576 82
575 82
575 83
574 84
574 85
573 86
572 87
571 87
571 88
570 89
570 90
570 91
569 92
569 93
569 94
568 95
567 95
566 95
566 96
566 97
566 98
566 99
566 100
565 101
565 102
564 103
563 103
563 104
563 105
562 106
562 107
562 108
562 109
561 110
560 111
559 111
559 112
558 113
558 114
558 115
558 116
557 117
557 118
557 119
557 120
557 121
557 122
557 123
557 124
556 125
555 125
554 126
554 127
554 128
554 129
554 130
554 131
553 132
553 133
553 134
553 135
553 136
554 137
553 138
553 139
552 140
551 140
551 141
551 142
551 143
551 144
551 145
551 146
551 147
551 148
551 149
551 150
550 151
549 151
549 152
550 153
550 154
550 155
550 156
550 157
550 158
550 159
550 160
550 161
550 162
550 163
550 164
550 165
549 166
550 167
550 168
551 169
551 170
551 171
552 172
552 173
552 174
553 175
553 176
553 177
554 178
554 179
555 180
555 181
556 182
556 183
556 184
557 185
557 186
558 187
558 188
559 189
560 190
560 191
561 192
561 193
562 194
563 195
564 196
564 197
565 198
566 199
567 200
568 201
569 202
570 203
571 204
572 205
573 206
574 207
575 208
576 209
577 210
578 211
579 212
580 213
581 214
582 215
582 216
583 217
583 218
584 219
583 220
582 220
581 220
580 220
579 220
578 220
577 220
576 219
575 219
574 219
573 219
572 219
571 219
570 219
569 219
568 219
567 218
566 218
565 218
564 218
563 218
562 218
561 218
560 218
559 217
558 217
557 217
556 217
555 217
554 216
553 216
552 216
551 216
550 215
549 215
548 215
547 214
546 214
545 214
544 214
543 214
542 214
541 214
540 214
539 214
538 214
537 214
536 213
535 213
534 213
533 214
532 215
531 215
530 215
529 215
528 215
527 215
526 215
525 215
524 215
523 215
522 215
521 215
520 215
519 215
518 215
517 215
516 215
515 215
514 215
513 215
512 215
511 215
510 215
509 215
508 215
507 215
506 215
505 215
504 215
503 215
502 214
501 214
500 214
499 213
499 212
500 211
500 210
500 209
500 208
500 207
501 206
501 205
501 204
501 203
502 202
502 201
502 200
502 199
503 198
503 197
503 196
503 195
504 194
504 193
504 192
504 191
505 190
505 189
505 188
505 187
506 186
506 185
506 184
506 183
506 182
506 181
507 180
507 179
507 178
507 177
508 176
508 175
508 174
509 173
509 172
509 171
509 170
510 169
510 168
510 167
510 166
510 165
510 164
510 163
510 162
510 161
510 160
510 159
511 158
511 157
511 156
511 155
512 154
512 153
512 152
512 151
512 150
512 149
511 148
511 147
511 146
511 145
511 144
511 143
511 142
511 141
511 140
511 139
511 138
511 137
511 136
510 135
510 134
510 133
509 132
508 131
508 130
508 129
507 128
507 127
507 126
507 125
507 124
507 123
507 122
507 121
507 120
507 119
506 118
506 117
506 116
506 115
506 114
506 113
506 112
506 111
505 110
504 110
503 109
503 108
502 107
502 106
502 105
502 104
502 103
502 102
502 101
502 100
502 99
502 98
502 97
502 96
501 97
500 96
499 95
499 94
499 93
499 92
498 91
498 90
498 89
497 88
497 87
497 86
497 85
496 84
496 83
496 82
495 83
494 82
493 81
493 80
493 79
492 78
492 77
492 76
492 75
492 74
492 73
491 74
490 73
490 72
489 71
489 70
489 69
489 68
489 67
489 66
488 66
487 66
486 65
486 64
485 63
484 62
484 61
483 60
483 59
483 58
483 57
482 57
481 57
480 56
480 55
479 54
479 53
478 52
478 51
478 50
477 49
477 48
476 48
475 47
475 46
475 45
474 44
473 44
472 43
472 42
471 41
471 40
471 39
470 39
