295 65
294 66
293 66
292 66
291 67
290 67
289 68
288 68
287 68
286 69
285 69
284 69
283 69
282 68
281 68
280 68
279 68
278 68
277 68
276 67
275 67
274 68
273 68
272 68
271 68
270 68
269 69
268 69
267 70
266 71
265 72
264 72
263 72
262 72
261 72
260 72
259 72
258 72
257 72
256 71
255 71
254 71
253 71
252 71
251 71
250 71
249 71
248 71
247 72
247 73
246 74
245 73
245 72
244 72
243 72
242 72
241 73
240 73
239 74
238 74
237 74
236 74
235 74
234 75
233 75
232 76
231 76
230 77
229 77
228 78
227 79
226 79
225 80
224 80
223 81
222 81
221 81
220 81
219 81
218 82
217 82
216 83
215 83
214 84
214 85
214 86
214 87
214 88
215 89
215 90
216 91
216 92
215 93
215 94
215 95
216 96
216 97
217 98
217 99
218 100
218 101
219 102
219 103
220 104
220 105
220 106
221 107
221 108
221 109
221 110
222 111
222 112
223 113
223 114
224 115
224 116
224 117
224 118
224 119
224 120
224 121
225 122
225 123
225 124
226 125
226 126
227 127
227 128
228 129
228 130
229 131
230 132
230 133
231 134
231 135
231 136
231 137
231 138
231 139
230 140
231 141
231 142
231 143
232 144
232 145
233 146
234 147
235 148
236 149
237 150
238 151
239 152
240 153
241 154
242 155
242 156
242 157
242 158
242 159
242 160
242 161
243 162
243 163
244 164
245 165
246 166
247 167
248 167
249 168
250 168
251 169
252 170
253 171
253 172
254 173
255 174
255 175
256 176
257 177
258 177
259 178
260 178
261 179
262 179
263 180
264 181
265 182
265 183
265 184
265 185
265 186
265 187
266 188
267 189
268 190
269 190
270 191
271 192
272 192
273 192
274 192
275 193
276 194
277 195
278 196
279 197
280 198
281 198
282 199
283 199
284 199
285 200
286 200
287 200
288 201
289 201
290 202
291 203
292 203
293 203
294 204
295 205
296 205
297 206
298 206
299 206
300 207
301 207
302 207
303 208
304 208
305 208
306 209
307 209
308 209
309 210
310 210
311 210
312 211
313 211
314 211
315 212
316 212
317 212
318 213
319 213
320 213
321 214
322 214
323 214
324 215
325 215
326 215
327 216
328 216
329 217
330 217
331 218
332 219
333 220
334 221
335 222
336 223
336 224
337 225
337 226
336 227
335 227
334 227
333 227
332 227
331 227
330 227
329 227
328 226
327 226
326 226
325 226
324 226
323 226
322 225
321 225
320 225
319 225
318 225
317 225
316 225
315 225
314 225
313 225
312 226
311 226
310 226
309 227
308 227
307 227
306 227
305 228
305 229
304 230
303 231
303 232
303 233
302 234
302 235
302 236
303 237
303 238
303 239
303 240
304 241
304 242
304 243
304 244
305 245
305 246
305 247
305 248
305 249
305 250
305 251
305 252
305 253
305 254
304 255
304 256
303 257
302 258
301 259
300 260
299 260
298 261
297 261
296 261
295 261
294 261
293 261
292 261
291 261
290 261
289 261
288 261
287 261
286 261
285 261
284 261
283 260
282 260
281 260
280 260
279 259
278 259
277 259
276 259
275 259
274 258
273 258
272 258
271 257
270 257
269 257
268 256
267 256
266 256
265 255
264 255
263 255
262 254
261 254
260 253
259 253
258 252
257 251
256 251
255 250
254 250
253 249
252 249
251 249
250 248
249 248
248 247
247 247
246 246
245 246
244 245
243 245
242 244
241 244
240 243
239 243
238 242
237 241
236 241
235 240
234 240
233 239
232 238
231 238
230 237
229 236
228 236
227 235
226 235
225 234
224 233
223 233
222 232
221 232
220 231
219 231
218 230
217 230
216 229
215 229
214 228
213 228
212 228
211 227
210 227
209 227
208 227
207 227
206 226
205 226
204 226
203 225
202 225
201 224
200 224
199 223
198 223
197 222
196 222
195 221
194 221
193 220
192 220
191 220
190 220
189 220
188 220
187 220
186 220
185 219
184 219
183 219
182 219
181 218
180 218
179 218
178 218
177 217
176 217
175 216
174 216
173 216
172 216
171 215
170 215
169 215
168 215
167 214
166 215
165 215
164 215
163 215
162 215
161 216
160 217
159 218
158 218
157 218
156 218
155 218
154 218
153 218
152 218
151 218
150 218
149 218
148 218
147 218
146 218
145 218
144 219
143 219
142 220
141 221
140 221
139 222
139 223
138 224
137 225
136 226
135 226
134 227
133 227
132 227
131 228
130 228
129 228
128 229
127 229
126 229
125 230
124 230
123 231
122 231
122 232
121 233
120 233
119 234
118 235
117 236
116 237
115 238
114 239
114 240
114 241
114 242
113 243
113 244
112 245
112 246
111 247
110 248
109 248
108 249
107 250
106 250
105 251
104 251
103 252
102 252
101 253
101 254
100 255
100 256
99 257
99 258
99 259
99 260
99 261
99 262
99 263
99 264
98 265
97 266
96 267
95 267
94 268
93 268
92 269
91 269
90 270
89 270
89 271
88 272
87 273
87 274
86 275
86 276
86 277
86 278
85 279
85 280
84 281
83 282
82 282
81 282
81 283
81 284
80 285
79 286
78 286
77 286
76 287
76 288
75 289
75 290
74 291
73 291
73 292
73 293
73 294
72 295
71 295
70 295
69 295
68 296
68 297
68 298
68 299
67 300
67 301
66 302
65 302
64 303
63 304
62 304
61 305
60 306
59 307
58 307
58 308
57 309
56 310
55 311
54 312
53 313
52 313
52 314
51 315
51 316
51 317
51 318
51 319
50 320
50 321
49 322
48 323
47 323
46 323
45 324
44 324
43 325
43 326
42 327
42 328
41 329
40 330
39 331
38 332
37 333
36 334
37 335
38 336
39 337
40 338
40 339
41 340
42 341
43 342
43 343
43 344
44 345
45 345
46 346
47 347
47 348
48 349
49 350
50 350
51 350
52 351
52 352
52 353
53 354
53 355
54 356
55 357
56 358
57 358
58 359
59 360
60 360
61 360
62 359
63 359
64 359
65 359
66 360
65 361
65 362
66 363
66 364
66 365
66 366
67 367
68 367
69 368
70 368
71 369
70 370
70 371
70 372
71 373
72 374
73 375
74 375
75 375
76 376
77 376
78 377
79 377
80 378
81 378
82 379
82 380
83 381
83 382
82 383
82 384
83 385
84 386
85 387
86 387
87 388
87 389
88 390
89 391
90 392
91 392
92 392
93 392
94 393
95 394
96 395
97 396
97 397
97 398
97 399
97 400
98 401
99 402
99 403
100 404
101 404
102 405
103 405
104 405
105 406
106 406
107 406
108 406
109 407
110 407
111 408
112 409
113 410
113 411
113 412
113 413
113 414
114 415
114 416
115 417
115 418
116 418
117 419
117 420
118 420
119 421
120 421
121 422
122 423
123 424
124 424
125 424
126 424
127 424
128 424
129 424
130 425
131 425
132 425
133 425
134 426
135 427
135 428
135 429
136 430
136 431
137 432
137 433
138 433
139 434
140 435
141 436
142 436
143 437
144 437
145 438
146 438
147 438
148 439
149 439
150 439
151 440
152 441
153 442
153 443
154 444
155 444
156 445
157 445
158 446
159 446
160 446
161 446
162 446
163 447
164 447
165 447
166 448
167 449
167 450
168 451
168 452
169 453
169 454
170 455
171 456
172 457
173 458
174 458
175 459
176 459
177 460
178 460
179 460
180 460
181 460
182 460
183 460
184 460
185 461
186 461
187 461
188 461
189 461
190 461
191 461
192 461
193 461
194 461
195 461
196 461
197 462
198 462
199 462
200 463
201 463
202 464
203 464
204 464
205 464
206 464
207 464
208 464
209 463
210 463
211 463
212 462
213 462
214 462
215 462
216 462
217 462
218 462
219 462
220 462
221 462
222 462
223 463
224 463
225 463
226 463
227 463
228 463
229 463
230 463
231 462
232 461
233 461
234 460
235 459
236 459
237 458
238 458
239 457
240 457
241 456
242 456
243 456
244 455
245 455
246 455
247 454
248 453
249 453
250 452
251 452
252 451
253 451
254 450
255 450
256 449
257 448
258 448
259 448
260 447
261 446
262 445
263 444
264 443
265 443
266 442
267 441
268 440
269 439
270 438
271 437
272 436
273 435
274 435
275 434
276 433
277 433
278 432
279 431
280 430
281 430
282 429
283 428
284 427
285 427
286 426
287 425
288 425
289 424
290 423
291 422
292 421
293 420
294 419
295 419
296 418
297 417
298 417
299 417
300 416
301 416
302 415
303 415
304 415
305 414
306 414
307 414
308 414
309 414
310 414
311 414
312 414
313 414
314 415
314 416
314 417
314 418
314 419
314 420
314 421
314 422
314 423
314 424
313 425
313 426
313 427
313 428
313 429
313 430
313 431
313 432
314 433
314 434
315 435
316 436
317 436
318 437
319 437
320 437
321 437
322 437
323 437
324 437
325 437
326 437
327 437
328 437
329 437
330 437
331 436
332 436
333 436
334 435
335 435
336 435
337 434
338 434
339 433
340 433
341 433
342 432
343 432
344 433
345 434
345 435
345 436
344 437
344 438
343 439
342 439
341 440
340 441
339 441
338 441
337 442
336 442
335 443
334 443
333 444
332 444
331 444
330 445
329 445
328 445
327 445
326 446
325 446
324 447
323 447
322 447
321 447
320 448
319 449
318 449
317 450
316 450
315 450
314 451
313 451
312 451
311 452
310 452
309 453
308 453
307 454
306 455
305 455
304 456
303 457
302 458
301 459
300 459
299 460
298 461
297 461
296 462
295 462
294 463
293 463
292 464
291 465
290 466
289 467
288 468
287 468
286 469
285 469
284 470
283 471
282 471
281 472
280 473
280 474
279 475
278 475
277 476
277 477
276 478
275 478
274 479
273 479
272 480
271 481
270 481
269 482
268 482
267 482
266 483
265 484
265 485
265 486
265 487
265 488
264 489
264 490
264 491
263 492
263 493
262 494
262 495
261 496
260 497
259 498
258 499
257 500
256 501
255 502
254 503
253 504
252 505
252 506
251 507
251 508
251 509
251 510
251 511
251 512
251 513
251 514
251 515
250 516
250 517
249 518
249 519
248 520
248 521
247 522
246 523
245 524
245 525
244 526
243 527
243 528
244 529
244 530
243 531
243 532
243 533
244 534
244 535
244 536
244 537
244 538
244 539
243 540
243 541
243 542
242 543
242 544
241 545
241 546
240 547
240 548
240 549
239 550
239 551
238 552
237 553
237 554
237 555
236 556
237 557
237 558
237 559
237 560
237 561
236 562
236 563
236 564
236 565
236 566
236 567
236 568
237 569
236 570
236 571
236 572
237 572
238 573
238 574
239 574
240 575
241 576
242 576
243 577
244 577
245 578
246 578
247 579
248 579
249 579
250 579
251 580
252 580
253 580
254 580
255 581
256 581
257 582
258 583
259 584
260 584
261 585
262 585
263 586
264 586
265 586
266 586
267 586
268 586
269 586
270 586
271 586
272 586
273 586
274 586
275 586
276 586
277 586
278 586
279 587
280 588
281 589
282 589
283 590
284 590
285 590
286 590
287 590
288 590
289 590
290 590
291 590
292 590
293 590
294 590
295 590
296 591
297 591
298 591
299 592
300 593
301 594
302 594
303 594
304 595
305 594
306 594
307 594
308 594
309 594
310 594
311 595
312 595
313 596
314 596
315 596
316 596
317 596
318 596
319 596
320 596
321 596
322 596
323 596
324 596
325 596
326 596
327 597
328 598
329 599
330 599
331 600
332 600
333 601
334 601
335 602
336 602
337 602
338 602
339 602
340 601
341 601
342 601
343 601
344 601
345 601
346 601
347 601
348 602
349 603
350 603
351 604
352 604
353 604
354 604
355 604
356 604
357 603
358 603
359 603
360 602
361 602
362 602
363 602
364 602
365 602
366 601
367 601
368 601
369 601
370 601
371 601
372 601
373 601
374 601
375 602
376 602
377 603
378 603
379 604
380 605
381 605
382 606
383 606
384 606
385 606
386 606
387 606
388 605
389 605
390 604
391 604
392 604
393 603
394 603
395 603
396 603
397 603
398 604
399 604
400 605
401 605
402 606
403 606
404 606
405 606
406 605
407 605
408 604
409 603
410 603
411 602
412 601
413 601
414 600
415 599
416 599
417 599
418 598
419 598
420 598
421 598
422 598
423 597
424 597
425 597
426 597
427 597
428 597
429 597
430 597
431 597
432 597
433 598
434 598
435 598
436 598
437 598
438 598
439 597
440 596
441 595
442 594
443 593
444 592
445 591
446 590
447 589
448 589
449 588
450 588
451 587
452 586
453 586
454 586
455 585
456 584
457 584
458 583
459 583
460 582
461 581
462 581
463 580
464 580
465 579
466 578
467 578
468 577
469 577
470 577
471 577
472 576
473 576
474 576
475 576
476 576
477 575
478 574
479 573
480 572
480 571
481 570
481 569
481 568
482 567
482 566
483 565
483 564
484 563
484 562
485 561
486 560
486 559
487 558
488 557
488 556
489 555
490 554
490 553
491 552
491 551
492 550
492 549
493 548
494 547
495 546
495 545
496 544
497 543
498 542
499 541
500 540
501 540
502 539
503 539
504 538
505 538
506 538
507 538
508 538
509 538
510 538
511 538
512 539
513 539
514 540
515 541
516 542
516 543
517 544
517 545
517 546
518 547
518 548
519 549
520 550
520 551
520 552
521 553
521 554
522 555
522 556
523 557
523 558
524 559
524 560
525 561
525 562
526 563
527 564
527 565
528 566
529 567
529 568
530 569
531 570
531 571
532 572
533 573
534 574
535 575
536 576
537 577
537 578
538 578
539 579
540 580
541 581
542 582
543 582
544 582
545 583
546 583
547 583
548 584
549 584
550 584
551 583
552 583
553 582
554 582
555 581
556 581
557 581
558 580
559 579
560 579
561 578
562 578
563 578
564 578
565 578
566 578
567 577
568 577
569 576
570 576
571 575
572 574
573 573
574 572
575 571
575 570
576 569
577 569
578 569
579 569
580 568
581 568
582 568
583 567
584 567
585 567
586 566
587 565
588 564
588 563
589 562
589 561
590 560
591 559
591 558
592 557
593 556
593 555
594 554
594 553
595 552
596 552
597 551
598 551
599 550
600 550
601 550
602 550
603 549
604 548
605 547
606 546
607 545
608 544
608 543
608 542
609 541
609 540
609 539
610 538
610 537
611 536
611 535
612 534
613 534
614 533
615 533
616 533
617 532
618 531
619 530
620 529
620 528
621 527
621 526
621 525
621 524
621 523
621 522
621 521
621 520
621 519
621 518
621 517
622 516
622 515
623 514
624 513
625 512
626 512
627 511
628 510
628 509
629 508
629 507
629 506
629 505
629 504
629 503
629 502
629 501
629 500
630 499
630 498
630 497
630 496
630 495
630 494
630 493
631 492
631 491
632 490
633 489
634 488
635 487
636 486
637 485
637 484
638 483
638 482
638 481
638 480
638 479
637 478
637 477
637 476
637 475
637 474
637 473
637 472
637 471
637 470
636 469
636 468
637 467
637 466
637 465
637 464
638 463
639 462
640 461
641 460
642 460
643 459
643 458
644 457
644 456
644 455
644 454
644 453
644 452
643 451
643 450
643 449
642 448
642 447
642 446
641 445
641 444
641 443
640 442
640 441
641 440
641 439
641 438
642 437
642 436
643 435
643 434
643 433
643 432
643 431
642 430
642 429
641 428
640 427
640 426
639 425
639 424
638 423
638 422
637 421
637 420
637 419
636 418
637 417
637 416
637 415
638 414
638 413
638 412
638 411
637 410
637 409
637 408
636 407
635 406
634 405
633 404
632 404
631 403
631 402
630 401
629 400
628 399
627 399
626 398
625 397
624 396
624 395
623 394
623 393
623 392
623 391
623 390
622 389
622 388
621 387
620 387
619 386
618 385
617 384
616 384
615 383
614 382
613 381
612 380
611 379
610 378
609 377
608 376
608 375
607 374
606 373
605 372
604 371
603 370
602 370
601 369
600 369
599 368
598 367
597 367
596 366
595 365
594 365
593 364
592 363
591 363
590 362
589 362
588 361
587 361
586 360
585 360
584 359
583 359
582 358
581 358
580 357
580 356
579 356
578 356
577 355
576 355
575 355
574 354
573 354
572 354
571 354
570 353
569 353
568 353
567 353
566 353
565 353
564 352
563 352
562 352
561 352
560 352
559 352
558 352
557 352
556 351
555 350
556 349
557 349
558 349
559 349
560 349
561 349
562 349
563 349
564 349
565 349
566 349
567 349
568 349
569 349
570 349
571 349
572 349
573 349
574 348
575 348
576 348
577 348
578 348
579 348
580 348
581 348
582 347
583 347
584 347
585 347
586 347
587 347
588 346
589 346
590 346
591 346
592 346
593 345
594 345
595 345
596 345
597 345
598 345
599 344
600 344
601 344
602 344
603 344
604 343
605 343
606 343
607 343
608 343
609 343
610 342
611 342
612 342
613 342
614 342
615 341
616 341
617 341
618 341
619 341
620 340
621 340
622 340
623 340
624 340
625 339
626 339
627 339
628 339
629 338
630 338
631 338
632 338
633 337
634 337
635 337
636 337
637 337
638 336
639 336
640 336
641 336
642 336
643 335
644 335
645 335
646 335
647 335
648 334
649 334
650 334
651 334
652 333
653 333
654 333
655 333
656 333
657 332
658 332
659 332
660 332
661 332
662 331
663 331
664 331
665 331
666 331
667 330
668 330
669 330
670 330
671 329
672 329
673 329
674 329
675 329
676 328
677 328
678 328
679 328
680 328
681 327
682 327
683 327
684 327
685 327
686 326
687 326
688 326
689 326
690 325
691 325
692 325
693 325
694 325
695 325
696 324
697 324
698 324
699 324
700 323
701 323
702 323
703 323
704 322
705 322
706 322
707 322
708 322
709 322
710 321
711 321
712 321
713 321
714 321
715 320
716 320
717 320
718 320
719 319
720 319
721 319
722 319
723 319
724 319
725 318
726 318
727 318
728 318
729 318
730 317
731 317
732 317
733 317
734 317
735 317
736 316
737 316
738 316
739 316
740 316
741 316
742 315
743 315
744 315
745 315
746 315
747 315
748 314
749 314
750 314
751 314
752 314
753 313
754 313
755 313
756 313
757 313
758 312
759 312
760 312
761 312
762 311
763 311
764 310
765 310
766 310
767 309
768 309
768 308
769 307
770 307
770 306
770 305
770 304
770 303
769 302
769 301
768 300
768 299
767 298
766 297
765 296
764 295
763 295
762 295
761 296
760 296
759 296
758 296
757 297
756 297
755 297
754 297
753 297
752 298
751 298
750 298
749 298
748 299
747 299
746 299
745 299
744 299
743 300
742 300
741 300
740 300
739 301
738 301
737 301
736 301
735 301
734 302
733 302
732 302
731 302
730 303
729 303
728 303
727 303
726 304
725 304
724 304
723 304
722 304
721 305
720 305
719 305
718 305
717 306
716 306
715 306
714 306
713 307
712 307
711 307
710 308
709 308
708 308
707 308
706 308
705 308
704 309
703 309
702 309
701 309
700 310
699 310
698 310
697 310
696 311
695 311
694 311
693 311
692 312
691 312
690 312
689 312
688 312
687 313
686 313
685 313
684 313
683 314
682 314
681 314
680 314
679 315
678 315
677 315
676 315
675 315
674 316
673 316
672 316
671 316
670 316
669 317
668 317
667 317
666 317
665 317
664 318
663 318
662 318
661 318
660 319
659 319
658 319
657 319
656 320
655 320
654 320
653 320
652 320
651 321
650 321
649 321
648 321
647 321
646 322
645 322
644 322
643 323
642 323
641 323
640 323
639 323
638 323
637 324
636 324
635 324
634 324
633 325
632 325
631 325
630 325
629 326
628 326
627 326
626 326
625 326
624 327
623 327
622 327
621 327
620 327
619 328
618 328
617 328
616 328
615 328
614 329
613 329
612 329
611 329
610 329
609 330
608 330
607 330
606 330
605 330
604 331
603 331
602 331
601 331
600 331
599 332
598 332
597 332
596 332
595 332
594 333
593 333
592 333
591 333
590 333
589 333
588 333
587 333
586 334
585 334
584 334
583 334
582 334
581 334
580 334
579 335
578 335
577 335
576 335
575 335
574 335
573 335
572 335
571 335
570 335
569 335
568 336
567 336
566 336
565 336
564 336
563 336
562 336
561 336
560 336
559 335
560 334
561 334
562 333
563 333
564 333
565 333
566 332
567 332
568 331
569 331
570 330
571 329
571 328
572 327
573 326
574 325
575 325
576 324
577 324
578 324
579 323
580 323
581 322
582 322
583 322
584 321
585 321
586 321
587 321
588 321
589 320
590 320
591 320
592 319
593 318
594 317
595 317
596 316
597 316
598 316
599 315
600 315
601 315
602 314
603 314
604 313
605 313
606 312
607 311
608 311
609 310
610 310
611 309
612 308
613 308
614 307
615 306
616 305
617 305
618 304
619 303
619 302
620 301
620 300
620 299
621 298
622 297
623 296
624 295
625 294
626 293
627 292
628 291
629 291
630 290
630 289
631 288
632 287
632 286
632 285
632 284
632 283
631 282
631 281
631 280
632 279
632 278
632 277
632 276
633 275
633 274
633 273
634 272
634 271
635 270
636 269
636 268
636 267
637 266
637 265
638 264
638 263
639 262
639 261
640 260
640 259
641 258
641 257
642 256
642 255
643 254
643 253
643 252
643 251
643 250
643 249
642 248
642 247
642 246
641 245
641 244
641 243
641 242
641 241
641 240
642 239
642 238
643 237
643 236
644 235
644 234
645 233
645 232
646 231
647 230
648 229
649 228
649 227
650 226
650 225
651 224
651 223
651 222
650 221
650 220
649 219
649 218
648 217
648 216
648 215
647 214
647 213
647 212
648 211
648 210
648 209
648 208
648 207
648 206
649 205
649 204
649 203
650 202
650 201
650 200
650 199
651 198
651 197
651 196
651 195
652 194
652 193
652 192
653 191
653 190
653 189
653 188
653 187
653 186
653 185
653 184
652 183
652 182
651 181
650 180
649 180
648 179
648 178
647 177
647 176
647 175
646 174
646 173
647 172
647 171
647 170
647 169
647 168
647 167
648 166
648 165
648 164
648 163
649 162
649 161
649 160
649 159
649 158
649 157
648 156
648 155
647 154
647 153
646 152
645 151
644 150
643 150
642 149
641 148
640 147
640 146
640 145
639 144
639 143
639 142
639 141
639 140
638 139
638 138
638 137
637 136
637 135
637 134
637 133
636 132
636 131
635 130
634 129
633 129
632 129
631 128
630 128
629 127
628 126
627 125
626 124
626 123
625 122
625 121
625 120
624 119
624 118
623 117
623 116
623 115
622 114
622 113
621 112
621 111
621 110
620 109
620 108
619 107
619 106
618 105
617 104
616 104
615 104
614 103
613 103
612 103
611 103
610 103
609 103
608 102
607 101
606 100
606 99
605 98
604 98
603 97
602 97
601 96
600 96
599 96
598 97
597 97
596 97
595 97
594 98
593 98
592 99
591 99
590 100
589 101
588 101
587 102
586 102
585 103
584 103
583 104
582 104
581 105
580 106
579 107
578 108
577 109
576 109
575 110
574 111
573 112
572 113
571 114
570 114
569 115
569 116
568 117
567 118
566 118
565 119
564 120
563 121
562 122
561 123
560 124
560 125
559 126
558 127
557 128
557 129
556 130
555 131
554 132
553 133
552 134
551 135
551 136
550 137
549 138
548 139
547 140
546 141
545 142
544 143
543 144
542 145
541 145
540 146
539 146
538 147
537 148
536 149
535 150
534 151
533 151
532 152
531 153
530 154
529 154
528 155
527 156
526 156
525 157
524 157
523 158
522 159
521 159
520 160
519 161
518 161
517 162
516 162
515 163
514 163
513 163
512 164
511 164
510 164
509 164
508 165
507 165
506 165
505 165
504 165
503 164
502 164
501 163
500 163
499 162
498 161
497 161
496 160
495 159
494 159
493 158
492 157
491 157
490 156
489 155
488 154
487 153
486 152
485 151
485 150
484 149
483 148
483 147
482 146
481 145
480 144
480 143
479 142
478 141
478 140
477 139
476 138
475 138
474 137
473 136
473 135
472 134
472 133
471 132
471 131
470 130
469 129
468 128
467 127
467 126
466 125
465 124
464 123
463 122
463 121
462 120
461 119
460 118
459 117
458 116
457 115
456 114
455 113
454 112
453 111
452 110
451 109
450 108
450 107
449 106
448 106
447 105
446 104
445 103
444 102
444 101
443 100
442 99
441 98
440 97
439 96
438 95
438 94
437 93
437 92
436 91
436 90
435 89
434 88
433 87
432 87
431 87
430 87
429 86
428 87
427 87
426 87
425 87
424 88
423 87
422 87
421 86
420 85
419 85
418 84
417 83
416 82
415 81
414 80
413 79
412 79
411 78
410 77
409 77
408 77
407 77
406 77
405 78
404 78
403 78
402 78
401 78
400 77
399 76
398 75
397 74
396 73
395 72
394 72
393 71
392 71
391 71
390 71
389 71
388 71
387 72
386 73
385 73
384 72
383 72
382 72
381 71
380 71
379 70
378 70
377 69
376 69
375 68
374 68
373 68
372 68
371 69
370 69
369 69
368 70
367 71
366 72
365 72
364 72
363 72
362 72
361 72
360 72
359 71
358 71
357 71
356 70
355 70
354 70
353 69
352 69
351 68
350 67
349 67
348 66
347 66
346 66
345 65
344 65
343 65
342 66
341 66
340 67
339 67
338 68
337 69
336 69
335 69
334 69
333 69
332 69
331 69
330 69
329 69
328 68
327 68
326 68
325 67
324 67
323 67
322 66
321 66
320 65
319 65
318 65
317 65
316 66
315 66
314 66
313 66
312 67
311 67
310 68
309 68
308 69
307 69
306 69
305 68
304 68
303 68
302 67
301 67
300 66
299 66
298 66
297 65
296 65
295 65
