238 60
237 61
236 61
235 61
234 61
233 61
232 61
231 61
230 61
229 61
228 61
227 61
226 61
225 61
224 61
223 61
222 61
221 62
220 62
219 62
218 62
217 62
216 62
215 62
214 62
213 62
212 62
211 63
210 63
209 63
208 63
207 64
206 64
205 63
204 64
203 64
202 64
201 64
200 65
199 65
198 65
197 65
196 65
195 65
194 66
193 66
192 66
191 67
190 67
189 67
188 67
187 68
186 68
185 68
184 69
183 69
182 69
181 69
180 69
179 69
178 70
177 70
176 70
175 70
174 70
173 71
172 71
171 71
170 72
169 72
168 73
167 73
166 73
165 73
164 73
163 74
162 74
161 74
160 75
159 76
158 76
157 76
156 77
155 77
154 77
154 78
153 79
152 79
151 79
150 80
149 81
148 81
147 82
146 83
145 84
144 84
143 85
142 86
141 87
140 87
139 88
138 88
137 89
136 90
135 90
134 91
133 91
132 92
131 93
130 93
130 94
129 95
128 95
128 96
127 97
126 97
126 98
125 99
124 100
123 101
122 102
121 102
120 103
119 104
118 105
117 106
117 107
116 108
115 108
115 109
114 110
113 111
113 112
112 113
112 114
111 115
110 114
111 115
110 116
109 117
108 118
107 119
106 120
105 121
105 122
104 123
103 124
102 125
101 126
101 127
100 128
99 129
98 130
98 131
97 132
97 133
96 134
95 135
94 136
93 137
94 138
93 139
92 140
92 141
92 142
92 143
91 144
91 145
91 146
90 147
89 148
88 149
88 150
87 151
86 152
86 153
86 154
85 155
84 156
83 157
83 158
83 159
83 160
82 161
81 162
81 163
80 164
80 165
80 166
80 167
79 168
79 169
78 170
79 171
78 172
78 173
78 174
77 175
77 176
77 177
77 178
77 179
76 180
76 181
76 182
76 183
76 184
76 185
76 186
75 187
75 188
75 189
75 190
75 191
75 192
74 193
75 194
74 195
74 196
74 197
74 198
74 199
74 200
74 201
74 202
74 203
74 204
74 205
75 206
75 207
75 208
75 209
76 210
76 211
76 212
76 213
77 214
77 215
77 216
77 217
77 218
78 219
78 220
78 221
78 222
78 223
79 224
79 225
79 226
79 227
80 228
80 229
80 230
81 231
81 232
81 233
81 234
82 235
82 236
83 237
83 238
84 239
84 240
85 241
85 242
86 243
86 244
87 245
87 246
87 247
88 248
89 249
89 250
90 251
91 252
91 253
92 254
92 255
93 256
93 257
94 258
94 259
95 260
96 261
96 262
97 263
97 264
98 265
99 266
100 267
101 268
101 269
102 270
102 271
103 271
104 272
105 273
105 274
106 275
107 276
108 277
109 278
110 279
111 280
112 281
113 281
114 282
114 283
115 283
116 284
117 285
118 286
119 286
120 287
121 287
122 288
123 288
124 289
125 289
126 290
127 291
128 291
129 292
130 292
131 293
132 293
133 294
134 294
135 295
136 296
137 296
138 297
139 298
140 298
141 299
142 299
143 300
144 300
145 301
146 301
147 302
148 303
149 303
150 304
151 304
152 305
153 305
154 306
155 306
156 307
157 307
158 308
159 308
160 309
161 309
162 309
163 310
164 310
165 310
166 311
167 311
168 311
169 312
170 312
171 313
172 313
173 313
174 314
175 314
176 315
177 315
178 315
179 316
180 316
181 316
182 316
183 316
184 317
185 317
186 317
187 317
188 317
189 318
190 318
191 318
192 318
193 319
194 319
195 319
196 319
197 319
198 320
199 320
200 320
201 320
202 321
203 321
204 321
205 321
206 321
207 322
208 322
209 322
210 322
211 323
212 323
213 323
214 323
215 324
216 324
217 324
218 324
219 325
220 325
221 325
222 325
223 325
224 326
225 326
226 326
227 327
228 327
229 327
230 327
231 328
232 328
233 328
234 328
235 329
236 329
237 329
238 329
239 330
240 330
241 330
242 330
243 331
244 331
245 331
246 331
247 331
248 331
249 332
250 332
251 332
252 332
253 332
254 332
255 332
256 332
257 332
258 332
259 332
260 332
261 332
262 332
263 332
264 332
265 332
266 331
267 331
268 331
269 331
270 331
271 331
272 331
273 330
274 330
275 330
276 330
277 330
278 329
279 329
280 328
281 328
282 327
283 327
284 327
285 326
286 326
287 325
288 325
289 325
290 324
291 324
292 323
293 323
294 323
295 322
296 322
297 321
298 321
299 321
300 320
301 320
302 320
303 319
304 319
305 318
306 318
307 318
308 317
309 317
310 317
311 317
312 317
313 316
314 316
315 316
316 316
317 316
318 316
319 315
320 315
321 315
322 315
323 314
324 314
325 314
326 314
327 313
328 313
329 313
330 313
331 312
332 312
333 312
334 312
335 311
336 311
337 311
338 311
339 310
340 310
341 310
342 310
343 309
344 309
345 309
346 308
347 308
348 308
349 308
350 308
351 308
352 308
353 308
354 308
355 308
356 308
357 308
358 308
359 308
360 308
361 308
362 308
363 308
364 308
365 308
366 308
367 308
368 308
369 308
370 308
371 308
372 308
373 308
374 308
375 308
376 308
377 307
378 307
379 307
380 307
381 306
382 306
383 306
384 306
385 305
386 305
387 305
388 304
389 304
390 304
391 304
392 303
393 303
394 303
395 302
396 302
397 302
398 302
399 301
400 301
401 301
402 301
403 300
404 300
405 300
406 299
407 299
408 298
409 298
410 298
411 297
412 297
413 296
414 296
415 296
416 295
417 295
418 294
419 294
420 294
421 293
422 293
423 293
424 292
425 291
426 291
427 291
428 290
429 290
430 289
431 289
432 288
433 288
434 288
435 287
436 287
437 287
438 286
439 286
440 286
441 286
442 285
443 285
444 285
445 284
446 284
447 284
448 283
449 283
450 283
451 283
452 282
453 282
454 282
455 282
456 281
457 281
458 281
459 280
460 280
461 280
462 280
463 279
464 279
465 279
466 279
467 279
468 278
469 278
470 278
471 278
472 278
473 277
474 277
475 277
476 276
477 276
478 276
479 276
480 276
481 276
482 275
483 275
484 275
485 275
486 274
487 274
488 274
489 274
490 274
491 273
492 273
493 273
494 273
495 272
496 272
497 272
498 272
499 272
500 271
501 271
502 271
503 271
504 270
505 270
506 270
507 270
508 270
509 269
510 269
511 269
512 269
513 269
514 268
515 268
516 268
517 268
518 268
519 268
520 267
521 267
522 267
523 267
524 267
525 267
526 266
527 266
528 266
529 266
530 266
531 266
532 265
533 265
534 265
535 265
536 264
537 264
538 264
539 264
540 264
541 264
542 264
543 263
544 263
545 263
546 263
547 263
548 263
549 263
550 263
551 262
552 262
553 262
554 262
555 262
556 262
557 262
558 261
559 261
560 261
561 261
562 261
563 261
564 261
565 261
566 261
567 260
568 260
569 260
570 260
571 260
572 260
573 259
574 259
575 259
576 259
577 259
578 259
579 258
580 258
581 258
582 258
583 258
584 258
585 257
586 257
587 257
588 257
589 257
590 257
591 257
592 257
593 256
594 256
595 256
596 256
597 256
598 256
599 256
600 256
601 255
602 255
603 255
604 255
605 255
606 254
607 254
608 254
609 254
610 254
611 254
612 254
613 253
614 253
615 253
616 253
617 253
618 252
619 252
620 252
621 252
622 252
623 252
624 252
625 251
626 251
627 251
628 251
629 251
630 250
631 250
632 250
633 250
634 250
635 250
636 249
637 249
638 249
639 249
640 249
641 248
642 248
643 248
644 248
645 248
646 248
647 247
648 247
649 247
650 247
651 246
652 246
653 246
654 246
655 245
656 245
657 245
658 245
659 245
660 245
661 245
662 244
663 244
664 244
665 244
666 244
667 244
668 244
669 244
670 244
671 244
672 244
673 244
674 244
675 244
676 244
677 244
678 244
679 244
680 244
681 244
682 245
683 245
684 245
685 245
686 245
687 245
688 245
689 245
690 245
691 245
692 245
693 246
694 246
695 246
696 246
697 246
698 246
699 246
700 246
701 247
702 247
703 247
704 247
705 247
706 247
707 247
708 248
709 248
710 248
711 248
712 248
713 248
714 248
715 248
716 248
717 249
718 249
719 249
720 249
721 249
722 250
723 250
724 250
725 250
726 250
727 250
728 250
729 251
730 251
731 251
732 251
733 251
734 251
735 252
736 252
737 252
738 252
739 252
740 252
741 252
742 253
743 253
744 253
745 253
746 253
747 253
748 253
749 253
750 253
751 253
752 252
753 252
754 251
755 251
756 250
757 249
757 248
758 247
758 246
758 245
757 244
757 243
757 242
757 241
756 240
755 239
755 238
754 238
753 237
752 236
751 236
750 236
749 236
748 236
747 235
746 235
745 235
744 235
743 235
742 235
741 234
740 234
739 234
738 234
737 234
736 234
735 233
734 233
733 233
732 233
731 233
730 233
729 232
728 232
727 232
726 232
725 232
724 232
723 232
722 231
721 231
720 231
719 231
718 231
717 231
716 231
715 230
714 230
713 230
712 230
711 230
710 229
709 229
708 229
707 229
706 229
705 229
704 228
703 228
702 228
701 228
700 228
699 228
698 228
697 228
696 227
695 227
694 227
693 227
692 227
691 227
690 227
689 227
688 226
687 226
686 226
685 226
684 226
683 226
682 226
681 225
680 225
679 225
678 225
677 225
676 225
675 225
674 225
673 224
672 224
671 224
670 224
669 224
668 223
667 223
666 223
665 223
664 223
663 222
662 222
661 222
660 222
659 222
658 221
657 221
656 220
655 220
654 220
653 219
652 219
651 218
650 218
649 217
648 217
647 216
646 216
645 215
644 214
643 214
642 213
641 213
640 213
639 213
638 213
637 212
638 211
637 212
636 212
635 211
634 210
633 209
632 210
631 209
630 208
629 208
628 207
627 207
626 206
625 206
624 205
623 204
622 203
621 203
620 203
619 203
618 202
617 202
616 201
615 201
614 200
613 200
612 199
611 199
610 198
609 198
608 197
607 197
606 197
605 196
605 195
604 195
603 194
602 194
601 193
600 193
599 193
598 192
597 192
596 191
595 190
594 190
593 189
592 189
591 188
590 188
589 187
588 187
587 187
586 187
585 186
585 185
584 185
583 184
582 184
581 183
580 183
579 183
578 182
577 182
576 182
575 181
574 180
573 180
572 179
571 178
570 177
569 177
568 177
567 176
566 176
565 175
564 175
563 175
562 174
561 173
560 172
559 172
558 171
557 171
556 170
555 170
554 169
553 169
552 169
551 168
550 167
549 167
548 166
547 166
546 165
545 165
544 166
543 165
542 164
541 164
540 163
539 163
538 162
537 162
536 162
535 161
535 160
534 160
533 160
532 159
531 158
530 158
529 157
528 157
527 156
526 157
525 156
525 155
524 155
523 155
522 154
521 154
520 154
519 153
518 153
517 153
516 153
515 152
514 151
513 151
512 150
511 150
510 150
509 149
508 148
507 147
506 147
505 148
504 147
504 146
503 146
502 145
501 145
500 145
499 144
499 143
498 143
497 142
496 142
495 141
494 141
493 141
492 141
491 140
490 139
489 138
488 138
487 137
486 137
485 137
484 136
483 136
482 135
481 135
480 134
479 134
478 135
477 134
476 134
475 134
474 133
474 132
473 132
472 131
471 131
470 130
469 130
468 130
467 129
466 128
465 128
464 127
463 127
462 127
461 126
460 125
459 125
458 125
457 124
456 124
455 123
455 122
454 122
453 122
452 121
451 121
450 121
449 120
448 119
447 119
446 119
445 118
444 118
443 118
442 117
441 117
440 117
439 116
438 116
437 115
436 115
435 115
434 115
433 114
432 113
431 112
430 112
429 111
428 111
427 111
426 111
425 110
425 109
424 109
423 109
422 108
421 108
420 108
419 107
418 106
417 106
416 105
415 105
414 105
413 105
412 105
411 104
410 103
409 103
408 102
407 102
406 102
405 101
404 101
403 101
402 101
401 100
400 100
399 100
398 100
397 99
396 99
395 99
394 98
393 98
392 98
391 97
390 97
389 96
388 96
387 96
386 95
385 95
384 95
383 94
382 94
381 93
380 93
379 93
378 92
377 92
376 92
375 91
374 90
373 90
372 90
371 89
370 89
369 88
368 88
367 88
366 87
365 87
364 86
363 86
362 85
361 85
360 84
359 84
358 84
357 83
356 83
355 82
354 82
353 82
352 81
351 81
350 81
349 80
348 80
347 80
346 80
345 79
344 79
343 79
342 78
341 78
340 78
339 77
338 77
337 77
336 76
335 76
334 76
333 76
332 76
331 75
330 75
329 74
328 74
327 74
326 74
325 74
324 73
323 73
322 73
321 72
320 72
319 72
318 72
317 72
316 72
315 71
314 71
313 71
312 70
311 71
310 70
309 70
308 69
307 69
306 69
305 69
304 68
303 68
302 69
301 68
300 68
299 68
298 68
297 68
296 67
295 68
294 68
293 67
292 67
291 66
290 66
289 66
288 66
287 66
286 66
285 66
284 65
283 65
282 65
281 65
280 64
279 64
278 64
277 64
276 64
275 63
274 63
273 63
272 62
271 62
270 62
269 62
268 62
267 62
266 62
265 61
264 61
263 61
262 61
261 61
260 61
259 61
258 61
257 61
256 62
255 61
254 61
253 61
252 61
251 61
250 61
249 61
248 60
247 61
246 61
245 61
244 61
243 61
242 61
241 61
240 61
239 61
238 60
