300 75
299 76
299 77
298 78
297 78
296 79
295 79
294 79
293 79
292 80
291 80
290 80
289 80
288 80
287 81
286 81
285 81
284 81
283 81
282 81
281 82
280 82
279 82
278 82
277 82
276 82
275 82
274 83
273 83
272 84
271 84
270 84
269 84
268 84
267 85
266 85
265 85
264 85
263 85
262 85
261 86
260 86
259 86
258 86
257 86
256 86
255 86
254 86
253 86
252 87
251 87
250 87
249 87
248 87
247 87
246 87
245 87
244 88
243 88
242 88
241 88
241 89
241 90
240 91
239 92
238 92
237 92
236 93
235 93
234 93
233 94
232 94
231 95
230 95
229 95
228 95
227 96
226 96
225 97
224 97
223 97
222 98
221 98
220 98
219 98
218 98
217 99
216 99
215 99
214 100
213 100
212 100
211 100
210 100
209 100
208 101
207 101
206 101
205 101
204 101
203 101
202 102
201 102
200 102
199 103
198 103
197 103
197 104
197 105
196 106
195 107
194 107
193 107
192 108
191 108
190 108
189 108
188 109
187 110
186 110
185 111
184 111
183 111
182 112
181 112
180 112
179 112
178 113
177 113
176 114
175 114
174 114
173 115
172 115
171 115
170 116
169 116
168 116
167 117
166 117
165 117
164 117
163 118
162 118
161 119
160 119
159 119
158 119
157 120
156 120
155 120
154 121
153 121
152 121
151 122
150 122
149 123
148 123
147 124
146 124
145 125
144 125
143 126
142 127
141 127
140 128
139 128
139 129
138 130
138 131
137 132
136 132
135 132
135 133
134 134
133 135
132 135
131 136
130 137
129 138
128 138
127 139
126 140
125 140
124 141
123 141
122 142
121 142
120 143
119 143
118 144
117 145
116 145
115 145
114 146
113 147
112 147
111 148
110 149
109 149
108 149
107 150
106 151
105 151
104 152
103 152
102 153
102 154
101 155
100 156
99 157
98 158
97 158
96 159
95 160
94 161
93 161
92 162
91 163
90 163
89 164
88 165
87 166
86 166
85 167
84 168
83 169
82 170
81 170
80 171
79 172
78 173
77 174
76 175
75 176
74 177
73 178
72 179
71 179
71 180
70 181
69 181
69 182
68 183
67 183
66 184
65 185
64 185
63 186
62 187
61 187
60 188
59 188
58 189
57 189
56 190
55 191
55 192
56 192
57 193
58 193
59 194
60 195
61 195
62 196
63 197
64 198
64 199
64 200
65 201
65 202
66 203
67 203
68 204
69 205
70 206
71 207
72 207
73 208
74 209
75 210
76 210
77 211
78 211
79 212
79 213
80 214
81 214
82 215
82 216
83 216
84 217
85 217
86 218
87 219
88 220
89 220
90 221
91 222
92 223
93 224
94 224
95 225
96 225
97 226
97 227
98 228
99 229
100 229
101 230
102 231
103 231
104 232
105 233
106 234
107 234
108 235
109 236
109 237
110 237
111 238
112 239
113 240
114 240
115 240
116 241
117 242
117 243
118 243
119 244
120 245
121 246
122 247
123 248
124 249
125 250
126 251
127 251
128 251
129 252
130 253
131 254
132 255
133 256
134 257
135 257
136 258
137 259
138 259
139 260
140 260
141 261
142 261
143 262
144 262
145 263
146 264
147 265
148 265
149 266
150 266
151 267
152 267
153 268
154 269
155 270
156 270
157 271
158 272
159 272
160 272
161 273
162 274
163 274
164 275
165 276
166 277
167 278
168 279
169 280
170 280
171 281
172 281
173 282
174 283
175 284
176 284
177 285
178 285
179 286
180 286
181 286
182 287
183 287
184 287
185 288
186 288
187 288
188 288
189 289
190 289
191 289
192 290
193 290
194 290
195 291
196 291
197 292
198 292
199 293
200 293
201 293
202 294
203 294
204 295
205 295
206 296
207 296
208 297
209 298
210 299
211 299
212 300
213 300
214 301
215 302
216 302
217 303
218 304
219 304
220 304
221 305
222 305
223 305
224 305
225 306
226 306
227 306
228 307
229 307
230 307
231 307
232 308
233 308
234 308
235 308
236 309
237 309
238 309
239 310
240 310
241 311
242 311
243 312
244 312
245 313
246 313
247 314
248 314
249 314
250 315
251 315
252 315
253 316
254 316
255 316
256 316
257 317
258 317
259 317
260 318
261 318
262 318
263 318
264 319
265 319
266 319
267 320
268 320
269 320
270 321
271 321
272 322
273 322
274 323
275 323
276 324
277 324
278 324
279 325
280 325
281 326
282 326
283 326
284 326
285 326
286 326
287 327
288 327
289 327
290 327
291 327
292 327
293 327
294 327
295 327
296 328
297 328
298 328
299 328
300 328
301 328
302 328
303 329
304 329
305 329
306 329
307 329
308 329
309 330
310 330
311 330
312 330
313 330
314 331
315 331
316 331
317 331
318 332
319 332
320 332
321 333
321 334
322 334
323 335
324 335
325 335
326 335
327 335
328 335
329 335
330 336
331 336
332 335
333 335
334 335
335 335
336 335
337 335
338 335
339 335
340 335
341 335
342 335
343 335
344 335
345 335
346 335
347 334
348 334
349 334
350 334
351 334
352 334
353 334
354 334
355 334
356 334
357 334
358 334
359 334
360 334
361 334
362 334
363 334
364 334
365 334
366 334
367 335
368 335
369 335
370 335
371 335
372 335
373 335
374 335
375 335
376 335
377 335
378 336
379 336
380 336
381 336
382 337
383 337
384 337
385 338
386 338
387 338
388 338
389 338
390 338
391 338
392 338
393 338
394 338
395 338
396 338
397 338
398 338
399 338
400 337
401 337
402 337
403 337
404 337
405 337
406 337
407 337
408 337
409 337
410 337
411 337
412 337
413 337
414 337
415 337
416 337
417 337
418 337
419 337
420 337
421 336
422 337
423 337
424 337
425 337
426 337
427 337
428 337
429 337
430 337
431 337
432 337
433 336
434 336
435 336
436 336
437 336
438 336
439 335
440 335
441 335
442 335
443 334
444 334
445 334
446 333
447 333
448 333
449 332
450 332
451 332
452 331
453 331
454 331
455 330
456 330
457 329
458 329
459 329
460 328
461 328
462 327
463 327
464 327
465 326
466 326
467 325
468 325
469 325
470 324
471 324
472 323
473 323
474 322
475 322
476 321
477 321
478 321
479 320
480 320
481 320
482 319
483 319
484 318
485 318
486 318
487 317
488 317
489 317
490 316
491 316
492 316
493 315
494 315
495 315
496 315
497 314
498 314
499 313
500 313
501 313
502 312
503 312
504 311
505 310
506 309
507 309
508 308
509 307
510 306
511 305
512 304
513 304
514 303
515 302
516 302
517 301
518 300
519 299
520 299
520 298
521 297
522 297
523 296
524 295
525 294
526 294
527 293
528 292
529 292
530 292
530 291
531 290
532 289
533 289
534 288
535 287
536 286
537 285
538 285
539 284
540 283
541 283
542 282
543 281
544 280
545 279
546 278
547 278
548 278
549 277
550 276
551 275
552 274
553 273
554 273
555 272
556 272
557 271
558 270
559 270
560 269
561 269
562 268
563 267
564 266
565 266
566 265
567 264
568 264
569 263
570 262
571 261
572 261
573 260
574 260
574 259
575 258
576 257
577 257
578 256
579 256
580 255
581 254
582 254
583 253
584 252
585 251
586 251
587 250
588 250
589 249
590 248
591 248
592 247
593 246
594 246
595 245
596 244
597 244
598 243
599 243
600 243
601 242
602 241
603 241
604 240
605 239
606 239
607 238
608 238
609 237
610 237
611 236
612 236
613 235
614 235
615 235
616 234
617 234
618 234
619 233
620 233
621 232
622 232
623 232
624 232
625 232
626 232
627 232
628 232
629 231
630 231
631 231
632 231
633 231
634 231
635 231
636 231
637 231
638 231
639 231
640 231
641 231
642 231
643 231
644 231
645 231
646 231
647 231
648 232
649 232
650 232
651 232
652 232
653 232
654 232
655 232
656 232
657 232
658 233
659 233
660 233
661 233
662 233
663 234
664 234
665 234
666 234
667 234
668 234
669 234
670 235
671 235
672 235
673 235
674 236
675 236
676 236
677 236
678 236
679 237
680 237
681 237
682 238
683 238
684 238
685 238
686 238
687 239
688 239
689 239
690 240
691 240
692 240
693 240
694 241
695 241
696 241
697 242
698 242
699 242
700 242
701 243
702 243
703 243
704 244
705 244
706 244
707 245
708 245
709 245
710 245
711 246
712 246
713 246
714 246
715 247
716 246
717 246
718 246
719 247
720 247
721 247
722 248
723 247
724 247
725 247
726 247
727 247
728 248
729 248
730 249
731 250
732 250
733 249
734 248
735 247
735 246
735 245
734 244
734 243
734 242
733 241
733 240
732 239
732 238
732 237
732 236
731 235
731 234
731 233
731 232
731 231
731 230
730 229
730 228
729 228
728 228
727 228
726 229
725 229
724 230
723 230
722 230
721 230
720 230
719 229
718 229
717 229
716 228
715 228
714 228
713 227
712 227
711 227
710 226
709 226
708 226
707 225
706 225
705 225
704 225
703 224
702 224
701 223
700 223
699 223
698 222
697 222
696 221
695 221
694 221
693 221
692 220
691 220
690 220
689 220
688 219
687 219
686 219
685 219
684 218
683 217
682 217
681 217
680 217
679 216
678 216
677 216
676 216
675 216
674 216
673 215
672 215
671 215
670 214
669 214
668 214
667 213
666 213
665 213
664 213
663 213
662 213
661 213
660 212
659 212
658 212
657 212
656 211
655 211
654 211
653 211
652 210
651 210
650 210
649 210
648 210
647 210
646 210
645 209
644 209
643 209
642 209
641 209
640 208
639 207
638 207
637 207
636 207
635 207
634 206
633 206
632 206
631 206
630 205
629 205
628 204
627 204
626 203
625 202
624 201
623 200
622 200
621 199
620 199
619 198
618 197
617 197
616 196
615 195
614 194
613 193
612 192
611 191
610 191
609 190
608 189
607 188
606 187
605 186
604 186
603 185
602 184
601 183
600 182
599 181
598 180
597 179
596 179
595 178
594 177
593 176
592 175
591 174
590 173
589 173
588 172
587 171
586 170
585 169
584 169
583 168
582 167
581 166
580 166
579 165
578 164
578 163
577 163
576 163
575 162
574 161
574 160
573 160
572 159
571 159
570 158
569 157
569 156
568 156
567 155
566 154
565 153
564 153
563 152
562 151
561 151
560 150
559 149
558 149
557 148
556 147
555 146
554 145
553 145
552 144
551 143
550 143
549 142
548 141
547 141
546 140
545 139
544 139
543 138
542 137
541 136
540 136
539 135
538 135
537 134
536 134
535 133
534 133
533 132
532 131
531 131
530 130
529 129
528 129
527 128
526 127
525 127
524 126
523 126
522 125
521 124
520 123
519 123
518 122
517 121
516 121
515 121
514 120
513 120
512 119
511 119
510 118
509 117
508 117
507 116
506 115
505 115
504 114
503 114
502 113
501 112
500 111
499 111
498 110
497 110
496 109
495 109
494 108
493 108
492 107
491 107
490 106
489 106
488 105
487 104
486 104
485 103
484 103
483 102
482 101
481 101
480 100
479 100
478 99
477 98
476 97
475 97
474 96
473 95
472 95
471 94
470 94
469 93
468 92
467 91
466 90
465 91
464 92
463 93
462 93
461 93
460 93
459 93
458 92
457 92
456 92
455 92
454 92
453 91
452 91
451 91
450 90
449 90
448 90
447 90
446 90
445 90
444 89
443 89
442 89
441 89
440 88
439 88
438 88
437 87
436 87
435 87
434 87
433 87
432 86
431 85
430 85
429 85
428 85
427 84
426 84
425 84
424 84
423 83
422 83
421 82
420 82
419 82
418 81
417 81
416 80
415 80
414 80
413 79
412 79
411 79
410 79
409 78
408 79
408 80
407 81
406 81
405 82
404 82
403 82
402 82
401 82
400 82
399 82
398 82
397 82
396 81
395 81
394 81
393 81
392 81
391 81
390 81
389 81
388 81
387 81
386 80
385 80
384 80
383 80
382 80
381 79
380 79
379 79
378 79
377 79
376 79
375 79
374 79
373 79
372 78
371 78
370 78
369 78
369 79
368 80
367 81
366 81
365 81
364 81
363 82
362 82
361 82
360 82
359 82
358 82
357 82
356 82
355 82
354 82
353 82
352 82
351 82
350 82
349 82
348 82
347 82
346 81
345 81
344 81
343 81
342 81
341 81
340 81
339 81
338 81
337 81
336 81
335 81
334 81
333 81
332 81
331 81
330 80
329 80
328 80
327 80
326 80
325 79
324 79
323 79
322 79
321 79
320 78
319 78
318 78
317 78
316 78
315 78
314 77
313 77
312 77
311 77
310 76
309 76
308 76
307 76
306 76
305 75
304 75
303 75
302 75
301 75
300 75
