303 108
302 109
301 109
300 109
299 109
298 109
297 109
296 109
295 109
294 109
293 109
292 109
291 109
290 109
289 109
288 110
287 110
286 110
285 110
284 110
283 111
282 111
281 111
280 111
279 112
278 112
277 112
276 112
275 112
274 112
273 112
272 112
271 112
270 112
269 113
268 113
267 113
266 113
265 113
264 113
263 113
262 113
261 114
260 114
259 114
258 114
257 114
256 114
255 114
254 115
253 115
252 115
251 115
250 115
249 115
248 116
247 116
246 116
245 116
244 116
243 117
242 117
241 117
240 117
239 118
238 118
237 119
236 119
235 119
234 120
233 120
232 120
231 120
230 121
229 122
228 122
227 122
226 123
225 123
224 124
223 124
222 125
221 125
220 125
219 126
218 126
217 127
216 127
215 127
214 128
213 129
212 129
211 129
210 129
209 129
208 130
207 130
206 131
205 131
204 131
203 132
202 132
201 133
200 133
199 134
198 134
197 135
196 136
195 136
194 136
193 136
192 137
191 138
190 138
189 139
188 139
187 140
186 140
185 141
184 142
183 142
182 143
181 144
180 144
179 145
178 145
177 146
176 147
175 147
174 148
173 148
172 149
171 150
170 150
169 151
168 152
167 153
166 153
165 154
164 155
163 155
162 156
161 156
161 157
160 158
159 158
158 159
157 160
156 161
155 161
154 162
153 163
152 164
151 165
150 166
149 167
148 168
147 168
147 169
146 170
145 170
144 171
143 172
142 173
142 174
141 175
140 176
139 177
139 178
138 179
137 179
137 180
136 181
135 182
134 183
134 184
133 185
132 185
132 186
132 187
131 188
130 189
129 190
128 191
128 192
127 193
126 194
126 195
125 196
124 197
124 198
123 199
122 200
122 201
122 202
121 203
121 204
121 205
120 206
120 207
121 208
121 209
121 210
121 211
121 212
121 213
121 214
121 215
121 216
122 217
122 218
123 219
123 220
123 221
123 222
123 223
123 224
123 225
122 226
122 227
121 228
120 229
119 230
118 231
117 232
116 232
115 233
114 233
113 234
112 234
111 234
110 235
109 235
108 236
107 236
106 236
105 237
105 238
104 239
103 240
102 240
102 241
102 242
102 243
102 244
102 245
102 246
101 247
101 248
101 249
101 250
101 251
101 252
101 253
101 254
101 255
101 256
101 257
101 258
101 259
102 260
102 261
102 262
102 263
102 264
102 265
102 266
102 267
102 268
102 269
103 270
103 271
104 272
104 273
104 274
104 275
104 276
104 277
105 278
105 279
106 280
106 281
106 282
107 283
107 284
108 285
108 286
108 287
109 288
109 289
109 290
110 291
110 292
110 293
110 294
111 295
111 296
112 297
112 298
113 299
113 300
114 301
114 302
115 303
115 304
115 305
116 306
116 307
117 308
117 309
118 310
118 311
119 312
120 313
120 314
121 315
122 316
122 317
122 318
123 319
123 320
124 321
124 322
125 323
125 324
125 325
126 326
127 327
128 328
128 329
128 330
129 331
130 332
130 333
131 334
132 335
132 336
133 337
133 338
134 339
135 340
136 341
136 342
137 343
137 344
137 345
137 346
138 347
139 347
140 347
141 348
141 349
141 350
142 351
143 351
144 352
145 353
146 354
147 355
147 356
148 357
149 358
150 359
151 359
152 360
153 361
154 362
155 362
156 363
157 364
158 365
159 366
160 366
161 367
161 368
162 369
163 369
164 370
165 371
166 371
167 372
168 373
169 373
170 374
171 374
172 374
173 375
174 375
175 376
176 376
177 376
178 377
179 377
180 378
181 378
182 378
183 379
184 380
185 380
186 381
187 382
188 383
189 384
190 384
191 385
192 386
193 386
194 387
195 387
196 388
197 388
198 389
199 390
200 390
201 390
202 391
203 391
204 392
205 393
206 393
207 394
208 394
209 395
210 395
211 396
212 396
213 397
214 398
215 398
216 399
217 399
218 400
219 400
220 401
221 402
222 402
223 403
224 404
225 404
226 404
227 405
228 406
229 406
230 406
231 407
232 407
233 408
234 408
235 408
236 409
237 409
238 409
239 410
240 410
241 411
242 411
243 411
244 412
245 412
246 412
247 412
248 413
249 413
250 413
251 413
252 414
253 414
254 414
255 414
256 415
257 415
258 416
259 416
260 416
261 417
262 417
263 417
264 418
265 418
266 419
267 419
268 420
269 420
270 420
271 421
272 421
273 421
274 421
275 421
276 422
277 422
278 422
279 422
280 422
281 423
282 424
283 424
284 424
285 424
286 425
287 425
288 425
289 426
290 426
291 426
292 426
293 427
294 427
295 427
296 427
297 427
298 427
299 427
300 427
301 427
302 427
303 427
304 427
305 427
306 427
307 427
308 427
309 428
310 428
311 428
312 428
313 428
314 428
315 428
316 428
317 428
318 428
319 428
320 428
321 428
322 428
323 428
324 428
325 428
326 429
327 429
328 429
329 429
330 429
331 429
332 430
333 430
334 430
335 430
336 430
337 430
338 430
339 430
340 430
341 430
342 430
343 430
344 430
345 430
346 430
347 430
348 430
349 430
350 430
351 430
352 431
353 431
354 431
355 431
356 431
357 431
358 431
359 431
360 431
361 432
362 432
363 432
364 432
365 432
366 432
367 432
368 432
369 432
370 432
371 432
372 432
373 432
374 432
375 432
376 432
377 432
378 432
379 432
380 432
381 433
382 433
383 433
384 433
385 432
386 432
387 432
388 432
389 432
390 432
391 432
392 432
393 432
394 432
395 432
396 432
397 432
398 432
399 432
400 432
401 432
402 432
403 432
404 431
405 431
406 431
407 431
408 431
409 430
410 430
411 430
412 430
413 430
414 429
415 429
416 429
417 429
418 428
419 428
420 427
421 427
422 427
423 427
424 427
425 426
426 426
427 426
428 425
429 425
430 425
431 424
432 424
433 424
434 423
435 423
436 423
437 422
438 422
439 422
440 422
441 421
442 421
443 421
444 421
445 421
446 421
447 420
448 420
449 420
450 420
451 419
452 419
453 418
454 418
455 418
456 418
457 417
458 416
459 416
460 416
461 416
462 415
463 415
464 415
465 414
466 414
467 414
468 413
469 413
470 413
471 413
472 413
473 412
474 412
475 412
476 412
477 412
478 411
479 411
480 410
481 410
482 409
483 409
484 409
485 408
486 408
487 408
488 408
489 407
490 407
491 407
492 406
493 406
494 406
495 405
496 405
497 404
498 404
499 403
500 403
501 402
502 402
503 401
504 401
505 400
506 400
507 400
508 400
509 399
510 399
511 399
512 398
513 397
514 396
515 396
516 395
517 395
518 394
519 394
520 393
521 393
522 392
523 392
524 391
525 391
526 391
527 390
528 390
529 389
530 389
531 389
532 388
533 388
534 387
535 387
536 386
537 386
538 386
539 385
540 385
541 384
542 384
543 384
544 383
545 382
546 381
547 381
548 380
549 380
550 379
551 379
552 378
553 377
554 377
555 376
556 376
557 375
558 375
559 374
560 373
561 373
562 372
563 371
564 371
565 370
566 369
567 368
568 367
569 367
570 366
571 365
572 364
573 364
574 364
575 364
576 364
577 363
578 363
579 362
580 362
581 361
582 361
583 360
584 359
585 358
586 358
587 358
588 357
589 356
589 355
590 354
591 353
592 353
593 352
594 352
595 352
596 351
596 350
597 349
598 348
599 347
600 346
601 345
602 345
602 344
603 343
604 342
605 341
606 341
607 341
608 340
608 339
609 338
610 338
611 337
612 336
613 335
614 334
615 333
616 332
617 331
618 330
619 329
619 328
620 327
621 327
622 327
623 326
623 325
624 324
624 323
625 322
626 322
627 321
628 320
629 319
630 318
630 317
631 316
632 315
633 315
634 314
635 313
636 312
637 311
638 311
639 311
640 310
641 310
642 310
643 309
644 308
645 308
646 308
647 307
648 307
649 306
650 306
651 305
652 305
653 305
654 306
655 306
656 306
657 306
658 306
659 306
660 306
661 307
662 307
663 307
664 307
665 308
666 308
667 309
668 309
669 309
670 309
671 309
672 310
673 310
674 311
675 312
676 312
677 312
678 313
679 313
680 313
681 314
682 314
683 314
684 315
685 315
686 315
687 316
688 316
689 316
690 316
691 316
692 317
693 317
694 317
695 317
696 317
697 316
698 315
699 315
700 314
701 313
702 312
702 311
703 310
703 309
704 308
704 307
703 306
703 305
702 304
701 303
701 302
702 301
702 300
701 299
700 299
699 299
698 299
697 299
696 298
695 297
695 298
696 299
697 300
697 301
698 302
698 303
698 304
698 305
698 306
699 307
699 308
698 309
697 309
696 308
695 308
694 308
693 308
692 307
692 306
692 305
691 304
690 303
690 302
690 301
690 300
690 299
690 298
691 297
692 296
693 295
692 294
691 294
690 293
690 292
689 291
688 291
688 292
687 293
686 292
686 291
686 290
685 290
684 290
683 290
682 289
681 289
680 289
679 289
678 288
678 287
678 286
677 286
676 285
675 284
674 284
673 284
672 284
671 284
670 283
669 283
668 283
667 282
666 281
665 281
664 280
663 280
662 279
661 278
660 278
659 277
658 276
657 275
656 274
655 273
654 273
653 272
652 271
651 270
650 269
649 269
648 268
647 267
646 266
645 265
644 265
643 264
642 263
641 262
640 262
639 261
638 260
637 259
636 259
635 258
634 257
634 256
633 255
632 254
631 253
630 252
629 251
629 250
628 250
627 249
626 248
625 247
624 246
623 245
623 244
622 243
621 242
620 241
619 240
618 239
617 238
616 237
616 236
615 235
614 234
613 233
612 232
611 231
610 230
609 229
609 228
608 228
607 227
606 226
605 225
604 224
603 224
602 223
601 222
600 221
599 220
598 219
597 219
596 218
595 217
594 217
593 216
592 215
591 214
590 214
589 214
588 213
587 213
586 212
585 211
584 211
583 210
582 209
581 208
580 208
579 207
578 206
577 205
576 205
575 204
574 203
573 202
572 201
571 200
570 199
569 199
568 198
567 197
566 196
565 196
564 195
563 194
562 194
561 194
560 193
559 192
558 191
557 191
556 190
555 190
554 189
553 189
552 188
551 188
550 187
549 186
548 186
547 185
546 184
545 184
544 183
543 182
542 182
541 181
540 180
539 180
538 179
537 178
536 177
535 177
534 176
533 175
532 175
531 174
530 173
529 173
528 172
527 171
526 171
525 170
524 170
523 169
522 169
521 168
520 168
519 167
518 167
517 166
516 165
515 165
514 164
513 164
512 164
511 164
510 163
509 162
508 161
507 161
506 161
505 160
504 159
503 159
502 158
501 157
500 157
499 156
498 155
497 155
496 154
495 153
494 153
493 152
492 152
491 151
490 151
489 150
488 149
487 149
486 148
485 147
484 147
483 147
482 146
481 146
480 145
479 145
478 145
477 144
476 144
475 143
474 143
473 142
472 142
471 142
470 141
469 141
468 140
467 140
466 139
465 139
464 138
463 138
462 138
461 137
460 136
459 136
458 136
457 135
456 135
455 134
454 134
453 134
452 133
451 133
450 133
449 132
448 132
447 132
446 132
445 131
444 131
443 131
442 131
441 131
440 131
439 130
438 130
437 130
436 130
435 130
434 129
433 129
432 129
431 129
430 128
429 128
428 128
427 127
426 127
425 127
424 127
423 126
422 126
421 126
420 126
419 125
418 125
417 125
416 124
415 124
414 124
413 124
412 123
411 123
410 123
409 123
408 123
407 122
406 122
405 122
404 122
403 121
402 121
401 121
400 120
399 120
398 120
397 120
396 120
395 119
394 119
393 119
392 119
391 119
390 118
389 118
388 118
387 118
386 117
385 117
384 117
383 117
382 116
381 116
380 116
379 116
378 116
377 116
376 116
375 115
374 115
373 115
372 115
371 115
370 115
369 115
368 114
368 113
367 113
366 113
365 113
364 113
363 112
362 112
361 112
360 112
359 112
358 112
357 111
356 111
355 111
354 111
353 111
352 111
351 111
350 111
349 110
348 110
347 110
346 110
345 109
344 109
343 109
342 109
341 109
340 109
339 109
338 109
337 109
336 108
335 108
334 108
333 108
332 108
331 108
330 108
329 108
328 108
327 108
326 108
325 108
324 108
323 108
322 108
321 108
320 108
319 108
318 108
317 108
316 108
315 108
314 108
313 108
312 108
311 108
310 108
309 108
308 108
307 108
306 108
305 108
304 108
303 108
