217 49
217 50
217 51
217 52
217 53
217 54
217 55
217 56
217 57
217 58
217 59
217 60
218 61
218 62
218 63
218 64
218 65
218 66
218 67
218 68
218 69
218 70
218 71
218 72
218 73
218 74
218 75
218 76
218 77
218 78
218 79
219 80
219 81
219 82
219 83
220 84
220 85
221 86
221 87
221 88
221 89
221 90
220 91
219 91
218 91
217 91
216 90
215 90
214 89
213 90
213 91
213 92
214 93
214 94
214 95
215 96
215 97
215 98
215 99
216 100
216 101
216 102
217 103
217 104
217 105
217 106
218 107
218 108
218 109
219 110
219 111
220 112
220 113
221 114
221 115
221 116
222 117
222 118
222 119
223 120
223 121
224 122
224 123
224 124
224 125
225 126
225 127
226 128
226 129
227 130
227 131
228 132
228 133
229 134
229 135
229 136
230 137
230 138
231 139
231 140
232 141
232 142
233 143
233 144
234 145
235 146
235 147
236 148
236 149
237 150
237 151
238 152
239 153
239 154
240 155
241 156
241 157
242 158
242 159
243 160
244 161
244 162
244 163
245 164
245 165
246 166
246 167
247 168
247 169
247 170
248 171
248 172
248 173
249 174
249 175
249 176
250 177
250 178
250 179
251 180
252 181
252 182
252 183
253 184
253 185
253 186
253 187
252 188
251 188
250 188
249 188
248 188
247 187
246 187
245 186
244 186
243 185
242 184
241 184
240 183
239 183
238 183
237 182
236 182
235 181
234 181
233 180
232 179
231 179
230 178
229 178
228 177
227 177
226 176
225 176
224 175
223 174
222 173
221 173
220 172
219 171
218 171
217 171
216 170
215 169
214 169
213 168
212 168
211 168
210 167
209 167
208 166
207 166
206 165
205 164
204 164
203 163
202 163
201 162
200 162
199 162
198 161
197 161
196 161
195 161
194 160
193 160
192 160
191 160
190 159
189 159
188 159
187 158
186 158
185 158
184 157
183 157
182 157
181 157
180 157
179 157
178 156
177 156
176 156
175 156
174 155
173 155
172 155
171 155
170 155
169 155
168 154
167 154
166 154
165 154
164 154
163 154
162 154
161 154
161 155
160 156
159 156
158 156
157 156
156 156
155 156
154 156
153 156
152 156
151 156
150 156
149 156
148 156
147 156
146 156
145 156
144 156
143 156
142 156
141 156
140 156
139 156
138 156
137 157
136 156
135 157
134 157
135 158
135 159
135 160
135 161
136 162
136 163
135 164
134 164
133 164
132 163
131 163
130 163
129 163
128 163
127 162
126 162
125 162
124 162
123 162
122 163
121 163
120 163
119 163
118 164
117 164
116 164
115 165
114 165
113 165
112 166
111 166
110 167
109 167
108 167
107 168
106 168
105 169
104 169
103 170
102 170
101 171
100 171
99 172
98 172
97 173
96 174
95 175
96 176
97 176
98 176
99 177
100 177
101 178
102 178
103 179
104 180
105 181
106 181
107 182
107 183
108 184
109 185
110 186
111 187
111 188
112 189
113 190
113 191
114 192
115 193
116 194
117 195
118 196
118 197
119 198
120 199
121 200
122 201
123 202
124 203
125 204
126 204
127 205
128 206
129 207
130 208
131 209
132 209
133 210
134 211
135 212
136 213
137 213
138 214
139 215
140 216
141 217
142 217
143 218
144 219
145 220
146 221
147 221
148 222
149 223
150 224
151 225
151 226
152 226
153 227
154 228
155 229
156 230
157 231
157 232
158 233
159 234
159 235
158 236
157 237
156 237
155 237
154 237
153 238
152 238
151 238
150 238
149 238
148 238
147 238
146 238
145 238
144 238
143 238
142 239
141 239
140 239
139 239
138 239
137 240
136 240
135 240
134 240
133 241
132 241
131 241
130 241
129 241
128 242
127 243
126 243
125 243
124 244
123 244
122 244
121 245
120 245
119 246
118 246
117 246
116 247
115 247
114 247
113 247
112 248
111 248
110 249
109 249
108 250
107 250
106 251
105 252
104 252
103 253
102 254
101 254
100 255
99 256
98 257
97 257
97 258
96 259
95 259
94 260
93 261
92 262
91 263
90 264
90 265
89 266
89 267
89 268
89 269
88 270
87 271
86 272
85 273
85 274
84 275
84 276
83 277
83 278
83 279
83 280
83 281
83 282
82 283
81 284
81 285
80 286
80 287
79 288
79 289
78 290
78 291
78 292
78 293
77 294
77 295
77 296
76 297
76 298
75 299
75 300
74 301
74 302
74 303
74 304
75 304
76 304
77 304
78 304
79 304
80 304
81 304
82 304
83 304
84 304
85 305
86 305
87 306
88 306
89 307
88 308
87 309
86 310
85 310
84 311
83 312
82 313
81 313
81 314
80 315
80 316
79 317
78 317
77 318
76 319
75 320
76 320
77 321
78 322
79 323
78 324
77 325
76 326
75 327
74 328
73 329
73 330
72 331
72 332
72 333
72 334
71 335
71 336
72 336
73 337
74 338
75 338
76 339
77 340
78 340
79 341
80 341
81 342
81 343
81 344
82 344
83 345
84 345
85 345
86 345
87 345
88 345
89 345
90 345
91 345
92 345
93 345
94 345
95 345
96 344
97 344
98 344
99 344
100 344
101 344
102 344
103 344
104 345
104 346
104 347
103 348
103 349
102 350
101 351
101 352
100 353
99 354
99 355
98 356
97 357
96 358
95 358
94 359
93 359
92 360
93 361
94 362
95 362
96 362
97 363
98 363
99 364
100 365
101 365
102 366
103 367
104 368
105 368
106 369
107 370
108 370
109 371
110 371
111 372
112 372
113 372
114 372
115 372
116 373
117 373
118 373
119 374
120 374
121 374
122 374
123 374
124 374
125 374
126 374
127 374
128 374
129 374
130 374
131 374
132 374
133 374
134 374
135 374
136 373
137 373
138 373
139 373
140 373
141 373
142 373
143 372
144 372
145 372
146 372
147 372
148 371
149 371
150 370
151 370
152 370
153 369
154 369
155 368
156 368
157 368
158 367
159 367
160 367
161 366
162 366
163 366
164 366
165 366
166 366
167 367
168 368
167 369
167 370
167 371
167 372
167 373
167 374
167 375
167 376
167 377
166 378
166 379
166 380
166 381
166 382
166 383
165 384
165 385
165 386
165 387
165 388
164 389
165 390
165 391
166 392
167 393
168 394
168 395
168 396
167 397
167 398
166 399
165 400
164 401
163 402
162 402
162 403
161 404
160 405
159 406
158 407
158 408
157 409
157 410
157 411
156 412
156 413
156 414
156 415
156 416
155 417
155 418
155 419
154 420
154 421
154 422
153 423
153 424
153 425
153 426
152 427
152 428
152 429
151 430
151 431
150 432
149 433
148 434
147 435
146 436
147 437
148 437
149 437
150 438
151 438
152 438
153 438
154 439
155 439
156 439
157 439
158 439
159 439
160 439
161 440
162 440
163 440
164 440
165 439
166 439
167 439
168 439
169 439
170 439
171 439
172 440
172 441
173 441
174 442
175 441
176 441
177 440
178 440
179 440
180 439
181 439
182 438
183 438
184 438
185 437
186 437
187 436
188 436
189 435
190 435
191 434
192 434
193 433
194 432
195 431
196 431
197 430
198 429
199 430
199 431
199 432
199 433
199 434
199 435
199 436
199 437
200 436
201 436
202 436
203 436
204 435
205 435
206 434
207 433
208 432
209 432
210 431
211 430
212 430
213 429
214 429
215 428
216 428
217 427
218 427
219 426
220 425
221 425
222 424
223 423
224 422
225 422
226 421
227 420
228 420
229 419
230 418
231 417
232 416
233 416
234 415
235 414
236 413
237 413
238 412
239 412
240 411
241 412
241 413
241 414
241 415
241 416
240 417
240 418
240 419
239 420
239 421
238 422
238 423
238 424
238 425
238 426
238 427
238 428
238 429
238 430
238 431
238 432
238 433
238 434
238 435
238 436
238 437
238 438
238 439
239 440
239 441
239 442
239 443
239 444
239 445
239 446
239 447
239 448
240 448
241 447
242 447
243 447
244 448
245 448
246 447
247 448
248 449
248 450
248 451
247 452
247 453
247 454
247 455
246 456
246 457
246 458
245 459
245 460
245 461
245 462
244 463
244 464
245 465
245 466
245 467
245 468
245 469
245 470
245 471
245 472
245 473
245 474
245 475
246 476
246 477
246 478
246 479
246 480
246 481
246 482
246 483
245 484
245 485
245 486
244 487
244 488
243 489
244 489
245 489
246 489
247 489
248 490
249 490
250 490
251 490
252 489
253 489
254 488
255 488
256 487
257 487
258 486
259 486
260 486
261 485
262 485
263 484
264 483
265 482
266 481
267 480
268 479
268 478
269 477
270 476
271 475
272 475
273 474
273 473
274 472
275 471
276 471
276 470
277 469
278 468
279 467
279 466
280 465
281 465
282 465
283 466
283 467
284 468
284 469
284 470
284 471
284 472
284 473
284 474
285 474
286 473
287 473
288 473
289 472
290 472
291 471
292 471
293 471
294 470
295 470
296 470
297 469
298 469
299 468
300 468
301 467
302 466
303 465
304 465
305 464
306 463
307 462
307 461
308 460
309 459
309 458
310 457
311 456
311 455
312 454
312 453
313 452
313 451
313 450
314 449
314 448
315 447
315 446
316 445
317 444
318 443
319 444
319 445
320 446
321 447
321 448
322 449
322 450
322 451
323 452
323 453
324 454
324 455
325 456
325 457
326 458
326 459
327 460
327 461
328 462
328 463
328 464
328 465
328 466
329 466
330 466
331 465
332 464
333 463
334 462
335 462
335 461
336 460
337 459
338 458
339 458
339 457
340 456
341 455
342 454
343 453
344 453
345 452
345 451
346 450
347 449
347 448
348 447
349 446
349 445
350 444
351 443
351 442
352 441
352 440
353 439
354 438
354 437
355 436
356 435
357 434
357 433
358 432
358 431
359 430
359 429
360 428
360 427
361 426
362 425
362 424
362 423
363 422
363 421
364 420
364 419
364 418
365 417
365 416
365 415
366 414
367 413
367 412
367 411
368 410
368 409
368 408
369 407
370 406
370 405
371 404
371 403
372 402
372 401
372 400
373 399
373 398
374 397
374 396
374 395
375 394
375 393
375 392
375 391
376 390
377 389
377 388
378 387
378 386
378 385
379 384
379 383
379 382
380 381
380 380
380 379
381 378
381 377
381 376
382 375
383 374
383 373
383 372
383 371
384 370
384 369
384 368
384 367
385 366
385 365
386 364
386 363
387 362
388 361
388 360
389 359
389 358
389 357
390 356
390 355
390 354
391 353
391 352
392 351
392 350
392 349
393 348
393 347
394 346
394 345
395 344
395 343
395 342
396 341
396 340
396 339
397 338
397 337
397 336
398 335
399 334
399 333
400 332
400 331
400 330
401 329
402 328
402 327
403 326
403 325
403 324
403 323
404 322
404 321
405 320
405 319
405 318
406 317
406 316
407 315
407 314
408 313
408 312
409 311
410 310
410 309
411 308
412 307
412 306
413 305
413 304
414 303
415 302
415 301
416 300
416 299
417 298
418 297
419 296
420 295
421 294
422 293
423 293
424 292
425 291
426 290
427 290
428 289
429 289
430 288
431 288
432 288
433 287
434 287
435 287
436 286
437 286
438 286
439 286
440 286
441 286
442 286
443 285
444 285
445 285
446 285
447 285
448 285
449 285
450 285
451 285
452 285
453 285
454 285
455 285
456 285
457 285
458 285
459 285
460 285
461 286
462 286
463 286
464 286
465 286
466 286
467 286
468 286
469 286
470 286
471 286
472 286
473 286
474 286
475 286
476 286
477 286
478 286
479 286
480 286
481 286
482 287
483 287
484 287
485 287
486 287
487 287
488 287
489 287
490 287
491 287
492 287
493 287
494 288
495 288
496 288
497 288
498 288
499 288
500 288
501 288
502 288
503 288
504 289
505 289
506 289
507 289
508 289
509 289
510 289
511 289
512 289
513 290
514 290
515 290
516 290
517 290
518 290
519 290
520 290
521 291
522 291
523 291
524 291
525 291
526 291
527 291
528 291
529 291
530 291
531 292
532 292
533 292
534 292
535 292
536 292
537 293
538 293
539 293
540 293
541 293
542 293
543 294
544 294
545 294
546 294
547 294
548 294
549 295
550 295
551 295
552 295
553 295
554 295
555 296
556 296
557 296
558 296
559 296
560 297
561 297
562 297
563 297
564 297
565 297
566 298
567 298
568 298
569 298
570 299
571 299
572 299
573 299
574 300
575 300
576 300
577 300
578 300
579 301
580 301
581 301
582 302
583 302
584 302
585 302
586 303
587 303
588 304
589 304
590 304
591 304
592 304
593 304
594 305
595 305
596 305
597 306
598 306
599 306
600 307
601 307
602 307
603 308
604 308
605 309
606 309
607 309
608 310
609 310
610 310
611 310
612 311
613 312
614 313
613 314
612 315
611 316
610 317
609 317
608 318
607 318
606 319
605 319
604 320
603 320
602 321
601 321
600 322
601 323
602 324
603 325
604 326
604 327
603 328
602 328
603 329
603 330
603 331
602 332
601 332
600 332
599 332
598 332
597 332
596 332
595 333
594 333
593 333
592 333
591 333
590 333
589 333
588 334
587 333
586 334
585 334
584 334
583 334
582 334
581 334
580 334
579 334
578 334
577 334
576 334
575 334
575 335
574 336
573 337
572 337
571 337
570 338
569 338
568 338
567 338
566 338
565 338
564 337
563 337
562 336
561 337
560 338
559 338
558 338
557 338
556 337
555 337
554 337
553 337
552 336
551 336
550 335
549 335
548 335
547 334
546 333
545 333
544 332
544 331
543 330
542 330
541 329
540 328
539 328
540 329
541 330
542 331
542 332
543 333
543 334
544 335
545 336
546 337
546 338
547 339
548 340
549 341
550 342
550 343
550 344
551 345
552 346
553 347
554 347
555 348
556 349
557 350
558 350
559 351
560 351
561 352
562 352
563 352
564 352
565 353
566 353
567 354
568 355
568 356
567 357
567 358
568 358
569 358
570 358
571 359
572 359
573 359
574 359
575 359
576 359
577 360
578 360
579 360
580 360
581 361
582 361
583 362
584 363
584 364
583 365
582 366
581 366
581 367
582 367
583 368
584 368
585 369
586 369
587 370
588 370
589 370
590 370
591 370
592 370
593 370
594 370
595 370
596 370
597 370
598 369
599 369
600 369
601 369
602 369
603 369
604 369
605 369
606 370
606 371
606 372
605 373
604 374
604 375
603 376
602 377
601 378
601 379
602 378
603 378
604 378
605 379
605 380
606 380
607 380
608 381
609 381
610 381
611 381
612 381
613 380
614 380
615 380
616 380
617 380
618 380
619 379
620 378
620 377
621 376
621 375
622 374
622 373
622 372
622 371
623 370
623 369
624 368
624 367
624 366
625 365
625 364
626 363
626 362
627 361
628 360
629 359
630 358
630 357
631 356
632 355
633 354
634 353
635 352
636 351
637 350
638 349
639 348
640 347
641 346
642 346
643 345
644 344
645 344
646 344
647 344
648 344
649 345
650 345
651 346
652 347
653 348
653 349
654 350
654 351
654 352
655 353
656 354
657 355
657 356
658 357
658 358
658 359
658 360
659 361
659 362
659 363
659 364
659 365
659 366
659 367
659 368
659 369
659 370
660 371
660 372
660 373
660 374
660 375
660 376
660 377
660 378
660 379
660 380
660 381
660 382
660 383
660 384
660 385
660 386
660 387
661 388
661 389
662 390
663 391
663 392
664 392
665 393
666 393
667 394
668 394
669 394
670 395
671 395
672 396
673 396
674 396
675 396
676 396
677 395
678 395
679 395
680 395
681 395
682 394
683 394
684 394
684 393
684 392
684 391
685 390
685 389
686 388
686 387
687 386
687 385
688 384
689 384
689 383
690 382
690 381
690 380
691 379
691 378
691 377
692 376
692 375
693 374
694 374
695 373
696 372
697 372
698 371
699 370
700 370
701 369
702 368
702 367
703 366
704 365
704 364
704 363
705 362
705 361
706 360
706 359
707 358
708 357
707 358
706 358
705 357
704 357
703 356
702 355
701 354
700 353
700 352
701 351
702 350
703 349
704 349
705 348
706 348
707 347
708 347
709 346
710 345
711 344
712 343
713 343
714 342
715 341
716 341
716 340
717 339
717 338
716 337
717 336
718 335
718 334
719 333
720 332
721 331
720 331
719 331
718 331
717 330
716 330
715 329
714 328
713 328
712 327
711 326
711 325
711 324
712 323
713 322
713 321
713 320
714 319
715 318
716 317
716 316
717 315
718 314
719 313
719 312
720 311
721 310
722 309
723 309
722 308
721 308
720 307
721 306
721 305
722 304
722 303
723 302
723 301
723 300
723 299
724 298
724 297
724 296
725 295
725 294
726 293
726 292
726 291
725 292
724 292
723 292
722 292
721 292
720 291
719 290
720 289
720 288
720 287
721 286
721 285
722 284
723 283
723 282
724 281
724 280
725 279
725 278
725 277
725 276
724 275
724 274
724 273
725 272
725 271
725 270
725 269
725 268
725 267
725 266
726 265
725 264
726 263
726 262
726 261
725 260
724 259
725 258
725 257
725 256
725 255
725 254
726 253
726 252
726 251
726 250
726 249
726 248
726 247
726 246
726 245
726 244
726 245
726 246
726 247
726 248
725 249
725 250
724 251
723 252
722 253
722 254
721 255
721 256
720 257
720 258
719 259
719 260
718 261
717 262
716 262
715 262
715 263
714 264
714 265
713 266
712 267
711 268
711 269
710 270
709 271
708 272
708 273
707 274
706 275
705 276
704 275
703 274
702 274
702 275
702 276
701 277
701 278
701 279
700 280
699 281
698 282
697 283
696 284
695 285
694 286
693 285
692 286
692 287
692 288
691 289
690 290
689 291
688 292
688 293
687 294
686 295
685 295
684 296
683 297
682 298
681 298
680 298
679 298
679 299
678 300
677 299
677 300
676 301
675 302
674 303
673 304
672 305
671 306
670 307
669 308
668 309
667 309
666 308
665 308
665 309
664 310
663 310
662 309
662 308
662 307
661 306
661 305
662 304
662 303
662 302
662 301
662 300
662 299
662 298
662 297
662 296
662 295
663 294
663 293
663 292
662 292
661 291
661 290
661 289
660 289
659 288
659 287
659 286
658 285
658 284
657 283
658 282
657 282
657 283
656 284
655 285
655 286
654 287
654 288
653 289
653 290
653 291
652 292
652 293
651 294
651 295
651 296
650 297
649 297
648 297
647 297
646 296
645 295
644 294
643 294
642 293
641 292
640 291
639 290
638 289
637 288
636 287
636 288
635 289
634 290
633 290
632 290
631 290
630 290
629 290
628 290
627 290
626 290
625 290
624 290
623 290
622 290
621 290
620 290
619 290
618 290
617 290
616 290
615 290
614 290
613 290
612 289
611 289
611 290
612 290
613 291
614 292
615 293
615 294
616 295
616 296
616 297
616 298
616 299
615 300
614 300
613 300
612 300
611 299
610 299
609 299
608 299
607 298
606 298
605 298
604 298
603 297
602 297
601 297
600 297
599 297
598 296
597 296
596 296
595 295
594 295
593 295
592 295
591 294
590 294
589 293
588 293
587 293
586 293
585 293
584 293
583 293
582 292
581 292
580 292
579 292
578 291
577 291
576 291
575 290
574 290
573 290
572 290
571 290
570 289
569 289
568 289
567 289
566 289
565 289
564 288
563 288
562 288
561 288
560 287
559 287
558 287
557 287
556 287
555 287
554 286
553 286
552 286
551 286
550 286
549 286
548 285
547 285
546 285
545 285
544 285
543 285
542 284
541 284
540 284
539 284
538 284
537 283
536 283
535 283
534 283
533 283
532 283
531 282
530 282
529 282
528 282
527 282
526 282
525 281
524 281
523 281
522 281
521 281
520 281
519 280
518 280
517 280
516 280
515 280
514 280
513 280
512 279
511 279
510 279
509 279
508 279
507 279
506 278
505 278
504 278
503 278
502 278
501 278
500 278
499 278
498 278
497 277
496 277
495 277
494 277
493 277
492 277
491 276
490 276
489 276
488 276
487 276
486 275
485 275
484 275
483 275
482 275
481 275
480 274
479 274
478 274
477 274
476 274
475 274
474 274
473 274
472 274
471 273
470 273
469 273
468 273
467 273
466 273
465 273
464 273
463 273
462 273
461 273
460 272
459 272
458 272
457 272
456 272
455 272
454 271
453 271
452 271
451 271
450 271
449 271
448 271
447 270
446 270
445 270
444 270
443 270
442 269
441 269
440 269
439 268
438 268
437 267
436 267
435 266
434 266
433 265
432 264
431 264
430 263
429 262
428 262
427 261
426 260
425 259
424 258
423 257
422 256
421 256
420 255
419 254
418 253
417 252
416 251
415 250
415 249
414 248
413 248
412 247
411 246
411 245
410 244
410 243
409 242
409 241
409 240
409 239
409 238
409 237
409 236
409 235
408 234
408 233
407 232
407 231
406 230
406 229
406 228
405 227
405 226
405 225
404 224
404 223
404 222
403 221
403 220
403 219
403 218
403 217
403 216
403 215
402 214
402 213
402 212
402 211
402 210
402 209
401 208
401 207
401 206
401 205
400 204
400 203
400 202
400 201
400 200
399 199
399 198
399 197
399 196
398 195
398 194
398 193
397 192
397 191
397 190
396 189
396 188
396 187
395 186
395 185
395 184
394 183
393 182
393 181
392 180
392 179
391 178
391 177
390 176
389 175
389 174
388 173
388 172
387 171
387 170
386 169
386 168
385 167
385 166
384 165
384 164
384 163
383 162
383 161
382 160
381 159
381 158
380 157
380 156
379 155
379 154
379 153
378 152
377 151
377 150
376 149
375 148
375 147
374 146
374 145
373 144
373 143
372 142
372 141
371 140
371 139
370 138
370 137
369 136
369 135
368 134
368 133
367 132
367 131
366 130
366 129
365 128
365 127
364 126
364 125
363 124
363 123
362 122
362 121
361 120
360 119
360 118
359 117
359 116
358 115
358 114
358 113
357 112
356 111
356 110
355 109
355 108
354 107
354 106
353 105
352 104
352 103
351 102
351 101
350 100
349 99
349 98
348 97
347 96
346 95
346 94
345 93
344 92
344 91
343 90
342 89
341 88
340 87
339 86
339 87
338 88
337 87
336 86
335 85
334 84
333 83
332 82
332 81
331 81
330 80
329 79
328 79
327 78
326 77
325 76
324 76
323 75
322 74
321 73
320 72
319 71
318 70
317 70
316 69
315 68
315 69
315 70
315 71
315 72
315 73
315 74
314 75
314 76
314 77
314 78
313 79
313 80
313 81
312 82
312 83
312 84
311 85
311 86
311 87
310 88
310 89
310 90
309 91
309 92
308 93
307 93
306 92
305 91
304 90
304 89
303 88
302 87
301 86
301 85
300 84
300 83
299 82
298 81
298 80
297 79
297 78
296 77
296 76
295 75
294 74
294 73
293 72
292 71
291 70
290 69
289 68
288 67
288 66
287 65
286 64
285 64
284 63
284 64
283 65
283 66
282 67
281 66
280 65
279 65
278 64
277 63
276 63
275 62
274 62
273 61
272 60
271 60
270 59
269 59
268 58
267 57
266 57
265 56
264 55
263 55
262 55
262 56
261 57
261 58
261 59
261 60
260 61
260 62
259 63
259 64
258 65
257 65
256 64
255 63
254 62
253 62
252 61
251 60
250 60
249 59
248 59
247 60
246 59
245 59
244 58
243 58
242 57
241 57
240 57
239 57
238 56
237 56
236 56
235 55
234 55
233 54
232 54
231 54
230 53
229 53
228 53
227 52
226 52
225 52
224 52
223 51
222 51
221 50
220 50
219 49
218 49
217 49
