35 293
35 294
35 295
35 296
35 297
35 298
35 299
35 300
35 301
35 302
36 303
37 303
38 304
39 305
39 306
40 307
41 307
42 308
43 308
44 309
45 310
45 311
46 312
46 313
47 314
47 315
48 315
49 315
50 315
51 316
52 316
53 317
54 317
55 318
56 318
57 319
58 319
59 320
60 320
61 321
62 322
62 323
63 324
64 325
64 326
65 326
66 327
67 327
68 327
69 327
70 327
71 327
72 327
73 327
74 327
75 327
76 327
77 327
78 327
79 327
80 327
81 326
82 326
83 325
84 325
85 325
86 326
87 327
88 328
88 329
89 330
89 331
89 332
89 333
90 333
91 333
92 333
93 333
94 333
95 333
96 333
97 333
98 332
99 332
100 333
101 333
102 334
103 334
104 335
105 336
105 337
106 338
106 339
107 340
107 341
108 341
109 342
110 342
111 343
111 344
112 345
112 346
113 347
113 348
114 349
114 350
114 351
114 352
114 353
114 354
115 354
116 354
117 354
118 355
119 355
120 356
121 356
122 356
123 356
124 357
125 357
126 358
127 358
128 359
128 360
129 361
129 362
130 363
131 363
132 364
133 364
134 365
134 366
135 367
135 368
136 369
136 370
137 371
137 372
137 373
137 374
137 375
137 376
137 377
138 377
139 377
140 377
141 377
142 377
143 377
144 377
145 377
146 377
147 377
148 377
149 378
150 378
151 379
152 379
153 379
154 379
155 380
156 380
157 381
158 381
159 382
159 383
160 384
161 385
162 385
163 386
163 387
164 388
164 389
165 390
165 391
165 392
165 393
165 394
165 395
165 396
166 397
166 398
167 399
168 399
169 399
170 399
171 399
172 399
173 399
174 399
175 399
176 399
177 399
178 399
179 399
180 399
181 400
182 400
183 400
184 400
185 400
186 400
187 400
188 400
189 400
190 400
191 400
192 400
193 401
194 401
195 402
195 403
196 404
197 404
198 404
199 404
200 404
201 405
202 405
203 406
204 406
205 407
205 408
206 409
206 410
207 411
207 412
207 413
207 414
207 415
207 416
208 417
209 417
210 417
211 417
212 417
213 417
214 417
215 417
216 416
217 416
218 416
219 416
220 416
221 416
222 416
223 416
224 416
225 416
226 416
227 416
228 416
229 416
230 416
231 416
232 416
233 416
234 416
235 417
236 418
237 419
238 419
239 419
240 419
241 419
242 419
243 419
244 419
245 419
246 420
247 420
248 421
249 421
250 422
251 422
252 423
253 423
254 424
254 425
255 426
255 427
256 428
256 429
256 430
256 431
256 432
257 433
257 434
258 434
259 434
260 434
261 434
262 434
263 434
264 434
265 433
266 433
267 433
268 433
269 433
270 433
271 433
272 433
273 432
274 432
275 431
276 431
277 431
278 431
279 431
280 431
281 431
282 431
283 431
284 431
285 431
286 431
287 431
288 431
289 430
290 431
291 431
292 432
293 432
294 432
295 432
296 432
297 432
298 432
299 432
300 432
301 432
302 432
303 432
304 432
305 432
306 433
307 433
308 434
309 434
310 435
310 436
311 437
311 438
312 438
313 438
314 438
315 438
316 438
317 438
318 438
319 438
320 437
321 437
322 437
323 437
324 437
325 437
326 437
327 437
328 436
329 436
330 436
331 436
332 436
333 435
334 435
335 434
336 434
337 433
338 433
339 433
340 433
341 433
342 433
343 433
344 433
345 432
346 432
347 431
348 431
349 431
350 431
351 431
352 431
353 431
354 431
354 430
355 429
356 429
357 428
358 428
359 428
360 428
361 429
362 430
362 431
363 431
364 431
365 431
366 431
367 431
368 431
369 430
370 429
371 429
372 428
373 428
374 427
375 427
376 426
377 426
378 426
379 426
380 426
381 427
382 428
383 429
383 430
384 431
384 432
385 432
386 432
387 432
388 432
389 432
390 432
391 432
392 432
393 431
394 431
395 430
396 430
397 430
398 429
399 429
400 428
401 428
402 428
403 428
404 427
405 427
406 426
407 426
408 425
409 425
410 425
411 425
412 424
413 424
414 423
415 423
416 422
417 422
418 422
419 422
420 422
421 421
422 420
423 419
424 418
425 418
426 417
427 417
428 416
429 416
430 416
431 416
432 416
433 415
434 414
435 413
436 413
437 412
438 412
439 411
440 411
441 411
442 411
443 411
444 411
445 411
446 411
447 410
448 410
449 409
450 409
451 408
452 408
453 407
454 406
455 405
456 404
457 403
458 402
459 402
460 401
461 401
462 400
463 400
464 400
465 399
466 399
467 399
468 400
469 400
470 400
471 400
472 400
473 400
474 400
475 400
476 400
477 400
478 400
479 400
480 400
481 400
482 400
483 400
484 400
485 400
486 399
487 399
488 399
489 398
490 398
491 397
492 397
493 396
494 396
495 395
496 395
497 394
498 393
499 392
500 392
501 391
502 391
503 390
504 390
505 389
506 389
507 389
508 389
509 389
510 389
511 389
512 389
513 389
514 389
515 388
516 388
517 388
518 388
519 388
520 388
521 388
522 388
523 388
524 388
525 388
526 388
527 388
528 387
529 387
530 386
531 385
532 385
533 384
534 384
535 383
536 383
537 383
538 383
539 383
540 383
541 383
542 383
543 383
544 383
545 383
546 383
547 383
548 382
549 382
550 381
551 381
552 380
553 380
554 379
555 378
556 377
556 376
557 375
558 374
559 373
560 373
561 372
562 372
563 372
564 372
565 372
566 372
567 372
568 372
569 372
570 372
571 371
572 371
573 370
574 370
575 369
576 369
577 368
578 368
579 368
580 367
581 367
582 367
583 366
584 365
585 364
586 363
587 363
588 362
589 362
590 361
591 361
592 360
593 360
594 360
594 359
595 358
595 357
596 356
597 355
598 354
599 354
600 353
601 353
602 352
603 352
604 351
604 350
605 349
605 348
606 347
606 346
607 345
607 344
608 343
608 342
609 341
609 340
610 339
611 338
611 337
612 336
613 335
614 334
614 333
615 332
615 331
616 330
617 329
617 328
618 327
619 326
620 325
620 324
621 323
621 322
622 321
622 320
623 319
624 318
625 317
625 316
626 315
626 314
627 313
628 312
629 311
629 310
630 309
630 308
631 307
632 306
632 305
633 304
634 303
635 302
635 301
636 300
636 299
637 298
638 297
638 296
639 295
639 294
640 293
640 292
641 291
641 290
642 289
642 288
643 287
644 286
644 285
645 284
645 283
646 282
647 281
648 281
649 280
650 280
651 279
652 279
653 278
654 278
655 277
656 277
657 277
658 276
659 276
660 276
661 276
662 275
663 275
664 275
665 275
666 275
667 275
668 275
669 275
670 275
671 275
672 275
673 275
674 275
675 274
676 274
677 274
678 274
679 274
680 274
681 274
682 274
683 274
684 274
685 274
686 274
687 274
688 274
689 274
690 274
691 274
692 274
693 274
694 274
695 274
696 274
697 274
698 274
699 274
700 274
701 274
702 274
703 274
704 274
705 274
706 274
707 274
708 274
709 274
710 274
711 274
712 274
713 274
714 274
715 274
716 274
717 274
718 274
719 274
720 274
721 274
722 274
723 274
724 274
725 274
726 274
727 274
728 274
729 274
730 274
731 274
732 274
733 274
734 274
735 274
736 274
737 274
738 274
739 274
740 274
741 274
742 274
743 274
744 274
745 274
746 274
746 273
746 272
746 271
746 270
746 269
746 268
745 268
744 268
743 268
742 268
741 268
740 268
739 268
738 268
737 267
736 267
735 267
734 267
733 267
732 267
731 267
730 267
729 267
728 267
727 267
726 266
725 266
724 266
723 266
722 266
721 266
720 266
719 266
718 266
717 266
716 266
715 266
714 266
713 266
712 266
711 266
710 266
709 266
708 266
707 267
706 267
705 267
704 267
703 267
702 267
701 267
700 267
699 267
698 267
697 267
696 267
695 267
694 267
693 267
692 267
691 267
690 267
689 267
688 267
687 267
686 267
685 267
684 267
683 267
682 267
681 268
680 268
679 268
678 268
677 268
676 268
675 268
674 268
673 268
672 268
671 268
670 268
669 268
668 268
667 268
666 268
665 268
664 268
663 268
662 268
661 268
660 268
659 268
658 268
657 268
656 269
655 269
654 269
653 269
652 269
651 269
650 268
649 268
648 267
647 266
646 265
646 264
646 263
647 262
648 261
649 261
650 260
651 260
652 259
653 259
654 258
655 258
656 258
657 257
658 257
659 256
660 256
661 256
662 256
663 255
664 255
665 255
666 255
667 255
668 255
669 255
670 255
671 254
672 254
673 254
674 254
675 254
676 254
677 254
678 254
679 253
680 253
681 253
682 253
683 253
684 253
685 253
686 253
687 253
688 253
689 253
690 253
691 253
692 253
693 253
694 253
695 253
696 253
697 253
698 254
699 254
700 254
701 254
702 254
703 254
704 254
705 254
706 254
707 254
708 254
709 254
710 254
711 254
712 254
713 254
714 255
715 255
716 255
717 255
718 255
719 255
720 255
721 255
722 255
723 255
724 255
725 255
726 255
727 255
728 255
729 255
730 255
731 255
732 255
733 255
734 255
735 255
736 255
737 255
738 255
739 255
740 255
741 255
742 255
742 254
742 253
742 252
742 251
742 250
742 249
741 249
740 249
739 249
738 249
737 249
736 249
735 249
734 248
733 248
732 248
731 248
730 248
729 248
728 248
727 248
726 247
725 247
724 247
723 247
722 247
721 247
720 247
719 247
718 247
717 247
716 247
715 247
714 247
713 247
712 247
711 247
710 247
709 247
708 247
707 247
706 247
705 247
704 247
703 247
702 247
701 247
700 247
699 247
698 247
697 247
696 247
695 247
694 247
693 247
692 247
691 247
690 247
689 247
688 247
687 247
686 247
685 247
684 247
683 247
682 247
681 247
680 247
679 247
678 247
677 247
676 247
675 248
674 248
673 248
672 248
671 248
670 248
669 248
668 248
667 248
666 248
665 248
664 248
663 248
662 249
661 249
660 249
659 249
658 249
657 249
656 250
655 250
654 250
653 250
652 250
651 250
650 250
649 251
648 250
647 250
646 250
645 250
644 250
643 250
642 249
641 249
640 248
639 248
638 247
637 247
636 246
635 246
634 245
633 245
632 244
631 243
631 242
630 241
630 240
629 239
629 238
628 237
628 236
628 235
628 234
628 233
627 232
626 231
626 230
625 229
624 228
623 227
622 226
621 225
621 224
620 223
619 222
618 221
617 220
616 219
615 218
614 217
613 216
613 215
612 214
611 213
610 212
610 211
609 210
608 209
608 208
607 207
607 206
606 205
606 204
605 203
605 202
604 201
604 200
603 200
602 199
601 199
600 198
599 198
598 197
597 196
596 195
595 194
595 193
594 192
594 191
593 190
592 189
591 188
590 188
589 187
588 187
587 186
586 185
585 184
584 184
583 183
582 183
581 182
580 181
579 180
578 180
577 179
576 178
575 178
574 178
573 178
572 178
571 178
570 178
569 178
568 178
567 178
566 178
565 178
564 177
563 176
562 175
562 174
561 173
560 173
559 172
558 172
557 171
556 171
555 170
554 169
553 169
552 169
551 169
550 169
549 169
548 169
547 169
546 169
545 169
544 169
543 169
542 168
541 168
540 167
539 167
538 166
537 165
536 164
535 163
534 163
533 162
532 162
531 162
530 162
529 162
528 162
527 162
526 161
525 161
524 160
523 160
522 159
521 158
521 157
520 156
519 155
518 155
517 155
516 155
515 155
514 155
513 155
512 155
511 155
510 154
509 154
508 153
507 153
506 153
505 153
504 153
503 152
502 152
501 151
500 151
499 150
498 149
497 149
496 149
495 149
494 148
493 148
492 147
491 147
490 147
489 147
488 146
487 146
486 146
485 145
484 145
483 144
482 144
481 143
481 142
480 142
479 141
478 141
477 140
476 140
475 139
474 139
473 138
473 137
472 137
471 137
470 137
469 137
468 137
467 137
466 137
465 137
464 137
463 138
462 137
461 137
460 136
459 136
458 136
457 136
456 136
455 136
454 136
453 136
452 136
451 136
450 136
449 136
448 136
447 136
446 136
445 136
444 135
443 135
442 134
441 134
440 134
439 134
438 134
437 134
436 134
435 133
434 133
433 132
432 132
431 131
430 131
429 131
428 131
427 130
426 130
425 129
424 129
423 128
422 128
421 127
420 126
419 126
418 126
417 126
416 126
415 125
414 125
413 124
412 124
411 123
410 123
409 123
408 123
407 123
406 123
405 122
404 122
403 122
402 121
401 121
400 121
399 121
398 120
397 120
396 120
395 120
394 120
393 120
392 120
391 121
391 122
390 123
389 124
388 125
387 125
386 125
385 125
384 125
383 124
382 124
381 123
380 123
379 123
378 123
377 123
376 123
375 123
374 123
373 123
372 123
371 123
370 123
369 123
368 124
367 124
366 123
365 122
364 122
363 122
362 122
361 122
360 122
359 122
358 122
357 122
356 121
355 121
354 121
353 121
352 121
351 121
350 121
349 121
348 120
347 120
346 120
345 120
344 120
343 120
342 120
341 119
340 119
339 119
338 119
337 119
336 119
335 119
334 119
333 119
332 119
332 120
331 121
331 122
330 123
330 124
329 125
328 126
327 126
326 127
325 127
324 128
323 128
322 128
321 128
320 128
319 128
318 128
317 128
316 128
315 128
314 128
314 129
313 130
312 130
311 131
310 131
309 132
308 132
307 131
306 131
305 130
304 130
303 129
302 129
301 128
300 128
299 128
298 128
297 127
296 127
295 126
294 126
293 125
292 125
291 125
290 125
289 125
288 124
287 124
286 123
285 123
284 122
283 122
282 122
281 122
280 122
279 122
278 122
277 122
276 122
275 122
274 122
273 122
272 122
271 123
270 123
269 123
268 123
267 123
266 123
265 123
265 124
265 125
264 126
264 127
263 128
263 129
262 130
261 130
260 131
259 131
258 132
257 132
256 132
255 132
254 132
253 132
252 132
251 133
250 133
250 134
249 135
248 136
247 137
246 137
245 137
244 137
243 137
242 137
241 137
240 137
239 137
238 137
237 137
236 137
235 137
234 137
233 137
232 138
231 138
230 138
229 138
228 138
227 139
226 139
225 139
224 139
223 140
222 140
221 141
220 141
219 142
218 143
218 144
217 145
216 145
215 146
214 146
213 147
212 147
211 148
210 148
209 149
208 149
207 150
206 150
205 150
204 150
204 151
203 152
202 152
201 153
200 153
199 154
198 154
197 154
196 154
195 154
194 154
193 154
192 154
191 154
190 154
189 155
188 155
187 156
186 156
185 157
184 157
183 157
183 158
182 159
181 159
180 160
179 160
178 161
178 162
177 163
177 164
176 165
175 165
174 166
173 166
172 167
171 167
170 167
169 167
168 167
167 167
166 167
165 168
164 168
163 168
162 168
161 168
160 168
159 168
158 169
157 169
156 170
155 170
154 171
153 171
152 171
152 172
151 173
151 174
150 175
149 175
148 176
147 177
146 178
146 179
145 180
144 180
143 181
142 181
141 182
140 183
140 184
139 185
138 185
137 186
136 186
135 187
134 187
133 187
132 187
131 187
130 187
129 187
128 187
127 187
126 187
125 187
124 187
124 188
124 189
124 190
123 191
123 192
122 193
122 194
121 195
120 195
119 196
118 197
118 198
117 199
116 199
115 200
114 200
113 200
112 200
111 200
110 200
109 200
108 200
108 201
107 202
107 203
106 204
105 204
104 205
103 205
102 206
101 206
100 206
99 206
98 207
97 207
96 207
95 207
94 207
94 208
93 209
93 210
92 211
92 212
91 213
90 213
89 214
88 214
87 215
86 215
85 215
84 215
83 215
82 215
81 216
80 216
80 217
79 218
78 219
77 219
76 220
75 220
74 221
73 221
72 221
71 221
70 222
69 222
68 222
67 222
66 222
65 222
64 222
64 223
64 224
64 225
63 226
63 227
62 228
62 229
61 230
60 230
59 231
58 231
57 232
57 233
56 234
56 235
55 236
54 236
53 237
52 237
51 238
50 238
49 238
48 239
47 240
46 241
45 242
45 243
44 244
44 245
43 246
43 247
42 248
41 249
41 250
40 251
40 252
39 253
39 254
38 255
37 256
37 257
37 258
37 259
37 260
37 261
37 262
37 263
37 264
37 265
37 266
37 267
38 268
38 269
38 270
38 271
38 272
38 273
38 274
38 275
38 276
38 277
38 278
38 279
38 280
38 281
38 282
39 283
39 284
39 285
39 286
40 287
39 288
39 289
38 290
37 291
36 292
35 293
