50 312
50 313
50 314
50 315
50 316
50 317
50 318
50 319
50 320
51 320
52 320
53 320
54 320
55 320
56 320
57 320
57 319
58 318
58 317
59 316
60 316
61 315
62 315
63 314
64 314
65 313
66 313
67 313
68 313
69 313
70 313
71 313
72 313
73 313
74 313
75 313
76 312
77 312
78 312
79 312
80 312
81 312
82 312
83 312
84 312
85 313
86 313
87 314
88 315
88 316
89 317
89 318
89 319
89 320
89 321
89 322
89 323
89 324
89 325
89 326
89 327
89 328
89 329
89 330
89 331
89 332
89 333
89 334
89 335
89 336
90 337
91 338
91 339
92 340
92 341
93 342
93 343
94 344
94 345
95 346
95 347
96 348
97 348
97 347
97 346
98 345
98 344
99 343
99 342
100 341
100 340
101 339
102 338
103 337
104 336
105 336
106 335
107 335
108 334
109 334
110 334
111 334
112 334
113 334
114 334
115 333
116 333
117 333
118 333
119 332
120 332
121 332
122 331
123 331
124 330
125 329
126 329
127 328
128 327
129 326
130 325
130 324
130 323
131 322
131 321
132 320
132 319
133 318
132 317
132 316
132 315
132 314
132 313
132 312
132 311
132 310
133 309
133 308
134 307
134 306
135 305
136 304
137 304
138 303
139 304
140 304
141 305
141 306
141 307
140 308
140 309
140 310
140 311
139 312
139 313
139 314
139 315
138 316
138 317
137 318
137 319
136 320
137 321
137 322
138 323
138 324
138 325
138 326
138 327
138 328
138 329
138 330
138 331
138 332
138 333
138 334
138 335
138 336
138 337
139 338
139 339
139 340
139 341
139 342
140 343
140 344
140 345
141 346
141 347
141 348
141 349
142 350
142 351
142 352
142 353
143 354
143 355
143 356
143 357
143 358
143 359
143 360
143 361
143 362
143 363
143 364
143 365
144 365
145 365
145 364
146 363
146 362
146 361
147 360
147 359
148 358
148 357
148 356
149 355
149 354
150 353
150 352
151 351
152 350
153 350
154 349
155 349
156 348
157 348
158 348
159 348
160 348
161 347
162 347
163 347
164 347
165 347
166 346
167 346
168 346
169 346
170 346
171 346
172 346
173 346
174 345
175 345
176 345
177 345
178 345
179 344
180 344
181 344
182 344
183 344
184 343
185 343
186 342
187 342
188 341
189 340
190 339
191 338
192 337
193 336
194 335
195 334
196 333
197 333
198 332
199 332
200 333
201 333
202 334
202 335
203 336
203 337
202 338
202 339
201 340
201 341
200 342
199 343
198 344
198 345
197 346
196 347
196 348
195 349
194 350
193 351
193 352
192 353
191 354
190 355
189 356
189 357
189 358
189 359
190 359
191 359
192 359
193 359
194 359
195 359
196 360
197 361
198 362
198 363
198 364
198 365
197 366
197 367
197 368
197 369
197 370
197 371
197 372
197 373
197 374
197 375
197 376
197 377
197 378
197 379
197 380
197 381
197 382
197 383
197 384
198 385
198 386
198 387
198 388
198 389
198 390
198 391
198 392
198 393
199 394
199 395
199 396
200 397
200 398
200 399
200 400
200 401
200 402
200 403
200 404
200 405
200 406
200 407
200 408
200 409
200 410
200 411
200 412
201 413
202 414
203 415
204 416
205 416
206 416
207 416
208 416
209 417
210 417
211 418
212 418
213 419
214 420
215 421
215 422
216 423
216 424
216 425
216 426
215 427
215 428
215 429
215 430
214 431
214 432
214 433
213 434
213 435
213 436
213 437
213 438
212 439
212 440
212 441
212 442
212 443
211 444
211 445
211 446
211 447
211 448
211 449
211 450
211 451
211 452
211 453
211 454
211 455
212 455
213 455
214 455
214 454
215 453
215 452
216 451
217 451
218 450
219 449
220 449
221 448
222 448
223 447
224 447
225 446
226 445
226 444
227 443
228 442
229 441
230 440
231 440
232 439
233 438
234 437
235 436
236 435
237 434
238 433
239 432
240 431
241 430
242 429
243 428
244 427
245 426
246 425
247 425
248 424
249 424
250 425
251 426
252 427
252 428
252 429
251 430
251 431
250 432
250 433
249 434
249 435
249 436
249 437
249 438
249 439
249 440
249 441
249 442
249 443
249 444
249 445
249 446
249 447
249 448
250 449
250 450
250 451
250 452
250 453
250 454
250 455
250 456
250 457
250 458
250 459
251 459
252 459
253 459
253 458
254 457
254 456
255 455
255 454
256 453
256 452
257 451
257 450
258 449
258 448
259 447
260 446
261 445
261 444
262 443
263 442
263 441
263 440
263 439
263 438
264 437
264 436
264 435
264 434
264 433
264 432
264 431
264 430
264 429
264 428
264 427
264 426
264 425
264 424
264 423
264 422
264 421
264 420
264 419
264 418
264 417
264 416
264 415
264 414
263 413
263 412
263 411
263 410
262 409
262 408
263 407
263 406
264 405
265 405
266 404
267 405
268 406
269 407
269 408
270 409
270 410
270 411
270 412
270 413
271 414
271 415
272 416
272 417
272 418
273 419
273 420
273 421
273 422
273 423
274 424
274 425
274 426
274 427
274 428
274 429
275 430
275 431
276 432
277 433
277 434
278 435
278 436
279 437
279 438
280 439
280 440
280 441
280 442
280 443
280 444
280 445
280 446
280 447
280 448
280 449
280 450
281 451
281 452
282 453
283 453
284 453
285 453
286 454
287 454
288 455
289 455
290 456
291 456
292 457
293 458
294 459
294 460
293 461
293 462
292 463
291 464
291 465
290 466
290 467
290 468
290 469
290 470
290 471
290 472
290 473
290 474
290 475
290 476
290 477
290 478
290 479
290 480
290 481
290 482
290 483
290 484
290 485
290 486
290 487
290 488
290 489
290 490
290 491
290 492
290 493
291 494
291 495
291 496
291 497
292 498
292 499
292 500
292 501
292 502
292 503
292 504
292 505
293 505
294 505
295 505
295 504
296 503
296 502
296 501
297 500
297 499
298 498
298 497
299 496
299 495
300 494
301 493
301 492
302 491
303 490
304 489
305 489
306 488
307 487
308 486
308 485
309 484
309 483
309 482
310 481
310 480
311 479
311 478
312 477
312 476
313 475
313 474
314 473
315 473
316 472
317 473
318 473
319 474
319 475
320 476
321 477
322 478
323 479
324 480
325 481
326 482
327 483
327 484
328 485
328 486
329 487
330 487
331 487
332 487
332 486
332 485
332 484
332 483
332 482
332 481
332 480
332 479
332 478
332 477
332 476
333 475
333 474
334 473
335 472
336 471
337 471
338 472
339 472
340 473
340 474
341 475
342 476
342 477
343 478
343 479
344 480
344 481
345 482
346 482
347 482
347 481
347 480
347 479
347 478
347 477
347 476
347 475
347 474
347 473
348 472
348 471
348 470
348 469
348 468
348 467
348 466
348 465
348 464
348 463
348 462
348 461
348 460
348 459
348 458
348 457
348 456
348 455
348 454
349 453
349 452
350 451
351 450
352 449
353 449
354 450
355 450
356 451
357 452
357 453
358 454
358 455
359 456
359 457
360 458
360 459
361 460
361 461
361 462
361 463
362 464
363 464
363 463
363 462
363 461
363 460
364 459
364 458
364 457
364 456
364 455
364 454
365 453
365 452
365 451
365 450
365 449
365 448
366 447
366 446
366 445
366 444
366 443
366 442
366 441
366 440
366 439
366 438
366 437
366 436
366 435
366 434
366 433
366 432
366 431
366 430
366 429
366 428
365 427
365 426
365 425
365 424
365 423
365 422
365 421
364 420
364 419
364 418
364 417
363 416
363 415
362 414
361 413
360 412
360 411
359 410
358 409
357 408
356 408
355 407
354 406
353 405
352 404
352 403
352 402
352 401
353 400
353 399
354 398
354 397
355 396
356 395
357 395
358 394
359 395
360 396
361 397
361 398
362 399
362 400
362 401
362 402
363 403
363 404
364 405
364 406
365 407
365 408
366 409
366 410
366 411
367 412
368 413
369 414
370 415
370 416
371 417
372 418
373 419
374 420
375 421
376 422
377 423
378 423
379 424
380 425
381 425
382 426
383 426
384 427
385 428
386 429
387 430
388 431
389 432
389 433
390 434
390 435
391 436
391 437
392 438
392 439
393 440
394 440
395 440
396 440
396 439
396 438
396 437
396 436
396 435
396 434
395 433
395 432
395 431
395 430
395 429
395 428
396 427
397 426
398 425
399 425
400 424
401 424
402 424
403 423
404 423
405 423
406 423
407 423
408 423
409 423
410 423
411 424
412 424
413 424
414 424
415 424
416 424
417 424
418 424
419 424
420 424
421 424
422 424
423 424
424 424
425 424
426 424
427 425
428 425
429 426
430 427
431 428
431 429
430 430
430 431
429 432
428 433
428 434
428 435
427 436
427 437
427 438
426 439
426 440
426 441
426 442
426 443
426 444
426 445
426 446
426 447
426 448
426 449
426 450
426 451
426 452
426 453
426 454
426 455
426 456
426 457
426 458
426 459
426 460
426 461
426 462
426 463
426 464
426 465
427 466
427 467
427 468
427 469
428 470
428 471
429 472
429 473
428 474
428 475
428 476
428 477
428 478
428 479
428 480
428 481
429 481
430 481
431 481
432 481
433 480
434 479
434 478
435 477
436 476
436 475
437 474
437 473
438 472
438 471
439 470
439 469
440 468
440 467
441 466
442 465
443 464
444 463
445 462
445 461
446 460
446 459
447 458
447 457
447 456
448 455
448 454
448 453
448 452
448 451
448 450
448 449
448 448
448 447
449 446
449 445
450 444
451 443
452 442
453 442
454 442
455 443
456 443
457 444
458 445
459 446
460 447
461 448
462 448
463 449
464 450
464 451
465 452
465 453
466 454
466 455
467 456
468 456
469 456
470 456
470 455
470 454
470 453
470 452
470 451
470 450
470 449
470 448
470 447
470 446
469 445
469 444
469 443
469 442
469 441
469 440
469 439
469 438
469 437
469 436
469 435
469 434
469 433
469 432
469 431
468 430
468 429
468 428
468 427
468 426
468 425
467 424
467 423
467 422
466 421
466 420
466 419
465 418
465 417
464 416
463 415
462 414
461 413
460 412
459 411
458 410
457 409
456 408
455 407
454 406
454 405
454 404
454 403
455 402
455 401
456 400
457 399
458 398
459 399
460 400
461 401
462 402
462 403
463 404
464 405
465 406
466 407
467 408
467 409
468 410
468 411
469 412
469 413
470 414
471 415
471 416
472 417
473 418
474 419
475 419
476 420
477 420
478 421
479 421
480 421
481 422
482 422
483 422
484 423
485 423
486 424
487 424
488 425
489 425
490 426
491 427
492 428
493 429
494 430
494 431
495 432
495 433
496 434
496 435
497 435
498 435
499 435
499 434
499 433
499 432
499 431
499 430
499 429
499 428
499 427
499 426
499 425
498 424
498 423
498 422
497 421
497 420
497 419
496 418
496 417
495 416
495 415
494 414
494 413
494 412
493 411
493 410
493 409
493 408
492 407
492 406
491 405
491 404
491 403
490 402
490 401
489 400
489 399
490 398
491 397
492 396
493 396
494 396
495 396
496 397
497 397
498 398
499 398
500 399
501 400
502 401
502 402
503 403
503 404
503 405
504 405
505 405
506 405
507 406
508 406
509 407
510 407
511 408
511 409
512 409
513 409
514 409
514 408
514 407
515 406
515 405
516 404
516 403
517 402
518 402
519 401
520 401
521 400
522 400
523 400
524 400
525 399
526 399
527 399
528 398
529 398
530 397
531 397
532 397
533 398
534 398
535 399
535 400
536 401
535 402
535 403
534 404
533 405
533 406
532 407
532 408
531 409
531 410
530 411
530 412
530 413
529 414
529 415
528 416
528 417
528 418
528 419
527 420
527 421
527 422
527 423
526 424
526 425
526 426
526 427
526 428
526 429
526 430
526 431
526 432
526 433
526 434
526 435
526 436
526 437
527 438
527 439
527 440
527 441
527 442
527 443
527 444
527 445
527 446
527 447
527 448
527 449
527 450
528 450
529 450
530 450
531 449
532 448
532 447
533 446
534 445
535 444
536 443
537 442
538 442
539 441
540 440
541 439
542 438
543 437
544 436
545 436
546 435
547 434
548 433
548 432
549 431
550 430
550 429
550 428
550 427
551 426
551 425
551 424
551 423
551 422
551 421
551 420
551 419
551 418
551 417
551 416
551 415
551 414
551 413
551 412
551 411
551 410
552 409
552 408
553 407
554 406
555 405
556 406
557 406
558 407
559 408
560 408
561 408
562 408
563 409
564 409
565 410
566 410
567 411
568 412
569 413
570 414
571 414
572 414
573 414
573 413
573 412
573 411
573 410
573 409
573 408
572 407
572 406
572 405
572 404
572 403
572 402
572 401
572 400
572 399
572 398
572 397
572 396
572 395
572 394
572 393
571 392
571 391
570 390
569 389
568 388
568 387
567 386
566 385
565 384
564 384
563 383
563 382
563 381
564 380
565 379
566 380
567 380
568 381
569 382
570 382
571 383
572 383
573 384
574 384
575 385
576 385
577 385
578 385
579 385
580 385
581 386
582 386
583 387
584 387
585 388
586 388
587 389
588 389
589 390
590 391
591 391
592 391
593 391
593 390
593 389
593 388
593 387
593 386
593 385
593 384
593 383
592 382
592 381
591 380
591 379
591 378
590 377
590 376
590 375
590 374
590 373
590 372
590 371
590 370
590 369
590 368
589 367
589 366
588 365
588 364
588 363
589 362
590 361
591 360
592 360
593 359
594 359
595 359
596 359
597 359
598 359
599 360
600 360
601 361
602 361
603 362
604 362
605 363
606 363
607 363
608 363
609 363
610 363
611 363
611 362
611 361
611 360
611 359
610 358
610 357
609 356
609 355
608 354
608 353
607 352
607 351
606 350
606 349
606 348
606 347
606 346
606 345
606 344
606 343
606 342
606 341
605 340
605 339
604 338
603 337
602 336
601 335
600 334
599 333
598 332
597 331
596 331
595 330
594 330
593 329
592 329
591 329
590 329
589 329
588 329
587 329
586 329
585 329
584 329
583 329
582 329
581 329
580 329
579 329
578 329
577 329
576 329
575 329
574 328
573 328
572 327
571 327
570 326
569 326
568 325
567 324
566 324
565 323
565 322
564 321
564 320
563 319
563 318
563 317
563 316
563 315
563 314
564 313
564 312
564 311
564 310
564 309
564 308
565 307
565 306
566 305
566 304
567 303
568 302
569 302
570 301
571 301
572 300
573 300
574 299
575 299
576 299
577 299
578 299
579 299
580 298
581 298
582 298
583 298
584 298
585 298
586 298
587 298
588 298
589 298
590 298
591 298
592 298
593 298
594 298
595 297
596 297
597 297
598 297
599 297
600 297
601 297
602 297
603 297
604 297
605 297
606 297
607 297
608 297
609 297
610 297
611 297
612 297
613 297
614 297
615 296
616 296
617 296
618 296
619 296
620 296
621 296
622 296
623 296
624 296
625 296
626 296
627 296
628 296
629 296
630 296
631 296
632 296
633 296
634 296
635 296
636 296
637 296
638 296
639 296
640 296
641 296
642 296
643 296
644 296
645 296
646 296
647 296
648 296
649 295
650 295
651 295
652 295
653 295
654 295
655 295
656 295
657 295
658 295
659 295
660 295
661 295
662 295
663 295
664 295
665 295
666 295
667 295
668 295
669 295
670 295
671 295
672 295
673 295
674 295
675 295
676 295
677 295
678 295
679 295
680 295
681 295
682 295
683 295
684 295
685 295
686 295
687 295
688 295
689 295
690 295
691 295
692 295
693 295
694 295
695 295
696 295
697 295
698 295
699 295
700 295
701 295
702 295
703 295
704 295
705 295
706 295
707 295
708 295
709 295
710 295
711 295
712 295
713 296
714 296
715 296
716 296
717 296
718 296
719 296
720 296
721 297
722 297
723 297
724 297
725 297
726 297
727 297
728 297
729 297
730 297
730 296
730 295
730 294
730 293
730 292
730 291
730 290
730 289
729 289
728 289
727 289
726 289
725 289
724 289
723 289
722 289
721 289
720 289
719 289
718 290
717 290
716 290
715 290
714 290
713 290
712 290
711 290
710 290
709 290
708 290
707 290
706 290
705 290
704 290
703 290
702 290
701 290
700 290
699 290
698 290
697 290
696 290
695 290
694 290
693 290
692 290
691 290
690 290
689 291
688 291
687 291
686 291
685 291
684 291
683 291
682 291
681 291
680 291
679 291
678 291
677 291
676 291
675 291
674 291
673 291
672 291
671 291
670 291
669 291
668 291
667 291
666 291
665 291
664 291
663 291
662 291
661 291
660 291
659 291
658 291
657 291
656 291
655 291
654 291
653 291
652 291
651 291
650 291
649 291
648 291
647 291
646 291
645 292
644 292
643 292
642 292
641 292
640 292
639 292
638 292
637 292
636 292
635 292
634 292
633 292
632 292
631 292
630 292
629 292
628 292
627 292
626 292
625 292
624 292
623 292
622 292
621 292
620 292
619 292
618 292
617 292
616 293
615 293
614 293
613 293
612 293
611 293
610 293
609 293
608 293
607 293
606 293
605 293
604 293
603 293
602 293
601 293
600 293
599 293
598 293
597 293
596 293
595 293
594 293
593 294
592 294
591 294
590 294
589 294
588 294
587 294
586 294
585 294
584 294
583 294
582 294
581 294
580 294
579 294
578 294
577 294
576 294
575 294
574 294
573 295
572 295
571 294
570 294
569 293
568 293
567 292
566 291
566 290
565 289
565 288
564 287
564 286
564 285
565 284
565 283
566 282
566 281
567 280
568 280
569 279
570 279
571 278
572 278
573 277
574 277
575 277
576 277
577 277
578 277
579 277
580 277
581 277
582 277
583 277
584 276
585 276
586 276
587 276
588 276
589 276
590 275
591 275
592 275
593 274
594 273
595 272
596 271
597 271
598 270
599 269
600 268
601 267
602 266
602 265
603 264
603 263
603 262
603 261
603 260
603 259
603 258
604 257
604 256
605 255
605 254
606 253
606 252
607 251
608 250
608 249
609 248
609 247
609 246
609 245
609 244
608 244
607 244
606 244
605 244
604 244
603 244
602 245
601 245
600 245
599 246
598 246
597 246
596 246
595 246
594 246
593 246
592 246
591 246
590 246
589 246
588 246
587 246
586 246
585 246
584 246
583 247
582 247
581 247
580 247
579 247
578 247
577 247
576 248
575 248
574 249
573 249
572 248
571 248
570 247
570 246
569 245
569 244
569 243
569 242
569 241
569 240
569 239
569 238
569 237
569 236
569 235
569 234
569 233
569 232
569 231
568 230
567 229
566 228
565 227
565 226
565 225
565 224
565 223
565 222
565 221
564 221
563 221
562 221
561 221
560 222
560 223
559 224
558 225
557 225
556 226
555 225
554 225
553 224
553 223
552 222
552 221
551 220
551 219
551 218
551 217
551 216
551 215
551 214
550 213
550 212
549 211
549 210
548 209
548 208
547 207
547 206
547 205
547 204
546 204
545 204
544 204
544 205
543 206
543 207
542 208
541 209
540 209
539 210
538 210
537 211
536 212
535 213
534 214
533 215
532 215
531 216
530 215
529 215
528 214
528 213
527 212
526 211
525 210
524 209
523 208
522 207
521 207
520 207
519 207
518 206
517 206
516 206
515 206
514 206
513 206
512 206
511 206
510 206
509 206
508 206
507 206
506 206
505 206
504 206
503 206
502 206
501 206
500 206
499 205
498 205
497 205
496 204
495 204
494 203
493 203
492 202
491 202
490 201
490 200
489 199
489 198
488 197
489 196
489 195
490 194
490 193
490 192
490 191
490 190
490 189
490 188
490 187
489 187
488 187
487 187
486 188
485 189
484 190
483 191
482 191
481 192
480 192
479 193
478 193
477 194
476 194
475 195
474 194
473 194
472 193
472 192
471 191
471 190
471 189
471 188
471 187
471 186
471 185
471 184
471 183
471 182
470 181
470 180
469 179
469 178
469 177
469 176
468 175
468 174
467 173
467 172
467 171
466 171
465 171
464 171
464 172
463 173
463 174
462 175
462 176
461 177
460 178
459 178
458 179
457 179
456 180
455 179
454 179
453 178
453 177
452 176
451 175
450 174
449 173
448 172
448 171
447 170
446 170
445 169
444 169
443 169
442 168
441 168
440 168
439 167
438 167
437 166
436 166
435 165
434 165
433 164
432 164
431 163
430 162
429 161
428 160
428 159
427 158
427 157
426 156
425 156
424 156
424 157
424 158
424 159
424 160
424 161
424 162
424 163
424 164
424 165
424 166
425 167
425 168
425 169
426 170
426 171
426 172
425 173
425 174
424 175
424 176
423 177
423 178
422 179
421 180
420 181
419 182
418 182
417 183
416 183
415 184
414 184
413 185
412 185
411 186
410 186
409 187
408 187
407 188
406 188
405 189
404 189
403 190
402 190
401 190
400 191
399 191
398 190
397 190
396 189
396 188
395 187
395 186
395 185
396 184
396 183
396 182
396 181
396 180
396 179
396 178
396 177
396 176
396 175
396 174
396 173
396 172
396 171
396 170
396 169
397 168
397 167
397 166
397 165
398 164
398 163
398 162
398 161
399 160
399 159
399 158
399 157
399 156
399 155
399 154
399 153
398 153
397 153
396 153
395 154
394 155
393 156
392 155
391 154
390 153
390 152
389 151
390 150
390 149
390 148
390 147
391 146
391 145
391 144
391 143
391 142
391 141
391 140
391 139
391 138
390 138
389 138
388 138
387 139
387 140
386 141
385 142
384 143
383 143
382 144
381 144
380 145
379 145
378 146
377 146
376 145
375 144
374 143
374 142
373 141
373 140
373 139
373 138
373 137
372 136
372 135
372 134
372 133
372 132
371 131
370 130
369 129
368 128
367 127
366 126
365 125
364 124
363 123
362 122
361 121
360 120
359 120
358 119
357 118
356 117
355 116
354 116
353 115
352 114
351 113
350 113
349 112
348 111
347 110
346 109
345 109
344 109
343 109
342 109
341 109
340 109
339 109
338 109
337 109
336 109
337 110
338 110
339 111
340 111
341 112
342 112
343 113
344 114
345 115
346 116
347 117
347 118
348 119
348 120
349 121
349 122
350 123
350 124
351 125
351 126
352 127
352 128
353 129
353 130
353 131
354 132
354 133
355 134
355 135
355 136
356 137
356 138
356 139
357 140
357 141
357 142
357 143
358 144
357 145
357 146
356 147
355 148
354 148
353 149
352 149
351 149
350 149
349 149
348 149
347 149
346 149
345 149
344 149
343 149
342 149
341 149
340 150
339 150
338 150
337 151
336 151
335 152
334 152
334 153
334 154
334 155
335 156
336 156
337 157
338 158
339 159
338 160
338 161
337 162
336 162
335 163
334 163
333 164
332 164
331 164
330 165
329 165
328 165
327 165
326 165
325 165
324 165
324 166
324 167
324 168
325 169
326 170
327 170
328 171
329 172
330 173
330 174
329 175
328 176
327 177
326 178
325 178
324 179
323 180
322 180
321 181
320 182
319 183
318 183
317 184
316 184
315 185
314 185
313 186
312 186
311 187
310 187
309 186
308 185
309 184
309 183
310 182
310 181
311 180
311 179
311 178
312 177
312 176
313 175
313 174
314 173
314 172
315 171
315 170
315 169
315 168
316 167
316 166
316 165
317 164
317 163
317 162
318 161
318 160
318 159
319 158
319 157
320 156
320 155
320 154
320 153
320 152
320 151
320 150
320 149
320 148
319 148
318 148
317 148
317 149
316 150
316 151
315 152
314 153
314 154
313 155
312 156
311 157
310 157
309 158
308 159
307 159
306 160
305 161
304 161
303 162
302 163
301 164
300 165
299 165
298 166
297 166
296 167
295 167
294 167
293 167
292 166
292 165
292 164
292 163
292 162
293 161
293 160
294 159
294 158
295 157
295 156
296 155
296 154
297 153
298 152
298 151
299 150
299 149
299 148
299 147
299 146
300 145
300 144
301 143
301 142
301 141
302 140
302 139
303 138
303 137
303 136
303 135
303 134
303 133
303 132
303 131
302 131
301 131
300 131
299 132
299 133
298 134
297 135
296 136
296 137
295 138
294 139
293 140
292 140
291 141
290 142
289 142
288 143
287 143
286 142
285 141
284 140
284 139
283 138
283 137
283 136
283 135
284 134
284 133
284 132
285 131
285 130
285 129
285 128
285 127
285 126
285 125
285 124
284 124
283 124
282 124
282 125
281 126
281 127
280 128
279 129
278 130
277 130
276 131
275 131
274 132
273 133
273 134
272 135
272 136
271 137
270 138
270 139
269 140
268 140
267 141
266 140
265 139
264 138
264 137
263 136
263 135
263 134
263 133
263 132
262 131
262 130
262 129
262 128
262 127
262 126
262 125
262 124
262 123
262 122
262 121
262 120
262 119
262 118
261 117
261 116
261 115
260 114
260 113
260 112
260 111
259 110
259 109
259 108
259 107
260 106
260 105
260 104
260 103
260 102
260 101
259 101
258 101
257 101
256 101
255 102
254 103
254 104
253 105
253 106
253 107
252 108
252 109
252 110
251 111
251 112
250 113
250 114
249 115
249 116
248 117
248 118
248 119
248 120
247 121
247 122
246 123
246 124
246 125
246 126
246 127
246 128
246 129
246 130
246 131
246 132
246 133
246 134
246 135
246 136
246 137
246 138
246 139
246 140
246 141
246 142
247 143
247 144
247 145
246 146
245 147
244 148
243 148
242 149
241 149
240 149
239 149
238 149
237 150
236 149
235 149
234 149
233 149
232 149
231 149
230 149
230 150
230 151
230 152
230 153
231 154
232 155
233 156
234 156
235 157
236 158
237 159
237 160
238 161
239 162
240 163
241 164
242 165
243 166
243 167
244 168
244 169
245 170
245 171
246 172
246 173
246 174
247 175
248 176
248 177
249 178
250 179
251 180
251 181
252 182
252 183
251 184
251 185
250 186
249 186
248 187
247 188
246 188
245 189
244 189
243 190
242 189
241 189
240 188
240 187
239 186
239 185
238 184
238 183
237 182
237 181
237 180
237 179
237 178
237 177
237 176
237 175
236 175
236 176
235 177
235 178
234 179
234 180
233 181
232 182
231 183
230 184
229 185
228 185
227 186
226 186
225 185
224 184
223 183
223 182
222 181
222 180
222 179
221 178
220 177
219 176
218 175
217 174
216 173
215 172
214 172
213 171
212 171
211 170
210 170
209 169
208 169
207 168
206 168
205 167
204 167
203 166
202 166
201 165
200 165
199 164
198 164
197 163
196 163
195 162
194 162
193 162
192 162
191 162
190 162
189 162
188 162
187 162
186 162
185 162
184 162
183 162
182 162
181 162
180 162
179 163
178 164
177 164
177 165
177 166
177 167
178 167
179 167
180 167
181 167
182 167
183 166
184 166
185 165
186 165
187 164
188 165
189 165
190 166
191 166
192 167
193 168
194 169
194 170
195 171
196 172
196 173
197 174
197 175
198 176
198 177
199 178
199 179
200 180
200 181
201 182
201 183
201 184
202 185
202 186
203 187
203 188
204 189
204 190
204 191
205 192
205 193
206 194
206 195
207 196
207 197
207 198
206 199
205 200
204 200
203 200
202 199
201 199
200 198
199 198
198 197
197 197
196 196
195 196
194 195
193 195
192 194
191 194
190 194
189 194
188 194
187 194
186 194
185 194
185 195
185 196
185 197
186 198
187 199
188 200
189 201
190 202
191 203
191 204
192 205
192 206
193 207
193 208
193 209
192 210
191 211
191 212
191 213
191 214
191 215
191 216
192 217
193 218
194 219
195 220
195 221
196 222
196 223
197 224
197 225
198 226
199 227
200 228
201 229
202 230
203 231
204 232
205 233
206 234
207 234
208 234
209 235
210 235
211 236
212 237
213 238
212 239
212 240
211 241
210 241
209 242
208 242
207 242
206 242
205 242
204 242
203 242
202 242
202 243
202 244
202 245
203 246
204 246
205 247
206 247
207 248
208 248
209 249
210 249
211 250
212 251
213 252
214 253
215 254
216 255
217 256
218 256
219 256
220 256
221 257
222 257
223 257
224 257
225 257
226 258
227 258
228 259
229 260
230 261
229 262
228 263
227 264
226 264
225 265
224 265
223 265
222 265
221 265
220 266
219 267
218 267
217 268
216 268
215 269
214 269
213 270
212 270
211 269
210 269
209 268
208 268
207 267
207 266
206 265
206 264
205 263
205 262
205 261
205 260
204 259
203 258
202 257
201 256
201 255
200 254
200 253
199 252
198 252
197 252
196 252
196 253
195 254
195 255
194 256
193 257
192 258
191 257
190 256
189 255
189 254
188 253
188 252
188 251
188 250
187 249
186 248
185 247
184 246
183 245
182 244
181 243
180 243
179 242
178 241
177 240
177 239
176 239
175 239
174 239
173 239
172 239
171 239
170 238
169 238
168 238
167 238
166 237
165 237
164 237
163 237
162 237
161 237
160 237
159 237
158 237
157 237
156 237
155 237
154 237
153 237
152 237
151 237
150 237
149 237
148 237
147 237
146 236
145 236
144 236
143 236
142 235
141 235
140 235
139 235
138 235
137 235
136 235
135 235
134 235
133 235
132 235
131 235
130 235
129 235
128 235
127 235
126 235
125 235
124 235
123 236
122 237
122 238
122 239
122 240
123 240
124 240
125 240
126 240
127 239
128 238
129 238
130 237
131 237
132 236
133 237
134 237
135 238
136 238
137 238
138 238
139 239
140 239
141 240
142 240
143 241
144 241
145 242
146 243
147 243
148 244
149 245
150 245
151 246
152 246
153 247
154 248
155 248
156 249
157 250
158 250
159 251
160 251
161 252
162 253
163 253
164 254
165 255
166 256
167 257
168 258
168 259
167 260
166 261
165 262
164 262
163 263
162 263
161 264
160 264
159 264
158 264
157 265
156 265
155 265
154 265
153 265
152 265
151 265
150 264
149 264
148 263
147 263
146 263
145 263
144 263
143 263
142 263
141 262
140 262
139 262
138 262
137 261
136 261
135 261
134 260
133 260
132 260
131 259
130 259
129 258
128 258
127 258
126 258
125 257
124 257
123 256
122 256
121 255
120 255
119 254
118 253
118 252
117 251
116 251
115 251
114 251
114 252
114 253
114 254
114 255
114 256
114 257
115 258
115 259
116 260
116 261
117 262
117 263
118 264
118 265
118 266
119 267
119 268
119 269
120 270
120 271
120 272
120 273
120 274
121 275
121 276
122 277
122 278
123 279
122 280
121 281
120 281
119 281
118 281
117 281
116 281
115 281
114 281
113 281
112 281
111 281
110 281
109 281
108 281
107 281
106 281
105 281
104 281
103 281
102 281
101 281
100 281
99 281
98 281
97 281
96 281
95 281
94 281
93 281
92 282
91 282
90 282
89 282
88 282
87 282
86 282
85 282
84 282
83 282
82 282
81 282
80 282
79 283
78 283
77 283
76 283
75 283
74 284
73 284
73 285
73 286
73 287
74 287
75 288
76 289
77 290
77 291
78 292
77 293
77 294
76 295
75 295
74 296
73 296
72 297
71 297
70 297
69 297
68 297
67 298
66 299
65 300
64 300
63 301
62 302
61 303
60 304
59 305
58 305
57 306
56 306
55 307
54 308
53 309
52 310
51 311
50 312
