100 265
100 266
100 267
100 268
100 269
100 270
100 271
100 272
100 273
100 274
101 275
102 275
103 276
104 277
105 277
106 278
107 278
108 279
109 279
110 279
111 280
112 280
113 281
114 281
115 282
116 282
117 283
118 284
119 284
120 285
121 285
122 286
123 286
124 287
125 287
126 287
127 288
128 288
129 288
130 289
131 289
132 290
133 290
134 291
135 292
135 293
136 294
136 295
137 296
137 297
138 297
139 298
140 298
141 299
142 299
143 299
144 300
145 300
146 301
147 301
148 302
149 302
150 303
151 303
152 304
153 304
154 304
155 304
156 305
157 305
158 306
159 306
160 307
160 308
161 309
161 310
162 311
162 312
162 313
162 314
163 314
164 314
165 315
166 315
167 315
168 316
169 316
170 317
171 317
172 317
173 318
174 318
175 318
176 318
177 318
178 319
179 319
180 320
181 320
182 321
183 321
184 322
184 323
185 324
185 325
186 326
187 326
188 327
189 327
190 327
191 327
192 327
193 327
194 327
195 327
196 328
197 328
198 328
199 328
200 328
201 328
202 328
203 328
204 329
205 329
206 330
207 330
208 331
209 332
209 333
210 333
211 333
212 333
213 333
214 333
215 333
216 333
217 333
218 333
219 333
220 333
221 333
222 334
223 334
224 334
225 334
226 334
227 334
228 334
229 334
230 334
231 334
232 334
233 334
234 334
235 334
236 334
237 334
238 333
239 333
240 333
241 333
242 333
243 333
244 333
245 333
246 333
247 333
248 333
249 333
250 333
251 333
252 334
253 334
254 335
254 336
255 336
256 336
257 336
258 336
259 336
260 336
261 336
262 336
263 336
264 336
265 335
266 335
267 335
268 335
269 335
270 335
271 335
272 335
273 335
274 335
275 335
276 335
277 335
278 335
279 335
280 335
281 335
282 335
283 335
284 334
285 334
286 333
287 333
288 332
289 331
290 331
291 330
292 330
293 329
294 329
295 328
296 328
297 328
298 327
299 327
300 327
301 327
302 326
303 327
304 327
305 328
306 328
307 329
308 329
309 330
310 330
311 331
312 332
313 333
314 334
315 334
316 335
317 335
318 336
319 336
320 337
321 338
322 339
323 339
324 340
325 340
326 340
327 340
328 341
329 341
330 341
331 342
332 342
333 342
334 342
335 342
336 342
337 343
338 343
339 343
340 343
341 344
342 344
343 345
344 345
345 346
346 347
347 347
348 347
349 347
350 347
351 347
352 347
353 347
354 347
355 347
356 347
357 347
358 346
359 346
360 346
361 346
362 346
363 346
364 347
365 347
366 348
367 348
368 349
368 350
369 351
370 351
371 351
372 351
373 351
374 351
375 351
376 351
377 351
378 351
379 351
380 351
381 351
382 351
383 351
384 350
385 350
386 350
387 351
388 351
389 352
390 352
391 352
392 352
393 352
394 352
395 352
396 352
397 352
398 352
399 351
400 351
401 351
402 351
403 351
404 351
405 351
406 351
407 351
408 351
409 351
410 351
411 351
412 351
413 351
414 351
415 351
416 350
417 350
418 350
419 349
420 349
421 349
422 349
423 349
424 349
425 349
426 349
427 349
428 348
429 348
430 348
431 348
432 348
433 348
434 348
435 347
436 347
437 347
438 347
439 346
440 346
441 346
442 346
443 346
444 346
445 346
446 346
447 346
448 346
449 345
450 344
451 344
452 343
453 343
454 342
455 342
456 341
457 341
458 340
459 340
460 340
461 340
462 340
463 340
464 339
465 338
466 338
467 337
468 337
469 336
470 336
471 336
472 336
473 336
474 336
475 336
476 336
477 336
478 336
479 335
480 335
481 334
482 334
483 333
484 333
485 332
486 332
487 331
488 331
489 331
490 330
491 329
492 329
493 328
494 328
495 327
496 327
497 326
498 326
499 326
500 326
501 326
502 326
503 326
504 326
505 325
506 324
507 324
508 323
509 323
510 322
511 322
512 321
513 321
514 320
515 320
516 319
517 319
518 318
519 318
520 318
521 318
522 317
523 316
524 316
525 315
526 315
527 314
528 313
529 313
530 312
531 312
532 311
533 311
534 310
535 310
536 309
537 309
538 309
539 309
540 309
541 309
542 308
543 308
544 307
545 306
546 306
547 305
548 305
549 304
550 304
551 303
552 303
553 303
554 302
555 302
556 301
557 301
558 300
559 300
560 299
561 299
562 298
563 298
564 298
565 297
566 297
567 296
568 296
569 295
570 295
571 294
572 294
573 294
574 293
575 293
576 292
577 291
578 291
579 290
580 290
581 289
582 288
583 288
584 287
585 287
586 286
587 286
588 285
589 284
590 284
591 283
592 282
593 282
594 281
595 281
596 280
597 280
598 279
599 279
600 278
601 278
602 277
603 277
604 276
605 276
606 275
607 275
608 274
609 274
610 273
611 273
612 272
613 272
614 271
615 271
616 270
617 270
618 269
619 269
620 268
621 268
622 267
623 267
624 266
625 266
626 266
627 265
628 265
629 265
630 264
631 264
632 263
633 263
634 263
635 262
636 262
637 262
638 261
639 261
640 261
641 260
642 260
643 260
644 259
645 259
646 259
647 258
648 258
649 258
650 257
651 257
652 257
653 257
654 256
655 256
656 256
657 255
658 255
659 255
660 255
661 254
662 254
663 254
664 253
665 253
666 253
667 253
668 253
669 252
670 252
671 252
672 252
673 251
674 251
675 251
676 251
677 251
678 250
679 250
680 250
681 250
682 250
683 249
684 249
685 249
686 249
687 249
688 248
689 248
690 248
691 248
692 248
693 248
694 247
695 247
696 247
697 247
698 247
699 247
700 247
701 247
702 247
703 247
704 246
705 246
706 246
707 246
708 246
709 246
710 246
711 246
712 245
713 245
714 245
715 245
716 244
717 244
718 244
719 243
720 243
721 243
722 243
723 242
724 242
725 242
726 242
727 242
728 242
729 242
730 241
731 241
732 241
733 240
734 239
735 239
736 238
737 237
738 236
739 235
740 234
741 234
742 233
743 233
744 232
745 232
746 231
747 231
748 230
749 229
749 228
749 227
749 226
750 225
750 224
750 223
750 222
750 221
750 220
750 219
750 218
750 217
750 216
750 215
750 214
750 213
749 212
748 212
747 212
746 212
745 212
744 212
743 212
742 212
741 212
740 212
739 212
738 212
737 212
736 212
735 212
734 213
733 214
733 215
732 216
732 217
731 218
730 219
729 220
728 221
727 222
726 222
725 223
724 224
723 225
722 225
721 226
720 226
719 227
718 227
717 228
716 228
715 228
714 228
713 228
712 228
711 229
710 229
709 229
708 229
707 229
706 229
705 229
704 229
703 229
702 229
701 229
700 229
699 229
698 228
697 228
696 228
695 228
694 227
693 227
692 227
691 226
690 226
689 225
688 225
687 224
686 224
685 223
684 223
683 222
682 222
681 221
680 221
679 220
678 220
677 219
676 219
675 218
674 218
673 217
672 216
671 216
670 215
669 215
668 214
667 214
666 213
665 212
664 212
663 211
662 211
661 210
660 209
659 209
658 208
657 207
656 207
655 206
654 206
653 205
652 205
651 205
650 204
649 204
648 203
647 203
646 202
645 202
644 201
643 201
642 201
641 200
640 200
639 199
638 199
637 198
636 198
635 197
634 197
633 196
632 196
631 195
630 195
629 194
628 194
627 193
626 193
625 193
624 193
623 193
622 192
621 192
620 192
619 191
618 191
617 190
616 190
615 189
614 189
613 188
612 188
611 188
610 188
609 187
608 187
607 186
606 186
605 185
604 185
603 184
602 184
601 184
600 183
599 183
598 182
597 182
596 181
595 181
594 180
593 180
592 179
591 179
590 178
589 178
588 178
587 178
586 178
585 177
584 177
583 176
582 176
581 176
580 175
579 175
578 174
577 174
576 174
575 174
574 174
573 174
572 174
571 174
570 173
569 173
568 173
567 172
566 172
565 171
564 171
563 171
562 170
561 170
560 169
559 169
558 169
557 169
556 168
555 168
554 168
553 167
552 167
551 166
550 166
549 166
548 165
547 165
546 165
545 165
544 165
543 164
542 164
541 164
540 163
539 163
538 162
537 162
536 161
535 161
534 161
533 160
532 160
531 160
530 159
529 159
528 159
527 158
526 158
525 158
524 157
523 157
522 157
521 157
520 157
519 157
518 157
517 156
516 156
515 156
514 155
513 155
512 154
511 154
510 154
509 153
508 153
507 153
506 152
505 152
504 152
503 152
502 151
501 151
500 151
499 150
498 150
497 149
496 149
495 148
494 148
493 147
492 147
491 147
490 147
489 147
488 147
487 147
486 147
485 147
484 147
483 147
482 147
481 146
480 146
479 146
478 146
477 146
476 146
475 146
474 145
473 145
472 145
471 144
470 144
469 143
468 143
467 143
466 143
465 143
464 143
463 143
462 143
461 143
460 143
459 142
458 142
457 142
456 141
455 141
454 141
453 140
452 140
451 140
450 139
449 139
448 139
447 139
446 139
445 139
444 139
443 139
442 139
441 139
440 139
439 139
438 140
437 140
436 140
435 140
434 139
433 139
432 139
431 138
430 138
429 138
428 138
427 138
426 137
425 137
424 137
423 136
422 136
421 136
420 135
419 135
418 134
417 134
416 134
415 134
414 134
413 134
412 134
411 134
410 134
409 135
409 136
408 137
407 137
406 138
405 137
404 137
403 136
402 136
401 136
400 136
399 136
398 136
397 136
396 136
395 135
394 135
393 135
392 134
391 134
390 133
389 133
388 133
387 132
386 132
385 132
384 132
383 132
382 132
381 132
380 132
379 132
378 132
378 133
377 134
376 135
375 136
374 136
373 137
372 137
371 136
370 136
369 136
368 136
367 136
366 136
365 136
364 136
363 136
362 136
361 135
360 135
359 135
358 135
357 135
356 135
355 135
354 135
353 135
352 135
351 136
351 137
350 138
350 139
349 140
348 140
347 141
346 141
345 141
344 141
343 141
342 141
341 141
340 141
339 141
338 141
337 141
336 141
335 141
334 141
333 141
332 141
331 141
330 141
329 141
328 141
327 141
326 141
325 141
324 141
323 141
322 141
321 141
320 141
319 141
318 141
317 142
316 142
315 143
314 143
313 143
312 143
311 143
310 143
309 143
308 143
307 143
306 143
305 143
304 143
303 143
302 143
301 143
300 143
299 143
298 143
297 143
296 143
295 143
294 143
293 143
293 144
292 145
291 145
290 146
289 146
288 146
287 146
286 146
285 146
284 146
283 145
282 145
281 145
280 145
279 144
278 144
277 144
276 144
275 143
274 143
273 142
272 142
271 142
270 142
269 142
268 142
267 142
266 142
265 142
264 142
263 143
263 144
262 145
262 146
261 147
260 147
259 148
258 148
257 149
256 149
255 149
254 149
253 149
252 149
251 149
250 149
249 149
248 149
247 149
246 149
245 149
244 149
243 149
242 149
241 149
240 149
239 149
238 149
237 149
236 149
235 149
234 149
233 149
232 150
232 151
231 152
231 153
230 154
229 155
228 155
227 156
226 156
225 156
224 156
223 156
222 156
221 156
220 156
219 156
218 156
217 156
216 156
215 156
214 156
213 156
212 157
211 157
210 157
209 157
208 157
207 157
206 157
205 157
204 157
204 158
203 159
203 160
202 161
202 162
201 163
200 163
199 164
198 164
197 165
196 165
195 166
194 166
193 166
192 166
191 167
190 167
189 167
188 167
187 168
187 169
187 170
187 171
187 172
186 173
186 174
185 175
185 176
184 177
183 177
182 178
181 178
180 179
179 179
178 180
177 180
176 180
175 181
174 181
173 182
172 182
171 183
170 183
169 184
168 184
167 185
166 185
166 186
166 187
166 188
166 189
166 190
166 191
166 192
166 193
165 194
165 195
164 196
164 197
163 198
162 199
161 200
160 201
159 202
158 202
157 203
156 204
155 205
154 206
153 207
152 207
151 208
150 209
149 210
148 211
147 211
146 212
145 213
144 214
143 215
143 216
143 217
143 218
143 219
142 220
142 221
141 222
141 223
140 224
139 225
138 226
137 227
136 227
135 228
134 228
133 229
132 229
131 230
130 231
129 231
128 232
127 232
126 233
125 234
124 234
123 235
123 236
123 237
123 238
122 239
122 240
121 241
121 242
120 243
120 244
119 245
118 246
117 247
116 248
115 249
114 249
113 250
112 251
111 252
110 253
109 254
108 255
107 256
107 257
106 258
105 259
104 260
103 261
102 262
102 263
101 264
100 265
