275 93
274 94
273 94
272 94
271 94
270 95
269 95
268 94
267 94
266 94
265 94
264 94
263 94
262 94
261 94
260 94
259 94
258 95
257 95
256 95
255 95
254 95
253 95
252 95
251 95
250 94
249 94
248 95
247 95
246 95
245 95
244 95
243 95
242 96
241 96
240 97
239 97
238 97
237 98
236 98
235 99
234 99
233 99
232 100
231 100
230 100
229 101
228 102
227 102
226 103
225 103
224 104
223 104
222 104
221 105
220 105
219 105
218 105
217 105
216 106
215 106
214 106
213 107
212 107
211 107
210 108
209 108
208 109
207 109
206 109
205 109
204 110
203 110
202 110
201 111
200 111
199 112
198 113
197 113
196 114
195 114
194 114
193 115
192 115
191 115
190 116
189 116
188 117
187 117
186 118
185 118
184 119
183 120
182 120
181 121
180 122
179 123
178 124
177 125
176 126
175 127
174 127
173 128
172 129
171 130
170 131
169 132
168 132
167 133
166 134
165 134
164 134
163 135
162 136
161 136
160 137
159 138
158 139
157 140
156 141
155 141
154 142
153 143
152 144
151 145
150 146
149 146
148 147
147 148
146 149
145 150
145 151
144 152
143 153
142 154
141 155
140 156
139 157
138 157
137 158
136 159
135 160
135 161
134 162
133 163
132 164
131 165
130 165
130 166
129 167
129 168
128 169
127 170
127 171
126 172
125 173
124 174
123 174
122 175
121 176
120 177
119 178
118 179
117 180
116 181
115 182
114 183
113 184
113 185
112 186
111 187
111 188
110 189
109 190
108 191
108 192
107 193
106 194
106 195
105 196
104 197
104 198
103 199
103 200
102 201
101 202
101 203
100 204
100 205
99 206
99 207
98 208
97 209
97 210
97 211
96 212
96 213
96 214
95 215
95 216
94 217
94 218
93 219
93 220
93 221
92 222
92 223
91 224
91 225
91 226
90 227
90 228
89 229
89 230
88 231
88 232
88 233
87 234
87 235
86 236
86 237
86 238
85 239
85 240
85 241
84 242
84 243
84 244
84 245
84 246
85 247
84 248
85 249
85 250
84 251
84 252
84 253
84 254
83 255
83 256
83 257
83 258
83 259
83 260
83 261
83 262
83 263
83 264
82 265
82 266
82 267
82 268
82 269
82 270
82 271
82 272
82 273
83 274
83 275
83 276
83 277
83 278
83 279
84 280
84 281
84 282
85 283
85 284
86 285
86 286
86 287
87 288
87 289
87 290
87 291
88 292
88 293
89 294
89 295
89 296
90 297
90 298
91 299
92 300
92 301
92 302
93 303
94 304
95 305
95 306
96 307
97 308
98 309
98 310
99 311
100 312
101 313
101 314
102 315
102 316
103 316
104 317
104 318
105 319
106 320
107 321
108 322
108 323
109 324
110 325
110 326
111 327
111 328
112 329
112 330
112 331
113 332
113 333
113 334
114 335
114 336
114 337
115 338
115 339
115 340
116 341
117 342
118 343
119 344
120 345
120 346
121 347
122 348
123 349
124 350
124 351
124 352
125 353
125 354
126 355
126 356
127 357
128 358
128 359
129 360
129 361
130 362
131 363
132 364
133 365
133 366
134 367
134 368
135 369
135 370
135 371
135 372
136 373
137 374
138 375
138 376
138 377
139 377
140 378
140 379
140 380
141 379
142 380
142 381
143 382
144 383
144 384
145 384
146 385
147 386
148 387
149 387
150 388
151 389
152 390
153 390
154 391
155 391
156 392
157 393
158 394
159 395
159 396
160 397
161 398
162 399
163 400
164 401
165 402
166 403
167 403
168 404
169 405
170 406
171 407
172 408
173 409
174 410
175 411
176 412
177 412
178 413
179 414
180 415
181 416
182 416
183 417
184 418
185 418
186 419
187 420
188 420
189 420
190 421
191 422
192 422
193 423
194 424
195 425
196 425
197 426
198 427
199 427
200 428
201 429
202 430
203 431
204 431
205 432
206 432
207 433
208 434
209 434
210 435
211 435
212 436
213 436
214 437
215 437
216 438
217 439
218 439
219 440
220 441
221 441
222 442
223 442
224 443
225 444
226 444
227 445
228 445
229 445
230 446
231 446
232 446
233 447
234 447
235 447
236 448
237 448
238 448
239 448
240 448
241 448
242 448
243 448
244 448
245 448
246 448
247 448
248 447
249 447
250 447
251 447
252 447
253 447
254 447
255 446
256 446
257 446
258 446
259 446
260 446
261 446
262 446
263 446
264 446
265 446
266 446
267 446
268 446
269 446
270 446
271 446
272 445
273 445
274 445
275 445
276 446
277 446
278 446
279 446
280 446
281 446
282 446
283 446
284 446
285 446
286 446
287 446
288 446
289 445
290 445
291 445
292 445
293 445
294 445
295 445
296 445
297 445
298 445
299 445
300 444
301 444
302 444
303 444
304 444
305 444
306 444
307 443
308 443
309 443
310 443
311 443
312 443
313 442
314 442
315 442
316 442
317 442
318 442
319 442
320 442
321 441
322 441
323 441
324 441
325 441
326 441
327 441
328 440
329 440
330 440
331 440
332 440
333 440
334 440
335 440
336 440
337 440
338 440
339 440
340 440
341 440
342 440
343 440
344 439
345 439
346 439
347 439
348 439
349 438
350 438
351 438
352 437
353 437
354 436
355 436
356 435
357 435
358 434
359 433
360 433
361 432
362 432
363 431
364 430
365 430
366 430
367 429
368 428
369 428
370 427
371 427
372 426
373 426
374 425
375 425
376 424
377 424
378 423
379 423
380 422
381 422
382 421
383 421
384 420
385 419
386 419
387 418
388 417
389 417
390 416
391 415
392 415
393 414
394 414
395 413
396 413
397 412
398 412
399 411
400 411
401 410
402 410
403 409
404 409
405 409
406 408
407 408
408 407
409 407
410 406
411 405
412 405
413 404
414 404
415 403
416 402
417 402
418 401
419 400
420 400
421 399
422 398
423 397
424 397
425 396
426 395
427 394
428 394
429 393
430 392
431 391
432 390
433 389
434 388
435 387
436 386
437 385
438 384
439 383
440 382
441 381
441 380
442 379
443 379
443 378
444 377
445 376
446 375
447 374
447 373
448 372
448 371
449 370
450 369
450 368
451 367
451 366
452 365
452 364
453 363
454 362
454 361
455 360
455 359
456 358
457 357
457 356
458 355
458 354
459 353
460 352
460 351
461 350
461 349
462 348
462 347
463 346
463 345
464 344
464 343
465 342
465 341
466 340
466 339
467 338
467 337
468 336
468 335
469 334
469 333
470 332
471 331
471 330
472 329
473 328
473 327
474 326
475 325
475 324
476 323
477 322
478 321
478 320
479 319
479 318
480 317
481 316
481 315
482 314
483 313
483 312
484 311
485 310
485 309
486 308
487 307
487 306
488 305
488 304
489 303
489 302
490 301
491 300
491 299
492 298
492 297
493 296
494 295
495 294
495 293
496 292
497 291
497 290
498 289
499 288
499 287
500 286
500 285
501 284
502 283
502 282
503 281
504 281
505 280
506 279
507 279
508 279
509 278
510 278
511 278
512 278
513 278
514 278
515 278
516 278
517 278
518 278
519 278
520 278
521 278
522 278
523 278
524 278
525 278
526 278
527 278
528 278
529 278
530 278
531 278
532 278
533 278
534 279
535 279
536 279
537 279
538 279
539 279
540 279
541 279
542 279
543 279
544 279
545 279
546 279
547 279
548 279
549 279
550 279
551 279
552 279
553 279
554 279
555 279
556 279
557 279
558 279
559 279
560 280
561 280
562 280
563 280
564 280
565 280
566 280
567 280
568 280
569 280
570 280
571 280
572 280
573 280
574 280
575 280
576 280
577 280
578 280
579 280
580 280
581 280
582 280
583 280
584 280
585 280
586 280
587 281
588 281
589 281
590 281
591 281
592 281
593 281
594 281
595 281
596 281
597 281
598 281
599 281
600 281
601 281
602 281
603 281
604 281
605 281
606 281
607 281
608 281
609 281
610 281
611 282
612 282
613 282
614 282
615 282
616 282
617 282
618 282
619 282
620 282
621 282
622 283
623 283
624 283
625 283
626 283
627 283
628 283
629 283
630 283
631 283
632 283
633 283
634 283
635 283
636 283
637 283
638 283
639 284
640 284
641 284
642 284
643 284
644 284
645 284
646 284
647 284
648 284
649 284
650 284
651 285
652 285
653 285
654 285
655 285
656 285
657 285
658 285
659 286
660 286
661 286
662 286
663 286
664 286
665 286
666 286
667 286
668 286
669 286
670 286
671 286
672 287
673 287
674 287
675 287
676 287
677 287
678 287
679 288
680 288
681 288
682 288
683 288
684 288
685 288
686 288
687 288
688 288
689 288
690 289
691 289
692 289
693 289
694 290
695 290
696 290
697 290
698 290
699 290
700 291
701 291
702 291
703 291
704 291
705 291
706 291
707 292
708 292
709 292
710 292
711 292
712 292
713 292
714 292
715 292
716 291
717 290
718 290
718 289
719 288
719 287
720 286
720 285
720 284
720 283
721 282
721 281
721 280
720 279
720 278
719 278
718 278
717 278
716 278
715 278
714 279
713 279
712 279
711 279
710 279
709 280
708 280
707 280
706 280
705 280
704 280
703 280
702 280
701 280
700 280
699 280
698 279
697 279
696 279
695 279
694 279
693 279
692 279
691 279
690 279
689 279
688 279
687 279
686 279
685 278
684 278
683 278
682 278
681 278
680 278
679 278
678 278
677 278
676 278
675 278
674 278
673 278
672 277
671 277
670 277
669 277
668 277
667 277
666 277
665 277
664 277
663 277
662 276
661 276
660 276
659 276
658 276
657 276
656 276
655 276
654 276
653 276
652 276
651 276
650 275
649 275
648 275
647 275
646 275
645 275
644 275
643 275
642 275
641 275
640 275
639 275
638 275
637 275
636 274
635 274
634 274
633 274
632 274
631 274
630 274
629 274
628 274
627 274
626 274
625 274
624 274
623 274
622 274
621 274
620 274
619 274
618 274
617 274
616 273
615 273
614 273
613 273
612 273
611 273
610 273
609 273
608 273
607 273
606 273
605 273
604 273
603 273
602 273
601 273
600 273
599 273
598 273
597 273
596 273
595 273
594 273
593 273
592 273
591 273
590 273
589 272
588 272
587 272
586 272
585 272
584 272
583 272
582 272
581 272
580 272
579 272
578 272
577 272
576 272
575 272
574 272
573 272
572 272
571 272
570 272
569 272
568 272
567 272
566 272
565 272
564 272
563 272
562 272
561 272
560 272
559 272
558 272
557 272
556 272
555 272
554 272
553 271
552 271
551 271
550 271
549 271
548 271
547 271
546 271
545 271
544 271
543 271
542 271
541 271
540 271
539 271
538 271
537 271
536 271
535 271
534 271
533 271
532 271
531 270
530 270
529 270
528 270
527 270
526 270
525 270
524 270
523 270
522 270
521 270
520 270
519 270
518 270
517 270
516 270
515 270
514 270
513 270
512 270
511 269
510 269
509 269
508 269
507 269
506 268
505 267
504 266
503 265
503 264
502 263
502 262
501 261
501 260
500 259
500 258
499 257
499 256
499 255
498 254
498 253
497 252
497 251
496 250
496 249
495 248
495 247
494 246
494 245
493 244
493 243
493 242
493 241
492 240
492 239
492 238
491 237
491 236
490 235
490 234
489 233
489 232
488 231
488 230
487 229
487 228
486 227
486 226
485 225
485 224
484 223
484 222
483 221
483 220
482 219
482 218
481 217
480 216
480 215
479 214
479 213
478 212
477 211
477 210
477 209
476 208
476 207
475 206
475 205
475 204
474 203
474 202
473 201
473 200
472 199
472 198
471 197
471 196
471 195
470 194
470 193
469 192
468 191
468 190
468 189
467 188
467 187
466 186
465 185
465 184
464 183
464 182
463 181
463 180
462 179
462 178
461 177
461 176
460 175
460 174
459 173
459 172
458 171
458 170
457 169
456 168
455 168
454 167
454 166
453 166
452 165
452 164
451 163
450 162
449 161
449 160
448 159
448 158
447 157
446 156
445 155
444 154
443 153
442 153
441 152
440 151
440 150
439 149
438 148
437 147
437 146
436 145
435 145
434 144
433 143
432 142
431 141
430 140
429 139
428 138
427 137
426 136
425 135
425 134
424 133
423 132
422 132
421 131
420 130
419 129
418 128
417 127
416 126
415 125
414 125
413 124
412 124
411 123
410 123
409 122
408 122
407 121
406 121
405 120
404 120
403 119
402 119
401 118
400 117
399 116
398 115
397 114
396 114
395 113
394 112
393 111
392 110
391 109
390 109
389 108
388 108
387 108
386 107
385 106
384 106
383 105
382 105
381 104
380 104
379 104
378 103
377 103
376 103
375 103
374 102
373 102
372 102
371 101
370 101
369 101
368 100
367 100
366 100
365 99
364 99
363 99
362 99
361 98
360 98
359 98
358 98
357 98
356 98
355 98
354 98
353 97
352 97
351 97
350 97
349 97
348 96
347 96
346 96
345 96
344 96
343 96
342 96
341 96
340 96
339 95
338 95
337 95
336 95
335 95
334 95
333 95
332 94
331 94
330 94
329 94
328 94
327 93
326 93
325 93
324 93
323 93
322 93
321 93
320 93
319 93
318 93
317 93
316 93
315 93
314 93
313 93
312 93
311 93
310 93
309 93
308 93
307 93
306 93
305 93
304 94
303 94
302 94
301 93
300 93
299 93
298 93
297 93
296 94
295 94
294 94
293 94
292 94
291 94
290 94
289 94
288 93
287 93
286 93
285 93
284 93
283 93
282 93
281 93
280 93
279 93
278 93
277 93
276 93
275 93
