616 5
615 6
614 6
613 6
612 6
611 6
610 7
609 8
608 8
607 7
606 7
605 8
604 9
603 9
602 9
601 10
600 10
599 10
598 11
597 11
596 11
595 12
594 13
593 14
592 15
591 16
590 17
589 18
588 19
588 20
587 21
587 22
586 23
585 24
584 25
584 26
584 27
583 28
583 29
582 30
582 31
582 32
581 33
581 34
581 35
580 36
580 37
580 38
580 39
580 40
579 41
579 42
579 43
579 44
579 45
579 46
579 47
579 48
578 49
578 50
578 51
578 52
578 53
578 54
578 55
578 56
578 57
578 58
578 59
578 60
578 61
578 62
578 63
578 64
578 65
578 66
578 67
578 68
578 69
579 70
579 71
579 72
579 73
580 74
580 75
580 76
581 77
581 78
581 79
581 80
582 81
583 82
583 83
583 84
584 85
585 86
585 87
586 88
586 89
587 90
587 91
588 91
589 92
589 93
589 94
590 95
591 96
592 97
593 98
593 99
594 100
595 100
596 101
597 102
597 103
598 103
599 104
599 105
600 105
601 106
602 107
603 108
604 109
605 110
606 111
607 112
608 112
609 113
610 114
611 114
612 115
613 116
614 116
615 117
616 118
617 118
618 119
619 120
620 120
621 121
622 121
623 122
624 122
625 123
626 123
627 124
628 124
629 125
630 125
631 126
632 126
633 127
634 128
635 128
636 129
637 130
638 131
639 132
640 133
641 134
641 135
641 136
642 137
643 138
643 139
642 140
641 141
641 142
640 143
639 144
638 145
637 145
636 145
635 146
634 146
633 146
632 147
631 147
630 148
629 148
628 148
627 148
626 149
625 150
624 150
623 150
622 150
621 151
620 151
619 151
618 152
617 152
616 152
615 153
614 153
613 154
612 154
611 155
610 155
609 155
608 156
607 156
606 156
605 157
604 157
603 157
602 158
601 158
600 158
599 159
598 159
597 159
596 159
595 160
594 160
593 160
592 161
591 161
590 162
589 162
588 162
587 163
586 163
585 163
584 164
583 164
582 164
581 165
580 165
579 165
578 166
577 166
576 166
575 167
574 167
573 167
572 168
571 168
570 168
569 169
568 169
567 169
566 170
565 170
564 170
563 170
562 171
561 171
560 171
559 171
558 172
557 172
556 172
555 172
554 172
553 172
552 173
551 172
550 171
550 170
550 169
551 168
551 167
551 166
552 165
552 164
552 163
552 162
553 161
553 160
553 159
553 158
554 157
554 156
554 155
554 154
555 153
555 152
555 151
555 150
555 149
555 148
556 147
556 146
556 145
556 144
556 143
556 142
556 141
557 140
557 139
557 138
557 137
557 136
557 135
557 134
557 133
557 132
557 131
557 130
558 129
558 128
558 127
558 126
558 125
558 124
558 123
558 122
558 121
558 120
558 119
558 118
558 117
558 116
558 115
558 114
558 113
558 112
557 111
557 110
557 109
557 108
557 107
556 106
556 105
556 104
556 103
555 102
555 101
555 100
555 99
555 98
555 97
554 96
554 95
554 94
554 93
553 92
553 91
553 90
553 89
552 88
552 87
552 86
552 85
551 84
551 83
551 82
551 81
550 80
550 79
550 78
550 77
549 76
549 75
549 74
549 73
548 72
548 71
548 70
547 69
547 68
547 67
546 66
546 65
546 64
546 63
545 62
545 61
545 60
545 59
544 58
544 57
544 56
543 55
543 54
543 53
542 52
542 51
542 50
541 49
541 48
541 47
540 46
540 45
539 44
539 43
538 42
538 41
537 40
537 39
536 38
536 37
535 36
535 35
534 34
534 33
533 32
532 31
532 30
531 29
530 28
530 27
529 26
528 25
527 24
526 23
525 22
524 21
523 20
522 20
521 19
520 18
519 18
518 17
517 17
516 17
515 16
514 16
513 16
512 16
511 16
510 16
509 16
508 17
507 17
506 17
505 17
504 16
503 17
502 17
501 17
500 17
499 17
498 17
497 17
496 17
495 17
494 18
493 18
492 19
491 19
490 20
489 21
488 22
487 23
486 24
486 25
485 26
485 27
484 28
483 29
483 30
482 31
482 32
481 33
481 34
481 35
480 36
480 37
480 38
480 39
479 40
479 41
478 42
478 43
478 44
477 45
477 46
477 47
477 48
476 49
476 50
476 51
476 52
475 53
475 54
475 55
475 56
474 57
474 58
473 59
473 60
473 61
472 62
472 63
472 64
471 65
471 66
471 67
471 68
471 69
470 70
470 71
470 72
469 73
469 74
469 75
469 76
469 77
469 78
469 79
469 80
469 81
469 82
469 83
468 84
469 85
469 86
469 87
469 88
469 89
469 90
469 91
469 92
469 93
470 94
470 95
470 96
471 97
471 98
471 99
472 100
472 101
472 102
473 103
473 104
474 105
474 106
475 107
475 108
475 109
476 110
476 111
477 112
477 113
478 114
478 115
479 116
479 117
480 118
481 119
481 120
482 121
482 122
483 122
484 123
485 124
485 125
485 126
486 126
487 127
488 128
489 129
490 130
491 131
491 132
492 133
493 134
494 134
495 135
495 136
496 136
497 137
498 138
499 139
500 140
501 141
502 142
503 143
504 144
505 144
506 145
506 146
507 146
508 147
509 148
510 149
511 150
512 151
513 152
514 153
515 154
516 154
517 155
518 156
519 157
520 158
521 159
522 160
523 161
524 162
525 163
526 164
526 165
527 166
528 167
528 168
529 169
529 170
530 171
531 172
531 173
531 174
531 175
531 176
530 177
529 177
529 178
528 179
527 179
526 180
525 180
524 180
523 181
522 181
521 181
520 182
519 182
518 182
517 182
516 182
515 183
514 183
513 183
512 184
511 184
510 184
509 184
508 184
507 185
506 185
505 186
504 186
503 186
502 187
501 187
500 187
499 187
498 187
497 188
496 188
495 188
494 188
493 188
492 189
491 189
490 189
489 190
488 190
487 190
486 190
485 191
484 191
483 191
482 191
481 191
480 192
479 192
478 192
477 193
476 193
475 193
474 193
473 193
472 194
471 194
470 195
469 195
468 195
467 196
466 196
465 196
464 196
463 196
462 197
461 197
460 197
459 197
458 197
457 198
456 198
455 198
454 198
453 198
452 198
451 199
450 199
449 199
448 199
447 199
446 199
445 199
444 199
443 199
442 199
441 200
440 199
439 199
438 199
437 199
436 199
435 199
434 198
434 197
434 196
434 195
434 194
434 193
434 192
435 191
435 190
435 189
435 188
436 187
436 186
436 185
436 184
437 183
437 182
437 181
438 180
438 179
438 178
438 177
438 176
439 175
439 174
439 173
440 172
440 171
440 170
440 169
440 168
441 167
441 166
441 165
441 164
441 163
441 162
442 161
442 160
442 159
442 158
442 157
442 156
442 155
443 154
443 153
443 152
443 151
443 150
443 149
444 148
444 147
444 146
444 145
444 144
444 143
444 142
444 141
444 140
444 139
444 138
444 137
444 136
444 135
444 134
444 133
444 132
444 131
444 130
444 129
444 128
444 127
444 126
444 125
444 124
444 123
444 122
443 121
443 120
443 119
443 118
443 117
442 116
442 115
442 114
442 113
441 112
441 111
441 110
441 109
441 108
440 107
440 106
440 105
440 104
439 103
439 102
439 101
438 100
438 99
438 98
437 97
437 96
436 95
436 94
436 93
435 92
435 91
435 90
434 89
434 88
434 87
433 86
433 85
433 84
432 83
432 82
432 81
431 80
431 79
431 78
431 77
430 76
430 75
429 74
429 73
429 72
429 71
428 70
428 69
428 68
427 67
427 66
426 65
426 64
426 63
425 62
425 61
424 60
424 59
423 58
423 57
423 56
422 55
422 54
421 53
421 52
420 51
420 50
419 49
419 48
418 47
418 46
417 45
417 44
416 43
416 42
415 41
415 40
414 39
414 38
413 37
413 36
412 35
412 34
411 33
410 32
410 31
409 30
409 29
408 28
408 27
407 27
406 26
406 25
405 25
404 24
403 23
402 23
401 22
400 21
399 21
398 21
397 21
396 21
395 21
394 21
393 21
392 21
391 20
390 20
389 21
388 21
387 20
386 20
385 20
384 20
383 21
382 21
381 21
380 21
379 21
378 21
377 22
376 22
375 23
374 24
373 25
372 26
371 27
370 28
369 29
368 30
368 31
367 32
366 33
366 34
365 35
365 36
364 37
364 38
364 39
363 40
363 41
363 42
363 43
362 44
362 45
362 46
361 47
361 48
361 49
360 50
360 51
360 52
360 53
359 54
359 55
359 56
359 57
359 58
358 59
358 60
358 61
358 62
357 63
357 64
357 65
356 66
356 67
356 68
356 69
356 70
356 71
355 72
355 73
355 74
354 75
354 76
354 77
354 78
354 79
354 80
353 81
353 82
353 83
353 84
353 85
353 86
352 87
352 88
352 89
352 90
352 91
351 92
351 93
351 94
351 95
351 96
351 97
351 98
351 99
351 100
350 101
350 102
350 103
350 104
350 105
350 106
350 107
350 108
350 109
350 110
350 111
350 112
351 113
351 114
351 115
351 116
351 117
351 118
351 119
351 120
352 121
352 122
352 123
353 124
353 125
353 126
354 127
354 128
355 129
355 130
355 131
356 132
356 133
357 134
358 135
358 136
359 137
360 138
361 139
361 140
361 141
362 142
363 143
363 144
364 145
365 146
366 147
367 148
368 149
368 150
369 151
369 152
370 152
371 153
372 154
373 155
374 156
375 157
375 158
376 159
377 160
377 161
378 161
379 162
380 163
381 164
382 165
383 166
384 167
385 168
386 169
387 170
388 171
389 172
390 173
391 174
392 175
393 175
394 176
395 177
395 178
396 178
397 179
398 180
399 181
399 182
400 182
401 183
402 184
403 185
404 186
405 187
406 187
407 188
408 189
408 190
409 191
409 192
410 192
411 193
411 194
412 195
413 196
413 197
413 198
413 199
413 200
412 201
411 202
410 202
409 203
408 203
407 203
406 203
405 203
404 203
403 203
402 203
401 203
400 204
399 204
398 204
397 204
396 204
395 204
394 204
393 204
392 204
391 204
390 205
389 205
388 205
387 205
386 205
385 205
384 205
383 205
382 206
381 206
380 206
379 206
378 206
377 206
376 206
375 206
374 206
373 207
372 207
371 207
370 207
369 207
368 207
367 207
366 207
365 207
364 207
363 208
362 208
361 208
360 208
359 208
358 208
357 208
356 208
355 208
354 208
353 208
352 208
351 208
350 208
349 208
348 209
347 209
346 209
345 209
344 209
343 209
342 209
341 209
340 209
339 209
338 209
337 209
336 209
335 209
334 209
333 210
332 210
331 210
330 210
329 210
328 210
327 210
326 210
325 210
324 209
323 209
322 209
321 210
320 209
320 208
320 207
321 206
321 205
321 204
322 203
322 202
322 201
322 200
323 199
323 198
323 197
323 196
323 195
324 194
324 193
324 192
324 191
324 190
325 189
325 188
325 187
325 186
325 185
325 184
325 183
326 182
326 181
326 180
326 179
326 178
327 177
327 176
327 175
327 174
327 173
327 172
328 171
328 170
328 169
328 168
328 167
328 166
328 165
328 164
328 163
328 162
328 161
328 160
328 159
329 158
329 157
329 156
329 155
329 154
329 153
329 152
329 151
329 150
329 149
329 148
329 147
329 146
329 145
329 144
329 143
329 142
329 141
329 140
329 139
329 138
329 137
329 136
329 135
329 134
329 133
329 132
328 131
328 130
328 129
328 128
328 127
328 126
328 125
328 124
327 123
327 122
327 121
327 120
327 119
327 118
327 117
327 116
327 115
327 114
327 113
327 112
327 111
327 110
327 109
327 108
327 107
326 106
326 105
326 104
326 103
326 102
326 101
326 100
326 99
326 98
326 97
326 96
325 95
325 94
325 93
325 92
325 91
324 90
324 89
324 88
324 87
323 86
323 85
323 84
322 83
322 82
322 81
321 80
321 79
320 78
320 77
320 76
319 75
319 74
318 73
318 72
317 71
317 70
316 69
316 68
316 67
315 66
315 65
314 64
314 63
313 62
312 61
312 60
311 59
311 58
310 57
310 56
309 55
309 54
308 53
308 52
307 51
307 50
307 49
306 48
305 47
305 46
304 45
304 44
303 43
302 42
302 41
301 40
300 39
299 38
298 37
297 36
296 35
295 34
294 33
293 33
292 32
291 32
290 32
289 31
288 31
287 31
286 31
285 31
284 31
283 30
282 29
281 30
280 31
279 30
278 30
277 29
276 29
275 29
274 29
273 28
272 28
271 28
270 29
269 29
268 29
267 29
266 30
265 30
264 31
263 32
262 33
261 33
260 34
259 35
258 36
257 37
257 38
256 39
255 40
254 41
253 42
252 42
252 43
251 44
250 45
249 46
249 47
248 48
247 49
246 50
246 51
246 52
245 53
245 54
244 55
244 56
243 57
243 58
242 59
241 60
241 61
241 62
240 63
240 64
239 65
239 66
239 67
238 68
238 69
237 70
237 71
237 72
237 73
236 74
236 75
236 76
236 77
235 78
235 79
235 80
234 81
234 82
234 83
234 84
234 85
234 86
234 87
234 88
233 89
233 90
233 91
233 92
233 93
233 94
233 95
233 96
233 97
233 98
233 99
233 100
233 101
233 102
233 103
233 104
233 105
233 106
233 107
233 108
233 109
233 110
234 111
234 112
234 113
234 114
234 115
234 116
234 117
234 118
235 119
235 120
235 121
235 122
235 123
236 124
236 125
236 126
236 127
237 128
237 129
237 130
237 131
237 132
238 133
238 134
239 135
239 136
239 137
240 138
240 139
240 140
241 141
241 142
241 143
242 144
242 145
243 146
244 147
244 148
244 149
245 150
246 151
246 152
247 153
247 154
248 154
249 155
249 156
249 157
250 158
251 159
252 160
252 161
253 161
254 162
255 163
255 164
256 165
257 166
257 167
258 167
259 168
259 169
260 170
261 171
262 172
263 173
263 174
264 174
265 175
266 176
266 177
267 177
268 178
269 179
270 180
271 181
272 182
273 183
274 184
274 185
275 185
276 186
277 186
278 187
279 188
280 189
281 190
282 191
283 191
284 192
285 193
285 194
286 194
287 195
288 195
289 196
290 197
291 198
292 199
293 200
293 201
294 202
294 203
295 204
296 205
297 206
296 207
296 208
295 209
294 209
293 209
292 210
291 210
290 210
289 210
288 210
287 210
286 210
285 210
284 210
283 210
282 210
281 210
280 210
279 210
278 210
277 209
276 209
275 209
274 209
273 209
272 209
271 209
270 209
269 209
268 209
267 209
266 209
265 209
264 209
263 209
262 209
261 209
260 209
259 208
258 208
257 208
256 208
255 208
254 208
253 208
252 208
251 208
250 208
249 208
248 208
247 208
246 208
245 208
244 208
243 208
242 208
241 208
240 208
239 208
238 208
237 208
236 208
235 208
234 207
233 207
232 207
231 207
230 207
229 207
228 207
227 207
226 207
225 207
224 207
223 207
222 207
221 207
220 207
219 207
218 207
217 207
216 207
215 207
214 207
213 206
212 206
211 206
210 206
209 206
208 206
207 206
206 205
205 205
204 205
203 205
202 205
201 205
200 205
199 204
198 204
197 204
196 204
195 204
194 203
193 203
192 203
191 203
190 203
189 202
189 201
189 200
189 199
189 198
189 197
189 196
189 195
189 194
189 193
189 192
189 191
190 190
190 189
190 188
190 187
190 186
190 185
190 184
190 183
190 182
190 181
190 180
191 179
191 178
191 177
191 176
191 175
191 174
191 173
191 172
191 171
191 170
191 169
191 168
191 167
191 166
191 165
191 164
190 163
190 162
190 161
190 160
190 159
190 158
189 157
189 156
189 155
189 154
189 153
188 152
188 151
188 150
188 149
187 148
187 147
187 146
187 145
186 144
186 143
186 142
186 141
185 140
185 139
185 138
184 137
184 136
184 135
183 134
183 133
183 132
182 131
182 130
182 129
182 128
181 127
181 126
181 125
181 124
180 123
180 122
180 121
179 120
179 119
179 118
178 117
178 116
178 115
177 114
177 113
176 112
176 111
175 110
175 109
174 108
174 107
173 106
173 105
172 104
172 103
171 102
171 101
170 100
170 99
169 98
169 97
168 96
168 95
167 94
166 93
166 92
166 91
165 90
164 89
164 88
163 87
163 86
163 85
162 84
162 83
161 82
161 81
160 80
160 79
159 78
159 77
158 76
158 75
157 74
157 73
156 72
156 71
155 70
154 69
154 68
153 67
152 66
151 65
150 64
149 63
148 62
147 61
147 60
146 59
145 58
144 57
143 56
143 55
142 54
141 53
141 52
140 51
139 50
138 49
137 48
136 47
136 46
135 45
134 44
133 43
133 42
132 41
131 41
130 40
130 39
129 38
128 37
127 37
126 36
125 35
124 34
123 33
122 32
121 31
120 30
119 29
118 29
117 28
116 27
115 26
114 25
113 24
112 24
111 23
110 22
109 21
108 21
107 20
106 20
105 19
104 19
103 18
102 18
101 18
100 18
99 17
98 17
97 17
96 17
95 17
94 18
93 18
92 19
91 19
90 20
89 19
88 20
87 19
87 20
86 21
85 21
84 21
83 21
82 22
81 22
80 23
79 23
78 24
77 25
76 26
75 27
75 28
75 29
74 30
73 29
73 30
72 31
71 32
71 33
71 34
70 35
70 36
70 37
70 38
70 39
70 40
70 41
70 42
70 43
70 44
70 45
70 46
70 47
70 48
70 49
70 50
70 51
70 52
70 53
70 54
70 55
70 56
71 57
71 58
71 59
71 60
71 61
72 62
72 63
72 64
72 65
72 66
73 67
73 68
73 69
74 70
74 71
74 72
74 73
74 74
75 75
75 76
75 77
75 78
76 79
76 80
76 81
76 82
76 83
76 84
76 85
77 86
77 87
77 88
77 89
77 90
77 91
78 92
78 93
78 94
78 95
78 96
79 97
79 98
79 99
80 100
80 101
80 102
81 103
81 104
81 105
82 106
82 107
83 108
83 109
84 110
84 111
85 112
85 113
85 114
86 115
86 116
87 117
87 118
88 119
88 120
89 121
89 122
90 123
91 124
91 125
92 126
92 127
93 128
93 129
94 130
95 131
96 132
97 133
97 134
98 135
98 136
99 137
100 138
100 139
101 140
101 141
102 142
102 143
103 144
104 145
105 146
105 147
106 147
107 148
107 149
107 150
108 150
109 151
109 152
110 153
111 154
112 155
113 156
113 157
114 158
115 159
116 160
117 161
117 162
118 162
119 163
120 164
120 165
121 165
122 166
123 167
124 168
125 169
126 170
127 171
128 172
129 173
130 174
131 174
132 175
133 176
134 177
135 178
136 178
137 179
138 180
139 181
140 182
141 183
142 183
143 184
144 185
145 186
146 187
147 187
148 188
149 189
150 189
151 190
152 191
153 192
154 192
155 193
156 193
157 194
158 195
159 195
160 196
161 196
162 197
163 198
164 198
165 199
166 199
167 200
168 201
169 202
170 202
171 203
172 204
173 205
173 206
174 207
174 208
173 209
172 209
171 210
170 210
169 211
168 211
167 211
166 211
165 211
164 211
163 211
162 211
161 211
160 211
159 212
158 212
157 212
156 212
155 212
154 212
153 212
152 212
151 212
150 213
149 213
148 213
147 213
146 213
145 213
144 213
143 214
142 214
141 214
140 214
139 214
138 215
137 215
136 215
135 215
134 215
133 215
132 215
131 215
130 215
129 215
128 216
127 216
126 216
125 216
124 216
123 216
122 216
121 216
120 217
119 217
118 217
117 217
116 217
115 218
114 218
113 218
112 218
111 219
110 219
109 219
108 220
107 220
106 220
105 220
104 221
103 221
102 221
101 222
100 222
99 223
98 223
97 223
96 224
95 224
94 224
93 225
92 225
91 225
90 226
89 227
88 227
87 228
86 228
85 229
84 229
83 230
82 230
81 231
80 232
79 233
78 233
77 234
76 235
75 236
74 236
73 237
72 238
71 238
70 239
69 240
68 240
67 241
66 241
65 242
64 243
63 244
62 244
61 245
60 246
59 247
58 247
57 248
56 249
55 250
54 251
53 252
52 253
51 253
50 254
49 255
48 256
47 257
46 257
45 258
44 259
43 260
42 261
41 261
40 262
39 263
38 264
37 265
36 266
35 267
34 268
33 268
32 269
31 270
30 271
29 272
28 273
27 274
26 275
25 276
24 277
23 277
23 278
22 279
21 279
20 280
19 281
18 281
18 282
17 283
16 284
15 285
14 285
13 286
12 287
12 288
11 289
10 289
10 290
9 291
9 292
8 293
7 294
7 295
6 296
6 297
5 298
5 299
5 300
5 301
5 302
5 303
5 304
6 305
6 306
6 307
6 308
7 309
8 310
8 311
8 312
9 312
10 313
10 314
10 315
11 316
11 317
12 318
13 319
14 320
15 321
16 322
17 323
18 324
19 325
20 325
21 326
22 326
23 327
24 327
25 327
26 327
27 327
28 328
29 328
30 328
31 328
32 328
33 328
34 328
35 328
36 328
37 328
38 328
39 328
40 328
41 328
42 328
43 327
44 327
45 327
46 327
47 327
48 327
49 327
50 327
51 327
52 327
53 327
54 327
55 327
56 327
57 327
58 327
59 326
60 326
61 326
62 326
63 326
64 326
65 325
66 325
67 325
68 325
69 325
70 325
71 325
72 325
73 324
74 324
75 324
76 324
77 324
78 323
79 323
80 323
81 322
82 322
83 322
84 321
85 321
86 320
87 320
88 320
89 319
90 319
91 318
92 318
93 318
94 317
95 317
96 317
97 316
98 316
99 315
100 315
101 314
102 314
103 313
104 313
105 312
106 312
107 311
108 310
109 309
110 309
111 308
112 308
113 307
114 306
115 306
116 305
117 305
118 304
119 304
120 303
121 302
122 301
123 301
124 300
125 299
126 299
127 298
128 297
129 296
130 295
131 295
132 294
133 293
134 293
135 292
136 291
137 290
138 289
139 289
140 288
141 287
142 287
143 286
144 285
145 284
146 283
147 282
148 281
149 280
149 279
150 278
151 277
152 276
152 275
153 274
154 273
155 272
155 271
156 270
157 269
158 268
159 267
159 266
160 265
161 264
162 263
163 262
164 261
164 260
165 259
166 258
166 257
167 256
168 255
168 254
169 253
170 252
170 251
171 250
171 249
172 248
173 247
174 246
174 245
175 244
176 243
176 242
177 241
178 240
178 239
179 238
179 237
180 236
180 235
180 234
181 233
181 232
182 231
182 230
183 229
183 228
184 227
184 226
184 225
185 224
185 223
185 222
186 221
186 220
187 219
188 218
189 217
190 218
191 218
192 218
193 218
194 218
195 218
196 218
197 218
198 219
199 219
200 218
201 218
202 219
203 219
204 219
205 219
206 219
207 219
208 219
209 219
210 219
211 219
212 219
213 219
214 219
215 219
216 219
217 219
218 219
219 219
220 219
221 219
222 219
223 219
224 219
225 219
226 220
227 220
228 220
229 220
230 220
231 220
232 220
233 220
234 220
235 220
236 220
237 220
238 220
239 220
240 220
241 220
242 220
243 220
244 220
245 220
246 221
247 221
248 221
249 221
250 221
251 221
252 221
253 221
254 221
255 221
256 221
257 221
258 221
259 221
260 221
261 222
262 222
263 222
264 222
265 222
266 222
267 222
268 222
269 222
270 222
271 222
272 222
273 222
274 222
275 222
276 222
277 222
278 222
279 222
280 222
281 222
282 222
283 222
284 223
285 223
286 223
287 223
288 223
289 223
290 223
291 223
292 223
293 223
294 223
295 223
296 223
297 223
298 223
299 223
300 223
301 223
302 223
303 224
304 224
305 224
306 225
307 226
307 227
307 228
306 229
306 230
305 231
304 232
303 233
303 234
302 235
301 236
300 237
299 238
298 239
297 239
296 240
295 241
294 242
293 243
292 244
291 245
290 245
289 246
288 247
287 247
287 248
286 249
285 249
284 250
283 251
282 252
281 253
280 253
279 254
278 255
277 256
276 257
275 258
274 258
273 259
272 260
271 261
270 262
269 262
268 263
267 264
267 265
266 266
265 267
264 268
263 269
262 270
261 271
260 272
259 273
258 274
257 275
257 276
256 277
255 277
254 278
254 279
253 280
252 280
251 281
251 282
251 283
251 284
250 285
249 285
248 286
248 287
247 288
246 289
246 290
245 291
245 292
244 293
243 294
243 295
242 296
241 296
241 297
240 298
240 299
239 300
239 301
238 302
238 303
237 304
237 305
236 306
236 307
236 308
235 309
235 310
235 311
235 312
234 313
234 314
234 315
234 316
233 317
233 318
233 319
233 320
232 321
232 322
232 323
232 324
232 325
232 326
232 327
232 328
232 329
232 330
232 331
232 332
232 333
232 334
232 335
232 336
233 337
233 338
233 339
233 340
233 341
234 342
234 343
234 344
234 345
235 346
235 347
235 348
235 349
236 350
236 351
236 352
237 353
237 354
237 355
237 356
238 357
238 358
238 359
238 360
239 361
239 362
239 363
240 364
240 365
240 366
241 367
241 368
241 369
242 370
242 371
242 372
242 373
243 374
243 375
243 376
244 377
244 378
244 379
245 380
245 381
245 382
246 383
246 384
246 385
247 386
247 387
248 388
248 389
248 390
249 391
250 392
250 393
251 394
251 395
251 396
252 397
252 398
253 399
253 400
254 401
255 402
256 403
257 404
258 405
259 406
260 407
261 408
262 409
263 410
264 411
265 411
266 412
267 412
268 413
269 413
270 413
271 413
272 412
273 412
274 412
275 412
276 413
276 414
277 413
277 412
278 411
279 411
280 412
281 412
282 412
283 412
284 412
285 412
286 412
287 412
288 411
289 410
290 410
291 409
292 408
293 408
293 407
294 406
295 405
296 404
296 403
297 402
298 401
299 400
299 399
300 398
301 397
302 396
303 395
304 394
304 393
305 392
306 391
307 390
308 389
308 388
309 387
309 386
310 385
310 384
311 383
311 382
312 381
312 380
313 379
313 378
314 377
315 376
315 375
316 374
316 373
317 372
317 371
318 370
318 369
319 368
319 367
320 366
320 365
320 364
321 363
321 362
321 361
322 360
322 359
322 358
322 357
323 356
323 355
323 354
323 353
324 352
324 351
324 350
324 349
324 348
325 347
325 346
325 345
325 344
325 343
326 342
326 341
326 340
326 339
326 338
326 337
326 336
327 335
327 334
327 333
327 332
327 331
327 330
328 329
328 328
328 327
328 326
328 325
328 324
329 323
329 322
329 321
329 320
329 319
330 318
330 317
330 316
330 315
330 314
330 313
331 312
331 311
331 310
331 309
331 308
331 307
331 306
331 305
332 304
332 303
332 302
332 301
332 300
332 299
332 298
333 297
333 296
333 295
333 294
333 293
333 292
333 291
334 290
334 289
334 288
334 287
334 286
334 285
334 284
334 283
334 282
334 281
334 280
334 279
334 278
334 277
334 276
334 275
334 274
334 273
333 272
333 271
333 270
333 269
333 268
333 267
333 266
333 265
333 264
333 263
332 262
332 261
332 260
332 259
332 258
332 257
332 256
332 255
332 254
332 253
332 252
331 251
331 250
331 249
331 248
331 247
331 246
330 245
330 244
330 243
330 242
330 241
329 240
329 239
329 238
329 237
328 236
328 235
328 234
328 233
328 232
328 231
328 230
328 229
327 228
327 227
327 226
327 225
328 224
329 224
330 224
331 224
332 224
333 224
334 224
335 223
336 223
337 223
338 223
339 223
340 223
341 223
342 223
343 222
344 222
345 222
346 222
347 222
348 222
349 222
350 222
351 221
352 221
353 221
354 221
355 221
356 221
357 220
358 220
359 220
360 220
361 220
362 220
363 220
364 220
365 220
366 219
367 219
368 219
369 219
370 219
371 219
372 219
373 219
374 219
375 219
376 219
377 219
378 219
379 219
380 218
381 218
382 218
383 218
384 218
385 218
386 218
387 217
388 217
389 217
390 217
391 217
392 217
393 217
394 217
395 216
396 216
397 216
398 216
399 216
400 216
401 216
402 216
403 216
404 215
405 215
406 215
407 215
408 215
409 215
410 215
411 215
412 215
413 214
414 214
415 215
416 214
417 214
418 214
419 214
420 214
421 214
422 214
423 214
424 214
425 214
426 214
427 214
428 214
429 214
430 214
431 214
432 214
433 213
434 214
435 214
436 214
437 214
438 215
438 216
438 217
438 218
438 219
437 220
437 221
437 222
436 223
435 224
434 225
434 226
433 227
432 228
432 229
432 230
431 231
430 232
429 233
428 234
428 235
427 236
426 237
425 238
425 239
424 240
423 241
423 242
422 243
421 244
421 245
420 246
419 247
418 248
417 249
417 250
417 251
416 252
415 252
415 253
414 254
413 255
413 256
412 257
411 258
411 259
410 260
409 260
409 261
408 262
407 263
407 264
406 265
406 266
405 267
405 268
404 269
403 270
403 271
402 272
401 273
401 274
401 275
400 276
400 277
399 278
399 279
398 280
398 281
397 282
397 283
397 284
397 285
396 286
396 287
396 288
395 289
395 290
395 291
395 292
394 293
394 294
394 295
394 296
394 297
393 298
393 299
393 300
393 301
393 302
393 303
393 304
393 305
393 306
393 307
393 308
393 309
393 310
393 311
393 312
393 313
393 314
393 315
394 316
394 317
394 318
394 319
394 320
395 321
395 322
395 323
396 324
396 325
396 326
397 327
397 328
397 329
398 330
398 331
398 332
399 333
399 334
399 335
400 336
401 337
401 338
401 339
401 340
402 341
403 342
403 343
403 344
403 345
404 346
405 347
405 348
406 349
406 350
407 351
407 352
408 353
409 354
409 355
410 356
410 357
411 358
411 359
412 360
412 361
413 362
414 363
415 364
416 365
416 366
417 367
418 368
418 369
419 370
419 371
420 371
421 372
421 373
422 374
423 375
424 376
425 377
426 378
427 379
427 380
428 381
429 381
430 382
430 383
431 383
432 384
433 385
433 386
434 387
435 387
436 388
437 389
438 389
439 390
440 391
441 391
442 392
443 392
444 392
445 393
446 393
447 393
448 393
449 393
450 393
451 393
452 393
453 392
454 392
455 391
456 390
457 389
458 389
459 389
460 388
461 387
462 387
463 387
464 387
465 387
466 387
467 386
468 386
469 385
470 384
471 383
472 382
473 381
473 380
474 379
474 378
475 377
476 376
476 375
477 374
477 373
477 372
478 371
478 370
478 369
479 368
479 367
479 366
480 365
480 364
480 363
480 362
481 361
481 360
481 359
481 358
482 357
482 356
482 355
482 354
482 353
482 352
482 351
482 350
482 349
482 348
482 347
482 346
482 345
482 344
482 343
482 342
482 341
482 340
482 339
482 338
482 337
482 336
482 335
482 334
482 333
482 332
482 331
482 330
482 329
482 328
482 327
482 326
482 325
482 324
482 323
482 322
482 321
483 320
483 319
483 318
483 317
482 316
482 315
482 314
482 313
482 312
482 311
482 310
482 309
482 308
482 307
482 306
482 305
483 304
483 303
483 302
483 301
483 300
483 299
483 298
483 297
483 296
483 295
483 294
483 293
482 292
482 291
482 290
482 289
482 288
482 287
482 286
482 285
482 284
482 283
482 282
482 281
481 280
481 279
481 278
481 277
480 276
480 275
480 274
479 273
479 272
478 271
478 270
478 269
478 268
477 267
477 266
476 265
476 264
476 263
476 262
475 261
475 260
474 259
474 258
474 257
473 256
473 255
473 254
472 253
472 252
472 251
471 250
471 249
471 248
470 247
470 246
469 245
469 244
468 243
468 242
468 241
467 240
467 239
467 238
466 237
466 236
465 235
465 234
465 233
464 232
464 231
464 230
463 229
463 228
462 227
462 226
462 225
461 224
461 223
461 222
460 221
460 220
459 219
459 218
458 217
457 216
457 215
456 214
456 213
456 212
457 211
458 211
459 210
460 210
461 210
462 209
463 209
464 209
465 208
466 208
467 208
468 207
469 207
470 207
471 206
472 206
473 206
474 206
475 205
476 205
477 205
478 204
479 204
480 204
481 204
482 203
483 203
484 203
485 203
486 203
487 202
488 202
489 202
490 202
491 201
492 201
493 201
494 201
495 200
496 200
497 200
498 200
499 199
500 199
501 199
502 199
503 198
504 198
505 198
506 198
507 197
508 197
509 197
510 197
511 196
512 196
513 196
514 196
515 195
516 195
517 195
518 195
519 195
520 194
521 194
522 194
523 194
524 194
525 194
526 193
527 193
528 193
529 192
530 192
531 192
532 192
533 191
534 191
535 191
536 191
537 191
538 190
539 190
540 190
541 190
542 190
543 189
544 189
545 189
546 189
547 190
548 191
549 192
548 193
548 194
548 195
547 196
547 197
547 198
547 199
546 200
545 200
545 201
545 202
544 203
543 204
543 205
543 206
542 207
542 208
541 209
540 210
539 211
539 212
539 213
538 214
538 215
537 216
536 217
536 218
535 219
535 220
534 221
534 222
533 223
533 224
532 225
532 226
532 227
531 228
531 229
530 230
530 231
530 232
529 233
529 234
529 235
528 236
528 237
528 238
527 239
527 240
526 241
526 242
526 243
525 244
525 245
525 246
525 247
524 248
524 249
524 250
524 251
523 252
523 253
523 254
523 255
523 256
522 257
522 258
522 259
522 260
522 261
521 262
521 263
521 264
521 265
521 266
521 267
521 268
521 269
521 270
521 271
521 272
521 273
521 274
521 275
521 276
521 277
521 278
521 279
521 280
521 281
521 282
521 283
521 284
521 285
522 286
522 287
522 288
523 289
523 290
523 291
523 292
523 293
524 294
524 295
524 296
525 297
525 298
526 299
526 300
527 301
527 302
528 303
528 304
529 305
529 306
529 307
530 308
530 309
531 310
531 311
532 312
533 313
533 314
534 315
535 316
535 317
536 318
536 319
537 320
538 320
539 321
539 322
539 323
540 324
541 325
542 326
542 327
543 328
544 329
544 330
545 330
546 331
546 332
547 332
548 333
549 334
550 335
551 336
552 337
553 338
554 338
555 339
556 339
557 340
558 340
559 340
560 340
561 341
562 341
563 340
564 340
565 340
566 340
567 339
568 339
569 340
569 339
570 338
571 338
572 337
573 337
574 337
575 337
576 337
577 336
578 336
579 336
580 335
581 335
582 334
583 333
584 332
585 331
586 330
587 329
588 328
588 327
589 326
590 325
590 324
591 323
592 322
592 321
593 320
593 319
594 318
595 317
595 316
596 315
596 314
597 313
597 312
597 311
598 310
598 309
598 308
599 307
599 306
599 305
600 304
600 303
600 302
600 301
601 300
601 299
601 298
601 297
601 296
601 295
602 294
602 293
602 292
602 291
602 290
602 289
602 288
602 287
602 286
602 285
602 284
602 283
602 282
602 281
603 280
603 279
603 278
603 277
603 276
603 275
603 274
603 273
603 272
603 271
603 270
603 269
603 268
603 267
603 266
603 265
603 264
603 263
603 262
603 261
603 260
603 259
603 258
603 257
603 256
603 255
603 254
603 253
602 252
602 251
602 250
602 249
602 248
601 247
601 246
601 245
600 244
600 243
600 242
600 241
599 240
599 239
598 238
598 237
598 236
597 235
597 234
596 233
596 232
595 231
595 230
594 229
594 228
594 227
593 226
593 225
592 224
592 223
592 222
591 221
591 220
591 219
590 218
589 217
589 216
588 215
588 214
587 213
587 212
587 211
586 210
586 209
585 208
584 207
584 206
583 205
582 204
582 203
581 202
581 201
580 200
580 199
579 198
578 197
577 196
577 195
576 194
575 193
574 192
574 191
573 190
572 189
571 188
571 187
570 186
569 185
569 184
569 183
570 182
571 182
572 181
573 181
574 181
575 180
576 179
577 179
578 179
579 178
580 178
581 178
582 177
583 177
584 176
585 176
586 176
587 176
588 175
589 175
590 174
591 174
592 173
593 173
594 173
595 172
596 172
597 171
598 171
599 170
600 170
601 170
602 169
603 169
604 169
605 168
606 168
607 168
608 167
609 167
610 167
611 166
612 166
613 166
614 165
615 165
616 165
617 164
618 164
619 164
620 163
621 163
622 163
623 163
624 162
625 162
626 161
627 161
628 161
629 161
630 160
631 160
632 160
633 159
634 159
635 158
636 158
637 158
638 158
639 157
640 157
641 157
642 156
643 156
644 156
645 155
646 155
647 155
648 154
649 154
650 153
651 153
652 153
653 153
654 152
655 153
656 154
657 155
656 156
657 157
657 158
656 159
656 160
655 161
655 162
655 163
655 164
654 165
654 166
654 167
653 168
653 169
653 170
652 171
652 172
652 173
651 174
651 175
651 176
650 177
650 178
649 179
649 180
649 181
649 182
648 183
648 184
647 185
647 186
647 187
646 188
646 189
646 190
645 191
645 192
645 193
645 194
644 195
644 196
644 197
643 198
643 199
643 200
642 201
642 202
642 203
642 204
642 205
642 206
641 207
641 208
641 209
641 210
641 211
641 212
641 213
641 214
641 215
641 216
641 217
641 218
641 219
642 220
642 221
642 222
642 223
642 224
643 225
643 226
643 227
643 228
643 229
644 230
644 231
644 232
645 233
645 234
646 235
646 236
647 237
647 238
647 239
648 240
649 241
649 242
650 243
650 244
651 245
651 246
652 247
653 248
653 249
654 250
655 251
655 252
656 253
656 254
657 255
657 256
658 256
659 257
659 258
659 259
660 259
661 260
662 261
662 262
663 263
663 264
664 265
665 266
665 267
666 268
667 269
667 270
668 271
669 272
669 273
670 274
671 275
672 276
672 277
672 278
673 279
673 280
674 280
675 281
675 282
676 283
677 284
677 285
678 285
679 286
679 287
680 287
681 288
682 289
682 290
683 291
684 291
685 292
686 293
687 294
688 295
689 295
690 296
691 297
692 297
693 298
694 298
695 299
696 299
697 300
698 300
699 301
700 301
701 301
702 302
703 302
704 302
705 302
706 302
707 302
708 302
709 302
710 301
711 301
712 300
713 300
714 299
715 299
716 298
717 297
718 296
719 295
720 295
721 294
722 293
723 292
723 291
724 290
724 289
725 288
725 287
725 286
726 285
726 284
726 283
726 282
727 281
727 280
727 279
727 278
727 277
727 276
727 275
727 274
727 273
728 272
728 271
728 270
728 269
728 268
728 267
728 266
728 265
728 264
728 263
728 262
728 261
728 260
727 259
727 258
727 257
727 256
727 255
727 254
727 253
726 252
726 251
726 250
726 249
725 248
725 247
724 246
724 245
724 244
724 243
724 242
723 241
723 240
722 239
722 238
722 237
722 236
721 235
721 234
721 233
721 232
720 231
720 230
720 229
720 228
720 227
720 226
719 225
719 224
719 223
718 222
718 221
718 220
717 219
717 218
717 217
717 216
716 215
716 214
715 213
715 212
714 211
714 210
713 209
713 208
712 207
712 206
711 205
711 204
710 203
709 202
709 201
709 200
708 199
707 198
707 197
706 196
706 195
705 194
705 193
704 192
704 191
703 190
703 189
702 188
701 187
701 186
700 185
700 184
699 183
698 182
698 181
698 180
697 179
697 178
696 177
695 176
695 175
694 174
694 173
693 172
692 171
691 170
691 169
690 168
689 167
688 166
687 165
687 164
686 163
685 162
684 161
684 160
683 159
682 158
681 157
680 156
679 155
678 154
677 153
676 152
675 151
674 150
673 149
672 148
672 147
673 146
674 145
675 144
676 144
677 144
678 143
679 142
680 142
681 141
682 141
683 140
684 140
685 139
686 139
687 138
688 138
689 137
690 137
691 136
692 136
693 136
694 135
695 135
696 134
697 134
698 133
699 133
700 132
701 132
702 132
703 131
704 131
705 130
706 130
707 129
708 129
709 128
710 128
711 127
712 127
713 127
714 126
715 126
716 125
717 125
718 125
719 124
720 124
721 123
722 122
723 122
724 122
725 121
726 121
727 121
728 120
729 120
730 119
731 119
732 118
733 118
734 117
735 117
736 117
737 116
738 116
739 116
740 115
741 114
742 114
743 114
744 113
745 113
746 112
747 112
748 112
749 111
750 111
751 110
752 110
753 109
754 109
755 109
756 108
757 108
758 107
759 107
760 106
761 106
762 105
763 105
764 105
765 104
766 104
767 104
768 103
769 102
770 102
771 102
772 101
773 101
774 100
775 100
776 100
777 99
778 99
779 98
780 98
781 98
782 97
783 97
784 97
785 96
786 96
787 96
788 96
789 96
790 95
791 95
792 95
793 95
794 94
795 93
796 93
797 93
798 92
798 91
797 90
797 89
797 88
796 87
795 86
794 85
794 84
793 83
793 82
792 81
791 80
790 80
789 80
788 80
787 81
786 81
785 81
784 82
783 83
782 83
781 84
780 85
779 85
778 86
777 86
776 87
775 87
774 88
773 88
772 89
771 89
770 90
769 90
768 91
767 91
766 92
765 92
764 92
763 93
762 93
761 94
760 94
759 95
758 96
757 96
756 97
755 97
754 98
753 98
752 99
751 99
750 99
749 100
748 100
747 101
746 101
745 102
744 102
743 103
742 103
741 103
740 104
739 104
738 104
737 105
736 105
735 106
734 106
733 106
732 107
731 107
730 108
729 108
728 109
727 109
726 110
725 110
724 110
723 111
722 111
721 112
720 112
719 113
718 113
717 113
716 114
715 114
714 115
713 115
712 116
711 116
710 117
709 117
708 117
707 118
706 118
705 118
704 119
703 119
702 120
701 120
700 121
699 121
698 122
697 122
696 123
695 123
694 123
693 124
692 124
691 124
690 125
689 125
688 126
687 126
686 126
685 127
684 127
683 128
682 128
681 129
680 129
679 129
678 130
677 130
676 131
675 131
674 131
673 132
672 132
671 133
670 133
669 134
668 134
667 134
666 134
665 135
664 135
663 135
662 135
661 135
660 134
660 133
660 132
660 131
660 130
660 129
660 128
660 127
660 126
660 125
660 124
660 123
660 122
660 121
661 120
661 119
661 118
661 117
661 116
661 115
661 114
661 113
661 112
661 111
661 110
661 109
661 108
661 107
661 106
661 105
661 104
661 103
662 102
662 101
662 100
662 99
662 98
662 97
662 96
662 95
662 94
662 93
662 92
663 91
663 90
663 89
663 88
663 87
663 86
663 85
663 84
663 83
663 82
663 81
663 80
663 79
663 78
663 77
663 76
663 75
663 74
663 73
663 72
663 71
663 70
663 69
663 68
663 67
663 66
663 65
663 64
663 63
662 62
662 61
662 60
662 59
662 58
662 57
661 56
661 55
661 54
660 53
660 52
660 51
659 50
659 49
659 48
658 47
658 46
657 45
657 44
656 43
656 42
656 41
655 40
654 39
654 38
653 37
652 36
652 35
651 34
650 33
649 32
648 31
648 30
647 29
646 28
645 27
644 26
644 25
643 24
642 23
641 22
640 21
639 20
638 19
637 18
636 17
635 16
634 15
633 14
632 13
631 13
630 12
629 11
628 10
627 10
626 9
625 8
624 8
623 7
622 7
621 6
620 6
619 6
618 6
617 6
616 5
