123 294
123 295
123 296
123 297
123 298
123 299
123 300
123 301
123 302
123 303
123 304
123 305
123 306
123 307
123 308
123 309
123 310
123 311
123 312
123 313
123 314
123 315
123 316
123 317
124 318
124 319
124 320
125 321
125 322
126 322
127 322
128 322
129 322
130 322
131 322
132 322
133 322
134 322
135 322
136 322
137 322
138 323
139 323
140 324
141 324
142 325
143 325
144 326
145 326
146 327
147 328
148 329
149 329
150 330
151 330
152 331
153 331
154 332
155 333
156 334
157 335
158 335
159 336
160 336
161 337
162 338
163 338
164 339
165 339
166 340
167 340
168 340
169 341
170 341
171 341
172 342
173 342
174 343
175 343
176 343
177 344
178 344
179 344
180 345
181 345
182 345
183 346
184 346
185 347
186 347
187 348
188 348
189 348
190 349
191 349
192 349
193 350
194 350
195 351
196 351
197 352
198 352
199 353
200 353
201 354
202 354
203 355
204 356
205 357
206 358
207 359
207 360
208 361
209 362
210 363
211 364
211 365
212 366
213 367
213 368
214 369
215 370
216 371
217 372
217 373
218 374
219 375
220 376
220 377
221 378
222 379
223 380
224 381
225 382
225 383
226 384
227 385
228 386
229 387
230 388
231 389
232 390
233 391
234 392
235 393
236 394
237 395
238 396
238 397
239 398
240 399
241 400
242 401
243 402
243 403
244 404
244 405
245 406
246 407
247 408
247 409
248 410
249 411
250 412
251 413
252 414
253 415
254 416
255 417
256 418
257 419
258 420
259 421
260 422
261 423
262 424
263 425
264 426
265 427
266 427
267 428
268 429
269 430
270 430
271 431
272 431
273 432
274 433
275 433
276 434
277 434
278 435
279 435
280 436
281 437
282 437
283 438
284 438
285 439
286 439
287 440
288 440
289 441
290 441
291 441
292 441
293 442
294 442
295 442
296 442
297 442
298 443
299 443
300 443
301 443
302 444
303 444
304 444
305 444
306 444
307 444
308 445
309 445
310 445
311 445
312 445
313 445
314 445
315 445
316 446
317 446
318 446
319 446
320 446
321 446
322 446
323 447
324 447
325 447
326 447
327 447
328 447
329 447
330 447
331 447
332 447
333 447
334 447
335 447
336 447
337 447
338 447
339 447
340 447
341 448
342 448
343 448
344 448
345 448
346 448
347 448
348 448
349 448
350 448
351 448
352 448
353 448
354 448
355 448
356 448
357 448
358 448
359 448
360 448
361 448
362 448
363 448
364 448
365 448
366 448
367 448
368 449
369 449
370 449
371 449
372 449
373 449
374 449
375 449
376 449
377 450
378 450
379 450
380 450
381 450
382 450
383 450
384 451
385 451
386 451
387 451
388 451
389 451
390 452
391 452
392 452
393 452
394 453
395 453
396 453
397 453
398 454
399 454
400 454
401 454
402 455
403 455
404 455
405 456
406 456
407 456
408 457
409 457
410 458
411 458
412 459
413 459
414 459
415 460
416 460
417 461
418 461
419 461
420 462
421 462
422 462
423 462
424 463
425 463
426 463
427 463
428 463
429 464
430 464
431 464
432 464
433 465
434 465
435 465
436 465
437 465
438 465
439 465
440 465
441 465
442 465
443 465
444 465
445 465
446 465
447 465
448 465
449 465
450 465
451 465
452 465
453 465
454 465
455 464
456 464
457 464
458 464
459 463
460 463
461 462
462 462
463 462
464 461
465 461
466 460
467 460
468 459
469 459
470 458
471 458
472 457
473 457
474 456
475 456
476 455
477 455
478 454
479 454
480 453
481 453
482 452
483 452
484 451
485 450
486 450
487 449
488 449
489 448
490 448
491 447
492 446
493 446
494 445
495 445
496 444
497 444
498 443
499 443
500 443
501 442
502 442
503 441
504 441
505 441
506 440
507 440
508 439
509 439
510 439
511 438
512 438
513 438
514 437
515 437
516 436
517 436
518 436
519 435
520 435
521 435
522 435
523 434
524 434
525 434
526 433
527 433
528 433
529 433
530 433
531 433
532 433
533 432
534 432
535 432
536 432
537 432
538 432
539 432
540 432
541 432
542 431
543 431
544 431
545 431
546 431
547 431
548 431
549 430
550 430
551 430
552 430
553 430
554 430
555 430
556 429
557 429
558 429
559 429
560 429
561 429
562 429
563 429
564 428
565 428
566 428
567 428
568 428
569 427
570 427
571 427
572 426
573 426
574 426
575 425
576 425
577 424
578 424
579 423
580 423
581 422
582 422
583 421
584 421
585 420
586 419
587 418
588 417
589 416
589 415
590 414
591 413
592 412
593 411
593 410
594 409
594 408
595 407
596 406
597 405
597 404
598 403
599 402
600 401
600 400
601 399
602 398
603 397
603 396
604 395
605 394
606 393
606 392
607 391
608 390
608 389
609 388
610 387
610 386
611 385
611 384
612 383
613 382
613 381
614 380
614 379
615 378
616 377
616 376
617 375
617 374
618 373
618 372
619 371
619 370
620 369
620 368
621 367
621 366
621 365
622 364
622 363
622 362
623 361
623 360
623 359
623 358
623 357
623 356
623 355
623 354
623 353
623 352
623 351
623 350
623 349
623 348
623 347
622 346
622 345
622 344
622 343
622 342
621 341
620 340
619 339
618 338
618 337
617 336
616 335
615 334
614 333
613 333
612 332
611 331
610 330
609 329
608 328
607 328
606 327
605 326
604 325
603 324
602 324
601 323
600 322
599 321
599 320
598 319
597 318
597 317
596 316
595 315
595 314
594 313
594 312
593 311
593 310
592 309
592 308
592 307
592 306
592 305
591 304
592 303
592 302
592 301
592 300
593 299
593 298
593 297
593 296
594 295
594 294
594 293
595 292
595 291
596 290
596 289
597 288
597 287
598 286
598 285
599 284
600 283
600 282
601 281
602 280
603 279
604 278
605 277
606 276
607 275
608 275
609 274
610 274
611 273
612 273
613 272
614 272
615 272
616 272
617 272
618 272
619 272
620 272
621 272
622 272
623 272
624 272
625 272
626 273
627 273
628 273
629 273
630 273
631 274
632 274
633 274
634 275
635 275
636 275
637 275
638 275
639 275
640 275
641 275
642 275
643 275
644 275
645 275
646 275
647 276
648 276
649 276
650 277
651 277
652 277
653 277
654 277
655 277
656 278
657 278
658 278
659 278
660 278
661 278
662 278
663 279
664 279
665 279
666 279
667 279
668 279
669 279
670 279
671 279
672 279
673 279
674 279
675 279
676 278
676 277
676 276
676 275
676 274
676 273
676 272
676 271
676 270
676 269
676 268
676 267
676 266
675 265
675 264
675 263
674 263
673 263
672 263
671 263
670 263
669 263
668 263
667 263
666 263
665 263
664 263
663 264
662 264
661 264
660 264
659 264
658 264
657 263
656 263
655 262
654 262
653 262
652 261
651 261
650 261
649 260
648 260
647 259
646 259
645 258
644 258
643 257
642 257
641 256
640 256
639 255
638 255
637 254
636 253
635 253
634 252
633 251
632 250
631 250
630 249
629 248
628 247
627 247
626 246
625 245
624 244
623 243
622 243
621 242
620 241
619 241
618 240
617 239
616 239
615 238
614 237
614 236
613 235
613 234
613 233
614 232
614 231
615 230
615 229
616 228
617 227
617 226
618 225
619 224
620 223
620 222
621 221
622 220
623 219
624 218
624 217
625 216
626 215
626 214
627 213
628 212
629 211
629 210
630 209
630 208
631 207
631 206
632 205
632 204
632 203
633 202
633 201
633 200
634 199
634 198
634 197
634 196
635 195
635 194
635 193
635 192
635 191
635 190
635 189
635 188
635 187
635 186
635 185
635 184
635 183
635 182
635 181
635 180
635 179
635 178
635 177
635 176
635 175
635 174
635 173
635 172
634 171
634 170
634 169
634 168
633 167
633 166
633 165
632 164
632 163
632 162
631 161
630 160
629 159
628 158
627 157
626 157
625 157
624 156
623 156
622 155
621 155
620 154
619 154
618 153
617 152
616 152
615 151
614 151
613 150
612 150
611 149
610 149
609 148
608 148
607 147
606 146
605 145
604 145
603 144
602 144
601 143
600 142
599 142
598 141
597 140
596 140
595 139
594 138
593 137
592 137
591 136
590 135
589 135
588 134
587 133
586 132
585 131
584 131
583 130
582 130
581 129
580 128
579 127
578 126
577 126
576 125
575 124
574 124
573 123
572 123
571 122
570 121
569 120
568 120
567 119
566 119
565 118
564 117
563 117
562 116
561 116
560 115
559 115
558 114
557 113
556 113
555 112
554 112
553 111
552 111
551 110
550 110
549 109
548 109
547 108
546 108
545 107
544 107
543 106
542 105
541 105
540 104
539 104
538 103
537 103
536 102
535 102
534 101
533 101
532 100
531 100
530 99
529 99
528 98
527 98
526 97
525 97
524 96
523 95
522 95
521 94
520 94
519 93
518 93
517 92
516 91
515 91
514 90
513 89
512 89
511 88
510 87
509 86
508 86
507 85
506 84
505 83
504 83
503 82
502 81
501 81
500 80
499 79
498 78
497 78
496 77
495 76
494 76
493 75
492 74
491 73
490 73
489 72
488 71
487 70
486 70
485 69
484 68
483 67
482 67
481 67
480 66
479 66
478 65
477 65
476 64
475 64
474 63
473 62
472 62
471 61
470 61
469 60
468 59
467 59
466 59
465 59
464 58
463 58
462 58
461 58
460 58
459 58
458 58
457 58
456 58
455 58
454 58
453 58
452 58
451 57
450 57
449 56
448 56
447 56
446 55
445 55
444 54
443 54
442 53
441 53
440 52
439 52
438 51
437 51
436 50
435 50
434 49
433 49
432 48
431 48
430 47
429 46
428 46
427 45
426 44
425 44
424 43
423 43
422 42
421 41
420 41
419 40
418 40
417 39
416 39
415 38
414 38
413 37
412 37
411 37
410 37
409 36
408 36
407 36
406 36
405 36
404 36
403 36
402 36
401 36
400 36
399 36
398 36
397 36
396 36
395 36
394 36
393 36
392 36
391 36
390 37
389 37
388 37
387 37
386 37
385 37
384 37
383 37
382 37
381 37
380 37
379 38
378 38
377 38
376 38
375 39
374 39
373 39
372 40
371 40
370 40
369 41
368 41
367 42
366 42
365 42
364 43
363 43
362 43
361 44
360 44
359 44
358 45
357 45
356 45
355 45
354 46
353 46
352 47
351 47
350 47
349 48
348 48
347 48
346 49
345 49
344 49
343 50
342 50
341 50
340 51
339 51
338 51
337 52
336 52
335 53
334 53
333 53
332 53
331 54
330 54
329 55
328 55
327 56
326 56
325 56
324 57
323 57
322 57
321 58
320 58
319 59
318 59
317 59
316 59
315 60
314 60
313 60
312 61
311 61
310 61
309 62
308 62
307 62
306 63
305 63
304 64
303 64
302 65
301 65
300 66
299 66
298 67
297 67
296 68
295 68
294 69
293 70
292 70
291 71
290 72
289 72
288 73
287 74
286 75
285 76
284 76
283 77
282 78
281 79
280 80
279 81
278 82
277 82
276 83
275 84
274 85
273 86
272 87
271 88
270 89
269 90
268 90
267 91
266 92
265 93
264 94
263 94
262 95
261 96
260 97
259 98
258 99
257 100
256 101
255 102
254 103
253 104
252 105
251 106
250 107
249 108
248 109
247 110
246 110
245 111
244 112
243 113
242 114
241 115
240 115
239 116
238 117
237 118
236 119
235 119
234 120
233 121
232 122
231 123
230 124
229 124
228 125
227 126
226 126
225 127
224 128
223 129
222 130
221 130
220 131
219 132
218 132
217 133
216 134
215 134
214 135
213 136
212 137
211 138
210 139
209 139
208 140
207 141
206 142
205 142
204 143
203 144
202 145
201 146
200 147
199 148
198 149
197 149
196 150
195 151
194 152
193 153
192 154
191 155
190 156
189 157
189 158
188 159
187 160
186 161
185 162
184 163
183 164
183 165
182 166
181 167
180 168
179 169
179 170
178 171
177 172
177 173
176 174
175 175
174 176
174 177
173 178
172 179
172 180
171 181
170 182
169 183
168 184
168 185
167 186
166 187
165 188
165 189
164 190
163 191
162 192
162 193
161 194
160 195
160 196
159 197
159 198
158 199
157 200
157 201
156 202
155 203
155 204
154 205
154 206
153 207
153 208
152 209
152 210
152 211
151 212
151 213
150 214
150 215
149 216
149 217
148 218
148 219
147 220
147 221
147 222
146 223
146 224
146 225
145 226
145 227
144 228
144 229
144 230
143 231
143 232
142 233
142 234
141 235
141 236
140 237
140 238
139 239
139 240
138 241
138 242
137 243
137 244
136 245
136 246
136 247
135 248
135 249
135 250
135 251
134 252
134 253
134 254
133 255
133 256
133 257
133 258
133 259
132 260
132 261
132 262
132 263
131 264
131 265
131 266
130 267
130 268
130 269
129 270
129 271
129 272
129 273
129 274
128 275
128 276
128 277
127 278
127 279
127 280
127 281
126 282
126 283
126 284
125 285
125 286
125 287
125 288
125 289
124 290
124 291
124 292
124 293
123 294
