91 233
91 234
91 235
91 236
91 237
91 238
91 239
91 240
91 241
91 242
91 243
91 244
92 245
93 245
94 246
95 246
96 247
97 248
97 249
98 250
98 251
99 252
99 253
99 254
99 255
100 255
101 256
102 256
103 256
104 256
105 257
106 257
107 258
108 258
109 259
109 260
110 261
110 262
111 262
112 262
113 262
114 263
115 263
116 264
117 264
118 265
118 266
119 267
119 268
120 269
120 270
120 271
120 272
120 273
121 274
122 274
123 274
124 275
125 275
126 275
127 276
128 276
129 277
130 277
131 278
131 279
132 280
132 281
133 282
134 282
135 282
136 283
137 283
138 284
139 284
140 285
141 286
142 287
142 288
143 289
143 290
143 291
143 292
143 293
144 294
145 294
146 294
147 295
148 295
149 296
150 296
151 297
152 298
153 298
154 299
155 299
156 300
157 300
158 301
158 302
159 303
159 304
160 305
160 306
160 307
160 308
161 308
162 308
163 309
164 309
165 309
166 310
167 310
168 311
169 311
170 312
171 313
171 314
172 315
172 316
173 317
173 318
173 319
173 320
173 321
173 322
173 323
174 323
175 324
176 324
177 324
178 324
179 324
180 324
181 325
182 325
183 326
184 326
185 327
185 328
186 329
187 329
188 329
189 329
190 329
191 330
192 330
193 331
194 332
195 333
195 334
196 335
196 336
196 337
196 338
197 338
198 339
199 339
200 340
201 340
202 341
203 341
204 342
204 343
205 344
205 345
206 346
206 347
207 347
208 348
209 348
210 349
210 350
211 351
211 352
212 353
212 354
213 355
214 356
215 357
216 357
217 357
218 357
219 357
220 357
221 358
222 358
223 359
224 359
225 360
226 360
227 361
228 361
229 362
230 362
231 363
231 364
232 365
233 365
234 365
235 365
236 365
237 366
238 366
239 367
240 367
241 368
241 369
242 370
242 371
242 372
242 373
242 374
242 375
242 376
243 376
244 376
245 377
246 377
247 378
248 378
249 379
250 380
251 381
252 381
253 382
254 382
255 383
255 384
256 385
256 386
257 387
257 388
257 389
258 390
258 391
259 392
259 393
260 394
260 395
261 395
262 395
263 395
264 395
265 395
266 396
267 396
268 397
269 397
270 398
271 398
272 398
273 398
274 398
275 398
276 398
277 398
278 398
279 398
280 399
281 399
282 400
283 401
284 402
284 403
285 403
286 403
287 403
288 403
289 403
290 403
291 403
292 402
293 402
294 401
295 401
296 401
297 402
298 402
299 403
299 404
300 405
300 406
301 406
302 406
303 406
304 406
305 406
306 406
307 406
308 407
309 407
310 408
311 408
312 408
313 408
314 409
315 409
316 410
317 410
318 411
318 412
319 413
319 414
319 415
319 416
319 417
319 418
319 419
319 420
320 420
321 420
322 421
323 421
324 421
325 421
326 421
327 421
328 421
329 421
330 421
331 421
332 422
333 422
334 423
335 423
336 423
337 423
338 423
339 423
340 423
341 423
342 423
343 423
344 423
345 423
346 422
347 423
348 423
349 424
350 425
351 425
352 425
353 425
354 425
355 425
356 425
357 425
358 425
359 425
360 424
361 424
362 423
363 423
364 423
365 423
366 424
367 425
368 426
368 427
369 427
370 427
371 427
372 427
373 427
374 427
375 427
376 427
377 426
378 426
379 426
380 426
381 426
382 427
383 427
384 428
385 429
386 430
387 431
388 431
389 432
389 433
390 433
391 433
392 433
393 433
394 433
395 433
396 433
397 433
398 433
399 433
400 433
401 434
402 434
403 434
404 434
405 434
406 434
407 434
408 434
409 434
410 434
411 434
412 434
413 434
414 433
415 433
416 433
417 433
418 433
419 433
420 433
421 433
422 433
423 433
424 434
425 434
426 434
427 434
428 434
429 434
430 434
431 434
432 434
433 434
434 434
435 434
436 433
437 433
438 432
439 432
440 431
441 431
442 431
443 431
444 431
445 431
446 431
447 431
448 431
449 431
450 431
451 431
452 431
453 431
454 431
455 431
456 431
457 430
458 430
459 430
460 430
461 431
462 431
463 431
464 431
465 431
466 431
467 431
468 431
469 431
470 431
471 431
472 430
473 430
474 429
475 429
476 429
477 429
478 429
479 429
480 429
481 429
482 429
483 429
484 429
485 430
486 431
487 432
488 432
489 432
490 432
491 432
492 432
493 432
494 432
495 432
496 432
497 432
498 431
499 431
500 430
501 430
502 429
503 429
504 429
505 428
506 428
507 428
508 427
509 427
510 426
511 426
512 425
513 425
514 425
515 425
516 425
517 424
518 424
519 423
520 423
521 422
522 422
523 422
524 422
525 422
526 422
527 422
528 421
529 421
530 420
531 419
532 419
533 418
534 418
535 417
536 418
537 418
538 419
539 419
540 419
541 419
542 419
543 419
544 419
545 418
546 417
547 416
548 416
549 415
550 414
551 413
552 413
553 412
554 412
555 413
556 413
557 413
558 413
559 413
560 413
561 413
562 413
563 412
564 411
565 410
566 409
567 408
568 407
569 407
570 406
571 406
572 405
573 405
574 405
575 404
576 404
577 403
578 403
579 403
580 403
581 403
582 402
583 402
584 401
585 400
586 399
587 399
588 398
589 398
590 397
591 396
592 395
593 395
594 394
595 394
596 393
597 393
598 392
599 392
600 392
601 391
602 390
603 389
604 388
605 387
606 387
607 386
608 386
609 385
610 385
611 385
612 385
613 385
614 385
615 385
615 384
616 383
617 382
618 381
619 380
620 379
621 378
621 377
622 376
623 375
624 374
624 373
625 372
626 371
626 370
627 369
627 368
628 367
629 366
630 365
630 364
631 363
631 362
632 361
633 361
634 360
635 361
636 361
637 362
638 362
639 362
640 362
641 362
642 362
643 362
644 361
645 360
646 359
647 358
648 357
649 356
650 355
650 354
651 353
652 352
653 351
654 350
655 350
656 349
657 349
658 348
659 348
660 348
661 348
662 348
662 347
663 346
664 345
665 344
665 343
666 342
666 341
666 340
666 339
667 338
667 337
668 336
668 335
669 334
670 333
671 332
672 331
673 330
674 329
675 328
675 327
676 326
676 325
677 324
677 323
677 322
678 321
678 320
679 319
679 318
680 317
680 316
681 315
681 314
681 313
681 312
681 311
681 310
681 309
682 308
682 307
682 306
683 305
683 304
684 303
684 302
685 301
685 300
686 299
687 298
687 297
688 296
689 295
689 294
690 293
690 292
690 291
690 290
691 289
691 288
691 287
691 286
691 285
691 284
691 283
691 282
691 281
691 280
691 279
691 278
691 277
691 276
691 275
692 274
692 273
693 272
693 271
694 270
695 270
696 269
697 269
698 268
699 268
700 268
701 268
702 268
703 268
704 268
705 268
706 269
707 269
708 269
709 269
710 269
711 269
712 269
713 269
714 269
715 270
716 270
717 270
718 271
719 271
720 271
721 271
722 271
723 271
724 271
725 271
726 272
727 272
728 272
729 272
730 272
731 273
732 273
733 273
734 273
735 274
736 274
737 274
738 274
739 275
740 275
741 276
742 276
743 277
744 277
745 278
746 278
747 278
748 278
749 278
750 278
751 278
752 278
753 278
754 278
755 278
756 278
757 277
757 276
757 275
757 274
757 273
757 272
757 271
757 270
757 269
757 268
757 267
756 266
756 265
755 264
754 263
753 263
752 263
751 262
750 262
749 262
748 261
747 261
746 261
745 261
744 261
743 261
742 261
741 261
740 261
739 261
738 261
737 261
736 261
735 261
734 261
733 262
732 262
731 262
730 262
729 261
728 261
727 261
726 261
725 261
724 261
723 261
722 261
721 261
720 261
719 261
718 261
717 261
716 260
715 260
714 259
713 259
712 259
711 259
710 258
709 258
708 258
707 258
706 258
705 258
704 258
703 258
702 257
701 257
700 256
699 256
698 255
697 254
697 253
697 252
697 251
697 250
697 249
697 248
697 247
697 246
697 245
697 244
697 243
697 242
697 241
697 240
697 239
697 238
697 237
697 236
697 235
697 234
697 233
697 232
697 231
696 230
696 229
696 228
696 227
696 226
696 225
696 224
696 223
696 222
696 221
695 220
695 219
695 218
694 217
694 216
694 215
694 214
694 213
694 212
693 211
693 210
693 209
693 208
692 207
692 206
692 205
691 204
691 203
690 202
689 201
688 200
687 199
686 198
685 197
684 196
683 195
682 194
681 193
681 192
680 191
679 190
679 189
678 188
678 187
677 186
677 185
676 184
676 183
675 182
675 181
674 180
673 180
672 179
671 179
670 178
669 178
668 177
667 176
667 175
666 174
665 173
664 172
664 171
663 170
662 169
662 168
661 167
661 166
660 165
660 164
659 163
658 162
657 161
657 160
656 160
655 160
654 160
653 160
652 160
651 159
650 159
649 158
648 158
647 157
646 156
646 155
645 154
644 153
644 152
643 151
642 150
642 149
641 149
640 149
639 148
638 148
637 147
636 147
635 146
634 145
633 144
633 143
632 142
631 141
630 140
630 139
629 139
628 138
627 138
626 137
625 137
624 136
623 135
622 134
621 133
620 132
619 132
618 132
617 131
616 131
615 130
614 130
613 129
612 129
611 128
610 127
609 126
608 126
607 125
606 125
605 125
604 125
603 125
602 125
601 125
600 125
599 125
598 125
597 125
596 124
595 124
594 123
593 123
592 123
591 122
590 122
589 121
588 121
587 120
586 120
585 119
584 118
583 117
582 116
581 115
580 115
579 115
578 115
577 115
576 115
575 115
574 115
573 116
572 116
571 116
570 116
569 115
568 114
567 113
566 113
565 113
564 112
563 112
562 111
561 111
560 110
559 110
558 109
557 108
556 108
555 108
554 108
553 108
552 108
551 108
550 108
549 108
548 108
547 108
546 108
545 107
544 107
543 106
542 105
541 105
540 105
539 105
538 105
537 104
536 104
535 103
534 103
533 102
532 102
531 101
530 101
529 101
528 101
527 101
526 101
525 101
524 101
523 101
522 101
521 100
520 100
519 100
518 99
517 99
516 99
515 99
514 99
513 99
512 98
511 98
510 97
509 97
508 96
507 96
506 96
505 96
504 96
503 96
502 96
501 96
500 96
499 97
499 98
498 99
497 99
496 100
495 100
494 100
493 100
492 99
491 99
490 98
489 98
488 97
487 97
486 96
485 96
484 96
483 96
482 96
481 96
480 96
479 96
478 96
477 97
476 98
475 98
474 99
473 99
472 100
471 100
470 100
469 101
468 101
467 101
466 101
465 100
464 100
463 99
462 99
461 98
460 97
459 96
458 95
457 95
456 95
455 95
454 95
453 95
452 95
451 95
450 95
449 95
448 95
447 95
446 95
445 95
444 95
443 95
442 95
441 95
440 95
439 95
438 95
437 96
436 96
435 97
434 97
433 98
432 98
431 99
430 99
429 99
428 99
427 100
426 100
425 101
424 102
423 103
422 104
421 104
420 105
419 105
418 106
417 106
416 107
415 107
414 107
413 107
412 107
411 107
410 106
409 106
408 105
407 105
406 105
405 105
404 105
403 105
402 105
401 105
400 105
399 105
398 105
397 105
396 106
395 106
394 106
393 105
392 104
391 103
390 103
389 103
388 103
387 103
386 103
385 103
384 103
383 103
382 103
381 102
380 102
379 102
378 101
377 101
376 100
375 100
374 99
373 98
373 97
372 96
371 95
370 95
369 95
368 95
367 95
366 95
365 95
364 95
363 95
362 95
361 95
360 95
359 95
358 95
357 96
356 96
355 97
354 97
353 97
352 97
351 97
350 97
349 97
348 97
347 97
346 97
345 97
344 97
343 97
342 97
341 97
340 97
339 97
338 97
337 97
336 97
335 97
334 97
333 97
332 97
331 96
330 96
329 96
328 95
327 95
326 94
325 94
324 93
323 93
322 92
321 91
320 90
319 90
318 90
317 90
316 90
315 90
314 91
313 91
312 92
311 92
310 92
309 92
308 92
307 91
306 91
305 91
304 91
303 91
302 91
301 91
300 91
299 91
298 91
297 91
296 91
295 91
294 92
293 92
292 93
291 93
290 93
289 93
288 94
287 95
286 96
286 97
285 98
284 99
283 99
282 100
281 100
280 101
279 101
278 102
277 103
276 103
275 104
274 104
273 105
272 105
271 105
270 105
269 104
268 104
267 104
266 104
265 104
264 104
263 104
262 104
261 104
260 104
260 105
259 106
258 107
257 108
256 108
255 107
254 107
253 107
252 107
251 107
250 107
249 107
248 107
247 107
246 107
245 108
244 108
243 109
242 109
241 110
240 110
239 110
238 110
237 110
236 110
235 110
234 110
233 110
232 110
231 110
230 110
229 110
228 110
227 110
226 110
225 110
224 110
224 111
224 112
224 113
223 114
223 115
222 116
221 117
220 118
219 118
218 119
217 119
216 119
216 120
215 121
215 122
214 123
213 123
212 124
211 124
210 124
209 124
208 124
207 124
206 124
205 124
204 124
203 124
202 124
201 125
201 126
200 127
200 128
199 129
198 129
197 130
196 130
195 130
194 130
193 130
192 130
191 130
190 130
189 130
188 130
187 130
186 130
185 130
184 130
184 131
183 132
182 132
181 133
180 133
179 134
178 134
177 134
176 134
175 134
174 134
173 134
172 134
171 134
170 134
169 135
169 136
168 137
168 138
167 139
166 139
165 140
165 141
164 142
163 143
162 144
161 144
160 145
159 145
158 145
157 145
156 145
155 145
154 146
154 147
153 148
153 149
152 150
151 150
150 151
149 151
148 152
147 152
146 152
145 152
144 152
143 152
142 152
141 153
140 153
139 154
138 154
137 155
136 155
135 155
134 155
134 156
134 157
134 158
133 159
133 160
132 161
132 162
131 163
130 163
129 164
128 164
127 165
126 165
125 165
124 165
123 165
122 166
122 167
121 168
120 168
119 169
118 169
117 170
116 170
115 170
114 171
113 172
112 173
112 174
112 175
112 176
112 177
112 178
112 179
112 180
112 181
112 182
112 183
112 184
111 185
111 186
111 187
111 188
110 189
110 190
109 191
109 192
108 193
108 194
108 195
108 196
107 197
107 198
106 199
106 200
105 201
105 202
105 203
104 204
104 205
103 206
103 207
103 208
103 209
102 210
102 211
101 212
101 213
100 214
100 215
99 216
99 217
98 218
98 219
98 220
97 221
97 222
96 223
96 224
95 225
95 226
94 227
94 228
93 229
93 230
92 231
92 232
91 233
