132 245
132 246
132 247
132 248
132 249
132 250
132 251
132 252
132 253
132 254
133 255
133 256
133 257
133 258
134 259
134 260
135 261
135 262
136 263
136 264
137 265
137 266
137 267
138 268
138 269
139 270
139 271
139 272
140 273
140 274
140 275
140 276
140 277
140 278
140 279
140 280
141 281
141 282
141 283
141 284
141 285
141 286
142 287
142 288
142 289
142 290
143 291
143 292
143 293
143 294
143 295
143 296
144 297
144 298
144 299
144 300
144 301
145 302
145 303
145 304
146 305
146 306
146 307
147 308
148 309
149 310
150 310
151 311
152 311
153 312
154 312
155 313
156 313
157 314
158 314
159 315
160 315
161 316
162 316
163 317
164 317
165 318
166 318
167 319
168 320
169 320
170 321
171 321
172 322
173 322
174 323
175 323
176 324
177 325
178 326
178 327
179 328
179 329
179 330
178 331
178 332
177 333
177 334
176 335
176 336
175 337
175 338
174 339
173 340
172 341
171 342
171 343
171 344
171 345
171 346
171 347
171 348
172 348
173 348
174 348
175 348
176 348
177 348
178 348
179 348
180 348
181 348
182 348
183 348
184 347
185 347
186 347
187 348
188 348
189 349
190 350
191 351
191 352
192 352
193 352
194 352
195 352
196 352
197 352
198 352
199 352
200 352
201 352
202 352
203 352
204 352
205 352
206 352
207 352
208 352
209 352
210 352
211 352
212 352
213 352
214 352
215 351
216 351
217 351
218 351
219 352
220 352
221 353
222 353
223 354
224 355
225 356
225 357
226 358
226 359
227 360
227 361
227 362
227 363
227 364
227 365
228 365
229 365
230 365
231 365
232 365
233 365
234 365
235 364
236 364
237 363
238 363
239 363
240 363
241 362
242 362
243 363
244 363
245 364
246 365
247 366
247 367
248 368
248 369
249 369
250 369
251 369
252 369
253 369
254 369
255 369
256 369
257 369
258 369
259 369
260 369
261 369
262 369
263 369
264 369
265 369
266 369
267 368
268 368
269 368
270 368
271 368
272 368
273 367
274 367
275 367
276 367
277 367
278 367
279 367
280 367
281 367
282 367
283 367
284 368
285 368
286 368
287 368
288 368
289 368
290 368
291 368
292 368
293 368
294 368
295 368
296 368
297 368
298 368
299 369
300 369
301 370
302 370
303 371
304 372
304 373
304 374
304 375
303 376
303 377
303 378
302 379
302 380
301 381
301 382
300 383
300 384
299 385
299 386
298 387
297 388
297 389
296 390
295 391
294 392
294 393
293 394
292 395
291 396
290 397
290 398
289 399
289 400
288 401
288 402
288 403
287 404
287 405
286 406
286 407
285 408
285 409
284 410
284 411
283 412
283 413
282 414
281 415
281 416
280 417
280 418
279 419
278 420
278 421
277 422
277 423
277 424
276 425
276 426
275 427
275 428
274 429
274 430
273 431
272 432
272 433
271 434
270 435
270 436
269 437
269 438
268 439
268 440
267 441
267 442
266 443
265 444
265 445
264 446
264 447
263 448
263 449
262 450
262 451
261 452
260 453
260 454
259 455
258 456
258 457
257 458
257 459
256 460
256 461
255 462
254 463
254 464
253 465
253 466
252 467
252 468
251 469
251 470
250 471
250 472
249 473
249 474
248 475
247 476
247 477
246 478
245 479
245 480
244 481
244 482
243 483
243 484
242 485
241 486
240 487
240 488
239 489
238 490
237 491
237 492
236 493
236 494
235 495
234 496
234 497
233 498
233 499
233 500
232 501
232 502
232 503
232 504
232 505
232 506
232 507
232 508
232 509
232 510
233 510
234 510
235 510
236 510
237 509
238 508
239 507
240 506
241 506
242 505
243 505
244 504
245 504
246 503
247 502
248 502
249 501
250 500
251 500
252 499
253 499
254 498
255 498
256 497
257 497
258 497
259 496
260 496
261 495
262 495
263 495
264 494
265 494
266 493
267 493
268 492
269 492
270 491
271 491
272 490
273 490
274 490
275 490
276 489
277 489
278 489
279 489
280 488
281 488
282 488
283 487
284 487
285 486
286 486
287 487
288 487
289 488
289 489
290 490
289 491
289 492
288 493
288 494
287 495
286 496
286 497
285 498
284 499
283 500
283 501
282 502
281 503
280 504
279 505
278 506
278 507
278 508
278 509
278 510
278 511
278 512
279 512
280 512
281 512
282 512
283 512
284 512
285 512
286 511
287 511
288 510
289 510
290 509
291 509
292 508
293 508
294 507
295 507
296 506
297 506
298 505
299 505
300 504
301 504
302 503
303 503
304 503
305 502
306 502
307 501
308 501
309 501
310 500
311 500
312 499
313 499
314 498
315 498
316 498
317 497
318 497
319 497
320 496
321 496
322 496
323 496
324 495
325 495
326 495
327 494
328 494
329 493
330 493
331 493
332 492
333 492
334 491
335 491
336 491
337 491
338 490
339 490
340 490
341 490
342 489
343 489
344 489
345 489
346 489
347 489
348 488
349 488
350 488
351 488
352 487
353 487
354 487
355 487
356 486
357 486
358 486
359 486
360 485
361 485
362 485
363 485
364 484
365 484
366 484
367 484
368 484
369 484
370 483
371 483
372 483
373 483
374 483
375 483
376 482
377 482
378 482
379 482
380 482
381 482
382 481
383 481
384 481
385 480
386 480
387 480
388 480
389 480
390 480
391 479
392 479
393 479
394 478
395 478
396 478
397 478
398 477
399 477
400 477
401 477
402 477
403 476
404 476
405 476
406 475
407 475
408 475
409 475
410 475
411 475
412 474
413 474
414 474
415 474
416 474
417 473
418 473
419 473
420 473
421 472
422 472
423 472
424 472
425 471
426 471
427 471
428 471
429 470
430 470
431 469
432 469
433 469
434 468
435 468
436 468
437 467
438 467
439 466
440 466
441 467
442 467
443 468
444 469
445 470
445 471
446 472
446 473
447 474
448 474
449 474
450 474
451 474
452 474
453 474
454 474
455 474
456 474
457 474
458 473
459 472
460 471
461 470
462 469
463 468
464 467
464 466
465 465
466 465
467 464
468 464
469 464
470 465
471 466
472 467
472 468
473 469
473 470
474 471
475 472
475 473
476 474
476 475
477 476
477 477
478 478
478 479
479 480
479 481
480 482
480 483
481 484
481 485
482 486
482 487
483 488
483 489
484 490
484 491
485 492
486 493
486 494
487 495
487 496
488 497
488 498
489 499
489 500
490 501
490 502
491 502
492 502
493 502
494 502
495 502
495 501
495 500
495 499
495 498
495 497
495 496
495 495
495 494
495 493
495 492
495 491
495 490
495 489
495 488
495 487
495 486
495 485
495 484
495 483
496 482
496 481
496 480
497 479
497 478
497 477
498 476
498 475
498 474
498 473
499 472
499 471
500 470
500 469
501 468
501 467
502 466
502 465
502 464
503 463
503 462
503 461
504 460
504 459
504 458
504 457
505 456
505 455
506 454
506 453
506 452
506 451
507 450
507 449
508 448
508 447
509 446
509 445
510 444
511 443
512 443
513 443
514 444
515 445
516 446
516 447
517 448
517 449
518 450
518 451
519 452
520 453
521 454
522 455
523 456
524 457
525 458
526 459
527 460
528 461
529 462
530 463
531 464
532 465
533 466
534 466
535 467
536 468
537 469
538 470
539 471
540 472
541 473
542 474
543 475
544 475
545 476
546 477
547 478
548 479
549 480
550 481
551 482
552 483
553 483
554 484
554 485
555 486
556 487
557 488
558 489
559 490
560 491
561 492
562 493
563 494
564 495
564 496
565 497
566 498
567 499
568 500
569 501
570 501
571 501
572 501
573 501
573 500
573 499
573 498
573 497
573 496
573 495
573 494
573 493
573 492
573 491
573 490
573 489
572 488
572 487
572 486
572 485
572 484
572 483
571 482
571 481
571 480
571 479
571 478
571 477
571 476
571 475
571 474
572 473
572 472
572 471
572 470
573 469
573 468
573 467
574 466
574 465
574 464
574 463
574 462
574 461
575 460
575 459
576 458
576 457
576 456
577 455
577 454
578 453
578 452
579 451
579 450
579 449
579 448
580 447
580 446
580 445
580 444
580 443
580 442
580 441
580 440
580 439
580 438
580 437
580 436
580 435
580 434
580 433
580 432
580 431
580 430
580 429
580 428
580 427
580 426
580 425
580 424
580 423
580 422
580 421
580 420
580 419
580 418
580 417
580 416
579 415
579 414
580 413
580 412
580 411
580 410
580 409
580 408
580 407
581 406
581 405
582 404
582 403
583 402
583 401
584 400
584 399
585 398
586 397
586 396
586 395
586 394
586 393
586 392
586 391
586 390
586 389
587 388
587 387
587 386
587 385
587 384
587 383
587 382
587 381
587 380
587 379
587 378
587 377
587 376
587 375
587 374
587 373
587 372
587 371
587 370
588 369
588 368
588 367
588 366
588 365
588 364
588 363
588 362
588 361
588 360
588 359
588 358
588 357
588 356
588 355
588 354
588 353
587 352
587 351
587 350
586 349
586 348
586 347
585 346
585 345
584 344
584 343
583 342
582 341
582 340
581 339
580 338
579 337
579 336
578 335
577 334
576 333
575 332
574 331
574 330
573 329
572 328
571 327
570 326
570 325
569 324
568 323
567 322
566 321
565 320
564 319
563 318
562 317
561 316
560 315
559 314
558 313
557 312
556 311
555 310
555 309
554 308
553 307
552 306
551 305
550 304
549 303
548 302
547 302
546 301
545 300
544 299
543 298
542 298
541 297
540 296
539 295
538 294
537 294
536 293
535 292
534 291
533 290
532 289
531 289
530 288
529 287
528 286
527 285
526 284
525 283
524 282
523 281
522 280
521 279
520 278
519 277
518 277
517 276
516 275
515 274
514 274
513 273
512 272
511 271
510 270
509 269
508 268
508 267
507 266
507 265
507 264
508 263
509 262
510 262
511 261
512 261
513 260
514 260
515 260
516 260
517 260
518 260
519 260
520 260
521 260
522 260
523 260
524 259
525 259
526 259
527 259
528 259
529 259
530 259
531 259
532 259
533 259
534 259
535 259
536 259
537 259
538 259
539 259
540 259
541 259
542 259
543 259
544 259
545 259
546 259
547 259
548 259
549 259
550 259
551 259
552 259
553 259
554 259
555 259
556 259
557 259
558 259
559 259
560 259
561 259
562 259
563 259
564 259
565 259
566 259
567 259
568 259
569 259
570 259
571 259
572 259
573 259
574 260
575 260
576 260
577 260
578 260
579 260
580 260
581 260
582 260
583 260
584 260
585 260
586 260
587 260
588 260
589 260
590 260
591 260
592 260
593 260
594 260
595 260
596 260
597 260
598 260
599 260
600 261
601 261
602 261
603 261
604 261
605 261
606 261
607 261
608 261
609 261
610 261
611 261
612 261
613 261
614 261
615 261
616 261
617 261
618 261
619 261
620 261
621 261
622 261
623 261
624 261
625 261
626 262
627 262
628 262
629 262
630 262
631 262
632 262
633 262
634 262
635 262
636 262
637 262
638 262
639 262
640 262
641 262
642 262
643 262
644 263
645 263
646 263
647 263
648 263
649 263
650 263
651 263
652 263
653 263
654 263
655 263
656 263
657 263
658 263
659 263
660 263
661 263
662 263
663 263
664 264
665 264
666 264
667 264
668 264
669 264
670 264
671 264
672 264
673 264
674 264
675 264
676 264
677 264
678 264
679 264
680 264
681 264
682 264
683 264
684 265
685 265
686 265
687 265
688 265
689 265
690 265
691 265
692 265
693 265
694 265
695 265
696 265
697 265
698 265
699 265
700 265
701 265
702 265
703 265
704 266
705 266
706 266
707 266
708 266
709 266
710 266
711 266
712 267
713 267
714 267
715 267
716 267
717 268
718 268
719 268
720 268
721 268
722 269
723 269
724 270
725 270
726 270
727 271
728 271
729 272
730 272
731 273
732 273
733 273
734 274
735 274
736 275
737 275
738 276
739 276
740 276
741 277
742 277
743 277
744 277
745 277
746 277
747 277
748 277
749 277
750 277
751 277
752 277
753 277
754 277
755 277
756 277
757 277
758 277
759 277
760 277
761 277
762 277
763 277
764 277
765 276
765 275
765 274
765 273
765 272
765 271
765 270
765 269
765 268
765 267
764 266
763 266
762 266
761 265
760 265
759 265
758 265
757 265
756 264
755 264
754 264
753 264
752 264
751 264
750 263
749 263
748 263
747 263
746 263
745 263
744 263
743 263
742 263
741 263
740 262
739 262
738 262
737 262
736 262
735 262
734 261
733 261
732 261
731 261
730 261
729 261
728 261
727 261
726 261
725 261
724 261
723 261
722 261
721 261
720 261
719 261
718 261
717 261
716 261
715 261
714 261
713 261
712 261
711 261
710 261
709 261
708 261
707 261
706 261
705 261
704 261
703 261
702 261
701 261
700 261
699 261
698 261
697 261
696 261
695 261
694 261
693 261
692 261
691 261
690 261
689 261
688 261
687 261
686 261
685 261
684 261
683 261
682 261
681 261
680 261
679 261
678 261
677 260
676 260
675 260
674 260
673 260
672 260
671 260
670 260
669 260
668 260
667 260
666 260
665 260
664 260
663 260
662 260
661 260
660 260
659 260
658 259
657 259
656 259
655 259
654 259
653 259
652 259
651 259
650 259
649 259
648 259
647 259
646 259
645 259
644 259
643 259
642 259
641 259
640 259
639 259
638 259
637 259
636 259
635 258
634 258
633 258
632 258
631 258
630 258
629 258
628 258
627 258
626 258
625 258
624 258
623 258
622 258
621 258
620 258
619 258
618 258
617 258
616 258
615 258
614 258
613 258
612 258
611 257
610 257
609 256
608 255
607 254
608 253
609 252
610 251
611 251
612 250
613 250
614 250
615 250
616 250
617 250
618 250
619 250
620 249
621 249
622 249
623 249
624 249
625 249
626 249
627 249
628 249
629 249
630 248
631 248
632 248
633 248
634 248
635 248
636 248
637 247
638 247
639 247
640 247
641 247
642 247
643 247
644 246
645 246
646 246
647 246
648 246
649 246
650 245
651 245
652 245
653 245
654 245
655 245
656 244
657 244
658 244
659 244
660 244
661 244
662 243
663 243
664 243
665 243
666 243
667 243
668 243
669 243
670 243
671 243
672 244
673 244
674 245
675 245
676 246
677 246
678 246
679 247
680 247
681 247
682 247
683 247
684 247
685 247
686 247
687 247
688 247
689 247
690 247
691 247
692 247
693 247
694 247
695 247
696 247
697 247
697 246
697 245
697 244
698 243
698 242
698 241
698 240
698 239
698 238
698 237
698 236
698 235
698 234
698 233
698 232
697 232
696 232
695 232
694 232
693 232
692 232
691 232
690 232
689 232
688 232
687 232
686 232
685 232
684 232
683 232
682 232
681 232
680 232
679 232
678 233
677 233
676 233
675 233
674 233
673 233
672 233
671 233
670 233
669 233
668 234
667 234
666 234
665 234
664 234
663 234
662 234
661 235
660 235
659 236
658 236
657 237
656 237
655 238
654 238
653 238
652 238
651 239
650 239
649 239
648 240
647 240
646 240
645 240
644 241
643 241
642 241
641 241
640 241
639 242
638 242
637 242
636 242
635 242
634 243
633 243
632 243
631 243
630 243
629 243
628 243
627 244
626 244
625 244
624 244
623 244
622 244
621 244
620 244
619 245
618 245
617 245
616 245
615 245
614 245
613 246
612 246
611 246
610 246
609 246
608 246
607 246
606 246
605 246
604 246
603 246
602 247
601 247
600 247
599 247
598 247
597 247
596 247
595 247
594 247
593 248
592 248
591 248
590 248
589 248
588 248
587 248
586 248
585 248
584 248
583 249
582 249
581 249
580 249
579 249
578 249
577 249
576 249
575 249
574 249
573 249
572 250
571 250
570 250
569 250
568 250
567 250
566 250
565 250
564 250
563 250
562 250
561 250
560 250
559 250
558 250
557 250
556 251
555 251
554 251
553 251
552 251
551 251
550 251
549 251
548 251
547 251
546 251
545 251
544 251
543 251
542 251
541 251
540 251
539 252
538 252
537 252
536 252
535 252
534 252
533 252
532 252
531 252
530 252
529 252
528 252
527 252
526 252
525 252
524 252
523 252
522 253
521 253
520 253
519 253
518 253
517 253
516 253
515 253
514 253
513 253
512 253
511 253
510 253
509 253
508 253
507 254
506 254
505 254
504 254
503 254
502 254
501 254
500 254
499 253
498 253
497 252
496 251
495 250
495 249
495 248
495 247
496 246
496 245
497 244
497 243
497 242
498 241
498 240
498 239
499 238
499 237
499 236
500 235
500 234
501 233
501 232
502 231
502 230
502 229
503 228
503 227
503 226
504 225
504 224
505 223
505 222
505 221
506 220
506 219
507 218
507 217
508 216
508 215
509 214
510 213
510 212
511 211
512 210
512 209
513 208
513 207
514 206
515 205
516 204
517 204
518 203
519 202
520 202
521 201
522 201
523 200
524 199
525 199
526 198
527 197
528 197
529 196
530 195
531 194
532 193
533 192
534 191
535 190
536 190
537 189
538 188
539 187
540 186
541 185
542 184
543 183
544 182
545 181
546 180
547 179
548 178
549 177
550 176
551 175
552 174
552 173
553 172
554 171
555 170
556 169
557 168
557 167
558 166
559 165
560 164
560 163
561 162
562 161
562 160
563 159
564 158
564 157
565 156
566 155
566 154
567 153
568 152
568 151
569 150
569 149
570 148
570 147
571 146
571 145
572 144
572 143
572 142
572 141
572 140
572 139
572 138
572 137
572 136
572 135
572 134
572 133
571 133
570 133
569 133
568 133
567 133
566 133
565 133
564 134
563 135
562 135
561 136
560 136
559 137
558 137
557 138
556 138
555 139
554 139
553 140
552 140
551 141
550 141
549 142
548 142
547 143
546 142
545 142
544 141
543 141
542 140
542 139
541 138
541 137
540 136
540 135
539 134
539 133
539 132
539 131
539 130
539 129
539 128
539 127
540 126
540 125
540 124
541 123
541 122
541 121
541 120
541 119
541 118
541 117
541 116
541 115
541 114
541 113
541 112
541 111
541 110
541 109
540 109
539 109
538 109
537 109
536 109
535 109
534 110
533 110
532 110
531 110
530 109
529 108
528 107
528 106
527 105
526 104
525 103
525 102
524 101
523 100
522 99
521 98
520 97
520 96
519 95
518 94
517 93
516 92
515 91
514 90
513 89
513 88
512 87
511 86
510 85
509 85
508 84
507 83
506 82
505 81
505 80
504 79
503 78
502 77
501 77
500 76
499 75
499 74
498 73
497 72
496 71
495 70
494 69
493 68
492 67
491 66
490 65
489 64
488 63
487 62
486 61
485 61
484 60
483 59
482 58
481 57
480 56
479 55
478 55
477 54
476 53
475 52
474 51
473 50
472 50
471 49
470 48
469 47
468 47
467 46
466 45
465 44
464 44
463 43
462 42
461 41
460 40
459 40
458 39
457 38
456 37
455 36
454 35
453 34
452 33
451 32
450 31
449 31
448 31
447 31
446 31
445 31
444 31
443 31
442 31
441 30
440 30
439 29
439 28
438 27
437 26
437 25
436 24
435 23
435 22
434 22
433 22
432 22
432 23
432 24
432 25
432 26
432 27
432 28
432 29
432 30
432 31
432 32
431 33
431 34
430 35
430 36
430 37
429 38
429 39
428 40
428 41
427 42
427 43
426 44
426 45
426 46
425 47
425 48
424 49
424 50
423 51
423 52
423 53
422 54
422 55
421 56
421 57
421 58
420 59
420 60
419 61
419 62
418 63
418 64
417 65
417 66
416 67
415 68
415 69
414 70
413 70
412 71
411 71
410 72
409 72
408 72
407 71
406 71
405 70
404 69
403 68
402 67
402 66
401 65
400 65
399 65
398 65
397 65
396 65
395 65
394 65
393 65
392 65
391 65
390 65
389 65
388 65
387 65
386 65
385 65
384 64
383 64
382 63
381 63
380 62
379 62
378 61
377 61
376 60
375 59
374 58
373 58
372 57
371 56
370 56
369 55
368 54
367 54
366 53
365 52
364 52
363 51
362 50
361 49
360 48
359 47
358 46
357 45
356 44
355 43
354 42
353 41
353 40
352 40
351 40
350 40
349 40
348 40
347 40
346 40
345 40
344 40
343 40
342 41
341 41
340 42
340 43
339 44
339 45
339 46
338 47
338 48
337 49
337 50
336 51
336 52
335 53
334 53
333 54
332 54
331 55
330 55
329 56
328 56
327 57
326 57
325 57
324 57
323 57
322 56
321 56
320 56
319 56
318 56
317 56
316 55
315 55
314 55
313 55
312 55
311 55
310 55
309 54
308 54
307 54
306 54
305 54
304 54
303 54
302 54
301 54
300 53
299 53
298 53
297 53
296 53
295 53
294 53
293 53
292 53
291 52
290 52
289 52
288 52
287 52
286 52
285 52
284 52
283 52
282 52
281 52
280 51
279 51
278 51
277 51
276 51
275 51
274 51
273 51
272 51
271 51
270 51
269 51
268 51
267 51
266 51
265 51
264 51
263 51
262 51
261 51
260 51
259 51
258 51
257 51
256 51
255 51
254 51
253 51
252 51
251 51
250 51
249 51
248 51
247 52
246 52
245 52
244 52
243 52
242 52
241 52
240 52
239 52
238 51
237 51
236 51
235 51
234 51
233 51
232 51
231 51
230 51
229 51
228 51
227 51
226 51
225 51
224 51
223 51
222 50
221 50
220 50
219 50
218 50
217 50
216 50
215 49
214 49
213 49
212 48
211 48
210 47
209 47
208 46
207 46
206 45
205 45
204 44
203 43
202 43
201 42
200 41
199 41
198 41
197 41
196 41
195 41
194 41
194 42
194 43
194 44
194 45
194 46
194 47
195 48
195 49
196 50
197 51
198 52
199 53
200 54
201 55
202 56
203 57
204 58
205 58
206 59
207 60
208 61
209 62
210 63
211 64
212 65
213 66
214 67
215 68
216 69
216 70
217 71
218 72
219 73
220 74
221 75
222 76
223 77
223 78
224 79
225 80
226 81
227 82
228 83
228 84
229 85
230 86
230 87
231 88
232 89
233 90
234 91
235 92
235 93
236 94
237 95
237 96
238 97
239 98
239 99
240 100
240 101
241 102
242 103
242 104
243 105
244 106
245 107
245 108
246 109
247 110
248 111
248 112
249 113
249 114
250 115
251 116
251 117
252 118
252 119
253 120
254 121
255 122
255 123
256 124
256 125
257 126
258 127
258 128
259 129
260 130
260 131
261 132
262 133
263 134
263 135
264 136
265 137
266 138
267 139
268 140
269 141
270 142
271 143
272 144
273 145
273 146
274 147
274 148
275 149
276 150
277 151
277 152
278 153
279 154
279 155
280 156
280 157
281 158
281 159
282 160
282 161
282 162
282 163
281 164
280 165
279 166
278 166
277 167
276 167
275 168
274 168
273 169
272 169
271 169
270 170
269 170
268 170
267 170
266 170
265 171
264 171
263 171
262 171
261 171
260 171
259 171
258 171
257 172
256 172
255 172
254 172
253 172
252 172
251 172
250 172
249 172
248 172
247 172
246 172
245 172
244 172
243 172
242 172
241 172
240 171
239 171
238 171
237 171
236 171
235 171
234 171
233 171
232 171
231 171
230 171
229 171
228 171
227 171
226 171
225 171
224 171
223 171
222 171
221 171
220 171
219 171
218 171
217 170
216 170
215 170
214 170
213 170
212 170
211 170
210 170
209 170
208 170
207 170
206 169
205 169
204 169
203 169
202 169
201 169
200 169
199 169
198 169
197 169
196 169
195 169
194 169
193 169
192 169
191 169
190 169
189 169
188 169
187 169
186 169
185 169
184 169
183 169
182 169
181 169
181 170
181 171
181 172
181 173
181 174
182 175
183 175
184 176
185 176
186 177
187 178
188 178
189 179
190 179
191 180
192 180
193 181
194 182
195 183
196 183
197 184
198 185
199 186
200 187
200 188
201 189
201 190
202 191
202 192
203 193
203 194
203 195
202 196
202 197
201 198
201 199
200 200
200 201
199 202
198 203
197 204
196 205
195 206
194 207
193 208
192 208
191 209
190 210
189 211
188 212
187 213
186 213
185 214
184 215
183 215
182 216
181 216
180 217
179 218
178 219
177 219
176 220
175 220
174 221
173 221
172 222
171 222
170 223
169 223
168 224
167 225
166 225
165 226
164 226
163 227
162 227
161 228
160 228
159 229
158 229
157 230
156 231
155 231
154 232
153 232
152 233
151 233
150 234
149 235
148 235
147 236
146 236
145 237
144 237
143 238
142 238
141 239
140 240
139 240
138 241
137 242
136 242
135 243
134 244
133 244
132 245
