324 114
323 115
322 116
322 117
323 118
323 119
323 120
322 121
321 121
320 121
319 121
318 121
317 121
316 121
315 121
314 121
313 121
312 121
311 120
310 120
309 120
308 120
307 120
306 120
305 120
304 120
303 120
302 121
301 121
301 122
301 123
300 124
299 124
298 125
297 125
296 125
295 125
294 124
293 124
292 124
291 124
290 124
289 124
288 124
287 124
286 124
285 123
284 124
283 124
282 124
281 124
280 124
279 124
278 124
277 124
276 124
275 124
274 125
273 125
273 126
272 127
273 128
273 129
272 130
271 130
270 130
269 130
268 130
267 130
266 130
265 130
264 130
263 130
262 130
261 130
260 130
259 130
258 130
257 130
256 129
255 129
254 129
253 129
252 129
251 130
250 131
249 131
248 131
247 131
246 131
245 131
244 131
243 131
242 130
241 130
240 130
239 130
238 130
237 130
236 130
235 130
234 130
233 130
232 130
231 130
230 130
229 130
228 131
227 132
227 133
228 134
228 135
227 136
226 136
225 137
224 137
223 137
222 137
221 137
220 137
219 137
218 137
217 137
216 137
215 137
214 137
213 137
212 136
211 136
210 136
209 136
208 136
207 136
206 136
205 137
205 138
205 139
204 140
203 141
202 141
201 141
200 141
199 141
198 141
197 141
196 141
195 141
194 141
193 141
192 141
191 141
190 141
189 141
188 141
187 141
186 141
185 141
184 141
183 141
182 141
181 141
180 141
179 141
178 142
177 143
177 144
177 145
177 146
177 147
177 148
176 149
175 149
174 149
173 149
172 149
171 149
170 149
169 149
168 149
167 149
166 149
165 149
164 149
163 149
162 149
161 149
160 149
160 150
160 151
160 152
159 153
158 154
157 154
156 154
155 154
154 155
153 155
152 155
151 155
150 155
149 155
148 155
147 156
146 156
145 156
144 156
143 156
142 157
141 157
140 157
139 157
138 157
137 157
136 158
135 159
134 160
135 161
135 162
135 163
135 164
134 165
133 165
132 166
131 166
130 166
129 167
128 167
127 168
126 168
125 168
124 169
123 169
122 169
121 169
120 170
119 170
118 170
117 171
116 171
115 171
114 172
113 172
112 173
111 173
110 174
109 174
108 175
107 175
106 176
105 177
105 178
105 179
105 180
106 181
106 182
106 183
106 184
105 185
104 186
103 187
102 187
101 188
100 189
99 189
98 190
97 190
96 191
95 192
94 192
93 193
92 193
91 194
90 195
89 196
88 196
87 197
86 198
85 199
84 199
84 200
83 201
83 202
83 203
84 204
84 205
85 206
85 207
85 208
84 209
83 210
82 211
81 212
80 213
79 214
78 215
77 216
77 217
76 218
75 219
74 220
73 221
72 222
71 223
70 224
69 225
69 226
68 227
68 228
67 229
67 230
68 231
68 232
67 233
67 234
66 235
65 236
64 237
63 238
62 239
61 240
60 241
60 242
59 243
58 244
57 245
56 246
55 247
54 248
54 249
53 250
53 251
52 252
52 253
52 254
52 255
52 256
52 257
52 258
52 259
52 260
52 261
53 262
53 263
53 264
54 265
54 266
54 267
55 268
55 269
55 270
56 271
56 272
57 273
57 274
57 275
58 276
58 277
58 278
59 279
59 280
59 281
60 282
60 283
60 284
61 285
61 286
62 287
62 288
63 289
63 290
64 291
65 292
66 293
66 294
67 295
68 296
68 297
69 298
69 299
70 300
71 301
71 302
72 303
72 304
72 305
72 306
72 307
71 308
71 309
71 310
71 311
71 312
72 313
73 314
73 315
74 316
75 317
75 318
76 319
77 320
77 321
78 321
79 322
80 323
81 324
82 325
83 326
84 327
85 328
85 329
86 330
87 331
87 332
87 333
87 334
87 335
87 336
88 337
89 338
90 339
91 340
91 341
92 342
93 343
94 343
95 344
96 345
97 346
98 346
99 347
100 348
101 349
102 350
103 351
104 352
105 353
105 354
106 355
106 356
107 357
108 358
109 358
110 359
111 360
112 361
113 361
114 362
115 362
116 363
117 363
118 364
119 365
120 366
120 367
120 368
121 369
121 370
122 371
123 372
124 372
125 373
126 373
127 374
128 374
129 375
130 375
131 376
132 376
133 377
134 377
135 377
136 378
137 378
138 378
139 379
140 380
140 381
141 382
142 383
143 384
144 384
145 385
146 385
147 386
148 386
149 387
150 387
151 387
152 388
153 388
154 388
155 388
156 389
157 389
158 389
159 390
160 390
161 390
162 390
163 391
163 392
163 393
163 394
163 395
164 396
165 397
166 397
167 398
168 399
169 399
170 400
171 400
172 400
173 401
174 401
175 402
176 402
177 403
178 403
179 404
180 404
181 404
182 404
183 405
184 405
185 405
186 406
187 407
187 408
188 409
189 410
190 411
191 412
192 412
193 413
194 413
195 413
196 414
197 414
198 414
199 415
200 415
201 415
202 415
203 416
204 416
205 416
206 416
207 416
208 417
209 417
210 417
211 417
212 417
213 417
214 418
215 418
216 418
217 419
218 420
219 421
220 421
221 422
222 422
223 423
224 423
225 423
226 423
227 423
228 424
229 424
230 424
231 424
232 424
233 425
234 425
235 425
236 425
237 425
238 425
239 425
240 425
241 425
242 425
243 425
244 426
245 426
246 426
247 426
248 426
249 426
250 426
251 426
252 427
253 428
254 428
255 429
256 429
257 430
258 430
259 430
260 430
261 430
262 431
263 431
264 431
265 431
266 431
267 431
268 431
269 431
270 431
271 431
272 431
273 431
274 431
275 431
276 431
277 431
278 431
279 431
280 431
281 431
282 431
283 432
284 432
285 433
286 433
287 433
288 433
289 433
290 433
291 433
292 433
293 433
294 433
295 433
296 433
297 433
298 433
299 433
300 433
301 432
302 432
303 432
304 432
305 432
306 432
307 432
308 431
309 431
310 431
311 431
312 431
313 431
314 431
315 431
316 431
317 431
318 431
319 431
320 431
321 432
322 432
323 432
324 431
325 431
326 431
327 431
328 431
329 431
330 430
331 430
332 430
333 430
334 430
335 430
336 430
337 430
338 430
339 430
340 430
341 430
342 430
343 430
344 430
345 430
346 430
347 430
348 430
349 430
350 430
351 430
352 430
353 429
354 429
355 429
356 429
357 428
358 428
359 428
360 427
361 427
362 427
363 426
364 426
365 426
366 426
367 426
368 426
369 425
370 425
371 425
372 425
373 425
374 424
375 424
376 424
377 423
378 423
379 423
380 422
381 422
382 422
383 421
384 421
385 421
386 420
387 420
388 420
389 420
390 420
391 420
392 420
393 420
394 420
395 420
396 420
397 420
398 420
399 420
400 420
401 419
402 419
403 419
404 419
405 418
406 418
407 418
408 417
409 417
410 417
411 416
412 416
413 416
414 416
415 415
416 415
417 414
418 414
419 414
420 413
421 413
422 413
423 412
424 412
425 412
426 411
427 411
428 410
429 410
430 410
431 409
432 409
433 409
434 408
435 408
436 408
437 408
438 408
439 408
440 408
441 408
442 408
443 407
444 407
445 407
446 406
447 406
448 405
449 405
450 404
451 404
452 403
453 402
454 402
455 401
456 401
457 400
458 400
459 399
460 399
461 398
462 398
463 397
464 397
465 396
466 396
467 396
468 395
469 395
470 395
471 395
472 394
473 394
474 394
475 393
476 393
477 392
478 392
479 392
480 391
481 391
482 391
483 391
484 390
485 390
486 390
487 390
488 390
489 390
490 389
491 389
492 388
493 388
494 388
495 387
496 386
497 386
498 385
499 384
500 384
501 384
502 383
503 383
504 382
505 381
506 381
507 380
508 380
509 379
510 378
511 378
512 377
513 376
514 376
515 375
516 374
517 374
518 373
519 373
520 372
521 371
522 371
523 371
524 370
525 370
526 369
527 369
528 369
529 369
530 368
531 368
532 367
533 366
534 366
535 365
536 365
537 364
538 364
539 363
540 363
541 362
542 362
543 361
544 360
545 360
546 359
547 359
548 358
549 358
550 358
551 357
552 357
553 356
554 356
555 355
556 354
557 354
558 353
559 352
560 352
561 351
562 351
563 350
564 350
565 349
566 349
567 348
568 348
569 348
570 347
571 347
572 346
573 346
574 346
575 345
576 345
577 344
578 343
579 342
580 342
581 341
582 340
583 339
584 338
585 338
586 338
587 337
588 336
589 336
590 335
591 334
592 334
593 334
594 333
595 332
596 332
597 331
598 330
599 330
600 329
601 329
602 328
603 327
604 327
605 326
606 326
607 325
608 325
609 324
610 323
611 322
612 321
613 321
614 320
615 320
616 319
617 318
618 318
619 317
620 316
621 315
622 315
623 314
624 314
624 313
625 312
626 311
627 311
628 310
629 309
630 309
631 308
632 307
633 306
634 306
635 305
636 304
637 304
638 303
639 303
640 302
641 302
642 302
643 301
644 301
645 301
646 300
647 300
648 299
649 299
650 299
651 299
652 299
653 298
654 298
655 298
656 298
657 297
658 297
659 297
660 297
661 297
662 297
663 297
664 297
665 297
666 297
667 297
668 296
669 296
670 296
671 296
672 296
673 296
674 296
675 296
676 296
677 296
678 296
679 295
680 295
681 295
682 295
683 295
684 295
685 295
686 295
687 295
688 295
689 295
690 295
691 295
692 295
693 295
694 295
695 294
696 294
697 294
698 294
699 294
700 294
701 294
702 294
703 294
704 294
705 294
706 294
707 293
708 293
709 293
710 293
711 293
712 293
713 292
714 292
715 291
716 290
717 289
718 288
719 288
719 287
720 286
721 285
722 284
723 283
724 282
724 281
724 280
724 279
724 278
725 277
724 276
723 276
722 276
721 276
720 276
719 276
718 276
717 275
716 275
715 275
714 276
713 276
712 275
711 275
710 275
709 275
708 275
707 275
706 275
705 275
704 275
703 275
702 275
701 275
700 275
699 275
698 274
697 274
696 274
695 274
694 274
693 274
692 274
691 274
690 273
689 273
688 273
687 273
686 273
685 273
684 273
683 273
682 273
681 273
680 273
679 273
678 273
677 273
676 272
675 272
674 272
673 272
672 272
671 272
670 272
669 272
668 271
667 271
666 271
665 271
664 271
663 270
662 270
661 269
660 269
659 269
658 269
657 269
656 269
655 269
654 269
653 269
652 268
651 268
650 268
649 268
648 267
647 267
646 266
645 265
644 264
643 264
642 263
642 262
641 262
640 261
639 260
638 259
637 258
636 257
635 256
634 255
633 254
632 253
631 252
630 251
629 250
628 249
627 248
626 247
625 247
624 246
623 245
622 244
621 243
620 242
619 242
618 241
617 240
616 239
615 238
614 237
613 237
612 236
611 235
610 234
609 233
608 233
607 232
606 231
605 231
604 230
603 229
602 229
601 228
600 227
599 226
598 225
597 224
596 224
595 223
594 222
593 221
592 220
591 219
590 219
589 218
588 217
587 216
586 215
585 214
584 213
583 212
582 211
581 210
580 210
579 210
578 210
577 209
576 209
575 209
574 208
573 207
572 207
571 206
570 206
569 205
568 205
567 204
566 203
565 203
564 202
563 201
562 200
561 200
560 199
559 198
558 197
557 196
556 196
555 195
554 194
553 193
552 192
551 191
550 191
549 191
548 190
547 190
546 189
545 188
544 187
543 186
542 186
541 185
540 184
539 183
538 182
537 181
536 180
535 179
534 178
534 177
533 176
532 175
531 174
530 173
529 173
528 172
527 171
526 171
525 170
524 170
523 169
522 169
521 168
520 168
519 167
518 167
517 167
516 167
515 167
514 167
513 167
512 166
511 166
510 165
509 165
508 164
507 164
506 163
505 163
504 162
503 162
502 161
501 160
500 160
499 159
498 159
497 158
496 158
495 157
494 157
493 156
492 156
491 155
490 155
489 154
488 153
487 153
486 152
485 152
484 151
483 151
482 150
481 150
480 149
479 149
478 149
477 149
476 150
475 149
474 149
473 149
472 148
471 147
470 147
469 146
468 146
467 145
466 145
465 144
464 143
463 143
462 142
461 141
460 141
459 140
458 140
457 139
456 139
455 138
454 138
453 138
452 138
451 138
450 139
449 139
448 138
447 138
446 138
445 137
444 136
443 136
442 135
441 135
440 134
439 133
438 133
437 132
436 132
435 131
434 131
433 131
432 131
431 131
430 131
429 130
428 130
427 130
426 129
425 129
424 129
423 128
422 127
421 127
420 126
419 126
418 126
417 125
416 125
415 124
414 124
413 124
412 123
411 123
410 122
409 122
408 122
407 122
406 121
405 121
404 121
403 121
402 121
401 122
402 123
401 124
400 125
399 125
398 125
397 125
396 124
395 124
394 124
393 124
392 123
391 123
390 122
389 122
388 122
387 121
386 121
385 121
384 120
383 120
382 120
381 120
380 121
379 122
378 122
377 122
376 122
375 122
374 121
373 121
372 121
371 121
370 120
369 120
368 119
367 119
366 119
365 118
364 118
363 118
362 118
361 118
360 118
359 119
358 120
357 120
356 120
355 119
354 119
353 119
352 119
351 118
350 118
349 118
348 117
347 117
346 116
345 116
344 116
343 116
342 116
341 115
340 115
339 115
338 115
337 115
336 115
335 114
334 114
333 114
332 114
331 114
330 114
329 114
328 114
327 114
326 114
325 114
324 114
