356 44
357 45
356 46
356 47
355 48
355 49
355 50
354 51
354 52
353 53
354 54
354 55
353 56
352 55
351 55
350 56
349 56
350 57
350 58
350 59
350 60
350 61
350 62
350 63
350 64
350 65
350 66
350 67
350 68
349 69
348 68
347 67
346 67
345 66
344 66
343 66
342 66
341 65
340 65
339 64
338 64
337 64
336 64
335 63
334 62
333 62
332 62
331 61
331 62
330 63
329 64
328 65
327 64
326 64
325 63
324 62
323 61
322 60
321 59
320 58
320 59
320 60
319 61
318 62
317 61
317 60
316 60
315 59
314 59
313 58
312 58
311 58
310 57
309 57
308 58
307 57
307 58
307 59
307 60
306 61
306 62
305 63
305 64
304 65
304 66
303 67
302 67
301 66
300 66
299 65
298 65
297 64
296 64
295 63
294 63
293 62
292 61
291 61
290 61
289 60
289 59
288 59
287 59
288 59
289 60
288 61
287 61
286 61
285 62
285 63
284 64
283 63
282 63
281 62
280 62
279 61
278 61
277 61
276 60
275 60
274 59
273 60
272 59
271 58
270 58
269 57
268 57
267 56
268 57
267 58
267 59
267 60
267 61
266 62
265 63
264 63
264 64
263 65
263 66
262 67
261 66
260 66
259 66
258 65
257 65
256 65
255 64
254 64
253 63
252 63
251 62
250 61
250 62
249 63
248 63
248 64
247 65
246 65
245 64
244 64
243 63
242 63
241 62
240 62
239 62
238 63
237 62
236 62
235 61
236 62
235 63
235 64
234 65
234 66
233 67
233 68
233 69
233 70
232 71
231 70
230 70
229 70
228 70
227 70
226 69
225 69
224 69
223 69
222 69
221 69
220 68
219 68
218 68
218 69
218 70
218 71
217 72
216 72
215 71
214 71
213 71
212 72
211 72
210 72
210 73
210 74
209 75
208 74
207 74
207 75
207 76
207 77
207 78
208 79
208 80
208 81
208 82
208 83
209 84
209 85
209 86
210 86
211 87
210 88
209 88
208 89
207 90
206 90
206 91
205 92
204 92
203 92
204 92
205 93
206 94
206 95
207 96
207 97
207 98
208 99
208 100
209 101
210 102
209 103
208 103
207 103
206 102
205 102
204 102
205 103
205 104
204 105
203 104
202 103
201 102
200 102
199 102
199 103
198 104
199 105
199 106
198 107
197 106
196 105
195 105
194 105
193 105
192 105
191 105
190 105
189 105
188 105
187 104
186 104
187 105
186 106
187 107
186 108
186 109
186 110
185 111
185 112
184 113
184 114
183 115
182 114
181 114
180 114
179 114
178 113
177 113
176 113
175 113
174 112
173 113
172 114
171 114
170 114
169 114
168 113
167 113
166 113
165 113
164 113
163 113
164 114
164 115
164 116
164 117
163 118
164 119
164 120
163 121
162 120
161 119
160 119
159 118
158 118
157 118
156 118
155 118
154 118
153 117
152 118
151 118
150 118
149 118
148 118
147 118
146 118
145 118
144 118
143 118
142 117
142 118
143 119
143 120
144 121
144 122
144 123
145 124
145 125
145 126
145 127
146 128
146 129
146 130
146 131
147 132
148 132
149 133
148 134
147 134
146 134
146 135
145 136
144 137
143 138
142 137
142 138
143 138
144 139
144 140
145 141
145 142
145 143
146 144
146 145
147 146
147 147
148 148
149 149
148 150
147 150
146 150
145 150
144 150
143 151
142 151
142 152
143 153
142 154
141 154
140 153
139 153
138 153
137 153
136 153
135 153
134 153
133 153
132 153
131 152
131 153
132 153
133 153
134 154
133 155
132 155
132 156
132 157
133 158
132 159
132 160
131 161
131 162
131 163
132 164
131 165
130 165
129 164
128 164
127 163
126 163
125 163
124 163
123 163
122 164
121 164
120 164
119 163
118 163
117 163
116 163
115 162
115 163
116 164
116 165
116 166
115 167
115 168
114 169
113 169
112 169
111 170
110 170
109 170
108 170
107 170
106 170
105 171
104 171
103 171
102 171
102 172
103 172
104 173
105 173
106 174
105 175
106 176
107 177
107 178
108 179
109 180
110 180
111 181
110 182
109 182
109 183
109 184
108 185
107 186
106 186
106 187
107 187
108 188
109 189
110 190
110 191
111 192
112 193
113 194
114 195
115 196
116 197
115 198
114 198
113 199
112 199
111 200
110 201
109 201
108 202
107 202
106 203
105 203
104 203
103 203
102 203
103 204
104 205
105 206
105 207
104 208
104 209
105 210
105 211
104 212
103 211
102 211
101 211
100 210
99 211
98 211
97 211
96 210
95 210
96 211
96 212
95 213
95 214
94 215
93 214
92 214
91 214
90 214
89 215
88 214
89 215
89 216
88 217
87 217
86 216
85 217
84 216
83 216
82 216
81 216
80 217
79 217
78 218
79 218
80 219
81 220
80 221
81 222
82 223
82 224
83 225
84 226
83 227
83 228
82 229
81 230
82 230
83 231
84 232
85 233
86 234
86 235
87 235
88 236
87 237
86 237
85 238
84 238
83 238
82 238
81 238
81 239
81 240
80 241
79 240
78 240
77 240
76 240
75 240
74 240
73 240
74 241
74 242
74 243
74 244
74 245
74 246
73 247
72 246
71 246
70 246
69 246
68 246
67 245
66 245
65 246
64 246
63 245
62 245
61 245
60 245
59 246
58 246
59 247
59 248
60 249
60 250
60 251
60 252
60 253
60 254
60 255
61 256
62 257
61 258
60 258
59 258
58 258
57 258
56 258
55 259
54 259
53 259
52 259
51 259
50 258
49 259
48 260
47 260
46 259
45 259
44 260
43 260
42 260
41 260
40 259
40 260
41 261
41 262
41 263
42 264
43 265
42 266
42 267
41 268
40 269
39 270
38 270
37 269
36 268
35 267
34 266
33 266
32 266
31 265
30 265
29 265
28 265
27 265
26 265
25 266
24 266
24 267
24 268
23 269
22 269
22 270
23 271
23 272
24 272
25 273
25 274
24 275
24 276
24 277
24 278
24 279
25 279
26 279
27 279
28 280
29 280
30 280
31 280
32 280
33 281
32 282
32 283
33 283
34 283
35 283
36 283
37 284
38 284
39 285
40 285
41 285
42 286
43 286
44 286
45 287
46 288
45 289
45 290
44 291
44 292
43 293
42 294
43 294
44 294
45 294
46 295
47 295
48 295
49 296
48 297
49 296
50 297
51 297
52 297
53 298
54 299
53 300
53 301
54 301
55 300
56 301
57 302
58 302
59 303
60 303
61 303
62 303
63 304
64 304
65 305
66 306
67 306
68 307
69 307
70 307
71 307
72 308
72 309
71 310
71 311
70 312
70 313
69 314
69 315
68 316
68 317
67 318
66 318
67 319
68 319
69 319
70 319
71 319
72 320
72 321
73 321
74 322
75 322
76 322
77 323
78 323
79 323
80 324
80 325
79 326
78 327
78 328
79 328
80 328
81 328
82 329
83 329
84 330
85 330
86 330
87 331
88 331
89 332
89 333
90 334
91 334
92 335
93 335
94 335
95 336
96 337
96 338
95 339
94 340
94 341
93 342
92 343
91 344
91 345
92 346
93 347
93 348
94 348
95 349
94 350
93 351
93 352
93 353
92 354
92 355
91 356
91 357
90 358
89 359
90 359
91 358
92 359
93 359
94 359
95 360
95 361
96 361
97 361
98 362
99 362
100 362
101 362
102 363
102 364
102 365
102 366
102 367
103 366
104 366
105 366
106 367
107 368
108 369
109 369
110 369
111 369
112 369
113 369
114 369
115 369
116 370
116 371
116 372
116 373
116 374
115 375
114 376
113 377
113 378
114 378
115 378
116 379
117 379
118 380
119 381
120 382
120 383
121 383
122 384
123 384
124 385
125 385
126 386
127 386
128 386
129 387
128 388
127 389
126 390
125 391
125 392
124 393
124 394
123 395
123 396
122 397
121 398
120 399
121 399
122 399
123 400
123 401
124 402
125 403
126 404
125 405
125 406
124 407
123 408
123 409
123 410
122 411
122 412
122 413
122 414
121 415
121 416
120 417
121 417
122 417
123 417
124 418
124 419
125 419
126 420
127 420
128 420
129 420
130 420
131 420
132 420
133 420
134 420
135 421
136 422
136 423
136 424
136 425
137 426
136 427
136 428
137 428
138 428
139 428
140 428
141 428
142 428
143 429
143 430
144 430
145 430
146 430
147 429
148 429
149 429
150 429
151 429
152 429
153 429
154 429
155 429
156 430
156 431
156 432
157 433
156 434
156 435
155 436
155 437
156 437
157 436
158 436
159 437
160 438
160 439
161 440
162 440
163 440
164 441
165 441
166 441
167 441
168 442
169 442
170 443
171 442
172 443
173 443
174 443
175 443
176 444
175 445
175 446
174 447
174 448
174 449
174 450
174 451
174 452
175 452
176 453
175 454
174 454
173 454
174 455
173 456
173 457
173 458
172 459
173 459
174 460
175 461
176 462
177 463
178 464
177 465
177 466
176 467
176 468
176 469
175 470
175 471
175 472
176 473
176 474
176 475
176 476
176 477
176 478
176 479
176 480
177 481
178 480
179 479
180 479
181 480
182 480
183 480
184 480
185 480
186 480
187 480
188 480
189 481
190 482
189 483
190 483
191 483
192 482
193 483
194 483
195 483
196 483
197 483
198 483
199 483
200 482
201 482
202 482
203 482
204 482
205 482
206 482
207 481
208 482
209 483
209 484
209 485
209 486
209 487
210 486
211 486
212 486
213 486
214 487
215 488
216 488
217 488
218 488
219 488
220 488
221 489
222 489
223 489
224 488
225 488
226 488
227 488
228 487
229 487
230 487
231 486
232 486
233 485
234 485
235 485
236 485
237 486
237 487
237 488
238 489
238 490
238 491
238 492
238 493
239 493
240 493
241 492
242 492
243 492
244 493
243 494
244 494
245 494
246 494
247 494
248 494
249 494
250 494
251 495
252 495
253 495
254 496
255 496
256 496
257 496
258 496
259 496
260 496
261 496
262 497
262 498
262 499
263 500
262 501
263 502
263 503
263 504
262 505
262 506
261 507
262 507
263 507
264 508
265 508
266 509
267 510
266 511
266 512
266 513
266 514
266 515
266 516
266 517
266 518
266 519
266 520
266 521
266 522
266 523
266 524
267 524
268 523
269 523
270 522
271 523
271 524
272 523
273 524
274 523
275 523
276 523
277 523
278 523
279 523
280 523
281 523
282 524
283 524
284 524
285 523
286 523
287 523
288 523
289 522
290 522
291 522
292 522
293 521
294 522
295 522
296 523
297 524
297 525
298 526
298 527
298 528
299 527
300 527
301 526
302 526
303 527
304 527
305 526
306 526
307 526
308 526
309 526
310 525
311 525
312 525
313 525
314 525
315 525
316 524
317 523
318 523
319 523
320 522
321 522
322 522
323 521
324 521
325 520
326 520
327 520
328 520
329 521
330 521
331 521
332 521
333 522
334 522
335 523
334 524
334 525
335 524
336 523
337 523
338 523
339 523
340 523
341 522
342 522
343 522
344 521
345 521
346 521
347 520
348 520
349 520
350 519
351 520
352 520
353 519
354 518
355 518
356 517
357 517
358 517
358 516
359 515
360 515
361 514
362 514
363 513
364 513
365 512
366 512
367 512
368 512
369 512
370 513
370 514
371 514
372 515
373 516
372 517
373 518
373 519
373 520
373 521
374 520
375 520
376 519
377 519
378 519
379 518
380 519
381 519
382 518
383 518
384 517
385 516
386 516
387 516
388 515
389 515
390 514
391 514
392 514
393 513
394 514
395 513
396 514
397 514
398 514
399 513
400 512
401 513
402 512
403 512
404 511
405 511
406 510
407 510
408 509
409 509
410 509
411 508
412 509
413 510
414 511
415 512
415 513
416 514
415 515
416 515
417 515
418 514
419 515
419 516
420 516
421 516
422 517
423 517
424 518
424 519
425 520
426 521
427 522
427 523
427 524
427 523
428 522
429 521
430 521
431 520
432 521
433 520
434 520
435 520
435 519
436 518
437 519
438 518
439 519
440 518
441 517
442 517
443 516
444 516
445 516
446 515
447 515
448 514
449 514
450 513
451 514
452 513
453 513
454 514
455 515
455 516
456 515
456 514
457 513
458 512
459 512
460 511
461 511
462 510
463 510
464 509
465 508
466 507
467 508
468 508
468 507
469 506
469 505
470 504
471 503
471 502
472 501
473 500
474 499
475 499
476 499
477 499
478 498
479 498
480 499
481 499
482 498
483 499
484 500
485 501
485 500
485 499
486 498
487 497
488 496
488 495
489 494
490 494
491 493
492 492
492 491
493 490
494 490
495 490
496 490
496 489
497 488
498 489
499 489
500 488
500 487
501 486
502 485
503 484
504 483
505 482
506 481
507 480
508 479
509 479
510 480
511 480
512 480
513 480
514 480
515 481
516 481
517 481
518 482
518 483
519 484
519 483
520 482
520 481
521 480
522 479
523 478
524 477
525 476
526 475
526 474
526 473
527 472
528 471
529 471
530 471
531 470
532 471
533 470
533 469
534 468
535 468
535 467
535 466
536 465
536 464
537 463
538 462
538 461
539 460
540 459
541 458
542 458
543 459
544 460
545 461
546 462
546 463
547 464
547 465
548 464
549 463
550 462
551 461
552 460
553 460
554 459
554 458
555 457
556 456
556 455
557 454
558 455
559 455
560 455
560 454
561 453
561 452
561 451
562 450
563 450
564 449
565 448
566 448
567 448
568 448
569 447
570 447
570 446
571 445
572 444
572 443
573 442
574 441
574 440
575 439
576 439
577 439
578 438
578 437
579 436
580 435
581 434
582 434
583 433
584 433
585 433
586 433
587 434
588 435
589 435
590 436
590 437
591 438
592 438
593 437
594 436
595 436
596 435
597 434
598 434
598 433
599 432
600 432
601 433
602 432
602 431
603 430
603 429
604 428
605 428
606 428
607 427
608 426
609 427
610 427
610 426
610 425
611 424
612 423
612 422
613 421
614 421
614 420
615 419
616 418
617 417
618 417
619 417
620 417
619 416
620 415
621 415
622 415
623 415
624 414
625 414
625 413
624 412
625 411
626 410
626 409
627 408
627 407
628 406
627 405
628 404
629 404
630 405
631 405
631 404
632 403
632 402
632 401
632 400
632 399
633 398
634 398
635 397
636 397
637 397
638 396
639 396
640 396
641 396
642 395
643 395
644 396
644 395
644 394
645 393
646 392
646 391
647 390
647 389
647 388
648 387
648 386
649 385
650 385
651 384
651 383
652 382
652 381
652 380
652 379
653 378
653 377
654 376
654 375
655 374
655 373
656 372
657 372
658 372
659 372
660 372
661 373
662 373
663 373
664 373
665 374
666 374
667 374
667 373
667 372
667 371
668 370
669 369
670 368
670 367
671 366
672 365
672 364
672 363
672 362
672 361
673 360
674 360
675 360
676 360
676 359
676 358
676 357
676 356
676 355
676 354
676 353
677 352
677 351
677 350
677 349
678 348
679 347
680 346
681 346
682 346
683 345
684 345
685 344
686 343
687 342
687 341
687 340
688 339
689 338
689 337
690 336
690 335
690 334
690 333
691 332
691 331
691 330
692 329
693 328
694 327
694 326
695 325
696 325
697 324
698 324
698 323
699 322
700 322
701 322
700 321
700 320
701 319
701 318
701 317
700 316
700 315
699 314
699 313
698 312
699 311
700 310
700 309
699 308
699 307
698 306
697 305
697 304
696 303
695 302
695 301
694 300
695 299
695 298
695 297
694 296
693 295
692 294
691 294
690 293
689 293
688 292
688 291
687 290
686 289
685 288
686 287
686 286
686 285
686 284
686 283
686 282
685 281
684 280
684 279
684 278
685 277
686 276
687 277
688 277
689 277
690 277
691 277
692 277
693 277
694 278
695 277
696 278
696 279
696 278
697 277
698 278
699 278
700 278
701 278
702 278
703 278
704 279
705 279
706 279
707 279
708 279
709 279
710 280
711 281
712 280
713 280
714 281
715 281
716 281
717 282
718 282
719 282
720 283
721 283
722 283
723 283
724 284
725 284
726 285
727 285
728 285
729 285
730 286
731 286
732 287
733 286
734 287
734 288
735 287
736 288
737 288
738 289
739 289
740 289
741 289
742 289
743 289
744 289
745 290
746 290
746 289
747 288
748 289
748 290
749 290
750 291
751 291
752 291
753 291
754 291
755 291
756 291
757 291
758 290
759 290
760 290
760 289
761 288
762 288
763 288
764 287
765 286
766 285
766 284
767 283
766 283
765 283
764 283
763 282
763 281
763 280
762 279
761 279
762 280
761 281
760 281
759 281
758 281
757 281
756 281
755 280
756 279
757 279
758 279
757 279
756 279
755 278
754 278
753 278
752 278
751 278
750 279
749 279
748 278
747 278
746 278
745 277
744 277
743 278
742 277
742 276
741 276
740 277
739 276
739 275
738 275
737 275
736 275
735 274
734 274
733 274
732 274
731 274
730 273
729 273
728 273
727 272
726 272
725 272
724 272
723 271
722 271
721 271
720 271
719 270
718 270
717 271
716 270
715 270
714 270
713 269
712 269
711 269
710 269
709 269
708 269
707 269
706 268
705 268
704 268
703 268
702 267
701 267
700 267
699 267
698 267
697 267
696 267
695 267
694 267
693 267
692 267
691 267
690 266
689 266
688 266
687 266
686 266
685 266
684 265
685 264
685 263
685 262
686 261
687 260
688 259
689 259
689 258
690 257
691 256
692 255
693 254
693 253
694 252
695 252
695 251
696 250
696 249
697 248
698 247
697 247
696 246
696 245
696 244
696 243
697 242
696 241
697 240
697 239
697 238
697 237
698 236
698 235
698 234
698 233
698 232
698 231
698 230
697 229
698 228
698 227
697 227
696 227
695 227
694 227
693 226
693 225
693 224
693 223
693 222
693 221
693 220
693 219
694 218
694 217
694 216
694 215
694 214
693 214
692 214
691 213
691 212
692 211
692 210
692 209
692 208
691 208
690 208
689 207
689 206
689 205
689 204
689 203
688 202
688 201
688 200
687 199
687 198
686 197
686 196
685 196
684 197
683 197
682 197
681 197
680 197
679 197
678 198
677 197
677 196
677 195
677 194
677 193
677 192
677 191
676 190
675 189
675 188
675 187
674 186
674 185
675 184
674 184
673 184
672 184
671 184
670 184
669 184
668 183
668 182
668 181
668 180
668 179
668 178
668 177
668 176
668 175
667 175
666 176
665 176
664 175
664 174
663 173
662 172
662 171
661 170
661 169
660 169
659 170
658 171
657 172
656 172
655 173
654 173
653 172
652 172
651 173
650 173
649 174
648 174
647 174
646 173
646 172
646 171
646 170
647 169
647 168
646 169
645 169
644 168
644 167
644 166
643 165
643 164
643 163
642 162
642 161
641 160
641 159
641 158
640 158
639 158
638 158
637 158
636 158
635 158
634 158
633 157
633 156
633 155
632 154
632 153
632 152
631 151
631 150
630 149
630 148
629 147
628 148
627 148
626 147
626 146
626 145
626 144
625 143
625 142
625 141
624 140
623 139
622 140
621 141
620 141
619 142
618 143
617 143
616 144
615 145
614 146
613 145
612 144
611 143
610 142
610 141
610 140
609 139
609 138
610 137
609 137
608 137
607 136
606 136
605 137
604 136
604 135
604 134
603 133
603 132
602 131
601 130
601 129
600 128
600 127
599 126
598 125
597 124
597 123
596 122
595 122
594 122
593 123
592 123
591 123
590 124
589 125
588 125
587 124
586 123
586 122
585 121
584 120
583 119
582 118
581 117
581 116
580 115
579 114
578 113
577 113
576 113
575 114
574 114
573 115
572 115
571 114
570 113
569 112
568 111
567 110
566 110
565 109
565 108
564 108
563 108
562 107
561 106
560 105
559 104
558 104
557 105
557 106
556 107
555 108
554 109
553 110
553 111
552 112
551 113
550 113
549 112
548 112
548 113
547 114
547 115
546 116
546 117
545 118
544 118
543 117
542 116
541 115
541 114
540 113
539 112
538 111
538 110
537 111
536 112
535 111
535 110
535 109
534 108
533 107
533 106
533 105
532 104
531 103
531 102
531 101
530 102
529 103
528 104
527 104
526 104
525 105
524 106
523 106
522 105
523 104
523 103
522 102
521 101
520 100
519 99
518 98
518 97
517 96
517 95
516 95
515 95
514 96
513 97
512 96
512 95
511 94
510 93
509 92
508 91
507 91
506 90
505 90
504 89
504 88
504 89
503 90
502 91
501 92
500 93
499 93
498 94
497 94
496 95
495 95
494 95
493 94
493 93
492 93
491 92
490 91
489 92
488 91
487 90
486 89
486 88
485 87
484 87
483 86
483 85
482 85
481 85
480 84
479 85
478 85
477 86
476 87
475 87
474 86
474 85
474 84
473 83
472 83
471 82
471 81
470 80
469 79
469 78
468 79
467 80
466 80
465 79
465 78
464 77
464 76
463 75
462 74
461 73
460 73
459 72
458 73
457 74
456 75
455 75
454 76
453 77
452 78
452 79
452 80
452 81
451 82
450 81
449 80
449 79
448 78
447 77
446 76
446 75
445 74
444 73
444 72
443 71
442 70
441 69
440 68
439 67
439 66
438 66
437 65
437 64
436 64
436 65
435 66
434 66
433 67
433 68
432 69
431 68
431 67
431 66
431 65
430 64
429 63
428 63
427 62
427 61
426 61
425 61
424 60
424 59
423 59
422 58
421 57
420 58
419 57
419 56
420 55
421 55
420 55
419 56
418 57
417 58
416 58
415 59
414 60
414 61
413 62
412 62
411 61
411 60
410 59
409 58
408 58
407 57
406 57
405 56
404 56
403 55
402 54
401 53
400 52
399 52
398 51
397 50
397 49
396 48
396 49
396 50
395 51
395 52
394 53
393 53
393 54
393 55
392 56
391 55
390 54
390 53
389 52
388 52
387 51
386 51
385 50
384 49
383 49
382 49
381 48
380 47
379 47
378 46
377 45
376 45
377 45
378 46
378 47
377 48
376 47
375 48
374 49
373 50
372 51
371 50
370 49
369 49
368 48
367 48
366 47
365 47
364 46
363 47
362 46
361 46
360 46
359 46
358 45
357 44
356 44
