668 1
667 2
667 3
666 4
665 5
665 6
664 7
664 8
663 9
663 10
662 11
662 12
661 13
661 14
660 15
660 16
660 17
659 18
659 19
659 20
658 21
658 22
658 23
658 24
658 25
658 26
657 27
657 28
657 29
657 30
657 31
657 32
656 33
656 34
656 35
656 36
656 37
655 38
655 39
655 40
655 41
654 42
654 43
654 44
654 45
653 46
653 47
653 48
653 49
653 50
653 51
653 52
653 53
653 54
653 55
653 56
653 57
653 58
653 59
653 60
653 61
653 62
653 63
653 64
653 65
653 66
654 67
654 68
654 69
654 70
654 71
654 72
655 73
655 74
655 75
655 76
656 77
656 78
656 79
656 80
657 81
657 82
657 83
657 84
657 85
658 86
658 87
658 88
658 89
659 90
659 91
659 92
659 93
660 94
660 95
660 96
661 97
661 98
662 99
662 100
662 101
663 102
663 103
664 104
664 105
665 106
665 107
666 108
667 109
667 110
668 111
669 112
670 113
671 114
672 115
672 116
673 117
674 118
675 119
676 120
677 120
678 121
679 122
680 122
681 123
682 123
683 124
684 124
685 125
686 125
687 126
688 126
689 126
690 127
691 127
692 127
693 127
694 127
695 127
696 128
697 128
698 128
699 128
700 128
701 128
702 128
703 127
704 127
705 127
706 126
707 126
708 126
709 127
708 128
708 129
707 130
706 130
705 131
704 131
703 131
702 131
701 131
700 131
699 131
698 131
697 131
696 132
695 132
694 132
693 132
692 132
691 132
690 132
689 132
688 132
687 132
686 132
685 133
684 133
683 133
682 133
681 133
680 133
679 133
678 133
677 133
676 133
675 134
674 134
673 134
672 134
671 134
670 134
669 134
668 134
667 135
666 135
665 135
664 135
663 135
662 135
661 135
660 135
659 135
658 136
657 136
656 136
655 136
654 136
653 136
652 136
651 135
650 134
649 133
649 132
648 131
648 130
647 129
647 128
648 127
649 126
650 125
651 124
652 123
652 122
653 121
654 120
654 119
655 118
655 117
656 116
656 115
656 114
657 113
657 112
657 111
657 110
657 109
657 108
658 107
658 106
658 105
658 104
658 103
658 102
658 101
658 100
658 99
658 98
658 97
657 96
657 95
657 94
657 93
657 92
656 91
656 90
656 89
655 88
655 87
654 86
654 85
653 84
652 83
652 82
651 81
651 80
650 79
649 78
649 77
648 76
648 75
647 74
647 73
646 72
645 71
645 70
644 69
644 68
643 67
642 66
642 65
641 64
640 63
639 62
638 61
637 60
636 59
635 58
634 57
633 56
632 55
631 54
630 53
629 52
628 51
627 50
626 50
625 49
624 48
623 47
622 46
621 46
620 45
619 44
618 43
617 42
616 42
615 41
614 41
613 40
612 40
611 39
610 39
609 38
608 37
607 37
606 37
605 36
604 36
603 35
602 34
601 33
600 33
599 32
598 32
597 31
596 31
595 30
594 29
593 28
593 27
592 26
591 26
590 25
589 24
588 23
587 22
586 22
585 21
584 20
583 20
582 19
581 19
580 18
579 18
578 17
577 17
576 16
575 15
574 15
573 14
572 15
572 16
571 17
571 18
570 19
569 20
569 21
568 22
568 23
568 24
567 25
567 26
567 27
566 28
566 29
566 30
566 31
566 32
566 33
566 34
565 35
565 36
565 37
565 38
565 39
565 40
565 41
565 42
565 43
565 44
565 45
565 46
565 47
565 48
566 49
566 50
566 51
566 52
566 53
566 54
566 55
566 56
566 57
566 58
566 59
567 60
567 61
567 62
567 63
568 64
568 65
568 66
568 67
569 68
569 69
569 70
569 71
570 72
570 73
571 74
571 75
571 76
572 77
572 78
572 79
573 80
573 81
573 82
574 83
574 84
574 85
575 86
575 87
575 88
575 89
575 90
576 91
576 92
577 93
577 94
577 95
577 96
578 97
579 98
579 99
579 100
580 101
581 102
581 103
581 104
582 105
583 106
583 107
584 108
584 109
585 110
585 111
586 112
587 113
587 114
588 115
589 116
589 117
590 118
591 119
591 120
592 121
593 122
594 123
595 124
596 125
597 126
598 127
599 128
600 129
601 130
602 131
603 131
604 132
605 133
606 134
607 134
608 135
609 136
610 136
611 137
612 138
613 138
614 138
615 139
616 139
617 140
616 141
615 141
614 142
613 142
612 142
611 142
610 142
609 142
608 143
607 143
606 143
605 143
604 143
603 144
602 144
601 144
600 144
599 144
598 144
597 145
596 145
595 145
594 145
593 145
592 145
591 146
590 146
589 146
588 146
587 146
586 146
585 146
584 146
583 145
582 144
581 143
580 142
580 141
579 140
579 139
579 138
580 137
580 136
581 135
581 134
582 133
582 132
582 131
583 130
583 129
583 128
583 127
583 126
583 125
583 124
583 123
583 122
583 121
583 120
582 119
582 118
582 117
582 116
582 115
581 114
581 113
581 112
581 111
580 110
580 109
580 108
579 107
579 106
579 105
578 104
578 103
577 102
577 101
576 100
575 99
575 98
574 97
573 96
572 95
571 94
570 93
569 92
568 91
568 90
567 89
566 88
565 87
564 86
563 85
562 84
561 83
560 82
560 81
559 81
558 80
557 79
556 78
555 77
554 76
553 76
552 75
551 74
550 73
549 72
548 71
547 71
546 70
545 69
544 68
543 67
542 66
541 66
540 65
539 64
538 63
537 63
536 62
535 61
534 60
533 60
532 59
531 59
530 58
529 58
528 57
527 57
526 56
525 56
524 55
523 55
522 55
521 54
520 53
519 53
518 53
517 52
516 52
515 51
514 51
513 50
512 50
511 49
510 49
509 48
508 48
507 47
506 47
505 46
504 46
503 45
502 45
501 45
500 44
499 44
498 44
497 43
496 43
495 43
494 42
493 42
492 42
491 41
490 41
489 41
488 40
487 40
486 40
485 39
484 39
483 39
482 39
481 38
480 38
479 38
478 37
477 37
476 37
475 37
474 37
473 36
472 36
471 36
470 36
469 36
468 36
467 35
466 35
465 35
464 35
463 35
462 35
461 35
460 36
460 37
460 38
460 39
461 40
461 41
461 42
462 43
462 44
462 45
463 46
463 47
463 48
464 49
464 50
465 51
465 52
465 53
465 54
466 55
466 56
466 57
467 58
467 59
468 60
468 61
469 62
469 63
469 64
470 65
471 66
471 67
472 68
472 69
473 70
474 71
474 72
475 73
476 74
477 75
477 76
478 77
478 78
479 79
480 80
481 81
481 82
482 83
482 84
483 85
484 86
485 87
485 88
486 89
487 90
488 91
489 92
489 93
490 94
489 95
488 95
487 94
486 93
485 93
484 92
483 91
482 91
481 90
480 89
479 89
478 88
477 88
476 87
475 87
474 86
473 86
472 85
471 85
470 84
469 83
468 82
467 82
466 81
465 81
464 80
463 80
462 79
461 79
460 78
459 78
458 77
457 77
456 76
455 75
454 75
453 74
452 74
451 73
450 73
449 73
448 72
447 71
446 71
445 71
444 70
443 70
442 69
441 69
440 68
439 68
438 68
437 68
436 67
435 67
434 67
433 67
432 66
431 66
430 66
429 65
428 65
427 65
426 65
425 64
424 64
423 64
422 64
421 64
420 63
419 63
418 63
417 63
416 63
415 63
414 63
413 63
412 63
411 63
410 63
409 63
408 63
407 63
406 63
405 63
404 63
403 64
402 64
401 64
400 64
399 65
398 65
397 65
396 65
395 65
394 65
393 65
392 65
391 66
390 66
389 66
388 67
387 67
386 68
385 68
385 69
386 70
386 71
387 71
388 72
389 73
390 73
391 74
392 75
393 76
394 77
395 78
395 79
396 80
397 81
397 82
398 83
397 84
396 84
395 84
394 83
393 83
392 82
391 81
390 81
389 80
388 80
387 79
386 78
385 78
384 77
383 76
382 75
381 75
380 74
379 73
378 72
377 71
376 70
375 70
374 69
373 68
372 67
371 66
370 65
369 65
368 64
367 63
366 63
365 62
364 62
363 61
362 61
361 60
360 60
359 59
358 59
357 58
356 58
355 57
354 57
353 57
352 56
351 56
350 55
349 55
348 55
347 54
346 54
345 54
344 53
343 53
342 53
341 53
340 52
339 52
339 53
339 54
339 55
339 56
339 57
339 58
339 59
339 60
339 61
339 62
339 63
340 64
340 65
340 66
340 67
341 68
341 69
341 70
341 71
342 72
342 73
342 74
342 75
343 76
343 77
343 78
344 79
344 80
344 81
344 82
345 83
345 84
345 85
346 86
346 87
347 88
347 89
348 90
348 91
349 92
349 93
349 94
350 95
350 96
350 97
349 98
348 97
347 96
346 96
345 95
344 94
343 93
342 93
341 92
340 92
339 91
338 90
337 90
336 89
335 88
334 87
333 87
332 86
331 86
330 85
329 84
328 83
327 83
326 82
325 81
324 81
323 80
322 79
321 78
320 78
319 77
318 76
317 76
316 75
315 75
314 74
313 73
312 73
311 72
310 72
309 71
308 71
307 70
306 70
305 69
304 68
303 68
302 67
301 67
300 66
299 65
298 65
297 64
296 64
295 63
294 63
293 62
292 62
291 62
290 61
289 61
288 60
287 60
286 59
285 59
284 58
283 58
282 58
281 57
280 57
279 57
278 57
277 57
276 56
275 56
274 56
273 56
272 56
271 56
271 57
271 58
270 59
270 60
270 61
270 62
270 63
270 64
271 65
271 66
271 67
271 68
271 69
272 70
272 71
272 72
272 73
273 74
273 75
273 76
273 77
274 78
274 79
274 80
275 81
275 82
275 83
276 84
276 85
276 86
277 87
277 88
277 89
278 90
278 91
278 92
279 93
280 94
280 95
280 96
279 97
278 97
277 96
276 95
275 94
274 93
273 92
272 91
271 90
270 90
269 89
268 88
267 87
266 86
265 85
264 84
263 83
262 82
261 81
260 81
259 80
258 80
257 79
256 78
255 77
254 77
253 76
252 75
251 74
250 74
249 73
248 72
247 71
246 71
245 70
244 69
243 69
242 68
241 67
240 66
239 66
238 65
237 64
236 64
235 63
234 63
233 62
232 61
231 61
230 60
229 60
228 59
227 58
226 58
225 57
224 57
223 57
222 56
221 56
220 55
219 55
218 55
217 54
216 54
215 53
214 53
213 53
212 52
211 52
210 52
209 52
208 52
207 52
206 52
205 52
205 53
205 54
204 55
204 56
204 57
204 58
204 59
204 60
205 61
205 62
205 63
205 64
205 65
205 66
206 67
206 68
206 69
207 70
207 71
207 72
208 73
208 74
208 75
208 76
208 77
209 78
209 79
209 80
210 81
210 82
210 83
211 84
211 85
212 86
212 87
212 88
213 89
213 90
214 91
214 92
215 93
215 94
216 95
216 96
217 97
217 98
218 99
218 100
219 101
219 102
220 103
220 104
221 105
221 106
222 107
222 108
222 109
223 110
223 111
224 112
224 113
225 114
225 115
226 116
226 117
226 118
227 119
227 120
228 121
228 122
229 123
229 124
230 125
230 126
231 127
231 128
232 129
233 130
233 131
234 132
234 133
235 134
236 135
236 136
237 137
238 138
238 139
239 140
240 141
241 142
241 143
242 144
243 145
244 146
245 147
245 148
246 149
247 150
247 151
248 152
249 153
250 154
250 155
251 156
252 157
252 158
253 159
254 160
255 161
255 162
256 163
257 164
258 165
259 166
260 167
260 168
261 169
262 170
263 171
264 172
265 173
266 174
267 175
268 175
269 176
270 177
271 178
272 179
273 180
274 180
275 181
276 182
277 182
278 183
279 183
280 184
281 184
282 185
283 185
284 186
285 186
286 187
287 187
288 188
289 189
288 190
287 190
286 191
285 191
284 191
283 191
282 191
281 191
280 191
279 191
278 191
277 191
276 191
275 191
274 191
273 191
272 191
271 191
270 191
269 191
268 191
267 191
266 191
265 191
264 191
263 191
262 191
261 191
260 190
259 190
258 190
257 190
256 190
255 190
254 190
253 190
252 190
251 189
251 188
250 187
249 186
249 185
248 184
248 183
247 182
247 181
247 180
247 179
247 178
248 177
248 176
248 175
248 174
248 173
248 172
248 171
248 170
248 169
247 168
247 167
247 166
247 165
246 164
246 163
246 162
246 161
245 160
245 159
244 158
244 157
243 156
243 155
242 154
242 153
241 152
241 151
240 150
240 149
239 148
238 147
237 146
237 145
236 144
235 143
234 142
233 141
233 140
232 139
231 138
230 137
229 136
228 135
227 134
226 133
225 132
224 131
223 130
222 129
221 128
220 127
219 126
218 125
217 124
216 124
215 123
214 123
213 122
212 121
211 121
210 120
209 119
208 119
207 118
206 117
205 117
204 116
203 115
202 115
201 114
200 113
199 113
198 112
197 111
196 111
195 110
194 109
193 109
192 108
191 108
190 107
189 107
188 106
187 106
186 105
185 105
184 105
183 104
182 104
181 103
180 103
179 102
178 102
177 101
176 101
175 101
174 101
173 100
172 100
171 100
170 99
169 99
168 98
167 98
166 98
165 97
164 97
163 97
162 97
161 96
160 96
159 96
158 96
157 95
156 94
155 94
154 93
153 93
152 92
151 91
150 91
149 90
148 89
147 89
146 88
145 88
144 87
143 87
142 86
141 86
140 85
139 85
138 85
137 84
136 84
135 83
134 83
133 83
132 82
131 82
130 82
129 82
128 82
127 82
127 83
127 84
127 85
127 86
126 87
126 88
126 89
126 90
126 91
126 92
126 93
126 94
127 95
127 96
127 97
127 98
128 99
128 100
128 101
129 102
129 103
129 104
130 105
130 106
130 107
131 108
131 109
132 110
132 111
132 112
133 113
133 114
134 115
134 116
135 117
135 118
136 119
136 120
137 121
137 122
138 123
139 124
139 125
140 126
140 127
141 128
141 129
142 130
142 131
143 132
144 133
144 134
145 135
146 136
147 137
147 138
148 139
149 140
150 141
150 142
151 143
152 144
153 145
153 146
154 147
155 148
156 149
156 150
157 151
158 152
159 153
160 154
161 155
162 156
163 157
164 158
165 159
166 160
167 161
168 161
169 162
170 163
171 164
172 165
173 166
174 166
175 167
176 168
177 169
178 170
179 170
180 171
181 172
182 172
183 173
184 174
185 175
186 175
187 176
188 176
189 177
190 178
191 178
192 179
193 180
194 180
195 181
196 182
197 182
198 183
199 183
200 184
201 184
202 185
203 185
204 186
205 187
206 187
207 188
206 189
205 190
204 190
203 190
202 190
201 190
200 190
199 190
198 190
197 190
196 190
195 190
194 189
193 189
192 188
191 188
190 187
189 187
188 186
187 185
186 184
185 183
185 182
184 181
183 180
182 179
181 178
180 177
179 177
178 176
177 175
176 174
175 174
174 173
173 172
172 172
171 171
170 171
169 171
168 170
167 170
166 169
165 169
164 168
163 168
162 167
161 167
160 167
159 166
158 166
157 165
156 165
155 165
154 164
153 164
152 164
151 164
150 164
149 163
148 163
147 163
146 163
145 162
144 162
143 162
142 162
141 162
140 162
139 162
138 162
137 162
136 161
135 161
134 161
133 161
132 161
131 161
130 161
129 161
128 161
127 160
126 160
125 160
124 160
123 160
122 160
121 160
120 160
119 160
118 160
117 160
116 160
115 160
114 160
113 160
112 160
111 160
110 160
109 160
108 160
107 160
106 160
105 160
104 160
103 160
102 160
101 160
100 160
99 160
98 160
97 160
96 160
95 160
94 160
93 160
92 160
91 161
90 161
89 161
88 161
87 161
86 161
85 161
84 161
83 161
82 162
81 162
80 162
79 162
78 162
77 162
76 162
75 162
74 162
73 162
72 162
71 163
70 163
69 163
68 163
67 164
66 164
65 164
64 165
63 165
62 165
61 165
60 165
59 166
58 166
57 166
56 167
55 167
54 167
53 168
52 168
51 168
50 169
49 169
48 169
47 170
46 170
45 170
44 171
43 171
42 172
41 173
40 174
39 175
38 176
38 177
37 178
36 179
35 179
34 180
33 180
32 180
33 181
34 181
35 182
36 183
37 184
38 185
38 186
39 187
40 188
41 189
42 189
43 190
44 191
45 192
46 192
47 193
48 193
49 194
50 195
51 195
52 196
53 196
54 197
55 197
56 198
57 198
58 199
59 199
60 199
61 200
62 200
63 201
64 201
65 202
66 202
67 203
68 203
69 203
70 203
71 204
72 204
73 205
74 205
75 205
76 206
77 206
78 206
79 206
80 207
81 207
82 207
83 208
84 208
85 208
86 208
87 209
88 209
89 209
90 209
91 210
92 210
93 210
94 210
95 211
96 211
97 211
98 211
99 212
100 212
101 212
102 213
103 213
104 213
105 214
106 214
107 214
108 215
109 215
110 215
111 215
112 216
113 216
114 216
115 216
116 217
117 217
118 217
119 217
120 217
121 217
122 217
123 217
124 218
125 218
126 218
127 218
128 218
129 218
130 218
131 218
132 218
133 218
134 218
135 218
136 218
137 218
138 218
139 218
140 218
141 218
142 218
143 218
144 218
145 218
146 217
147 217
148 217
149 217
150 217
151 217
152 217
153 216
154 216
155 216
156 216
157 215
158 215
159 215
160 215
161 214
162 214
163 214
164 213
165 213
166 213
167 212
168 212
169 211
170 211
171 210
172 210
173 209
174 209
175 208
176 208
177 207
178 207
179 206
180 205
181 204
182 203
183 202
184 201
185 202
185 203
185 204
185 205
184 206
184 207
184 208
183 209
183 210
183 211
182 212
182 213
181 214
181 215
180 216
179 217
179 218
178 219
178 220
177 221
177 222
178 223
179 224
180 224
181 224
182 224
183 224
184 224
185 224
186 223
187 223
188 224
187 225
187 226
186 227
185 228
185 229
184 230
183 231
182 232
182 233
181 234
180 235
180 236
179 237
178 238
178 239
177 240
177 241
176 242
176 243
175 244
175 245
174 246
174 247
174 248
173 249
173 250
172 251
172 252
171 253
171 254
171 255
170 256
170 257
169 258
169 259
169 260
169 261
168 262
168 263
168 264
168 265
168 266
167 267
167 268
167 269
167 270
167 271
166 272
166 273
166 274
166 275
166 276
166 277
166 278
165 279
165 280
165 281
165 282
165 283
164 284
164 285
164 286
164 287
164 288
163 289
163 290
163 291
163 292
163 293
163 294
162 295
162 296
162 297
162 298
162 299
162 300
162 301
162 302
162 303
162 304
162 305
162 306
162 307
161 308
161 309
161 310
161 311
161 312
161 313
161 314
161 315
161 316
160 317
160 318
160 319
160 320
160 321
160 322
160 323
160 324
160 325
160 326
160 327
160 328
160 329
160 330
160 331
160 332
160 333
160 334
161 335
161 336
161 337
161 338
161 339
162 340
162 341
162 342
162 343
162 344
162 345
162 346
163 347
163 348
163 349
163 350
164 351
164 352
165 353
165 354
166 355
167 356
168 356
169 356
170 356
171 355
172 354
173 354
174 353
175 352
176 352
177 351
178 350
179 349
180 348
181 347
182 346
183 345
184 344
185 343
186 342
187 341
188 340
189 339
190 338
191 337
192 336
193 335
194 334
194 333
195 332
196 331
196 330
197 329
198 328
199 327
200 326
200 325
201 324
202 323
202 322
203 321
204 320
205 319
206 318
207 317
207 316
208 315
208 314
209 313
210 312
210 311
211 310
211 309
212 308
213 307
213 306
214 305
215 304
216 303
216 302
217 301
218 300
218 299
219 298
220 297
220 296
221 295
221 294
222 293
223 292
223 291
224 290
224 289
225 288
225 287
226 286
226 285
227 284
227 283
228 282
228 281
229 280
229 279
230 278
231 277
231 276
232 275
232 274
233 273
233 272
234 271
234 270
235 269
235 268
235 267
236 266
236 265
236 264
236 263
237 262
237 261
238 260
238 259
238 258
239 257
239 256
240 255
240 254
240 253
240 252
241 251
241 250
241 249
241 248
242 247
242 246
242 245
242 244
242 243
243 242
243 241
243 240
243 239
243 238
243 237
244 236
244 235
244 234
244 233
244 232
244 231
244 230
244 229
244 228
244 227
244 226
244 225
244 224
244 223
244 222
244 221
244 220
244 219
244 218
244 217
244 216
244 215
244 214
243 213
243 212
243 211
243 210
243 209
242 208
242 207
241 206
241 205
240 204
240 203
239 202
238 201
238 200
238 199
239 198
239 197
240 196
241 195
242 194
243 193
244 193
245 193
246 193
247 193
248 193
249 193
250 193
251 193
252 193
253 192
254 192
255 192
256 192
257 192
258 192
259 192
260 192
261 192
262 192
263 192
264 192
265 192
266 192
267 192
268 192
269 192
270 192
271 192
272 192
273 192
274 192
275 192
276 192
277 192
278 192
279 192
280 192
281 192
282 192
283 192
284 192
285 192
286 192
287 192
288 192
289 192
290 192
291 192
292 192
293 192
294 192
295 192
296 192
297 192
298 192
299 192
300 192
301 192
302 192
303 192
304 192
305 192
306 192
307 192
308 192
309 192
310 192
311 193
311 194
311 195
311 196
311 197
310 198
309 199
308 198
307 198
306 198
305 197
304 197
303 197
302 197
301 197
300 197
299 197
298 196
297 196
296 196
295 197
294 197
293 197
292 197
291 197
290 198
289 198
288 198
287 198
286 199
285 199
284 200
283 200
282 201
281 202
280 203
279 204
278 204
277 205
276 206
275 206
274 207
273 208
272 209
271 210
270 211
269 212
268 213
267 214
266 215
265 216
265 217
264 218
263 219
263 220
262 221
262 222
261 223
260 224
260 225
259 226
258 227
258 228
257 229
257 230
256 231
255 232
255 233
254 234
254 235
253 236
253 237
252 238
252 239
251 240
250 241
250 242
250 243
249 244
249 245
249 246
248 247
248 248
247 249
247 250
246 251
246 252
245 253
245 254
244 255
244 256
244 257
244 258
243 259
243 260
243 261
242 262
242 263
242 264
241 265
241 266
241 267
241 268
240 269
240 270
239 271
239 272
238 273
238 274
238 275
237 276
237 277
237 278
236 279
236 280
236 281
235 282
235 283
235 284
235 285
234 286
234 287
234 288
234 289
234 290
233 291
233 292
233 293
233 294
233 295
232 296
232 297
232 298
232 299
232 300
231 301
231 302
231 303
231 304
231 305
231 306
230 307
230 308
230 309
230 310
230 311
230 312
230 313
230 314
230 315
230 316
229 317
229 318
229 319
229 320
229 321
229 322
229 323
229 324
229 325
229 326
229 327
229 328
229 329
229 330
229 331
229 332
229 333
229 334
229 335
229 336
229 337
229 338
229 339
229 340
229 341
229 342
229 343
229 344
229 345
229 346
229 347
229 348
229 349
230 350
230 351
230 352
230 353
230 354
230 355
231 356
231 357
231 358
231 359
232 360
232 361
233 362
234 362
235 362
236 361
237 361
238 360
239 360
240 359
241 358
242 357
243 357
244 356
245 355
246 354
247 353
248 352
249 351
250 351
251 350
252 349
253 348
254 347
255 346
256 345
257 344
258 343
259 343
260 342
261 341
262 340
263 339
264 338
265 337
266 336
266 335
267 334
268 333
269 332
269 331
270 330
271 329
272 328
272 327
273 326
274 325
275 324
275 323
276 322
277 321
278 320
278 319
279 318
280 317
281 316
282 315
282 314
283 313
284 312
284 311
285 310
286 309
286 308
287 307
288 306
288 305
289 304
289 303
290 302
291 301
291 300
292 299
293 298
293 297
294 296
294 295
295 294
295 293
296 292
296 291
297 290
297 289
298 288
299 287
299 286
300 285
301 284
301 283
302 282
302 281
303 280
304 279
304 278
305 277
305 276
306 275
306 274
306 273
307 272
307 271
308 270
308 269
309 268
309 267
310 266
310 265
311 264
311 263
312 262
312 261
312 260
313 259
313 258
314 257
314 256
315 255
315 254
316 253
316 252
317 251
317 250
317 249
318 248
318 247
318 246
318 245
318 244
319 243
319 242
319 241
319 240
319 239
320 238
320 237
320 236
320 235
320 234
320 233
320 232
320 231
321 230
321 229
321 228
321 227
321 226
321 225
321 224
321 223
321 222
321 221
321 220
321 219
321 218
321 217
321 216
320 215
320 214
320 213
320 212
319 211
319 210
319 209
318 208
318 207
317 206
317 205
316 204
315 203
314 203
313 202
313 201
313 200
313 199
313 198
314 197
314 196
315 195
316 194
317 193
318 192
319 192
320 192
321 192
322 192
323 191
324 191
325 191
326 191
327 191
328 191
329 190
330 190
331 190
332 190
333 190
334 190
335 190
336 190
337 189
338 189
339 189
340 189
341 189
342 189
343 189
344 189
345 189
346 189
347 188
348 188
349 188
350 188
351 188
352 188
353 188
354 188
355 187
356 187
357 187
358 187
359 187
360 187
361 187
362 187
363 187
364 187
365 187
366 186
367 186
368 186
369 186
370 186
371 186
372 186
373 186
374 186
375 185
376 185
377 185
378 185
379 185
380 185
381 185
382 184
383 184
384 185
385 186
385 187
385 188
385 189
384 190
383 190
382 190
381 189
380 189
379 189
378 189
377 189
376 189
375 189
374 189
373 189
372 189
371 189
370 190
369 190
368 191
367 191
366 192
365 192
364 193
363 194
362 194
361 195
360 196
359 197
358 197
357 198
357 199
356 200
355 201
354 202
354 203
353 204
353 205
352 206
351 207
351 208
350 209
350 210
349 211
349 212
349 213
348 214
348 215
348 216
347 217
347 218
347 219
347 220
346 221
346 222
346 223
346 224
345 225
345 226
345 227
344 228
344 229
344 230
344 231
344 232
344 233
343 234
343 235
343 236
343 237
343 238
343 239
342 240
342 241
342 242
342 243
341 244
341 245
341 246
341 247
340 248
340 249
340 250
339 251
339 252
339 253
339 254
339 255
338 256
338 257
338 258
338 259
337 260
337 261
337 262
337 263
337 264
337 265
337 266
337 267
337 268
337 269
337 270
337 271
337 272
337 273
337 274
337 275
337 276
337 277
337 278
337 279
337 280
337 281
337 282
337 283
337 284
337 285
337 286
337 287
337 288
338 289
338 290
338 291
338 292
338 293
338 294
338 295
338 296
339 297
339 298
339 299
339 300
340 301
340 302
340 303
340 304
340 305
341 306
341 307
341 308
341 309
341 310
342 311
342 312
343 313
343 314
343 315
343 316
344 317
344 318
345 319
345 320
345 321
345 322
346 323
346 324
346 325
346 326
347 327
347 328
347 329
347 330
348 331
348 332
348 333
349 334
349 335
349 336
350 337
350 338
350 339
351 340
351 341
351 342
352 343
352 344
353 345
353 346
353 347
354 348
354 349
354 350
355 351
355 352
356 353
356 354
357 355
357 356
358 357
358 358
359 359
360 360
360 361
361 362
362 362
363 362
364 362
365 361
366 360
366 359
367 358
367 357
368 356
368 355
369 354
370 353
370 352
371 351
371 350
372 349
372 348
373 347
373 346
373 345
374 344
374 343
375 342
375 341
375 340
376 339
376 338
377 337
377 336
378 335
378 334
379 333
379 332
380 331
380 330
381 329
381 328
381 327
382 326
382 325
382 324
383 323
383 322
383 321
384 320
384 319
384 318
385 317
385 316
385 315
386 314
386 313
387 312
387 311
387 310
387 309
388 308
388 307
388 306
388 305
389 304
389 303
389 302
389 301
390 300
390 299
391 298
391 297
391 296
392 295
392 294
392 293
393 292
393 291
393 290
393 289
394 288
394 287
394 286
394 285
394 284
395 283
395 282
395 281
395 280
395 279
395 278
395 277
396 276
396 275
396 274
396 273
397 272
397 271
397 270
397 269
398 268
398 267
398 266
398 265
398 264
399 263
399 262
399 261
399 260
400 259
400 258
400 257
400 256
400 255
401 254
401 253
401 252
401 251
401 250
401 249
401 248
402 247
402 246
402 245
402 244
402 243
402 242
402 241
402 240
402 239
403 238
403 237
403 236
403 235
403 234
403 233
403 232
403 231
403 230
403 229
403 228
403 227
403 226
403 225
403 224
403 223
403 222
402 221
402 220
402 219
402 218
402 217
402 216
401 215
401 214
401 213
401 212
400 211
400 210
400 209
399 208
399 207
399 206
398 205
398 204
397 203
397 202
396 201
396 200
395 199
394 198
393 197
392 196
391 195
390 194
389 194
388 193
388 192
388 191
388 190
388 189
389 188
389 187
389 186
390 185
391 184
392 184
393 184
394 183
395 183
396 183
397 183
398 183
399 182
400 182
401 182
402 182
403 182
404 181
405 181
406 181
407 181
408 181
409 181
410 181
411 180
412 180
413 180
414 180
415 180
416 180
417 180
418 179
419 179
420 179
421 179
422 179
423 179
424 179
425 178
426 178
427 178
428 178
429 178
430 178
431 178
432 178
433 177
434 177
435 177
436 177
437 177
438 177
439 177
440 177
441 178
440 179
439 179
438 180
437 180
436 181
435 181
434 182
433 183
432 184
431 185
430 186
429 187
428 188
427 189
427 190
426 191
426 192
425 193
424 194
424 195
423 196
423 197
422 198
422 199
421 200
421 201
421 202
420 203
420 204
420 205
419 206
419 207
419 208
418 209
418 210
418 211
418 212
418 213
417 214
417 215
417 216
417 217
417 218
417 219
416 220
416 221
416 222
416 223
416 224
416 225
415 226
415 227
415 228
415 229
415 230
415 231
415 232
415 233
415 234
415 235
415 236
415 237
415 238
415 239
415 240
415 241
415 242
415 243
415 244
415 245
415 246
415 247
415 248
415 249
416 250
416 251
416 252
416 253
416 254
416 255
416 256
416 257
416 258
416 259
416 260
416 261
416 262
416 263
416 264
416 265
416 266
416 267
416 268
416 269
416 270
416 271
416 272
416 273
417 274
417 275
417 276
417 277
417 278
417 279
417 280
418 281
418 282
418 283
418 284
419 285
419 286
419 287
419 288
419 289
420 290
420 291
420 292
421 293
421 294
421 295
421 296
422 297
422 298
422 299
422 300
423 301
423 302
423 303
423 304
424 305
424 306
425 307
425 308
425 309
426 310
426 311
426 312
427 313
427 314
428 315
428 316
428 317
429 318
429 319
430 320
430 321
431 322
432 323
432 324
433 325
433 326
434 327
434 328
435 329
435 330
436 331
436 332
436 333
437 334
437 335
438 336
439 337
439 338
440 339
440 340
441 341
442 342
442 343
443 344
444 345
444 346
445 347
446 348
447 349
447 350
448 351
449 351
450 352
451 351
452 350
452 349
453 348
454 347
454 346
455 345
455 344
456 343
456 342
457 341
457 340
458 339
458 338
459 337
459 336
460 335
460 334
461 333
461 332
461 331
462 330
462 329
463 328
463 327
463 326
464 325
464 324
464 323
465 322
465 321
465 320
466 319
466 318
466 317
466 316
467 315
467 314
467 313
468 312
468 311
468 310
468 309
468 308
469 307
469 306
469 305
470 304
470 303
470 302
471 301
471 300
471 299
471 298
471 297
472 296
472 295
472 294
472 293
472 292
472 291
472 290
472 289
473 288
473 287
473 286
473 285
473 284
473 283
473 282
473 281
473 280
473 279
474 278
474 277
474 276
474 275
475 274
475 273
475 272
475 271
475 270
475 269
476 268
476 267
476 266
476 265
476 264
476 263
476 262
476 261
476 260
476 259
477 258
477 257
477 256
477 255
477 254
477 253
477 252
477 251
477 250
477 249
478 248
478 247
478 246
478 245
478 244
478 243
478 242
478 241
479 240
479 239
479 238
479 237
478 236
478 235
478 234
478 233
478 232
478 231
478 230
478 229
478 228
478 227
478 226
478 225
478 224
478 223
478 222
478 221
478 220
478 219
478 218
478 217
477 216
477 215
477 214
477 213
477 212
477 211
476 210
476 209
476 208
476 207
476 206
475 205
475 204
475 203
474 202
474 201
474 200
474 199
473 198
473 197
472 196
472 195
471 194
471 193
470 192
469 191
469 190
468 189
467 188
466 187
465 186
464 185
463 184
462 184
461 184
460 183
459 183
458 183
457 182
457 181
457 180
457 179
457 178
457 177
458 176
458 175
459 174
460 174
461 173
462 173
463 173
464 173
465 172
466 172
467 172
468 172
469 171
470 171
471 171
472 171
473 170
474 170
475 170
476 170
477 170
478 170
479 169
480 169
481 169
482 169
483 169
484 168
485 168
486 168
487 168
488 168
489 168
490 167
491 167
492 167
493 167
494 167
495 167
496 167
497 167
498 167
499 167
500 167
501 167
502 168
501 169
500 169
499 170
498 171
497 172
496 173
495 174
494 175
494 176
493 177
492 178
491 179
491 180
490 181
490 182
489 183
489 184
488 185
487 186
487 187
487 188
486 189
486 190
486 191
485 192
485 193
485 194
485 195
484 196
484 197
484 198
484 199
484 200
484 201
484 202
483 203
483 204
483 205
483 206
483 207
483 208
483 209
483 210
483 211
483 212
483 213
483 214
483 215
483 216
483 217
483 218
483 219
484 220
484 221
484 222
484 223
484 224
484 225
484 226
484 227
484 228
485 229
485 230
485 231
485 232
486 233
486 234
486 235
486 236
486 237
486 238
487 239
487 240
487 241
487 242
487 243
488 244
488 245
488 246
488 247
489 248
489 249
489 250
489 251
489 252
489 253
490 254
490 255
490 256
490 257
490 258
491 259
491 260
491 261
491 262
492 263
492 264
492 265
492 266
493 267
493 268
493 269
493 270
494 271
494 272
494 273
495 274
495 275
495 276
496 277
496 278
496 279
497 280
497 281
498 282
498 283
499 284
499 285
500 286
500 287
501 288
502 289
502 290
503 291
503 292
504 293
504 294
505 295
505 296
506 297
506 298
507 299
507 300
508 301
509 302
509 303
510 304
511 305
512 306
512 307
513 308
513 309
514 310
515 311
515 312
516 313
516 314
517 315
518 316
519 317
519 318
520 319
521 320
521 321
522 322
523 323
524 324
525 325
525 326
526 327
527 328
528 329
529 330
530 331
530 330
531 329
532 328
532 327
533 326
533 325
534 324
534 323
534 322
535 321
535 320
535 319
535 318
536 317
536 316
536 315
537 314
537 313
537 312
538 311
538 310
538 309
539 308
539 307
540 306
540 305
540 304
540 303
541 302
541 301
541 300
541 299
541 298
541 297
542 296
542 295
542 294
542 293
543 292
543 291
543 290
543 289
544 288
544 287
544 286
544 285
544 284
544 283
545 282
545 281
545 280
545 279
545 278
545 277
546 276
546 275
546 274
546 273
546 272
546 271
547 270
547 269
547 268
547 267
547 266
547 265
547 264
547 263
547 262
547 261
548 260
548 259
548 258
548 257
548 256
548 255
548 254
548 253
548 252
548 251
548 250
548 249
548 248
548 247
548 246
548 245
548 244
548 243
548 242
548 241
548 240
548 239
548 238
548 237
548 236
548 235
548 234
548 233
548 232
548 231
548 230
548 229
549 228
550 229
550 230
551 231
551 232
551 233
551 234
552 235
552 236
552 237
553 238
553 239
553 240
553 241
554 242
554 243
554 244
555 245
555 246
555 247
556 248
556 249
556 250
557 251
557 252
557 253
558 254
558 255
559 256
559 257
560 258
560 259
561 260
561 261
562 262
563 263
563 264
564 265
564 266
565 267
565 268
566 269
566 270
567 271
567 272
568 273
569 274
569 275
570 276
570 277
571 278
571 279
572 280
573 281
573 282
574 283
575 284
575 285
576 286
577 287
577 288
578 289
578 290
579 291
580 292
580 293
581 294
582 295
582 296
583 297
584 298
585 299
586 300
587 301
588 302
589 303
590 304
591 305
592 305
593 306
594 307
595 308
596 308
597 309
598 309
599 309
600 310
601 310
602 311
603 311
604 312
605 312
605 311
606 310
606 309
607 308
607 307
608 306
608 305
609 304
609 303
609 302
610 301
610 300
611 299
611 298
611 297
612 296
612 295
612 294
612 293
612 292
613 291
613 290
613 289
613 288
613 287
614 286
614 285
614 284
614 283
614 282
614 281
615 280
615 279
615 278
615 277
615 276
615 275
615 274
615 273
616 272
616 271
616 270
616 269
616 268
616 267
616 266
616 265
616 264
616 263
616 262
616 261
616 260
616 259
616 258
616 257
616 256
616 255
616 254
616 253
616 252
616 251
616 250
616 249
616 248
615 247
615 246
615 245
615 244
615 243
615 242
615 241
615 240
615 239
615 238
615 237
615 236
615 235
616 234
616 233
616 232
616 231
616 230
615 229
615 228
615 227
615 226
615 225
615 224
615 223
615 222
615 221
615 220
615 219
615 218
615 217
615 216
615 215
615 214
615 213
615 212
615 211
614 210
614 209
614 208
614 207
614 206
614 205
614 204
614 203
614 202
614 201
614 200
614 199
614 198
614 197
613 196
613 195
613 194
613 193
612 192
612 191
612 190
612 189
611 188
611 187
611 186
611 185
610 184
610 183
609 182
609 181
608 180
608 179
607 178
607 177
606 176
606 175
605 174
605 173
604 172
603 171
603 170
602 169
601 168
600 167
599 166
598 165
597 164
596 163
595 162
594 162
593 161
592 160
591 160
590 159
589 159
588 159
587 158
586 158
585 158
584 158
583 158
582 157
582 156
582 155
582 154
582 153
582 152
583 151
584 150
585 150
586 150
587 149
588 149
589 149
590 149
591 149
592 148
593 148
594 148
595 148
596 148
597 148
598 147
599 147
600 147
601 147
602 147
603 147
604 147
605 146
606 146
607 146
608 146
609 146
610 146
611 145
612 145
613 145
614 145
615 145
616 145
617 145
618 144
619 144
620 144
621 144
622 144
623 144
624 144
625 143
626 143
627 143
628 143
629 143
630 143
631 143
632 142
633 142
634 142
635 142
636 142
637 142
638 142
639 142
640 142
641 143
641 144
641 145
641 146
641 147
641 148
640 149
639 149
638 149
637 149
636 149
635 149
634 150
633 150
632 150
631 151
630 152
629 152
628 153
627 154
626 155
625 155
624 156
623 157
623 158
622 159
621 160
621 161
620 162
620 163
619 164
619 165
618 166
618 167
618 168
617 169
617 170
617 171
617 172
617 173
616 174
616 175
616 176
616 177
616 178
616 179
616 180
616 181
616 182
616 183
616 184
616 185
616 186
616 187
616 188
616 189
617 190
617 191
617 192
617 193
617 194
617 195
618 196
618 197
618 198
618 199
618 200
619 201
619 202
619 203
619 204
620 205
620 206
620 207
620 208
621 209
621 210
621 211
621 212
622 213
622 214
622 215
623 216
623 217
623 218
623 219
624 220
624 221
624 222
625 223
625 224
625 225
626 226
626 227
627 228
627 229
627 230
628 231
629 232
629 233
630 234
630 235
631 236
631 237
632 238
632 239
633 240
633 241
634 242
635 243
635 244
636 245
636 246
637 247
637 248
638 249
639 250
639 251
640 252
641 253
641 254
642 255
642 256
643 256
644 257
644 258
645 259
646 260
647 261
648 262
648 263
649 264
650 265
651 266
651 267
652 268
653 269
654 270
655 271
656 272
657 272
658 273
659 274
660 275
661 276
662 277
663 277
664 278
665 279
666 280
667 280
668 281
669 282
670 282
671 283
672 283
673 284
674 284
675 285
676 285
677 286
678 286
679 286
680 287
681 287
682 287
683 287
684 287
685 287
686 286
686 285
687 284
687 283
688 282
688 281
688 280
688 279
689 278
689 277
689 276
689 275
689 274
690 273
690 272
690 271
691 270
691 269
691 268
691 267
691 266
692 265
692 264
692 263
692 262
692 261
692 260
692 259
692 258
692 257
692 256
692 255
692 254
692 253
692 252
693 251
693 250
693 249
693 248
694 247
695 247
696 248
697 249
698 250
698 251
699 252
700 253
700 254
701 255
702 256
702 257
703 258
704 259
704 260
705 261
706 262
706 263
707 264
707 265
708 266
709 267
710 268
710 269
711 270
712 271
713 272
714 273
715 274
716 275
717 276
718 277
719 278
720 279
721 280
722 281
723 281
724 282
725 283
726 284
727 284
728 285
729 285
729 284
729 283
730 282
730 281
730 280
731 279
731 278
731 277
732 276
732 275
732 274
732 273
733 272
733 271
733 270
733 269
734 268
734 267
734 266
734 265
735 264
735 263
735 262
736 261
736 260
736 259
737 258
737 257
737 256
738 255
738 254
738 253
738 252
739 251
739 250
739 249
739 248
740 247
740 246
740 245
741 244
741 243
741 242
741 241
742 240
742 239
742 238
743 237
743 236
743 235
743 234
743 233
744 232
744 231
744 230
744 229
743 228
743 227
742 226
742 225
741 224
741 223
741 222
741 221
741 220
741 219
741 218
741 217
741 216
741 215
741 214
741 213
742 212
742 211
742 210
743 209
744 208
744 207
745 206
745 205
745 204
745 203
746 202
746 201
746 200
746 199
746 198
746 197
746 196
746 195
746 194
746 193
746 192
746 191
746 190
747 189
747 188
747 187
747 186
747 185
747 184
746 183
746 182
746 181
746 180
746 179
746 178
746 177
745 176
745 175
745 174
745 173
745 172
744 171
744 170
744 169
743 168
743 167
743 166
742 165
742 164
741 163
741 162
740 161
739 160
739 159
738 158
738 157
737 156
737 155
736 154
735 153
734 152
733 151
732 150
731 149
730 148
729 147
728 146
727 146
726 145
725 144
724 144
723 143
722 143
721 143
720 142
719 142
718 142
717 142
716 142
715 142
714 142
713 142
712 142
711 141
711 140
711 139
711 138
712 137
712 136
713 135
714 134
715 134
716 134
717 134
718 134
719 133
720 133
721 133
722 133
723 133
724 133
725 132
726 132
727 132
728 132
729 132
730 132
731 132
732 132
733 132
734 132
735 132
736 131
737 131
738 131
739 131
740 131
741 131
742 131
743 131
744 131
745 131
746 131
747 131
748 130
749 130
750 130
751 130
752 130
753 130
754 130
755 130
756 130
757 130
758 130
759 130
760 130
761 130
762 130
763 129
764 129
765 129
766 129
767 129
768 129
769 129
770 129
771 129
772 129
773 129
774 129
775 128
776 128
777 128
778 128
779 128
780 128
781 129
782 129
783 129
784 129
785 130
786 130
787 130
788 131
789 131
790 131
791 131
792 131
793 131
794 131
795 130
796 130
797 129
798 129
799 128
799 127
800 126
800 125
800 124
800 123
800 122
800 121
799 120
798 119
798 118
797 117
796 117
795 117
794 118
793 118
792 119
791 120
790 120
789 121
788 121
787 121
786 121
785 122
784 122
783 122
782 122
781 123
780 123
779 123
778 123
777 123
776 123
775 124
774 124
773 124
772 124
771 124
770 124
769 124
768 125
767 125
766 125
765 125
764 125
763 125
762 125
761 125
760 125
759 125
758 125
757 126
756 126
755 126
754 126
753 126
752 126
751 126
750 126
749 126
748 126
747 127
746 127
745 127
744 127
743 127
742 127
741 127
740 127
739 127
738 127
737 127
736 128
735 128
734 128
733 128
732 128
731 128
730 128
729 128
728 128
727 129
726 129
725 129
724 129
723 129
722 129
721 129
720 129
719 129
718 129
717 129
716 129
715 129
714 128
713 127
713 126
712 125
712 124
712 123
712 122
713 121
714 121
715 120
716 120
717 120
718 119
719 118
720 117
721 116
722 115
722 114
723 113
724 112
724 111
725 110
725 109
726 108
727 107
727 106
727 105
728 104
728 103
728 102
728 101
729 100
729 99
729 98
729 97
729 96
729 95
729 94
729 93
729 92
729 91
729 90
729 89
729 88
729 87
729 86
729 85
729 84
729 83
729 82
729 81
729 80
728 79
728 78
728 77
727 76
727 75
726 74
726 73
726 72
725 71
725 70
724 69
724 68
724 67
723 66
723 65
723 64
723 63
722 62
722 61
722 60
721 59
721 58
720 57
720 56
719 55
719 54
718 53
718 52
717 51
717 50
716 49
716 48
715 47
715 46
714 45
714 44
713 43
712 42
712 41
711 40
710 39
709 38
709 37
708 36
707 35
707 34
706 33
705 32
704 31
703 30
702 29
702 28
701 27
700 26
700 25
699 24
698 23
697 22
696 21
695 20
695 19
694 18
693 17
692 17
691 16
690 15
689 14
688 13
687 12
686 11
685 10
684 9
683 9
682 8
681 7
680 7
679 6
678 5
677 5
676 4
675 3
674 2
673 1
672 1
671 1
670 1
669 1
668 1
