340 56
339 57
338 57
337 57
336 57
335 57
334 57
333 57
332 58
331 58
330 58
329 58
328 58
327 58
326 59
325 59
324 59
323 60
322 60
321 60
320 60
319 61
318 61
317 61
316 62
315 62
314 62
313 63
312 63
311 64
310 64
309 64
308 65
307 65
306 65
305 65
304 66
303 66
302 67
301 67
300 67
299 68
298 68
297 69
296 69
295 69
294 70
293 71
292 71
291 72
290 72
289 73
288 73
287 74
286 74
285 74
284 74
283 75
282 75
281 76
280 76
279 77
278 77
277 78
276 78
275 78
274 79
273 79
272 79
271 80
270 80
269 80
268 81
267 81
266 81
265 82
264 82
263 82
262 83
261 83
260 84
259 84
258 85
257 85
256 85
255 86
254 86
253 87
252 87
251 88
250 88
249 89
248 89
247 89
246 90
245 90
244 90
243 91
242 91
241 92
240 92
239 93
238 93
237 93
236 94
235 94
234 95
233 95
232 95
231 96
230 96
229 97
228 97
227 98
226 98
225 99
224 99
223 100
222 100
221 101
220 102
219 103
218 103
217 104
216 104
215 105
214 106
213 107
212 107
211 108
210 109
209 109
208 110
207 111
206 111
205 112
204 112
203 113
202 113
201 114
200 115
199 116
198 116
197 117
196 118
195 119
194 119
193 120
192 121
191 121
190 122
189 123
188 124
187 124
186 125
185 125
184 126
183 127
182 128
181 129
180 129
179 129
178 130
177 131
176 132
175 132
174 133
173 133
172 134
171 134
170 135
169 136
168 137
167 138
166 139
165 140
164 141
163 142
162 143
161 144
160 145
159 146
159 147
158 148
157 149
157 150
156 151
155 152
154 153
153 154
152 155
151 156
151 157
150 158
149 159
149 160
148 161
147 162
146 163
145 164
145 165
144 166
143 167
143 168
142 169
141 170
141 171
140 172
140 173
139 174
139 175
138 176
137 177
137 178
136 179
136 180
135 181
135 182
134 183
134 184
133 185
133 186
132 187
131 188
131 189
130 190
130 191
129 192
129 193
128 194
128 195
127 196
127 197
127 198
126 199
126 200
125 201
125 202
124 203
124 204
124 205
124 206
123 207
123 208
122 209
122 210
122 211
121 212
121 213
121 214
120 215
120 216
120 217
119 218
119 219
119 220
118 221
118 222
117 223
117 224
117 225
116 226
116 227
115 228
115 229
114 230
114 231
114 232
113 233
113 234
113 235
112 236
112 237
111 238
111 239
111 240
110 241
110 242
110 243
109 244
109 245
109 246
108 247
108 248
108 249
108 250
107 251
107 252
107 253
106 254
106 255
106 256
105 257
105 258
105 259
105 260
105 261
104 262
104 263
104 264
104 265
104 266
104 267
104 268
103 269
103 270
103 271
103 272
103 273
103 274
102 275
102 276
102 277
102 278
102 279
102 280
102 281
102 282
102 283
102 284
102 285
102 286
102 287
102 288
102 289
102 290
101 291
101 292
102 293
102 294
102 295
102 296
102 297
102 298
102 299
102 300
102 301
103 302
103 303
103 304
104 305
104 306
104 307
104 308
104 309
104 310
105 311
105 312
105 313
105 314
105 315
105 316
105 317
106 318
106 319
106 320
107 321
107 322
107 323
108 324
108 325
108 326
109 327
109 328
110 329
111 330
111 331
112 332
113 333
113 334
114 335
114 336
115 337
116 338
117 339
117 340
118 341
119 342
119 343
120 344
120 345
121 346
121 347
121 348
122 349
122 350
123 351
123 352
123 353
124 354
124 355
124 356
124 357
124 358
125 359
125 360
124 361
124 362
123 363
122 364
121 365
121 366
120 367
120 368
119 369
118 370
117 371
117 372
116 373
115 374
115 375
114 376
114 377
113 378
113 379
113 380
112 381
112 382
111 383
111 384
110 385
110 386
109 387
109 388
109 389
108 390
108 391
108 392
107 393
107 394
106 395
106 396
106 397
105 398
105 399
105 400
104 401
103 402
102 403
102 404
101 405
100 406
99 407
98 408
97 409
97 410
96 411
95 412
94 413
93 414
92 415
91 416
90 417
89 418
88 419
88 420
87 421
86 422
86 423
85 424
84 425
84 426
83 427
82 428
81 429
81 430
80 431
80 432
79 433
78 434
77 435
77 436
76 437
75 438
75 439
74 440
74 441
73 442
73 443
72 444
72 445
72 446
72 447
71 448
71 449
71 450
70 451
70 452
70 453
70 454
69 455
69 456
69 457
69 458
68 459
68 460
68 461
68 462
68 463
68 464
68 465
68 466
68 467
68 468
68 469
68 470
68 471
68 472
67 473
67 474
67 475
67 476
67 477
67 478
67 479
67 480
67 481
67 482
67 483
67 484
67 485
67 486
67 487
67 488
67 489
67 490
67 491
67 492
67 493
67 494
67 495
67 496
67 497
67 498
67 499
67 500
67 501
67 502
67 503
67 504
67 505
67 506
67 507
67 508
67 509
67 510
67 511
67 512
67 513
67 514
68 515
68 516
68 517
68 518
68 519
68 520
68 521
69 522
69 523
69 524
69 525
69 526
70 527
70 528
70 529
70 530
70 531
71 532
71 533
71 534
71 535
72 536
72 537
72 538
72 539
72 540
72 541
73 542
73 543
73 544
73 545
73 546
73 547
73 548
74 549
74 550
74 551
74 552
74 553
74 554
75 555
75 556
75 557
75 558
75 559
75 560
75 561
75 562
76 563
76 564
76 565
76 566
76 567
76 568
77 569
77 570
77 571
77 572
78 573
78 574
78 575
79 576
79 577
79 578
79 579
80 580
80 581
80 582
80 583
81 584
81 585
81 586
82 587
82 588
82 589
83 590
83 591
84 592
84 593
85 594
85 595
85 596
86 597
86 598
87 599
87 600
87 601
88 602
88 603
89 604
89 605
89 606
90 607
90 608
91 609
91 610
91 611
92 612
92 613
93 614
93 615
94 616
94 617
94 618
95 619
95 620
95 621
96 622
96 623
97 624
97 625
98 626
98 627
99 628
99 629
99 630
100 631
100 632
101 633
101 634
101 635
102 636
102 637
103 638
103 639
104 640
104 641
104 642
105 643
106 644
106 645
107 646
107 647
108 648
108 649
109 650
109 651
110 652
111 653
111 654
112 655
112 656
113 657
114 658
114 659
115 660
116 661
117 662
117 663
118 664
119 665
119 666
120 667
121 668
121 669
122 670
123 671
124 672
125 673
126 674
127 675
128 676
128 677
129 678
130 679
130 680
131 680
132 681
133 682
134 683
135 684
136 684
137 685
137 686
138 687
139 688
140 689
141 689
142 690
143 691
143 692
144 692
145 693
146 693
147 694
148 695
147 696
148 696
149 697
150 697
151 698
152 698
153 699
154 700
154 701
155 702
156 703
157 703
158 703
159 704
160 705
161 705
162 706
163 706
164 707
165 708
166 709
167 709
168 710
169 711
170 711
171 712
171 713
172 713
173 714
174 714
175 715
176 716
177 716
178 717
179 718
180 718
181 718
182 718
183 718
184 719
185 720
185 721
186 722
187 723
188 723
189 724
190 724
191 725
192 725
193 726
194 726
195 727
196 728
197 728
198 729
199 729
200 729
201 730
202 730
203 731
204 731
205 731
206 731
207 732
208 732
209 732
210 732
211 732
212 733
213 733
214 734
215 734
216 734
217 734
218 734
219 735
220 735
221 735
222 735
223 735
224 735
225 735
226 735
227 735
228 735
229 735
230 735
231 735
232 735
233 734
234 734
235 734
236 734
237 734
238 734
239 734
240 734
241 734
242 735
243 735
244 735
245 735
246 735
247 735
248 735
249 735
250 735
251 735
252 735
253 736
254 736
255 736
256 736
257 736
258 736
259 737
260 737
261 737
262 737
263 737
264 738
265 738
266 738
267 738
268 738
269 739
270 739
271 739
272 739
273 739
274 740
275 740
276 740
277 740
278 740
279 740
280 741
281 741
282 741
283 742
284 742
285 742
286 743
287 743
288 743
289 744
290 744
291 744
292 744
293 744
294 745
295 745
296 745
297 745
298 745
299 746
300 746
301 746
302 746
303 746
304 746
305 746
306 746
307 746
308 746
309 746
310 746
311 746
312 746
313 746
314 746
315 745
316 745
317 745
318 745
319 745
320 745
321 745
322 744
323 744
324 744
325 744
326 744
327 744
328 744
329 744
330 744
331 744
332 744
333 744
334 744
335 744
336 743
337 744
338 744
339 743
340 743
341 744
342 744
343 744
344 744
345 744
346 744
347 744
348 744
349 744
350 744
351 744
352 744
353 744
354 744
355 744
356 744
357 744
358 744
359 745
360 745
361 745
362 745
363 745
364 745
365 745
366 745
367 745
368 745
369 745
370 745
371 746
372 746
373 746
374 746
375 746
376 746
377 746
378 746
379 747
380 747
381 747
382 747
383 747
384 747
385 747
386 747
387 748
388 748
389 748
390 748
391 748
392 748
393 748
394 748
395 748
396 748
397 748
398 748
399 748
400 748
401 748
402 748
403 748
404 748
405 748
406 748
407 748
408 748
409 748
410 748
411 747
412 747
413 747
414 747
415 747
416 747
417 747
418 747
419 746
420 746
421 746
422 746
423 746
424 745
425 745
426 745
427 744
428 744
429 743
430 743
431 743
432 742
433 742
434 742
435 741
436 741
437 741
438 740
439 740
440 739
441 738
442 738
443 738
444 737
445 737
446 736
447 735
448 735
449 735
450 735
451 734
452 734
453 733
454 732
455 732
456 731
457 730
458 730
459 729
460 728
461 727
462 727
463 726
464 725
465 725
466 725
467 724
468 723
469 723
470 722
471 721
472 721
473 720
474 719
475 719
476 718
477 717
478 716
479 716
480 715
481 714
482 713
483 713
484 712
485 711
486 710
487 710
488 709
489 708
490 708
491 707
492 706
493 705
494 704
495 704
495 703
496 702
497 701
498 701
499 700
500 699
501 698
502 697
503 696
504 695
505 694
506 694
507 693
508 692
509 691
510 690
511 690
512 689
513 688
514 687
515 686
516 686
517 685
518 684
519 683
520 682
521 681
522 680
523 679
524 678
525 677
526 676
527 675
528 675
528 674
529 673
530 672
531 672
532 671
533 670
534 669
535 668
536 667
537 666
538 665
539 664
540 664
541 663
542 662
543 661
544 661
545 660
546 659
547 658
548 658
549 657
550 656
551 655
552 654
553 653
554 652
555 652
556 651
557 650
558 649
559 648
560 647
561 646
562 645
563 644
564 643
565 642
566 641
567 640
567 639
568 638
569 638
570 637
571 636
572 635
573 634
573 633
574 632
575 631
576 630
577 629
578 628
578 627
579 626
580 625
581 624
582 623
582 622
583 621
583 620
584 619
585 618
586 617
586 616
587 615
587 614
588 613
588 612
589 611
590 610
590 609
591 608
591 607
592 606
593 605
593 604
594 603
595 602
595 601
596 600
596 599
597 598
598 597
598 596
599 595
599 594
600 593
601 592
601 591
601 590
602 589
602 588
603 587
604 586
604 585
605 584
605 583
606 582
607 581
607 580
608 579
608 578
608 577
609 576
609 575
610 574
610 573
611 572
611 571
612 570
612 569
613 568
613 567
614 566
614 565
614 564
615 563
615 562
615 561
616 560
616 559
616 558
617 557
617 556
617 555
617 554
617 553
618 552
618 551
618 550
618 549
618 548
618 547
618 546
618 545
619 544
619 543
619 542
619 541
620 540
620 539
620 538
620 537
620 536
620 535
620 534
620 533
621 532
621 531
621 530
621 529
621 528
621 527
621 526
621 525
621 524
621 523
621 522
621 521
621 520
621 519
621 518
621 517
621 516
621 515
621 514
621 513
621 512
621 511
621 510
620 509
620 508
620 507
620 506
620 505
620 504
620 503
619 502
619 501
619 500
619 499
618 498
618 497
618 496
618 495
617 494
617 493
616 492
616 491
616 490
616 489
615 488
615 487
614 486
614 485
614 484
613 483
612 482
612 481
611 480
611 479
611 478
610 477
609 476
609 475
608 474
608 473
607 472
606 471
606 470
605 469
604 468
604 467
603 466
603 465
602 464
601 463
600 462
600 461
599 460
598 459
597 458
597 457
596 456
595 455
594 454
593 453
592 452
591 451
590 450
589 449
588 448
587 447
586 446
585 445
584 445
583 444
582 443
581 442
580 441
579 441
578 440
577 439
576 439
575 438
574 437
573 436
572 435
571 435
570 434
569 433
568 432
567 432
566 431
565 430
564 429
563 429
562 428
561 428
560 427
559 426
558 425
557 425
556 424
555 424
554 423
553 423
552 422
551 422
550 421
549 421
548 421
547 420
546 420
545 420
544 419
543 419
542 418
541 418
540 417
539 417
538 417
537 416
536 416
535 415
534 415
533 414
532 414
531 414
530 413
529 413
528 412
527 412
526 412
525 411
524 411
523 411
522 410
521 410
520 410
519 409
518 409
517 409
516 409
515 409
514 408
513 408
512 408
511 408
510 408
509 408
508 408
507 407
506 407
505 407
504 407
503 407
502 406
501 406
500 406
499 406
498 406
497 405
496 405
495 405
494 405
493 405
492 404
491 404
490 404
489 404
488 403
487 403
486 403
485 402
484 402
483 401
482 401
481 400
481 399
482 398
483 398
484 398
485 397
486 397
487 397
488 397
489 396
490 396
491 396
492 396
493 395
494 395
495 395
496 395
497 394
498 394
499 394
500 393
501 393
502 393
503 393
504 392
505 392
506 392
507 392
508 392
509 391
510 391
511 391
512 391
513 390
514 390
515 390
516 390
517 390
518 390
519 389
520 389
521 389
522 389
523 389
524 389
525 388
526 388
527 388
528 388
529 388
530 388
531 388
532 388
533 388
534 387
535 387
536 387
537 387
538 387
539 387
540 387
541 387
542 386
543 386
544 386
545 386
546 386
547 386
548 386
549 386
550 386
551 385
552 385
553 385
554 385
555 385
556 385
557 385
558 385
559 385
560 384
561 384
562 384
563 384
564 384
565 384
566 384
567 384
568 384
569 383
570 383
571 383
572 383
573 383
574 383
575 383
576 383
577 382
578 382
579 382
580 382
581 382
582 382
583 382
584 382
585 382
586 382
587 382
588 382
589 381
590 381
591 381
592 381
593 381
594 381
595 381
596 381
597 381
598 380
599 380
600 380
601 380
602 380
603 380
604 380
605 380
606 380
607 380
608 380
609 380
610 379
611 379
612 379
613 379
614 379
615 379
616 379
617 379
618 379
619 378
620 378
621 378
622 378
623 378
624 378
625 378
626 378
627 378
628 378
629 378
630 377
631 377
632 377
633 378
634 377
635 377
636 377
637 377
638 377
639 377
640 377
641 377
642 377
643 377
644 377
645 377
646 377
647 377
648 377
649 377
650 377
651 376
652 376
653 376
654 376
655 376
656 376
657 376
658 375
659 375
660 375
661 374
662 374
663 374
664 374
665 373
666 373
667 372
668 372
668 371
669 370
670 370
671 369
672 368
673 368
674 367
675 367
676 366
677 365
677 364
677 363
677 362
676 362
675 361
674 360
673 359
673 358
673 357
673 356
673 355
672 354
671 354
670 353
669 353
668 352
668 351
667 351
666 351
665 350
664 350
663 350
662 350
661 350
660 351
659 351
658 351
657 351
656 352
655 352
654 352
653 353
652 353
651 353
650 354
649 355
648 355
647 356
646 356
645 356
644 357
643 357
642 358
641 358
640 359
639 359
638 359
637 359
636 360
635 360
634 360
633 360
632 361
631 361
630 361
629 361
628 361
627 361
626 362
625 362
624 362
623 362
622 362
621 362
620 362
619 362
618 362
617 362
616 363
615 363
614 363
613 363
612 363
611 363
610 363
609 363
608 364
607 364
606 364
605 364
604 364
603 364
602 364
601 364
600 364
599 364
598 365
597 365
596 365
595 365
594 365
593 365
592 365
591 365
590 365
589 365
588 365
587 366
586 366
585 366
584 366
583 366
582 366
581 366
580 366
579 366
578 366
577 366
576 366
575 367
574 367
573 367
572 367
571 367
570 367
569 367
568 367
567 367
566 368
565 368
564 368
563 368
562 368
561 368
560 368
559 368
558 368
557 368
556 368
555 369
554 369
553 369
552 369
551 369
550 369
549 369
548 369
547 369
546 369
545 369
544 370
543 370
542 370
541 370
540 370
539 370
538 370
537 370
536 370
535 370
534 370
533 370
532 370
531 371
530 371
529 371
528 371
527 371
526 371
525 371
524 371
523 371
522 371
521 371
520 370
520 369
521 368
522 367
523 366
524 365
525 364
526 364
527 363
528 363
529 362
530 362
531 361
532 360
533 359
534 358
535 357
536 357
537 356
538 355
539 354
540 353
541 352
542 352
543 351
544 350
545 349
546 348
547 347
548 346
549 346
550 345
551 344
552 343
553 342
554 342
555 341
556 340
557 339
558 338
559 337
560 336
561 335
562 334
563 333
564 332
565 331
566 331
567 330
568 329
569 328
570 327
570 326
571 325
572 324
572 323
573 322
574 321
574 320
575 319
575 318
576 317
576 316
577 315
577 314
578 313
578 312
579 311
579 310
580 309
580 308
580 307
581 306
581 305
582 304
582 303
583 302
583 301
583 300
584 299
584 298
584 297
584 296
585 295
585 294
585 293
585 292
586 291
586 290
586 289
587 288
587 287
587 286
587 285
587 284
588 283
588 282
588 281
588 280
588 279
588 278
589 277
589 276
589 275
589 274
589 273
589 272
590 271
590 270
590 269
590 268
590 267
591 266
591 265
591 264
591 263
591 262
592 261
592 260
592 259
592 258
592 257
592 256
593 255
593 254
593 253
593 252
593 251
593 250
594 249
594 248
594 247
594 246
595 245
595 244
595 243
595 242
595 241
595 240
595 239
595 238
595 237
595 236
595 235
595 234
595 233
595 232
595 231
595 230
594 229
594 228
594 227
594 226
594 225
593 224
593 223
593 222
592 221
592 220
592 219
592 218
591 217
591 216
591 215
590 214
590 213
590 212
589 211
589 210
589 209
589 208
588 207
588 206
588 205
587 204
587 203
586 202
586 201
585 200
585 199
584 198
584 197
583 196
583 195
582 194
582 193
581 192
580 191
580 190
579 189
578 188
578 187
577 186
577 185
576 184
576 183
575 182
575 181
574 180
573 179
573 178
573 177
572 176
572 175
571 174
571 173
570 172
570 171
569 170
568 169
568 168
567 167
566 166
566 165
565 164
564 163
564 162
563 161
562 160
562 159
561 158
560 157
560 156
559 155
558 154
558 153
557 152
556 151
556 150
555 149
554 148
554 147
553 146
553 145
552 144
551 143
551 142
550 141
549 140
549 139
548 138
548 137
547 136
546 135
546 134
545 133
544 132
543 131
543 130
542 129
541 128
540 127
539 126
538 125
538 124
537 123
536 122
535 121
534 120
533 119
532 118
531 117
530 116
529 115
528 114
527 113
526 113
525 112
524 111
523 110
522 109
521 108
520 107
519 107
518 106
517 105
516 104
515 103
514 103
513 102
512 102
511 101
510 100
509 99
508 98
507 97
506 97
505 96
504 95
503 94
502 93
501 93
500 92
499 91
498 91
497 90
496 89
495 89
494 88
493 88
492 87
491 87
490 86
489 85
488 85
487 85
486 84
485 84
484 83
483 82
482 82
481 82
480 81
479 81
478 80
477 80
476 80
475 79
474 79
473 78
472 78
471 77
470 77
469 77
468 77
467 77
466 76
465 76
464 75
463 75
462 74
461 74
460 73
459 73
458 73
457 72
456 72
455 71
454 71
453 71
452 70
451 70
450 69
449 69
448 69
447 69
446 68
445 68
444 68
443 68
442 67
441 67
440 67
439 67
438 66
437 66
436 66
435 66
434 66
433 66
432 65
431 65
430 65
429 64
428 64
427 63
426 63
425 63
424 63
423 62
422 62
421 62
420 62
419 62
418 61
417 61
416 61
415 60
414 60
413 60
412 60
411 60
410 60
409 60
408 59
407 59
406 59
405 59
404 59
403 59
402 59
401 58
400 58
399 58
398 58
397 58
396 58
395 57
394 58
393 57
392 57
391 57
390 57
389 57
388 57
387 57
386 58
385 58
384 57
383 57
382 57
381 57
380 57
379 57
378 57
377 57
376 57
375 57
374 57
373 57
372 57
371 57
370 57
369 57
368 57
367 57
366 56
365 56
364 56
363 56
362 56
361 56
360 56
359 56
358 56
357 56
356 56
355 56
354 56
353 56
352 56
351 56
350 56
349 56
348 56
347 56
346 56
345 56
344 56
343 56
342 56
341 56
340 56
