113 262
113 263
113 264
113 265
113 266
113 267
113 268
113 269
113 270
113 271
113 272
113 273
113 274
114 275
115 276
116 277
116 278
117 279
118 280
119 281
120 282
121 282
122 283
123 284
124 285
124 286
125 287
126 288
127 289
127 290
128 291
129 292
130 293
131 294
131 295
132 296
132 297
133 298
134 299
135 300
135 301
136 302
137 303
137 304
138 305
139 306
140 307
140 308
141 309
142 310
142 311
143 312
144 313
145 314
146 315
147 316
148 317
149 318
150 319
151 320
152 321
153 322
154 323
155 324
156 324
157 325
158 326
159 327
160 328
161 328
162 329
163 329
164 330
165 331
166 332
167 333
168 333
169 334
170 335
171 336
172 337
173 337
174 338
175 338
176 339
177 340
178 341
179 341
180 342
181 342
182 343
183 343
184 344
185 345
186 345
187 346
188 346
189 347
190 347
191 348
192 348
193 348
194 349
195 349
196 350
197 350
198 351
199 351
200 352
201 353
202 353
203 354
204 354
205 355
206 355
207 356
208 356
209 357
210 357
211 358
212 358
213 359
214 359
215 359
216 360
217 360
218 361
219 361
220 361
221 362
222 362
223 362
224 363
225 363
226 363
227 364
228 364
229 365
230 365
231 366
232 366
233 366
234 366
235 367
236 367
237 367
238 368
239 368
240 368
241 369
242 369
243 369
244 369
245 370
246 370
247 370
248 370
249 370
250 371
251 371
252 371
253 371
254 371
255 371
256 372
257 372
258 372
259 372
260 372
261 373
262 373
263 373
264 373
265 374
266 374
267 374
268 375
269 375
270 375
271 375
272 375
273 376
274 376
275 376
276 376
277 376
278 376
279 376
280 377
281 377
282 377
283 377
284 378
285 378
286 378
287 378
288 379
289 379
290 379
291 379
292 379
293 380
294 380
295 380
296 380
297 381
298 381
299 381
300 382
301 382
302 382
303 383
304 383
305 383
306 384
307 384
308 384
309 384
310 385
311 385
312 385
313 385
314 386
315 386
316 386
317 386
318 386
319 386
320 386
321 386
322 386
323 386
324 386
325 387
326 387
327 387
328 387
329 387
330 387
331 387
332 387
333 388
334 388
335 388
336 388
337 388
338 388
339 388
340 388
341 388
342 388
343 388
344 388
345 388
346 388
347 388
348 388
349 388
350 388
351 388
352 389
353 389
354 389
355 389
356 389
357 389
358 389
359 389
360 389
361 389
362 389
363 389
364 389
365 389
366 389
367 389
368 389
369 389
370 389
371 389
372 389
373 389
374 389
375 389
376 389
377 389
378 389
379 389
380 389
381 389
382 389
383 389
384 389
385 388
386 388
387 388
388 388
389 387
390 387
391 387
392 387
393 387
394 386
395 386
396 386
397 386
398 386
399 386
400 386
401 386
402 386
403 386
404 386
405 385
406 385
407 385
408 385
409 385
410 385
411 385
412 385
413 384
414 384
415 384
416 384
417 384
418 383
419 383
420 383
421 383
422 383
423 383
424 383
425 383
426 382
427 382
428 382
429 382
430 381
431 381
432 381
433 380
434 380
435 380
436 379
437 379
438 379
439 379
440 379
441 378
442 378
443 378
444 377
445 377
446 377
447 377
448 377
449 377
450 376
451 376
452 376
453 375
454 375
455 375
456 375
457 375
458 375
459 374
460 374
461 374
462 374
463 374
464 374
465 373
466 373
467 373
468 373
469 373
470 373
471 372
472 372
473 371
474 371
475 371
476 371
477 371
478 370
479 370
480 369
481 369
482 368
483 368
484 368
485 368
486 367
487 367
488 367
489 367
490 367
491 366
492 366
493 366
494 366
495 365
496 365
497 365
498 364
499 364
500 364
501 363
502 363
503 363
504 363
505 362
506 362
507 362
508 362
509 361
510 361
511 361
512 360
513 360
514 360
515 359
516 359
517 358
518 358
519 357
520 357
521 356
522 356
523 355
524 354
525 354
526 353
527 353
528 352
529 352
530 351
531 351
532 350
533 350
534 349
535 349
536 349
537 348
538 348
539 347
540 347
541 346
542 346
543 345
544 345
545 344
546 344
547 343
548 343
549 343
550 342
551 342
552 342
553 341
554 341
555 340
556 340
557 339
558 339
559 338
560 338
561 337
562 337
563 336
564 336
565 335
566 335
567 335
568 334
569 334
570 333
571 333
572 332
573 332
574 332
575 331
576 331
577 330
578 330
579 329
580 329
581 329
582 328
583 328
584 327
585 327
586 326
587 326
588 325
589 325
590 325
591 324
592 324
593 324
594 323
595 323
596 322
597 322
598 321
599 321
600 321
601 320
602 320
603 320
604 319
605 319
606 319
607 318
608 318
609 318
610 317
611 317
612 317
613 316
614 316
615 316
616 315
617 315
618 314
619 314
620 314
621 313
622 313
623 313
624 312
625 312
626 312
627 311
628 311
629 311
630 310
631 310
632 310
633 309
634 309
635 308
636 308
637 307
638 307
639 306
640 306
641 305
642 305
643 304
644 304
645 303
646 303
647 302
648 302
649 301
650 301
651 300
652 300
653 300
654 299
655 299
656 300
657 300
658 301
659 301
660 302
661 302
662 303
663 303
664 304
665 304
666 305
667 305
668 306
669 307
670 307
671 308
672 309
673 309
674 310
675 311
676 312
677 312
678 313
679 314
680 315
681 315
682 316
683 317
684 317
685 318
686 319
687 319
688 320
689 320
690 320
691 321
692 321
693 321
694 321
695 322
696 322
697 322
698 323
699 323
700 323
701 323
702 323
703 323
704 323
705 323
706 323
707 323
708 323
709 323
710 323
710 322
710 321
710 320
710 319
710 318
710 317
710 316
710 315
710 314
709 313
708 313
707 313
706 312
705 312
704 311
703 311
702 310
701 310
700 309
699 308
698 308
697 307
696 307
695 306
694 305
693 305
692 304
691 303
690 303
689 302
688 301
687 300
686 300
685 299
684 298
683 297
682 296
681 296
680 295
679 294
678 293
677 293
676 292
675 291
674 291
673 290
672 289
671 289
670 288
669 287
668 286
667 286
666 285
665 284
664 284
663 283
662 282
662 281
661 280
660 279
659 278
658 278
657 277
656 276
655 275
654 274
653 273
653 272
652 271
651 270
650 269
649 269
648 268
647 267
646 266
645 265
644 265
643 264
642 263
641 263
640 262
639 261
638 261
637 260
636 259
635 259
634 258
633 257
632 257
631 256
630 256
629 255
628 255
627 254
626 254
625 253
624 253
623 252
622 252
621 251
620 251
619 250
618 250
617 249
616 249
615 248
614 248
613 247
612 247
611 246
610 246
609 246
608 245
607 245
606 244
605 244
604 243
603 243
602 243
601 242
600 242
599 241
598 241
597 241
596 240
595 240
594 240
593 239
592 239
591 238
590 238
589 238
588 237
587 237
586 236
585 236
584 235
583 235
582 234
581 234
580 234
579 233
578 233
577 233
576 232
575 232
574 232
573 231
572 231
571 230
570 230
569 229
568 229
567 229
566 229
565 228
564 228
563 228
562 227
561 227
560 227
559 227
558 226
557 226
556 226
555 226
554 225
553 225
552 225
551 225
550 224
549 224
548 224
547 224
546 223
545 223
544 223
543 223
542 222
541 222
540 222
539 221
538 221
537 220
536 220
535 220
534 219
533 219
532 218
531 217
530 216
529 217
528 217
527 217
526 216
525 216
524 216
523 215
522 215
521 214
520 214
519 213
518 213
517 212
516 212
515 211
514 211
513 210
512 210
511 210
510 210
509 209
508 209
507 209
506 208
505 208
504 208
503 207
502 207
501 206
500 206
499 205
498 205
497 204
496 204
495 203
494 203
493 202
492 201
491 201
490 200
489 200
488 199
487 199
486 198
485 198
484 197
483 197
482 196
481 196
480 195
479 195
478 195
477 194
476 194
475 194
474 194
473 193
472 193
471 193
470 192
469 192
468 192
467 191
466 191
465 191
464 190
463 190
462 190
461 190
460 189
459 189
458 189
457 189
456 188
455 188
454 188
453 187
452 187
451 186
450 186
449 185
448 185
447 184
446 184
445 183
444 183
443 182
442 182
441 182
440 182
439 181
438 181
437 181
436 180
435 180
434 180
433 179
432 179
431 179
430 179
429 179
428 179
427 179
426 179
425 178
424 178
423 178
422 178
421 178
420 178
419 177
418 177
417 177
416 177
415 177
414 176
413 176
412 176
411 176
410 175
409 175
408 175
407 174
406 174
405 174
404 174
403 174
402 174
401 174
400 174
399 174
398 173
397 173
396 173
395 173
394 173
393 173
392 173
391 173
390 172
389 172
388 172
387 172
386 172
385 172
384 172
383 172
382 172
381 172
380 172
379 172
378 172
377 172
376 171
375 171
374 171
373 171
372 171
371 171
370 171
369 171
368 171
367 171
366 171
365 171
364 171
363 171
362 171
361 171
360 171
359 171
358 171
357 171
356 171
355 171
354 171
353 171
352 171
351 171
350 171
349 171
348 171
347 171
346 171
345 171
344 171
343 171
342 172
341 172
340 172
339 172
338 172
337 172
336 172
335 172
334 172
333 172
332 172
331 172
330 173
329 173
328 173
327 173
326 173
325 174
324 174
323 174
322 174
321 174
320 175
319 175
318 175
317 175
316 176
315 176
314 176
313 176
312 176
311 176
310 177
309 177
308 177
307 177
306 178
305 178
304 178
303 178
302 178
301 179
300 179
299 179
298 179
297 179
296 179
295 179
294 179
293 179
292 179
291 179
290 180
289 180
288 180
287 180
286 181
285 181
284 181
283 181
282 182
281 182
280 183
279 183
278 183
277 184
276 184
275 184
274 184
273 184
272 184
271 185
270 185
269 185
268 185
267 185
266 184
265 184
264 183
263 183
262 183
261 183
261 184
260 185
260 186
259 187
258 187
257 188
256 188
255 189
254 189
253 189
252 190
251 190
250 190
249 191
248 191
247 191
246 191
245 192
244 192
243 192
242 192
241 192
240 193
239 193
238 193
237 193
236 193
235 194
234 194
233 194
232 194
231 195
230 195
229 195
228 195
227 195
226 195
225 195
224 195
223 195
222 195
221 195
220 195
219 195
218 195
217 195
216 196
215 196
214 196
213 197
212 197
211 197
210 198
209 198
208 198
207 199
206 199
205 200
204 200
203 201
202 201
201 202
200 202
199 203
198 203
197 203
196 203
195 204
194 204
193 204
192 205
191 205
190 205
189 206
188 206
187 207
186 207
185 208
184 208
183 209
182 209
181 210
180 210
179 211
178 211
177 212
176 213
175 214
174 215
173 215
172 216
171 216
170 217
169 218
168 219
167 219
166 220
165 221
164 222
163 222
162 223
161 224
160 225
159 226
158 227
157 228
156 228
155 229
154 230
153 230
152 231
151 231
150 232
149 233
148 234
147 235
146 236
145 236
144 237
143 238
142 238
141 239
140 240
139 241
138 242
137 243
136 243
135 244
134 245
133 246
132 247
131 247
130 248
129 249
128 250
127 250
126 251
125 252
124 252
123 253
122 254
121 255
120 256
119 256
118 257
117 258
116 259
115 260
114 261
113 262
