422 54
421 55
420 55
419 55
418 55
417 56
416 56
415 56
414 57
413 57
412 57
411 57
410 58
409 58
408 58
407 58
406 59
405 59
404 59
403 60
402 60
401 60
400 60
399 60
398 61
397 61
396 61
395 62
394 62
393 62
392 62
391 62
390 62
389 61
388 62
387 62
386 62
385 62
384 62
383 61
382 61
381 62
380 62
379 62
378 61
377 61
376 62
375 62
374 62
373 63
372 63
371 63
370 63
369 63
368 64
367 64
366 65
365 65
364 65
363 66
362 66
361 67
360 67
359 67
358 67
357 68
356 68
355 67
354 68
353 68
352 68
351 68
350 68
349 68
348 68
347 68
346 68
345 69
344 70
344 71
344 72
343 73
342 74
341 75
342 75
343 76
343 77
342 78
341 78
340 79
339 79
338 79
337 79
336 79
335 80
334 80
333 80
332 81
331 81
330 80
329 80
328 80
327 80
326 80
325 79
324 79
323 79
322 78
321 78
320 78
319 78
318 78
317 78
316 78
315 78
314 78
313 78
312 78
311 79
310 79
309 79
308 80
307 80
306 81
305 81
304 81
303 81
302 81
301 82
300 82
299 82
298 82
297 83
296 83
295 83
294 83
293 83
292 82
291 82
290 82
289 82
288 82
287 82
286 83
286 84
285 85
284 86
283 86
282 87
281 87
280 88
279 88
278 89
277 89
276 89
275 90
274 90
273 91
272 91
271 91
270 92
269 92
268 92
267 93
266 93
265 93
264 93
263 93
262 93
261 93
260 94
259 94
258 94
257 95
256 95
255 95
254 96
253 96
252 97
251 97
250 98
249 98
248 99
247 99
246 99
245 100
244 100
243 101
242 101
241 101
240 102
239 102
238 102
237 103
236 103
235 103
234 103
233 103
232 103
231 103
230 103
229 104
229 105
228 106
227 107
227 108
226 109
225 110
225 111
224 112
223 113
222 113
221 114
221 115
220 116
219 115
218 116
217 117
216 118
216 119
215 120
214 119
213 119
212 119
211 120
210 120
209 120
208 120
207 120
206 121
205 121
204 121
203 121
202 122
201 123
200 123
199 124
198 124
197 125
196 125
195 126
194 126
193 126
192 127
191 127
190 128
189 128
188 128
187 129
186 129
185 129
184 129
183 129
182 129
181 130
180 130
179 130
178 130
177 130
176 131
175 131
175 132
175 133
174 134
174 135
174 136
174 137
174 138
174 139
174 140
173 141
172 142
172 143
171 144
170 145
169 146
169 147
168 148
167 148
166 149
165 149
164 150
163 150
162 151
161 152
160 152
159 153
158 154
157 154
156 155
155 156
154 156
153 157
152 157
151 158
150 159
149 160
148 160
147 161
146 162
145 162
144 162
143 162
142 163
141 163
140 164
139 164
138 165
138 166
139 167
139 168
139 169
139 170
139 171
139 172
139 173
138 174
138 175
137 176
137 177
136 178
136 179
135 180
135 181
134 182
133 183
132 184
131 185
130 185
129 186
128 187
127 187
126 187
125 187
124 188
123 188
122 188
121 189
120 189
119 190
118 190
117 191
116 192
115 192
114 192
113 193
112 193
111 193
110 194
109 195
108 196
107 195
106 195
105 196
104 196
103 197
103 198
103 199
103 200
104 201
104 202
104 203
104 204
104 205
104 206
104 207
104 208
103 209
102 210
101 211
100 212
99 213
98 214
97 214
96 214
95 214
94 215
93 215
92 215
92 216
91 217
90 216
89 217
88 217
87 218
86 218
85 218
84 219
83 219
82 220
82 221
82 222
81 223
81 224
80 225
80 226
79 227
79 228
78 229
77 228
76 228
75 229
74 229
73 230
72 230
71 230
70 230
69 231
68 232
67 232
66 231
65 231
64 231
63 231
62 230
61 231
60 231
59 231
58 231
57 231
56 231
55 232
54 231
53 231
52 231
51 231
50 231
49 232
48 231
47 232
46 232
45 232
44 232
43 233
42 233
41 233
40 233
39 233
38 233
37 233
36 233
35 234
35 235
36 236
37 236
38 237
39 238
40 239
41 240
42 241
43 242
44 243
45 244
46 244
47 245
48 246
49 247
50 248
51 248
52 249
53 249
54 250
55 251
56 251
57 252
58 252
59 253
60 253
61 253
62 254
61 255
60 255
61 255
62 256
63 256
64 256
65 257
66 258
67 257
68 258
69 259
69 260
69 261
70 262
71 263
72 263
73 263
74 264
75 265
76 266
77 267
78 267
79 267
80 268
81 268
82 268
83 269
84 269
85 269
86 269
87 270
86 271
85 271
86 271
87 272
88 272
89 273
90 274
90 275
90 276
91 277
91 278
92 279
92 280
92 281
92 282
91 283
90 284
90 285
90 286
91 287
92 288
93 288
94 289
95 290
96 290
97 291
98 291
99 292
100 293
101 294
102 295
103 295
104 295
105 296
106 296
107 297
108 298
109 299
110 299
111 299
112 300
113 300
114 301
115 301
116 302
117 303
118 304
119 305
120 306
121 307
121 308
122 309
122 310
123 311
122 312
122 313
122 314
122 315
122 316
121 317
121 318
121 319
120 320
121 321
122 322
123 322
124 323
125 323
126 324
127 324
128 324
129 325
130 325
131 326
132 326
133 327
134 327
135 328
136 328
137 329
138 330
138 331
139 331
140 332
141 332
142 333
143 334
144 334
145 335
146 335
147 336
148 336
149 336
150 337
151 337
152 338
153 338
154 339
155 339
156 340
157 340
158 341
158 342
159 343
160 344
160 345
161 346
161 347
161 348
161 349
162 350
162 351
162 352
163 353
163 354
163 355
162 356
162 357
162 358
162 359
162 360
163 361
164 362
165 362
166 363
167 363
168 364
169 364
170 365
171 365
172 365
173 366
174 366
175 367
176 367
177 368
178 369
179 369
180 369
181 370
182 370
183 371
184 371
185 372
186 373
187 373
188 373
189 374
190 374
191 375
192 375
193 375
194 376
195 377
196 377
197 377
198 378
199 379
200 380
201 381
201 382
202 383
203 384
203 385
204 386
204 387
205 388
204 389
205 390
205 391
205 392
206 393
206 394
206 395
205 396
205 397
204 398
204 399
205 400
206 401
207 401
208 401
209 402
210 403
211 403
212 403
213 404
214 404
215 404
216 405
215 406
216 405
217 406
218 406
219 407
220 408
221 408
222 409
222 410
223 410
224 410
225 410
226 411
226 412
227 412
228 412
229 413
230 413
231 414
232 414
233 414
234 415
233 416
234 415
235 416
236 416
237 417
238 418
239 418
240 418
241 418
242 419
241 420
242 420
243 421
244 421
245 421
246 422
247 422
248 422
249 423
250 423
251 423
252 423
253 424
252 423
253 422
254 422
255 423
255 424
256 424
257 425
258 426
259 426
260 426
261 427
261 428
262 429
263 430
264 431
265 432
266 432
267 433
268 434
268 435
268 436
268 437
269 438
270 438
271 438
272 439
273 440
274 440
275 440
276 440
277 440
278 441
278 442
279 442
280 442
281 443
282 443
283 443
284 443
285 443
286 442
287 443
287 444
288 444
289 445
290 444
291 445
292 445
293 445
294 446
295 446
296 446
297 447
298 446
299 446
300 447
301 447
302 447
303 448
302 449
301 449
302 449
303 448
304 448
305 448
306 449
307 450
306 451
307 451
308 451
309 451
310 451
311 451
312 452
313 452
314 452
315 452
316 452
317 452
318 452
319 452
320 452
321 453
322 453
323 452
324 452
325 453
326 454
327 453
328 454
329 454
330 454
331 454
332 454
333 454
334 455
334 456
335 456
336 456
337 456
338 457
339 458
340 458
341 459
341 460
342 460
343 461
343 462
344 462
345 463
346 463
347 463
348 463
349 463
350 464
349 465
350 465
351 465
352 465
353 466
354 466
355 466
356 466
357 466
358 466
359 466
360 466
361 466
362 466
363 466
364 466
365 466
366 466
367 466
368 466
369 465
370 465
371 465
372 465
373 466
374 466
375 466
376 466
377 466
378 466
379 466
380 466
381 466
382 466
383 466
384 466
385 466
386 466
387 466
388 466
389 466
390 466
391 466
392 466
393 466
394 466
395 466
396 466
397 466
398 466
399 466
400 467
401 467
402 467
403 467
404 468
405 468
406 468
407 468
408 469
409 469
410 469
411 469
412 469
413 469
414 469
415 470
416 471
415 472
414 472
413 471
413 472
414 472
415 472
416 472
417 471
418 472
418 473
419 473
420 473
421 473
422 473
423 473
424 473
425 472
426 472
427 472
428 471
429 471
430 471
431 471
432 470
433 470
434 470
435 470
436 470
437 470
438 471
439 471
440 472
441 472
442 473
443 473
444 474
445 474
446 474
447 474
448 474
449 474
450 474
451 474
452 474
453 474
454 473
455 473
456 473
457 473
458 473
459 472
460 471
461 471
462 471
463 472
464 471
464 470
465 469
466 469
467 468
468 469
469 469
470 468
471 468
472 468
473 468
474 468
475 467
476 467
477 467
478 467
479 466
480 466
481 466
482 466
483 465
484 465
485 465
486 465
487 465
488 465
487 465
486 465
485 465
484 465
483 465
482 464
483 463
484 463
485 463
486 463
487 463
488 463
489 463
490 463
491 463
492 463
493 463
494 463
495 464
496 463
497 463
498 463
499 463
500 463
501 463
502 463
503 463
504 463
505 463
506 464
507 464
508 464
509 463
510 463
511 463
512 462
513 462
514 461
515 461
516 460
517 460
518 460
519 459
520 459
521 459
522 459
523 458
524 458
525 458
526 457
527 457
528 457
529 457
530 456
531 456
532 455
533 455
534 455
535 455
536 454
537 454
538 454
538 453
539 452
540 452
541 452
542 451
543 451
544 450
545 449
546 449
547 448
548 448
549 447
550 446
551 446
552 445
553 445
554 444
555 443
556 442
557 442
558 441
559 440
560 440
561 439
561 438
562 437
563 436
564 436
565 435
566 434
567 433
568 432
569 432
570 432
571 431
572 430
573 429
574 428
575 428
576 427
577 426
578 425
579 425
580 424
581 423
582 423
583 422
584 421
585 420
586 419
587 419
588 418
589 418
590 417
591 417
592 416
593 415
594 416
594 415
595 414
596 414
597 413
598 413
599 412
600 412
601 411
602 411
603 411
604 411
605 410
606 409
607 409
608 408
609 408
610 407
611 406
612 405
613 405
614 405
615 405
616 404
617 403
618 402
619 401
620 401
621 401
622 400
623 400
624 399
625 398
626 397
627 397
628 396
629 395
630 395
631 394
631 393
632 392
633 392
634 391
635 390
636 389
637 389
638 388
639 387
640 386
641 385
642 384
643 383
644 382
644 381
645 380
646 380
646 379
647 378
648 377
649 376
649 375
648 374
649 373
650 373
651 372
652 371
653 371
654 370
654 369
655 368
656 367
656 366
657 365
658 364
659 363
659 362
660 361
660 360
661 359
662 358
662 357
663 356
664 355
664 354
665 353
666 352
666 351
667 350
668 349
669 348
669 347
670 346
670 345
671 344
672 343
673 342
674 341
675 340
675 339
676 338
676 337
677 336
677 335
678 334
678 333
679 332
679 331
680 330
680 329
681 328
681 327
682 326
682 325
682 324
683 323
684 322
684 321
684 320
685 319
685 318
686 317
686 316
687 315
687 314
688 313
688 312
688 311
689 310
689 309
690 308
690 307
691 306
691 305
692 304
692 303
693 302
693 301
694 300
694 299
694 298
695 297
695 296
696 295
696 294
697 293
697 292
697 291
698 290
698 289
697 288
698 287
699 287
699 286
700 285
700 284
700 283
700 282
701 281
701 280
701 279
702 278
702 277
703 276
704 275
705 275
706 274
707 274
708 274
709 274
710 274
711 274
712 274
713 273
714 273
715 273
716 273
717 273
718 273
719 273
720 273
721 273
722 274
723 273
724 273
725 273
726 273
727 273
728 274
729 274
730 274
731 274
732 274
733 273
734 273
735 273
736 274
737 274
738 274
739 273
740 273
741 273
742 273
743 273
744 273
745 273
746 273
747 273
748 273
749 274
750 274
751 274
752 274
753 275
754 275
755 275
756 275
757 275
758 275
759 274
760 274
761 274
762 273
763 273
764 273
765 273
766 273
766 272
766 271
766 270
766 269
766 268
766 267
766 266
765 265
765 264
764 264
763 265
762 265
761 266
760 266
759 266
758 265
757 266
756 265
755 265
754 266
753 266
752 266
751 266
750 266
749 265
749 264
748 264
747 265
746 265
745 265
744 266
743 265
742 265
741 266
740 265
739 265
738 265
737 265
736 265
735 265
734 266
733 265
733 264
732 263
731 263
730 263
729 263
728 263
727 264
726 264
725 264
724 263
723 263
722 263
721 263
720 263
719 263
718 263
717 263
716 263
715 262
714 262
713 262
712 262
711 262
710 262
709 261
708 262
707 261
706 260
707 259
706 258
706 257
706 256
706 255
705 254
705 253
705 252
705 251
705 250
705 249
705 248
704 247
704 246
704 245
703 244
703 243
703 242
703 241
703 240
702 239
702 238
702 237
702 236
701 235
701 234
701 233
700 232
700 231
700 230
700 229
699 228
699 227
699 226
698 225
698 224
698 223
697 222
697 221
697 220
697 219
696 218
696 217
695 216
695 215
695 214
694 213
694 212
693 211
693 210
692 209
692 208
691 207
690 206
690 205
689 204
689 203
688 202
688 201
687 200
687 199
686 198
686 197
685 196
685 195
684 194
683 193
683 192
683 191
682 191
681 190
682 189
682 188
681 187
680 186
680 185
679 184
679 183
678 182
678 181
677 180
676 179
675 178
675 177
674 177
673 176
673 175
672 174
672 173
672 172
671 171
670 170
669 169
668 168
667 167
667 166
666 165
665 164
664 163
663 162
662 161
661 160
660 159
659 158
658 157
657 156
656 156
655 155
654 154
654 153
653 152
652 151
651 150
650 149
650 148
649 147
648 146
647 145
647 144
646 143
645 142
644 141
644 140
643 139
642 138
641 138
640 137
640 136
639 135
638 134
638 133
637 132
636 131
635 130
634 129
633 128
632 127
632 126
631 126
630 125
630 124
629 123
628 122
628 121
627 121
626 120
625 119
624 119
623 118
622 118
621 117
620 116
619 116
618 115
618 114
617 114
616 113
615 112
614 111
613 111
612 110
611 109
610 109
609 108
608 108
607 108
606 107
605 107
604 106
603 105
602 105
601 104
600 104
599 104
598 104
597 104
596 104
595 105
594 105
593 105
592 104
591 104
590 104
589 104
588 104
587 103
586 103
585 102
584 102
583 102
582 102
581 102
580 101
579 101
578 101
577 101
576 100
575 100
574 100
573 99
572 98
571 98
570 98
569 97
568 96
567 95
566 95
565 95
564 94
563 93
562 92
561 91
560 90
559 89
558 89
557 88
556 87
555 87
554 86
553 85
552 85
551 85
550 85
549 84
548 83
547 83
546 82
545 82
544 82
543 81
542 81
541 80
540 80
539 79
538 79
537 78
536 78
535 77
534 77
533 76
532 76
531 76
530 75
529 75
528 75
527 74
526 73
525 73
524 72
523 72
522 72
521 71
520 71
519 70
518 70
517 70
516 69
515 69
514 69
513 68
512 67
511 67
510 67
509 66
508 66
507 65
506 65
505 65
504 65
503 65
502 65
501 66
500 66
499 66
498 67
497 67
496 67
495 67
494 67
493 67
492 67
491 67
490 67
489 67
488 67
487 67
486 67
485 67
484 67
483 67
482 67
481 67
480 67
479 67
478 67
477 67
476 67
475 66
474 66
473 66
472 66
471 65
470 65
469 64
468 63
467 62
466 62
465 61
464 60
463 60
462 60
461 60
460 59
459 59
458 59
457 59
456 59
455 59
454 59
453 58
452 58
451 58
450 58
449 58
448 57
447 57
446 57
445 57
444 57
443 57
442 57
441 57
440 57
439 57
438 57
437 56
436 56
435 56
434 56
433 56
432 56
431 56
430 55
429 55
428 55
427 55
426 55
425 54
424 54
423 54
422 54
