685 121
684 122
683 123
682 123
681 124
680 124
679 125
678 126
677 126
676 126
675 126
674 127
673 128
672 128
671 128
670 129
669 129
668 130
667 129
666 130
665 130
664 131
663 130
662 131
661 132
660 132
659 132
658 132
657 132
656 133
655 133
654 133
653 134
652 133
651 134
650 134
649 134
648 133
647 133
646 134
645 134
644 134
643 134
642 134
641 134
640 134
639 134
638 134
637 134
636 134
635 134
634 134
633 134
632 135
631 135
630 134
629 134
628 135
627 135
626 135
625 135
624 135
623 135
622 135
621 135
620 135
619 135
618 135
617 135
616 136
615 136
614 136
613 136
612 136
611 136
610 136
609 136
608 136
607 137
606 137
605 137
604 137
603 137
602 137
601 137
600 137
599 137
598 138
597 138
596 137
595 137
594 138
593 138
592 138
591 138
590 138
589 138
588 138
587 138
586 138
585 139
584 138
583 138
582 138
581 139
580 139
579 138
578 138
577 138
576 138
575 139
574 139
573 138
572 138
571 139
570 139
569 139
568 139
567 139
566 139
565 139
564 139
563 139
562 139
561 139
560 138
559 138
558 138
557 138
556 138
555 138
554 138
553 138
552 138
551 138
550 138
549 138
548 138
547 138
546 138
545 138
544 138
543 138
542 138
541 138
540 138
539 138
538 138
537 138
536 138
535 138
534 138
533 138
532 138
531 138
530 138
529 138
528 138
527 138
526 138
525 138
524 138
523 139
522 139
521 139
520 139
519 139
518 139
517 139
516 139
515 139
514 139
513 139
512 139
511 140
510 140
509 140
508 140
507 140
506 140
505 141
504 141
503 141
502 141
501 141
500 141
499 141
498 141
497 141
496 141
495 141
494 141
493 141
492 141
491 141
490 141
489 141
488 141
487 141
486 141
485 141
484 141
483 141
482 141
481 141
480 141
479 141
478 141
477 141
476 142
475 141
474 141
473 142
472 142
471 142
470 142
469 142
468 142
467 142
466 142
465 142
464 142
463 142
462 142
461 142
460 142
459 143
458 143
457 143
456 142
455 143
454 143
453 143
452 143
451 143
450 143
449 143
448 143
447 143
446 143
445 143
444 143
443 143
442 143
441 143
440 143
439 143
438 143
437 143
436 143
435 143
434 143
433 143
432 143
431 143
430 143
429 143
428 143
427 143
426 143
425 143
424 144
423 144
422 144
421 144
420 144
419 144
418 144
417 144
416 144
415 144
414 144
413 144
412 144
411 144
410 145
409 145
408 145
407 145
406 145
405 145
404 145
403 145
402 146
401 146
400 146
399 146
398 146
397 146
396 146
395 146
394 146
393 146
392 147
391 146
390 146
389 147
388 147
387 147
386 147
385 147
384 147
383 148
382 148
381 147
380 147
379 148
378 147
377 148
376 148
375 147
374 148
373 147
372 147
371 148
370 147
369 147
368 147
367 148
366 148
365 148
364 148
363 148
362 148
361 148
360 148
359 148
358 148
357 148
356 148
355 148
354 149
353 149
352 149
351 149
350 149
349 149
348 149
347 149
346 149
345 149
344 149
343 150
342 150
341 150
340 150
339 150
338 150
337 150
336 150
335 150
334 150
333 150
332 151
331 151
330 151
329 151
328 151
327 151
326 151
325 151
324 151
323 152
322 152
321 152
320 152
319 152
318 152
317 152
316 152
315 152
314 152
313 153
312 153
311 153
310 153
309 153
308 153
307 153
306 153
305 153
304 153
303 153
302 153
301 153
300 153
299 154
298 153
297 154
296 154
295 154
294 154
293 154
292 154
291 155
290 154
289 155
288 155
287 155
286 156
285 156
284 156
283 156
282 156
281 156
280 156
279 156
278 156
277 157
276 157
275 157
274 157
273 157
272 157
271 157
270 158
269 158
268 158
267 158
266 158
265 158
264 159
263 159
262 159
261 159
260 159
259 159
258 160
257 160
256 160
255 160
254 161
253 161
252 161
251 161
250 161
249 161
248 161
247 161
246 162
245 162
244 162
243 162
242 163
241 163
240 163
239 163
238 164
237 164
236 164
235 164
234 164
233 164
232 165
231 165
230 165
229 165
228 165
227 165
226 165
225 165
224 165
223 165
222 165
221 166
220 165
219 165
218 166
217 166
216 166
215 166
214 166
213 166
212 166
211 166
210 166
209 166
208 166
207 166
206 166
205 166
204 167
203 167
202 166
201 167
200 167
199 167
198 167
197 167
196 167
195 167
194 168
193 168
192 168
191 168
190 169
189 169
188 169
187 169
186 169
185 170
184 170
183 170
182 170
181 171
180 171
179 171
178 171
177 172
176 172
175 172
174 172
173 173
172 173
171 173
170 173
169 174
168 174
167 174
166 174
165 175
164 175
163 176
162 176
161 176
160 176
159 176
158 176
157 176
156 177
155 177
154 177
153 177
152 178
151 178
150 178
149 178
148 179
147 180
146 180
145 180
144 180
143 180
142 180
141 180
140 181
139 181
138 181
137 181
136 182
135 182
134 182
133 182
132 182
131 183
130 183
129 183
128 183
127 183
126 184
125 184
124 184
123 184
122 184
121 185
120 185
119 185
118 185
117 185
116 185
115 186
114 186
113 186
112 187
111 187
110 187
109 187
108 188
107 188
106 189
105 189
104 189
103 190
102 190
101 190
100 191
99 191
98 191
97 192
96 193
95 193
94 193
93 194
92 194
91 194
90 195
89 195
88 195
87 196
86 196
85 196
84 196
83 195
82 195
81 194
80 193
79 193
79 194
79 195
79 196
80 197
81 198
81 199
82 200
83 201
84 202
85 203
86 204
87 205
88 205
89 206
90 207
91 208
92 209
93 209
94 210
95 211
96 211
97 212
98 212
99 212
100 213
101 214
102 214
103 214
104 215
105 215
106 215
107 216
107 217
108 217
109 218
110 218
111 218
112 219
113 219
114 220
115 220
116 220
117 221
118 221
119 222
120 222
121 223
122 223
123 224
124 224
125 224
126 225
127 225
128 225
129 226
130 226
131 227
132 227
133 228
134 228
135 228
136 229
137 229
138 229
139 229
140 230
141 230
142 230
143 231
144 231
145 231
146 231
147 232
148 232
149 232
150 233
151 233
152 233
153 233
154 234
155 234
156 234
157 234
158 234
159 234
160 235
161 235
162 235
163 235
164 235
165 235
166 236
167 236
168 236
169 236
170 237
171 237
172 237
173 237
174 237
175 238
176 238
177 238
178 238
179 238
180 238
181 238
182 238
183 239
184 239
185 239
186 238
187 239
188 239
189 239
190 238
191 239
192 239
193 239
194 238
195 239
196 239
197 239
198 239
199 239
200 239
201 239
202 239
203 240
204 240
205 240
206 240
207 240
208 241
209 241
210 241
211 242
212 242
213 242
214 242
215 242
216 242
217 242
218 242
219 243
220 243
221 243
222 243
223 243
224 243
225 243
226 244
227 243
228 244
229 244
230 244
231 244
232 244
233 244
234 245
235 244
236 245
237 245
238 245
239 245
240 246
241 246
242 246
243 246
244 246
245 246
246 247
247 247
248 247
249 247
250 247
251 247
252 247
253 248
254 248
255 248
256 248
257 248
258 248
259 248
260 248
261 248
262 248
263 248
264 248
265 248
266 248
267 248
268 248
269 248
270 249
271 249
272 249
273 248
274 249
275 249
276 249
277 249
278 249
279 249
280 249
281 249
282 249
283 249
284 249
285 249
286 249
287 249
288 249
289 249
290 249
291 249
292 249
293 248
294 248
295 249
296 249
297 248
298 248
299 248
300 248
301 248
302 248
303 248
304 248
305 248
306 248
307 248
308 248
309 248
310 248
311 247
312 247
313 248
314 247
315 247
316 247
317 247
318 247
319 246
320 246
321 246
322 246
323 246
324 246
325 246
326 245
327 245
328 245
329 245
330 245
331 245
332 245
333 245
334 245
335 244
336 244
337 244
338 244
339 244
340 244
341 243
342 243
343 244
344 243
345 243
346 243
347 243
348 243
349 243
350 243
351 243
352 242
353 243
354 242
355 242
356 242
357 242
358 242
359 242
360 242
361 242
362 242
363 241
364 241
365 241
366 241
367 241
368 240
369 240
370 240
371 240
372 240
373 240
374 240
375 240
376 239
377 239
378 239
379 239
380 239
381 239
382 239
383 239
384 239
385 239
386 239
387 239
388 239
389 238
390 238
391 239
392 238
393 238
394 238
395 238
396 238
397 238
398 238
399 238
400 238
401 237
402 237
403 237
404 237
405 237
406 237
407 237
408 236
409 236
410 236
411 236
412 236
413 236
414 236
415 236
416 236
417 236
418 236
419 236
420 235
421 235
422 235
423 235
424 235
425 235
426 235
427 235
428 234
429 234
430 234
431 234
432 234
433 234
434 233
435 233
436 233
437 233
438 233
439 233
440 233
441 233
442 233
443 233
444 232
445 232
446 232
447 232
448 232
449 232
450 232
451 231
452 231
453 231
454 231
455 231
456 231
457 230
458 230
459 230
460 230
461 229
462 229
463 229
464 228
465 228
466 228
467 228
468 227
469 227
470 227
471 227
472 226
473 226
474 225
475 225
476 225
477 225
478 224
479 224
480 224
481 223
482 223
483 222
484 222
485 222
486 221
487 221
488 220
489 220
490 219
491 219
492 219
493 218
494 218
495 218
496 217
497 216
498 216
499 216
500 215
501 215
502 215
503 214
504 213
505 213
506 213
507 212
508 212
509 211
510 211
511 211
512 210
513 209
514 209
515 209
516 208
517 208
518 208
519 207
520 207
521 206
522 206
523 206
524 205
525 205
526 204
527 204
528 204
529 203
530 203
531 203
532 203
533 202
534 202
535 202
536 201
537 201
538 200
539 200
540 200
541 199
542 199
543 199
544 198
545 198
546 197
547 197
548 197
549 196
550 196
551 195
552 195
553 195
554 194
555 194
556 193
557 193
558 193
559 192
560 192
561 191
562 191
563 191
564 191
565 190
566 189
567 189
568 189
569 188
570 188
571 187
572 187
573 186
574 186
575 186
576 185
577 184
578 184
579 184
580 183
581 183
582 182
583 182
584 181
585 181
586 180
587 180
588 180
589 179
590 179
591 178
592 178
593 177
594 176
595 176
596 176
597 175
598 174
599 174
600 174
601 173
602 172
603 172
604 172
605 171
606 171
607 170
608 170
609 169
610 169
611 168
612 168
613 168
614 167
615 167
616 166
617 165
618 165
619 164
620 164
621 163
622 163
623 162
624 162
625 161
626 160
627 160
628 159
629 159
630 158
631 158
632 157
633 156
634 156
635 155
636 154
637 153
638 153
639 153
640 152
641 152
642 151
643 151
643 150
644 149
645 149
646 148
647 148
648 147
649 147
650 146
651 145
652 144
653 144
654 143
655 143
656 142
657 141
658 141
659 140
660 140
661 140
662 139
663 139
664 138
665 139
665 138
666 137
667 138
668 138
669 137
670 136
671 137
672 137
672 136
672 135
673 134
674 135
674 136
675 135
675 134
676 133
677 133
678 134
678 135
679 134
680 133
681 134
681 135
681 134
681 133
682 132
682 131
683 130
684 131
684 132
684 133
684 134
684 133
684 132
684 131
685 130
686 131
686 132
686 133
686 132
687 131
688 131
688 130
689 129
690 129
691 129
692 129
693 128
693 127
693 126
693 125
692 124
692 123
692 122
691 121
690 121
689 121
688 121
687 121
686 121
685 121
