409 79
408 80
407 80
406 80
405 80
404 80
403 80
402 81
401 81
400 81
399 81
398 81
397 81
396 81
395 81
394 82
393 82
392 82
391 82
390 82
389 82
388 82
387 82
386 82
385 82
384 83
383 83
382 83
381 83
380 83
379 83
378 83
377 83
376 83
375 84
374 84
373 84
372 84
371 84
370 84
369 84
368 84
367 84
366 84
365 84
364 84
363 84
362 84
361 84
360 84
359 84
358 84
357 84
356 84
355 84
354 84
353 84
352 84
351 85
350 85
349 85
348 85
347 85
346 85
345 86
344 86
343 86
342 86
341 86
340 86
339 86
338 86
337 87
336 87
335 87
334 87
333 88
332 88
331 88
330 88
329 88
328 89
327 89
326 89
325 90
324 90
323 91
322 91
321 91
320 92
319 92
318 92
317 93
316 93
315 94
314 94
313 94
312 95
311 95
310 96
309 96
308 97
307 97
306 98
305 98
304 98
303 98
302 98
301 99
300 99
299 99
298 100
297 100
296 100
295 100
294 100
293 100
292 101
291 101
290 101
289 102
288 102
287 102
286 103
285 103
284 103
283 104
282 104
281 104
280 104
279 104
278 104
277 104
276 104
275 104
274 105
273 105
272 105
271 105
270 105
269 105
268 105
267 105
266 105
265 105
264 105
263 105
262 105
261 105
260 106
259 106
258 106
257 107
256 107
255 107
254 107
253 107
252 108
251 108
250 108
249 108
248 109
247 109
246 109
245 110
244 110
243 111
242 111
241 111
240 112
239 112
238 113
237 113
236 114
235 114
234 114
233 115
232 115
231 116
230 117
229 117
228 118
227 118
226 118
225 119
224 119
223 120
222 120
221 121
220 121
219 122
218 123
217 123
216 123
215 124
214 124
213 125
212 125
211 126
210 126
209 127
208 127
207 127
206 128
205 128
204 129
203 129
202 129
201 130
200 130
199 130
198 131
197 131
196 132
195 133
194 133
193 134
192 135
191 136
190 137
189 138
188 139
187 140
186 140
185 140
184 141
183 141
182 142
181 142
180 143
179 144
178 144
177 145
176 146
175 146
174 147
173 148
172 148
171 149
170 150
169 150
168 151
167 152
166 152
165 153
164 154
163 154
162 155
161 156
160 156
159 157
158 158
157 158
156 159
155 160
154 160
153 161
152 162
151 163
150 164
149 164
148 165
147 166
146 167
145 168
144 169
143 169
142 170
141 171
140 172
139 173
138 173
137 174
136 175
135 176
134 177
133 177
132 178
131 178
130 179
129 180
128 181
127 181
126 182
125 183
124 183
123 184
122 184
121 185
120 185
119 186
118 187
117 188
116 188
115 189
114 190
113 191
112 192
111 192
110 193
109 193
108 194
107 194
106 195
105 196
104 197
103 197
102 198
101 198
100 199
99 200
98 200
97 201
96 201
95 202
94 202
93 202
92 203
91 203
90 203
89 204
88 205
87 205
86 206
85 206
84 207
83 207
82 208
81 208
80 208
79 209
78 209
77 210
76 210
75 211
74 211
73 212
72 212
71 212
70 213
69 213
68 214
67 214
66 214
65 215
64 215
63 216
62 217
61 217
60 218
59 218
58 219
57 219
56 220
55 221
54 222
53 222
52 223
51 224
50 224
49 225
48 226
47 227
46 228
45 229
44 230
44 231
44 232
43 233
43 234
43 235
43 236
44 237
44 238
45 239
46 240
47 241
48 241
49 242
50 243
51 243
52 244
53 245
54 246
55 247
56 248
57 249
58 249
59 250
60 251
61 251
62 252
63 253
64 254
65 255
66 256
67 256
68 257
69 258
70 259
71 260
72 261
73 262
74 263
75 264
76 265
76 266
77 267
78 267
79 268
79 269
80 270
81 271
82 272
83 273
84 274
85 275
86 276
87 277
88 278
89 278
90 279
91 280
92 281
93 282
94 282
95 283
96 283
97 284
98 284
99 285
100 286
101 286
102 287
103 288
104 288
105 289
106 290
106 291
107 292
108 293
109 294
110 295
111 296
112 297
113 298
113 299
114 300
115 301
116 302
117 303
118 304
118 305
119 306
120 307
121 308
122 309
123 310
124 311
125 312
126 313
127 314
127 315
128 316
129 317
129 318
130 319
131 319
132 320
132 321
133 322
134 323
135 324
136 325
137 326
138 327
139 328
140 329
141 330
142 331
143 332
144 332
145 333
146 334
147 334
148 335
149 336
150 337
151 338
152 338
153 339
154 340
155 341
156 341
157 342
158 343
159 343
160 344
161 344
162 344
163 344
164 345
165 346
166 347
167 348
168 348
169 349
170 350
171 350
172 351
173 351
174 352
175 353
176 354
177 354
178 354
179 355
180 356
181 357
182 357
183 358
184 359
185 360
186 360
187 361
188 362
189 362
190 363
191 363
192 364
193 364
194 365
195 365
196 366
197 366
198 367
199 368
200 368
201 368
202 369
203 369
204 369
205 370
206 370
207 370
208 371
209 371
210 371
211 372
212 372
213 372
214 373
215 373
216 373
217 374
218 374
219 375
220 375
221 375
222 375
223 376
224 376
225 376
226 376
227 376
228 377
229 377
230 377
231 378
232 378
233 379
234 379
235 380
236 380
237 381
238 381
239 381
240 382
241 382
242 383
243 383
244 384
245 384
246 384
247 385
248 385
249 386
250 386
251 387
252 387
253 388
254 388
255 388
256 389
257 389
258 390
259 390
260 391
261 391
262 392
263 393
264 394
265 394
266 395
267 395
268 396
269 397
270 397
271 398
272 398
273 399
274 400
275 400
276 401
277 402
278 402
279 403
280 404
281 405
282 405
283 406
284 407
285 407
286 408
287 409
288 409
289 410
290 410
291 411
292 411
293 411
294 412
295 412
296 412
297 412
298 413
299 413
300 413
301 413
302 413
303 413
304 413
305 414
306 414
307 414
308 414
309 414
310 414
311 414
312 414
313 414
314 414
315 414
316 414
317 414
318 414
319 414
320 414
321 414
322 414
323 414
324 414
325 414
326 414
327 414
328 414
329 414
330 414
331 414
332 414
333 415
334 415
335 415
336 415
337 415
338 415
339 416
340 416
341 416
342 416
343 416
344 417
345 417
346 417
347 418
348 418
349 419
350 420
351 420
352 420
353 421
354 422
355 423
356 423
357 424
358 424
359 425
360 425
361 426
362 426
363 427
364 427
365 427
366 428
367 428
368 428
369 429
370 429
371 429
372 430
373 430
374 430
375 430
376 431
377 431
378 431
379 431
380 431
381 432
382 432
383 432
384 432
385 432
386 432
387 432
388 432
389 432
390 433
391 433
392 433
393 433
394 433
395 433
396 433
397 433
398 433
399 433
400 433
401 433
402 433
403 433
404 433
405 433
406 433
407 433
408 433
409 433
410 433
411 433
412 432
413 432
414 432
415 432
416 432
417 432
418 432
419 431
420 431
421 431
422 431
423 430
424 430
425 430
426 430
427 429
428 429
429 429
430 428
431 428
432 428
433 427
434 427
435 427
436 426
437 426
438 425
439 425
440 425
441 424
442 424
443 424
444 424
445 423
446 423
447 423
448 423
449 423
450 423
451 423
452 423
453 423
454 423
455 423
456 423
457 423
458 423
459 423
460 423
461 423
462 423
463 423
464 423
465 423
466 423
467 423
468 423
469 423
470 423
471 423
472 423
473 423
474 423
475 423
476 423
477 423
478 423
479 423
480 423
481 423
482 423
483 423
484 423
485 423
486 423
487 423
488 423
489 423
490 422
491 422
492 422
493 422
494 422
495 422
496 422
497 422
498 421
499 421
500 421
501 421
502 421
503 420
504 420
505 419
506 419
507 418
508 418
509 418
510 418
511 418
512 417
513 417
514 417
515 417
516 417
517 417
518 416
519 416
520 416
521 415
522 415
523 415
524 415
525 415
526 415
527 414
528 414
529 414
530 414
531 414
532 413
533 413
534 413
535 413
536 413
537 412
538 412
539 412
540 412
541 411
542 411
543 411
544 410
545 410
546 409
547 409
548 409
549 408
550 408
551 407
552 407
553 406
554 405
555 404
556 404
557 403
558 402
559 402
560 402
561 401
562 401
563 400
564 400
565 399
566 399
567 398
568 397
569 397
570 396
571 396
572 395
573 395
574 394
575 394
576 393
577 392
578 391
579 390
580 389
581 389
582 389
582 388
583 387
584 387
585 386
586 386
587 385
588 384
589 383
590 383
591 382
592 382
593 381
594 380
595 380
596 379
597 378
598 377
599 376
600 375
601 374
602 373
603 372
604 371
605 371
606 370
607 369
608 369
609 368
609 367
610 366
611 365
612 364
613 363
614 362
615 361
616 361
617 360
618 359
619 358
620 357
621 356
622 355
623 355
624 354
624 353
625 352
626 352
627 351
628 350
629 349
630 349
631 348
632 347
633 346
634 346
634 345
635 344
636 344
637 343
638 342
639 341
640 340
641 339
642 339
643 338
643 337
644 336
644 335
645 334
646 334
646 333
647 332
648 331
649 330
650 329
651 328
652 327
652 326
653 325
653 324
654 323
655 323
655 322
655 321
656 320
656 319
656 318
656 317
657 316
658 315
659 315
660 314
660 313
661 312
662 312
663 312
664 311
665 311
666 311
667 311
668 311
669 311
670 311
671 311
672 311
673 311
674 311
675 311
676 311
677 311
678 312
679 312
680 312
681 312
682 312
683 312
684 312
685 312
686 312
687 313
688 313
689 313
690 313
691 313
692 314
693 314
694 314
695 314
696 314
697 314
698 315
699 315
700 315
701 315
702 315
703 316
704 316
705 316
706 316
707 316
708 317
709 317
710 317
711 318
712 318
713 318
714 318
715 319
716 319
717 320
718 320
719 321
720 321
721 322
722 322
723 323
724 324
725 325
726 325
727 326
728 327
729 328
730 328
731 329
732 329
733 330
734 330
735 330
736 330
737 330
738 330
739 329
740 329
741 329
742 329
743 329
744 329
745 328
746 328
747 328
747 327
747 326
747 325
747 324
748 323
749 322
750 321
751 320
750 319
750 318
750 317
750 316
750 315
750 314
749 313
748 312
747 311
747 310
746 309
746 308
746 307
746 306
746 305
746 304
747 303
747 302
747 301
747 300
747 299
748 298
747 298
746 298
745 298
744 298
743 298
742 298
741 298
740 298
739 298
738 298
737 298
736 297
735 297
734 297
733 297
732 296
731 296
730 297
729 296
728 296
727 295
726 295
725 295
724 295
723 295
722 294
721 293
720 292
719 291
718 290
718 291
718 292
717 293
716 293
715 292
715 291
714 291
713 292
712 292
711 292
710 291
709 291
708 292
707 291
707 290
706 291
705 291
704 291
703 290
702 289
702 288
701 288
701 289
700 290
699 289
699 288
698 288
697 287
696 288
695 289
694 289
693 288
692 288
691 287
690 286
689 285
689 286
689 287
688 288
687 287
686 286
685 287
684 287
683 287
682 286
681 285
680 286
679 286
678 285
677 284
676 284
675 284
674 284
673 284
672 283
672 282
672 281
671 280
671 279
670 278
670 277
670 276
670 275
671 274
671 273
671 272
670 271
670 270
671 269
671 268
671 267
671 266
671 265
671 264
671 263
671 262
671 261
671 260
671 259
671 258
671 257
671 256
671 255
671 254
671 253
671 252
671 251
671 250
671 249
670 248
670 247
670 246
670 245
670 244
670 243
670 242
670 241
670 240
670 239
669 238
669 237
669 236
669 235
668 234
668 233
668 232
667 231
667 230
667 229
667 228
666 227
666 226
665 225
664 224
664 223
663 222
663 221
662 220
662 219
661 218
661 217
660 216
659 215
659 214
658 213
658 212
657 211
657 210
656 209
656 208
655 207
655 206
654 205
653 204
653 203
652 202
652 201
651 200
651 199
650 198
649 197
648 196
648 195
647 194
646 193
645 192
644 191
643 190
642 189
641 188
640 187
639 186
639 185
638 184
637 183
636 182
635 181
634 181
633 180
633 179
632 178
631 177
630 176
629 175
628 174
627 173
626 172
625 172
624 171
624 170
623 169
622 169
621 168
620 167
619 166
618 165
617 164
616 163
616 162
615 161
614 160
613 159
612 158
611 157
610 156
609 156
608 155
607 154
606 153
605 152
604 151
604 150
603 149
602 148
601 147
600 146
599 145
598 144
597 143
596 142
595 141
594 141
593 140
593 139
592 138
591 138
590 137
589 136
588 135
587 135
586 134
585 133
584 132
583 132
582 131
581 131
580 130
579 129
578 128
577 128
576 127
575 126
574 126
573 126
572 125
571 125
570 125
569 124
568 124
567 123
566 123
565 123
564 122
563 121
562 121
561 121
560 120
559 119
558 119
557 118
556 117
555 117
554 116
553 116
552 116
551 115
550 115
549 114
548 114
547 113
546 113
545 113
544 112
543 112
542 111
541 111
540 110
539 110
538 110
537 109
536 109
535 109
534 108
533 108
532 108
531 107
530 107
529 107
528 106
527 106
526 106
525 105
524 105
523 104
522 104
521 104
520 103
519 103
518 103
517 102
516 102
515 101
514 101
513 101
512 101
511 101
510 100
509 100
508 100
507 99
506 99
505 99
504 99
503 98
502 98
501 98
500 97
499 97
498 97
497 96
496 95
495 95
494 95
493 94
492 94
491 93
490 93
489 92
488 91
487 91
486 90
485 90
484 89
483 89
482 88
481 88
480 88
479 88
478 88
477 87
476 87
475 87
474 87
473 87
472 87
471 86
470 86
469 86
468 85
467 85
466 85
465 85
464 85
463 85
462 84
461 84
460 84
459 84
458 83
457 83
456 82
455 82
454 81
453 81
452 81
451 81
450 81
449 81
448 81
447 81
446 81
445 80
444 80
443 80
442 80
441 80
440 81
439 81
438 80
437 80
436 80
435 80
434 80
433 80
432 80
431 80
430 80
429 80
428 80
427 80
426 79
425 79
424 79
423 79
422 79
421 79
420 79
419 79
418 79
417 79
416 79
415 79
414 79
413 79
412 79
411 79
410 79
409 79
