463 21
462 22
461 23
460 24
460 25
459 26
459 27
458 28
458 29
457 30
457 31
456 32
456 33
455 34
455 35
454 36
453 37
453 38
452 39
451 40
450 41
450 42
449 43
448 44
447 45
447 46
446 47
446 48
445 49
444 50
443 51
443 52
442 53
441 54
441 55
440 56
439 57
438 58
437 59
436 60
435 61
435 62
434 63
434 64
433 65
432 66
431 67
431 68
430 69
430 70
429 71
428 72
428 73
427 74
427 75
427 76
426 77
426 78
426 79
425 80
425 81
424 82
424 83
423 84
423 85
422 86
422 87
421 88
421 89
420 90
420 91
419 92
418 93
418 94
417 95
417 96
416 97
415 98
415 99
415 100
414 101
414 102
413 103
413 104
412 105
412 106
411 107
411 108
411 109
410 110
410 111
410 112
409 113
409 114
409 115
408 116
408 117
408 118
407 119
407 120
407 121
406 122
406 123
405 124
405 125
405 126
405 127
405 128
404 129
404 130
404 131
404 132
403 133
403 134
403 135
403 136
402 137
402 138
402 139
402 140
402 141
401 142
401 143
401 144
401 145
401 146
401 147
400 148
400 149
400 150
400 151
399 152
399 153
399 154
399 155
399 156
399 157
399 158
399 159
399 160
398 161
398 162
398 163
398 164
398 165
397 166
397 167
397 168
396 169
396 170
396 171
396 172
395 173
395 174
395 175
395 176
395 177
395 178
395 179
395 180
395 181
395 182
395 183
395 184
394 185
394 186
394 187
394 188
394 189
394 190
394 191
394 192
394 193
394 194
394 195
394 196
394 197
394 198
394 199
394 200
394 201
394 202
394 203
394 204
394 205
394 206
395 207
395 208
395 209
395 210
395 211
395 212
395 213
396 214
396 215
396 216
395 217
395 218
395 219
395 220
394 221
394 222
394 223
394 224
393 225
393 226
393 227
393 228
392 229
392 230
392 231
392 232
392 233
392 234
392 235
392 236
392 237
392 238
392 239
392 240
392 241
392 242
392 243
393 244
393 245
393 246
393 247
393 248
393 249
394 250
394 251
394 252
394 253
395 254
395 255
395 256
395 257
395 258
396 259
396 260
396 261
396 262
397 263
397 264
397 265
398 266
398 267
398 268
399 269
399 270
400 271
400 272
401 273
401 274
402 275
402 276
403 277
403 278
404 279
405 280
406 281
406 282
407 283
407 284
408 285
409 286
410 287
411 288
412 289
413 290
414 291
415 292
416 293
417 294
418 295
419 296
420 297
421 298
422 298
423 299
424 300
425 301
426 302
427 303
428 304
429 304
430 305
431 306
432 307
433 307
434 308
435 308
436 309
437 309
438 310
439 310
440 311
441 312
442 312
443 313
444 313
445 314
446 314
447 315
448 315
449 316
450 317
451 317
452 318
453 319
454 320
454 321
455 322
456 323
456 324
457 325
456 326
455 326
454 326
453 327
452 327
451 327
450 327
449 327
448 327
447 327
446 327
445 327
444 327
443 327
442 327
441 327
440 327
439 327
438 327
437 327
436 327
435 327
434 327
433 327
432 327
431 327
430 327
429 327
428 327
427 327
426 327
425 327
424 327
423 327
422 327
421 327
420 327
419 327
418 327
417 327
416 327
415 327
414 327
413 327
412 327
411 327
410 327
409 327
408 327
407 327
406 327
405 327
404 327
403 327
402 328
401 328
400 328
399 328
398 328
397 328
396 328
395 328
394 328
393 328
392 328
391 328
390 328
389 328
388 328
387 328
386 328
385 328
384 328
383 328
382 328
381 328
380 328
379 328
378 328
377 328
376 328
375 328
374 328
373 328
372 329
371 329
370 328
369 328
368 328
367 328
366 328
365 328
364 328
363 328
362 327
361 327
360 327
359 326
358 325
357 324
357 323
357 322
357 321
357 320
357 319
356 318
356 317
356 316
356 315
356 314
356 313
356 312
356 311
356 310
357 309
357 308
357 307
357 306
357 305
357 304
357 303
358 302
358 301
358 300
358 299
359 298
359 297
359 296
359 295
360 294
360 293
360 292
360 291
361 290
361 289
361 288
361 287
361 286
362 285
362 284
362 283
362 282
362 281
362 280
362 279
362 278
362 277
362 276
362 275
362 274
362 273
362 272
363 271
363 270
363 269
363 268
363 267
363 266
363 265
363 264
363 263
363 262
363 261
363 260
363 259
363 258
363 257
363 256
363 255
363 254
363 253
363 252
364 251
364 250
364 249
364 248
364 247
364 246
364 245
364 244
364 243
364 242
364 241
364 240
364 239
364 238
364 237
364 236
364 235
364 234
364 233
364 232
364 231
364 230
364 229
364 228
364 227
364 226
364 225
364 224
364 223
364 222
364 221
364 220
364 219
364 218
364 217
364 216
364 215
364 214
364 213
364 212
364 211
364 210
364 209
364 208
364 207
363 206
363 205
363 204
363 203
363 202
363 201
363 200
363 199
363 198
363 197
363 196
363 195
363 194
363 193
363 192
363 191
362 190
362 189
363 188
363 187
362 186
362 185
362 184
362 183
362 182
362 181
362 180
362 179
362 178
362 177
361 176
361 175
361 174
361 173
361 172
360 171
360 170
360 169
360 168
360 167
359 166
359 165
359 164
359 163
359 162
359 161
358 160
358 159
358 158
358 157
358 156
358 155
358 154
358 153
357 152
357 151
357 150
357 149
357 148
357 147
357 146
357 145
357 144
357 143
357 142
357 141
357 140
357 139
357 138
357 137
356 136
356 135
356 134
356 133
356 132
356 131
356 130
356 129
356 128
355 127
355 126
355 125
355 124
355 123
354 122
354 121
354 120
353 119
353 118
353 117
353 116
352 115
352 114
352 113
352 112
352 111
351 110
351 109
351 108
350 107
350 106
349 105
349 104
349 103
348 102
348 101
347 100
347 99
347 98
346 97
346 96
346 95
345 94
345 93
345 92
344 91
344 90
344 89
343 88
343 87
342 86
342 85
342 84
341 83
341 82
340 81
340 80
339 79
339 78
338 77
337 76
336 75
335 74
335 73
334 72
333 71
332 70
331 69
331 68
330 67
329 66
328 65
327 64
326 63
326 62
325 61
324 60
324 59
323 58
323 57
323 56
322 55
321 54
321 53
320 52
320 51
319 52
318 53
318 54
317 55
317 56
316 57
315 58
315 59
314 60
313 61
313 62
312 63
312 64
311 65
310 65
310 66
309 67
308 68
308 69
307 70
306 71
306 72
305 73
304 74
304 75
303 76
302 77
302 78
301 79
300 80
300 81
299 82
299 83
299 84
298 85
297 86
297 87
297 88
296 89
296 90
295 91
295 92
295 93
294 94
294 95
294 96
293 97
293 98
292 99
292 100
291 101
291 102
290 103
290 104
289 105
289 106
289 107
288 108
288 109
287 110
287 111
287 112
286 113
286 114
285 115
285 116
285 117
284 118
284 119
283 120
283 121
283 122
282 123
282 124
282 125
281 126
281 127
281 128
281 129
281 130
280 131
280 132
280 133
280 134
279 135
279 136
279 137
279 138
279 139
279 140
279 141
278 142
278 143
278 144
278 145
278 146
278 147
278 148
278 149
278 150
278 151
278 152
277 153
277 154
277 155
277 156
277 157
277 158
277 159
277 160
277 161
277 162
277 163
277 164
277 165
277 166
276 167
276 168
276 169
276 170
276 171
276 172
276 173
276 174
276 175
276 176
275 177
275 178
275 179
275 180
275 181
275 182
275 183
275 184
275 185
275 186
275 187
275 188
275 189
275 190
275 191
275 192
275 193
275 194
275 195
275 196
275 197
275 198
275 199
275 200
275 201
275 202
275 203
276 204
276 205
276 206
275 207
275 208
276 209
276 210
276 211
276 212
276 213
276 214
276 215
276 216
276 217
276 218
276 219
276 220
276 221
276 222
277 223
277 224
277 225
277 226
277 227
277 228
277 229
277 230
277 231
277 232
277 233
278 234
278 235
278 236
278 237
278 238
278 239
278 240
278 241
278 242
278 243
279 244
279 245
279 246
279 247
280 248
280 249
280 250
280 251
280 252
281 253
281 254
281 255
281 256
281 257
282 258
282 259
283 260
283 261
284 262
284 263
285 264
285 265
285 266
286 267
286 268
286 269
287 270
287 271
288 272
289 273
289 274
289 275
290 276
290 277
291 278
292 279
292 280
293 281
294 282
294 283
295 284
296 285
296 286
297 287
298 288
298 289
299 290
300 291
301 292
301 293
302 294
303 294
304 295
305 296
306 297
307 298
308 299
309 300
310 300
311 301
312 302
313 302
314 303
315 304
316 304
317 305
318 306
319 306
320 307
321 308
322 308
323 309
324 309
325 310
326 310
327 311
328 311
329 312
330 312
331 312
332 313
333 313
334 314
335 314
336 315
337 315
338 316
339 316
340 317
341 317
342 318
343 318
344 319
345 319
346 320
347 320
348 321
349 322
350 323
351 324
351 325
352 326
352 327
351 328
350 329
349 329
348 329
347 329
346 329
345 329
344 330
343 330
342 330
341 330
340 330
339 330
338 330
337 330
336 330
335 330
334 330
333 330
332 331
331 331
330 331
329 331
328 331
327 331
326 331
325 331
324 331
323 331
322 331
321 331
320 331
319 331
318 332
317 332
316 332
315 332
314 332
313 332
312 332
311 332
310 332
309 332
308 332
307 332
306 332
305 333
304 333
303 333
302 333
301 333
300 333
299 333
298 333
297 333
296 333
295 333
294 333
293 333
292 334
291 334
290 334
289 334
288 334
287 334
286 334
285 334
284 334
283 334
282 334
281 334
280 334
279 334
278 334
277 334
276 334
275 335
274 335
273 335
272 335
271 335
270 335
269 334
268 334
267 334
266 333
265 332
265 331
265 330
265 329
265 328
265 327
265 326
265 325
265 324
265 323
265 322
265 321
265 320
265 319
265 318
265 317
265 316
265 315
265 314
265 313
265 312
265 311
265 310
265 309
265 308
265 307
265 306
265 305
265 304
265 303
265 302
265 301
265 300
265 299
265 298
265 297
265 296
265 295
264 294
264 293
264 292
264 291
264 290
264 289
264 288
264 287
264 286
264 285
264 284
264 283
263 282
263 281
263 280
263 279
263 278
263 277
262 276
262 275
262 274
261 273
261 272
261 271
261 270
261 269
261 268
260 267
260 266
260 265
259 264
259 263
259 262
259 261
259 260
259 259
258 258
258 257
258 256
257 255
257 254
256 253
256 252
256 251
256 250
255 249
255 248
255 247
255 246
255 245
255 244
254 243
254 242
254 241
254 240
253 239
253 238
252 237
252 236
252 235
252 234
251 233
251 232
251 231
251 230
250 229
250 228
250 227
249 226
249 225
249 224
248 223
248 222
248 221
248 220
247 219
247 218
246 217
246 216
245 215
245 214
245 213
244 212
244 211
243 210
243 209
243 208
242 207
242 206
242 205
242 204
241 203
241 202
241 201
240 200
240 199
240 198
240 197
239 196
239 195
238 194
238 193
237 192
237 191
236 190
236 189
236 188
236 187
235 186
235 185
234 184
234 183
234 182
233 181
233 180
232 179
232 178
231 177
231 176
230 175
230 174
230 173
229 172
228 171
228 170
227 169
227 168
226 167
225 166
225 165
224 164
224 163
223 162
223 161
222 160
222 159
221 158
220 157
220 156
219 155
219 154
218 153
217 152
217 151
216 150
216 149
215 148
214 147
214 146
213 145
213 144
212 143
211 142
211 141
210 140
209 139
209 138
208 137
207 136
206 135
206 134
205 133
204 132
203 131
202 130
202 129
201 128
200 127
199 126
198 125
197 124
196 123
195 122
194 121
193 120
192 119
191 118
190 117
189 117
188 116
187 115
186 114
186 113
185 113
184 112
183 111
182 110
181 110
180 109
179 108
178 107
177 107
176 106
175 105
175 104
174 103
173 103
172 102
171 101
170 100
169 100
168 99
167 99
166 98
166 99
165 100
165 101
165 102
165 103
165 104
165 105
165 106
165 107
165 108
165 109
164 110
164 111
164 112
164 113
164 114
164 115
163 116
163 117
162 118
162 119
162 120
161 121
161 122
160 123
160 124
160 125
160 126
160 127
159 128
158 129
158 130
158 131
158 132
157 133
157 134
157 135
157 136
156 137
156 138
156 139
155 140
155 141
155 142
154 143
154 144
154 145
154 146
153 147
153 148
153 149
153 150
153 151
153 152
152 153
152 154
152 155
152 156
152 157
152 158
152 159
152 160
152 161
152 162
152 163
152 164
151 165
152 166
152 167
152 168
152 169
152 170
152 171
152 172
152 173
152 174
152 175
152 176
152 177
152 178
152 179
153 180
153 181
153 182
153 183
153 184
153 185
153 186
154 187
154 188
154 189
154 190
154 191
154 192
155 193
155 194
155 195
155 196
155 197
155 198
155 199
155 200
155 201
156 202
156 203
156 204
156 205
156 206
156 207
156 208
156 209
157 210
157 211
157 212
157 213
157 214
157 215
157 216
158 217
158 218
158 219
158 220
159 221
159 222
159 223
159 224
160 225
160 226
160 227
161 228
161 229
161 230
162 231
162 232
163 233
163 234
164 235
164 236
164 237
165 238
165 239
165 240
166 241
166 242
167 243
167 244
168 245
168 246
169 247
169 248
170 249
170 250
171 251
171 252
172 253
172 254
173 255
173 256
173 257
174 258
174 259
175 260
175 261
176 262
177 263
177 264
178 265
178 266
179 267
179 268
180 269
181 270
181 271
182 272
182 273
182 274
183 275
183 276
184 277
185 278
185 279
186 280
187 281
188 282
188 283
189 284
190 285
191 286
191 287
192 288
193 289
194 290
195 291
196 292
197 293
198 294
199 295
199 296
200 296
201 297
201 298
202 298
203 299
204 300
205 301
206 302
207 303
208 303
209 304
210 305
211 305
212 306
213 307
214 307
215 308
216 308
217 309
218 310
219 310
220 311
221 311
222 312
223 312
224 313
225 313
226 314
227 314
228 315
229 315
230 316
231 316
232 316
233 317
234 317
235 318
236 318
237 319
238 319
239 320
240 320
241 321
242 322
243 322
244 322
245 323
246 324
247 324
248 325
249 326
250 326
251 327
252 328
253 328
254 329
255 330
256 330
257 331
258 332
258 333
259 334
259 335
258 336
257 336
256 337
255 337
254 337
253 337
252 337
251 337
250 337
249 338
248 338
247 338
246 338
245 338
244 338
243 338
242 339
241 339
240 339
239 339
238 339
237 339
236 339
235 339
234 340
233 340
232 340
231 340
230 340
229 340
228 340
227 340
226 340
225 341
224 341
223 341
222 341
221 341
220 341
219 341
218 341
217 341
216 341
215 341
214 341
213 341
212 341
211 341
210 341
209 341
208 341
207 340
206 340
205 340
204 339
203 339
202 339
201 338
200 337
199 337
198 337
197 336
196 335
195 335
194 335
193 334
192 333
191 333
190 332
189 331
188 331
187 331
186 330
185 330
184 329
183 329
182 328
181 328
180 327
179 326
178 326
177 325
176 325
175 325
174 324
173 324
172 323
171 323
170 322
169 322
168 321
167 321
166 321
165 320
164 320
163 320
162 319
161 319
160 318
159 318
158 318
157 318
156 318
155 317
154 317
153 317
152 317
151 316
150 316
149 316
148 316
147 316
146 316
145 317
144 316
143 316
142 316
141 315
140 315
139 315
138 315
137 315
136 315
135 315
134 315
133 315
132 315
131 315
130 315
129 315
128 315
127 314
126 314
125 314
124 314
123 314
122 314
121 314
120 314
119 314
118 314
117 313
116 313
115 313
114 313
113 313
112 313
111 313
110 313
109 313
108 313
107 313
106 313
105 313
104 313
103 313
102 314
101 314
100 314
99 314
98 314
97 314
96 314
95 314
94 314
93 314
92 314
91 315
90 315
89 315
88 315
87 316
86 316
85 316
84 316
83 316
82 316
81 316
80 317
79 317
78 317
77 318
76 318
75 319
74 319
73 320
72 320
71 321
70 321
69 322
68 322
67 323
66 324
65 325
64 325
63 326
62 327
61 327
60 328
59 329
58 329
57 330
56 331
55 332
54 332
53 333
52 333
51 334
50 335
49 336
48 337
47 337
46 338
45 339
44 340
43 341
42 341
41 342
40 343
39 344
38 345
37 345
36 346
37 346
38 346
39 347
40 348
41 349
42 349
43 350
44 351
45 352
46 352
47 352
48 353
49 353
50 354
51 355
52 355
53 356
54 356
55 357
56 357
57 358
57 359
58 359
59 360
60 361
61 362
62 362
63 363
64 364
65 364
66 365
67 365
68 366
69 366
70 367
71 367
72 368
73 368
74 368
75 369
76 369
77 369
78 370
79 370
80 370
81 371
82 371
83 371
84 372
85 372
86 372
87 372
88 372
89 373
90 373
91 373
92 374
93 374
94 374
95 374
96 375
97 375
98 375
99 375
100 375
101 376
102 376
103 376
104 376
105 376
106 376
107 376
108 376
109 377
110 377
111 377
112 377
113 377
114 377
115 377
116 377
117 377
118 377
119 377
120 377
121 377
122 377
123 377
124 377
125 377
126 377
127 377
128 377
129 377
130 377
131 377
132 377
133 377
134 377
135 377
136 377
137 377
138 377
139 377
140 376
141 376
142 376
143 376
144 376
145 375
146 375
147 375
148 375
149 375
150 374
151 374
152 374
153 373
154 373
155 373
156 372
157 372
158 372
159 371
160 371
161 371
162 370
163 370
164 369
165 369
166 368
167 368
168 368
169 367
170 367
171 366
172 366
173 366
174 365
175 365
176 365
177 364
178 364
179 363
180 362
181 362
182 361
183 360
184 360
185 359
186 359
187 358
188 358
189 357
190 357
191 356
192 356
193 355
194 355
195 354
196 354
197 353
198 353
199 352
200 352
201 351
202 350
203 350
204 349
205 349
206 349
207 348
208 348
209 347
210 347
211 347
212 346
213 346
214 346
215 346
216 346
217 345
218 345
219 345
220 345
221 345
222 345
223 345
224 344
225 344
226 344
227 344
228 344
229 344
230 344
231 344
232 343
233 343
234 343
235 343
236 343
237 343
238 343
239 343
240 343
241 342
242 342
243 342
244 342
245 342
246 342
247 342
248 342
249 341
250 341
251 341
252 341
253 341
254 341
255 340
256 340
257 340
258 340
259 340
260 341
260 342
259 343
258 344
257 345
256 345
255 346
254 347
253 347
252 348
251 348
250 349
249 350
248 350
247 351
246 352
245 353
244 353
243 354
242 354
241 355
240 355
239 356
238 356
237 356
236 357
235 357
234 358
233 358
232 358
231 359
230 359
229 360
228 361
227 361
226 362
225 362
224 362
223 363
222 363
221 364
220 364
219 365
218 365
217 366
216 367
215 367
214 368
213 369
212 369
211 370
210 371
209 372
208 373
207 373
206 374
205 375
204 376
203 377
202 377
202 378
201 379
200 380
199 381
198 382
197 383
197 384
196 385
195 386
194 387
193 388
193 389
192 390
192 391
191 392
190 393
189 394
189 395
188 396
188 397
187 398
186 399
186 400
185 401
184 402
184 403
183 404
183 405
182 406
182 407
181 408
181 409
180 410
179 411
179 412
178 413
178 414
177 415
177 416
176 417
176 418
175 419
175 420
174 421
174 422
174 423
173 424
172 425
172 426
171 427
171 428
170 429
170 430
169 431
169 432
169 433
168 434
168 435
168 436
167 437
167 438
167 439
166 440
166 441
166 442
165 443
165 444
165 445
164 446
164 447
164 448
163 449
163 450
163 451
163 452
162 453
162 454
162 455
161 456
161 457
161 458
161 459
161 460
161 461
160 462
160 463
160 464
160 465
160 466
159 467
159 468
159 469
159 470
159 471
159 472
158 473
158 474
158 475
158 476
158 477
158 478
157 479
157 480
157 481
156 482
156 483
156 484
156 485
156 486
156 487
156 488
156 489
156 490
156 491
155 492
155 493
155 494
155 495
155 496
155 497
155 498
155 499
155 500
155 501
155 502
155 503
155 504
156 505
156 506
156 507
156 508
156 509
156 510
156 511
156 512
156 513
156 514
157 515
157 516
157 517
157 518
157 519
158 520
158 521
158 522
158 523
158 524
158 525
159 526
159 527
159 528
159 529
159 530
160 531
160 532
161 533
161 534
161 535
162 536
162 537
162 538
163 539
163 540
164 541
164 542
165 543
165 544
166 545
166 546
167 547
167 548
168 549
168 550
168 551
169 552
169 553
170 554
170 555
170 556
171 557
171 558
171 559
172 559
172 558
173 557
174 556
175 556
176 555
177 554
178 553
179 553
180 552
181 552
182 552
183 551
184 551
185 550
186 550
187 549
188 549
189 548
190 548
191 547
192 547
193 546
194 546
195 545
196 544
197 544
198 543
199 542
200 541
201 540
202 539
203 538
204 537
205 536
206 535
207 534
208 533
209 532
210 531
211 530
212 529
212 528
213 527
214 526
215 525
216 524
217 523
218 522
218 521
219 520
220 519
221 518
221 517
222 516
223 515
224 514
224 513
225 512
225 511
226 510
227 509
227 508
227 507
228 506
229 505
229 504
230 503
230 502
231 501
231 500
232 499
233 498
233 497
234 496
234 495
235 494
235 493
236 492
236 491
237 490
238 489
238 488
238 487
239 486
239 485
240 484
240 483
241 482
241 481
242 480
242 479
243 478
243 477
243 476
243 475
244 474
244 473
245 472
245 471
245 470
246 469
246 468
247 467
247 466
247 465
247 464
248 463
248 462
248 461
249 460
249 459
250 458
250 457
250 456
250 455
251 454
251 453
251 452
252 451
252 450
253 449
253 448
253 447
253 446
254 445
254 444
254 443
255 442
255 441
255 440
255 439
255 438
256 437
256 436
256 435
256 434
256 433
257 432
257 431
258 430
258 429
258 428
259 427
259 426
259 425
260 424
260 423
260 422
260 421
260 420
261 419
261 418
261 417
261 416
261 415
261 414
261 413
262 412
262 411
262 410
262 409
262 408
262 407
263 406
263 405
263 404
263 403
263 402
263 401
264 400
264 399
264 398
264 397
264 396
264 395
265 394
265 393
265 392
265 391
265 390
265 389
266 388
266 387
266 386
266 385
266 384
266 383
266 382
267 381
267 380
266 379
267 378
267 377
267 376
267 375
267 374
267 373
267 372
267 371
267 370
267 369
267 368
267 367
267 366
267 365
267 364
267 363
267 362
267 361
267 360
267 359
268 358
268 357
268 356
268 355
268 354
268 353
267 352
267 351
267 350
267 349
267 348
267 347
266 346
266 345
266 344
266 343
266 342
267 341
268 341
269 340
270 340
271 340
272 340
273 339
274 339
275 339
276 339
277 339
278 339
279 339
280 339
281 338
282 338
283 338
284 338
285 338
286 338
287 338
288 338
289 338
290 338
291 338
292 338
293 338
294 338
295 337
296 337
297 337
298 337
299 337
300 337
301 337
302 337
303 337
304 337
305 337
306 337
307 337
308 337
309 337
310 337
311 337
312 337
313 337
314 337
315 337
316 336
317 336
318 336
319 336
320 336
321 336
322 336
323 336
324 336
325 336
326 336
327 336
328 336
329 336
330 336
331 336
332 336
333 335
334 335
335 335
336 335
337 335
338 335
339 335
340 335
341 335
342 335
343 335
344 335
345 335
346 335
347 334
348 334
349 334
350 334
351 334
352 334
353 334
354 334
355 334
356 334
357 335
357 336
356 337
356 338
355 339
355 340
354 341
354 342
353 343
352 344
351 345
350 346
349 347
348 348
347 349
346 349
345 350
344 351
343 352
342 353
341 353
340 354
339 355
338 356
337 356
336 357
335 358
334 358
333 359
332 360
331 360
330 361
329 361
328 362
327 363
326 363
325 364
324 365
323 365
322 366
321 367
320 368
319 368
318 368
317 369
316 370
315 371
314 372
313 373
312 373
311 374
310 375
309 376
308 377
308 378
307 379
306 380
305 381
305 382
304 383
303 384
303 385
302 386
302 387
301 388
300 389
300 390
299 391
299 392
298 393
298 394
297 395
297 396
296 397
296 398
295 399
295 400
295 401
294 402
294 403
293 404
293 405
293 406
293 407
292 408
292 409
291 410
291 411
290 412
290 413
290 414
289 415
289 416
289 417
289 418
289 419
289 420
289 421
288 422
288 423
288 424
287 425
287 426
287 427
287 428
286 429
286 430
286 431
286 432
286 433
286 434
286 435
285 436
285 437
285 438
285 439
285 440
285 441
285 442
285 443
285 444
285 445
285 446
285 447
285 448
285 449
285 450
285 451
285 452
285 453
285 454
285 455
285 456
285 457
286 458
286 459
286 460
286 461
286 462
286 463
286 464
287 465
287 466
287 467
287 468
287 469
287 470
288 471
288 472
288 473
288 474
289 475
289 476
289 477
289 478
289 479
289 480
289 481
289 482
289 483
289 484
289 485
289 486
289 487
289 488
289 489
289 490
289 491
290 492
290 493
290 494
290 495
290 496
290 497
290 498
290 499
290 500
291 501
291 502
291 503
291 504
292 505
292 506
292 507
292 508
292 509
292 510
292 511
292 512
292 513
292 514
292 515
292 516
292 517
292 518
293 519
293 520
293 521
293 522
293 523
293 524
294 525
294 526
294 527
294 528
294 529
294 530
295 531
295 532
295 533
295 534
295 535
296 536
296 537
296 538
297 539
297 540
297 541
297 542
297 543
297 544
298 545
298 546
298 547
298 548
299 549
299 550
300 551
300 552
301 553
301 554
302 555
302 556
303 557
303 558
303 559
304 560
305 561
305 562
306 563
306 564
307 565
308 566
308 567
309 568
310 569
311 570
311 571
312 572
312 573
313 574
313 575
314 576
315 577
315 578
316 579
317 580
318 581
318 582
319 583
320 584
321 585
322 586
323 587
323 588
324 589
325 590
325 591
326 592
326 593
327 594
328 595
328 596
329 597
329 598
330 599
330 600
330 601
330 602
331 603
331 604
331 605
332 606
332 607
333 606
334 606
334 605
335 604
336 604
337 603
337 602
338 601
339 600
339 599
340 598
341 597
342 596
342 595
343 594
344 593
344 592
345 591
346 590
346 589
347 588
348 587
349 586
350 585
351 584
352 583
352 582
353 581
354 580
355 579
356 578
356 577
357 576
358 575
359 574
359 573
360 572
360 571
361 570
362 569
362 568
363 567
363 566
364 565
364 564
365 563
365 562
366 561
366 560
367 559
367 558
367 557
368 556
368 555
368 554
368 553
369 552
369 551
369 550
369 549
369 548
370 547
370 546
370 545
371 544
371 543
371 542
372 541
372 540
372 539
372 538
373 537
373 536
373 535
373 534
373 533
374 532
374 531
374 530
374 529
374 528
374 527
374 526
374 525
375 524
375 523
375 522
375 521
375 520
375 519
375 518
375 517
375 516
375 515
375 514
375 513
375 512
375 511
375 510
375 509
375 508
375 507
376 506
376 505
376 504
376 503
377 502
377 501
377 500
377 499
377 498
377 497
377 496
378 495
378 494
378 493
378 492
378 491
378 490
378 489
378 488
378 487
378 486
378 485
378 484
378 483
378 482
378 481
378 480
378 479
378 478
378 477
378 476
378 475
378 474
378 473
379 472
379 471
379 470
379 469
379 468
379 467
379 466
379 465
379 464
379 463
379 462
379 461
379 460
379 459
379 458
379 457
379 456
380 455
380 454
380 453
380 452
380 451
380 450
380 449
380 448
380 447
380 446
380 445
380 444
380 443
380 442
380 441
379 440
379 439
379 438
379 437
379 436
379 435
379 434
379 433
379 432
379 431
379 430
379 429
379 428
378 427
378 426
378 425
378 424
378 423
378 422
378 421
378 420
377 419
377 418
377 417
377 416
377 415
377 414
376 413
376 412
376 411
376 410
376 409
376 408
376 407
376 406
376 405
376 404
376 403
375 402
375 401
375 400
375 399
375 398
375 397
375 396
375 395
375 394
374 393
374 392
374 391
374 390
374 389
374 388
374 387
374 386
374 385
374 384
374 383
374 382
374 381
373 380
373 379
373 378
373 377
373 376
373 375
372 374
372 373
372 372
372 371
371 370
371 369
371 368
371 367
370 366
370 365
369 364
369 363
368 362
368 361
368 360
367 359
367 358
366 357
366 356
366 355
365 354
365 353
364 352
364 351
364 350
364 349
364 348
364 347
364 346
363 345
363 344
363 343
363 342
363 341
363 340
363 339
363 338
363 337
364 336
365 335
366 335
367 335
368 334
369 334
370 334
371 334
372 334
373 334
374 334
375 334
376 334
377 334
378 334
379 334
380 334
381 334
382 334
383 334
384 334
385 334
386 334
387 333
388 333
389 333
390 333
391 333
392 333
393 333
394 333
395 333
396 333
397 333
398 333
399 333
400 333
401 333
402 333
403 333
404 333
405 333
406 333
407 333
408 333
409 333
410 333
411 333
412 333
413 333
414 333
415 333
416 333
417 333
418 333
419 333
420 333
421 333
422 333
423 333
424 333
425 333
426 333
427 333
428 333
429 333
430 333
431 333
432 333
433 333
434 333
435 333
436 333
437 333
438 333
439 333
440 333
441 333
442 333
443 333
444 333
445 333
446 333
447 333
448 333
449 333
450 333
451 333
452 333
453 333
454 333
455 333
456 333
457 333
458 333
459 333
460 334
461 334
462 334
463 335
463 336
462 337
462 338
461 339
461 340
460 341
460 342
459 343
458 344
457 345
456 346
455 347
454 347
453 348
452 348
451 349
450 349
449 350
448 350
447 351
446 352
445 353
444 353
443 354
442 355
441 355
440 356
439 357
438 358
437 359
436 360
435 360
434 361
433 362
432 363
431 364
430 365
429 366
428 366
427 367
426 368
425 369
424 370
423 371
422 372
421 373
420 374
419 375
418 376
417 377
416 378
415 379
415 380
414 381
414 382
413 383
413 384
412 385
411 386
411 387
410 388
410 389
409 390
409 391
408 392
408 393
408 394
407 395
407 396
406 397
406 398
405 399
405 400
405 401
404 402
404 403
404 404
404 405
403 406
403 407
403 408
402 409
402 410
402 411
402 412
401 413
401 414
401 415
401 416
400 417
400 418
400 419
400 420
399 421
399 422
399 423
399 424
399 425
399 426
398 427
398 428
398 429
398 430
398 431
398 432
398 433
398 434
398 435
398 436
398 437
398 438
398 439
398 440
398 441
398 442
398 443
398 444
398 445
398 446
399 447
399 448
399 449
399 450
399 451
399 452
399 453
399 454
399 455
399 456
399 457
399 458
399 459
399 460
399 461
399 462
400 463
400 464
400 465
401 466
401 467
401 468
401 469
401 470
402 471
402 472
402 473
402 474
402 475
402 476
402 477
402 478
403 479
403 480
403 481
403 482
404 483
404 484
404 485
404 486
405 487
405 488
405 489
406 490
406 491
407 492
407 493
407 494
408 495
408 496
408 497
408 498
408 499
408 500
408 501
408 502
408 503
408 504
408 505
408 506
409 507
409 508
409 509
409 510
409 511
409 512
410 513
410 514
410 515
410 516
410 517
411 518
411 519
412 520
412 521
412 522
413 523
413 524
414 525
414 526
414 527
415 528
415 529
416 530
416 531
417 532
417 533
417 534
417 535
418 536
418 537
418 538
418 539
419 540
419 541
419 542
420 543
420 544
420 545
421 546
421 547
421 548
422 549
422 550
422 551
423 552
423 553
424 554
424 555
425 556
425 557
426 558
426 559
427 560
427 561
428 562
429 563
429 564
430 565
430 566
431 567
431 568
432 569
432 570
433 571
433 572
434 573
434 574
435 575
436 576
437 577
437 578
438 579
439 580
440 581
441 582
441 583
442 584
443 585
444 586
445 587
445 588
446 589
447 590
448 591
449 592
450 593
451 594
451 595
452 596
452 597
453 598
454 599
454 600
455 601
456 602
456 603
457 604
457 605
458 606
458 607
459 608
460 607
460 606
461 605
461 604
462 603
463 602
464 601
465 600
466 599
467 598
467 597
468 596
469 595
469 594
470 593
471 592
472 591
472 590
473 589
474 588
475 587
476 586
477 585
478 584
478 583
479 582
480 581
480 580
480 579
481 578
481 577
481 576
482 575
482 574
483 573
483 572
484 571
485 570
485 569
486 568
487 567
488 566
488 565
489 564
490 563
490 562
491 561
492 560
492 559
493 558
493 557
493 556
494 555
494 554
495 553
495 552
495 551
496 550
496 549
496 548
497 547
497 546
497 545
498 544
498 543
498 542
498 541
498 540
498 539
498 538
498 537
498 536
498 535
499 534
499 533
499 532
499 531
499 530
499 529
499 528
499 527
499 526
499 525
499 524
499 523
499 522
499 521
499 520
499 519
499 518
499 517
499 516
499 515
499 514
499 513
499 512
499 511
499 510
499 509
499 508
499 507
499 506
499 505
499 504
499 503
499 502
499 501
499 500
498 499
498 498
498 497
498 496
498 495
497 494
497 493
497 492
497 491
496 490
496 489
496 488
496 487
496 486
497 485
497 484
497 483
497 482
497 481
497 480
497 479
497 478
497 477
497 476
497 475
497 474
497 473
497 472
497 471
497 470
497 469
497 468
497 467
497 466
497 465
497 464
497 463
497 462
497 461
497 460
497 459
496 458
496 457
496 456
496 455
496 454
496 453
495 452
495 451
495 450
495 449
495 448
494 447
494 446
494 445
494 444
494 443
494 442
494 441
493 440
493 439
493 438
493 437
492 436
492 435
491 434
491 433
491 432
491 431
491 430
491 429
491 428
491 427
490 426
490 425
490 424
490 423
489 422
489 421
489 420
488 419
488 418
488 417
488 416
488 415
488 414
488 413
487 412
487 411
487 410
487 409
487 408
487 407
487 406
486 405
486 404
486 403
486 402
486 401
485 400
485 399
485 398
485 397
484 396
484 395
484 394
484 393
484 392
484 391
483 390
483 389
483 388
483 387
483 386
482 385
482 384
481 383
481 382
481 381
481 380
480 379
480 378
479 377
479 376
478 375
477 374
477 373
476 372
476 371
476 370
475 369
475 368
475 367
474 366
474 365
474 364
474 363
474 362
473 361
473 360
473 359
472 358
472 357
472 356
471 355
471 354
471 353
470 352
470 351
470 350
470 349
470 348
470 347
469 346
469 345
469 344
468 343
468 342
468 341
468 340
468 339
468 338
468 337
469 336
470 336
471 335
472 335
473 335
474 335
475 335
476 335
477 335
478 335
479 335
480 335
481 334
482 334
483 334
484 334
485 334
486 334
487 334
488 334
489 334
490 334
491 334
492 334
493 334
494 334
495 334
496 334
497 334
498 334
499 334
500 334
501 334
502 334
503 334
504 334
505 334
506 334
507 334
508 334
509 334
510 334
511 334
512 334
513 334
514 334
515 334
516 334
517 334
518 334
519 334
520 334
521 334
522 334
523 334
524 334
525 333
526 333
527 333
528 333
529 333
530 333
531 333
532 333
533 333
534 333
535 333
536 333
537 333
538 332
539 332
540 332
541 332
542 332
543 332
544 332
545 332
546 332
547 332
548 332
549 332
550 331
551 331
552 331
553 331
554 331
555 331
556 331
557 331
558 331
559 331
560 331
561 332
561 333
561 334
561 335
560 336
560 337
559 338
559 339
558 340
558 341
557 342
556 343
556 344
555 345
554 346
553 347
552 348
551 349
550 350
549 351
548 352
547 353
546 354
545 355
544 356
543 357
542 358
541 359
540 360
539 361
539 362
538 363
537 364
537 365
536 366
536 367
536 368
535 369
534 370
534 371
533 372
533 373
533 374
532 375
532 376
531 377
531 378
531 379
530 380
530 381
530 382
530 383
530 384
530 385
530 386
529 387
529 388
529 389
529 390
529 391
529 392
529 393
529 394
529 395
529 396
529 397
529 398
529 399
529 400
530 401
530 402
530 403
530 404
530 405
530 406
531 407
531 408
531 409
531 410
532 411
532 412
532 413
532 414
532 415
533 416
533 417
533 418
533 419
534 420
534 421
534 422
534 423
535 424
535 425
535 426
536 427
536 428
537 429
537 430
537 431
538 432
539 433
539 434
539 435
540 436
540 437
541 438
541 439
541 440
542 441
542 442
543 443
543 444
544 445
544 446
545 447
545 448
546 449
547 450
547 451
548 452
549 453
549 454
550 455
550 456
551 457
551 458
552 459
553 460
553 461
554 462
555 463
556 464
556 465
556 466
557 467
557 468
558 469
558 470
559 471
559 472
560 473
561 474
561 475
562 476
562 477
563 478
564 479
564 480
565 481
565 482
566 483
567 484
567 485
568 486
569 487
569 488
570 489
571 490
572 491
573 492
574 493
575 494
575 495
576 495
577 496
578 497
578 498
579 499
579 500
580 501
581 502
581 503
582 504
583 505
583 506
584 507
585 508
585 509
586 510
587 511
588 512
589 513
590 514
591 515
591 516
592 517
593 518
594 519
595 520
596 521
597 522
597 523
598 524
599 525
600 526
601 527
602 528
603 528
604 529
605 530
606 531
607 531
608 532
609 533
610 534
611 535
612 535
613 536
614 537
615 537
616 538
617 538
618 539
619 540
620 540
621 541
622 542
623 542
624 543
625 544
626 544
627 545
628 545
629 546
630 546
631 547
632 548
633 548
634 548
635 549
636 550
637 550
638 551
639 552
640 552
641 553
642 554
643 555
644 555
645 556
646 557
647 557
648 558
649 559
650 560
651 560
652 561
653 562
654 562
655 563
656 564
657 565
657 564
657 563
657 562
657 561
658 560
658 559
658 558
658 557
659 556
659 555
659 554
659 553
659 552
659 551
659 550
659 549
660 548
660 547
660 546
660 545
660 544
660 543
660 542
660 541
660 540
660 539
660 538
660 537
660 536
660 535
660 534
660 533
660 532
661 531
661 530
661 529
661 528
661 527
661 526
661 525
661 524
661 523
661 522
661 521
661 520
661 519
661 518
661 517
661 516
661 515
661 514
661 513
661 512
661 511
661 510
660 509
660 508
660 507
660 506
660 505
659 504
659 503
659 502
658 501
658 500
658 499
657 498
657 497
656 496
656 495
656 494
655 493
655 492
655 491
654 490
654 489
653 488
653 487
652 486
652 485
652 484
651 483
651 482
650 481
650 480
650 479
649 478
649 477
649 476
649 475
648 474
648 473
647 472
647 471
646 470
646 469
645 468
645 467
644 466
644 465
644 464
643 463
643 462
642 461
642 460
642 459
641 458
641 457
640 456
640 455
640 454
639 453
639 452
638 451
638 450
637 449
637 448
636 447
636 446
635 445
635 444
634 443
634 442
633 441
633 440
632 439
631 438
631 437
631 436
630 435
630 434
629 433
629 432
628 431
628 430
628 429
627 428
627 427
626 426
626 425
625 424
625 423
624 422
624 421
623 420
623 419
622 418
622 417
621 416
620 415
620 414
620 413
619 412
619 411
618 410
618 409
617 408
617 407
616 406
615 405
615 404
614 403
613 402
613 401
612 401
611 400
611 399
610 398
609 397
608 396
608 395
607 394
607 393
606 392
606 391
605 390
604 389
604 388
603 387
602 386
601 385
600 384
599 383
599 382
599 381
598 380
597 379
596 378
596 377
595 376
595 375
594 374
593 373
593 372
593 371
592 370
592 369
591 368
590 367
589 366
589 365
588 364
587 363
587 362
586 361
585 361
584 360
583 359
582 358
581 358
580 357
579 356
578 355
577 354
576 354
575 353
574 352
573 351
573 350
572 349
571 348
570 347
569 346
569 345
568 344
568 343
567 342
567 341
566 340
566 339
566 338
566 337
566 336
566 335
566 334
566 333
567 332
568 331
569 330
570 330
571 329
572 329
573 329
574 329
575 328
576 328
577 328
578 328
579 328
580 327
581 327
582 327
583 327
584 327
585 326
586 326
587 326
588 326
589 326
590 326
591 325
592 325
593 325
594 325
595 325
596 325
597 324
598 324
599 324
600 324
601 324
602 324
603 323
604 323
605 323
606 323
607 323
608 323
609 322
610 322
611 322
612 322
613 322
614 322
615 321
616 321
617 321
618 321
619 321
620 321
621 320
622 320
623 320
624 320
625 320
626 320
627 320
628 319
629 319
630 319
631 319
632 319
633 319
634 318
635 318
636 318
637 318
638 318
639 318
640 318
641 317
642 317
643 317
644 317
645 317
646 317
647 316
648 316
649 316
650 316
651 316
652 316
653 315
654 315
655 315
656 315
657 315
658 315
659 314
660 314
661 314
662 314
663 314
664 314
665 313
666 313
667 313
668 313
669 313
670 312
671 312
672 312
673 312
674 312
675 311
676 311
677 311
678 311
679 311
680 311
681 310
682 310
683 310
684 310
685 310
686 309
687 309
688 309
689 309
690 309
691 308
692 308
693 308
694 308
695 308
696 307
697 307
698 307
699 307
700 306
701 306
702 306
703 306
704 306
705 305
706 305
707 305
708 305
709 304
710 304
711 304
712 304
713 303
714 303
715 303
716 303
717 303
718 302
719 302
720 302
721 302
722 301
723 301
724 301
725 301
726 300
727 300
728 300
729 300
730 299
731 299
732 299
733 299
734 298
735 298
736 298
737 298
738 298
739 297
740 297
741 297
742 297
743 296
744 296
745 296
746 296
747 296
748 296
749 296
750 295
751 295
752 295
753 295
754 295
755 295
756 295
757 294
758 294
759 293
760 293
761 292
762 292
762 291
762 290
762 289
762 288
762 287
762 286
762 285
762 284
762 283
761 282
761 281
760 280
759 279
758 278
757 278
756 278
755 278
754 279
753 279
752 280
751 280
750 281
749 281
748 282
747 283
746 283
745 284
744 284
743 285
742 285
741 285
740 286
739 286
738 287
737 287
736 287
735 288
734 288
733 288
732 289
731 289
730 290
729 290
728 290
727 290
726 291
725 291
724 291
723 292
722 292
721 292
720 293
719 293
718 293
717 293
716 294
715 294
714 294
713 294
712 295
711 295
710 295
709 295
708 296
707 296
706 296
705 296
704 297
703 297
702 297
701 297
700 298
699 298
698 298
697 298
696 299
695 299
694 299
693 299
692 299
691 300
690 300
689 300
688 301
687 301
686 301
685 301
684 301
683 301
682 302
681 302
680 302
679 302
678 303
677 303
676 303
675 303
674 304
673 304
672 304
671 304
670 304
669 305
668 305
667 305
666 305
665 305
664 306
663 306
662 306
661 306
660 306
659 306
658 307
657 307
656 307
655 307
654 307
653 308
652 308
651 308
650 308
649 308
648 308
647 309
646 309
645 309
644 309
643 309
642 310
641 310
640 310
639 310
638 310
637 310
636 311
635 311
634 311
633 311
632 311
631 311
630 312
629 312
628 312
627 312
626 312
625 312
624 312
623 313
622 313
621 313
620 313
619 313
618 314
617 314
616 314
615 314
614 314
613 314
612 315
611 315
610 315
609 315
608 315
607 315
606 315
605 316
604 316
603 316
602 316
601 316
600 316
599 316
598 317
597 317
596 317
595 317
594 317
593 317
592 318
591 318
590 318
589 318
588 318
587 318
586 318
585 318
584 319
583 319
582 319
581 319
580 319
579 319
578 319
577 319
576 319
575 319
574 320
573 320
572 319
571 319
570 318
569 317
569 316
568 315
568 314
568 313
568 312
568 311
568 310
568 309
568 308
569 307
569 306
570 305
570 304
570 303
571 302
571 301
572 300
572 299
573 298
573 297
574 296
574 295
575 294
575 293
576 292
576 291
576 290
576 289
577 288
577 287
578 286
578 285
579 284
579 283
580 282
580 281
581 280
581 279
582 278
582 277
583 276
583 275
584 274
584 273
584 272
585 271
585 270
586 269
586 268
586 267
587 266
587 265
588 264
588 263
588 262
588 261
589 260
589 259
589 258
589 257
589 256
590 255
590 254
590 253
590 252
591 251
591 250
591 249
592 248
592 247
592 246
592 245
592 244
592 243
592 242
592 241
593 240
593 239
593 238
593 237
593 236
593 235
593 234
593 233
593 232
594 231
594 230
594 229
594 228
594 227
594 226
594 225
594 224
595 223
595 222
595 221
595 220
595 219
595 218
595 217
595 216
596 215
596 214
596 213
596 212
596 211
596 210
596 209
597 208
597 207
597 206
597 205
597 204
597 203
597 202
597 201
597 200
597 199
597 198
597 197
597 196
597 195
597 194
597 193
598 192
598 191
598 190
598 189
598 188
598 187
598 186
598 185
598 184
598 183
598 182
598 181
598 180
598 179
598 178
598 177
598 176
598 175
597 174
597 173
597 172
597 171
597 170
597 169
597 168
597 167
596 166
596 165
596 164
596 163
596 162
596 161
595 160
595 159
595 158
595 157
595 156
595 155
595 154
594 153
594 152
594 151
594 150
594 149
594 148
594 147
593 146
593 145
593 144
593 143
592 142
592 141
592 140
592 139
592 138
592 137
591 136
591 135
591 134
591 133
590 132
590 131
590 130
590 129
589 128
589 127
589 126
589 125
589 124
589 123
588 122
588 121
588 120
588 119
588 118
587 117
587 116
587 115
586 114
586 113
586 112
585 111
585 110
585 109
584 108
584 107
584 106
583 105
583 104
583 103
583 102
582 101
582 100
581 99
581 98
580 97
580 96
579 95
579 94
579 93
578 92
578 91
577 90
577 89
576 88
575 87
575 86
574 85
573 84
573 83
572 82
571 81
570 80
570 79
569 78
569 77
568 76
568 75
567 74
566 73
565 72
564 71
564 72
564 73
563 74
562 75
562 76
562 77
562 78
561 79
561 80
560 81
559 82
558 83
557 84
557 85
556 86
555 87
555 88
554 89
554 90
553 91
553 92
552 93
552 94
551 95
550 96
550 97
549 98
548 99
548 100
547 101
546 102
546 103
545 104
545 105
544 106
543 107
543 108
542 109
542 110
541 111
541 112
541 113
540 114
539 115
539 116
538 117
537 118
537 119
537 120
536 121
536 122
535 123
535 124
534 125
534 126
534 127
533 128
533 129
532 130
532 131
532 132
531 133
531 134
531 135
530 136
530 137
529 138
529 139
529 140
529 141
528 142
528 143
528 144
527 145
527 146
527 147
527 148
527 149
526 150
526 151
526 152
525 153
525 154
525 155
525 156
524 157
524 158
524 159
524 160
524 161
523 162
523 163
523 164
522 165
522 166
522 167
521 168
521 169
521 170
521 171
520 172
519 173
519 174
518 175
518 176
517 177
516 177
516 178
515 179
515 180
514 181
513 182
513 183
513 184
512 185
512 186
511 187
511 188
510 189
510 190
509 191
509 192
509 193
509 194
508 195
508 196
508 197
507 198
507 199
507 200
507 201
507 202
507 203
507 204
506 205
506 206
506 207
506 208
506 209
506 210
506 211
505 212
505 213
505 214
505 215
505 216
504 217
504 218
504 219
504 220
503 221
503 222
503 223
502 224
502 225
502 226
502 227
502 228
502 229
502 230
502 231
502 232
502 233
502 234
502 235
502 236
502 237
502 238
502 239
502 240
502 241
502 242
502 243
502 244
502 245
502 246
502 247
502 248
502 249
502 250
502 251
502 252
503 253
503 254
503 255
503 256
503 257
504 258
504 259
504 260
504 261
504 262
505 263
505 264
506 265
506 266
506 267
506 268
507 269
507 270
507 271
508 272
509 273
509 274
510 275
510 276
511 277
512 278
513 279
514 280
514 281
515 282
516 283
517 284
518 284
519 285
519 286
520 287
521 287
522 288
523 289
524 289
525 290
526 291
527 292
528 293
529 294
530 294
531 295
532 295
533 296
534 296
535 297
536 298
537 299
538 299
539 300
540 300
541 301
542 302
543 302
544 303
545 304
546 304
547 305
548 305
549 306
550 307
551 307
552 308
553 308
554 309
555 309
556 310
557 310
558 310
559 311
560 312
561 313
561 314
562 315
563 316
563 317
564 318
564 319
565 320
564 321
563 321
562 322
561 322
560 322
559 323
558 323
557 323
556 323
555 323
554 324
553 324
552 324
551 324
550 324
549 324
548 324
547 325
546 325
545 325
544 325
543 325
542 325
541 325
540 325
539 325
538 325
537 325
536 326
535 326
534 326
533 326
532 326
531 326
530 326
529 326
528 326
527 326
526 327
525 327
524 327
523 327
522 327
521 327
520 327
519 327
518 327
517 327
516 327
515 327
514 327
513 327
512 328
511 328
510 328
509 328
508 328
507 328
506 328
505 328
504 328
503 328
502 328
501 328
500 328
499 328
498 328
497 328
496 328
495 328
494 328
493 328
492 328
491 328
490 328
489 328
488 328
487 328
486 328
485 328
484 328
483 328
482 328
481 328
480 328
479 328
478 328
477 327
476 327
475 327
474 327
473 327
472 327
471 327
470 327
469 327
468 326
467 326
466 326
465 326
464 325
463 324
462 323
462 322
461 321
461 320
461 319
461 318
460 317
460 316
461 315
461 314
460 313
461 312
461 311
461 310
461 309
461 308
461 307
461 306
461 305
461 304
461 303
461 302
461 301
461 300
461 299
461 298
462 297
462 296
463 295
463 294
463 293
463 292
463 291
464 290
464 289
465 288
466 287
466 286
466 285
467 284
467 283
467 282
467 281
468 280
468 279
468 278
469 277
469 276
469 275
470 274
470 273
470 272
471 271
471 270
471 269
471 268
472 267
472 266
472 265
473 264
473 263
473 262
474 261
474 260
475 259
475 258
475 257
476 256
476 255
476 254
477 253
477 252
477 251
477 250
477 249
478 248
478 247
478 246
479 245
479 244
479 243
479 242
480 241
480 240
480 239
480 238
480 237
480 236
480 235
480 234
480 233
480 232
480 231
480 230
480 229
479 228
479 227
479 226
479 225
479 224
478 223
478 222
478 221
478 220
478 219
478 218
478 217
479 216
479 215
479 214
479 213
480 212
480 211
480 210
480 209
481 208
481 207
482 206
482 205
482 204
482 203
483 202
483 201
483 200
484 199
484 198
484 197
484 196
485 195
485 194
485 193
485 192
485 191
485 190
486 189
486 188
486 187
486 186
486 185
486 184
486 183
487 182
487 181
487 180
487 179
487 178
487 177
487 176
488 175
488 174
488 173
488 172
488 171
488 170
488 169
488 168
488 167
489 166
489 165
489 164
489 163
489 162
489 161
489 160
489 159
489 158
490 157
490 156
490 155
490 154
490 153
490 152
490 151
490 150
490 149
490 148
490 147
490 146
490 145
491 144
491 143
491 142
491 141
491 140
491 139
491 138
491 137
491 136
492 135
492 134
492 133
492 132
492 131
492 130
492 129
492 128
493 127
493 126
493 125
493 124
493 123
493 122
493 121
493 120
493 119
493 118
493 117
493 116
493 115
493 114
493 113
493 112
493 111
493 110
493 109
493 108
493 107
493 106
494 105
493 104
493 103
493 102
493 101
493 100
493 99
493 98
493 97
493 96
493 95
493 94
493 93
493 92
493 91
493 90
493 89
492 88
492 87
492 86
492 85
492 84
492 83
492 82
492 81
491 80
491 79
491 78
490 77
490 76
490 75
489 74
489 73
488 72
488 71
487 70
487 69
486 68
486 67
486 66
485 65
485 64
484 63
484 62
483 61
483 60
482 59
482 58
482 57
481 56
481 55
480 54
480 53
480 52
479 51
479 50
478 49
477 48
477 47
476 46
476 45
475 44
474 43
474 42
473 41
472 40
471 39
471 38
470 37
470 36
469 35
469 34
468 33
468 32
467 31
467 30
466 29
466 28
465 27
465 26
464 25
464 24
464 23
464 22
463 21
