282 10
282 11
281 12
281 13
280 14
279 15
279 16
278 17
277 18
277 19
276 20
275 21
274 21
273 22
272 23
271 24
270 25
269 25
268 26
267 27
266 28
265 28
264 29
263 30
262 31
262 32
261 33
260 34
260 35
259 36
258 37
258 38
257 39
256 40
256 41
255 42
254 43
253 44
253 45
253 46
253 47
252 48
251 49
251 50
250 51
249 52
249 53
248 54
247 55
247 56
246 57
246 58
245 59
245 60
244 61
244 62
244 63
244 64
244 65
244 66
244 67
244 68
244 69
243 70
243 71
243 72
243 73
243 74
242 75
242 76
242 77
242 78
242 79
242 80
242 81
242 82
243 83
243 84
243 85
243 86
243 87
243 88
244 89
244 90
243 91
243 92
243 93
243 94
243 95
243 96
243 97
243 98
243 99
243 100
243 101
244 102
244 103
244 104
244 105
245 106
245 107
246 108
246 109
246 110
247 111
247 112
247 113
247 114
247 115
247 116
247 117
248 118
248 119
248 120
249 121
249 122
249 123
250 124
250 125
250 126
251 127
251 128
252 129
252 130
253 131
253 132
254 133
254 134
255 135
255 136
256 137
256 138
256 139
257 140
257 141
257 142
258 143
258 144
259 145
259 146
260 147
260 148
261 149
261 150
262 151
263 152
263 153
264 154
265 155
265 156
266 157
266 158
267 159
268 160
268 161
269 162
270 163
271 164
271 165
272 166
273 167
273 168
273 169
274 170
274 171
274 172
275 173
276 174
276 175
277 176
278 177
279 178
280 179
280 180
281 181
282 182
283 183
284 184
284 185
285 186
286 187
287 188
288 189
288 190
289 191
290 192
290 193
291 194
292 195
292 196
293 197
294 198
295 199
296 200
297 201
298 202
299 203
300 204
301 205
302 206
303 207
304 208
305 208
306 209
307 209
308 210
309 211
310 212
311 212
312 213
313 214
314 214
315 215
316 216
317 216
318 217
319 218
320 219
321 220
322 221
323 222
324 222
325 223
326 224
327 224
328 225
329 225
330 226
331 227
332 227
333 228
334 228
335 229
336 230
337 230
338 231
339 231
340 232
341 232
342 232
343 233
344 233
345 234
346 234
347 235
348 235
349 236
350 236
351 236
352 237
353 237
354 237
355 237
356 238
357 238
358 239
359 239
360 240
361 240
362 240
363 241
364 241
365 241
366 242
367 242
368 242
369 242
370 243
371 243
372 243
373 243
374 243
375 243
376 244
377 244
378 244
379 244
380 244
381 244
382 244
383 244
384 244
385 244
386 244
387 244
388 244
389 244
390 244
391 244
392 244
393 243
394 243
395 243
396 243
397 243
398 243
399 243
400 243
401 242
402 242
403 242
404 241
405 240
406 240
407 240
408 239
409 239
410 239
411 239
412 239
413 238
414 238
415 238
416 238
417 238
418 237
419 237
420 237
421 236
422 236
423 236
424 235
425 235
426 235
427 235
428 236
428 237
429 238
429 239
430 240
430 241
430 242
430 243
429 244
428 244
427 245
426 246
425 246
424 247
423 247
422 248
421 249
420 249
419 249
418 250
417 251
416 251
415 251
414 252
413 252
412 253
411 253
410 254
409 254
408 255
407 255
406 256
405 256
404 256
403 257
402 257
401 258
400 258
399 259
398 259
397 259
396 260
395 260
394 261
393 261
392 262
391 262
390 263
389 263
388 263
387 264
386 265
385 265
384 265
383 266
382 266
381 266
380 267
379 267
378 267
377 268
376 268
375 269
374 269
373 270
372 270
371 271
370 271
369 271
368 272
367 272
366 273
365 273
364 273
363 273
362 274
361 274
360 275
359 275
358 276
357 276
356 276
355 277
354 277
353 277
352 276
351 276
350 276
349 275
348 275
347 274
346 274
345 273
344 273
343 272
342 271
341 270
340 270
339 269
338 268
337 267
336 267
335 266
334 265
333 265
332 264
331 264
330 263
329 263
328 262
327 262
326 261
325 261
324 261
323 260
322 260
321 260
320 259
319 259
318 259
317 259
316 258
315 258
314 258
313 258
312 257
311 257
310 257
309 257
308 256
307 256
306 256
305 255
304 255
303 255
302 255
301 255
300 254
299 254
298 254
297 254
296 254
295 253
294 253
293 253
292 253
291 253
290 253
289 253
288 253
287 253
286 253
285 253
284 253
283 253
282 253
281 253
280 254
279 253
278 253
277 252
276 252
275 252
274 252
273 252
272 252
271 252
270 252
269 251
268 251
267 251
266 251
265 251
264 251
263 251
262 251
261 251
260 251
259 252
258 252
257 252
256 251
255 251
254 251
253 251
252 252
251 252
250 252
249 252
248 251
247 251
246 251
245 251
244 251
243 251
242 251
241 251
240 252
239 252
238 252
237 252
236 252
235 252
234 252
233 252
232 252
231 252
230 252
229 252
228 252
227 252
226 253
225 253
224 253
223 253
222 253
221 253
220 254
219 254
218 254
217 254
216 254
215 254
214 254
213 254
212 254
211 255
210 255
209 255
208 255
207 255
206 256
205 256
204 256
203 256
202 256
201 256
200 257
199 257
198 257
197 257
196 257
195 258
194 258
193 258
192 259
191 259
190 259
189 260
188 260
187 261
186 261
185 261
184 262
183 262
182 262
181 263
180 263
179 264
178 264
177 264
176 265
175 265
174 265
173 265
172 266
171 266
170 266
169 266
168 267
167 267
166 268
165 268
164 268
163 268
162 269
161 269
160 269
159 270
158 270
157 271
156 271
155 271
154 272
153 272
152 273
151 273
150 273
149 274
148 275
147 275
146 276
145 276
144 277
143 278
142 278
141 279
140 279
139 280
138 280
137 281
136 281
135 282
134 282
133 283
132 283
131 283
130 284
129 284
128 285
127 285
126 286
125 286
124 287
123 287
122 288
121 288
120 289
119 290
118 290
117 291
116 292
115 293
114 294
113 294
112 294
111 294
110 295
109 295
108 296
107 297
106 297
105 298
104 299
103 300
102 300
101 301
100 302
99 302
98 303
97 304
96 304
95 305
94 306
93 307
92 308
91 309
90 310
89 310
89 311
88 312
88 313
87 314
86 315
85 315
84 316
83 317
82 318
82 319
81 320
80 321
79 322
78 323
77 324
77 325
76 326
75 327
74 328
73 329
72 330
72 331
71 332
70 333
69 334
68 335
68 336
67 337
66 338
65 339
64 340
64 341
63 342
63 343
62 344
61 345
60 346
60 347
59 348
58 349
58 350
58 351
57 352
57 353
56 354
55 355
54 356
54 357
53 358
52 359
51 360
50 361
50 362
49 363
49 364
49 365
48 366
47 367
46 368
46 369
45 370
44 371
43 372
42 373
42 374
41 375
40 376
40 377
40 378
39 379
38 380
37 381
36 382
35 383
34 384
34 385
33 386
33 387
33 388
32 389
32 390
32 391
32 392
31 393
31 394
31 395
31 396
30 397
30 398
30 399
29 400
29 401
28 402
28 403
27 404
27 405
27 406
27 407
27 408
26 409
26 410
26 411
27 412
27 413
27 414
27 415
27 416
27 417
27 418
27 419
27 420
28 421
28 422
28 423
28 424
28 425
29 426
29 427
29 428
29 429
29 430
29 431
29 432
30 433
30 434
30 435
31 436
31 437
31 438
31 439
31 440
31 441
30 442
31 442
32 443
33 443
34 444
35 445
36 446
37 447
38 447
39 448
40 448
41 448
42 447
43 447
44 446
45 447
46 448
46 449
47 449
48 450
49 451
50 452
51 453
52 453
53 454
54 454
55 455
56 455
57 456
58 456
59 456
60 456
61 456
62 456
63 456
64 456
65 457
66 457
67 457
68 457
69 458
70 458
71 459
72 460
73 460
74 461
75 461
76 462
77 463
78 464
79 464
80 465
81 465
82 466
83 467
84 467
85 467
86 468
87 468
88 468
89 468
90 469
91 469
92 469
93 469
94 469
95 469
96 470
97 470
98 470
99 470
100 470
101 470
102 470
103 470
104 470
105 470
106 470
107 470
108 470
109 469
110 469
111 469
112 469
113 469
114 469
115 469
116 469
117 468
118 468
119 468
120 468
121 468
122 467
123 467
124 467
125 467
126 466
127 466
128 465
129 465
130 465
131 464
132 464
133 464
134 464
135 463
136 463
137 463
137 462
137 461
138 460
139 460
140 460
141 460
142 460
143 460
144 460
145 460
146 460
147 460
148 460
149 459
150 459
151 459
152 459
153 459
154 459
155 458
156 458
157 458
158 458
159 458
160 458
161 458
162 458
163 457
164 457
165 457
166 456
167 456
168 456
169 456
170 456
171 456
172 456
173 456
174 456
175 455
176 455
177 455
178 455
179 454
180 454
181 454
182 453
183 453
184 452
185 452
186 452
187 452
188 452
189 451
190 451
191 451
192 451
193 450
194 450
195 450
196 449
197 449
198 449
199 448
200 448
201 447
202 446
203 446
204 446
205 445
206 444
207 444
208 444
209 444
210 443
211 443
212 443
213 443
214 442
215 442
216 442
217 441
218 441
219 440
220 440
221 439
222 439
223 438
224 437
225 437
226 436
227 435
228 435
229 434
230 434
231 434
232 433
233 433
234 433
235 432
236 432
237 432
238 431
239 430
240 430
241 429
242 428
243 427
244 426
245 426
246 425
247 424
248 424
249 423
250 422
251 422
252 421
253 420
254 420
255 419
256 418
257 417
258 416
259 415
260 414
261 413
262 413
263 412
264 411
265 410
266 409
267 408
268 407
269 406
270 405
271 405
272 404
273 403
274 402
275 402
276 401
277 400
278 399
279 398
280 398
281 397
282 396
283 395
284 394
285 393
286 392
287 391
288 390
289 389
290 388
291 387
292 386
293 385
294 384
295 383
296 382
297 381
298 381
299 380
300 379
301 378
302 377
303 376
304 376
305 375
306 374
307 373
308 372
309 372
310 371
311 370
312 369
313 368
314 367
315 366
316 365
316 364
317 363
318 362
319 361
320 360
321 359
321 358
322 357
323 356
324 355
325 354
326 353
327 352
328 351
328 350
329 349
330 348
331 347
332 346
333 345
334 344
334 343
335 342
336 341
336 340
337 339
338 338
338 337
339 336
339 335
340 334
340 333
341 332
341 331
342 330
342 329
343 328
343 327
344 326
344 325
345 324
345 323
346 322
346 321
346 320
347 319
347 318
348 317
348 316
349 315
349 314
349 313
350 312
350 311
351 310
351 309
352 308
352 307
352 306
353 305
353 304
354 303
355 302
355 301
355 300
356 299
356 298
357 297
357 296
358 295
358 294
358 293
359 292
360 291
360 290
360 289
361 288
361 287
362 286
362 285
362 284
363 283
364 282
364 281
365 280
366 279
367 278
368 277
369 276
370 275
371 275
372 274
373 273
374 273
375 272
376 272
377 272
378 271
379 271
380 270
381 270
382 269
383 269
384 269
385 269
386 268
387 268
388 267
389 267
390 266
391 266
392 266
393 265
394 265
395 264
396 264
397 263
398 262
399 262
400 262
401 262
402 261
403 261
404 260
405 260
406 259
407 259
408 259
409 259
410 259
411 258
412 258
413 257
414 257
415 256
416 256
417 257
417 258
416 259
415 259
414 260
413 260
412 261
411 262
411 263
410 264
409 264
408 265
407 266
406 266
405 267
404 268
403 269
402 270
401 271
400 272
399 273
399 274
398 275
397 276
396 277
395 278
395 279
394 280
393 281
393 282
392 283
391 284
391 285
390 286
390 287
389 288
389 289
389 290
388 291
388 292
387 293
387 294
387 295
386 296
386 297
386 298
385 299
385 300
384 301
384 302
384 303
383 304
383 305
383 306
382 307
382 308
382 309
381 310
381 311
381 312
380 313
380 314
379 315
379 316
378 317
378 318
378 319
377 320
377 321
377 322
377 323
376 324
376 325
376 326
376 327
376 328
375 329
375 330
375 331
375 332
375 333
374 334
374 335
374 336
374 337
374 338
374 339
374 340
374 341
374 342
374 343
374 344
374 345
373 346
373 347
373 348
373 349
372 350
372 351
371 352
371 353
371 354
370 355
370 356
370 357
369 358
369 359
369 360
368 361
368 362
368 363
368 364
368 365
368 366
367 367
367 368
367 369
367 370
367 371
367 372
367 373
367 374
367 375
366 376
366 377
366 378
366 379
366 380
366 381
366 382
366 383
365 384
365 385
365 386
365 387
365 388
365 389
365 390
366 391
366 392
366 393
366 394
366 395
366 396
366 397
367 398
367 399
367 400
367 401
367 402
368 403
368 404
368 405
368 406
368 407
368 408
368 409
368 410
368 411
369 412
369 413
369 414
369 415
369 416
369 417
369 418
370 419
370 420
370 421
371 422
371 423
371 424
372 425
372 426
372 427
372 428
373 429
373 430
373 431
373 432
374 433
374 434
374 435
374 436
374 437
374 438
375 439
375 440
375 441
376 442
376 443
377 444
377 445
377 446
378 447
378 448
379 449
380 450
380 451
381 452
381 453
382 454
382 455
383 456
383 457
384 458
384 459
384 460
385 461
385 462
385 463
386 464
386 465
387 466
387 467
388 468
389 469
390 470
391 471
391 472
392 473
393 474
394 475
395 476
395 477
396 478
397 479
398 480
399 481
400 481
401 482
402 483
403 483
404 484
405 484
406 485
407 486
408 487
409 488
410 488
411 488
412 489
413 489
414 490
414 491
415 492
415 493
416 494
416 495
416 496
417 497
417 498
417 499
417 500
418 500
419 499
419 498
420 497
420 496
421 495
421 494
422 493
423 492
424 491
424 490
425 489
426 488
427 487
428 487
429 486
430 485
431 485
432 484
433 484
434 483
435 482
436 482
437 481
438 481
439 480
440 479
441 478
442 477
443 476
444 475
445 474
446 473
446 472
447 471
448 470
449 469
449 468
450 467
450 466
451 465
452 464
452 463
453 462
453 461
454 460
454 459
455 458
456 457
456 456
456 455
457 454
457 453
458 452
459 451
459 450
460 449
460 448
460 447
461 446
461 445
461 444
462 443
462 442
463 441
463 440
463 439
464 438
464 437
465 436
465 435
466 434
466 433
466 432
466 431
467 430
467 429
468 428
468 427
468 426
469 425
469 424
469 423
470 422
470 421
470 420
470 419
471 418
471 417
472 416
472 415
473 414
473 413
473 412
474 411
474 410
474 409
475 408
475 407
475 406
475 405
476 404
476 403
476 402
476 401
476 400
477 399
477 398
477 397
477 396
477 395
477 394
477 393
478 392
478 391
479 390
479 389
479 388
479 387
480 386
480 385
480 384
480 383
480 382
480 381
481 380
481 379
481 378
481 377
481 376
482 375
482 374
482 373
483 372
483 371
483 370
484 369
484 368
484 367
484 366
484 365
485 364
485 363
485 362
485 361
486 360
486 359
486 358
486 357
486 356
486 355
486 354
486 353
486 352
487 351
487 350
487 349
487 348
487 347
487 346
487 345
487 344
487 343
487 342
488 341
488 340
488 339
488 338
488 337
489 336
489 335
489 334
489 333
489 332
489 331
489 330
489 329
490 328
490 327
490 326
490 325
490 324
490 323
490 322
490 321
490 320
490 319
490 318
490 317
491 316
491 315
491 314
491 313
491 312
491 311
491 310
491 309
491 308
491 307
491 306
491 305
491 304
491 303
492 302
492 301
492 300
492 299
492 298
492 297
492 296
492 295
492 294
492 293
492 292
492 291
493 290
493 289
493 288
493 287
493 286
493 285
493 284
493 283
493 282
493 281
493 280
493 279
493 278
493 277
492 276
492 275
492 274
492 273
492 272
492 271
492 270
491 269
491 268
491 267
491 266
491 265
491 264
490 263
490 262
490 261
490 260
490 259
489 258
489 257
488 256
488 255
487 254
486 253
485 252
484 251
483 250
482 250
481 249
480 249
479 248
478 248
477 248
476 247
475 247
474 246
473 246
472 246
471 245
470 245
469 244
468 243
467 242
467 241
468 240
469 239
470 238
471 237
472 237
473 236
474 236
475 235
476 235
477 235
478 234
479 234
480 233
481 233
482 232
483 232
484 232
485 231
486 231
487 230
488 230
489 229
490 229
491 229
492 228
493 228
494 227
495 227
496 227
497 226
498 226
499 225
500 225
501 225
502 224
503 224
504 223
505 223
506 223
507 222
508 222
509 221
510 221
511 220
512 220
513 219
514 219
515 218
516 217
517 217
518 216
519 216
520 216
521 216
522 215
523 214
524 214
525 213
526 213
527 212
528 212
529 211
530 211
531 210
532 210
533 209
534 209
535 209
536 208
537 208
538 207
539 207
540 206
541 205
542 205
543 205
544 204
545 203
546 203
547 202
548 202
549 202
550 203
550 204
550 205
550 206
549 207
549 208
549 209
548 210
548 211
547 212
547 213
547 214
546 215
546 216
546 217
545 218
545 219
545 220
544 221
544 222
544 223
544 224
544 225
544 226
543 227
543 228
543 229
543 230
543 231
543 232
543 233
543 234
543 235
543 236
544 237
544 238
544 239
544 240
544 241
544 242
545 243
545 244
545 245
545 246
545 247
545 248
546 249
546 250
546 251
546 252
547 253
547 254
547 255
547 256
548 257
548 258
549 259
549 260
549 261
550 262
551 263
551 264
552 265
552 266
553 267
553 268
554 269
554 270
555 271
555 272
556 273
556 274
557 275
557 276
558 277
558 278
559 279
559 280
560 281
560 282
561 283
562 284
562 285
563 286
564 287
565 288
566 289
567 290
568 291
569 292
570 293
571 294
572 294
573 295
574 296
575 297
576 298
576 299
577 299
578 300
579 301
580 302
581 303
582 304
583 304
584 305
585 306
586 307
587 307
588 308
589 309
590 309
591 310
592 311
593 312
594 313
595 314
596 314
597 315
598 315
599 315
600 316
601 316
602 316
603 317
604 317
605 317
606 317
607 317
608 317
609 318
610 318
611 318
612 319
613 319
614 319
615 319
616 319
617 319
618 319
619 319
620 318
621 318
622 318
623 318
624 318
625 319
626 319
627 319
628 319
628 318
629 317
630 316
630 315
630 314
630 313
630 312
631 311
631 310
631 309
631 308
632 307
632 306
632 305
632 304
632 303
632 302
632 301
632 300
632 299
632 298
632 297
632 296
632 295
632 294
632 293
632 292
632 291
632 290
632 289
632 288
631 287
631 286
631 285
631 284
630 283
630 282
630 281
630 280
629 279
629 278
629 277
628 276
628 275
628 274
627 273
627 272
626 271
626 270
626 269
625 268
625 267
624 266
624 265
624 264
623 263
623 262
622 261
622 260
621 259
621 258
621 257
620 256
620 255
620 254
620 253
619 252
619 251
618 250
618 249
617 248
617 247
617 246
617 245
616 244
616 243
616 242
616 241
616 240
616 239
615 238
615 237
615 236
615 235
614 234
613 233
613 232
612 231
612 230
612 229
611 228
611 227
610 226
610 225
609 224
608 223
608 222
608 221
607 220
607 219
606 218
605 217
605 216
604 215
604 214
603 213
603 212
603 211
603 210
603 209
602 208
602 207
602 206
602 205
602 204
601 203
601 202
601 201
601 200
600 199
600 198
599 197
598 196
597 195
597 194
596 193
595 192
594 191
593 191
592 190
591 190
590 189
589 189
588 189
587 188
586 187
587 186
588 186
589 185
590 184
591 184
592 183
593 183
594 182
595 181
596 181
597 180
598 180
599 179
600 179
601 178
602 178
603 177
604 177
605 176
606 176
607 175
608 175
609 174
610 173
611 173
612 172
613 171
614 171
615 171
616 170
617 169
618 168
619 168
620 168
621 167
622 167
623 166
624 165
625 165
626 164
627 164
628 163
629 162
630 162
631 161
632 161
633 160
634 160
635 159
636 159
637 158
638 158
639 157
640 157
641 156
642 155
643 155
644 154
645 154
646 153
647 153
648 153
649 152
650 151
651 151
652 150
653 150
654 149
655 149
656 149
657 148
658 148
659 147
660 147
661 146
662 145
663 145
664 145
665 144
666 144
667 143
668 143
669 142
670 142
671 141
672 141
673 140
674 140
675 139
676 139
677 138
678 138
679 137
680 137
681 136
682 136
683 136
684 135
685 135
686 134
687 134
688 133
689 133
690 132
691 132
692 132
693 131
694 130
695 130
696 130
697 129
698 128
699 128
700 128
701 127
702 127
703 126
704 126
705 125
706 125
707 125
708 124
709 124
710 123
711 122
712 122
713 122
714 121
715 121
716 120
717 120
718 120
719 119
720 119
721 118
722 118
723 117
724 117
725 116
726 116
727 116
728 115
729 115
730 114
731 114
732 113
733 113
734 112
735 112
736 112
737 111
738 111
739 111
740 110
741 110
742 109
743 109
744 108
745 108
746 107
747 107
748 107
749 106
750 106
751 105
752 105
753 105
754 104
755 104
756 104
757 104
758 104
759 103
760 103
761 103
762 103
763 103
764 103
765 103
766 103
767 103
768 103
769 103
770 103
771 104
772 104
773 104
774 104
775 104
776 104
777 104
778 104
779 104
780 104
781 103
782 103
783 102
784 101
784 100
784 99
784 98
784 97
784 96
784 95
784 94
784 93
784 92
784 91
784 90
785 89
785 88
786 87
786 86
787 85
787 84
788 83
789 82
789 81
789 80
788 79
787 78
786 77
785 77
784 76
783 76
782 76
781 76
780 76
779 76
778 76
777 76
776 76
775 76
774 76
773 76
772 76
771 76
770 76
769 76
768 77
767 77
766 77
765 77
764 78
763 78
762 79
761 79
760 80
759 81
758 81
757 82
756 83
755 84
754 84
753 85
752 86
751 87
750 88
749 89
748 89
747 89
746 90
745 91
744 91
743 92
742 93
741 93
740 94
739 95
738 95
737 96
736 97
735 97
734 98
733 98
732 99
731 99
730 100
729 100
728 101
727 101
726 102
725 103
724 103
723 104
722 104
721 105
720 105
719 106
718 106
717 107
716 107
715 108
714 109
713 109
712 110
711 110
710 111
709 111
708 112
707 113
706 113
705 114
704 114
703 114
702 115
701 116
700 116
699 116
698 117
697 118
696 118
695 119
694 119
693 120
692 120
691 121
690 121
689 122
688 122
687 123
686 123
685 124
684 124
683 125
682 125
681 126
680 126
679 127
678 127
677 128
676 128
675 129
674 129
673 130
672 130
671 131
670 131
669 132
668 132
667 133
666 133
665 134
664 135
663 135
662 135
661 136
660 137
659 137
658 137
657 138
656 139
655 139
654 140
653 140
652 140
651 141
650 141
649 142
648 142
647 143
646 143
645 144
644 145
643 145
642 146
641 146
640 147
639 147
638 148
637 148
636 149
635 149
634 150
633 150
632 151
631 151
630 152
629 153
628 153
627 154
626 154
625 154
624 155
623 156
622 156
621 157
620 157
619 158
618 159
617 159
616 160
615 160
614 161
613 161
612 162
611 162
610 163
609 163
608 164
607 165
606 165
605 166
604 166
603 167
602 167
601 168
600 168
599 169
598 169
597 170
596 170
595 171
594 172
593 172
592 172
591 173
590 173
589 174
588 174
587 175
586 176
585 176
584 176
583 177
582 177
581 178
580 178
579 179
578 179
577 179
576 178
576 177
577 176
578 176
578 175
578 174
579 173
579 172
580 171
580 170
581 169
582 168
582 167
583 166
583 165
584 164
584 163
585 162
585 161
585 160
586 159
586 158
586 157
587 156
587 155
588 154
588 153
589 152
589 151
589 150
589 149
590 148
590 147
590 146
591 145
591 144
591 143
592 142
592 141
592 140
592 139
593 138
593 137
593 136
593 135
593 134
593 133
593 132
594 131
594 130
594 129
594 128
594 127
594 126
594 125
594 124
595 123
595 122
595 121
595 120
595 119
595 118
595 117
595 116
595 115
595 114
595 113
595 112
595 111
595 110
595 109
595 108
595 107
594 106
594 105
595 104
594 103
594 102
594 101
594 100
594 99
594 98
594 97
594 96
594 95
593 94
593 93
593 92
593 91
593 90
592 89
592 88
592 87
592 86
592 85
591 84
591 83
591 82
590 81
590 80
590 79
590 78
590 77
589 76
589 75
589 74
589 73
589 72
588 71
588 70
588 69
587 68
587 67
587 66
586 65
586 64
585 63
585 62
584 61
584 60
583 59
583 58
582 57
582 56
581 55
581 54
580 53
580 52
580 51
579 50
579 49
578 48
578 47
578 46
577 45
577 44
577 43
576 44
575 44
574 45
573 45
572 45
571 45
570 46
569 46
568 46
567 46
566 46
565 46
564 46
563 46
562 46
561 45
560 45
559 45
558 45
557 45
556 46
555 46
554 46
553 47
552 47
551 47
550 47
549 48
548 48
547 48
546 48
545 49
544 49
543 49
542 49
541 50
540 50
539 51
538 52
537 53
536 53
535 54
534 54
533 55
532 56
531 56
530 57
529 58
528 59
527 60
526 60
526 61
525 62
524 63
523 64
522 65
521 66
521 67
520 68
519 69
518 70
518 71
517 72
516 73
516 74
515 75
514 76
513 77
513 78
512 79
511 80
510 81
509 81
509 82
508 83
507 84
507 85
506 86
505 87
505 88
504 89
504 90
503 91
502 92
502 93
502 94
501 95
501 96
500 97
500 98
499 99
499 100
498 101
498 102
498 103
497 104
497 105
497 106
497 107
496 108
496 109
496 110
496 111
495 112
495 113
495 114
495 115
495 116
495 117
495 118
494 119
494 120
494 121
494 122
494 123
494 124
494 125
494 126
494 127
494 128
494 129
494 130
495 131
495 132
495 133
495 134
495 135
495 136
496 137
496 138
496 139
496 140
497 141
497 142
497 143
497 144
498 145
498 146
498 147
498 148
499 149
499 150
499 151
500 152
500 153
501 154
501 155
502 156
502 157
502 158
503 159
503 160
504 161
504 162
505 163
505 164
506 165
507 166
507 167
508 168
509 169
510 170
510 171
511 172
512 173
513 174
513 175
514 176
515 176
516 177
517 178
518 179
519 180
520 180
521 181
522 181
523 182
524 183
525 183
526 184
527 184
528 185
529 185
530 186
531 186
532 187
533 187
534 187
535 188
536 188
537 188
538 188
539 188
540 188
541 188
542 188
543 188
544 188
545 188
546 188
547 188
548 189
548 190
548 191
548 192
548 193
548 194
547 195
546 196
545 196
544 197
543 197
542 198
541 199
540 199
539 200
538 200
537 201
536 201
535 202
534 202
533 203
532 203
531 204
530 204
529 205
528 205
527 206
526 206
525 207
524 207
523 208
522 209
521 209
520 210
519 210
518 211
517 211
516 212
515 212
514 213
513 213
512 214
511 214
510 214
509 215
508 215
507 216
506 216
505 216
504 217
503 217
502 218
501 218
500 219
499 219
498 219
497 220
496 220
495 221
494 221
493 222
492 222
491 222
490 223
489 223
488 224
487 224
486 224
485 225
484 225
483 226
482 226
481 226
480 227
479 227
478 227
477 228
476 228
475 229
474 229
473 229
472 230
471 230
470 230
469 231
468 231
467 232
466 232
465 232
464 232
463 233
462 233
461 233
460 233
459 234
458 234
457 234
456 234
455 235
454 235
453 235
452 236
451 236
450 236
449 236
448 236
447 236
446 237
445 237
444 237
443 237
442 237
441 237
440 237
439 237
438 236
438 235
439 234
440 233
440 232
441 231
442 230
443 229
444 228
444 227
445 226
446 225
447 224
447 223
448 222
448 221
449 220
449 219
449 218
450 217
450 216
450 215
451 214
451 213
451 212
451 211
451 210
451 209
451 208
451 207
451 206
451 205
451 204
451 203
451 202
451 201
451 200
450 199
450 198
450 197
449 196
449 195
449 194
449 193
448 192
448 191
447 190
447 189
446 188
446 187
446 186
445 185
445 184
445 183
444 182
444 181
444 180
443 179
443 178
443 177
442 176
442 175
441 174
440 173
440 172
440 171
439 170
439 169
438 168
437 167
437 166
436 165
435 164
435 163
434 162
433 161
433 160
432 159
432 158
431 157
431 156
430 155
429 154
429 153
428 152
427 151
426 150
425 149
425 148
424 147
423 146
423 145
422 144
421 143
420 142
419 141
418 140
418 139
417 138
416 137
415 136
415 135
414 134
413 133
412 132
411 131
410 130
409 129
408 128
408 127
407 126
406 125
406 124
405 123
404 122
403 121
402 120
401 119
401 118
400 117
399 117
398 116
398 115
397 114
397 113
396 112
395 111
394 110
393 109
392 108
392 107
391 106
391 105
390 104
389 103
389 102
388 101
387 100
386 99
386 98
385 97
384 96
383 95
382 94
382 93
381 92
380 91
379 90
378 89
377 88
377 87
376 86
375 85
375 84
374 83
373 82
373 81
372 80
371 79
370 78
369 77
368 76
368 75
367 75
366 74
366 73
365 72
364 71
363 71
362 70
361 69
360 68
360 67
359 66
358 65
357 64
356 63
355 62
354 62
353 61
352 60
351 59
350 58
349 58
348 57
347 56
346 56
345 55
344 54
343 54
342 53
341 52
340 52
339 51
338 50
337 50
336 49
335 49
334 48
333 48
332 48
331 47
330 47
329 47
328 46
329 45
328 44
327 44
326 43
325 42
324 42
323 41
322 41
321 40
320 40
319 39
318 39
317 39
316 39
315 39
314 39
313 38
312 38
311 38
310 37
309 37
308 37
307 36
306 36
305 36
304 36
303 35
303 34
303 33
303 32
302 31
301 30
300 29
299 29
298 28
297 27
296 27
295 27
294 26
294 25
293 25
292 24
291 23
290 23
289 22
288 21
287 20
286 19
286 18
286 17
286 16
286 15
285 14
285 13
284 13
283 12
284 11
284 10
283 11
282 10
