556 35
556 36
555 37
554 38
554 39
554 40
553 41
552 41
551 41
550 40
549 40
548 39
547 39
546 39
545 39
544 38
543 38
542 38
541 38
540 37
539 37
538 37
537 37
536 37
535 36
534 36
533 36
532 37
532 38
531 39
530 40
529 40
528 40
527 40
526 40
525 40
524 40
523 40
522 40
521 40
520 41
519 41
518 40
517 40
516 40
515 40
514 40
513 40
512 40
511 40
510 40
509 40
508 40
507 40
507 41
507 42
508 43
508 44
509 45
509 46
509 47
510 48
510 49
510 50
510 51
510 52
510 53
509 54
509 55
509 56
508 57
508 58
507 59
507 60
507 61
507 62
506 63
506 64
505 65
505 66
505 67
505 68
504 69
504 70
504 71
504 72
503 73
502 73
501 73
500 73
499 73
498 73
497 72
496 72
495 72
494 72
493 72
492 72
491 72
490 72
489 72
488 72
487 72
486 72
485 72
484 71
483 71
482 71
481 71
480 72
480 73
479 74
478 74
478 75
477 76
476 77
476 78
475 79
474 80
473 80
472 80
471 79
470 79
469 79
468 78
467 77
466 77
465 76
464 76
463 76
462 75
461 75
460 75
459 74
458 74
457 74
456 73
455 73
454 73
453 72
452 72
451 72
450 72
449 72
448 72
447 71
446 71
445 71
444 71
443 71
442 71
441 71
440 71
439 71
438 71
437 71
436 71
435 71
434 71
433 71
433 72
432 73
432 74
431 75
430 75
430 76
429 77
428 78
427 78
426 78
425 78
424 77
423 77
422 77
421 77
420 77
419 77
418 77
417 77
416 77
415 77
414 77
413 76
412 76
411 76
410 77
409 77
408 77
407 77
406 77
405 77
404 77
403 77
402 77
401 77
400 77
399 77
398 78
397 78
396 78
395 78
394 79
393 79
392 79
391 80
390 80
389 80
388 81
387 81
386 81
385 81
384 81
383 82
382 82
381 82
380 83
379 83
379 84
379 85
380 86
381 86
382 87
383 88
384 89
385 90
385 91
386 92
386 93
387 94
387 95
387 96
388 97
388 98
388 99
388 100
388 101
388 102
388 103
388 104
388 105
388 106
387 107
386 107
385 108
384 109
383 109
382 110
382 111
382 112
382 113
382 114
382 115
382 116
382 117
382 118
382 119
381 120
380 120
379 120
378 121
377 121
376 121
375 121
374 120
373 120
372 120
371 120
370 120
369 120
368 120
367 119
366 119
365 119
364 119
363 119
362 119
361 119
360 119
359 119
358 119
357 119
356 119
355 119
354 119
353 119
352 120
351 120
350 120
349 120
348 120
347 120
346 120
345 120
344 120
343 120
343 121
343 122
343 123
343 124
343 125
342 126
341 127
340 127
339 127
338 127
337 127
336 127
335 126
334 126
333 126
332 126
331 126
330 126
329 126
328 126
327 126
326 126
325 126
324 127
323 127
322 127
321 127
320 128
319 128
318 128
317 129
316 129
315 129
314 129
313 130
312 130
311 130
310 130
309 131
308 131
307 132
306 132
305 133
304 133
303 134
302 134
303 135
304 136
305 137
305 138
306 138
307 139
307 140
308 141
308 142
308 143
308 144
309 145
309 146
309 147
309 148
309 149
309 150
308 151
308 152
307 153
307 154
307 155
307 156
307 157
308 158
308 159
307 160
306 161
305 161
304 161
303 161
302 161
301 161
300 162
299 162
298 162
297 162
296 163
295 163
294 164
293 164
292 164
291 164
290 164
289 165
289 166
289 167
289 168
289 169
288 170
287 170
286 170
285 171
284 171
283 171
282 171
281 172
280 172
279 172
278 172
277 172
276 173
275 173
274 173
273 173
272 174
271 174
270 175
269 175
268 176
267 176
266 176
265 177
264 178
263 178
262 179
261 179
260 180
259 181
258 181
257 181
256 182
255 183
254 183
253 184
252 184
251 185
250 185
249 186
248 187
247 187
246 188
245 189
245 190
246 191
247 191
248 192
249 193
250 194
250 195
251 196
251 197
251 198
251 199
251 200
251 201
251 202
251 203
251 204
251 205
251 206
252 207
252 208
252 209
251 210
251 211
250 212
249 212
248 212
247 211
246 211
245 211
244 212
243 212
242 212
241 212
240 212
239 212
238 212
237 212
236 213
235 213
234 213
233 213
233 214
233 215
232 216
231 217
230 218
229 218
228 218
227 218
226 219
225 219
224 219
223 218
222 218
221 218
220 218
219 218
218 218
217 219
216 219
215 219
214 219
213 219
212 219
211 219
210 219
209 219
208 220
207 220
206 220
205 220
204 221
203 221
202 222
201 222
200 222
199 223
198 223
197 223
196 224
195 224
194 224
193 224
192 224
191 224
190 225
189 225
188 225
187 225
186 225
185 226
184 226
183 226
182 227
183 228
184 229
184 230
184 231
185 232
185 233
185 234
185 235
185 236
185 237
186 238
186 239
186 240
186 241
186 242
185 243
184 244
183 244
182 245
181 245
181 246
180 247
179 247
178 248
177 247
176 247
175 246
174 247
173 247
172 247
171 248
170 248
169 248
168 248
167 249
166 249
165 249
164 249
163 250
163 251
163 252
162 253
161 253
160 253
159 254
158 254
157 254
156 254
155 254
154 254
153 254
152 254
151 254
150 254
149 254
148 254
147 254
146 253
145 253
144 253
143 253
142 254
141 254
140 254
139 254
138 254
137 254
136 254
135 254
134 255
133 255
132 255
131 255
130 256
129 256
128 257
128 258
128 259
128 260
128 261
128 262
128 263
128 264
127 265
126 265
125 266
124 266
123 266
122 266
121 266
120 265
119 265
118 265
117 265
116 265
115 265
114 264
113 264
112 264
111 264
110 264
109 264
108 264
107 264
106 263
105 263
104 263
103 263
102 264
101 264
101 265
101 266
101 267
101 268
100 269
100 270
99 271
98 271
97 271
96 272
95 272
94 272
93 272
92 272
91 273
90 273
89 273
88 274
87 274
86 274
85 274
84 274
83 274
82 274
81 274
80 275
79 275
78 275
77 275
76 275
75 275
74 275
73 275
72 275
71 275
70 275
69 275
68 275
67 275
66 275
65 275
64 275
63 275
62 274
61 274
60 274
59 274
58 274
57 274
56 274
55 274
54 273
53 273
52 273
51 273
50 273
49 273
49 274
49 275
50 276
51 277
52 278
53 278
54 279
55 280
55 281
56 281
57 282
58 283
59 284
60 284
61 285
62 286
63 287
64 287
65 288
66 288
67 289
68 289
69 290
70 290
71 290
72 291
73 291
74 291
75 292
76 292
77 293
78 293
79 293
80 294
81 294
82 295
83 295
84 296
85 296
86 296
87 297
88 297
89 297
90 298
91 298
92 298
93 298
94 298
95 299
96 299
97 300
97 301
97 302
97 303
97 304
96 305
96 306
97 307
98 307
99 308
100 308
101 308
102 309
103 309
104 309
105 310
106 310
107 310
108 310
109 311
110 311
111 311
112 311
113 311
114 311
115 311
116 311
117 311
118 312
119 312
120 312
121 312
122 312
123 313
124 313
125 313
126 314
127 314
128 314
129 315
130 315
131 315
132 315
133 316
134 316
135 316
136 317
137 317
138 318
139 318
140 319
141 319
142 320
142 321
142 322
142 323
142 324
142 325
142 326
142 327
141 328
141 329
140 330
141 331
142 332
143 332
144 333
145 333
146 333
147 333
148 334
149 334
150 335
151 335
152 335
153 335
154 335
155 335
156 335
157 335
158 335
159 335
160 335
161 335
162 336
163 336
164 336
165 336
166 336
167 336
168 336
169 336
170 337
171 337
172 337
173 337
174 337
175 337
176 337
177 338
178 338
179 338
180 338
181 338
182 338
183 339
184 339
185 339
186 340
187 341
187 342
187 343
187 344
187 345
187 346
187 347
187 348
187 349
186 350
186 351
186 352
185 353
185 354
185 355
186 355
187 355
188 356
189 356
190 356
191 357
192 357
193 357
194 357
195 357
196 358
197 358
198 358
199 358
200 358
201 358
202 359
203 359
204 359
205 359
206 359
207 360
208 360
209 360
210 360
211 360
212 360
213 360
214 360
215 360
216 360
217 360
218 360
219 360
220 360
221 360
222 360
223 361
224 361
225 361
226 361
227 361
228 362
228 363
229 364
229 365
230 366
230 367
231 367
232 367
233 367
234 366
235 366
236 366
237 366
238 366
239 366
240 366
241 366
242 366
243 366
244 366
245 366
246 366
247 366
248 366
249 366
250 367
250 368
250 369
250 370
250 371
250 372
250 373
250 374
250 375
250 376
250 377
250 378
250 379
250 380
249 381
249 382
249 383
248 384
247 385
246 386
245 387
244 388
244 389
245 390
246 390
247 390
248 390
249 391
250 391
251 391
252 392
253 392
254 392
255 393
256 393
257 394
258 394
259 395
260 395
261 395
262 396
263 397
264 397
265 397
266 398
267 398
268 399
269 399
270 399
271 399
272 399
273 400
274 400
275 400
276 400
277 400
278 400
279 400
280 400
281 400
282 400
283 400
284 400
285 400
286 401
287 401
288 401
289 401
290 401
291 402
291 403
291 404
291 405
291 406
292 407
292 408
292 409
292 410
293 411
294 411
295 411
296 411
297 411
298 411
299 411
300 412
301 412
302 413
303 413
304 413
305 412
306 412
307 413
308 414
308 415
308 416
308 417
308 418
308 419
308 420
308 421
308 422
308 423
308 424
308 425
308 426
308 427
308 428
308 429
308 430
309 431
309 432
309 433
308 434
307 435
307 436
307 437
307 438
308 438
309 438
310 439
311 439
312 439
313 439
314 440
315 440
316 441
317 441
318 442
319 442
320 442
321 443
322 443
323 443
324 443
325 444
326 444
327 444
328 444
329 444
330 444
331 444
332 444
333 444
334 445
335 444
336 444
337 444
338 444
339 445
340 444
341 444
342 444
343 445
344 446
344 447
344 448
344 449
343 450
343 451
344 452
344 453
345 453
346 453
347 454
348 454
349 454
350 454
351 454
352 454
353 455
354 455
355 455
356 455
357 456
358 456
359 456
360 456
361 456
362 456
363 456
364 456
365 456
366 456
367 456
368 456
369 455
370 455
371 455
372 454
373 455
374 456
374 457
374 458
374 459
375 460
376 460
377 461
378 461
379 461
380 462
381 462
382 463
383 463
384 464
385 464
386 465
387 465
388 465
389 465
390 466
391 467
392 468
392 469
393 470
393 471
394 472
394 473
395 474
395 475
396 476
396 477
397 478
397 479
398 480
399 481
399 482
400 483
400 484
400 485
401 486
401 487
401 488
401 489
401 490
401 491
401 492
401 493
401 494
401 495
401 496
401 497
401 498
401 499
401 500
401 501
401 502
401 503
402 503
403 503
404 502
405 502
406 502
407 502
408 502
409 502
410 502
411 502
412 502
413 502
414 502
415 502
416 502
417 502
418 502
419 502
420 502
421 502
422 502
423 501
424 501
425 501
426 501
427 501
428 501
429 500
430 500
431 500
432 500
433 500
434 499
435 499
436 499
437 498
438 498
439 498
440 497
441 497
442 496
443 495
444 495
445 495
446 496
447 497
448 497
449 498
449 499
449 500
450 501
450 502
451 502
452 502
453 502
454 501
455 500
456 500
457 500
458 499
459 499
460 498
461 498
462 497
463 497
464 497
465 496
466 496
467 496
468 496
469 495
470 495
471 494
472 494
473 494
474 493
475 492
476 492
477 491
478 490
479 490
480 489
481 488
482 488
483 487
484 486
485 485
486 484
487 485
487 486
488 487
488 488
489 489
490 490
490 491
490 492
491 493
491 494
491 495
492 496
493 496
494 496
495 496
496 495
497 495
498 494
499 494
500 494
501 494
502 494
503 494
504 494
505 494
506 493
507 493
508 493
509 493
510 493
511 493
512 493
513 492
514 492
515 492
516 493
517 494
517 495
518 496
518 497
519 498
519 499
519 500
520 501
520 502
520 503
521 504
521 505
521 506
522 507
522 508
522 509
523 510
523 511
523 512
523 513
523 514
523 515
524 516
524 517
524 518
524 519
524 520
524 521
523 522
523 523
523 524
524 524
525 524
526 524
527 524
528 524
529 524
530 524
531 524
532 524
533 524
534 524
535 523
536 523
537 523
538 523
539 523
540 522
541 522
542 522
543 522
544 522
545 521
546 521
547 521
548 521
549 521
550 521
551 521
552 521
553 521
554 521
555 521
556 520
557 520
558 520
559 519
560 518
561 518
562 517
563 516
564 515
565 515
566 514
567 513
568 512
569 512
570 511
571 512
572 513
572 514
572 515
573 516
573 517
574 518
575 517
576 517
577 517
578 517
579 516
580 516
581 516
582 515
583 514
584 514
585 513
586 512
587 512
588 511
589 510
590 509
591 509
592 508
593 507
594 506
595 505
596 504
597 503
598 502
598 501
599 500
600 500
601 499
602 500
603 501
604 502
605 503
605 504
606 505
606 506
607 507
607 508
608 508
609 508
610 508
611 507
612 507
613 507
614 506
615 506
616 505
617 505
618 504
619 504
620 503
621 502
622 501
623 500
624 499
624 498
625 497
626 496
627 495
628 494
628 493
629 492
630 491
630 490
631 489
631 488
632 487
633 486
633 485
634 484
634 483
635 482
636 481
637 481
638 480
639 480
639 479
640 478
641 477
641 476
642 475
642 474
643 473
643 472
643 471
644 470
644 469
645 468
645 467
646 466
647 465
648 464
648 463
649 462
650 461
651 461
652 462
653 462
654 463
655 464
656 464
657 465
657 466
658 467
659 467
660 467
661 466
662 465
663 464
664 463
665 462
666 461
667 460
668 459
668 458
668 457
669 456
669 455
670 454
670 453
671 452
671 451
672 450
672 449
672 448
672 447
673 446
672 445
672 444
672 443
673 442
674 442
675 441
675 440
675 439
674 438
675 437
675 436
675 435
675 434
675 433
675 432
675 431
675 430
675 429
675 428
675 427
675 426
676 425
676 424
676 423
676 422
676 421
676 420
677 419
678 419
679 419
680 419
680 418
681 417
681 416
680 415
680 414
680 413
680 412
680 411
680 410
680 409
680 408
680 407
680 406
680 405
680 404
680 403
680 402
679 401
679 400
679 399
679 398
678 397
678 396
678 395
678 394
678 393
678 392
678 391
678 390
677 389
677 388
677 387
677 386
677 385
677 384
677 383
678 382
678 381
678 380
678 379
678 378
677 377
677 376
678 375
678 374
678 373
678 372
678 371
678 370
678 369
677 368
677 367
677 366
677 365
677 364
677 363
677 362
676 361
676 360
676 359
676 358
676 357
676 356
676 355
676 354
676 353
676 352
676 351
676 350
676 349
675 348
675 347
675 346
675 345
675 344
675 343
674 342
674 341
674 340
674 339
674 338
674 337
673 336
673 335
673 334
673 333
673 332
673 331
673 330
672 329
672 328
672 327
672 326
672 325
672 324
672 323
672 322
671 321
671 320
671 319
671 318
671 317
671 316
671 315
671 314
671 313
671 312
671 311
671 310
670 309
670 308
670 307
670 306
670 305
669 304
669 303
669 302
668 301
668 300
668 299
668 298
667 297
667 296
667 295
666 294
666 293
666 292
666 291
665 290
665 289
665 288
664 287
664 286
664 285
664 284
664 283
663 282
663 281
663 280
662 279
662 278
662 277
662 276
661 275
662 274
663 273
664 272
665 271
666 271
667 271
668 270
669 270
670 270
671 270
672 269
673 269
674 269
675 269
676 268
677 268
678 268
679 267
680 267
681 267
682 266
683 266
684 266
685 266
686 266
687 265
688 265
689 265
690 265
691 265
692 264
693 264
694 264
695 264
696 264
697 263
698 263
699 263
700 262
701 262
702 262
703 262
704 262
705 261
706 261
707 261
708 261
709 261
710 261
711 260
712 260
713 260
714 260
715 260
716 260
717 260
718 260
719 260
720 259
721 259
722 259
723 259
724 259
725 259
726 259
727 259
728 259
729 258
730 258
731 258
732 258
733 258
734 258
735 258
736 257
737 257
738 257
739 257
740 257
741 257
742 257
743 257
744 257
745 257
746 257
747 256
748 256
749 256
750 256
751 256
752 256
753 256
754 256
755 256
756 256
757 255
758 255
759 255
760 256
761 255
762 256
763 256
764 256
765 256
766 256
767 256
768 256
769 256
770 257
771 257
772 256
772 255
773 254
773 253
773 252
773 251
772 250
771 249
770 250
769 249
768 249
767 249
766 249
765 249
764 249
763 249
762 249
761 249
760 249
759 249
758 249
757 249
756 249
755 249
754 249
753 249
752 250
751 250
750 250
749 250
748 250
747 250
746 250
745 250
744 250
743 250
742 250
741 250
740 250
739 251
738 251
737 251
736 251
735 251
734 252
733 252
732 252
731 252
730 252
729 252
728 252
727 252
726 253
725 253
724 253
723 253
722 253
721 253
720 253
719 254
718 254
717 254
716 254
715 254
714 254
713 255
712 255
711 255
710 255
709 255
708 256
707 256
706 256
705 256
704 256
703 256
702 257
701 257
700 257
699 257
698 257
697 257
696 257
695 258
694 258
693 258
692 258
691 259
690 259
689 259
688 259
687 260
686 260
685 260
684 260
683 260
682 261
681 261
680 261
679 261
678 261
677 262
676 262
675 262
674 262
673 262
672 263
671 263
670 263
669 263
668 264
667 264
666 264
665 264
664 264
663 263
663 262
663 261
663 260
662 259
663 258
664 257
664 256
665 255
666 254
666 253
666 252
667 251
668 250
668 249
669 248
669 247
669 246
669 245
670 244
671 243
671 242
671 241
672 240
672 239
672 238
672 237
672 236
672 235
673 234
673 233
673 232
673 231
674 230
674 229
675 228
675 227
675 226
676 225
676 224
676 223
676 222
677 221
677 220
677 219
677 218
678 217
678 216
678 215
678 214
678 213
678 212
678 211
678 210
678 209
678 208
678 207
678 206
678 205
678 204
678 203
679 202
679 201
679 200
679 199
679 198
679 197
679 196
679 195
679 194
679 193
679 192
679 191
680 190
680 189
680 188
680 187
680 186
680 185
680 184
680 183
680 182
680 181
680 180
681 179
681 178
681 177
682 176
682 175
682 174
682 173
682 172
682 171
682 170
682 169
682 168
682 167
682 166
682 165
682 164
682 163
682 162
682 161
682 160
682 159
683 158
683 157
683 156
683 155
683 154
683 153
683 152
683 151
684 150
684 149
684 148
684 147
683 146
682 146
681 145
681 144
681 143
681 142
681 141
681 140
681 139
681 138
681 137
681 136
681 135
682 134
682 133
682 132
682 131
682 130
682 129
682 128
682 127
682 126
682 125
682 124
682 123
682 122
682 121
683 120
682 119
682 118
682 117
682 116
682 115
682 114
681 114
680 114
679 114
678 113
678 112
678 111
678 110
678 109
678 108
678 107
678 106
678 105
678 104
678 103
678 102
678 101
677 100
677 99
677 98
677 97
677 96
677 95
677 94
676 93
675 93
674 92
673 91
673 90
672 89
672 88
671 87
670 86
669 85
669 84
668 83
667 82
666 81
665 80
664 79
663 78
662 77
661 77
660 76
659 75
658 75
658 76
657 77
656 78
655 79
654 80
653 80
652 80
651 80
650 81
649 81
648 80
647 79
647 78
646 77
645 76
645 75
644 74
644 73
643 72
643 71
642 70
642 69
641 68
640 67
640 66
639 65
638 64
638 63
637 62
636 61
635 60
634 59
633 59
632 59
631 59
630 60
629 59
628 58
628 57
627 56
627 55
627 54
626 53
625 52
624 52
623 51
623 50
622 50
621 50
620 49
619 48
618 47
617 46
616 46
615 45
614 45
613 44
612 44
611 43
610 43
609 43
608 42
607 42
606 42
605 42
604 41
603 41
602 41
601 40
600 40
599 41
598 42
598 43
597 44
596 44
596 45
595 46
594 47
593 48
592 49
591 49
590 48
589 48
588 47
587 46
586 46
585 45
584 44
583 44
582 43
581 42
580 42
579 41
578 41
577 40
576 40
575 39
574 38
573 38
572 38
571 38
570 37
569 37
568 37
567 36
566 36
565 36
564 36
563 36
562 36
561 35
560 35
559 35
558 35
557 35
556 35
