335 99
334 100
333 100
332 100
331 100
330 100
329 100
328 100
327 100
326 100
325 100
324 101
323 101
322 101
321 101
320 101
319 102
318 102
317 102
316 102
315 103
314 103
313 103
312 103
311 103
310 104
309 104
308 104
307 104
306 105
305 105
304 105
303 105
302 106
301 106
300 106
299 106
298 107
297 107
296 107
295 107
294 108
293 108
292 108
291 108
290 108
289 108
288 109
287 109
286 109
285 109
284 110
283 110
282 110
281 110
280 110
279 110
278 111
277 111
276 111
275 111
274 111
273 112
272 112
271 112
270 113
269 113
268 113
267 113
266 114
265 114
264 115
263 115
262 115
261 115
260 115
259 116
258 116
257 117
256 117
255 117
254 118
253 118
252 118
251 118
250 119
249 119
248 119
247 120
246 120
245 120
244 121
243 121
242 122
241 122
240 122
239 123
238 123
237 123
236 124
235 124
234 125
233 125
232 125
231 126
230 127
229 127
228 127
227 128
226 128
225 129
224 129
223 130
222 130
221 131
220 131
219 131
218 132
217 133
217 134
216 135
215 136
214 136
213 137
212 138
211 139
210 139
209 140
208 141
207 141
206 142
205 143
204 144
203 145
202 145
201 146
200 147
199 148
198 149
197 149
196 150
195 151
194 152
193 152
192 153
191 153
190 154
189 155
188 156
187 157
186 158
185 158
184 159
183 160
182 161
181 161
180 162
179 162
178 163
177 164
176 165
175 166
174 167
173 167
172 168
171 169
171 170
170 171
169 171
169 172
168 173
167 174
166 175
165 176
164 177
164 178
163 179
163 180
162 181
161 181
161 182
161 183
161 184
162 185
162 186
162 187
162 188
162 189
161 190
161 191
160 192
160 193
159 194
159 195
159 196
158 197
158 198
158 199
157 200
156 201
156 202
155 203
155 204
154 205
154 206
153 207
153 208
152 209
152 210
151 211
151 212
150 213
150 214
149 215
149 216
148 217
148 218
147 219
147 220
146 221
146 222
145 223
145 224
144 225
144 226
143 227
143 228
142 229
142 230
141 231
141 232
140 233
140 234
140 235
140 236
140 237
140 238
140 239
140 240
140 241
140 242
139 243
139 244
139 245
139 246
139 247
138 248
138 249
138 250
137 251
137 252
137 253
137 254
137 255
136 256
136 257
135 258
135 259
135 260
135 261
134 262
134 263
134 264
133 265
133 266
132 267
132 268
131 269
131 270
131 271
131 272
132 273
133 273
134 274
135 275
136 276
137 277
138 277
139 278
139 279
140 280
141 281
141 282
142 282
143 283
144 284
144 285
145 286
146 287
147 288
148 289
149 290
150 291
151 292
151 293
152 294
153 295
153 296
154 297
155 298
156 299
157 300
157 301
158 302
159 302
160 303
160 304
161 305
160 306
160 307
161 308
161 309
161 310
162 310
163 311
163 312
164 313
165 314
166 315
166 316
167 317
168 318
169 318
170 319
171 320
172 321
173 322
174 323
175 324
176 324
177 325
178 326
179 326
180 327
181 327
182 328
183 329
184 330
185 330
186 331
187 332
188 332
189 333
190 333
191 334
192 335
193 336
194 336
195 337
196 337
197 338
198 338
199 339
200 340
201 341
202 341
203 342
204 342
205 343
206 343
207 344
208 344
209 344
210 345
211 346
212 346
213 346
214 347
215 348
216 348
217 349
218 350
219 350
220 350
221 351
222 351
223 352
224 352
225 353
226 354
227 354
228 355
229 356
230 357
231 357
232 358
233 358
234 359
235 360
236 360
237 361
238 362
239 362
240 363
241 363
242 364
243 364
244 364
245 364
246 365
247 365
248 366
249 366
250 366
251 367
252 367
253 367
254 368
255 368
256 368
257 368
258 369
259 369
260 369
261 370
262 370
263 370
264 371
265 371
266 371
267 372
268 372
269 372
270 372
271 373
272 373
273 373
274 373
275 374
276 374
277 374
278 374
279 374
280 375
281 375
282 375
283 376
284 376
285 376
286 376
287 377
288 377
289 377
290 378
291 378
292 378
293 378
294 379
295 379
296 379
297 380
298 380
299 380
300 381
301 381
302 381
303 381
304 382
305 382
306 382
307 382
308 382
309 382
310 382
311 382
312 383
313 383
314 383
315 383
316 383
317 383
318 383
319 383
320 383
321 383
322 383
323 383
324 383
325 383
326 383
327 383
328 383
329 382
330 382
331 382
332 382
333 382
334 382
335 382
336 382
337 381
338 381
339 381
340 381
341 381
342 381
343 381
344 380
345 380
346 380
347 380
348 380
349 380
350 379
351 379
352 379
353 379
354 379
355 379
356 378
357 378
358 378
359 378
360 378
361 378
362 378
363 377
364 377
365 377
366 377
367 376
368 376
369 376
370 376
371 375
372 375
373 375
374 375
375 375
376 374
377 374
378 374
379 374
380 374
381 373
382 373
383 373
384 372
385 372
386 372
387 371
388 371
389 371
390 371
391 370
392 370
393 370
394 369
395 369
396 368
397 368
398 368
399 367
400 367
401 367
402 367
403 366
404 366
405 365
406 365
407 365
408 364
409 364
410 364
411 364
412 363
413 363
414 363
415 362
416 362
417 361
418 361
419 361
420 360
421 360
422 360
423 360
424 359
425 359
426 358
427 358
428 358
429 357
430 357
431 357
432 357
433 356
434 355
435 355
436 355
437 354
438 354
439 354
440 353
441 353
442 352
443 352
444 351
445 351
446 350
447 350
448 349
449 349
450 348
451 348
452 347
453 347
454 347
455 346
456 346
457 345
458 345
459 344
460 344
461 343
462 343
463 342
464 342
465 342
466 342
467 341
468 341
469 340
470 340
471 339
472 339
473 338
474 338
475 337
476 337
477 336
478 336
479 336
480 335
481 335
482 334
483 334
484 333
485 333
486 332
487 331
488 331
489 330
490 330
491 329
492 328
493 328
494 328
495 327
496 327
497 326
498 325
499 325
500 325
501 324
502 324
503 323
504 322
505 322
506 321
507 320
508 320
509 320
510 319
511 318
512 318
513 317
514 316
515 316
516 315
517 315
518 314
519 314
520 314
521 313
522 312
523 312
524 311
525 310
526 310
527 309
528 309
529 308
530 307
531 306
532 305
533 305
534 304
535 304
536 303
537 303
538 302
539 301
540 300
541 300
542 299
543 298
544 297
545 296
546 295
547 295
548 294
549 294
550 294
551 294
552 293
553 292
554 291
555 290
556 289
557 289
558 288
559 287
560 287
561 286
562 285
563 285
564 284
565 284
566 284
567 283
568 282
569 281
570 281
571 280
572 279
573 278
574 278
575 277
576 277
577 276
578 275
579 274
580 274
580 273
581 272
582 272
583 271
584 270
585 269
586 269
587 268
588 267
589 266
590 265
591 265
592 264
593 263
594 263
595 262
596 261
597 261
597 260
598 259
599 258
600 257
601 256
602 256
603 255
604 255
605 254
606 253
607 253
608 252
608 251
609 250
610 249
611 249
612 248
613 248
614 247
615 246
616 246
616 245
617 244
618 244
619 243
620 243
621 242
621 241
622 240
623 239
624 239
625 238
626 237
627 236
628 236
629 235
630 235
631 234
632 234
633 234
634 233
635 233
636 232
637 232
638 231
639 231
640 231
641 230
642 230
643 230
644 229
645 229
646 229
647 229
648 228
649 228
650 228
651 227
652 227
653 227
654 227
655 226
656 226
657 225
658 225
659 225
660 224
661 224
662 224
663 224
664 224
665 223
666 223
667 222
668 222
669 222
670 222
671 221
672 221
673 221
674 221
675 220
676 220
677 219
678 219
679 219
680 219
681 219
682 218
683 217
684 217
685 216
686 216
687 216
688 216
689 216
690 216
691 216
692 215
693 215
694 215
695 214
696 214
697 214
698 213
699 213
700 212
701 212
702 211
703 211
704 210
705 209
706 208
707 208
708 207
708 206
709 205
709 204
709 203
709 202
709 201
708 200
708 199
708 198
708 197
707 196
706 197
705 197
704 197
703 197
702 197
701 197
700 197
699 196
698 196
697 196
696 196
695 197
694 197
693 198
692 197
691 197
690 198
689 198
688 198
687 198
686 198
685 198
684 198
683 198
682 198
681 198
680 198
679 198
678 198
677 199
676 199
675 199
674 199
673 199
672 199
671 200
670 200
669 200
668 200
667 200
666 201
665 201
664 201
663 201
662 201
661 201
660 201
659 201
658 202
657 202
656 202
655 202
654 202
653 202
652 202
651 202
650 203
649 203
648 203
647 203
646 203
645 203
644 203
643 203
642 203
641 203
640 203
639 203
638 203
637 203
636 203
635 203
634 203
633 203
632 203
631 203
630 202
629 202
628 201
627 201
626 200
625 200
624 199
623 199
622 198
621 197
620 197
619 196
618 195
617 194
616 194
615 193
614 192
613 191
612 190
611 190
610 189
609 188
608 187
607 187
606 186
605 185
604 184
603 184
602 183
601 183
600 182
599 181
598 180
597 180
596 179
595 179
594 178
593 177
592 176
591 176
590 175
589 175
588 174
588 173
587 173
586 172
585 171
584 171
583 171
582 170
581 169
580 169
579 168
578 167
577 167
576 166
575 165
574 165
573 164
572 164
571 163
570 162
569 162
568 161
567 160
566 160
565 159
564 159
563 158
562 158
561 157
560 157
559 156
558 156
557 155
556 155
555 154
554 153
553 153
552 152
551 152
550 151
549 150
548 150
547 150
546 149
545 149
544 148
543 148
542 147
541 147
540 146
539 145
538 145
537 144
536 144
535 143
534 143
533 142
532 142
531 141
530 141
529 141
528 140
527 140
526 139
525 139
524 138
523 138
522 138
521 137
520 137
519 136
518 135
517 135
516 135
515 134
514 134
513 134
512 133
511 133
510 133
509 132
508 132
507 131
506 131
505 131
504 130
503 130
502 129
501 129
500 128
499 128
498 127
497 127
496 127
495 127
494 126
493 126
492 126
491 125
490 125
489 124
488 124
487 124
486 124
485 123
484 123
483 122
482 122
481 122
480 121
479 121
478 120
477 120
476 120
475 119
474 119
473 119
472 118
471 118
470 118
469 117
468 117
467 117
466 117
465 116
464 116
463 116
462 115
461 115
460 115
459 115
458 114
457 114
456 114
455 114
454 113
453 113
452 113
451 113
450 112
449 112
448 112
447 111
446 111
445 111
444 111
443 110
442 110
441 110
440 110
439 109
438 109
437 109
436 109
435 109
434 108
433 108
432 108
431 108
430 107
429 107
428 107
427 107
426 107
425 106
424 106
423 106
422 106
421 106
420 105
419 105
418 105
417 105
416 105
415 105
414 105
413 104
412 104
411 104
410 104
409 104
408 104
407 104
406 104
405 103
404 104
403 104
402 103
401 103
400 103
399 103
398 103
397 103
396 103
395 103
394 103
393 103
392 103
391 103
390 103
389 103
388 103
387 102
386 102
385 102
384 102
383 102
382 102
381 102
380 102
379 102
378 102
377 101
376 101
375 101
374 101
373 101
372 101
371 101
370 101
369 101
368 101
367 101
366 101
365 101
364 101
363 101
362 101
361 101
360 101
359 101
358 101
357 101
356 100
355 100
354 100
353 100
352 101
351 101
350 100
349 100
348 100
347 100
346 100
345 100
344 100
343 100
342 100
341 100
340 100
339 100
338 100
337 100
336 99
335 99
